﻿[
  {
    "name": "Beginner",
    "defaultvalue": 0,
    "displayName": "Beginner",
    "hidden": 0,
    "description": "Finished the first level",
    "icon": "https://steamcdn-a.akamaihd.net/steamcommunity/public/images/apps/365510/2e0e18a8a3973f8617aa21f5ed67ee1a47463bad.jpg",
    "icongray": "https://steamcdn-a.akamaihd.net/steamcommunity/public/images/apps/365510/00421074090bd380c5d0a97ae8b11f413e1595aa.jpg"
  },
  {
    "name": "Initiated",
    "defaultvalue": 0,
    "displayName": "Initiated",
    "hidden": 0,
    "description": "Finished 10 levels",
    "icon": "https://steamcdn-a.akamaihd.net/steamcommunity/public/images/apps/365510/fadc51da65a5692ce2c9c02030be5c95bcfb3259.jpg",
    "icongray": "https://steamcdn-a.akamaihd.net/steamcommunity/public/images/apps/365510/1b1f1b559756e5427d7f7641742444c9ac2db071.jpg"
  },
  {
    "name": "Advanced",
    "defaultvalue": 0,
    "displayName": "Advanced",
    "hidden": 0,
    "description": "Finished 20 levels",
    "icon": "https://steamcdn-a.akamaihd.net/steamcommunity/public/images/apps/365510/b68619a9e6435b4232816f9ee49cbfac405e15af.jpg",
    "icongray": "https://steamcdn-a.akamaihd.net/steamcommunity/public/images/apps/365510/067c63589b70928df26f0886085df6899c99dd0b.jpg"
  },
  {
    "name": "SeenItAll",
    "defaultvalue": 0,
    "displayName": "Seen It All",
    "hidden": 0,
    "description": "Played at least one puzzle from each level",
    "icon": "https://steamcdn-a.akamaihd.net/steamcommunity/public/images/apps/365510/0b18951f7b4a09a3dc49ad344b940001d91ccaef.jpg",
    "icongray": "https://steamcdn-a.akamaihd.net/steamcommunity/public/images/apps/365510/31b811c1449d9ed247a014d336ecc10395c0afbf.jpg"
  },
  {
    "name": "DoneItAll",
    "defaultvalue": 0,
    "displayName": "Done It All",
    "hidden": 0,
    "description": "Finished at least one puzzle from each level",
    "icon": "https://steamcdn-a.akamaihd.net/steamcommunity/public/images/apps/365510/33ec8b671e355d9833934c3c8e491016fcb5c392.jpg",
    "icongray": "https://steamcdn-a.akamaihd.net/steamcommunity/public/images/apps/365510/45dbd116c2a1ddf286c7435ef90c29b5ebba1809.jpg"
  },
  {
    "name": "StarGazer",
    "defaultvalue": 0,
    "displayName": "Star Gazer",
    "hidden": 0,
    "description": "Earned 100 stars",
    "icon": "https://steamcdn-a.akamaihd.net/steamcommunity/public/images/apps/365510/370682ceac8d08d12b99504a1936a547a8ca7e9e.jpg",
    "icongray": "https://steamcdn-a.akamaihd.net/steamcommunity/public/images/apps/365510/d252408379b1a46175caf8ee8b87a75c7caf4ae8.jpg"
  },
  {
    "name": "StarCollector",
    "defaultvalue": 0,
    "displayName": "Star Collector",
    "hidden": 0,
    "description": "Earned 500 stars",
    "icon": "https://steamcdn-a.akamaihd.net/steamcommunity/public/images/apps/365510/cca876a520269a5496cea5a3f620d1999dbea2de.jpg",
    "icongray": "https://steamcdn-a.akamaihd.net/steamcommunity/public/images/apps/365510/9b93db5849f39f21be5c9bc2fdeb301b8f9fc6d4.jpg"
  },
  {
    "name": "Astronomer",
    "defaultvalue": 0,
    "displayName": "Astronomer",
    "hidden": 0,
    "description": "Earned 1000 stars",
    "icon": "https://steamcdn-a.akamaihd.net/steamcommunity/public/images/apps/365510/e1992d4e764b555ce9ac7f3ae553945c3f2509e4.jpg",
    "icongray": "https://steamcdn-a.akamaihd.net/steamcommunity/public/images/apps/365510/d854a53e256e537ba93e2e8fd3d942f6c7eb2c11.jpg"
  },
  {
    "name": "KeepItSimple",
    "defaultvalue": 0,
    "displayName": "Keep It Simple",
    "hidden": 0,
    "description": "Finished all Simple levels",
    "icon": "https://steamcdn-a.akamaihd.net/steamcommunity/public/images/apps/365510/826ea8ae9d244414e9fa7d494c0eb40179589cc3.jpg",
    "icongray": "https://steamcdn-a.akamaihd.net/steamcommunity/public/images/apps/365510/6f1f6fc44c02755bd680f8a58f1aea2c1a4a5600.jpg"
  },
  {
    "name": "UpsideDown",
    "defaultvalue": 0,
    "displayName": "Upside Down",
    "hidden": 0,
    "description": "Finished all Sided levels",
    "icon": "https://steamcdn-a.akamaihd.net/steamcommunity/public/images/apps/365510/2c19456ede1683cd6665d2b1fe0d294ba460faef.jpg",
    "icongray": "https://steamcdn-a.akamaihd.net/steamcommunity/public/images/apps/365510/002e249c31a3a86e6b00cbac7b185719b3a99fb9.jpg"
  },
  {
    "name": "Untangler",
    "defaultvalue": 0,
    "displayName": "Untangler",
    "hidden": 0,
    "description": "Finished all Wired levels",
    "icon": "https://steamcdn-a.akamaihd.net/steamcommunity/public/images/apps/365510/5ab6b7fa91cb3b443d462233a6e35f0a4b2de3e1.jpg",
    "icongray": "https://steamcdn-a.akamaihd.net/steamcommunity/public/images/apps/365510/a5bcdaae2f7782f48c798da27034322a6ef17601.jpg"
  },
  {
    "name": "ArtCollector",
    "defaultvalue": 0,
    "displayName": "Art Collector",
    "hidden": 0,
    "description": "Finished all Image levels",
    "icon": "https://steamcdn-a.akamaihd.net/steamcommunity/public/images/apps/365510/1900df3c51afcc5844156ec4acc26ce5a67f27db.jpg",
    "icongray": "https://steamcdn-a.akamaihd.net/steamcommunity/public/images/apps/365510/71b9c11b5fdc581081c21aa8d5ac3c66e6dea048.jpg"
  },
  {
    "name": "Flipper",
    "defaultvalue": 0,
    "displayName": "Flipper",
    "hidden": 0,
    "description": "Did 1000 flips",
    "icon": "https://steamcdn-a.akamaihd.net/steamcommunity/public/images/apps/365510/41b2e782cd75f5583b2a6bdad7a84e375b584600.jpg",
    "icongray": "https://steamcdn-a.akamaihd.net/steamcommunity/public/images/apps/365510/fc4322c114ed37dcd72b768ef73fdfe470b16bae.jpg"
  },
  {
    "name": "SecondThoughts",
    "defaultvalue": 0,
    "displayName": "Second Thoughts",
    "hidden": 0,
    "description": "Undid 1000 flips",
    "icon": "https://steamcdn-a.akamaihd.net/steamcommunity/public/images/apps/365510/a4940aacb88a96084734c16fd68af77a0b3cddbf.jpg",
    "icongray": "https://steamcdn-a.akamaihd.net/steamcommunity/public/images/apps/365510/c42c7f7cf130a52044d0ea941ae1ff81d3dceadb.jpg"
  },
  {
    "name": "SuperFlipper",
    "defaultvalue": 0,
    "displayName": "Super Flipper",
    "hidden": 0,
    "description": "Did 10000 flips",
    "icon": "https://steamcdn-a.akamaihd.net/steamcommunity/public/images/apps/365510/ee10d2d6a6fe9b2bbe2bb96a9ad9fc3779312a51.jpg",
    "icongray": "https://steamcdn-a.akamaihd.net/steamcommunity/public/images/apps/365510/26c5f372e6c7ad422e90c49fa08694113884e683.jpg"
  },
  {
    "name": "AllTheWayBack",
    "defaultvalue": 0,
    "displayName": "All The Way Back",
    "hidden": 0,
    "description": "Undid 10000 flips",
    "icon": "https://steamcdn-a.akamaihd.net/steamcommunity/public/images/apps/365510/03cf59a920b2f72fca2220df8e8af0793a124ba2.jpg",
    "icongray": "https://steamcdn-a.akamaihd.net/steamcommunity/public/images/apps/365510/c06b35ae0d9d940fa9452b93c2eb0a2cef49b1cf.jpg"
  },
  {
    "name": "Unpuzzled",
    "defaultvalue": 0,
    "displayName": "Unpuzzled",
    "hidden": 0,
    "description": "Played 1000 puzzles",
    "icon": "https://steamcdn-a.akamaihd.net/steamcommunity/public/images/apps/365510/f7c33daa5f35f08fea508cde63ff737f0b3bfc16.jpg",
    "icongray": "https://steamcdn-a.akamaihd.net/steamcommunity/public/images/apps/365510/a455b457e9ed5705a28fa6e361e93c848c452b33.jpg"
  },
  {
    "name": "RainbowWarrior",
    "defaultvalue": 0,
    "displayName": "Rainbow Warrior",
    "hidden": 0,
    "description": "Mastered the 9th level from Simple",
    "icon": "https://steamcdn-a.akamaihd.net/steamcommunity/public/images/apps/365510/e654da83001369e887adc042428b285fdf237b48.jpg",
    "icongray": "https://steamcdn-a.akamaihd.net/steamcommunity/public/images/apps/365510/1aed92d2d6331c5162dc657467093e70c5269478.jpg"
  },
  {
    "name": "Binary",
    "defaultvalue": 0,
    "displayName": "Binary",
    "hidden": 0,
    "description": "Mastered the 3rd level from Simple",
    "icon": "https://steamcdn-a.akamaihd.net/steamcommunity/public/images/apps/365510/53e701b39c6deee4fb5ce444a1711ad5831d09bb.jpg",
    "icongray": "https://steamcdn-a.akamaihd.net/steamcommunity/public/images/apps/365510/a85562bd6be2bf80df048f3ce96ad7e7f47e8f06.jpg"
  },
  {
    "name": "BackForMore",
    "defaultvalue": 0,
    "displayName": "Back For More",
    "hidden": 0,
    "description": "Played again a level in Random Puzzles Mode",
    "icon": "https://steamcdn-a.akamaihd.net/steamcommunity/public/images/apps/365510/2a3a72eec17196dc429c6e2c2066f894147328fb.jpg",
    "icongray": "https://steamcdn-a.akamaihd.net/steamcommunity/public/images/apps/365510/924a4085d34147151cbd2d0c38e6b9d4f81eec73.jpg"
  },
  {
    "name": "MasterOfSimplicity",
    "defaultvalue": 0,
    "displayName": "Master Of Simplicity",
    "hidden": 0,
    "description": "Mastered all the puzzles of the Simple type",
    "icon": "https://steamcdn-a.akamaihd.net/steamcommunity/public/images/apps/365510/8d7ede9f6a9e8e8b7ac471d757c539890bf6ad28.jpg",
    "icongray": "https://steamcdn-a.akamaihd.net/steamcommunity/public/images/apps/365510/456f14448b9cc306c0d4821a8d20d1815ee04675.jpg"
  },
  {
    "name": "MasterFromAllSides",
    "defaultvalue": 0,
    "displayName": "Master From All Sides",
    "hidden": 0,
    "description": "Mastered all the puzzles of the Sided type",
    "icon": "https://steamcdn-a.akamaihd.net/steamcommunity/public/images/apps/365510/511611d0b798be45e731e73ef09809b64aea509e.jpg",
    "icongray": "https://steamcdn-a.akamaihd.net/steamcommunity/public/images/apps/365510/43cadb9ba3625f3111286e14befa36f61aad4f8f.jpg"
  },
  {
    "name": "KnotMaster",
    "defaultvalue": 0,
    "displayName": "Knot Master",
    "hidden": 0,
    "description": "Mastered all the puzzles of the Wired type",
    "icon": "https://steamcdn-a.akamaihd.net/steamcommunity/public/images/apps/365510/8345b2bdd4de1259e706d4f08627eef3cbe8a24a.jpg",
    "icongray": "https://steamcdn-a.akamaihd.net/steamcommunity/public/images/apps/365510/bf9d234665ac0f527272bd502cbca0bba71e5064.jpg"
  },
  {
    "name": "ImageMaster",
    "defaultvalue": 0,
    "displayName": "Image Master",
    "hidden": 0,
    "description": "Mastered all the puzzles of the Image type",
    "icon": "https://steamcdn-a.akamaihd.net/steamcommunity/public/images/apps/365510/a2a1020d78d24909a6296db42e6f46e4f3b9cee2.jpg",
    "icongray": "https://steamcdn-a.akamaihd.net/steamcommunity/public/images/apps/365510/67bd4c789765ed2fe4319405ff185698d1cb9bb7.jpg"
  },
  {
    "name": "MasterOfTheUniverse",
    "defaultvalue": 0,
    "displayName": "Master Of The Universe",
    "hidden": 0,
    "description": "Mastered all puzzles and finished the game completely",
    "icon": "https://steamcdn-a.akamaihd.net/steamcommunity/public/images/apps/365510/4c27ce7dc478fc88a24665bd96dc1737e9a4395c.jpg",
    "icongray": "https://steamcdn-a.akamaihd.net/steamcommunity/public/images/apps/365510/18c56fc15ce5f1a1a08cacb7033ffa6e49d74c83.jpg"
  }
]