﻿{
  "Dlcs": {},
  "Name": "Undead Shadows",
  "AppId": "346920",
  "ImageUrl": "https://steamcdn-a.akamaihd.net/steam/apps/346920/header.jpg?t=1447368285",
  "Languages": [
    "english"
  ],
  "Platforms": {
    "windows": true,
    "mac": false,
    "linux": false
  }
}