﻿[
  {
    "name": "GameComplete",
    "defaultvalue": 0,
    "displayName": "I did it, mom!",
    "hidden": 0,
    "description": "Complete the game",
    "icon": "https://steamcdn-a.akamaihd.net/steamcommunity/public/images/apps/368290/a4819614df804eecd73b8a784c473663e5befa6e.jpg",
    "icongray": "https://steamcdn-a.akamaihd.net/steamcommunity/public/images/apps/368290/f07c4eefa0a7cb6b565d2bf611d7c24ea83b7bd0.jpg"
  },
  {
    "name": "10Deaths",
    "defaultvalue": 0,
    "displayName": "New to heaven",
    "hidden": 0,
    "description": "Die 10 times",
    "icon": "https://steamcdn-a.akamaihd.net/steamcommunity/public/images/apps/368290/0730713530d2ceb0b5f855ab35a6518dcc9e74aa.jpg",
    "icongray": "https://steamcdn-a.akamaihd.net/steamcommunity/public/images/apps/368290/f07c4eefa0a7cb6b565d2bf611d7c24ea83b7bd0.jpg"
  },
  {
    "name": "100Deaths",
    "defaultvalue": 0,
    "displayName": "Know the feeling",
    "hidden": 0,
    "description": "Die 100 times",
    "icon": "https://steamcdn-a.akamaihd.net/steamcommunity/public/images/apps/368290/e067ffd00680a4debb9ff3d48910fd97a7279eb8.jpg",
    "icongray": "https://steamcdn-a.akamaihd.net/steamcommunity/public/images/apps/368290/f07c4eefa0a7cb6b565d2bf611d7c24ea83b7bd0.jpg"
  },
  {
    "name": "1000Deaths",
    "defaultvalue": 0,
    "displayName": "Pins and needles",
    "hidden": 0,
    "description": "Die 1000 times",
    "icon": "https://steamcdn-a.akamaihd.net/steamcommunity/public/images/apps/368290/57c990d54ae77bfe685074f48081e36d54f8d124.jpg",
    "icongray": "https://steamcdn-a.akamaihd.net/steamcommunity/public/images/apps/368290/f07c4eefa0a7cb6b565d2bf611d7c24ea83b7bd0.jpg"
  },
  {
    "name": "10Resets",
    "defaultvalue": 0,
    "displayName": "A Fresh Start",
    "hidden": 0,
    "description": "Reset the level 10 times",
    "icon": "https://steamcdn-a.akamaihd.net/steamcommunity/public/images/apps/368290/f68fa282ea7f13f08221592d79d5b46f02ad592c.jpg",
    "icongray": "https://steamcdn-a.akamaihd.net/steamcommunity/public/images/apps/368290/f07c4eefa0a7cb6b565d2bf611d7c24ea83b7bd0.jpg"
  },
  {
    "name": "100Resets",
    "defaultvalue": 0,
    "displayName": "It's going well, I see",
    "hidden": 0,
    "description": "Reset the level 100 times",
    "icon": "https://steamcdn-a.akamaihd.net/steamcommunity/public/images/apps/368290/50d680a9a7f9825e05de3542b5f7147957981b03.jpg",
    "icongray": "https://steamcdn-a.akamaihd.net/steamcommunity/public/images/apps/368290/f07c4eefa0a7cb6b565d2bf611d7c24ea83b7bd0.jpg"
  },
  {
    "name": "1000Resets",
    "defaultvalue": 0,
    "displayName": "Spammer",
    "hidden": 0,
    "description": "Reset the level 1000 times",
    "icon": "https://steamcdn-a.akamaihd.net/steamcommunity/public/images/apps/368290/45954c04cfb3cb06c03bfabfd97314bca61798c0.jpg",
    "icongray": "https://steamcdn-a.akamaihd.net/steamcommunity/public/images/apps/368290/f07c4eefa0a7cb6b565d2bf611d7c24ea83b7bd0.jpg"
  },
  {
    "name": "150Lights",
    "defaultvalue": 0,
    "displayName": "An Ember",
    "hidden": 0,
    "description": "Place 150 lights in total",
    "icon": "https://steamcdn-a.akamaihd.net/steamcommunity/public/images/apps/368290/08f85c95b39eba2763c56b73dff15ee7ae3da414.jpg",
    "icongray": "https://steamcdn-a.akamaihd.net/steamcommunity/public/images/apps/368290/f07c4eefa0a7cb6b565d2bf611d7c24ea83b7bd0.jpg"
  },
  {
    "name": "300Lights",
    "defaultvalue": 0,
    "displayName": "A Flame",
    "hidden": 0,
    "description": "Place 300 lights in total",
    "icon": "https://steamcdn-a.akamaihd.net/steamcommunity/public/images/apps/368290/26d706e8d4e16107bf3ee3df835766f9f2e0dc9e.jpg",
    "icongray": "https://steamcdn-a.akamaihd.net/steamcommunity/public/images/apps/368290/f07c4eefa0a7cb6b565d2bf611d7c24ea83b7bd0.jpg"
  },
  {
    "name": "500Lights",
    "defaultvalue": 0,
    "displayName": "A Bonfire",
    "hidden": 0,
    "description": "Place 500 lights in total",
    "icon": "https://steamcdn-a.akamaihd.net/steamcommunity/public/images/apps/368290/4b796186c4ae3b86f3dc41d0d01fc5fbf11e5adf.jpg",
    "icongray": "https://steamcdn-a.akamaihd.net/steamcommunity/public/images/apps/368290/f07c4eefa0a7cb6b565d2bf611d7c24ea83b7bd0.jpg"
  },
  {
    "name": "1000Lights",
    "defaultvalue": 0,
    "displayName": "Literally Hell",
    "hidden": 0,
    "description": "Place 1000 lights in total",
    "icon": "https://steamcdn-a.akamaihd.net/steamcommunity/public/images/apps/368290/11bf1c48f1a11f42446c8616b36dbda4b3dda3c5.jpg",
    "icongray": "https://steamcdn-a.akamaihd.net/steamcommunity/public/images/apps/368290/f07c4eefa0a7cb6b565d2bf611d7c24ea83b7bd0.jpg"
  },
  {
    "name": "3000Lights",
    "defaultvalue": 0,
    "displayName": "God of Light",
    "hidden": 0,
    "description": "Place 3000 lights in total",
    "icon": "https://steamcdn-a.akamaihd.net/steamcommunity/public/images/apps/368290/b72ef8d4b209b2a90eaeb1ad74a8d026e29fdb25.jpg",
    "icongray": "https://steamcdn-a.akamaihd.net/steamcommunity/public/images/apps/368290/f07c4eefa0a7cb6b565d2bf611d7c24ea83b7bd0.jpg"
  },
  {
    "name": "500Jumps",
    "defaultvalue": 0,
    "displayName": "Hopping like a Pogo Stick",
    "hidden": 0,
    "description": "Jump 500 times",
    "icon": "https://steamcdn-a.akamaihd.net/steamcommunity/public/images/apps/368290/e148d4a39b5856be1c489d2941bcd46d0ffd7af0.jpg",
    "icongray": "https://steamcdn-a.akamaihd.net/steamcommunity/public/images/apps/368290/f07c4eefa0a7cb6b565d2bf611d7c24ea83b7bd0.jpg"
  },
  {
    "name": "1000Jumps",
    "defaultvalue": 0,
    "displayName": "Hopping like a rabbit",
    "hidden": 0,
    "description": "Jump 1000 times",
    "icon": "https://steamcdn-a.akamaihd.net/steamcommunity/public/images/apps/368290/c202c560e99c93a02170e20284bdec0462f867b0.jpg",
    "icongray": "https://steamcdn-a.akamaihd.net/steamcommunity/public/images/apps/368290/f07c4eefa0a7cb6b565d2bf611d7c24ea83b7bd0.jpg"
  },
  {
    "name": "1500Jumps",
    "defaultvalue": 0,
    "displayName": "Hopping like a kangaroo",
    "hidden": 0,
    "description": "Jump 1500 times",
    "icon": "https://steamcdn-a.akamaihd.net/steamcommunity/public/images/apps/368290/67ee116d7fa2c69da277828b263a31b987783d8d.jpg",
    "icongray": "https://steamcdn-a.akamaihd.net/steamcommunity/public/images/apps/368290/f07c4eefa0a7cb6b565d2bf611d7c24ea83b7bd0.jpg"
  },
  {
    "name": "2000Jumps",
    "defaultvalue": 0,
    "displayName": "Hopping like a spaceman",
    "hidden": 0,
    "description": "Jump 2000 times",
    "icon": "https://steamcdn-a.akamaihd.net/steamcommunity/public/images/apps/368290/0bfef82a01c104b2e547541cde996719ff335bf0.jpg",
    "icongray": "https://steamcdn-a.akamaihd.net/steamcommunity/public/images/apps/368290/f07c4eefa0a7cb6b565d2bf611d7c24ea83b7bd0.jpg"
  },
  {
    "name": "TutorialComplete",
    "defaultvalue": 0,
    "displayName": "Congrats, noob",
    "hidden": 0,
    "description": "You completed the tutorial",
    "icon": "https://steamcdn-a.akamaihd.net/steamcommunity/public/images/apps/368290/c5235addaec2592139d633d0473e0230684d8f3e.jpg",
    "icongray": "https://steamcdn-a.akamaihd.net/steamcommunity/public/images/apps/368290/f07c4eefa0a7cb6b565d2bf611d7c24ea83b7bd0.jpg"
  }
]