﻿{
  "Dlcs": {
    "622760": {
      "Name": "Battle for Orion 2 Soundtrack",
      "ImageUrl": "https://steamcdn-a.akamaihd.net/steam/apps/622760/header.jpg?t=1547526323"
    }
  },
  "Name": "Battle for Orion 2",
  "AppId": "564470",
  "ImageUrl": "https://steamcdn-a.akamaihd.net/steam/apps/564470/header.jpg?t=1547526273",
  "Languages": [
    "english"
  ],
  "Platforms": {
    "windows": true,
    "mac": true,
    "linux": true
  }
}