﻿{
  "Dlcs": {},
  "Name": "Shotgun Raiders",
  "AppId": "510330",
  "ImageUrl": "https://steamcdn-a.akamaihd.net/steam/apps/510330/header.jpg?t=1477438791",
  "Languages": [
    "english"
  ],
  "Platforms": {
    "windows": true,
    "mac": false,
    "linux": false
  }
}