﻿[
  {
    "name": "numStrategyGameVictories",
    "defaultvalue": 0,
    "displayName": "num strategy game victories"
  },
  {
    "name": "numCapturedIslands",
    "defaultvalue": 0,
    "displayName": "num captured islands"
  },
  {
    "name": "numCapturedIslandsWithoutLoad",
    "defaultvalue": 0,
    "displayName": "num captured islands without using load"
  },
  {
    "name": "numMinedOutResources",
    "defaultvalue": 0,
    "displayName": "num mined out resources"
  },
  {
    "name": "numProducedItems",
    "defaultvalue": 0,
    "displayName": "num produced items"
  },
  {
    "name": "numStrongIslandsCaptured",
    "defaultvalue": 0,
    "displayName": "num strong islands captured"
  },
  {
    "name": "numVeryStrongIslandsCaptured",
    "defaultvalue": 0,
    "displayName": "num very strong islands captured"
  },
  {
    "name": "numDeadlyIslandsCaptured",
    "defaultvalue": 0,
    "displayName": "num deadly islands captured"
  },
  {
    "name": "numDestroyedMantas",
    "defaultvalue": 0,
    "displayName": "num destroyed mantas"
  },
  {
    "name": "numDestroyedWalruses",
    "defaultvalue": 0,
    "displayName": "num destroyed walruses"
  },
  {
    "name": "numDestroyedTurrets",
    "defaultvalue": 0,
    "displayName": "num destroyed turrets"
  },
  {
    "name": "numCharacterRoadKills",
    "defaultvalue": 0,
    "displayName": "num character road kills"
  },
  {
    "name": "numWalrusKillsFromManta",
    "defaultvalue": 0,
    "displayName": "num walrus kills from manta"
  }
]