﻿{
  "Dlcs": {},
  "Name": "Montague's Mount",
  "AppId": "258950",
  "ImageUrl": "https://steamcdn-a.akamaihd.net/steam/apps/258950/header.jpg?t=1450177156",
  "Languages": [
    "english",
    "french",
    "german",
    "spanish",
    "polish",
    "portuguese",
    "russian"
  ],
  "Platforms": {
    "windows": true,
    "mac": true,
    "linux": true
  }
}