﻿{
  "Dlcs": {},
  "Name": "Magma Chamber",
  "AppId": "463240",
  "ImageUrl": "https://steamcdn-a.akamaihd.net/steam/apps/463240/header.jpg?t=1569961176",
  "Languages": [
    "english"
  ],
  "Platforms": {
    "windows": true,
    "mac": false,
    "linux": false
  }
}