﻿[
  {
    "name": "chop_count",
    "defaultvalue": 0,
    "displayName": "Chop count"
  },
  {
    "name": "death_toll",
    "defaultvalue": 0,
    "displayName": "Death toll"
  },
  {
    "name": "opponents_defeated",
    "defaultvalue": 0,
    "displayName": "Opponents defeated"
  },
  {
    "name": "online_matches_played",
    "defaultvalue": 0,
    "displayName": "Online matches played"
  },
  {
    "name": "characters_unlocked",
    "defaultvalue": 0,
    "displayName": "Characters unlocked"
  },
  {
    "name": "player_skill",
    "defaultvalue": 0,
    "displayName": "Skill"
  }
]