﻿[
  {
    "name": "Version",
    "defaultvalue": 0,
    "displayName": "Version of the Stats"
  },
  {
    "name": "MetersDrivenInPractice",
    "defaultvalue": 0,
    "displayName": "Meters Driven In Practice"
  },
  {
    "name": "MetersDrivenInQualify",
    "defaultvalue": 0,
    "displayName": "Meters Driven In Qualify"
  },
  {
    "name": "MetersDrivenInWarmup",
    "defaultvalue": 0,
    "displayName": "Meters Driven In Warmup"
  },
  {
    "name": "MetersDrivenInRace",
    "defaultvalue": 0,
    "displayName": "Meters Driven In Race"
  },
  {
    "name": "SecondsInPractice",
    "defaultvalue": 0,
    "displayName": "Seconds In Practice"
  },
  {
    "name": "SecondsInQualify",
    "defaultvalue": 0,
    "displayName": "Seconds In Qualify"
  },
  {
    "name": "SecondsInWarmup",
    "defaultvalue": 0,
    "displayName": "Seconds In Warmup"
  },
  {
    "name": "SecondsInRace",
    "defaultvalue": 0,
    "displayName": "Seconds In Race"
  },
  {
    "name": "LapsDrivenInPractice",
    "defaultvalue": 0,
    "displayName": "Laps Driven In Practice"
  },
  {
    "name": "LapsDrivenInQualify",
    "defaultvalue": 0,
    "displayName": "Laps Driven In Qualify"
  },
  {
    "name": "LapsDrivenInWarmup",
    "defaultvalue": 0,
    "displayName": "Laps Driven In Warmup"
  },
  {
    "name": "LapsDrivenInRace",
    "defaultvalue": 0,
    "displayName": "Laps Driven In Race"
  },
  {
    "name": "TopSpeedInPractice",
    "defaultvalue": 0,
    "displayName": "Top Speed In Practice"
  },
  {
    "name": "TopSpeedInQualify",
    "defaultvalue": 0,
    "displayName": "Top Speed In Qualify"
  },
  {
    "name": "TopSpeedInWarmup",
    "defaultvalue": 0,
    "displayName": "Top Speed In Warmup"
  },
  {
    "name": "TopSpeedInRace",
    "defaultvalue": 0,
    "displayName": "Top Speed In Race"
  },
  {
    "name": "PitstopsInPractice",
    "defaultvalue": 0,
    "displayName": "Pitstops In Practice"
  },
  {
    "name": "PitstopsInQualify",
    "defaultvalue": 0,
    "displayName": "Pistops In Qualify"
  },
  {
    "name": "PitstopsInWarmup",
    "defaultvalue": 0,
    "displayName": "Pitstops In Warmup"
  },
  {
    "name": "PitstopsInRace",
    "defaultvalue": 0,
    "displayName": "Pitstops In Race"
  }
]