﻿[
  {
    "name": "IO_ACHIEVEMENT_1",
    "defaultvalue": 0,
    "displayName": "Candidate for quest follower",
    "hidden": 0,
    "description": "Complete 5 quests",
    "icon": "https://steamcdn-a.akamaihd.net/steamcommunity/public/images/apps/424780/2fd8e771e301fbe416b0a1f8c71a9e88187105bf.jpg",
    "icongray": "https://steamcdn-a.akamaihd.net/steamcommunity/public/images/apps/424780/0833136e39ad534eeab8ec61a4e74a5fa1371e76.jpg"
  },
  {
    "name": "IO_ACHIEVEMENT_2",
    "defaultvalue": 0,
    "displayName": "Junior quest follower",
    "hidden": 0,
    "description": "Complete 15 quests",
    "icon": "https://steamcdn-a.akamaihd.net/steamcommunity/public/images/apps/424780/c6075923872509e4bf6a248039535776e3d5d3fa.jpg",
    "icongray": "https://steamcdn-a.akamaihd.net/steamcommunity/public/images/apps/424780/22630258453a48e042fdf6400adeaa4f83a6d0af.jpg"
  },
  {
    "name": "IO_ACHIEVEMENT_28",
    "defaultvalue": 0,
    "displayName": "Candidate for economic researcher",
    "hidden": 0,
    "description": "Build University 3",
    "icon": "https://steamcdn-a.akamaihd.net/steamcommunity/public/images/apps/424780/7b537b0cd71be04fa410debcdf277617550582f6.jpg",
    "icongray": "https://steamcdn-a.akamaihd.net/steamcommunity/public/images/apps/424780/19e1e5b21339ba2586fd6229359f33b9bbb2ef33.jpg"
  },
  {
    "name": "IO_ACHIEVEMENT_115",
    "defaultvalue": 0,
    "displayName": "Junior Archery Barracks constructor",
    "hidden": 0,
    "description": "Build 2 Shooting range barracks in a holding",
    "icon": "https://steamcdn-a.akamaihd.net/steamcommunity/public/images/apps/424780/59f067c5a44ad404c9ea4e570ceca82924db2b1d.jpg",
    "icongray": "https://steamcdn-a.akamaihd.net/steamcommunity/public/images/apps/424780/808f95e420e189981794c76079f3345230867d10.jpg"
  },
  {
    "name": "IO_ACHIEVEMENT_410",
    "defaultvalue": 0,
    "displayName": "First step towards festivals",
    "hidden": 0,
    "description": "Build level 1 of Town square",
    "icon": "https://steamcdn-a.akamaihd.net/steamcommunity/public/images/apps/424780/169df1479eba724a0edfcbbcac328c80e0347d64.jpg",
    "icongray": "https://steamcdn-a.akamaihd.net/steamcommunity/public/images/apps/424780/4f351c7b8e575b2cc9abc4d8399e5a89f0555c5f.jpg"
  },
  {
    "name": "IO_ACHIEVEMENT_415",
    "defaultvalue": 0,
    "displayName": "First step towards population growth",
    "hidden": 0,
    "description": "Research Medicine 1",
    "icon": "https://steamcdn-a.akamaihd.net/steamcommunity/public/images/apps/424780/cdff47cf50fe9bbb409317b9e9cd88af555312a3.jpg",
    "icongray": "https://steamcdn-a.akamaihd.net/steamcommunity/public/images/apps/424780/5cadcb42b7d56377cdeb08f35cbd375048f8b9fb.jpg"
  },
  {
    "name": "IO_ACHIEVEMENT_22",
    "defaultvalue": 0,
    "displayName": "Constructor wannabe",
    "hidden": 0,
    "description": "Research Architecture 3",
    "icon": "https://steamcdn-a.akamaihd.net/steamcommunity/public/images/apps/424780/b15f92c7c35a652d12810e86ef543796ae8195ae.jpg",
    "icongray": "https://steamcdn-a.akamaihd.net/steamcommunity/public/images/apps/424780/ea88c26502f51cded9789b4a3b981208cddcb2bd.jpg"
  },
  {
    "name": "IO_ACHIEVEMENT_141",
    "defaultvalue": 0,
    "displayName": "First steps in mastering espionage",
    "hidden": 0,
    "description": "Research Espionage 5",
    "icon": "https://steamcdn-a.akamaihd.net/steamcommunity/public/images/apps/424780/559ec5c67c5cd54895d45999b171599f58b00d75.jpg",
    "icongray": "https://steamcdn-a.akamaihd.net/steamcommunity/public/images/apps/424780/41c78638f402b9284f68b43edc2f2fdab09c2bad.jpg"
  },
  {
    "name": "IO_ACHIEVEMENT_180",
    "defaultvalue": 0,
    "displayName": "Junior commander of powerful archers",
    "hidden": 0,
    "description": "Research Range attack 3",
    "icon": "https://steamcdn-a.akamaihd.net/steamcommunity/public/images/apps/424780/f5859cfe74df2069680d66e3ecc5ad491780e19c.jpg",
    "icongray": "https://steamcdn-a.akamaihd.net/steamcommunity/public/images/apps/424780/b8d2a98327778632478ed20c3b98bd318e2bfada.jpg"
  },
  {
    "name": "IO_ACHIEVEMENT_188",
    "defaultvalue": 0,
    "displayName": "Junior spy trainer",
    "hidden": 0,
    "description": "Hire and mobilize 50 spies",
    "icon": "https://steamcdn-a.akamaihd.net/steamcommunity/public/images/apps/424780/da0147d51044512505a30b5e695b9aaf99f5789f.jpg",
    "icongray": "https://steamcdn-a.akamaihd.net/steamcommunity/public/images/apps/424780/07314fed1c1bbc15790358dea0f16b1f89624286.jpg"
  },
  {
    "name": "IO_ACHIEVEMENT_729",
    "defaultvalue": 0,
    "displayName": "Noble beginning",
    "hidden": 0,
    "description": "Have 6 great people in your empire",
    "icon": "https://steamcdn-a.akamaihd.net/steamcommunity/public/images/apps/424780/5feb7d55ceff7d25bc3743e82520c885482d4904.jpg",
    "icongray": "https://steamcdn-a.akamaihd.net/steamcommunity/public/images/apps/424780/d2d364d72a06ed2ce6dea32659679cbb16f0e039.jpg"
  },
  {
    "name": "IO_ACHIEVEMENT_696",
    "defaultvalue": 0,
    "displayName": "Social contacts",
    "hidden": 0,
    "description": "Write a message to a player",
    "icon": "https://steamcdn-a.akamaihd.net/steamcommunity/public/images/apps/424780/429e755767aaaa8a66aed23980fb541006b1602f.jpg",
    "icongray": "https://steamcdn-a.akamaihd.net/steamcommunity/public/images/apps/424780/a632f7eb9a57587aff1fa09158b5b75217b14ab5.jpg"
  },
  {
    "name": "IO_ACHIEVEMENT_40",
    "defaultvalue": 0,
    "displayName": "Junior pilgrim",
    "hidden": 0,
    "description": "Get 2 rewards from the casket in Temple",
    "icon": "https://steamcdn-a.akamaihd.net/steamcommunity/public/images/apps/424780/2b03d63c6efed4cf34f6487234b53fea6faa79da.jpg",
    "icongray": "https://steamcdn-a.akamaihd.net/steamcommunity/public/images/apps/424780/1d9ba21c1bb2beb16078abfd51378aee40df32ec.jpg"
  },
  {
    "name": "IO_ACHIEVEMENT_14",
    "defaultvalue": 0,
    "displayName": "Wise sovereign",
    "hidden": 0,
    "description": "Reach 10 000 net points",
    "icon": "https://steamcdn-a.akamaihd.net/steamcommunity/public/images/apps/424780/a9409c7d01227cbfe0a8fa1df5226e2d2fff32cb.jpg",
    "icongray": "https://steamcdn-a.akamaihd.net/steamcommunity/public/images/apps/424780/05c176b385735ca9cbbe11b795645a37f1eeaaee.jpg"
  },
  {
    "name": "IO_ACHIEVEMENT_747",
    "defaultvalue": 0,
    "displayName": "First steps in royal diplomacy",
    "hidden": 0,
    "description": "Enter into a dynastic marriage",
    "icon": "https://steamcdn-a.akamaihd.net/steamcommunity/public/images/apps/424780/563db8760e8434babf1eaaf1b2acc595329e031c.jpg",
    "icongray": "https://steamcdn-a.akamaihd.net/steamcommunity/public/images/apps/424780/b1fd8515dd4a6f843326ea4eaf58526dd9ee2913.jpg"
  },
  {
    "name": "IO_ACHIEVEMENT_470",
    "defaultvalue": 0,
    "displayName": "Junior sovereign of populous empire",
    "hidden": 0,
    "description": "Reach 18 000 population in the entire empire",
    "icon": "https://steamcdn-a.akamaihd.net/steamcommunity/public/images/apps/424780/f01137cfa7852839b487d8e8134aabab2d344ffa.jpg",
    "icongray": "https://steamcdn-a.akamaihd.net/steamcommunity/public/images/apps/424780/d4263148b0e60c04ca62fb2bf027e447e6d7f448.jpg"
  },
  {
    "name": "IO_ACHIEVEMENT_697",
    "defaultvalue": 0,
    "displayName": "Team player",
    "hidden": 0,
    "description": "Make an alliance or join one",
    "icon": "https://steamcdn-a.akamaihd.net/steamcommunity/public/images/apps/424780/4ad90f5fbb344cb36c8ca7b2676caabc58b51d31.jpg",
    "icongray": "https://steamcdn-a.akamaihd.net/steamcommunity/public/images/apps/424780/3477dc290f8c3450caa9dff6254587570d0f8156.jpg"
  },
  {
    "name": "IO_ACHIEVEMENT_699",
    "defaultvalue": 0,
    "displayName": "Help with supply wagons",
    "hidden": 0,
    "description": "Send from Depot station at least 5000 gold, all at once, to an ally",
    "icon": "https://steamcdn-a.akamaihd.net/steamcommunity/public/images/apps/424780/fd2eae8faf3e03b58217f3db6b3b0cfd2a2a5238.jpg",
    "icongray": "https://steamcdn-a.akamaihd.net/steamcommunity/public/images/apps/424780/b03b31ee99e9d040fcf3488fb06802b223e8503f.jpg"
  },
  {
    "name": "IO_ACHIEVEMENT_16",
    "defaultvalue": 0,
    "displayName": "Senior sovereign",
    "hidden": 0,
    "description": "Reach 50 000 net points",
    "icon": "https://steamcdn-a.akamaihd.net/steamcommunity/public/images/apps/424780/a9409c7d01227cbfe0a8fa1df5226e2d2fff32cb.jpg",
    "icongray": "https://steamcdn-a.akamaihd.net/steamcommunity/public/images/apps/424780/05c176b385735ca9cbbe11b795645a37f1eeaaee.jpg"
  },
  {
    "name": "IO_ACHIEVEMENT_17",
    "defaultvalue": 0,
    "displayName": "Experienced sovereign",
    "hidden": 0,
    "description": "Reach 100 000 net points",
    "icon": "https://steamcdn-a.akamaihd.net/steamcommunity/public/images/apps/424780/a9409c7d01227cbfe0a8fa1df5226e2d2fff32cb.jpg",
    "icongray": "https://steamcdn-a.akamaihd.net/steamcommunity/public/images/apps/424780/05c176b385735ca9cbbe11b795645a37f1eeaaee.jpg"
  },
  {
    "name": "IO_ACHIEVEMENT_495",
    "defaultvalue": 0,
    "displayName": "Junior wood seller",
    "hidden": 0,
    "description": "Sell 1000 wood",
    "icon": "https://steamcdn-a.akamaihd.net/steamcommunity/public/images/apps/424780/67dfb6b0adde21dd2ece32c5bd6b560340c71f3e.jpg",
    "icongray": "https://steamcdn-a.akamaihd.net/steamcommunity/public/images/apps/424780/f09c47cbbd06b1b94523049d7212939ab4de69b2.jpg"
  },
  {
    "name": "IO_ACHIEVEMENT_525",
    "defaultvalue": 0,
    "displayName": "First step towards territorial expansion",
    "hidden": 0,
    "description": "Take control over 2 provinces",
    "icon": "https://steamcdn-a.akamaihd.net/steamcommunity/public/images/apps/424780/ee820a1293c92ad64de7665423b2b66ac6f638ca.jpg",
    "icongray": "https://steamcdn-a.akamaihd.net/steamcommunity/public/images/apps/424780/72dfa5b3230f517f210f2518240268bae6dd0c20.jpg"
  },
  {
    "name": "IO_ACHIEVEMENT_429",
    "defaultvalue": 0,
    "displayName": "Small depositor",
    "hidden": 0,
    "description": "Research Depositing 5 and take a deposit with small interest",
    "icon": "https://steamcdn-a.akamaihd.net/steamcommunity/public/images/apps/424780/4e72594b2ee60d699f8f1f4a23d6964c9eb9c5b3.jpg",
    "icongray": "https://steamcdn-a.akamaihd.net/steamcommunity/public/images/apps/424780/d693acf4a31abc9b2e0772aaea88ac8872d9e050.jpg"
  },
  {
    "name": "IO_ACHIEVEMENT_557",
    "defaultvalue": 0,
    "displayName": "Trade post founder",
    "hidden": 0,
    "description": "Found a trading post",
    "icon": "https://steamcdn-a.akamaihd.net/steamcommunity/public/images/apps/424780/aaeea46b1f5b3e7adbc64c63b294f708363aa31f.jpg",
    "icongray": "https://steamcdn-a.akamaihd.net/steamcommunity/public/images/apps/424780/4388d579c8916f6c7cc7e54c185e38619a979b32.jpg"
  },
  {
    "name": "IO_ACHIEVEMENT_289",
    "defaultvalue": 0,
    "displayName": "Junior looter",
    "hidden": 0,
    "description": "Plunder 20000 resource in attacks on independent cities",
    "icon": "https://steamcdn-a.akamaihd.net/steamcommunity/public/images/apps/424780/cc97efd44a8a60f92627b4f04cf84920b57f9cde.jpg",
    "icongray": "https://steamcdn-a.akamaihd.net/steamcommunity/public/images/apps/424780/134b71533696dadf438dec5c39cee3751c25c524.jpg"
  },
  {
    "name": "IO_ACHIEVEMENT_208",
    "defaultvalue": 0,
    "displayName": "Fortress constructor",
    "hidden": 0,
    "description": "Build Fortress 5",
    "icon": "https://steamcdn-a.akamaihd.net/steamcommunity/public/images/apps/424780/7ee3503e2582a7575268f72a4658b84f4b6cacbd.jpg",
    "icongray": "https://steamcdn-a.akamaihd.net/steamcommunity/public/images/apps/424780/fa7d8b08143848337239cd6532ff987f14fb3add.jpg"
  },
  {
    "name": "IO_ACHIEVEMENT_269",
    "defaultvalue": 0,
    "displayName": "Master in supply wagons training",
    "hidden": 0,
    "description": "Hire 500 Supply wagons",
    "icon": "https://steamcdn-a.akamaihd.net/steamcommunity/public/images/apps/424780/b0dbabed1181d37a056c493d2e37f75545401880.jpg",
    "icongray": "https://steamcdn-a.akamaihd.net/steamcommunity/public/images/apps/424780/01d6d507e986d30ea885f8db138064aa0a18a0cd.jpg"
  },
  {
    "name": "IO_ACHIEVEMENT_302",
    "defaultvalue": 0,
    "displayName": "Junior warrior of honor",
    "hidden": 0,
    "description": "Reach Honor 40",
    "icon": "https://steamcdn-a.akamaihd.net/steamcommunity/public/images/apps/424780/71262562d521688bb5687a61cda01fd8a4fea021.jpg",
    "icongray": "https://steamcdn-a.akamaihd.net/steamcommunity/public/images/apps/424780/909d2d9f9b98091e5e47b6d1cc2eea9ecc74c578.jpg"
  },
  {
    "name": "IO_ACHIEVEMENT_749",
    "defaultvalue": 0,
    "displayName": "Skillful governor",
    "hidden": 0,
    "description": "Reach governor’s level 10",
    "icon": "https://steamcdn-a.akamaihd.net/steamcommunity/public/images/apps/424780/98dd76c868f948d0bb06735db8d23a610864d726.jpg",
    "icongray": "https://steamcdn-a.akamaihd.net/steamcommunity/public/images/apps/424780/8ea864fa7e8ee6842ba82b2aef11762bed94a7bc.jpg"
  },
  {
    "name": "IO_ACHIEVEMENT_741",
    "defaultvalue": 0,
    "displayName": "Skillful general",
    "hidden": 0,
    "description": "Reach general’s level 10",
    "icon": "https://steamcdn-a.akamaihd.net/steamcommunity/public/images/apps/424780/98871c8f7044a6ee6aad9d9d09ae9a88952f0d9e.jpg",
    "icongray": "https://steamcdn-a.akamaihd.net/steamcommunity/public/images/apps/424780/340ce7d42578a807ea45b37b6d8e9976594614d6.jpg"
  }
]