﻿{
  "Dlcs": {},
  "Name": "An Oath to the Stars",
  "AppId": "594820",
  "ImageUrl": "https://steamcdn-a.akamaihd.net/steam/apps/594820/header.jpg?t=1567188740",
  "Languages": [
    "english",
    "italian",
    "spanish",
    "japanese",
    "portuguese",
    "french",
    "german"
  ],
  "Platforms": {
    "windows": true,
    "mac": true,
    "linux": true
  }
}