﻿{
  "Dlcs": {},
  "Name": "Space Needle VR",
  "AppId": "413620",
  "ImageUrl": "https://steamcdn-a.akamaihd.net/steam/apps/413620/header.jpg?t=1541537194",
  "Languages": [
    "english"
  ],
  "Platforms": {
    "windows": true,
    "mac": false,
    "linux": false
  }
}