﻿{
  "Dlcs": {},
  "Name": "Crystal Caves",
  "AppId": "358260",
  "ImageUrl": "https://steamcdn-a.akamaihd.net/steam/apps/358260/header.jpg?t=1567627836",
  "Languages": [
    "english"
  ],
  "Platforms": {
    "windows": true,
    "mac": true,
    "linux": false
  }
}