﻿[
  {
    "name": "NEW_ACHIEVEMENT_1_1",
    "defaultvalue": 0,
    "displayName": "Welcome to the City of the Dead",
    "hidden": 1,
    "icon": "https://steamcdn-a.akamaihd.net/steamcommunity/public/images/apps/883710/61eab059da93026fdff6dd4597ee87c5939f0929.jpg",
    "icongray": "https://steamcdn-a.akamaihd.net/steamcommunity/public/images/apps/883710/16cfc49d01344913528c25ea11df2bfcd1b1f1cf.jpg"
  },
  {
    "name": "NEW_ACHIEVEMENT_1_2",
    "defaultvalue": 0,
    "displayName": "Path to the Goddess",
    "hidden": 1,
    "icon": "https://steamcdn-a.akamaihd.net/steamcommunity/public/images/apps/883710/a5d811701a15e70663870ba8090ba3edd839c2db.jpg",
    "icongray": "https://steamcdn-a.akamaihd.net/steamcommunity/public/images/apps/883710/344901183389ff857a45107de3db2392a78c54df.jpg"
  },
  {
    "name": "NEW_ACHIEVEMENT_1_3",
    "defaultvalue": 0,
    "displayName": "Never-Ending Rain",
    "hidden": 1,
    "icon": "https://steamcdn-a.akamaihd.net/steamcommunity/public/images/apps/883710/ab84120df2eba29bccf04126ae964cc78156d800.jpg",
    "icongray": "https://steamcdn-a.akamaihd.net/steamcommunity/public/images/apps/883710/daa3a064dbc6ad8df91428abef1f24381a824e91.jpg"
  },
  {
    "name": "NEW_ACHIEVEMENT_1_4",
    "defaultvalue": 0,
    "displayName": "Hack Complete",
    "hidden": 1,
    "icon": "https://steamcdn-a.akamaihd.net/steamcommunity/public/images/apps/883710/336e45714c8663d4ffe536c81a127176f520af48.jpg",
    "icongray": "https://steamcdn-a.akamaihd.net/steamcommunity/public/images/apps/883710/72e3001bd2d83d6b1d48eb84fd0bbfd707bf7d42.jpg"
  },
  {
    "name": "NEW_ACHIEVEMENT_1_5",
    "defaultvalue": 0,
    "displayName": "Hide and Seek",
    "hidden": 1,
    "icon": "https://steamcdn-a.akamaihd.net/steamcommunity/public/images/apps/883710/9d01963c061a56e39036f76183402229289eb38a.jpg",
    "icongray": "https://steamcdn-a.akamaihd.net/steamcommunity/public/images/apps/883710/68137cf8f35ea7d33adf9c030d5e43be66149bdc.jpg"
  },
  {
    "name": "NEW_ACHIEVEMENT_1_6",
    "defaultvalue": 0,
    "displayName": "A Great Need for a Shower",
    "hidden": 1,
    "icon": "https://steamcdn-a.akamaihd.net/steamcommunity/public/images/apps/883710/ab7edacd0e7478f1338800d50034798edbf94f68.jpg",
    "icongray": "https://steamcdn-a.akamaihd.net/steamcommunity/public/images/apps/883710/f70fb485b16f860001f46b601010274e6e77203f.jpg"
  },
  {
    "name": "NEW_ACHIEVEMENT_1_7",
    "defaultvalue": 0,
    "displayName": "A Hero Emerges",
    "hidden": 0,
    "description": "Complete Leon's story.",
    "icon": "https://steamcdn-a.akamaihd.net/steamcommunity/public/images/apps/883710/6fd6449a3aa8909f9760cd5899e78b00846357c3.jpg",
    "icongray": "https://steamcdn-a.akamaihd.net/steamcommunity/public/images/apps/883710/aec9f3abc08a82e4c9fef76857cc4c24a2816bf8.jpg"
  },
  {
    "name": "NEW_ACHIEVEMENT_1_8",
    "defaultvalue": 0,
    "displayName": "A Heroine Emerges",
    "hidden": 0,
    "description": "Complete Claire's story.",
    "icon": "https://steamcdn-a.akamaihd.net/steamcommunity/public/images/apps/883710/2873cc97e0f7b05fa24f09c60cc64156a170f506.jpg",
    "icongray": "https://steamcdn-a.akamaihd.net/steamcommunity/public/images/apps/883710/de5f3ab49300507accbc11e6d9e12916d38a2d13.jpg"
  },
  {
    "name": "NEW_ACHIEVEMENT_1_9",
    "defaultvalue": 0,
    "displayName": "Broken Umbrella",
    "hidden": 1,
    "icon": "https://steamcdn-a.akamaihd.net/steamcommunity/public/images/apps/883710/d8eb06689661e95b79fc5c63ac5c43269f680000.jpg",
    "icongray": "https://steamcdn-a.akamaihd.net/steamcommunity/public/images/apps/883710/8c5e050107b73a7fface6abb85313c67bced0b25.jpg"
  },
  {
    "name": "NEW_ACHIEVEMENT_1_10",
    "defaultvalue": 0,
    "displayName": "The Basics of Survival",
    "hidden": 0,
    "description": "Combine two items together.",
    "icon": "https://steamcdn-a.akamaihd.net/steamcommunity/public/images/apps/883710/d2d4e533f6e7a3cfb8542de5861ff63a60ca7bb6.jpg",
    "icongray": "https://steamcdn-a.akamaihd.net/steamcommunity/public/images/apps/883710/bfd40eddd6e65342e2e6dc4f6e2560c7da82bf93.jpg"
  },
  {
    "name": "NEW_ACHIEVEMENT_1_11",
    "defaultvalue": 0,
    "displayName": "Hip to Add Squares",
    "hidden": 0,
    "description": "Increase your inventory slots.",
    "icon": "https://steamcdn-a.akamaihd.net/steamcommunity/public/images/apps/883710/bdfb992554bb57f830f2e43e26abd3d12f9446b7.jpg",
    "icongray": "https://steamcdn-a.akamaihd.net/steamcommunity/public/images/apps/883710/349f8fda66b0c0da8408af3217349175694c6701.jpg"
  },
  {
    "name": "NEW_ACHIEVEMENT_1_12",
    "defaultvalue": 0,
    "displayName": "Customizer",
    "hidden": 0,
    "description": "Customize a weapon.",
    "icon": "https://steamcdn-a.akamaihd.net/steamcommunity/public/images/apps/883710/7d9dc81dd117b596a8ec59ea4effd8b3f2e513b0.jpg",
    "icongray": "https://steamcdn-a.akamaihd.net/steamcommunity/public/images/apps/883710/ac81d1aac560967fa91f6ecde8c6bb642481ca4f.jpg"
  },
  {
    "name": "NEW_ACHIEVEMENT_1_13",
    "defaultvalue": 0,
    "displayName": "Don't Need No Stinkin' Gun",
    "hidden": 0,
    "description": "Defeat an enemy with a knife.",
    "icon": "https://steamcdn-a.akamaihd.net/steamcommunity/public/images/apps/883710/7468ff9d6c6df2343d3d0b8f8c3344520c98d97c.jpg",
    "icongray": "https://steamcdn-a.akamaihd.net/steamcommunity/public/images/apps/883710/5109ef152d19b00fa88fbeb388b4e8f7580330d7.jpg"
  },
  {
    "name": "NEW_ACHIEVEMENT_1_14",
    "defaultvalue": 0,
    "displayName": "Eat This!",
    "hidden": 0,
    "description": "Counterattack with a sub-weapon.",
    "icon": "https://steamcdn-a.akamaihd.net/steamcommunity/public/images/apps/883710/bbd4b9a77110bb46a086094efd26e0f1ba264b35.jpg",
    "icongray": "https://steamcdn-a.akamaihd.net/steamcommunity/public/images/apps/883710/097e7946db247778282a711f9a57d3425f9c0b7e.jpg"
  },
  {
    "name": "NEW_ACHIEVEMENT_1_15",
    "defaultvalue": 0,
    "displayName": "That'll Hold 'Em",
    "hidden": 0,
    "description": "Use Wooden Boards to board up a window.",
    "icon": "https://steamcdn-a.akamaihd.net/steamcommunity/public/images/apps/883710/d7570d2b0804260afde59a5e004b1ab94dcb711f.jpg",
    "icongray": "https://steamcdn-a.akamaihd.net/steamcommunity/public/images/apps/883710/00656d288d73778ddebd815daae2788afed1d492.jpg"
  },
  {
    "name": "NEW_ACHIEVEMENT_1_16",
    "defaultvalue": 0,
    "displayName": "Vermin Extermination",
    "hidden": 0,
    "description": "Destroy a Mr. Raccoon.",
    "icon": "https://steamcdn-a.akamaihd.net/steamcommunity/public/images/apps/883710/548c76314fd3d707f1ca32857115eec89d4e4c90.jpg",
    "icongray": "https://steamcdn-a.akamaihd.net/steamcommunity/public/images/apps/883710/66adfa87b4ffbcd3f4d6a6a425399d9f08545e15.jpg"
  },
  {
    "name": "NEW_ACHIEVEMENT_1_17",
    "defaultvalue": 0,
    "displayName": "A Vault-like Mind",
    "hidden": 0,
    "description": "Open a portable safe.",
    "icon": "https://steamcdn-a.akamaihd.net/steamcommunity/public/images/apps/883710/ded65e5f81af37b77079efc0f8ec2f44be2082c2.jpg",
    "icongray": "https://steamcdn-a.akamaihd.net/steamcommunity/public/images/apps/883710/a0c881a8a273caa266584ebc3975489731240066.jpg"
  },
  {
    "name": "NEW_ACHIEVEMENT_1_18",
    "defaultvalue": 0,
    "displayName": "First Break-In",
    "hidden": 0,
    "description": "Open a dial safe.",
    "icon": "https://steamcdn-a.akamaihd.net/steamcommunity/public/images/apps/883710/be77cb4504a04bf791bca1d7c3582467cdd3f406.jpg",
    "icongray": "https://steamcdn-a.akamaihd.net/steamcommunity/public/images/apps/883710/18e5df7c9912c633d8924b3715f96e60fdc32686.jpg"
  },
  {
    "name": "NEW_ACHIEVEMENT_1_19",
    "defaultvalue": 0,
    "displayName": "Bon Appétit",
    "hidden": 0,
    "description": "Shoot the grenade you fed to an enemy.",
    "icon": "https://steamcdn-a.akamaihd.net/steamcommunity/public/images/apps/883710/c731f2e9235b77b2ec34f5e4fc885b3ee7f716c2.jpg",
    "icongray": "https://steamcdn-a.akamaihd.net/steamcommunity/public/images/apps/883710/1ff1d42c3309c53047a08350ed5ad23916e994d1.jpg"
  },
  {
    "name": "NEW_ACHIEVEMENT_1_20",
    "defaultvalue": 0,
    "displayName": "Zombie Roundup",
    "hidden": 0,
    "description": "Kill 3 enemies at once with a sub-weapon.",
    "icon": "https://steamcdn-a.akamaihd.net/steamcommunity/public/images/apps/883710/a28fe7c7cde4f333383a69ed3477f4bdfa51f5fe.jpg",
    "icongray": "https://steamcdn-a.akamaihd.net/steamcommunity/public/images/apps/883710/c7b4314571a1c614e8a2f3c29e017f13e55ca70b.jpg"
  },
  {
    "name": "NEW_ACHIEVEMENT_1_21",
    "defaultvalue": 0,
    "displayName": "Like Skeet Shooting",
    "hidden": 0,
    "description": "Shoot a zombie dog or a licker out of the air.",
    "icon": "https://steamcdn-a.akamaihd.net/steamcommunity/public/images/apps/883710/108335d6cdae6fc845edf8faf513f91fcf6c13d0.jpg",
    "icongray": "https://steamcdn-a.akamaihd.net/steamcommunity/public/images/apps/883710/72675097b49fed60864ddd72c9cdd81312059003.jpg"
  },
  {
    "name": "NEW_ACHIEVEMENT_1_22",
    "defaultvalue": 0,
    "displayName": "Keep Their Heads Ringin'",
    "hidden": 0,
    "description": "Paralyze a licker's sense of hearing.",
    "icon": "https://steamcdn-a.akamaihd.net/steamcommunity/public/images/apps/883710/f329c20eafa527a3bf8c77c3918211bcd598b91b.jpg",
    "icongray": "https://steamcdn-a.akamaihd.net/steamcommunity/public/images/apps/883710/965afd7e7c5821b3bec4b3363e304ef01cea574e.jpg"
  },
  {
    "name": "NEW_ACHIEVEMENT_1_23",
    "defaultvalue": 0,
    "displayName": "Hats Off!",
    "hidden": 0,
    "description": "Shoot Tyrant's hat off his head.",
    "icon": "https://steamcdn-a.akamaihd.net/steamcommunity/public/images/apps/883710/6479ac999f7cb4a3d10e80240d83db9c8861db14.jpg",
    "icongray": "https://steamcdn-a.akamaihd.net/steamcommunity/public/images/apps/883710/e7fce93b9307da94bf3cdec4aa330722917131dc.jpg"
  },
  {
    "name": "NEW_ACHIEVEMENT_1_24",
    "defaultvalue": 0,
    "displayName": "Gotcha!",
    "hidden": 1,
    "icon": "https://steamcdn-a.akamaihd.net/steamcommunity/public/images/apps/883710/accff53e7dbe2f97c447411908076769736935f2.jpg",
    "icongray": "https://steamcdn-a.akamaihd.net/steamcommunity/public/images/apps/883710/5e27260933ccfc6183ba611409e6c235f9ab150a.jpg"
  },
  {
    "name": "NEW_ACHIEVEMENT_1_25",
    "defaultvalue": 0,
    "displayName": "Treasure Hunter",
    "hidden": 0,
    "description": "Using the photo hints, find 2 hidden items.",
    "icon": "https://steamcdn-a.akamaihd.net/steamcommunity/public/images/apps/883710/6bc490e1107d1e2f1e781774ece1a792fd0d605a.jpg",
    "icongray": "https://steamcdn-a.akamaihd.net/steamcommunity/public/images/apps/883710/d387aef7bc4e443dd4f3c3443bfd1a51a346973d.jpg"
  },
  {
    "name": "NEW_ACHIEVEMENT_1_26",
    "defaultvalue": 0,
    "displayName": "A Waist of Space",
    "hidden": 0,
    "description": "Expand inventory slots to max.",
    "icon": "https://steamcdn-a.akamaihd.net/steamcommunity/public/images/apps/883710/829617605cf477626436968af3c5be33f25671c8.jpg",
    "icongray": "https://steamcdn-a.akamaihd.net/steamcommunity/public/images/apps/883710/0add6a31c17727ae1ebdcc6c0df771a40e8664ab.jpg"
  },
  {
    "name": "NEW_ACHIEVEMENT_1_27",
    "defaultvalue": 0,
    "displayName": "One Slick Super-spy",
    "hidden": 1,
    "icon": "https://steamcdn-a.akamaihd.net/steamcommunity/public/images/apps/883710/0d5cda069c33a54d3958ed80fc21baa4e74d477a.jpg",
    "icongray": "https://steamcdn-a.akamaihd.net/steamcommunity/public/images/apps/883710/70cf4a9bff07139ea79b950d1665a94271b8a5c1.jpg"
  },
  {
    "name": "NEW_ACHIEVEMENT_1_28",
    "defaultvalue": 0,
    "displayName": "Young Escapee",
    "hidden": 1,
    "icon": "https://steamcdn-a.akamaihd.net/steamcommunity/public/images/apps/883710/dfdbe396ad83b084385fcbcf2270623faa34184e.jpg",
    "icongray": "https://steamcdn-a.akamaihd.net/steamcommunity/public/images/apps/883710/faefbe4a5aef0a6015a114cd79fcc88ebe6ad5f1.jpg"
  },
  {
    "name": "NEW_ACHIEVEMENT_1_29",
    "defaultvalue": 0,
    "displayName": "With Time to Spare",
    "hidden": 1,
    "icon": "https://steamcdn-a.akamaihd.net/steamcommunity/public/images/apps/883710/71efb8d837583a0c3779f56773270e3d36181244.jpg",
    "icongray": "https://steamcdn-a.akamaihd.net/steamcommunity/public/images/apps/883710/b446f35861802cccb1ecf335aed58434f47e5724.jpg"
  },
  {
    "name": "NEW_ACHIEVEMENT_1_30",
    "defaultvalue": 0,
    "displayName": "In the Blink of an Eye",
    "hidden": 1,
    "icon": "https://steamcdn-a.akamaihd.net/steamcommunity/public/images/apps/883710/41c00e9b358ed649503ece2a6150b26003ed06dc.jpg",
    "icongray": "https://steamcdn-a.akamaihd.net/steamcommunity/public/images/apps/883710/b1095159ee98ebb69ebb698d4911cffbb66d509a.jpg"
  },
  {
    "name": "NEW_ACHIEVEMENT_1_31",
    "defaultvalue": 0,
    "displayName": "Lore Explorer",
    "hidden": 0,
    "description": "Read all of the files.",
    "icon": "https://steamcdn-a.akamaihd.net/steamcommunity/public/images/apps/883710/9297e09446a0c9f2ad4b4c3ac910d3127175b042.jpg",
    "icongray": "https://steamcdn-a.akamaihd.net/steamcommunity/public/images/apps/883710/b910c560e396641ff09e3b2b2629495fa13955e1.jpg"
  },
  {
    "name": "NEW_ACHIEVEMENT_1_32",
    "defaultvalue": 0,
    "displayName": "Complete Vermin Extermination",
    "hidden": 0,
    "description": "Destroy all Mr. Raccoons.",
    "icon": "https://steamcdn-a.akamaihd.net/steamcommunity/public/images/apps/883710/950ab842956f9669977c27d42f6374b317f67ed3.jpg",
    "icongray": "https://steamcdn-a.akamaihd.net/steamcommunity/public/images/apps/883710/7543a0625ae4498e329fb5ccf65c09d9fa9672e2.jpg"
  },
  {
    "name": "NEW_ACHIEVEMENT_1_33",
    "defaultvalue": 0,
    "displayName": "Master of Unlocking",
    "hidden": 0,
    "description": "Open all of the safes and locks in the game.",
    "icon": "https://steamcdn-a.akamaihd.net/steamcommunity/public/images/apps/883710/d6a6a438dbe5ff0d1c75d0299414de979ba26f32.jpg",
    "icongray": "https://steamcdn-a.akamaihd.net/steamcommunity/public/images/apps/883710/6548f725c0025e4cec6991d4df41df107972213a.jpg"
  },
  {
    "name": "NEW_ACHIEVEMENT_1_34",
    "defaultvalue": 0,
    "displayName": "Leon \"S.\" Kennedy",
    "hidden": 1,
    "icon": "https://steamcdn-a.akamaihd.net/steamcommunity/public/images/apps/883710/5512bb72e6be423c0c054c9e492319af551176fa.jpg",
    "icongray": "https://steamcdn-a.akamaihd.net/steamcommunity/public/images/apps/883710/e81a9e434fc6e8f53cf0a4abab4ee3eb36f4cbca.jpg"
  },
  {
    "name": "NEW_ACHIEVEMENT_1_35",
    "defaultvalue": 0,
    "displayName": "Sizzling Scarlet Hero",
    "hidden": 1,
    "icon": "https://steamcdn-a.akamaihd.net/steamcommunity/public/images/apps/883710/eb13234e4deee05d1a3eb59426c094cfe0efb624.jpg",
    "icongray": "https://steamcdn-a.akamaihd.net/steamcommunity/public/images/apps/883710/41aa26da4c071e0304e1909825b37f65c347d394.jpg"
  },
  {
    "name": "NEW_ACHIEVEMENT_1_36",
    "defaultvalue": 0,
    "displayName": "Hardcore Rookie",
    "hidden": 0,
    "description": "Complete Leon's story on \"Hardcore\" game mode.",
    "icon": "https://steamcdn-a.akamaihd.net/steamcommunity/public/images/apps/883710/3f3e8c925b26bf25f001735fb47156f25153cd2f.jpg",
    "icongray": "https://steamcdn-a.akamaihd.net/steamcommunity/public/images/apps/883710/d9c56351538306dc368f9a250fc119f8514aca75.jpg"
  },
  {
    "name": "NEW_ACHIEVEMENT_1_37",
    "defaultvalue": 0,
    "displayName": "Hardcore College Student",
    "hidden": 0,
    "description": "Complete Claire's story on \"Hardcore\" game mode.",
    "icon": "https://steamcdn-a.akamaihd.net/steamcommunity/public/images/apps/883710/f49b48aad16e4c04e5bac039384382b437dc9f8d.jpg",
    "icongray": "https://steamcdn-a.akamaihd.net/steamcommunity/public/images/apps/883710/4f0e0ef7c51c05d55bd4196bbb35417d7e709181.jpg"
  },
  {
    "name": "NEW_ACHIEVEMENT_1_38",
    "defaultvalue": 0,
    "displayName": "Frugalist",
    "hidden": 0,
    "description": "Complete the game without using a recovery item.",
    "icon": "https://steamcdn-a.akamaihd.net/steamcommunity/public/images/apps/883710/72a9c3e37a3ee233d657a92dcca035cf2b955cac.jpg",
    "icongray": "https://steamcdn-a.akamaihd.net/steamcommunity/public/images/apps/883710/bfba97631e333d538db38113a82a4b90716112f4.jpg"
  },
  {
    "name": "NEW_ACHIEVEMENT_1_39",
    "defaultvalue": 0,
    "displayName": "Minimalist",
    "hidden": 0,
    "description": "Clear the game without opening the item box.",
    "icon": "https://steamcdn-a.akamaihd.net/steamcommunity/public/images/apps/883710/babb5dd99fb2ddb5220d5b37397d573e54d83f0d.jpg",
    "icongray": "https://steamcdn-a.akamaihd.net/steamcommunity/public/images/apps/883710/e2fdda8b697cd92c82f44bd7472f5f9ab51e6ff4.jpg"
  },
  {
    "name": "NEW_ACHIEVEMENT_1_40",
    "defaultvalue": 0,
    "displayName": "A Small Carbon Footprint",
    "hidden": 0,
    "description": "Take 14000 steps or fewer in one playthrough.",
    "icon": "https://steamcdn-a.akamaihd.net/steamcommunity/public/images/apps/883710/8b7c1834f8eb6b25d53cfab4ff6ae7b117821ea6.jpg",
    "icongray": "https://steamcdn-a.akamaihd.net/steamcommunity/public/images/apps/883710/af08b9421fc2af325aa702174d87180b0810aa10.jpg"
  },
  {
    "name": "NEW_ACHIEVEMENT_1_41",
    "defaultvalue": 0,
    "displayName": "Grim Reaper",
    "hidden": 1,
    "icon": "https://steamcdn-a.akamaihd.net/steamcommunity/public/images/apps/883710/d91350129de16ad6c5b2161bfcb5c49fbb1324b8.jpg",
    "icongray": "https://steamcdn-a.akamaihd.net/steamcommunity/public/images/apps/883710/aedad9eaf7c9dfaadafc2abab3cdd5d4742a5c69.jpg"
  },
  {
    "name": "NEW_ACHIEVEMENT_1_42",
    "defaultvalue": 0,
    "displayName": "Hell of a Sheriff",
    "hidden": 1,
    "icon": "https://steamcdn-a.akamaihd.net/steamcommunity/public/images/apps/883710/90310066ed37e94d8b7fe95e52244060690bf58a.jpg",
    "icongray": "https://steamcdn-a.akamaihd.net/steamcommunity/public/images/apps/883710/85369651e191f64f3163877a08bbbef430b3e97d.jpg"
  },
  {
    "name": "NEW_ACHIEVEMENT_1_43",
    "defaultvalue": 0,
    "displayName": "Got 'Em",
    "hidden": 0,
    "description": "Destroy all Mr. Raccoons hidden in The Ghost Survivors mode.",
    "icon": "https://steamcdn-a.akamaihd.net/steamcommunity/public/images/apps/883710/939c1dddd3582d05e6dee2881dad587c88ef87c3.jpg",
    "icongray": "https://steamcdn-a.akamaihd.net/steamcommunity/public/images/apps/883710/9ae15224c7efbffa4d4c51648e2a51628f76ee05.jpg"
  },
  {
    "name": "NEW_ACHIEVEMENT_1_44",
    "defaultvalue": 0,
    "displayName": "Chasing Jill",
    "hidden": 0,
    "description": "Read a letter left behind by Jill.",
    "icon": "https://steamcdn-a.akamaihd.net/steamcommunity/public/images/apps/883710/98d9495184eb012891ca6d25064ae9a5bcb5956d.jpg",
    "icongray": "https://steamcdn-a.akamaihd.net/steamcommunity/public/images/apps/883710/7957f02f3bf90479ac3425c86de117764a67a6c9.jpg"
  }
]