﻿{
  "Dlcs": {},
  "Name": "Infect and Destroy",
  "AppId": "305660",
  "ImageUrl": "https://steamcdn-a.akamaihd.net/steam/apps/305660/header.jpg?t=1447362148",
  "Languages": [
    "english"
  ],
  "Platforms": {
    "windows": true,
    "mac": false,
    "linux": true
  }
}