﻿{
  "Dlcs": {},
  "Name": "Ghostdream",
  "AppId": "545800",
  "ImageUrl": "https://steamcdn-a.akamaihd.net/steam/apps/545800/header.jpg?t=1568802628",
  "Languages": [
    "english"
  ],
  "Platforms": {
    "windows": true,
    "mac": false,
    "linux": false
  }
}