﻿{
  "Dlcs": {},
  "Name": "Plight",
  "AppId": "680730",
  "ImageUrl": "https://steamcdn-a.akamaihd.net/steam/apps/680730/header.jpg?t=1517593846",
  "Languages": [
    "english"
  ],
  "Platforms": {
    "windows": true,
    "mac": false,
    "linux": false
  }
}