﻿[
  {
    "name": "stat_2",
    "defaultvalue": 0,
    "displayName": "Rage Points"
  },
  {
    "name": "stat_3",
    "defaultvalue": 0,
    "displayName": "User Level"
  },
  {
    "name": "stat_4",
    "defaultvalue": 10,
    "displayName": "Rank"
  }
]