﻿{
  "Dlcs": {},
  "Name": "The Directed",
  "AppId": "781670",
  "ImageUrl": "https://steamcdn-a.akamaihd.net/steam/apps/781670/header.jpg?t=1540238570",
  "Languages": [
    "english"
  ],
  "Platforms": {
    "windows": true,
    "mac": false,
    "linux": false
  }
}