﻿{
  "Dlcs": {},
  "Name": "The Breeding: The Fog",
  "AppId": "744440",
  "ImageUrl": "https://steamcdn-a.akamaihd.net/steam/apps/744440/header.jpg?t=1512155890",
  "Languages": [
    "english",
    "french",
    "italian",
    "german",
    "spanish",
    "japanese",
    "polish",
    "portuguese",
    "russian",
    "schinese",
    "turkish"
  ],
  "Platforms": {
    "windows": true,
    "mac": false,
    "linux": false
  }
}