﻿[
  {
    "name": "CAMPAIGN_LEVELS_COMPLETED",
    "defaultvalue": 0,
    "displayName": "Campaign Levels Completed"
  },
  {
    "name": "SKIRMISH_MATCHES_WON",
    "defaultvalue": 0,
    "displayName": "Skirmish Matches Played"
  },
  {
    "name": "MULTIPLAYER_MATCHES_WON",
    "defaultvalue": 0,
    "displayName": "Multiplayer Matches Played"
  }
]