﻿{
  "Dlcs": {
    "492640": {
      "Name": "Legends of Callasia - Full Game",
      "ImageUrl": "https://steamcdn-a.akamaihd.net/steam/apps/492640/header.jpg?t=1483430845"
    },
    "543090": {
      "Name": "Legends of Callasia: The Stoneborne",
      "ImageUrl": "https://steamcdn-a.akamaihd.net/steam/apps/543090/header.jpg?t=1478596539"
    }
  },
  "Name": "Legends of Callasia",
  "AppId": "438920",
  "ImageUrl": "https://steamcdn-a.akamaihd.net/steam/apps/438920/header.jpg?t=1525438364",
  "Languages": [
    "english"
  ],
  "Platforms": {
    "windows": true,
    "mac": true,
    "linux": false
  }
}