﻿{
  "Dlcs": {},
  "Name": "Virtual Foosball",
  "AppId": "840580",
  "ImageUrl": "https://steamcdn-a.akamaihd.net/steam/apps/840580/header.jpg?t=1584367157",
  "Languages": [
    "english"
  ],
  "Platforms": {
    "windows": true,
    "mac": false,
    "linux": false
  }
}