﻿[
  {
    "name": "ERA_LeavingHome",
    "defaultvalue": 0,
    "displayName": "Leaving Home",
    "hidden": 0,
    "description": "Finish the Whitehouse Prologue on Normal",
    "icon": "https://steamcdn-a.akamaihd.net/steamcommunity/public/images/apps/353190/46e4cab0c9a6bb4cd51e923ea1ed8310c28849c7.jpg",
    "icongray": "https://steamcdn-a.akamaihd.net/steamcommunity/public/images/apps/353190/83e637ea85f20ff14fe28bafc40526c78a0bfd34.jpg"
  },
  {
    "name": "ERA_LeavingHomeHard",
    "defaultvalue": 0,
    "displayName": "Leaving Home (Hard)",
    "hidden": 0,
    "description": "Finish the Whitehouse Prologue on Hard",
    "icon": "https://steamcdn-a.akamaihd.net/steamcommunity/public/images/apps/353190/c5d302c47ca9255ba599293c289300a364d07e4c.jpg",
    "icongray": "https://steamcdn-a.akamaihd.net/steamcommunity/public/images/apps/353190/83e637ea85f20ff14fe28bafc40526c78a0bfd34.jpg"
  },
  {
    "name": "ERA_OutoftheSilentPlanet",
    "defaultvalue": 0,
    "displayName": "Out of the Silent Planet",
    "hidden": 0,
    "description": "Finish Episode 1 on Normal",
    "icon": "https://steamcdn-a.akamaihd.net/steamcommunity/public/images/apps/353190/bcb3526077cbe37478584eaddea0f94bace5a05c.jpg",
    "icongray": "https://steamcdn-a.akamaihd.net/steamcommunity/public/images/apps/353190/83e637ea85f20ff14fe28bafc40526c78a0bfd34.jpg"
  },
  {
    "name": "ERA_OutoftheSilentPlanetHard",
    "defaultvalue": 0,
    "displayName": "Out of the Silent Planet (Hard)",
    "hidden": 0,
    "description": "Finish Episode 1 on Hard",
    "icon": "https://steamcdn-a.akamaihd.net/steamcommunity/public/images/apps/353190/997d8ca9c6bdec1d8ff12aaea54c2d1095b2903c.jpg",
    "icongray": "https://steamcdn-a.akamaihd.net/steamcommunity/public/images/apps/353190/83e637ea85f20ff14fe28bafc40526c78a0bfd34.jpg"
  },
  {
    "name": "ERA_IceandFire",
    "defaultvalue": 0,
    "displayName": "Ice and Fire",
    "hidden": 0,
    "description": "Finish Episode 2 on Normal",
    "icon": "https://steamcdn-a.akamaihd.net/steamcommunity/public/images/apps/353190/c98e5f995f8d7b9c9247b3c04e0ea4c21fff74c1.jpg",
    "icongray": "https://steamcdn-a.akamaihd.net/steamcommunity/public/images/apps/353190/83e637ea85f20ff14fe28bafc40526c78a0bfd34.jpg"
  },
  {
    "name": "ERA_IceandFireHard",
    "defaultvalue": 0,
    "displayName": "Ice and Fire (Hard)",
    "hidden": 0,
    "description": "Finish Episode 2 on Hard",
    "icon": "https://steamcdn-a.akamaihd.net/steamcommunity/public/images/apps/353190/0d4150c426750bec771d0e3f6928fc9f507d7b42.jpg",
    "icongray": "https://steamcdn-a.akamaihd.net/steamcommunity/public/images/apps/353190/83e637ea85f20ff14fe28bafc40526c78a0bfd34.jpg"
  },
  {
    "name": "ERA_TheFinalFrontier",
    "defaultvalue": 0,
    "displayName": "The Final Frontier",
    "hidden": 0,
    "description": "Finish Episode 3 on Normal",
    "icon": "https://steamcdn-a.akamaihd.net/steamcommunity/public/images/apps/353190/276b4bc51fe6b2d6de7c5bf61b78256f1187f916.jpg",
    "icongray": "https://steamcdn-a.akamaihd.net/steamcommunity/public/images/apps/353190/83e637ea85f20ff14fe28bafc40526c78a0bfd34.jpg"
  },
  {
    "name": "ERA_TheFinalFrontierHard",
    "defaultvalue": 0,
    "displayName": "The Final Frontier (Hard)",
    "hidden": 0,
    "description": "Finish Episode 3 on Hard",
    "icon": "https://steamcdn-a.akamaihd.net/steamcommunity/public/images/apps/353190/457fc015aecdd42acc801e6cea5a33eb025650cf.jpg",
    "icongray": "https://steamcdn-a.akamaihd.net/steamcommunity/public/images/apps/353190/83e637ea85f20ff14fe28bafc40526c78a0bfd34.jpg"
  },
  {
    "name": "ERA_FamilyReunion",
    "defaultvalue": 0,
    "displayName": "Family Reunion",
    "hidden": 0,
    "description": "Reunite with General Holloway",
    "icon": "https://steamcdn-a.akamaihd.net/steamcommunity/public/images/apps/353190/0209b864030ba166a95852c6d3eabb772bb46912.jpg",
    "icongray": "https://steamcdn-a.akamaihd.net/steamcommunity/public/images/apps/353190/83e637ea85f20ff14fe28bafc40526c78a0bfd34.jpg"
  },
  {
    "name": "ERA_Cadet",
    "defaultvalue": 0,
    "displayName": "Cadet",
    "hidden": 0,
    "description": "Reach Level 10",
    "icon": "https://steamcdn-a.akamaihd.net/steamcommunity/public/images/apps/353190/50b279c6ecaba4ad742ee6fa1dea1028d217e2f7.jpg",
    "icongray": "https://steamcdn-a.akamaihd.net/steamcommunity/public/images/apps/353190/83e637ea85f20ff14fe28bafc40526c78a0bfd34.jpg"
  },
  {
    "name": "ERA_Lieutenant",
    "defaultvalue": 0,
    "displayName": "Lieutenant",
    "hidden": 0,
    "description": "Reach Level 20",
    "icon": "https://steamcdn-a.akamaihd.net/steamcommunity/public/images/apps/353190/b3c331d94a929cbe6e25a4a9a94932fbe3db844c.jpg",
    "icongray": "https://steamcdn-a.akamaihd.net/steamcommunity/public/images/apps/353190/83e637ea85f20ff14fe28bafc40526c78a0bfd34.jpg"
  },
  {
    "name": "ERA_General",
    "defaultvalue": 0,
    "displayName": "General",
    "hidden": 0,
    "description": "Reach Level 30",
    "icon": "https://steamcdn-a.akamaihd.net/steamcommunity/public/images/apps/353190/c440e67c485330000a73502a932523b87d4e90f9.jpg",
    "icongray": "https://steamcdn-a.akamaihd.net/steamcommunity/public/images/apps/353190/83e637ea85f20ff14fe28bafc40526c78a0bfd34.jpg"
  },
  {
    "name": "ERA_Fromheretoeternety",
    "defaultvalue": 0,
    "displayName": "From here to eternity",
    "hidden": 0,
    "description": "Reached Level 5 without dying once",
    "icon": "https://steamcdn-a.akamaihd.net/steamcommunity/public/images/apps/353190/5840dc8a556ae42e3508ae5344dc7dee34b367c8.jpg",
    "icongray": "https://steamcdn-a.akamaihd.net/steamcommunity/public/images/apps/353190/83e637ea85f20ff14fe28bafc40526c78a0bfd34.jpg"
  },
  {
    "name": "ERA_DaddysCreditcard",
    "defaultvalue": 0,
    "displayName": "Daddy`s Creditcard",
    "hidden": 0,
    "description": "Buy each shop item at least once",
    "icon": "https://steamcdn-a.akamaihd.net/steamcommunity/public/images/apps/353190/b5cec70dcca76304fddc520f88bfd59cabbd5a12.jpg",
    "icongray": "https://steamcdn-a.akamaihd.net/steamcommunity/public/images/apps/353190/83e637ea85f20ff14fe28bafc40526c78a0bfd34.jpg"
  },
  {
    "name": "ERA_InvadersMustDie",
    "defaultvalue": 0,
    "displayName": "Invaders Must Die",
    "hidden": 0,
    "description": "Kill 100 enemies",
    "icon": "https://steamcdn-a.akamaihd.net/steamcommunity/public/images/apps/353190/b44353bf50a222cc0e6fe3acc70d3b1449136053.jpg",
    "icongray": "https://steamcdn-a.akamaihd.net/steamcommunity/public/images/apps/353190/83e637ea85f20ff14fe28bafc40526c78a0bfd34.jpg"
  },
  {
    "name": "ERA_PartTimeJob",
    "defaultvalue": 0,
    "displayName": "Part-Time Job",
    "hidden": 0,
    "description": "Finish all subquests",
    "icon": "https://steamcdn-a.akamaihd.net/steamcommunity/public/images/apps/353190/409f1f6a133c7b31504829bc155e2bb999c228ab.jpg",
    "icongray": "https://steamcdn-a.akamaihd.net/steamcommunity/public/images/apps/353190/83e637ea85f20ff14fe28bafc40526c78a0bfd34.jpg"
  },
  {
    "name": "ERA_UpTheIrons",
    "defaultvalue": 0,
    "displayName": "Up the Ions",
    "hidden": 0,
    "description": "Kill 50 enemies with the Ion Maiden",
    "icon": "https://steamcdn-a.akamaihd.net/steamcommunity/public/images/apps/353190/22b385cbde81119f2e159048c77368cd8136a5ba.jpg",
    "icongray": "https://steamcdn-a.akamaihd.net/steamcommunity/public/images/apps/353190/83e637ea85f20ff14fe28bafc40526c78a0bfd34.jpg"
  },
  {
    "name": "ERA_InsectRepellent",
    "defaultvalue": 0,
    "displayName": "Insect Repellent",
    "hidden": 0,
    "description": "Killed 50 insects",
    "icon": "https://steamcdn-a.akamaihd.net/steamcommunity/public/images/apps/353190/c5cd1729f53804c8485d249c5bcb815eb2c4af1f.jpg",
    "icongray": "https://steamcdn-a.akamaihd.net/steamcommunity/public/images/apps/353190/83e637ea85f20ff14fe28bafc40526c78a0bfd34.jpg"
  },
  {
    "name": "ERA_Ballbreaker",
    "defaultvalue": 0,
    "displayName": "Ballbreaker",
    "hidden": 0,
    "description": "Kill 10 enemies with the mighty fist",
    "icon": "https://steamcdn-a.akamaihd.net/steamcommunity/public/images/apps/353190/aa976a758b877748c7473c68a3b73200b5c2d559.jpg",
    "icongray": "https://steamcdn-a.akamaihd.net/steamcommunity/public/images/apps/353190/83e637ea85f20ff14fe28bafc40526c78a0bfd34.jpg"
  },
  {
    "name": "ERA_FullStrike",
    "defaultvalue": 0,
    "displayName": "Full Strike",
    "hidden": 0,
    "description": "Kill 10 enemies with the bowling bomb",
    "icon": "https://steamcdn-a.akamaihd.net/steamcommunity/public/images/apps/353190/8a1433730107a6bbf9aaa1c6ca9de4e479a4955a.jpg",
    "icongray": "https://steamcdn-a.akamaihd.net/steamcommunity/public/images/apps/353190/83e637ea85f20ff14fe28bafc40526c78a0bfd34.jpg"
  },
  {
    "name": "ERA_Powerslave",
    "defaultvalue": 0,
    "displayName": "Powerslave",
    "hidden": 0,
    "description": "Kill 10 enemies with powers",
    "icon": "https://steamcdn-a.akamaihd.net/steamcommunity/public/images/apps/353190/accbb2ac4f965a0db72a6dc938a8dcf9f0c1179b.jpg",
    "icongray": "https://steamcdn-a.akamaihd.net/steamcommunity/public/images/apps/353190/83e637ea85f20ff14fe28bafc40526c78a0bfd34.jpg"
  },
  {
    "name": "ERA_MotherofMercy",
    "defaultvalue": 0,
    "displayName": "Mother of Mercy",
    "hidden": 0,
    "description": "Kill 10 enemies with humiliation moves",
    "icon": "https://steamcdn-a.akamaihd.net/steamcommunity/public/images/apps/353190/9dceb6210475acb5bbde7d348607154d1aa1b662.jpg",
    "icongray": "https://steamcdn-a.akamaihd.net/steamcommunity/public/images/apps/353190/83e637ea85f20ff14fe28bafc40526c78a0bfd34.jpg"
  },
  {
    "name": "ERA_WithALittleHelp",
    "defaultvalue": 0,
    "displayName": "With a little help",
    "hidden": 0,
    "description": "Used Amiga to find a secret area",
    "icon": "https://steamcdn-a.akamaihd.net/steamcommunity/public/images/apps/353190/86ee4f27d8be539b78e81e01501936303c12a0a4.jpg",
    "icongray": "https://steamcdn-a.akamaihd.net/steamcommunity/public/images/apps/353190/83e637ea85f20ff14fe28bafc40526c78a0bfd34.jpg"
  },
  {
    "name": "ERA_Horder",
    "defaultvalue": 0,
    "displayName": "Hoarder",
    "hidden": 0,
    "description": "Collect 50000 KY",
    "icon": "https://steamcdn-a.akamaihd.net/steamcommunity/public/images/apps/353190/661075c829eb7b851157b4e9c4fe3127aff99bd7.jpg",
    "icongray": "https://steamcdn-a.akamaihd.net/steamcommunity/public/images/apps/353190/83e637ea85f20ff14fe28bafc40526c78a0bfd34.jpg"
  },
  {
    "name": "ERA_ThisIsntDarkSouls",
    "defaultvalue": 0,
    "displayName": "This isn`t Dark Souls!",
    "hidden": 0,
    "description": "Died 50 times",
    "icon": "https://steamcdn-a.akamaihd.net/steamcommunity/public/images/apps/353190/201b43d24159558338dde954de8fce19e576aab1.jpg",
    "icongray": "https://steamcdn-a.akamaihd.net/steamcommunity/public/images/apps/353190/83e637ea85f20ff14fe28bafc40526c78a0bfd34.jpg"
  },
  {
    "name": "ERA_DiedTrying",
    "defaultvalue": 0,
    "displayName": "Died Trying",
    "hidden": 0,
    "description": "Killed yourself with the bowlingbomb",
    "icon": "https://steamcdn-a.akamaihd.net/steamcommunity/public/images/apps/353190/99da010f39759260c64ba2062283755ccaeea635.jpg",
    "icongray": "https://steamcdn-a.akamaihd.net/steamcommunity/public/images/apps/353190/83e637ea85f20ff14fe28bafc40526c78a0bfd34.jpg"
  },
  {
    "name": "ERA_SuperBestFriends",
    "defaultvalue": 0,
    "displayName": "Super Best Friends",
    "hidden": 0,
    "description": "Killed 50 enemies with amiga",
    "icon": "https://steamcdn-a.akamaihd.net/steamcommunity/public/images/apps/353190/eb33c2d01abd9ca434bcf1977ac8e9789e0f3682.jpg",
    "icongray": "https://steamcdn-a.akamaihd.net/steamcommunity/public/images/apps/353190/83e637ea85f20ff14fe28bafc40526c78a0bfd34.jpg"
  },
  {
    "name": "ERA_WhatKilledTheDinosaurs",
    "defaultvalue": 0,
    "displayName": "What killed the dinosaurs?",
    "hidden": 0,
    "description": "Used all heat generators",
    "icon": "https://steamcdn-a.akamaihd.net/steamcommunity/public/images/apps/353190/41b09a56b2f6aa5356dd8492172db595473d52e5.jpg",
    "icongray": "https://steamcdn-a.akamaihd.net/steamcommunity/public/images/apps/353190/83e637ea85f20ff14fe28bafc40526c78a0bfd34.jpg"
  },
  {
    "name": "ERA_Gottacatchthemall",
    "defaultvalue": 0,
    "displayName": "Gotta catch them all",
    "hidden": 0,
    "description": "Collected all artifacts",
    "icon": "https://steamcdn-a.akamaihd.net/steamcommunity/public/images/apps/353190/f4c67da4d2c1a759b7b4d07e91732fc1570c572c.jpg",
    "icongray": "https://steamcdn-a.akamaihd.net/steamcommunity/public/images/apps/353190/83e637ea85f20ff14fe28bafc40526c78a0bfd34.jpg"
  },
  {
    "name": "ERA_StraightEdge",
    "defaultvalue": 0,
    "displayName": "Straight Edge",
    "hidden": 0,
    "description": "Completed the game once without using any powerup",
    "icon": "https://steamcdn-a.akamaihd.net/steamcommunity/public/images/apps/353190/d1a72251b482717173f0eb0492645540e42b1682.jpg",
    "icongray": "https://steamcdn-a.akamaihd.net/steamcommunity/public/images/apps/353190/83e637ea85f20ff14fe28bafc40526c78a0bfd34.jpg"
  },
  {
    "name": "ERA_HealthyDiet",
    "defaultvalue": 0,
    "displayName": "Healthy Diet",
    "hidden": 0,
    "description": "Raise Vitality to the maximum level",
    "icon": "https://steamcdn-a.akamaihd.net/steamcommunity/public/images/apps/353190/4555ebbbd89d5e192a871a53332413497f553a4d.jpg",
    "icongray": "https://steamcdn-a.akamaihd.net/steamcommunity/public/images/apps/353190/83e637ea85f20ff14fe28bafc40526c78a0bfd34.jpg"
  },
  {
    "name": "ERA_Comeatmebro",
    "defaultvalue": 0,
    "displayName": "Come at me, bro!",
    "hidden": 0,
    "description": "Raise Defense to the maximum level",
    "icon": "https://steamcdn-a.akamaihd.net/steamcommunity/public/images/apps/353190/dc59a9fae936d3f7db23e9a063777036a2ffd07b.jpg",
    "icongray": "https://steamcdn-a.akamaihd.net/steamcommunity/public/images/apps/353190/83e637ea85f20ff14fe28bafc40526c78a0bfd34.jpg"
  },
  {
    "name": "ERA_Egomaniac",
    "defaultvalue": 0,
    "displayName": "Energy Boost",
    "hidden": 0,
    "description": "Raise Energy to the maximum level",
    "icon": "https://steamcdn-a.akamaihd.net/steamcommunity/public/images/apps/353190/cd0aa9887802ac9be53e8fee04c72fc3c8ac6e8b.jpg",
    "icongray": "https://steamcdn-a.akamaihd.net/steamcommunity/public/images/apps/353190/83e637ea85f20ff14fe28bafc40526c78a0bfd34.jpg"
  },
  {
    "name": "ERA_Gunslinger",
    "defaultvalue": 0,
    "displayName": "Gunslinger",
    "hidden": 0,
    "description": "Raise one of the weapons to the maximum level",
    "icon": "https://steamcdn-a.akamaihd.net/steamcommunity/public/images/apps/353190/2d7f24b0dbaf11afe0dc5558893ad4224ef8f2c2.jpg",
    "icongray": "https://steamcdn-a.akamaihd.net/steamcommunity/public/images/apps/353190/83e637ea85f20ff14fe28bafc40526c78a0bfd34.jpg"
  },
  {
    "name": "ERA_KillEmAll",
    "defaultvalue": 0,
    "displayName": "Kill `Em All!",
    "hidden": 0,
    "description": "Complete all Heskel Challenges",
    "icon": "https://steamcdn-a.akamaihd.net/steamcommunity/public/images/apps/353190/686bcfe5c67cb1b2f426b25de28f17baed4cb3cf.jpg",
    "icongray": "https://steamcdn-a.akamaihd.net/steamcommunity/public/images/apps/353190/83e637ea85f20ff14fe28bafc40526c78a0bfd34.jpg"
  },
  {
    "name": "ERA_MemoryRemains",
    "defaultvalue": 0,
    "displayName": "Memory Remains",
    "hidden": 0,
    "description": "Find all Datalogs",
    "icon": "https://steamcdn-a.akamaihd.net/steamcommunity/public/images/apps/353190/c21eb5879024a947e2eaaec170cd36d493a5b6e6.jpg",
    "icongray": "https://steamcdn-a.akamaihd.net/steamcommunity/public/images/apps/353190/83e637ea85f20ff14fe28bafc40526c78a0bfd34.jpg"
  },
  {
    "name": "ERA_SteroidBurst",
    "defaultvalue": 0,
    "displayName": "Steroid Burst",
    "hidden": 0,
    "description": "Use 10 Power Enhancers",
    "icon": "https://steamcdn-a.akamaihd.net/steamcommunity/public/images/apps/353190/231d4a7f02e8c991cbcad87e1297a7831e7382ba.jpg",
    "icongray": "https://steamcdn-a.akamaihd.net/steamcommunity/public/images/apps/353190/83e637ea85f20ff14fe28bafc40526c78a0bfd34.jpg"
  },
  {
    "name": "ERA_Itsatrap",
    "defaultvalue": 0,
    "displayName": "It`s a trap!",
    "hidden": 0,
    "description": "Distract 5 enemies with the holo bombshell",
    "icon": "https://steamcdn-a.akamaihd.net/steamcommunity/public/images/apps/353190/bd079dc23ec2fde2fd58e73b8bbfeabe60dad2d7.jpg",
    "icongray": "https://steamcdn-a.akamaihd.net/steamcommunity/public/images/apps/353190/83e637ea85f20ff14fe28bafc40526c78a0bfd34.jpg"
  },
  {
    "name": "ERA_NothingLeft",
    "defaultvalue": 0,
    "displayName": "Nothing left",
    "hidden": 0,
    "description": "Collect all other trophies",
    "icon": "https://steamcdn-a.akamaihd.net/steamcommunity/public/images/apps/353190/1111587f382c5e1676dddcba7a5db6e470a78d99.jpg",
    "icongray": "https://steamcdn-a.akamaihd.net/steamcommunity/public/images/apps/353190/83e637ea85f20ff14fe28bafc40526c78a0bfd34.jpg"
  }
]