﻿[
  {
    "name": "NOTES_ALL",
    "defaultvalue": 0,
    "displayName": "A true Agent",
    "hidden": 0,
    "description": "Pickup all notes",
    "icon": "https://steamcdn-a.akamaihd.net/steamcommunity/public/images/apps/248470/23cb638fd9c7f7da7cc35038c0b6cf074c69afc4.jpg",
    "icongray": "https://steamcdn-a.akamaihd.net/steamcommunity/public/images/apps/248470/215f86c45d36b0536de9da00ed35c1d259607b90.jpg"
  },
  {
    "name": "NOTES_STAGE_1",
    "defaultvalue": 0,
    "displayName": "The Case of \"The Professor\"",
    "hidden": 0,
    "description": "Pickup all notes from The Forest of Stakes",
    "icon": "https://steamcdn-a.akamaihd.net/steamcommunity/public/images/apps/248470/7bf3805ac2b746e1c06bfabd3e38549affed0bda.jpg",
    "icongray": "https://steamcdn-a.akamaihd.net/steamcommunity/public/images/apps/248470/89bcc3f8bd5f469c76e13b67b93b8e0e20924292.jpg"
  },
  {
    "name": "NOTES_STAGE_2",
    "defaultvalue": 0,
    "displayName": "The Case of \"The Sculptor\"",
    "hidden": 0,
    "description": "Pickup all notes from The Auditorium",
    "icon": "https://steamcdn-a.akamaihd.net/steamcommunity/public/images/apps/248470/c22f88509342451ac1c23a67827de8df471f6d3b.jpg",
    "icongray": "https://steamcdn-a.akamaihd.net/steamcommunity/public/images/apps/248470/75f5fd37d025feaf64226dc330f6e0c7c033c5dc.jpg"
  },
  {
    "name": "RELICS_FIRST",
    "defaultvalue": 0,
    "displayName": "Boy scout",
    "hidden": 0,
    "description": "Collect your first Relic",
    "icon": "https://steamcdn-a.akamaihd.net/steamcommunity/public/images/apps/248470/e0faaa4ee73080f476205a4c84c56573a361c615.jpg",
    "icongray": "https://steamcdn-a.akamaihd.net/steamcommunity/public/images/apps/248470/fedca7a8e48b5837f98c38afd8df803e9844a4ad.jpg"
  },
  {
    "name": "RELICS_ALL",
    "defaultvalue": 0,
    "displayName": "Professional",
    "hidden": 0,
    "description": "Collect all Relics",
    "icon": "https://steamcdn-a.akamaihd.net/steamcommunity/public/images/apps/248470/9b9c766a5b1ffa38934adee16bc0b91edf511246.jpg",
    "icongray": "https://steamcdn-a.akamaihd.net/steamcommunity/public/images/apps/248470/7154f7e07e99b818b816ac9db1a9d435ec002801.jpg"
  },
  {
    "name": "RELICS_STAGE_0",
    "defaultvalue": 0,
    "displayName": "Marble Collector",
    "hidden": 0,
    "description": "Collect all Relics of Marble from The Cave",
    "icon": "https://steamcdn-a.akamaihd.net/steamcommunity/public/images/apps/248470/7f3e8ff0c21921f014b24d2046795df87cc1b1da.jpg",
    "icongray": "https://steamcdn-a.akamaihd.net/steamcommunity/public/images/apps/248470/b115adb5844841c361c7d1fb52c652c147922d04.jpg"
  },
  {
    "name": "RELICS_STAGE_1",
    "defaultvalue": 0,
    "displayName": "Metal Collector",
    "hidden": 0,
    "description": "Collect all Relics of Metal from The Forest of Stakes",
    "icon": "https://steamcdn-a.akamaihd.net/steamcommunity/public/images/apps/248470/69176a0db91857814963f43bf953535cf5497cb0.jpg",
    "icongray": "https://steamcdn-a.akamaihd.net/steamcommunity/public/images/apps/248470/3459e8ebb2b4b064f097de177a82bf6f66917faa.jpg"
  },
  {
    "name": "RELICS_STAGE_2",
    "defaultvalue": 0,
    "displayName": "Bronze Collector",
    "hidden": 0,
    "description": "Collect all relics of Bronze from The Auditorium",
    "icon": "https://steamcdn-a.akamaihd.net/steamcommunity/public/images/apps/248470/0f6c9098a475589fb191efe1325376e16f75532b.jpg",
    "icongray": "https://steamcdn-a.akamaihd.net/steamcommunity/public/images/apps/248470/66064bc170cd9265f78b357cb89e256e69f634bd.jpg"
  },
  {
    "name": "EVIDENCES_STAGE_1",
    "defaultvalue": 0,
    "displayName": "Making History",
    "hidden": 0,
    "description": "Find all Torture sketches",
    "icon": "https://steamcdn-a.akamaihd.net/steamcommunity/public/images/apps/248470/fb0a2c02ce1d14e76a979b18eafddcfdbd9d4f0d.jpg",
    "icongray": "https://steamcdn-a.akamaihd.net/steamcommunity/public/images/apps/248470/056b1a8370781d75d96e3de58775820b3763a2a2.jpg"
  },
  {
    "name": "EVIDENCES_STAGE_2",
    "defaultvalue": 0,
    "displayName": "Creating Art",
    "hidden": 0,
    "description": "Find all Museum paints",
    "icon": "https://steamcdn-a.akamaihd.net/steamcommunity/public/images/apps/248470/0d9ac4d2f3a170adfe69ff62eef4ced40357116a.jpg",
    "icongray": "https://steamcdn-a.akamaihd.net/steamcommunity/public/images/apps/248470/74300e0de9aae8e65eb4b81df3fad49d42a01cb6.jpg"
  },
  {
    "name": "STAGES_0",
    "defaultvalue": 0,
    "displayName": "No more introduction",
    "hidden": 0,
    "description": "Finish the Tutorial",
    "icon": "https://steamcdn-a.akamaihd.net/steamcommunity/public/images/apps/248470/168b58fdcb25b196fd99212345a78e35edaed74e.jpg",
    "icongray": "https://steamcdn-a.akamaihd.net/steamcommunity/public/images/apps/248470/1db8030ca021b19894a9dd13728bff2870561052.jpg"
  },
  {
    "name": "STAGES_1",
    "defaultvalue": 0,
    "displayName": "Chapter 1 cleared",
    "hidden": 0,
    "description": "Finish Chapter 1",
    "icon": "https://steamcdn-a.akamaihd.net/steamcommunity/public/images/apps/248470/4f9ec16d95b436945cd85d2ee977e91665aa7cf2.jpg",
    "icongray": "https://steamcdn-a.akamaihd.net/steamcommunity/public/images/apps/248470/e344db648232265431de15acfd7aeb9f4cc76216.jpg"
  },
  {
    "name": "STAGES_2",
    "defaultvalue": 0,
    "displayName": "Chapter 2 cleared",
    "hidden": 0,
    "description": "Finish Chapter 2",
    "icon": "https://steamcdn-a.akamaihd.net/steamcommunity/public/images/apps/248470/4d40d57f9cd21f33c449e141270d8ac594d64485.jpg",
    "icongray": "https://steamcdn-a.akamaihd.net/steamcommunity/public/images/apps/248470/58901b2d2d43f1de129b8b6aa43b7516d7c3f8ad.jpg"
  }
]