﻿[
  {
    "name": "SA2003",
    "defaultvalue": 0,
    "displayName": "progress"
  },
  {
    "name": "SA2007",
    "defaultvalue": 0,
    "displayName": "progress"
  },
  {
    "name": "SA2008",
    "defaultvalue": 0,
    "displayName": "progress"
  },
  {
    "name": "SA2010",
    "defaultvalue": 0,
    "displayName": "progress"
  },
  {
    "name": "SA2013",
    "defaultvalue": 0,
    "displayName": "progress"
  },
  {
    "name": "SA2025",
    "defaultvalue": 0,
    "displayName": "progress"
  },
  {
    "name": "SA2026",
    "defaultvalue": 0,
    "displayName": "progress"
  },
  {
    "name": "SA2034",
    "defaultvalue": 0,
    "displayName": "progress"
  },
  {
    "name": "SA2040",
    "defaultvalue": 0,
    "displayName": "progress"
  },
  {
    "name": "SA2042",
    "defaultvalue": 0,
    "displayName": "progress"
  },
  {
    "name": "SA2044",
    "defaultvalue": 0,
    "displayName": "progress"
  },
  {
    "name": "SA2048",
    "defaultvalue": 0,
    "displayName": "progress"
  },
  {
    "name": "SA2049",
    "defaultvalue": 0,
    "displayName": "progress"
  },
  {
    "name": "SA2050",
    "defaultvalue": 0,
    "displayName": "progress"
  },
  {
    "name": "SA2051",
    "defaultvalue": 0,
    "displayName": "progress"
  },
  {
    "name": "SA2052",
    "defaultvalue": 0,
    "displayName": "progress"
  },
  {
    "name": "SA2056",
    "defaultvalue": 0,
    "displayName": "progress"
  },
  {
    "name": "SA2057",
    "defaultvalue": 0,
    "displayName": "progress"
  },
  {
    "name": "SA2058",
    "defaultvalue": 0,
    "displayName": "progress"
  },
  {
    "name": "SA2059",
    "defaultvalue": 0,
    "displayName": "progress"
  },
  {
    "name": "SA2060",
    "defaultvalue": 0,
    "displayName": "progress"
  },
  {
    "name": "SA2061",
    "defaultvalue": 0,
    "displayName": "progress"
  },
  {
    "name": "SA2062",
    "defaultvalue": 0,
    "displayName": "progress"
  },
  {
    "name": "SA2063",
    "defaultvalue": 0,
    "displayName": "progress"
  },
  {
    "name": "SA2064",
    "defaultvalue": 0,
    "displayName": "progress"
  },
  {
    "name": "SA2066",
    "defaultvalue": 0,
    "displayName": "progress"
  },
  {
    "name": "SA2067",
    "defaultvalue": 0,
    "displayName": "progress"
  },
  {
    "name": "SA2068",
    "defaultvalue": 0,
    "displayName": "progress"
  },
  {
    "name": "SA2070",
    "defaultvalue": 0,
    "displayName": "progress"
  },
  {
    "name": "SA2073",
    "defaultvalue": 0,
    "displayName": "progress"
  },
  {
    "name": "SA2074",
    "defaultvalue": 0,
    "displayName": "progress"
  },
  {
    "name": "SA2080",
    "defaultvalue": 0,
    "displayName": "progress"
  },
  {
    "name": "SA2081",
    "defaultvalue": 0,
    "displayName": "progress"
  },
  {
    "name": "SA2082",
    "defaultvalue": 0,
    "displayName": "progress"
  },
  {
    "name": "SA2083",
    "defaultvalue": 0,
    "displayName": "progress"
  },
  {
    "name": "SA2085",
    "defaultvalue": 0,
    "displayName": "progress"
  },
  {
    "name": "SA2086",
    "defaultvalue": 0,
    "displayName": "progress"
  },
  {
    "name": "SA2087",
    "defaultvalue": 0,
    "displayName": "progress"
  },
  {
    "name": "SA2041",
    "defaultvalue": 0,
    "displayName": "progress"
  }
]