﻿{
  "Dlcs": {},
  "Name": "STAR WARS™ - Knights of the Old Republic™",
  "AppId": "32370",
  "ImageUrl": "https://steamcdn-a.akamaihd.net/steam/apps/32370/header.jpg?t=1586462817",
  "Languages": [
    "english",
    "german",
    "spanish",
    "italian",
    "french"
  ],
  "Platforms": {
    "windows": true,
    "mac": true,
    "linux": false
  }
}