﻿{
  "Dlcs": {},
  "Name": "aMAZE Double",
  "AppId": "736840",
  "ImageUrl": "https://steamcdn-a.akamaihd.net/steam/apps/736840/header.jpg?t=1582042814",
  "Languages": [
    "english"
  ],
  "Platforms": {
    "windows": true,
    "mac": false,
    "linux": false
  }
}