﻿{
  "Dlcs": {
    "1183100": {
      "Name": "Natural Selection 2 - B.M.A.C. Supporter Pack",
      "ImageUrl": "https://steamcdn-a.akamaihd.net/steam/apps/1183100/header.jpg?t=1573750483"
    },
    "926020": {
      "Name": "Natural Selection 2 - Catalyst Pack",
      "ImageUrl": "https://steamcdn-a.akamaihd.net/steam/apps/926020/header.jpg?t=1536155938"
    },
    "870920": {
      "Name": "Natural Selection 2 - Shadow Onos",
      "ImageUrl": "https://steamcdn-a.akamaihd.net/steam/apps/870920/header.jpg?t=1529083885"
    },
    "740660": {
      "Name": "Natural Selection 2 - Nocturne Pack",
      "ImageUrl": "https://steamcdn-a.akamaihd.net/steam/apps/740660/header.jpg?t=1509125928"
    },
    "740650": {
      "Name": "Natural Selection 2 - Forge Pack",
      "ImageUrl": "https://steamcdn-a.akamaihd.net/steam/apps/740650/header.jpg?t=1529519411"
    },
    "441480": {
      "Name": "Natural Selection 2 - Tundra Pack",
      "ImageUrl": "https://steamcdn-a.akamaihd.net/steam/apps/441480/header.jpg?t=1467062019"
    },
    "494080": {
      "Name": "Natural Selection 2 - Skull 'n' Crossfire Rifle",
      "ImageUrl": "https://steamcdn-a.akamaihd.net/steam/apps/494080/header.jpg?t=1467061914"
    },
    "471240": {
      "Name": "Natural Selection 2 - Shadow Fade",
      "ImageUrl": "https://steamcdn-a.akamaihd.net/steam/apps/471240/header.jpg?t=1463008285"
    },
    "310100": {
      "Name": "Natural Selection 2 - Reaper Pack",
      "ImageUrl": "https://steamcdn-a.akamaihd.net/steam/apps/310100/header.jpg?t=1447362422"
    },
    "296360": {
      "Name": "Natural Selection 2 - Kodiak Pack",
      "ImageUrl": "https://steamcdn-a.akamaihd.net/steam/apps/296360/header.jpg?t=1468540998"
    }
  },
  "Name": "Natural Selection 2",
  "AppId": "4920",
  "ImageUrl": "https://steamcdn-a.akamaihd.net/steam/apps/4920/header.jpg?t=1597082004",
  "Languages": [
    "english",
    "french",
    "german",
    "spanish",
    "polish",
    "russian",
    "finnish",
    "romanian",
    "swedish",
    "czech"
  ],
  "Platforms": {
    "windows": true,
    "mac": false,
    "linux": false
  }
}