﻿{
  "Dlcs": {
    "323170": {
      "Name": "",
      "ImageUrl": ""
    }
  },
  "Name": "Portal",
  "AppId": "400",
  "ImageUrl": "https://steamcdn-a.akamaihd.net/steam/apps/400/header.jpg?t=1587581981",
  "Languages": [
    "english",
    "french",
    "german",
    "russian",
    "danish",
    "dutch",
    "finnish",
    "italian",
    "japanese",
    "norwegian",
    "polish",
    "portuguese",
    "schinese",
    "spanish",
    "swedish",
    "tchinese",
    "korean"
  ],
  "Platforms": {
    "windows": true,
    "mac": true,
    "linux": true
  }
}