﻿[
  {
    "name": "CHIMICHANGAS",
    "defaultvalue": 0,
    "displayName": "Chimichangas!",
    "hidden": 0,
    "description": "You've visited Happy Lands for the first time playing as Merc.",
    "icon": "https://steamcdn-a.akamaihd.net/steamcommunity/public/images/apps/429200/8df054c8a70b10740fa039bebc401f9c6edd62c8.jpg",
    "icongray": "https://steamcdn-a.akamaihd.net/steamcommunity/public/images/apps/429200/6f52bbe19bae0fa00d80869b016340379c07bb2a.jpg"
  },
  {
    "name": "FITS_LIKE_A_SHIELD",
    "defaultvalue": 0,
    "displayName": "Fits like a shield",
    "hidden": 0,
    "description": "Pick up 5 Heavy armors in challenge mode playing as Lt Star in one game.",
    "icon": "https://steamcdn-a.akamaihd.net/steamcommunity/public/images/apps/429200/7b7938751f99d28cc24c6ad0681bd36cea1b0864.jpg",
    "icongray": "https://steamcdn-a.akamaihd.net/steamcommunity/public/images/apps/429200/b1b6219428f4c6d5442ba8d1dfe2ca9dfd0f6964.jpg"
  },
  {
    "name": "GIBDO_RAIDER",
    "defaultvalue": 0,
    "displayName": "Gibdo Raider",
    "hidden": 0,
    "description": "Destroy 15 mummies with your Let it Rain skill playing as Fairy Boy.",
    "icon": "https://steamcdn-a.akamaihd.net/steamcommunity/public/images/apps/429200/044fe8d438f0e38b03c31efbcf17269e1a3e52e7.jpg",
    "icongray": "https://steamcdn-a.akamaihd.net/steamcommunity/public/images/apps/429200/559e278d8dfae342fc60e6fd66d473097427caf8.jpg"
  },
  {
    "name": "CAME_OUT_FROM_OUTER_SPACE",
    "defaultvalue": 0,
    "displayName": "Came out from outer space.",
    "hidden": 0,
    "description": "You've been on air for more than 3 seconds playing as Omar!",
    "icon": "https://steamcdn-a.akamaihd.net/steamcommunity/public/images/apps/429200/7da48f3739ea33c5f1e0dcc45253187e2a0113a7.jpg",
    "icongray": "https://steamcdn-a.akamaihd.net/steamcommunity/public/images/apps/429200/4e29fc4b04c105d336816f6b370ad5fdb85454f1.jpg"
  },
  {
    "name": "KNIGHT_IN_THE_DARK",
    "defaultvalue": 0,
    "displayName": "Knight in the Dark",
    "hidden": 0,
    "description": "Hit 10 blind mummies playing as Vamp Man in one game.",
    "icon": "https://steamcdn-a.akamaihd.net/steamcommunity/public/images/apps/429200/d469b980c6ba9c3eadd4122826ce651005eff5dd.jpg",
    "icongray": "https://steamcdn-a.akamaihd.net/steamcommunity/public/images/apps/429200/842d4689db1bcb410b997936cabe45b5889bc9ce.jpg"
  },
  {
    "name": "LIKE_A_PLUMBER",
    "defaultvalue": 0,
    "displayName": "Like a Plumber",
    "hidden": 0,
    "description": "Slide under 5 pipelines playing as Romario in one game.",
    "icon": "https://steamcdn-a.akamaihd.net/steamcommunity/public/images/apps/429200/345aeb482f51461c737febb634c5d1c617720755.jpg",
    "icongray": "https://steamcdn-a.akamaihd.net/steamcommunity/public/images/apps/429200/aa60d1cb66e82b1752147305686fe9813ad1e697.jpg"
  },
  {
    "name": "MEGA_ARMOR_ACTIVATE",
    "defaultvalue": 0,
    "displayName": "Mega armor activate",
    "hidden": 0,
    "description": "Playing as naked Force Ranger pick up a helmet and then a Heavy Armor.",
    "icon": "https://steamcdn-a.akamaihd.net/steamcommunity/public/images/apps/429200/81889a9645b3b148a97ee9ed2554baa60fe1e73f.jpg",
    "icongray": "https://steamcdn-a.akamaihd.net/steamcommunity/public/images/apps/429200/0d1034cc0bc91c414f6aceb58a7efa3cb798dc78.jpg"
  },
  {
    "name": "POLTERFART_3000",
    "defaultvalue": 0,
    "displayName": "Polterfart 3000",
    "hidden": 0,
    "description": "Fart 30 times in one game playing as Fluigi.",
    "icon": "https://steamcdn-a.akamaihd.net/steamcommunity/public/images/apps/429200/59c5d7e4803b72a2e526a65e74673ad01879a194.jpg",
    "icongray": "https://steamcdn-a.akamaihd.net/steamcommunity/public/images/apps/429200/0c80b3f18486a2d39254971fed3265ab46e56c49.jpg"
  },
  {
    "name": "ROAD_TRIP",
    "defaultvalue": 0,
    "displayName": "Road trip",
    "hidden": 1,
    "icon": "https://steamcdn-a.akamaihd.net/steamcommunity/public/images/apps/429200/7728d869920569e2f8c9a475fc0b299e2e13408c.jpg",
    "icongray": "https://steamcdn-a.akamaihd.net/steamcommunity/public/images/apps/429200/d5796e79902dfea0cf097761931d4669bac0f51a.jpg"
  },
  {
    "name": "SUPER_SAVING_ROBOT",
    "defaultvalue": 0,
    "displayName": "Super Saving Robot",
    "hidden": 0,
    "description": "Playing as SuperBot save more than 100 workers in one game.",
    "icon": "https://steamcdn-a.akamaihd.net/steamcommunity/public/images/apps/429200/2986507595e75395dd3a750d3811cdf95de0d4be.jpg",
    "icongray": "https://steamcdn-a.akamaihd.net/steamcommunity/public/images/apps/429200/76070b2617c140593f1e1744f6f8d06b479cb7dd.jpg"
  },
  {
    "name": "THE_MAN_OF_STEEL",
    "defaultvalue": 0,
    "displayName": "The man of Steel",
    "hidden": 0,
    "description": "Playing as Zapper Man hit 5 blue obstacles in one game without dying.",
    "icon": "https://steamcdn-a.akamaihd.net/steamcommunity/public/images/apps/429200/08df0c5dd3bf141717f548022b87fddf0181d671.jpg",
    "icongray": "https://steamcdn-a.akamaihd.net/steamcommunity/public/images/apps/429200/aa5250958071091ab1be2630736e1150423674e5.jpg"
  },
  {
    "name": "TOP_1_ASSASSIN",
    "defaultvalue": 0,
    "displayName": "Top 1 Assassin",
    "hidden": 1,
    "icon": "https://steamcdn-a.akamaihd.net/steamcommunity/public/images/apps/429200/8c1fef1617d573a3903ab5ceff7a35665570fbed.jpg",
    "icongray": "https://steamcdn-a.akamaihd.net/steamcommunity/public/images/apps/429200/f5ccf91ff744a87bc74283dd959e13517e690251.jpg"
  },
  {
    "name": "CITY_OF_WORKERS",
    "defaultvalue": 0,
    "displayName": "City of Workers",
    "hidden": 0,
    "description": "Beat the Stage 1 on story mode.",
    "icon": "https://steamcdn-a.akamaihd.net/steamcommunity/public/images/apps/429200/0690bfc4d86344fdfbcfeb1cd7c3f0e26ad88929.jpg",
    "icongray": "https://steamcdn-a.akamaihd.net/steamcommunity/public/images/apps/429200/155dfb800c6d002ae0e97340c0646c541b5f36dc.jpg"
  },
  {
    "name": "HELMETS_AND_PREJUDICE",
    "defaultvalue": 0,
    "displayName": "Helmets and Prejudice",
    "hidden": 0,
    "description": "Beat the Stage 3 on story mode.",
    "icon": "https://steamcdn-a.akamaihd.net/steamcommunity/public/images/apps/429200/17f59b415f9cfee52feda263ee4311496e3ac2fb.jpg",
    "icongray": "https://steamcdn-a.akamaihd.net/steamcommunity/public/images/apps/429200/9b64bdfab3ecde3b019a017262296787929ec01a.jpg"
  },
  {
    "name": "HISTORY_COMPLETE",
    "defaultvalue": 0,
    "displayName": "History complete!",
    "hidden": 0,
    "description": "Finish the story mode.",
    "icon": "https://steamcdn-a.akamaihd.net/steamcommunity/public/images/apps/429200/4e6631cba1aa8d9c614bc9263f7ec9f62ddbe29a.jpg",
    "icongray": "https://steamcdn-a.akamaihd.net/steamcommunity/public/images/apps/429200/be99773cefa061d79855d12631acb10b9235e225.jpg"
  },
  {
    "name": "MIDNIGHT_IN",
    "defaultvalue": 0,
    "displayName": "Midnight in the garden of mushrooms and cats",
    "hidden": 0,
    "description": "Beat the Stage 2 on story mode.",
    "icon": "https://steamcdn-a.akamaihd.net/steamcommunity/public/images/apps/429200/b09637a115137a45a2263061ebe37cc5519e3d36.jpg",
    "icongray": "https://steamcdn-a.akamaihd.net/steamcommunity/public/images/apps/429200/4d2182a531056194ced237dec58f99a04582b654.jpg"
  },
  {
    "name": "WORKERS_OF_THE_LOST_ARK",
    "defaultvalue": 0,
    "displayName": "Workers of the Lost Ark",
    "hidden": 0,
    "description": "Beat the Stage 5 on story mode.",
    "icon": "https://steamcdn-a.akamaihd.net/steamcommunity/public/images/apps/429200/87b60e08d8a79e42b2a8742b2ce4ba80b2f450b5.jpg",
    "icongray": "https://steamcdn-a.akamaihd.net/steamcommunity/public/images/apps/429200/2af0dba4e0d975d9f7c4718652fce17c2b1f3872.jpg"
  },
  {
    "name": "WORKPOLIS",
    "defaultvalue": 0,
    "displayName": "Workopolis",
    "hidden": 0,
    "description": "Beat the Stage 4 on story mode.",
    "icon": "https://steamcdn-a.akamaihd.net/steamcommunity/public/images/apps/429200/141fc76c8da7996ac0f5da6c6cb9c785af981918.jpg",
    "icongray": "https://steamcdn-a.akamaihd.net/steamcommunity/public/images/apps/429200/cc0be5f5fc8ecb3b9a4cd0cd2dff162932578f91.jpg"
  },
  {
    "name": "DUCK_HUNT",
    "defaultvalue": 0,
    "displayName": "Duck hunt",
    "hidden": 0,
    "description": "Scare 5000 ducks.",
    "icon": "https://steamcdn-a.akamaihd.net/steamcommunity/public/images/apps/429200/320bfb12d976b5aa6d0623684b026aff5955f62e.jpg",
    "icongray": "https://steamcdn-a.akamaihd.net/steamcommunity/public/images/apps/429200/1c40e5b5417e1e0a192eb79660a5c56204dbba39.jpg"
  },
  {
    "name": "MAX_POWER",
    "defaultvalue": 0,
    "displayName": "My name is Max Power",
    "hidden": 0,
    "description": "Power up one character to the MAX stats. ",
    "icon": "https://steamcdn-a.akamaihd.net/steamcommunity/public/images/apps/429200/7c672462e736ea13a31183822d42a09ae12b47ca.jpg",
    "icongray": "https://steamcdn-a.akamaihd.net/steamcommunity/public/images/apps/429200/d28c16ab46964863677ac41c115ff8689d94c4f4.jpg"
  },
  {
    "name": "SUPER_GHOSTS_AND_MUMMIES",
    "defaultvalue": 0,
    "displayName": "Super ghosts and mummies",
    "hidden": 0,
    "description": "Hit 25 mummies while wearing the Heavy Armor on one game.",
    "icon": "https://steamcdn-a.akamaihd.net/steamcommunity/public/images/apps/429200/f775fa0954dde70213caeaee9f6250fc877a9dbc.jpg",
    "icongray": "https://steamcdn-a.akamaihd.net/steamcommunity/public/images/apps/429200/b2fc9572d07eb30ce2d7e2f2c952e5b5204ef304.jpg"
  },
  {
    "name": "THE_EXHIBITIONIST",
    "defaultvalue": 0,
    "displayName": "The exhibitionist",
    "hidden": 0,
    "description": "Run 2500 meters naked in one game.",
    "icon": "https://steamcdn-a.akamaihd.net/steamcommunity/public/images/apps/429200/5de3f334e3eb0b5057ca57a89ec87734a2ce1724.jpg",
    "icongray": "https://steamcdn-a.akamaihd.net/steamcommunity/public/images/apps/429200/ec23c300c3a262652d35370b161a28458ff9dc42.jpg"
  },
  {
    "name": "TOO_CAT_TOO_FURRYOUS",
    "defaultvalue": 0,
    "displayName": "Too cat too furryous",
    "hidden": 0,
    "description": "Catch 50 Amazing Space Cats on one game.",
    "icon": "https://steamcdn-a.akamaihd.net/steamcommunity/public/images/apps/429200/3e409f42b18875230ab4fbeeb7f159a4a306fa88.jpg",
    "icongray": "https://steamcdn-a.akamaihd.net/steamcommunity/public/images/apps/429200/469de834abe41d7c7aef4fdd413a7bcc66423fe3.jpg"
  },
  {
    "name": "YMWA",
    "defaultvalue": 0,
    "displayName": "YMWA",
    "hidden": 0,
    "description": "Save all of the (City People) on arcade mode.",
    "icon": "https://steamcdn-a.akamaihd.net/steamcommunity/public/images/apps/429200/76cbae4ab2bc01cfae342b4a18199a87d325237b.jpg",
    "icongray": "https://steamcdn-a.akamaihd.net/steamcommunity/public/images/apps/429200/4b994e46dbc691472d00c98055f821475f10edc7.jpg"
  }
]