﻿{
  "Dlcs": {
    "463310": {
      "Name": "So Long Earth Soundtrack",
      "ImageUrl": "https://steamcdn-a.akamaihd.net/steam/apps/463310/header.jpg?t=1461766295"
    }
  },
  "Name": "So Long Earth",
  "AppId": "448110",
  "ImageUrl": "https://steamcdn-a.akamaihd.net/steam/apps/448110/header.jpg?t=1567643490",
  "Languages": [
    "english",
    "portuguese",
    "spanish",
    "dutch",
    "german",
    "romanian",
    "portuguese"
  ],
  "Platforms": {
    "windows": true,
    "mac": false,
    "linux": false
  }
}