﻿[
  {
    "name": "Story 2 - Light Walker",
    "defaultvalue": 0,
    "displayName": "Unto The Breach",
    "hidden": 0,
    "description": "Gain entry into the Terraformer.",
    "icon": "https://steamcdn-a.akamaihd.net/steamcommunity/public/images/apps/55110/98ca05e77bd7b7f527d5c94be5318f49aa8b98de.jpg",
    "icongray": "https://steamcdn-a.akamaihd.net/steamcommunity/public/images/apps/55110/dc63d73e3bf3dc4ba68945ed26049223bdb057c1.jpg"
  },
  {
    "name": "Story 3 - Seal",
    "defaultvalue": 0,
    "displayName": "Secrets Long Buried",
    "hidden": 0,
    "description": "Remove the Seal.",
    "icon": "https://steamcdn-a.akamaihd.net/steamcommunity/public/images/apps/55110/87aaf7a8886417a2ebea751cd62290cdf9317d52.jpg",
    "icongray": "https://steamcdn-a.akamaihd.net/steamcommunity/public/images/apps/55110/d1e9c967f70bc536298d9f89c559d7fd58e8d4d1.jpg"
  },
  {
    "name": "Story 4 - Back to Civilization",
    "defaultvalue": 0,
    "displayName": "We're Not Alone",
    "hidden": 0,
    "description": "Make it back to civilization.",
    "icon": "https://steamcdn-a.akamaihd.net/steamcommunity/public/images/apps/55110/b80d89b5555ec5a1e935c20a849dc83ae54f96d2.jpg",
    "icongray": "https://steamcdn-a.akamaihd.net/steamcommunity/public/images/apps/55110/6cbbdd50811e821cb247a9a1532a307bf465bef9.jpg"
  },
  {
    "name": "Story 6 - Finished Convoy",
    "defaultvalue": 0,
    "displayName": "Vanguard",
    "hidden": 0,
    "description": "Escort the convoy.",
    "icon": "https://steamcdn-a.akamaihd.net/steamcommunity/public/images/apps/55110/13a0152d0756b69c3b77722035da222efa4eb531.jpg",
    "icongray": "https://steamcdn-a.akamaihd.net/steamcommunity/public/images/apps/55110/06819da51c66510acf02af479a80f77dee0afd88.jpg"
  },
  {
    "name": "Story 9 - Destroy Filter",
    "defaultvalue": 0,
    "displayName": "Things Fall Apart",
    "hidden": 0,
    "description": "Destroy the Water Filtration Plant.",
    "icon": "https://steamcdn-a.akamaihd.net/steamcommunity/public/images/apps/55110/80197d4664820219228758db8296664ae1b2165f.jpg",
    "icongray": "https://steamcdn-a.akamaihd.net/steamcommunity/public/images/apps/55110/0f7a1e2f9cc6c5dcadceaca074e1cbeb4c2840de.jpg"
  },
  {
    "name": "Story 10 - To Surface",
    "defaultvalue": 0,
    "displayName": "Survival Of The Fittest",
    "hidden": 0,
    "description": "Make it to the surface.",
    "icon": "https://steamcdn-a.akamaihd.net/steamcommunity/public/images/apps/55110/576682003aaecb202264b07dc4c495efd18f7d9f.jpg",
    "icongray": "https://steamcdn-a.akamaihd.net/steamcommunity/public/images/apps/55110/e946f864d95be70f3974dad810cff63c8e446191.jpg"
  },
  {
    "name": "Story 11 - Punch Colonel",
    "defaultvalue": 0,
    "displayName": "I'm All You've Got",
    "hidden": 0,
    "description": "Defend the Red Faction.",
    "icon": "https://steamcdn-a.akamaihd.net/steamcommunity/public/images/apps/55110/fad7c75fa08904663b03fe710b7dcbf6bb58f0a5.jpg",
    "icongray": "https://steamcdn-a.akamaihd.net/steamcommunity/public/images/apps/55110/811eaf8dfc2e2b74dbce54415d42fedef1d57136.jpg"
  },
  {
    "name": "Story 12 - Destroy Jammers",
    "defaultvalue": 0,
    "displayName": "Weather The Storm",
    "hidden": 0,
    "description": "Destroy the Jamming Devices.",
    "icon": "https://steamcdn-a.akamaihd.net/steamcommunity/public/images/apps/55110/14a428f9791453a12d6aaab88a78ad2071520635.jpg",
    "icongray": "https://steamcdn-a.akamaihd.net/steamcommunity/public/images/apps/55110/f8506347f38818a7ea33cc25fa933dae46d4caee.jpg"
  },
  {
    "name": "Story 14 - Kill Hale",
    "defaultvalue": 0,
    "displayName": "Family Business",
    "hidden": 0,
    "description": "Defeat the Mantis.",
    "icon": "https://steamcdn-a.akamaihd.net/steamcommunity/public/images/apps/55110/361802629e7e506e028ece9a8788895bf80e0161.jpg",
    "icongray": "https://steamcdn-a.akamaihd.net/steamcommunity/public/images/apps/55110/b7d2c0a2506d71a5e05d35c9891adc3cc0240899.jpg"
  },
  {
    "name": "Story 15 - Marauder Area",
    "defaultvalue": 0,
    "displayName": "Must Go Faster",
    "hidden": 0,
    "description": "Travel to the Marauder homelands.",
    "icon": "https://steamcdn-a.akamaihd.net/steamcommunity/public/images/apps/55110/fb2c1d78b835315acbbd902fd02194d5ae6b36f5.jpg",
    "icongray": "https://steamcdn-a.akamaihd.net/steamcommunity/public/images/apps/55110/316f01c665366d148733e810f44917b64e4d24ee.jpg"
  },
  {
    "name": "Story 16 - Escort Winters",
    "defaultvalue": 0,
    "displayName": "Old Friends, Older Enemies",
    "hidden": 0,
    "description": "Safely escort Winters through the depths.",
    "icon": "https://steamcdn-a.akamaihd.net/steamcommunity/public/images/apps/55110/976b42eaf1bc83daea85d1add2195d0c269f9968.jpg",
    "icongray": "https://steamcdn-a.akamaihd.net/steamcommunity/public/images/apps/55110/ccb8abcc81ff68a480eee016b1a664c5ea039570.jpg"
  },
  {
    "name": "Story 17 - Locate Hive",
    "defaultvalue": 0,
    "displayName": "Plan B",
    "hidden": 0,
    "description": "Find out how to reach the lair.",
    "icon": "https://steamcdn-a.akamaihd.net/steamcommunity/public/images/apps/55110/a3a0a59b9cb7fb91bb2fb74b3bb93727305f615a.jpg",
    "icongray": "https://steamcdn-a.akamaihd.net/steamcommunity/public/images/apps/55110/dfe4f423baed7960937b5254f0b66188785cd9dc.jpg"
  },
  {
    "name": "Story 18 - Destroy Mixer",
    "defaultvalue": 0,
    "displayName": "Knock, Knock",
    "hidden": 0,
    "description": "Open up the secret entrance.",
    "icon": "https://steamcdn-a.akamaihd.net/steamcommunity/public/images/apps/55110/e3d8576eaec412fe0f15e17ce263af279c39205c.jpg",
    "icongray": "https://steamcdn-a.akamaihd.net/steamcommunity/public/images/apps/55110/c416020f7d35318a124088467b1929be5eddeb77.jpg"
  },
  {
    "name": "Story 19 - Reach Hive",
    "defaultvalue": 0,
    "displayName": "Losses",
    "hidden": 0,
    "description": "Make it through to the lair.",
    "icon": "https://steamcdn-a.akamaihd.net/steamcommunity/public/images/apps/55110/55455715e535095ffe489651d33ea472470dc7f1.jpg",
    "icongray": "https://steamcdn-a.akamaihd.net/steamcommunity/public/images/apps/55110/5aed59bb94f29028b6643c4bcba469fb59c2449c.jpg"
  },
  {
    "name": "Story 20 - Defeat Queen",
    "defaultvalue": 0,
    "displayName": "One Big, Ugly Motha…",
    "hidden": 0,
    "description": "Defeat the source of it all.",
    "icon": "https://steamcdn-a.akamaihd.net/steamcommunity/public/images/apps/55110/5eabd0abd24857c991d7656be9e517ac5a9661ae.jpg",
    "icongray": "https://steamcdn-a.akamaihd.net/steamcommunity/public/images/apps/55110/6c2b3c575443a77166c4fb69c1e27a6d07e43082.jpg"
  },
  {
    "name": "Story 22 - Complete on Hard",
    "defaultvalue": 0,
    "displayName": "That Coulda Gone Better",
    "hidden": 0,
    "description": "Finish the Single Player game on Hard Difficulty.",
    "icon": "https://steamcdn-a.akamaihd.net/steamcommunity/public/images/apps/55110/e80fd456b3e0daebddf4c3e5965f3cdafd068612.jpg",
    "icongray": "https://steamcdn-a.akamaihd.net/steamcommunity/public/images/apps/55110/d7db33dc0218119c5803e18ae3148e7ab3eefad1.jpg"
  },
  {
    "name": "Story 23 - Complete on Insane",
    "defaultvalue": 0,
    "displayName": "I Need A Nap",
    "hidden": 0,
    "description": "Finish the Single Player game on Insane Difficulty.",
    "icon": "https://steamcdn-a.akamaihd.net/steamcommunity/public/images/apps/55110/0ececbee19126f5e07154931bace63dcfdfd03f7.jpg",
    "icongray": "https://steamcdn-a.akamaihd.net/steamcommunity/public/images/apps/55110/be701bfe7a5359d074ddf45c183d53005ef4e0f0.jpg"
  },
  {
    "name": "Story 21 - Repair Terraformer",
    "defaultvalue": 0,
    "displayName": "Breathe Easy",
    "hidden": 0,
    "description": "Put an end to the threat, once and for all.",
    "icon": "https://steamcdn-a.akamaihd.net/steamcommunity/public/images/apps/55110/de6fc72b25e1e18282c24f60df8357cf588c1298.jpg",
    "icongray": "https://steamcdn-a.akamaihd.net/steamcommunity/public/images/apps/55110/3d550e72f6218a8796508702f182b8fb40ed428f.jpg"
  },
  {
    "name": "SP - Leo Kills",
    "defaultvalue": 0,
    "displayName": "Crusader",
    "hidden": 0,
    "description": "Kill 175 enemies while in the L.E.O. exoskeleton.",
    "icon": "https://steamcdn-a.akamaihd.net/steamcommunity/public/images/apps/55110/228c3e5a2e685a8ba37d2220b128f4d426105c13.jpg",
    "icongray": "https://steamcdn-a.akamaihd.net/steamcommunity/public/images/apps/55110/fb8bbfc8e4b1916932e9d7b9ced8affd8961fd85.jpg"
  },
  {
    "name": "SP - Exo Bash Kills",
    "defaultvalue": 0,
    "displayName": "Ooooh Yeah!",
    "hidden": 0,
    "description": "Kill 5 enemies with one L.E.O. shoulder bash.",
    "icon": "https://steamcdn-a.akamaihd.net/steamcommunity/public/images/apps/55110/cd101f2059da3651f9f74263549c70b11958bb35.jpg",
    "icongray": "https://steamcdn-a.akamaihd.net/steamcommunity/public/images/apps/55110/0b238734fd28092775cf137bfa422c2f8e418f9d.jpg"
  },
  {
    "name": "SP - Walker Kills",
    "defaultvalue": 0,
    "displayName": "Martian Drive-By",
    "hidden": 0,
    "description": "Kill 100 enemies while in the Marauder Scout Walker.",
    "icon": "https://steamcdn-a.akamaihd.net/steamcommunity/public/images/apps/55110/2a72185f093f453628346eda691361fe55e79f16.jpg",
    "icongray": "https://steamcdn-a.akamaihd.net/steamcommunity/public/images/apps/55110/280ade3a42ad6be4364887d3e0d56cf24e00e7fb.jpg"
  },
  {
    "name": "SP - Flyer Bash Kills",
    "defaultvalue": 0,
    "displayName": "Hit 'N Run",
    "hidden": 0,
    "description": "Kill an enemy by ramming them with the Inferno GX.",
    "icon": "https://steamcdn-a.akamaihd.net/steamcommunity/public/images/apps/55110/e22f53e1b5401caff5228e84860bc6f648a78a85.jpg",
    "icongray": "https://steamcdn-a.akamaihd.net/steamcommunity/public/images/apps/55110/4384baa316434f21681ab6e96eb9d432041e8d49.jpg"
  },
  {
    "name": "SP - Walker Pod Kills",
    "defaultvalue": 0,
    "displayName": "Exterminator",
    "hidden": 0,
    "description": "Destroy 100 Pods while piloting the Mantis.",
    "icon": "https://steamcdn-a.akamaihd.net/steamcommunity/public/images/apps/55110/8a54cf7b8c9a4755f2c5209bfccc0fad3108b0f2.jpg",
    "icongray": "https://steamcdn-a.akamaihd.net/steamcommunity/public/images/apps/55110/8cac64afe75a35edafafa0cdac6e6c777cca6e44.jpg"
  },
  {
    "name": "SP - All Audio Logs",
    "defaultvalue": 0,
    "displayName": "Chronicler",
    "hidden": 0,
    "description": "Listen to 40 Audio Logs.",
    "icon": "https://steamcdn-a.akamaihd.net/steamcommunity/public/images/apps/55110/b18460dcd385d2966fb86c0fae4ce4ef4ebc066e.jpg",
    "icongray": "https://steamcdn-a.akamaihd.net/steamcommunity/public/images/apps/55110/fab3ec10fd8f53339e53db5ecea7959e12763ac7.jpg"
  },
  {
    "name": "SP - Salvage Piles",
    "defaultvalue": 0,
    "displayName": "Salvager",
    "hidden": 0,
    "description": "Find 200 piles of salvage.",
    "icon": "https://steamcdn-a.akamaihd.net/steamcommunity/public/images/apps/55110/b6422086612e22da1a76a7362c0a7087f589ecef.jpg",
    "icongray": "https://steamcdn-a.akamaihd.net/steamcommunity/public/images/apps/55110/a6257a84e3226da1e97afb01538ebcd5dc072b2f.jpg"
  },
  {
    "name": "SMP - Total Salvage",
    "defaultvalue": 0,
    "displayName": "Nanergy!",
    "hidden": 0,
    "description": "Gather 25,000 total salvage.",
    "icon": "https://steamcdn-a.akamaihd.net/steamcommunity/public/images/apps/55110/0a5a33866ae3f4cef701ee6d2d4aa3ec6a0fbbc0.jpg",
    "icongray": "https://steamcdn-a.akamaihd.net/steamcommunity/public/images/apps/55110/dcc5bdc9b0f40b83ddde4261390d74a2a6e7bc05.jpg"
  },
  {
    "name": "SMP - Upgrade Ring",
    "defaultvalue": 0,
    "displayName": "Money Well Spent",
    "hidden": 0,
    "description": "Buy out any one Upgrade ring.",
    "icon": "https://steamcdn-a.akamaihd.net/steamcommunity/public/images/apps/55110/c7bc70f0083c496a6956066d173329934e32b517.jpg",
    "icongray": "https://steamcdn-a.akamaihd.net/steamcommunity/public/images/apps/55110/d95429469b3c123414e8cb3de0df80f2c2b440f3.jpg"
  },
  {
    "name": "SMP - All Upgrades",
    "defaultvalue": 0,
    "displayName": "Martian Can Opener",
    "hidden": 0,
    "description": "Buy every Upgrade.",
    "icon": "https://steamcdn-a.akamaihd.net/steamcommunity/public/images/apps/55110/adec3c685ae951fe82130a0699d6daaaee5a1890.jpg",
    "icongray": "https://steamcdn-a.akamaihd.net/steamcommunity/public/images/apps/55110/54306b3f1f46ff456f0c941a96ae71dcb2542adf.jpg"
  },
  {
    "name": "SP - Buy a Cheat",
    "defaultvalue": 0,
    "displayName": "Cheater!",
    "hidden": 0,
    "description": "Buy a Cheat.",
    "icon": "https://steamcdn-a.akamaihd.net/steamcommunity/public/images/apps/55110/cf5962dd1a8a91c4f4ebb4649a822784ff29ea2e.jpg",
    "icongray": "https://steamcdn-a.akamaihd.net/steamcommunity/public/images/apps/55110/5dd65a630b60955fbecb9bae377dd0d51e28e025.jpg"
  },
  {
    "name": "Nano - Impact Distance",
    "defaultvalue": 0,
    "displayName": "It's All In The Wrist",
    "hidden": 0,
    "description": "Send an enemy at least 30 meters with Impact.",
    "icon": "https://steamcdn-a.akamaihd.net/steamcommunity/public/images/apps/55110/1704fd6b9e3f1f047b345519c3ddd50c7b677fe8.jpg",
    "icongray": "https://steamcdn-a.akamaihd.net/steamcommunity/public/images/apps/55110/9ccc59daa71e73b13ee5cfa2a3292130ee85617d.jpg"
  },
  {
    "name": "Nano - Impact Kills Simul",
    "defaultvalue": 0,
    "displayName": "Haymaker",
    "hidden": 0,
    "description": "Kill 5 enemies in one shot with Impact.",
    "icon": "https://steamcdn-a.akamaihd.net/steamcommunity/public/images/apps/55110/9977365455f85c980b0a4395373293ed59cf0f15.jpg",
    "icongray": "https://steamcdn-a.akamaihd.net/steamcommunity/public/images/apps/55110/eb6f9d62f8ff674db672f5231c8d93c4856d771a.jpg"
  },
  {
    "name": "Nano - Shockwave Kills Total",
    "defaultvalue": 0,
    "displayName": "Zero G War",
    "hidden": 0,
    "description": "Kill 50 Shockwaved enemies before they hit the ground.",
    "icon": "https://steamcdn-a.akamaihd.net/steamcommunity/public/images/apps/55110/77dd4959ff3c92f89b3721631269b9965179267f.jpg",
    "icongray": "https://steamcdn-a.akamaihd.net/steamcommunity/public/images/apps/55110/c8f13d4385e6f8a05263e12eb3334d4c778b4760.jpg"
  },
  {
    "name": "Nano - Shockwave Kills Simul",
    "defaultvalue": 0,
    "displayName": "Hold Still",
    "hidden": 0,
    "description": "Kill 6 enemies in one use of Shockwave.",
    "icon": "https://steamcdn-a.akamaihd.net/steamcommunity/public/images/apps/55110/c90923167521f630b35ace9ba75b3d112c971315.jpg",
    "icongray": "https://steamcdn-a.akamaihd.net/steamcommunity/public/images/apps/55110/bfb622dc5689cd62ae39c2da50585867603f8cb0.jpg"
  },
  {
    "name": "Nano - Berserk Time",
    "defaultvalue": 0,
    "displayName": "Lock And Load",
    "hidden": 0,
    "description": "Keep Berserk active for at least 21 seconds in one use.",
    "icon": "https://steamcdn-a.akamaihd.net/steamcommunity/public/images/apps/55110/01fd0746bd290441cdb2b5628c5ec819c8177f81.jpg",
    "icongray": "https://steamcdn-a.akamaihd.net/steamcommunity/public/images/apps/55110/05b474d8dddbd266a880706380ee4b0b117a699f.jpg"
  },
  {
    "name": "Nano - Shell Kills Total",
    "defaultvalue": 0,
    "displayName": "Back At Ya!",
    "hidden": 0,
    "description": "Make an enemy kill themselves while shooting at your Shell.",
    "icon": "https://steamcdn-a.akamaihd.net/steamcommunity/public/images/apps/55110/66f0f4236a2de8291b5ae08cbfa39ab8a35d264a.jpg",
    "icongray": "https://steamcdn-a.akamaihd.net/steamcommunity/public/images/apps/55110/4220e3b0aeae2112fcecd6b781bca04148586a9f.jpg"
  },
  {
    "name": "Weapon - Magnet Dist",
    "defaultvalue": 0,
    "displayName": "Liftoff",
    "hidden": 0,
    "description": "Send an enemy at least 50 meters with the Magnet Gun.",
    "icon": "https://steamcdn-a.akamaihd.net/steamcommunity/public/images/apps/55110/593c3b20e042d001272ce864d025faa3360c6961.jpg",
    "icongray": "https://steamcdn-a.akamaihd.net/steamcommunity/public/images/apps/55110/b4c2b226fba6c2bfdf3decada334ff8c12b39c4e.jpg"
  },
  {
    "name": "Weapon - Enemy Magnet Enemy",
    "defaultvalue": 0,
    "displayName": "Martian Matchmaker",
    "hidden": 0,
    "description": "Fire an enemy into another enemy with the Magnet Gun.",
    "icon": "https://steamcdn-a.akamaihd.net/steamcommunity/public/images/apps/55110/813bd0804e4830318c2e46f6a020cddc516ff4c5.jpg",
    "icongray": "https://steamcdn-a.akamaihd.net/steamcommunity/public/images/apps/55110/6bd56bede50c789b2db950a8b421fff874cb891a.jpg"
  },
  {
    "name": "Weapon - Tentacle Boomerang",
    "defaultvalue": 0,
    "displayName": "Catch!",
    "hidden": 0,
    "description": "Use the Magnet Gun to fling debris BACK at a Tentacle.",
    "icon": "https://steamcdn-a.akamaihd.net/steamcommunity/public/images/apps/55110/c439757252b6d958dad586e295dbb5699b40eb74.jpg",
    "icongray": "https://steamcdn-a.akamaihd.net/steamcommunity/public/images/apps/55110/0b54d6463450966e006b456a188708f28ce711ad.jpg"
  },
  {
    "name": "Weapon - Sledgehammer Sampler",
    "defaultvalue": 0,
    "displayName": "In. The. Face!",
    "hidden": 0,
    "description": "Kill one of each enemy type with the Maul.",
    "icon": "https://steamcdn-a.akamaihd.net/steamcommunity/public/images/apps/55110/1875139a8be4539dbd40ec445fe9b94e65361682.jpg",
    "icongray": "https://steamcdn-a.akamaihd.net/steamcommunity/public/images/apps/55110/6919047c08542e69b5c5ae5db1bb75358f7c760d.jpg"
  },
  {
    "name": "Combat - Creeper Stomp",
    "defaultvalue": 0,
    "displayName": "What Is Best In Life?",
    "hidden": 0,
    "description": "Perform melee finishers on 25 Creepers (single player only).",
    "icon": "https://steamcdn-a.akamaihd.net/steamcommunity/public/images/apps/55110/720cf1cae9e37ed907e84a7bd9dc90184a374ec6.jpg",
    "icongray": "https://steamcdn-a.akamaihd.net/steamcommunity/public/images/apps/55110/30d3798c4ca9a4b530a7300115920b4bb7c4b753.jpg"
  },
  {
    "name": "Combat - Heavy Explosion Kill",
    "defaultvalue": 0,
    "displayName": "Boom Goes The Dynamite",
    "hidden": 0,
    "description": "Kill 2 other enemies with a single exploding Berserker.",
    "icon": "https://steamcdn-a.akamaihd.net/steamcommunity/public/images/apps/55110/2114d167027129bb2d2bcf1ccfb86b2a8129616b.jpg",
    "icongray": "https://steamcdn-a.akamaihd.net/steamcommunity/public/images/apps/55110/b370720df85ec13b775e9600a8d0b43cbea5b5b7.jpg"
  },
  {
    "name": "Combat - Wraith Kill Pre-Stealth",
    "defaultvalue": 0,
    "displayName": "Crack Shot",
    "hidden": 0,
    "description": "Kill a Wraith before it re-stealths.",
    "icon": "https://steamcdn-a.akamaihd.net/steamcommunity/public/images/apps/55110/fb9670385d28415be29f3f0c1eaeee5b9040377e.jpg",
    "icongray": "https://steamcdn-a.akamaihd.net/steamcommunity/public/images/apps/55110/d7934c03bca650ce96c1c92b184785844395cf58.jpg"
  },
  {
    "name": "MP - Wave 10",
    "defaultvalue": 0,
    "displayName": "Soldier",
    "hidden": 0,
    "description": "Finish waves 1 through 10 on any map in Infestation.",
    "icon": "https://steamcdn-a.akamaihd.net/steamcommunity/public/images/apps/55110/2c60a34d7cac240018e6b696af1c67ff16e63f11.jpg",
    "icongray": "https://steamcdn-a.akamaihd.net/steamcommunity/public/images/apps/55110/6dcac759f395af51a1f79b673b3094582ccf7d7b.jpg"
  },
  {
    "name": "MP - Wave 20",
    "defaultvalue": 0,
    "displayName": "Commando",
    "hidden": 0,
    "description": "Finish waves 1 through 20 on any map in Infestation.",
    "icon": "https://steamcdn-a.akamaihd.net/steamcommunity/public/images/apps/55110/5aa12813fc7eebd2a7f8044297f502665aa5f534.jpg",
    "icongray": "https://steamcdn-a.akamaihd.net/steamcommunity/public/images/apps/55110/1bc680369b7842801a99305082cc37f93b95ae05.jpg"
  },
  {
    "name": "MP - Wave 30",
    "defaultvalue": 0,
    "displayName": "Honorary Mason",
    "hidden": 0,
    "description": "Finish waves 1 through 30 on any map in Infestation.",
    "icon": "https://steamcdn-a.akamaihd.net/steamcommunity/public/images/apps/55110/43b46e49669dafef62e75eb8a9113484e9400604.jpg",
    "icongray": "https://steamcdn-a.akamaihd.net/steamcommunity/public/images/apps/55110/7a9a373081c522721c6e3111d39b865c3d302e5e.jpg"
  },
  {
    "name": "MP - One Wave Each Level",
    "defaultvalue": 0,
    "displayName": "Bug Hunt",
    "hidden": 0,
    "description": "Finish at least one wave on each map in Infestation.",
    "icon": "https://steamcdn-a.akamaihd.net/steamcommunity/public/images/apps/55110/3ebf107e3fdb057f2df7909de155292147bd92e5.jpg",
    "icongray": "https://steamcdn-a.akamaihd.net/steamcommunity/public/images/apps/55110/cecc3bd4d04f232447e3e7e4604dfe43c4198a43.jpg"
  },
  {
    "name": "MP - Revive Players",
    "defaultvalue": 0,
    "displayName": "Field Surgeon",
    "hidden": 0,
    "description": "Perform Revival 25 times in Infestation.",
    "icon": "https://steamcdn-a.akamaihd.net/steamcommunity/public/images/apps/55110/f6b60b1747f28370d282f14c933f76e68e2bb620.jpg",
    "icongray": "https://steamcdn-a.akamaihd.net/steamcommunity/public/images/apps/55110/661709f011e7b479c10398154614f65cab9ff378.jpg"
  },
  {
    "name": "MP - Perfect Wave",
    "defaultvalue": 0,
    "displayName": "All For One, One For All",
    "hidden": 0,
    "description": "Finish a 4 player Infestation game beyond wave 9 without anyone bleeding out.",
    "icon": "https://steamcdn-a.akamaihd.net/steamcommunity/public/images/apps/55110/08a9d0a499aea610983d3436d0946ad6a47b5a1f.jpg",
    "icongray": "https://steamcdn-a.akamaihd.net/steamcommunity/public/images/apps/55110/63268cc12a0586e8c5b9584fa36b09b236013e16.jpg"
  },
  {
    "name": "Air Superiority",
    "defaultvalue": 0,
    "displayName": "Air Superiority",
    "hidden": 0,
    "description": "Clear a safe path to the Terraformer for Hale. (Path to War DLC Only).",
    "icon": "https://steamcdn-a.akamaihd.net/steamcommunity/public/images/apps/55110/c7e938df33a4a6ddb5d53d6feb5399b3d2c705ed.jpg",
    "icongray": "https://steamcdn-a.akamaihd.net/steamcommunity/public/images/apps/55110/83261bcf6a008029ad577ef76ca93ec6fa9d704b.jpg"
  },
  {
    "name": "Bird of Prey",
    "defaultvalue": 0,
    "displayName": "Bird of Prey",
    "hidden": 0,
    "description": "Allow no Red Faction to survive your attacks on their mountain base. (Path to War DLC Only)",
    "icon": "https://steamcdn-a.akamaihd.net/steamcommunity/public/images/apps/55110/de9507f10414daffb66f97e56e82c48d3f2df6b4.jpg",
    "icongray": "https://steamcdn-a.akamaihd.net/steamcommunity/public/images/apps/55110/7ebd25ef550e971d04a4ad60279ece8b267a2a0a.jpg"
  },
  {
    "name": "Swath of Destruction",
    "defaultvalue": 0,
    "displayName": "Swath of Destruction",
    "hidden": 0,
    "description": "Reunite Sgt. Winters with the Red Faction. (Path to War DLC Only)",
    "icon": "https://steamcdn-a.akamaihd.net/steamcommunity/public/images/apps/55110/66215b04a229c1b67273ca485ebe73c2c1c1d424.jpg",
    "icongray": "https://steamcdn-a.akamaihd.net/steamcommunity/public/images/apps/55110/9d533b9608a6582de4c462c7a9fb43afb05ab419.jpg"
  },
  {
    "name": "Armored Cavalry",
    "defaultvalue": 0,
    "displayName": "Armored Cavalry",
    "hidden": 0,
    "description": "Rescue the pinned-down Red Faction soldiers. (Path to War DLC Only)",
    "icon": "https://steamcdn-a.akamaihd.net/steamcommunity/public/images/apps/55110/a58e61a301682266a5f6a3eeb308559a8b83e47d.jpg",
    "icongray": "https://steamcdn-a.akamaihd.net/steamcommunity/public/images/apps/55110/bc850484d2a1516f352ef0403a6a151a2c86f01b.jpg"
  },
  {
    "name": "Nuke It from Orbit",
    "defaultvalue": 0,
    "displayName": "Nuke It from Orbit",
    "hidden": 0,
    "description": "Wipe out the Cultist military camp. (Path to War DLC Only)",
    "icon": "https://steamcdn-a.akamaihd.net/steamcommunity/public/images/apps/55110/d58ac4695b04c9e0f333fd13b56363d404faad6c.jpg",
    "icongray": "https://steamcdn-a.akamaihd.net/steamcommunity/public/images/apps/55110/5daf2d4a86ec9db2a48dcaf079aa9f9f06bd6693.jpg"
  },
  {
    "name": "Wrecking Ball",
    "defaultvalue": 0,
    "displayName": "Wrecking Ball",
    "hidden": 0,
    "description": "Get 20 kills with the Shard Cannon. (Path to War DLC Only)",
    "icon": "https://steamcdn-a.akamaihd.net/steamcommunity/public/images/apps/55110/bfb8ce12cdf5a5e05f059ab1af6e1cce34d053c7.jpg",
    "icongray": "https://steamcdn-a.akamaihd.net/steamcommunity/public/images/apps/55110/d7c020f8de1a5d1e7ddb49efb10c231eafb773e4.jpg"
  },
  {
    "name": "A Taste of their Own",
    "defaultvalue": 0,
    "displayName": "A Taste of their Own",
    "hidden": 0,
    "description": "Eliminate 10 enemies using one of their own turrets. (Path to War DLC Only)",
    "icon": "https://steamcdn-a.akamaihd.net/steamcommunity/public/images/apps/55110/96551c901c4665aab7c1c900a9bef4949b4cc1e4.jpg",
    "icongray": "https://steamcdn-a.akamaihd.net/steamcommunity/public/images/apps/55110/8a083a537ba7c2156b461254a6f11a2685037493.jpg"
  },
  {
    "name": "Triple Threat",
    "defaultvalue": 0,
    "displayName": "Triple Threat",
    "hidden": 0,
    "description": "End the three-way battle between yourself, the aliens, and the Cultists. (Path to War DLC Only)",
    "icon": "https://steamcdn-a.akamaihd.net/steamcommunity/public/images/apps/55110/758ca1d42ee73fb9f06aca01dfe944241bf7b5cf.jpg",
    "icongray": "https://steamcdn-a.akamaihd.net/steamcommunity/public/images/apps/55110/161153c4b46352ec02c65cf4a099d2aac12dcf47.jpg"
  },
  {
    "name": "Stick Around",
    "defaultvalue": 0,
    "displayName": "Stick Around",
    "hidden": 0,
    "description": "Get 20 kills with the Sharpshooter. (Path to War DLC Only)",
    "icon": "https://steamcdn-a.akamaihd.net/steamcommunity/public/images/apps/55110/a6bee29abffe65904cc8d1bba80ed642ebdb6110.jpg",
    "icongray": "https://steamcdn-a.akamaihd.net/steamcommunity/public/images/apps/55110/144e196a61d00bffdcb4fe4181fae1f845362551.jpg"
  },
  {
    "name": "Full of Malice",
    "defaultvalue": 0,
    "displayName": "Full of Malice",
    "hidden": 0,
    "description": "Kill Mallus. (Path to War DLC Only)",
    "icon": "https://steamcdn-a.akamaihd.net/steamcommunity/public/images/apps/55110/edc791d5d480535be780cac5d66d36fd1b132b21.jpg",
    "icongray": "https://steamcdn-a.akamaihd.net/steamcommunity/public/images/apps/55110/483ed4f02777ae4a81192e1ac9b99bdf5214192e.jpg"
  }
]