﻿{
  "Dlcs": {},
  "Name": "The chronicles of Emerland. Solitaire.",
  "AppId": "389400",
  "ImageUrl": "https://steamcdn-a.akamaihd.net/steam/apps/389400/header.jpg?t=1572442016",
  "Languages": [
    "english",
    "french",
    "italian",
    "german",
    "spanish",
    "japanese",
    "korean",
    "portuguese",
    "russian"
  ],
  "Platforms": {
    "windows": true,
    "mac": false,
    "linux": false
  }
}