﻿{
  "Dlcs": {},
  "Name": "inVR",
  "AppId": "466260",
  "ImageUrl": "https://steamcdn-a.akamaihd.net/steam/apps/466260/header.jpg?t=1482523284",
  "Languages": [
    "english"
  ],
  "Platforms": {
    "windows": true,
    "mac": false,
    "linux": false
  }
}