﻿{
  "Dlcs": {},
  "Name": "Tales of the Orient: The Rising Sun",
  "AppId": "339160",
  "ImageUrl": "https://steamcdn-a.akamaihd.net/steam/apps/339160/header.jpg?t=1572306640",
  "Languages": [
    "english",
    "french",
    "german",
    "czech",
    "polish",
    "portuguese",
    "russian",
    "italian",
    "spanish",
    "portuguese"
  ],
  "Platforms": {
    "windows": true,
    "mac": true,
    "linux": true
  }
}