﻿{
  "Dlcs": {},
  "Name": "The Secret of Pineview Forest",
  "AppId": "451960",
  "ImageUrl": "https://steamcdn-a.akamaihd.net/steam/apps/451960/header.jpg?t=1517298257",
  "Languages": [
    "english",
    "french",
    "italian",
    "german",
    "spanish"
  ],
  "Platforms": {
    "windows": true,
    "mac": false,
    "linux": false
  }
}