﻿{
  "Dlcs": {},
  "Name": "Praetorians",
  "AppId": "277460",
  "ImageUrl": "https://steamcdn-a.akamaihd.net/steam/apps/277460/header.jpg?t=1573829526",
  "Languages": [
    "english"
  ],
  "Platforms": {
    "windows": true,
    "mac": false,
    "linux": false
  }
}