﻿{
  "Dlcs": {
    "520900": {
      "Name": "Line of Sight - Premium Pack I",
      "ImageUrl": "https://steamcdn-a.akamaihd.net/steam/apps/520900/header.jpg?t=1485862521"
    },
    "557290": {
      "Name": "Line of Sight - Starters Pack",
      "ImageUrl": "https://steamcdn-a.akamaihd.net/steam/apps/557290/header.jpg?t=1576053045"
    }
  },
  "Name": "Line of Sight",
  "AppId": "436520",
  "ImageUrl": "https://steamcdn-a.akamaihd.net/steam/apps/436520/header.jpg?t=1576052887",
  "Languages": [
    "english",
    "french",
    "italian",
    "german",
    "spanish",
    "dutch",
    "korean",
    "portuguese",
    "russian",
    "turkish",
    "japanese",
    "schinese",
    "portuguese",
    "thai"
  ],
  "Platforms": {
    "windows": true,
    "mac": false,
    "linux": false
  }
}