﻿[
  {
    "name": "ACH_PRO_MODE",
    "defaultvalue": 0,
    "displayName": "Professional Edition Purchased",
    "hidden": 1,
    "icon": "https://steamcdn-a.akamaihd.net/steamcommunity/public/images/apps/627530/014624f126f5d1d1dde2b3bd19309f610e643180.jpg",
    "icongray": "https://steamcdn-a.akamaihd.net/steamcommunity/public/images/apps/627530/014624f126f5d1d1dde2b3bd19309f610e643180.jpg"
  },
  {
    "name": "ACH_TRIAL_PRO_MODE",
    "defaultvalue": 0,
    "displayName": "Professional Trial Mode Tested",
    "hidden": 1,
    "icon": "https://steamcdn-a.akamaihd.net/steamcommunity/public/images/apps/627530/014624f126f5d1d1dde2b3bd19309f610e643180.jpg",
    "icongray": "https://steamcdn-a.akamaihd.net/steamcommunity/public/images/apps/627530/014624f126f5d1d1dde2b3bd19309f610e643180.jpg"
  },
  {
    "name": "ACH_STANDARD_MODE",
    "defaultvalue": 0,
    "displayName": "Standard Edition Purchased",
    "hidden": 1,
    "icon": "https://steamcdn-a.akamaihd.net/steamcommunity/public/images/apps/627530/014624f126f5d1d1dde2b3bd19309f610e643180.jpg",
    "icongray": "https://steamcdn-a.akamaihd.net/steamcommunity/public/images/apps/627530/bf7c663c067258582cbef87d5532720340df7dfe.jpg"
  }
]