﻿{
  "Dlcs": {},
  "Name": "Hoverloop",
  "AppId": "613620",
  "ImageUrl": "https://steamcdn-a.akamaihd.net/steam/apps/613620/header.jpg?t=1573555315",
  "Languages": [
    "english"
  ],
  "Platforms": {
    "windows": true,
    "mac": false,
    "linux": false
  }
}