﻿{
  "Dlcs": {},
  "Name": "Infernales: Circles of Hell",
  "AppId": "809490",
  "ImageUrl": "https://steamcdn-a.akamaihd.net/steam/apps/809490/header.jpg?t=1521238535",
  "Languages": [
    "english",
    "russian"
  ],
  "Platforms": {
    "windows": true,
    "mac": false,
    "linux": false
  }
}