﻿[
  {
    "name": "ACH_DREAM_PET",
    "defaultvalue": 0,
    "displayName": "Dream Pet",
    "hidden": 0,
    "description": "Transform your pet in all the available companions.",
    "icon": "https://steamcdn-a.akamaihd.net/steamcommunity/public/images/apps/276890/4a77f39341017869e1d69621413a0ad8df8c5211.jpg",
    "icongray": "https://steamcdn-a.akamaihd.net/steamcommunity/public/images/apps/276890/f8f739189c5cab37fffaa70d7c1ffed59d953b37.jpg"
  },
  {
    "name": "ACH_THE_WRECKER",
    "defaultvalue": 0,
    "displayName": "The Wrecker",
    "hidden": 0,
    "description": "Destroy every chest, urn, barrel and wooden box on a single level.",
    "icon": "https://steamcdn-a.akamaihd.net/steamcommunity/public/images/apps/276890/3a7aff5305a480a7c2bacd87b1581b9b129c2a4b.jpg",
    "icongray": "https://steamcdn-a.akamaihd.net/steamcommunity/public/images/apps/276890/447f6e14f045f6c7e221864e47ccbffe85719ed3.jpg"
  },
  {
    "name": "ACH_SKY_LIMIT",
    "defaultvalue": 0,
    "displayName": "Sky is the limit",
    "hidden": 0,
    "description": "Collect all 6 Fate cards in any one set.",
    "icon": "https://steamcdn-a.akamaihd.net/steamcommunity/public/images/apps/276890/21c4c27f6ebb9a5c53f316a6407bc8b40a80bf23.jpg",
    "icongray": "https://steamcdn-a.akamaihd.net/steamcommunity/public/images/apps/276890/c1e02f0c1b9f73bd8045e826d87b5e48560b5a6d.jpg"
  },
  {
    "name": "ACH_PRINCE_THIEVES",
    "defaultvalue": 0,
    "displayName": "Prince of Thieves",
    "hidden": 0,
    "description": "Recover and return to the statues all the stolen equipment of the legendary heroes from Druantia and Typhoon.",
    "icon": "https://steamcdn-a.akamaihd.net/steamcommunity/public/images/apps/276890/f0b29ded39c46750b1935c64a252990828ea8810.jpg",
    "icongray": "https://steamcdn-a.akamaihd.net/steamcommunity/public/images/apps/276890/5c95238dde826d9c139d1e366da8c753d770186d.jpg"
  },
  {
    "name": "ACH_RECKLESS_FATE",
    "defaultvalue": 0,
    "displayName": "Reckless Fate",
    "hidden": 0,
    "description": "Complete the game in Hardcore Mode.",
    "icon": "https://steamcdn-a.akamaihd.net/steamcommunity/public/images/apps/276890/03cdd3c0ff9c3f23b267fc8430525a7e94669e99.jpg",
    "icongray": "https://steamcdn-a.akamaihd.net/steamcommunity/public/images/apps/276890/c786401bfe9d5fff93c493b3c3ca8d938b82eae7.jpg"
  },
  {
    "name": "ACH_GOOD_BOY",
    "defaultvalue": 0,
    "displayName": "Good Boy!",
    "hidden": 0,
    "description": "Send your pet to town at least 10 times from the 40th floor.",
    "icon": "https://steamcdn-a.akamaihd.net/steamcommunity/public/images/apps/276890/5e937ef70474c6d194d3577bdc62eb7861c9af77.jpg",
    "icongray": "https://steamcdn-a.akamaihd.net/steamcommunity/public/images/apps/276890/2ead7bec8b249e8976e6433e0de4f2a4a6855b86.jpg"
  },
  {
    "name": "ACH_SMASHER",
    "defaultvalue": 0,
    "displayName": "Smasher",
    "hidden": 0,
    "description": "Get 50 critical hits!",
    "icon": "https://steamcdn-a.akamaihd.net/steamcommunity/public/images/apps/276890/a2f50ccb31c28bc5bbd2ad13405a5388cb0d5f0d.jpg",
    "icongray": "https://steamcdn-a.akamaihd.net/steamcommunity/public/images/apps/276890/a2350cd08981380c499fcdfb1096eccea3385195.jpg"
  },
  {
    "name": "ACH_LANCE_LOT",
    "defaultvalue": 0,
    "displayName": "Lance An Awful Lot",
    "hidden": 0,
    "description": "Reach the maximum level of Spear Skill. ",
    "icon": "https://steamcdn-a.akamaihd.net/steamcommunity/public/images/apps/276890/3c468a3ea5d08fe1d2fa73432c1cf8516235bd8a.jpg",
    "icongray": "https://steamcdn-a.akamaihd.net/steamcommunity/public/images/apps/276890/cac50c436e080a37534c86841ca3e7eff7d23433.jpg"
  },
  {
    "name": "ACH_WITCHCRAFT",
    "defaultvalue": 0,
    "displayName": "Witchcraft Master",
    "hidden": 0,
    "description": "Use any spell 100 times.",
    "icon": "https://steamcdn-a.akamaihd.net/steamcommunity/public/images/apps/276890/786a3b746c4240bc329c5ed921863128b1474f6a.jpg",
    "icongray": "https://steamcdn-a.akamaihd.net/steamcommunity/public/images/apps/276890/dbe880ce8aacbc0f7830c1b3fb97882e5cd3103a.jpg"
  },
  {
    "name": "ACH_LIGHT_SPEED",
    "defaultvalue": 0,
    "displayName": "Light Speed Killer",
    "hidden": 0,
    "description": "Kill 5 enemies in 15 seconds",
    "icon": "https://steamcdn-a.akamaihd.net/steamcommunity/public/images/apps/276890/80331c23fd544261801f34dcdc4e9e22789693f2.jpg",
    "icongray": "https://steamcdn-a.akamaihd.net/steamcommunity/public/images/apps/276890/3b568297bdb1bfb1ebce21d7f6b538846b3daed1.jpg"
  }
]