﻿{
  "Dlcs": {},
  "Name": "bit Dungeon+",
  "AppId": "440020",
  "ImageUrl": "https://steamcdn-a.akamaihd.net/steam/apps/440020/header.jpg?t=1543413850",
  "Languages": [
    "english",
    "french",
    "italian",
    "german",
    "spanish",
    "schinese",
    "portuguese",
    "russian"
  ],
  "Platforms": {
    "windows": true,
    "mac": true,
    "linux": false
  }
}