﻿{
  "Dlcs": {},
  "Name": "JUMPER : SPEEDRUN",
  "AppId": "688150",
  "ImageUrl": "https://steamcdn-a.akamaihd.net/steam/apps/688150/header.jpg?t=1541097316",
  "Languages": [
    "english"
  ],
  "Platforms": {
    "windows": true,
    "mac": false,
    "linux": false
  }
}