﻿{
  "Dlcs": {},
  "Name": "Death Penalty: Beginning",
  "AppId": "570380",
  "ImageUrl": "https://steamcdn-a.akamaihd.net/steam/apps/570380/header.jpg?t=1530294112",
  "Languages": [
    "english",
    "ukrainian"
  ],
  "Platforms": {
    "windows": true,
    "mac": false,
    "linux": false
  }
}