﻿{
  "Dlcs": {},
  "Name": "Mini World: Block Art",
  "AppId": "814480",
  "ImageUrl": "https://steamcdn-a.akamaihd.net/steam/apps/814480/header.jpg?t=1588634188",
  "Languages": [
    "english",
    "french",
    "spanish",
    "japanese",
    "thai",
    "schinese",
    "tchinese",
    "portuguese",
    "italian",
    "german",
    "russian",
    "turkish",
    "portuguese",
    "latam",
    "vietnamese",
    "korean"
  ],
  "Platforms": {
    "windows": true,
    "mac": false,
    "linux": false
  }
}