﻿{
  "Dlcs": {},
  "Name": "Chainz 2: Relinked",
  "AppId": "32120",
  "ImageUrl": "https://steamcdn-a.akamaihd.net/steam/apps/32120/header.jpg?t=1447352269",
  "Languages": [
    "english",
    "french",
    "german",
    "italian",
    "spanish",
    "swedish"
  ],
  "Platforms": {
    "windows": true,
    "mac": false,
    "linux": false
  }
}