﻿{
  "Dlcs": {},
  "Name": "Zombie Vikings: Stab-a-thon",
  "AppId": "566910",
  "ImageUrl": "https://steamcdn-a.akamaihd.net/steam/apps/566910/header.jpg?t=1572440833",
  "Languages": [
    "english",
    "french",
    "italian",
    "german",
    "spanish",
    "japanese",
    "russian"
  ],
  "Platforms": {
    "windows": true,
    "mac": false,
    "linux": false
  }
}