﻿{
  "Dlcs": {
    "1120304": {
      "Name": "DCS: P-47D Thunderbolt",
      "ImageUrl": "https://steamcdn-a.akamaihd.net/steam/apps/1120304/header.jpg?t=1591572322"
    },
    "1090850": {
      "Name": "DCS: F-16C Viper",
      "ImageUrl": "https://steamcdn-a.akamaihd.net/steam/apps/1090850/header.jpg?t=1596105274"
    },
    "411950": {
      "Name": "DCS: F/A-18C Hornet",
      "ImageUrl": "https://steamcdn-a.akamaihd.net/steam/apps/411950/header.jpg?t=1587153977"
    },
    "1120300": {
      "Name": "DCS: Syria",
      "ImageUrl": "https://steamcdn-a.akamaihd.net/steam/apps/1120300/header.jpg?t=1599669122"
    },
    "1120302": {
      "Name": "F/A-18C: Aggressors BFM Campaign",
      "ImageUrl": "https://steamcdn-a.akamaihd.net/steam/apps/1120302/header.jpg?t=1584833960"
    },
    "1199120": {
      "Name": "DCS: JF-17 Thunder",
      "ImageUrl": "https://steamcdn-a.akamaihd.net/steam/apps/1199120/header.jpg?t=1596555177"
    },
    "411890": {
      "Name": "DCS: Persian Gulf",
      "ImageUrl": "https://steamcdn-a.akamaihd.net/steam/apps/411890/header.jpg?t=1594849737"
    },
    "1101970": {
      "Name": "DCS: Fw 190 A-8",
      "ImageUrl": "https://steamcdn-a.akamaihd.net/steam/apps/1101970/header.jpg?t=1587154071"
    },
    "411893": {
      "Name": "DCS: F-14 by Heatblur Simulations",
      "ImageUrl": "https://steamcdn-a.akamaihd.net/steam/apps/411893/header.jpg?t=1584479883"
    },
    "1084210": {
      "Name": "DCS: I-16",
      "ImageUrl": "https://steamcdn-a.akamaihd.net/steam/apps/1084210/header.jpg?t=1584834506"
    },
    "1024702": {
      "Name": "DCS: MiG-19P Farmer",
      "ImageUrl": "https://steamcdn-a.akamaihd.net/steam/apps/1024702/header.jpg?t=1558211608"
    },
    "1024703": {
      "Name": "DCS: Christen Eagle II",
      "ImageUrl": "https://steamcdn-a.akamaihd.net/steam/apps/1024703/header.jpg?t=1584834849"
    },
    "316966": {
      "Name": "DCS: C-101 Aviojet",
      "ImageUrl": "https://steamcdn-a.akamaihd.net/steam/apps/316966/header.jpg?t=1589450969"
    },
    "957110": {
      "Name": "MiG-29 for DCS World",
      "ImageUrl": "https://steamcdn-a.akamaihd.net/steam/apps/957110/header.jpg?t=1562746628"
    },
    "917390": {
      "Name": "DCS: Yak-52",
      "ImageUrl": "https://steamcdn-a.akamaihd.net/steam/apps/917390/header.jpg?t=1536838408"
    },
    "245810": {
      "Name": "DCS: A-10C Warthog",
      "ImageUrl": "https://steamcdn-a.akamaihd.net/steam/apps/245810/header.jpg?t=1589451832"
    },
    "1061310": {
      "Name": "DCS: A-10C Warthog - The Enemy Within 3.0 Campaign",
      "ImageUrl": "https://steamcdn-a.akamaihd.net/steam/apps/1061310/header.jpg?t=1584834689"
    },
    "411901": {
      "Name": "A-10C: Red Flag Campaign",
      "ImageUrl": "https://steamcdn-a.akamaihd.net/steam/apps/411901/header.jpg?t=1586793465"
    },
    "706180": {
      "Name": "A-10C: Tactical Training Qualification Campaign",
      "ImageUrl": "https://steamcdn-a.akamaihd.net/steam/apps/706180/header.jpg?t=1509653838"
    },
    "555531": {
      "Name": "A-10C: Basic Flight Training Campaign",
      "ImageUrl": "https://steamcdn-a.akamaihd.net/steam/apps/555531/header.jpg?t=1586793321"
    },
    "555530": {
      "Name": "A-10C: Advanced Aircraft Training Qualification Campaign",
      "ImageUrl": "https://steamcdn-a.akamaihd.net/steam/apps/555530/header.jpg?t=1586793085"
    },
    "602620": {
      "Name": "A-10C: Stone Shield Campaign",
      "ImageUrl": "https://steamcdn-a.akamaihd.net/steam/apps/602620/header.jpg?t=1503672646"
    },
    "249320": {
      "Name": "DCS: Flaming Cliffs 3",
      "ImageUrl": "https://steamcdn-a.akamaihd.net/steam/apps/249320/header.jpg?t=1586796483"
    },
    "684850": {
      "Name": "DCS: Normandy 1944 Map",
      "ImageUrl": "https://steamcdn-a.akamaihd.net/steam/apps/684850/header.jpg?t=1587154086"
    },
    "684851": {
      "Name": "DCS: World War II Assets Pack",
      "ImageUrl": "https://steamcdn-a.akamaihd.net/steam/apps/684851/header.jpg?t=1587154179"
    },
    "411891": {
      "Name": "DCS: NEVADA Test and Training Range Map",
      "ImageUrl": "https://steamcdn-a.akamaihd.net/steam/apps/411891/header.jpg?t=1585868076"
    },
    "306240": {
      "Name": "",
      "ImageUrl": ""
    },
    "1357330": {
      "Name": "DCS: F-86F Sabre Hunters Over the Yalu Campaign",
      "ImageUrl": "https://steamcdn-a.akamaihd.net/steam/apps/1357330/header.jpg?t=1599669250"
    },
    "602623": {
      "Name": "The Museum Relic Campaign",
      "ImageUrl": "https://steamcdn-a.akamaihd.net/steam/apps/602623/header.jpg?t=1509670141"
    },
    "316967": {
      "Name": "DCS: MiG-15Bis",
      "ImageUrl": "https://steamcdn-a.akamaihd.net/steam/apps/316967/header.jpg?t=1586795557"
    },
    "411894": {
      "Name": "DCS: F-5E Tiger II",
      "ImageUrl": "https://steamcdn-a.akamaihd.net/steam/apps/411894/header.jpg?t=1587153959"
    },
    "685080": {
      "Name": "F-5E: Aggressors Air Combat Maneuver Campaign",
      "ImageUrl": "https://steamcdn-a.akamaihd.net/steam/apps/685080/header.jpg?t=1591180185"
    },
    "602622": {
      "Name": "F-5E: Aggressors Basic Fighter Maneuvers Campaign",
      "ImageUrl": "https://steamcdn-a.akamaihd.net/steam/apps/602622/header.jpg?t=1562745350"
    },
    "316965": {
      "Name": "DCS: L-39 Albatros",
      "ImageUrl": "https://steamcdn-a.akamaihd.net/steam/apps/316965/header.jpg?t=1586795259"
    },
    "890290": {
      "Name": "DCS: L-39 Albatros - Kursant Campaign",
      "ImageUrl": "https://steamcdn-a.akamaihd.net/steam/apps/890290/header.jpg?t=1589453441"
    },
    "759130": {
      "Name": "DCS: AV-8B Night Attack V/STOL",
      "ImageUrl": "https://steamcdn-a.akamaihd.net/steam/apps/759130/header.jpg?t=1584647302"
    },
    "411892": {
      "Name": "DCS: M-2000C",
      "ImageUrl": "https://steamcdn-a.akamaihd.net/steam/apps/411892/header.jpg?t=1586795320"
    },
    "890250": {
      "Name": "DCS: M-2000C - Red Flag Campaign by Baltic Dragon",
      "ImageUrl": "https://steamcdn-a.akamaihd.net/steam/apps/890250/header.jpg?t=1589453582"
    },
    "411930": {
      "Name": "DCS: AJS-37 Viggen",
      "ImageUrl": "https://steamcdn-a.akamaihd.net/steam/apps/411930/header.jpg?t=1562736537"
    },
    "316964": {
      "Name": "DCS: MiG-21Bis",
      "ImageUrl": "https://steamcdn-a.akamaihd.net/steam/apps/316964/header.jpg?t=1550321335"
    },
    "223770": {
      "Name": "DCS: P-51D Mustang",
      "ImageUrl": "https://steamcdn-a.akamaihd.net/steam/apps/223770/header.jpg?t=1587154103"
    },
    "780140": {
      "Name": "DCS: P-51D Mustang - Operation Charnwood Campaign",
      "ImageUrl": "https://steamcdn-a.akamaihd.net/steam/apps/780140/header.jpg?t=1562746941"
    },
    "555532": {
      "Name": "P-51D: High Stakes Campaign",
      "ImageUrl": "https://steamcdn-a.akamaihd.net/steam/apps/555532/header.jpg?t=1586796672"
    },
    "1024701": {
      "Name": "DCS: P-51D Mustang Blue Nosed Bastards of Bodney Campaign",
      "ImageUrl": "https://steamcdn-a.akamaihd.net/steam/apps/1024701/header.jpg?t=1589450777"
    },
    "411920": {
      "Name": "DCS: Spitfire LF Mk IX",
      "ImageUrl": "https://steamcdn-a.akamaihd.net/steam/apps/411920/header.jpg?t=1587154119"
    },
    "695860": {
      "Name": "Spitfire: Epsom Campaign",
      "ImageUrl": "https://steamcdn-a.akamaihd.net/steam/apps/695860/header.jpg?t=1562747938"
    },
    "1024704": {
      "Name": "DCS: Spitfire LF Mk.IX The Big Show Campaign",
      "ImageUrl": "https://steamcdn-a.akamaihd.net/steam/apps/1024704/header.jpg?t=1562744255"
    },
    "250990": {
      "Name": "DCS: Fw 190 D-9 Dora",
      "ImageUrl": "https://steamcdn-a.akamaihd.net/steam/apps/250990/header.jpg?t=1587154076"
    },
    "316960": {
      "Name": "DCS: Bf 109 K-4 Kurfürst",
      "ImageUrl": "https://steamcdn-a.akamaihd.net/steam/apps/316960/header.jpg?t=1587154166"
    },
    "933980": {
      "Name": "DCS: NS 430 Navigation System",
      "ImageUrl": "https://steamcdn-a.akamaihd.net/steam/apps/933980/header.jpg?t=1588422519"
    },
    "240280": {
      "Name": "DCS: Black Shark 2",
      "ImageUrl": "https://steamcdn-a.akamaihd.net/steam/apps/240280/header.jpg?t=1589451907"
    },
    "316961": {
      "Name": "Black Shark 2: Republic Campaign",
      "ImageUrl": "https://steamcdn-a.akamaihd.net/steam/apps/316961/header.jpg?t=1586793611"
    },
    "240500": {
      "Name": "DCS: UH-1H Huey",
      "ImageUrl": "https://steamcdn-a.akamaihd.net/steam/apps/240500/header.jpg?t=1586796102"
    },
    "1141980": {
      "Name": "DCS: UH-1H Huey - Worlds Apart Spring 2025 Campaign",
      "ImageUrl": "https://steamcdn-a.akamaihd.net/steam/apps/1141980/header.jpg?t=1585127197"
    },
    "728302": {
      "Name": "UH-1H: Argo Campaign",
      "ImageUrl": "https://steamcdn-a.akamaihd.net/steam/apps/728302/header.jpg?t=1589453168"
    },
    "249310": {
      "Name": "DCS: Mi-8 MTV2 Magnificent Eight",
      "ImageUrl": "https://steamcdn-a.akamaihd.net/steam/apps/249310/header.jpg?t=1589452278"
    },
    "728301": {
      "Name": "Mi-8MTV2: Oilfield Campaign",
      "ImageUrl": "https://steamcdn-a.akamaihd.net/steam/apps/728301/header.jpg?t=1562745849"
    },
    "602621": {
      "Name": "Mi-8MTV2: The Border Campaign",
      "ImageUrl": "https://steamcdn-a.akamaihd.net/steam/apps/602621/header.jpg?t=1562746189"
    },
    "935010": {
      "Name": "DCS: Mi-8MTV2 and Ka-50 Memory of a Hero Campaign",
      "ImageUrl": "https://steamcdn-a.akamaihd.net/steam/apps/935010/header.jpg?t=1537996819"
    },
    "411910": {
      "Name": "DCS: SA342M Gazelle",
      "ImageUrl": "https://steamcdn-a.akamaihd.net/steam/apps/411910/header.jpg?t=1586795887"
    },
    "250300": {
      "Name": "F-15C for DCS World",
      "ImageUrl": "https://steamcdn-a.akamaihd.net/steam/apps/250300/header.jpg?t=1589452750"
    },
    "411900": {
      "Name": "F-15C: Red Flag Campaign",
      "ImageUrl": "https://steamcdn-a.akamaihd.net/steam/apps/411900/header.jpg?t=1562744817"
    },
    "728300": {
      "Name": "F-15C: The Georgian War Campaign",
      "ImageUrl": "https://steamcdn-a.akamaihd.net/steam/apps/728300/header.jpg?t=1562745220"
    },
    "918970": {
      "Name": "F-15C: Aggressors BFM Campaign",
      "ImageUrl": "https://steamcdn-a.akamaihd.net/steam/apps/918970/header.jpg?t=1590245528"
    },
    "250310": {
      "Name": "",
      "ImageUrl": ""
    },
    "316963": {
      "Name": "Su-27: The Ultimate Argument Campaign",
      "ImageUrl": "https://steamcdn-a.akamaihd.net/steam/apps/316963/header.jpg?t=1590315934"
    },
    "726690": {
      "Name": "Su-33 for DCS World",
      "ImageUrl": "https://steamcdn-a.akamaihd.net/steam/apps/726690/header.jpg?t=1589453291"
    },
    "245570": {
      "Name": "A-10A for DCS World",
      "ImageUrl": "https://steamcdn-a.akamaihd.net/steam/apps/245570/header.jpg?t=1589452078"
    },
    "245580": {
      "Name": "Su-25 for DCS World",
      "ImageUrl": "https://steamcdn-a.akamaihd.net/steam/apps/245580/header.jpg?t=1589451985"
    },
    "240300": {
      "Name": "DCS: Combined Arms",
      "ImageUrl": "https://steamcdn-a.akamaihd.net/steam/apps/240300/header.jpg?t=1589972431"
    },
    "316962": {
      "Name": "Hawk for DCS World",
      "ImageUrl": "https://steamcdn-a.akamaihd.net/steam/apps/316962/header.jpg?t=1537514343"
    },
    "1024700": {
      "Name": "DCS: Combined Arms Frontlines Georgia Campaign",
      "ImageUrl": "https://steamcdn-a.akamaihd.net/steam/apps/1024700/header.jpg?t=1570636686"
    },
    "1120301": {
      "Name": "DCS: The Channel",
      "ImageUrl": "https://steamcdn-a.akamaihd.net/steam/apps/1120301/header.jpg?t=1591572251"
    },
    "1120305": {
      "Name": "DCS: Supercarrier",
      "ImageUrl": "https://steamcdn-a.akamaihd.net/steam/apps/1120305/header.jpg?t=1591404258"
    },
    "1347090": {
      "Name": "DCS: F/A-18C Hornet The Serpent's Head 2 Campaign",
      "ImageUrl": "https://steamcdn-a.akamaihd.net/steam/apps/1347090/header.jpg?t=1599670607"
    }
  },
  "Name": "DCS World Steam Edition",
  "AppId": "223750",
  "ImageUrl": "https://steamcdn-a.akamaihd.net/steam/apps/223750/header.jpg?t=1597940406",
  "Languages": [
    "english",
    "german",
    "spanish",
    "russian",
    "czech",
    "french",
    "schinese"
  ],
  "Platforms": {
    "windows": true,
    "mac": false,
    "linux": false
  }
}