﻿{
  "Dlcs": {
    "225270": {
      "Name": "",
      "ImageUrl": ""
    }
  },
  "Name": "Brutal Legend",
  "AppId": "225260",
  "ImageUrl": "https://steamcdn-a.akamaihd.net/steam/apps/225260/header.jpg?t=1584655158",
  "Languages": [
    "english",
    "german",
    "french",
    "italian",
    "spanish"
  ],
  "Platforms": {
    "windows": true,
    "mac": true,
    "linux": true
  }
}