﻿{
  "Dlcs": {},
  "Name": "Tex Murphy: Overseer",
  "AppId": "302370",
  "ImageUrl": "https://steamcdn-a.akamaihd.net/steam/apps/302370/header.jpg?t=1569517977",
  "Languages": [
    "english"
  ],
  "Platforms": {
    "windows": true,
    "mac": false,
    "linux": false
  }
}