﻿[
  {
    "name": "achi_HALLOWEEN",
    "defaultvalue": 0,
    "displayName": "HALLOWEEN ADVENTURE",
    "hidden": 0,
    "description": "Start fighting in Halloween episode",
    "icon": "https://steamcdn-a.akamaihd.net/steamcommunity/public/images/apps/655460/dcdb1de6aa9f4ae9970c17926644e5a5fee4d1a9.jpg",
    "icongray": "https://steamcdn-a.akamaihd.net/steamcommunity/public/images/apps/655460/bd467084f780b517d486a9c878a90f39250f6e5b.jpg"
  },
  {
    "name": "achi_SNIPER",
    "defaultvalue": 0,
    "displayName": "SNIPER",
    "hidden": 0,
    "description": "Kill 5 enemies with 5 bullets",
    "icon": "https://steamcdn-a.akamaihd.net/steamcommunity/public/images/apps/655460/ae333088e6ed0f6c2c25f494807153d735449bd4.jpg",
    "icongray": "https://steamcdn-a.akamaihd.net/steamcommunity/public/images/apps/655460/cb86a471bc3f7f8a7fe60368786bc08881ef8fad.jpg"
  },
  {
    "name": "achi_BALCONY_DESTROYER",
    "defaultvalue": 0,
    "displayName": "BALCONY DESTROYER",
    "hidden": 0,
    "description": "Break off a balcony from the wall",
    "icon": "https://steamcdn-a.akamaihd.net/steamcommunity/public/images/apps/655460/99e9b608a504afa4d36a7676c26e6a1e022528b1.jpg",
    "icongray": "https://steamcdn-a.akamaihd.net/steamcommunity/public/images/apps/655460/7dc9ba3d8860447a763c88b8b45234afcf9c373f.jpg"
  },
  {
    "name": "achi_HEADSHOT",
    "defaultvalue": 0,
    "displayName": "HEADSHOT",
    "hidden": 0,
    "description": "Kill an enemy with falling balcony",
    "icon": "https://steamcdn-a.akamaihd.net/steamcommunity/public/images/apps/655460/aea391ef9ac804d9fe154da929f05e1cb9128165.jpg",
    "icongray": "https://steamcdn-a.akamaihd.net/steamcommunity/public/images/apps/655460/55a3d3d3f5ac0c71a09acf4e639b93439cf91c52.jpg"
  },
  {
    "name": "achi_BOOM",
    "defaultvalue": 0,
    "displayName": "BOOM",
    "hidden": 0,
    "description": "Use a firecracker",
    "icon": "https://steamcdn-a.akamaihd.net/steamcommunity/public/images/apps/655460/7cea98522ea58c2ea1c84becaa1221b5931ad243.jpg",
    "icongray": "https://steamcdn-a.akamaihd.net/steamcommunity/public/images/apps/655460/b1d2ecd8ca1ffa7316c3cb29f6790210b639567d.jpg"
  },
  {
    "name": "achi_TRIPLE_KILL",
    "defaultvalue": 0,
    "displayName": "TRIPLE KILL",
    "hidden": 0,
    "description": "Kill 3 enemies with one firecracker",
    "icon": "https://steamcdn-a.akamaihd.net/steamcommunity/public/images/apps/655460/0ac3eb27259de0184490e99a679dbb0fb6f06806.jpg",
    "icongray": "https://steamcdn-a.akamaihd.net/steamcommunity/public/images/apps/655460/a6acbee1d5049d4ad7f12975cfb663b5d11067e1.jpg"
  },
  {
    "name": "achi_MULTI_KILL",
    "defaultvalue": 0,
    "displayName": "MULTI KILL",
    "hidden": 0,
    "description": "Kill 4 enemies with one firecracker",
    "icon": "https://steamcdn-a.akamaihd.net/steamcommunity/public/images/apps/655460/9aa78c3b4d709e87c795c109102e0858d877be7a.jpg",
    "icongray": "https://steamcdn-a.akamaihd.net/steamcommunity/public/images/apps/655460/b8b9ead1a2f8c19cbcc6f5cf7ca3b0e93bedf7d2.jpg"
  },
  {
    "name": "achi_GODLIKE",
    "defaultvalue": 0,
    "displayName": "GODLIKE",
    "hidden": 0,
    "description": "Kill 5 enemies with one firecracker",
    "icon": "https://steamcdn-a.akamaihd.net/steamcommunity/public/images/apps/655460/be28e5cbe2d15d1333a525d8ab1900b8f7f0a47b.jpg",
    "icongray": "https://steamcdn-a.akamaihd.net/steamcommunity/public/images/apps/655460/8cde5f82368b5a24368c5f84ecff08c49732d967.jpg"
  },
  {
    "name": "achi_INVULNERABLE",
    "defaultvalue": 0,
    "displayName": "INVULNERABLE",
    "hidden": 0,
    "description": "Finish a level without incurring any damage",
    "icon": "https://steamcdn-a.akamaihd.net/steamcommunity/public/images/apps/655460/a2cfb907f043120737191ad414b5e6e0f6cbd9d5.jpg",
    "icongray": "https://steamcdn-a.akamaihd.net/steamcommunity/public/images/apps/655460/8bff353c1783a8d1f8e216f1e0be9f93e7063b19.jpg"
  },
  {
    "name": "achi_CAT_HATER",
    "defaultvalue": 0,
    "displayName": "CAT HATER",
    "hidden": 0,
    "description": "Hit 50 cats jumping upon Vasja",
    "icon": "https://steamcdn-a.akamaihd.net/steamcommunity/public/images/apps/655460/f9a8bbd08e7794c6e069726a02354d0046356483.jpg",
    "icongray": "https://steamcdn-a.akamaihd.net/steamcommunity/public/images/apps/655460/b6c4019bd3ec19dd293588abc89a6d4d0be28312.jpg"
  },
  {
    "name": "achi_WITCH",
    "defaultvalue": 0,
    "displayName": "WITCHCRAFT",
    "hidden": 0,
    "description": "Kill 250 Witches",
    "icon": "https://steamcdn-a.akamaihd.net/steamcommunity/public/images/apps/655460/f467ce72a76c003bafdd20824abee7165b6ea71f.jpg",
    "icongray": "https://steamcdn-a.akamaihd.net/steamcommunity/public/images/apps/655460/85c5244717817aaedd8b88643678916c9eef142c.jpg"
  },
  {
    "name": "achi_VAMPIRE",
    "defaultvalue": 0,
    "displayName": "DRACULA'S HEIRS",
    "hidden": 0,
    "description": "Kill 125 Vampires",
    "icon": "https://steamcdn-a.akamaihd.net/steamcommunity/public/images/apps/655460/e2418f8f64c7125df980edac7492a1bca313d784.jpg",
    "icongray": "https://steamcdn-a.akamaihd.net/steamcommunity/public/images/apps/655460/57e91402e245d1aef3b0eb77c02949cfbc6e61f2.jpg"
  },
  {
    "name": "achi_SKELETON",
    "defaultvalue": 0,
    "displayName": "NEIGHBORS' REMAINS",
    "hidden": 0,
    "description": "Kill 75 Skeletons",
    "icon": "https://steamcdn-a.akamaihd.net/steamcommunity/public/images/apps/655460/703f8c264e23ec190de11e0a152b9fe5c3183e38.jpg",
    "icongray": "https://steamcdn-a.akamaihd.net/steamcommunity/public/images/apps/655460/95b5e56577f5b06b49bacf9c08a6110f747c751e.jpg"
  },
  {
    "name": "achi_ZOMBIE",
    "defaultvalue": 0,
    "displayName": "DANCING ZOMBIES",
    "hidden": 0,
    "description": "Kill 25 Zombies",
    "icon": "https://steamcdn-a.akamaihd.net/steamcommunity/public/images/apps/655460/a6f70fff12965c0534fa78b3504a7a88f11cdfe6.jpg",
    "icongray": "https://steamcdn-a.akamaihd.net/steamcommunity/public/images/apps/655460/5fc52f3d750ba6783592a3368f8a8384bc5f0906.jpg"
  },
  {
    "name": "achi_SCYTCHEMAN",
    "defaultvalue": 0,
    "displayName": "RESURRECTION",
    "hidden": 0,
    "description": "Kill 15 Grim Reapers",
    "icon": "https://steamcdn-a.akamaihd.net/steamcommunity/public/images/apps/655460/6a6781a6cc211926a65a3fb937885431d9bd5818.jpg",
    "icongray": "https://steamcdn-a.akamaihd.net/steamcommunity/public/images/apps/655460/091875ee48d69706eed3d200ca8a2f9d1e8fec3a.jpg"
  },
  {
    "name": "achi_JACK_O_LANTERN",
    "defaultvalue": 0,
    "displayName": "SQUASH",
    "hidden": 0,
    "description": "Defeat the Jack-o'-Lantern",
    "icon": "https://steamcdn-a.akamaihd.net/steamcommunity/public/images/apps/655460/0b76247f5f60a48cce6dabf8350ef28adff9d1ea.jpg",
    "icongray": "https://steamcdn-a.akamaihd.net/steamcommunity/public/images/apps/655460/7f6d56d3d68440f48febe832d4370e921ede04a7.jpg"
  },
  {
    "name": "achi_DRACULA",
    "defaultvalue": 0,
    "displayName": "DRACULA",
    "hidden": 0,
    "description": "Defeat Dracula",
    "icon": "https://steamcdn-a.akamaihd.net/steamcommunity/public/images/apps/655460/739588cf2c0e9f0b5ef23e90992979dae96a4618.jpg",
    "icongray": "https://steamcdn-a.akamaihd.net/steamcommunity/public/images/apps/655460/1f29b6fe540486c337cc1b28a81f679b2e3faef7.jpg"
  },
  {
    "name": "achi_SKULL",
    "defaultvalue": 0,
    "displayName": "SKULL",
    "hidden": 0,
    "description": "Defeat Skull",
    "icon": "https://steamcdn-a.akamaihd.net/steamcommunity/public/images/apps/655460/afb8333c13d28358f5cf70fd831b1f301fb46420.jpg",
    "icongray": "https://steamcdn-a.akamaihd.net/steamcommunity/public/images/apps/655460/02e191445c539955da7517f5c2285aab1106cbd7.jpg"
  },
  {
    "name": "achi_FRANKENSTEIN_ENTITY",
    "defaultvalue": 0,
    "displayName": "FRANKENSTEIN'S BABY",
    "hidden": 0,
    "description": "Defeat Frankenstein's baby",
    "icon": "https://steamcdn-a.akamaihd.net/steamcommunity/public/images/apps/655460/99a003cc86d060fc6f09dc5f874eb088334e1fe7.jpg",
    "icongray": "https://steamcdn-a.akamaihd.net/steamcommunity/public/images/apps/655460/279f4367372ad9a57058a5230e2e442b4bc32928.jpg"
  },
  {
    "name": "achi_EVIL_CLOWN",
    "defaultvalue": 0,
    "displayName": "HELLISH CLOWN",
    "hidden": 0,
    "description": "Defeat Hellish Clown",
    "icon": "https://steamcdn-a.akamaihd.net/steamcommunity/public/images/apps/655460/0f264cb08e3bc3d8f14a53948a183757c6023de4.jpg",
    "icongray": "https://steamcdn-a.akamaihd.net/steamcommunity/public/images/apps/655460/410757f1cec87212f75fcf55f87fc5d1babaa2c7.jpg"
  },
  {
    "name": "achi_HEALER",
    "defaultvalue": 0,
    "displayName": "HEALER",
    "hidden": 0,
    "description": "Restore 1000 HP",
    "icon": "https://steamcdn-a.akamaihd.net/steamcommunity/public/images/apps/655460/a84a5f6aaf260ffd6fa1de86d54ed418f20158a8.jpg",
    "icongray": "https://steamcdn-a.akamaihd.net/steamcommunity/public/images/apps/655460/a719a44a830cdcd8d43579215ff8dbc03913d15a.jpg"
  },
  {
    "name": "achi_LOOSER",
    "defaultvalue": 0,
    "displayName": "LOOSER",
    "hidden": 0,
    "description": "Manage to die while medikit is nearby",
    "icon": "https://steamcdn-a.akamaihd.net/steamcommunity/public/images/apps/655460/059d0801f6da3a418018e1bca7a1856afbff0330.jpg",
    "icongray": "https://steamcdn-a.akamaihd.net/steamcommunity/public/images/apps/655460/e6747a8b851a84d04e0b7a0dd9b0f10505a20e4d.jpg"
  },
  {
    "name": "achi_LAST_BREATH",
    "defaultvalue": 0,
    "displayName": "LAST BREATH",
    "hidden": 0,
    "description": "Kill any boss with the last bullet",
    "icon": "https://steamcdn-a.akamaihd.net/steamcommunity/public/images/apps/655460/c60be8a28f9da6ddfa9c1a1fcfe814773c198cbb.jpg",
    "icongray": "https://steamcdn-a.akamaihd.net/steamcommunity/public/images/apps/655460/60685dc93df629d5cee6fa3aa341b91ae0f9268b.jpg"
  },
  {
    "name": "achi_SAVE_A_FRIEND",
    "defaultvalue": 0,
    "displayName": "SAVE A FRIEND",
    "hidden": 0,
    "description": "Do not let a bat to be killed",
    "icon": "https://steamcdn-a.akamaihd.net/steamcommunity/public/images/apps/655460/e84b4a44505429f5cf8abfbbb91c63bd35b92e29.jpg",
    "icongray": "https://steamcdn-a.akamaihd.net/steamcommunity/public/images/apps/655460/99c0853a3ab35ae5dca55959f70812af145ed431.jpg"
  }
]