﻿{
  "Dlcs": {},
  "Name": "Ghostship Aftermath",
  "AppId": "280890",
  "ImageUrl": "https://steamcdn-a.akamaihd.net/steam/apps/280890/header.jpg?t=1530102440",
  "Languages": [
    "english"
  ],
  "Platforms": {
    "windows": true,
    "mac": false,
    "linux": false
  }
}