﻿[
  {
    "name": "games.victories.total",
    "defaultvalue": 0,
    "displayName": "Total games won"
  },
  {
    "name": "games.victories.streak",
    "defaultvalue": 0,
    "displayName": "Current victory streak"
  },
  {
    "name": "wins.jester",
    "defaultvalue": 0,
    "displayName": "Total jester wins"
  },
  {
    "name": "wins.villager",
    "defaultvalue": 0,
    "displayName": "Total villager wins"
  },
  {
    "name": "wins.seer",
    "defaultvalue": 0,
    "displayName": ""
  },
  {
    "name": "wins.werewolf",
    "defaultvalue": 0,
    "displayName": ""
  },
  {
    "name": "played.seer",
    "defaultvalue": 0,
    "displayName": ""
  },
  {
    "name": "played.villager",
    "defaultvalue": 0,
    "displayName": ""
  },
  {
    "name": "xp.villager",
    "defaultvalue": 0,
    "displayName": ""
  },
  {
    "name": "played.jester",
    "defaultvalue": 0,
    "displayName": ""
  },
  {
    "name": "played.werewolf",
    "defaultvalue": 0,
    "displayName": ""
  },
  {
    "name": "xp.werewolf",
    "defaultvalue": 0,
    "displayName": ""
  },
  {
    "name": "xp.seer",
    "defaultvalue": 0,
    "displayName": ""
  },
  {
    "name": "xp.jester",
    "defaultvalue": 0,
    "displayName": ""
  },
  {
    "name": "wins.kitsune",
    "defaultvalue": 0,
    "displayName": "Total Kitsune Wins"
  },
  {
    "name": "played.kitsune",
    "defaultvalue": 0,
    "displayName": ""
  },
  {
    "name": "xp.kitsune",
    "defaultvalue": 0,
    "displayName": ""
  },
  {
    "name": "xp.plaguelord",
    "defaultvalue": 0,
    "displayName": ""
  },
  {
    "name": "wins.plaguelord",
    "defaultvalue": 0,
    "displayName": ""
  },
  {
    "name": "played.plaguelord",
    "defaultvalue": 0,
    "displayName": ""
  },
  {
    "name": "xp.imp",
    "defaultvalue": 0,
    "displayName": ""
  },
  {
    "name": "played.imp",
    "defaultvalue": 0,
    "displayName": ""
  },
  {
    "name": "wins.imp",
    "defaultvalue": 0,
    "displayName": ""
  },
  {
    "name": "wins.countess",
    "defaultvalue": 0,
    "displayName": ""
  },
  {
    "name": "played.countess",
    "defaultvalue": 0,
    "displayName": ""
  },
  {
    "name": "xp.countess",
    "defaultvalue": 0,
    "displayName": ""
  },
  {
    "name": "xp.ridinghood",
    "defaultvalue": 0,
    "displayName": ""
  },
  {
    "name": "wins.ridinghood",
    "defaultvalue": 0,
    "displayName": ""
  },
  {
    "name": "played.ridinghood",
    "defaultvalue": 0,
    "displayName": ""
  },
  {
    "name": "xp.hunter",
    "defaultvalue": 0,
    "displayName": ""
  },
  {
    "name": "wins.hunter",
    "defaultvalue": 0,
    "displayName": ""
  },
  {
    "name": "played.hunter",
    "defaultvalue": 0,
    "displayName": ""
  },
  {
    "name": "xp.shieldmaiden",
    "defaultvalue": 0,
    "displayName": ""
  },
  {
    "name": "played.shieldmaiden",
    "defaultvalue": 0,
    "displayName": ""
  },
  {
    "name": "wins.shieldmaiden",
    "defaultvalue": 0,
    "displayName": ""
  },
  {
    "name": "xp.raven",
    "defaultvalue": 0,
    "displayName": ""
  },
  {
    "name": "wins.raven",
    "defaultvalue": 0,
    "displayName": ""
  },
  {
    "name": "played.raven",
    "defaultvalue": 0,
    "displayName": ""
  },
  {
    "name": "wins.traveller",
    "defaultvalue": 0,
    "displayName": ""
  },
  {
    "name": "played.traveller",
    "defaultvalue": 0,
    "displayName": ""
  },
  {
    "name": "xp.traveller",
    "defaultvalue": 0,
    "displayName": ""
  },
  {
    "name": "wins.changeling",
    "defaultvalue": 0,
    "displayName": ""
  },
  {
    "name": "played.changeling",
    "defaultvalue": 0,
    "displayName": ""
  },
  {
    "name": "xp.changeling",
    "defaultvalue": 0,
    "displayName": ""
  },
  {
    "name": "wins.patron",
    "defaultvalue": 0,
    "displayName": ""
  },
  {
    "name": "played.patron",
    "defaultvalue": 0,
    "displayName": ""
  },
  {
    "name": "xp.patron",
    "defaultvalue": 0,
    "displayName": ""
  },
  {
    "name": "wins.bodyguard",
    "defaultvalue": 0,
    "displayName": ""
  },
  {
    "name": "played.bodyguard",
    "defaultvalue": 0,
    "displayName": ""
  },
  {
    "name": "xp.bodyguard",
    "defaultvalue": 0,
    "displayName": ""
  },
  {
    "name": "xp.wendigo",
    "defaultvalue": 0,
    "displayName": ""
  },
  {
    "name": "wins.wendigo",
    "defaultvalue": 0,
    "displayName": ""
  },
  {
    "name": "played.wendigo",
    "defaultvalue": 0,
    "displayName": ""
  },
  {
    "name": "wins.werebat",
    "defaultvalue": 0,
    "displayName": ""
  },
  {
    "name": "played.werebat",
    "defaultvalue": 0,
    "displayName": ""
  },
  {
    "name": "xp.werebat",
    "defaultvalue": 0,
    "displayName": ""
  },
  {
    "name": "played.cleric",
    "defaultvalue": 0,
    "displayName": ""
  },
  {
    "name": "wins.cleric",
    "defaultvalue": 0,
    "displayName": ""
  },
  {
    "name": "xp.cleric",
    "defaultvalue": 0,
    "displayName": ""
  },
  {
    "name": "wins.prince",
    "defaultvalue": 0,
    "displayName": ""
  },
  {
    "name": "played.prince",
    "defaultvalue": 0,
    "displayName": ""
  },
  {
    "name": "xp.prince",
    "defaultvalue": 0,
    "displayName": ""
  },
  {
    "name": "xp.oracle",
    "defaultvalue": 0,
    "displayName": ""
  },
  {
    "name": "wins.oracle",
    "defaultvalue": 0,
    "displayName": ""
  },
  {
    "name": "played.oracle",
    "defaultvalue": 0,
    "displayName": ""
  },
  {
    "name": "wins.baroness",
    "defaultvalue": 0,
    "displayName": ""
  },
  {
    "name": "played.baroness",
    "defaultvalue": 0,
    "displayName": ""
  },
  {
    "name": "xp.baroness",
    "defaultvalue": 0,
    "displayName": ""
  },
  {
    "name": "wins.fisherman",
    "defaultvalue": 0,
    "displayName": ""
  },
  {
    "name": "played.fisherman",
    "defaultvalue": 0,
    "displayName": ""
  },
  {
    "name": "xp.fisherman",
    "defaultvalue": 0,
    "displayName": ""
  },
  {
    "name": "wins.poppet",
    "defaultvalue": 0,
    "displayName": ""
  },
  {
    "name": "played.poppet",
    "defaultvalue": 0,
    "displayName": ""
  },
  {
    "name": "xp.poppet",
    "defaultvalue": 0,
    "displayName": ""
  },
  {
    "name": "wins.apprentice",
    "defaultvalue": 0,
    "displayName": ""
  },
  {
    "name": "played.apprentice",
    "defaultvalue": 0,
    "displayName": ""
  },
  {
    "name": "xp.apprentice",
    "defaultvalue": 0,
    "displayName": ""
  },
  {
    "name": "wins.assassin",
    "defaultvalue": 0,
    "displayName": ""
  },
  {
    "name": "played.assassin",
    "defaultvalue": 0,
    "displayName": ""
  },
  {
    "name": "xp.assassin",
    "defaultvalue": 0,
    "displayName": ""
  },
  {
    "name": "xp.berserker",
    "defaultvalue": 0,
    "displayName": ""
  },
  {
    "name": "wins.berserker",
    "defaultvalue": 0,
    "displayName": ""
  },
  {
    "name": "played.berserker",
    "defaultvalue": 0,
    "displayName": ""
  },
  {
    "name": "xp.bruiser",
    "defaultvalue": 0,
    "displayName": ""
  },
  {
    "name": "wins.bruiser",
    "defaultvalue": 0,
    "displayName": ""
  },
  {
    "name": "played.bruiser",
    "defaultvalue": 0,
    "displayName": ""
  },
  {
    "name": "xp.diseased",
    "defaultvalue": 0,
    "displayName": ""
  },
  {
    "name": "wins.diseased",
    "defaultvalue": 0,
    "displayName": ""
  },
  {
    "name": "played.diseased",
    "defaultvalue": 0,
    "displayName": ""
  },
  {
    "name": "xp.fence",
    "defaultvalue": 0,
    "displayName": ""
  },
  {
    "name": "wins.fence",
    "defaultvalue": 0,
    "displayName": ""
  },
  {
    "name": "played.fence",
    "defaultvalue": 0,
    "displayName": ""
  },
  {
    "name": "xp.guardian",
    "defaultvalue": 0,
    "displayName": ""
  },
  {
    "name": "wins.guardian",
    "defaultvalue": 0,
    "displayName": ""
  },
  {
    "name": "played.guardian",
    "defaultvalue": 0,
    "displayName": ""
  },
  {
    "name": "xp.hermit",
    "defaultvalue": 0,
    "displayName": ""
  },
  {
    "name": "played.hermit",
    "defaultvalue": 0,
    "displayName": ""
  },
  {
    "name": "wins.hermit",
    "defaultvalue": 0,
    "displayName": ""
  },
  {
    "name": "xp.ignoble",
    "defaultvalue": 0,
    "displayName": ""
  },
  {
    "name": "played.ignoble",
    "defaultvalue": 0,
    "displayName": ""
  },
  {
    "name": "wins.ignoble",
    "defaultvalue": 0,
    "displayName": ""
  },
  {
    "name": "wins.lycan",
    "defaultvalue": 0,
    "displayName": ""
  },
  {
    "name": "played.lycan",
    "defaultvalue": 0,
    "displayName": ""
  },
  {
    "name": "xp.lycan",
    "defaultvalue": 0,
    "displayName": ""
  },
  {
    "name": "xp.mentalist",
    "defaultvalue": 0,
    "displayName": ""
  },
  {
    "name": "played.mentalist",
    "defaultvalue": 0,
    "displayName": ""
  },
  {
    "name": "wins.mentalist",
    "defaultvalue": 0,
    "displayName": ""
  },
  {
    "name": "wins.ronin",
    "defaultvalue": 0,
    "displayName": ""
  },
  {
    "name": "played.ronin",
    "defaultvalue": 0,
    "displayName": ""
  },
  {
    "name": "xp.ronin",
    "defaultvalue": 0,
    "displayName": ""
  },
  {
    "name": "wins.templar",
    "defaultvalue": 0,
    "displayName": ""
  },
  {
    "name": "played.templar",
    "defaultvalue": 0,
    "displayName": ""
  },
  {
    "name": "wp.templar",
    "defaultvalue": 0,
    "displayName": ""
  },
  {
    "name": "wins.torturer",
    "defaultvalue": 0,
    "displayName": ""
  },
  {
    "name": "played.torturer",
    "defaultvalue": 0,
    "displayName": ""
  },
  {
    "name": "xp.torturer",
    "defaultvalue": 0,
    "displayName": ""
  },
  {
    "name": "wins.troublemaker",
    "defaultvalue": 0,
    "displayName": ""
  },
  {
    "name": "played.troublemaker",
    "defaultvalue": 0,
    "displayName": ""
  },
  {
    "name": "xp.troublemaker",
    "defaultvalue": 0,
    "displayName": ""
  },
  {
    "name": "xp.woodsman",
    "defaultvalue": 0,
    "displayName": ""
  },
  {
    "name": "wins.woodsman",
    "defaultvalue": 0,
    "displayName": ""
  },
  {
    "name": "played.woodsman",
    "defaultvalue": 0,
    "displayName": ""
  },
  {
    "name": "wins.wukong",
    "defaultvalue": 0,
    "displayName": ""
  },
  {
    "name": "played.wukong",
    "defaultvalue": 0,
    "displayName": ""
  },
  {
    "name": "xp.wukong",
    "defaultvalue": 0,
    "displayName": ""
  },
  {
    "name": "wins.scylla",
    "defaultvalue": 0,
    "displayName": ""
  },
  {
    "name": "played.scylla",
    "defaultvalue": 0,
    "displayName": ""
  },
  {
    "name": "xp.scylla",
    "defaultvalue": 0,
    "displayName": ""
  },
  {
    "name": "wins.ashling",
    "defaultvalue": 0,
    "displayName": ""
  },
  {
    "name": "played.ashling",
    "defaultvalue": 0,
    "displayName": ""
  },
  {
    "name": "xp.ashling",
    "defaultvalue": 0,
    "displayName": ""
  },
  {
    "name": "xp.exile",
    "defaultvalue": 0,
    "displayName": ""
  },
  {
    "name": "wins.exile",
    "defaultvalue": 0,
    "displayName": ""
  },
  {
    "name": "played.exile",
    "defaultvalue": 0,
    "displayName": ""
  },
  {
    "name": "xp.sage",
    "defaultvalue": 0,
    "displayName": ""
  },
  {
    "name": "wins.sage",
    "defaultvalue": 0,
    "displayName": ""
  },
  {
    "name": "played.sage",
    "defaultvalue": 0,
    "displayName": ""
  },
  {
    "name": "xp.selkie",
    "defaultvalue": 0,
    "displayName": ""
  },
  {
    "name": "wins.selkie",
    "defaultvalue": 0,
    "displayName": ""
  },
  {
    "name": "played.selkie",
    "defaultvalue": 0,
    "displayName": ""
  },
  {
    "name": "xp.minotaur",
    "defaultvalue": 0,
    "displayName": ""
  },
  {
    "name": "wins.minotaur",
    "defaultvalue": 0,
    "displayName": ""
  },
  {
    "name": "played.minotaur",
    "defaultvalue": 0,
    "displayName": ""
  },
  {
    "name": "xp.toothfairy",
    "defaultvalue": 0,
    "displayName": ""
  },
  {
    "name": "wins.toothfairy",
    "defaultvalue": 0,
    "displayName": ""
  },
  {
    "name": "played.toothfairy",
    "defaultvalue": 0,
    "displayName": ""
  },
  {
    "name": "xp.concubine",
    "defaultvalue": 0,
    "displayName": ""
  },
  {
    "name": "played.concubine",
    "defaultvalue": 0,
    "displayName": ""
  },
  {
    "name": "wins.concubine",
    "defaultvalue": 0,
    "displayName": ""
  },
  {
    "name": "xp.usurper",
    "defaultvalue": 0,
    "displayName": ""
  },
  {
    "name": "played.usurper",
    "defaultvalue": 0,
    "displayName": ""
  },
  {
    "name": "wins.usurper",
    "defaultvalue": 0,
    "displayName": ""
  },
  {
    "name": "xp.reaper",
    "defaultvalue": 0,
    "displayName": ""
  },
  {
    "name": "wins.reaper",
    "defaultvalue": 0,
    "displayName": ""
  },
  {
    "name": "played.reaper",
    "defaultvalue": 0,
    "displayName": ""
  },
  {
    "name": "xp.landlord",
    "defaultvalue": 0,
    "displayName": ""
  },
  {
    "name": "wins.landlord",
    "defaultvalue": 0,
    "displayName": ""
  },
  {
    "name": "played.landlord",
    "defaultvalue": 0,
    "displayName": ""
  },
  {
    "name": "xp.krampus",
    "defaultvalue": 0,
    "displayName": ""
  },
  {
    "name": "wins.krampus",
    "defaultvalue": 0,
    "displayName": ""
  },
  {
    "name": "played.krampus",
    "defaultvalue": 0,
    "displayName": ""
  },
  {
    "name": "wins.admiral",
    "defaultvalue": 0,
    "displayName": ""
  },
  {
    "name": "played.admiral",
    "defaultvalue": 0,
    "displayName": ""
  },
  {
    "name": "xp.admiral",
    "defaultvalue": 0,
    "displayName": ""
  },
  {
    "name": "wins.captain",
    "defaultvalue": 0,
    "displayName": ""
  },
  {
    "name": "played.captain",
    "defaultvalue": 0,
    "displayName": ""
  },
  {
    "name": "xp.captain",
    "defaultvalue": 0,
    "displayName": ""
  },
  {
    "name": "wins.bard",
    "defaultvalue": 0,
    "displayName": ""
  },
  {
    "name": "played.bard",
    "defaultvalue": 0,
    "displayName": ""
  },
  {
    "name": "xp.bard",
    "defaultvalue": 0,
    "displayName": ""
  },
  {
    "name": "wins.ghast",
    "defaultvalue": 0,
    "displayName": ""
  },
  {
    "name": "played.ghast",
    "defaultvalue": 0,
    "displayName": ""
  },
  {
    "name": "xp.ghast",
    "defaultvalue": 0,
    "displayName": ""
  },
  {
    "name": "wins.mercenary",
    "defaultvalue": 0,
    "displayName": ""
  },
  {
    "name": "played.mercenary",
    "defaultvalue": 0,
    "displayName": ""
  },
  {
    "name": "xp.mercenary",
    "defaultvalue": 0,
    "displayName": ""
  },
  {
    "name": "wins.watchman",
    "defaultvalue": 0,
    "displayName": ""
  },
  {
    "name": "played.watchman",
    "defaultvalue": 0,
    "displayName": ""
  },
  {
    "name": "xp.watchman",
    "defaultvalue": 0,
    "displayName": ""
  },
  {
    "name": "xp.shaman",
    "defaultvalue": 0,
    "displayName": ""
  },
  {
    "name": "wins.shaman",
    "defaultvalue": 0,
    "displayName": ""
  },
  {
    "name": "played.shaman",
    "defaultvalue": 0,
    "displayName": ""
  },
  {
    "name": "xp.troll",
    "defaultvalue": 0,
    "displayName": ""
  },
  {
    "name": "wins.troll",
    "defaultvalue": 0,
    "displayName": ""
  },
  {
    "name": "played.troll",
    "defaultvalue": 0,
    "displayName": ""
  },
  {
    "name": "xp.witchoflight",
    "defaultvalue": 0,
    "displayName": ""
  },
  {
    "name": "wins.witchoflight",
    "defaultvalue": 0,
    "displayName": ""
  },
  {
    "name": "played.witchoflight",
    "defaultvalue": 0,
    "displayName": ""
  },
  {
    "name": "xp.witchofblood",
    "defaultvalue": 0,
    "displayName": ""
  },
  {
    "name": "wins.witchofblood",
    "defaultvalue": 0,
    "displayName": ""
  },
  {
    "name": "played.witchofblood",
    "defaultvalue": 0,
    "displayName": ""
  },
  {
    "name": "xp.pumpkinking",
    "defaultvalue": 0,
    "displayName": ""
  },
  {
    "name": "wins.pumpkinking",
    "defaultvalue": 0,
    "displayName": ""
  },
  {
    "name": "played.pumpkinking",
    "defaultvalue": 0,
    "displayName": ""
  },
  {
    "name": "xp.bloodoak",
    "defaultvalue": 0,
    "displayName": ""
  },
  {
    "name": "wins.bloodoak",
    "defaultvalue": 0,
    "displayName": ""
  },
  {
    "name": "played.bloodoak",
    "defaultvalue": 0,
    "displayName": ""
  },
  {
    "name": "xp.direwolf",
    "defaultvalue": 0,
    "displayName": ""
  },
  {
    "name": "wins.direwolf",
    "defaultvalue": 0,
    "displayName": ""
  },
  {
    "name": "played.direwolf",
    "defaultvalue": 0,
    "displayName": ""
  },
  {
    "name": "xp.gremlin",
    "defaultvalue": 0,
    "displayName": ""
  },
  {
    "name": "wins.gremlin",
    "defaultvalue": 0,
    "displayName": ""
  },
  {
    "name": "played.gremlin",
    "defaultvalue": 0,
    "displayName": ""
  },
  {
    "name": "xp.hollowhusk",
    "defaultvalue": 0,
    "displayName": ""
  },
  {
    "name": "wins.hollowhusk",
    "defaultvalue": 0,
    "displayName": ""
  },
  {
    "name": "played.hollowhusk",
    "defaultvalue": 0,
    "displayName": ""
  },
  {
    "name": "xp.scout",
    "defaultvalue": 0,
    "displayName": ""
  },
  {
    "name": "wins.scout",
    "defaultvalue": 0,
    "displayName": ""
  },
  {
    "name": "played.scout",
    "defaultvalue": 0,
    "displayName": ""
  },
  {
    "name": "xp.incubus",
    "defaultvalue": 0,
    "displayName": ""
  },
  {
    "name": "wins.incubus",
    "defaultvalue": 0,
    "displayName": ""
  },
  {
    "name": "played.incubus",
    "defaultvalue": 0,
    "displayName": ""
  },
  {
    "name": "xp.karura",
    "defaultvalue": 0,
    "displayName": ""
  },
  {
    "name": "wins.karura",
    "defaultvalue": 0,
    "displayName": ""
  },
  {
    "name": "played.karura",
    "defaultvalue": 0,
    "displayName": ""
  },
  {
    "name": "xp.ares",
    "defaultvalue": 0,
    "displayName": ""
  },
  {
    "name": "wins.ares",
    "defaultvalue": 0,
    "displayName": ""
  },
  {
    "name": "played.ares",
    "defaultvalue": 0,
    "displayName": ""
  },
  {
    "name": "xp.auraseer",
    "defaultvalue": 0,
    "displayName": ""
  },
  {
    "name": "wins.auraseer",
    "defaultvalue": 0,
    "displayName": ""
  },
  {
    "name": "played.auraseer",
    "defaultvalue": 0,
    "displayName": ""
  },
  {
    "name": "xp.babayaga",
    "defaultvalue": 0,
    "displayName": ""
  },
  {
    "name": "wins.babayaga",
    "defaultvalue": 0,
    "displayName": ""
  },
  {
    "name": "played.babayaga",
    "defaultvalue": 0,
    "displayName": ""
  },
  {
    "name": "xp.baker",
    "defaultvalue": 0,
    "displayName": ""
  },
  {
    "name": "wins.baker",
    "defaultvalue": 0,
    "displayName": ""
  },
  {
    "name": "played.baker",
    "defaultvalue": 0,
    "displayName": ""
  },
  {
    "name": "xp.barbarian",
    "defaultvalue": 0,
    "displayName": ""
  },
  {
    "name": "played.barbarian",
    "defaultvalue": 0,
    "displayName": ""
  },
  {
    "name": "wins.barbarian",
    "defaultvalue": 0,
    "displayName": ""
  },
  {
    "name": "xp.barmaid",
    "defaultvalue": 0,
    "displayName": ""
  },
  {
    "name": "wins.barmaid",
    "defaultvalue": 0,
    "displayName": ""
  },
  {
    "name": "played.barmaid",
    "defaultvalue": 0,
    "displayName": ""
  },
  {
    "name": "xp.blackcat",
    "defaultvalue": 0,
    "displayName": ""
  },
  {
    "name": "wins.blackcat",
    "defaultvalue": 0,
    "displayName": ""
  },
  {
    "name": "played.blackcat",
    "defaultvalue": 0,
    "displayName": ""
  },
  {
    "name": "xp.blasphemer",
    "defaultvalue": 0,
    "displayName": ""
  },
  {
    "name": "wins.blasphemer",
    "defaultvalue": 0,
    "displayName": ""
  },
  {
    "name": "played.blasphemer",
    "defaultvalue": 0,
    "displayName": ""
  },
  {
    "name": "xp.blixem",
    "defaultvalue": 0,
    "displayName": ""
  },
  {
    "name": "wins.blixem",
    "defaultvalue": 0,
    "displayName": ""
  },
  {
    "name": "played.blixem",
    "defaultvalue": 0,
    "displayName": ""
  },
  {
    "name": "xp.bloodthorn",
    "defaultvalue": 0,
    "displayName": ""
  },
  {
    "name": "wins.bloodthorn",
    "defaultvalue": 0,
    "displayName": ""
  },
  {
    "name": "played.bloodthorn",
    "defaultvalue": 0,
    "displayName": ""
  },
  {
    "name": "xp.candlemaker",
    "defaultvalue": 0,
    "displayName": ""
  },
  {
    "name": "wins.candlemaker",
    "defaultvalue": 0,
    "displayName": ""
  },
  {
    "name": "played.candlemaker",
    "defaultvalue": 0,
    "displayName": ""
  },
  {
    "name": "xp.carpenter",
    "defaultvalue": 0,
    "displayName": ""
  },
  {
    "name": "wins.carpenter",
    "defaultvalue": 0,
    "displayName": ""
  },
  {
    "name": "played.carpenter",
    "defaultvalue": 0,
    "displayName": ""
  },
  {
    "name": "xp.cernobog",
    "defaultvalue": 0,
    "displayName": ""
  },
  {
    "name": "wins.cernobog",
    "defaultvalue": 0,
    "displayName": ""
  },
  {
    "name": "played.cernobog",
    "defaultvalue": 0,
    "displayName": ""
  },
  {
    "name": "xp.comet",
    "defaultvalue": 0,
    "displayName": ""
  },
  {
    "name": "wins.comet",
    "defaultvalue": 0,
    "displayName": ""
  },
  {
    "name": "played.comet",
    "defaultvalue": 0,
    "displayName": ""
  },
  {
    "name": "xp.coward",
    "defaultvalue": 0,
    "displayName": ""
  },
  {
    "name": "wins.coward",
    "defaultvalue": 0,
    "displayName": ""
  },
  {
    "name": "played.coward",
    "defaultvalue": 0,
    "displayName": ""
  },
  {
    "name": "xp.crippledwolf",
    "defaultvalue": 0,
    "displayName": ""
  },
  {
    "name": "wins.crippledwolf",
    "defaultvalue": 0,
    "displayName": ""
  },
  {
    "name": "played.crippledwolf",
    "defaultvalue": 0,
    "displayName": ""
  },
  {
    "name": "xp.crook",
    "defaultvalue": 0,
    "displayName": ""
  },
  {
    "name": "wins.crook",
    "defaultvalue": 0,
    "displayName": ""
  },
  {
    "name": "played.crook",
    "defaultvalue": 0,
    "displayName": ""
  },
  {
    "name": "xp.crucifier",
    "defaultvalue": 0,
    "displayName": ""
  },
  {
    "name": "wins.crucifier",
    "defaultvalue": 0,
    "displayName": ""
  },
  {
    "name": "played.crucifier",
    "defaultvalue": 0,
    "displayName": ""
  },
  {
    "name": "xp.crusader",
    "defaultvalue": 0,
    "displayName": ""
  },
  {
    "name": "wins.crusader",
    "defaultvalue": 0,
    "displayName": ""
  },
  {
    "name": "played.crusader",
    "defaultvalue": 0,
    "displayName": ""
  },
  {
    "name": "xp.cupid",
    "defaultvalue": 0,
    "displayName": ""
  },
  {
    "name": "wins.cupid",
    "defaultvalue": 0,
    "displayName": ""
  },
  {
    "name": "played.cupid",
    "defaultvalue": 0,
    "displayName": ""
  },
  {
    "name": "xp.dancer",
    "defaultvalue": 0,
    "displayName": ""
  },
  {
    "name": "wins.dancer",
    "defaultvalue": 0,
    "displayName": ""
  },
  {
    "name": "played.dancer",
    "defaultvalue": 0,
    "displayName": ""
  },
  {
    "name": "xp.darkwitch",
    "defaultvalue": 0,
    "displayName": ""
  },
  {
    "name": "wins.darkwitch",
    "defaultvalue": 0,
    "displayName": ""
  },
  {
    "name": "played.darkwitch",
    "defaultvalue": 0,
    "displayName": ""
  },
  {
    "name": "xp.dasher",
    "defaultvalue": 0,
    "displayName": ""
  },
  {
    "name": "wins.dasher",
    "defaultvalue": 0,
    "displayName": ""
  },
  {
    "name": "played.dasher",
    "defaultvalue": 0,
    "displayName": ""
  },
  {
    "name": "xp.dilletant",
    "defaultvalue": 0,
    "displayName": ""
  },
  {
    "name": "wins.dilletant",
    "defaultvalue": 0,
    "displayName": ""
  },
  {
    "name": "played.dilletant",
    "defaultvalue": 0,
    "displayName": ""
  },
  {
    "name": "xp.doomsayer",
    "defaultvalue": 0,
    "displayName": ""
  },
  {
    "name": "wins.doomsayer",
    "defaultvalue": 0,
    "displayName": ""
  },
  {
    "name": "played.doomsayer",
    "defaultvalue": 0,
    "displayName": ""
  },
  {
    "name": "xp.dunder",
    "defaultvalue": 0,
    "displayName": ""
  },
  {
    "name": "wins.dunder",
    "defaultvalue": 0,
    "displayName": ""
  },
  {
    "name": "played.dunder",
    "defaultvalue": 0,
    "displayName": ""
  },
  {
    "name": "xp.easterbunny",
    "defaultvalue": 0,
    "displayName": ""
  },
  {
    "name": "wins.easterbunny",
    "defaultvalue": 0,
    "displayName": ""
  },
  {
    "name": "played.easterbunny",
    "defaultvalue": 0,
    "displayName": ""
  },
  {
    "name": "xp.exorcist",
    "defaultvalue": 0,
    "displayName": ""
  },
  {
    "name": "wins.exorcist",
    "defaultvalue": 0,
    "displayName": ""
  },
  {
    "name": "played.exorcist",
    "defaultvalue": 0,
    "displayName": ""
  },
  {
    "name": "xp.gaia",
    "defaultvalue": 0,
    "displayName": ""
  },
  {
    "name": "wins.gaia",
    "defaultvalue": 0,
    "displayName": ""
  },
  {
    "name": "played.gaia",
    "defaultvalue": 0,
    "displayName": ""
  },
  {
    "name": "xp.gardener",
    "defaultvalue": 0,
    "displayName": ""
  },
  {
    "name": "wins.gardener",
    "defaultvalue": 0,
    "displayName": ""
  },
  {
    "name": "played.gardener",
    "defaultvalue": 0,
    "displayName": ""
  },
  {
    "name": "xp.gargoyle",
    "defaultvalue": 0,
    "displayName": ""
  },
  {
    "name": "wins.gargoyle",
    "defaultvalue": 0,
    "displayName": ""
  },
  {
    "name": "played.gargoyle",
    "defaultvalue": 0,
    "displayName": ""
  },
  {
    "name": "xp.geisha",
    "defaultvalue": 0,
    "displayName": ""
  },
  {
    "name": "wins.geisha",
    "defaultvalue": 0,
    "displayName": ""
  },
  {
    "name": "played.geisha",
    "defaultvalue": 0,
    "displayName": ""
  },
  {
    "name": "xp.general",
    "defaultvalue": 0,
    "displayName": ""
  },
  {
    "name": "wins.general",
    "defaultvalue": 0,
    "displayName": ""
  },
  {
    "name": "played.general",
    "defaultvalue": 0,
    "displayName": ""
  },
  {
    "name": "xp.ghoul",
    "defaultvalue": 0,
    "displayName": ""
  },
  {
    "name": "wins.ghoul",
    "defaultvalue": 0,
    "displayName": ""
  },
  {
    "name": "played.ghoul",
    "defaultvalue": 0,
    "displayName": ""
  },
  {
    "name": "xp.gorgon",
    "defaultvalue": 0,
    "displayName": ""
  },
  {
    "name": "wins.gorgon",
    "defaultvalue": 0,
    "displayName": ""
  },
  {
    "name": "played.gorgon",
    "defaultvalue": 0,
    "displayName": ""
  },
  {
    "name": "xp.harpy",
    "defaultvalue": 0,
    "displayName": ""
  },
  {
    "name": "wins.harpy",
    "defaultvalue": 0,
    "displayName": ""
  },
  {
    "name": "played.harpy",
    "defaultvalue": 0,
    "displayName": ""
  },
  {
    "name": "xp.hellhound",
    "defaultvalue": 0,
    "displayName": ""
  },
  {
    "name": "wins.hellhound",
    "defaultvalue": 0,
    "displayName": ""
  },
  {
    "name": "played.hellhound",
    "defaultvalue": 0,
    "displayName": ""
  },
  {
    "name": "xp.hera",
    "defaultvalue": 0,
    "displayName": ""
  },
  {
    "name": "wins.hera",
    "defaultvalue": 0,
    "displayName": ""
  },
  {
    "name": "played.hera",
    "defaultvalue": 0,
    "displayName": ""
  },
  {
    "name": "xp.honshu",
    "defaultvalue": 0,
    "displayName": ""
  },
  {
    "name": "wins.honshu",
    "defaultvalue": 0,
    "displayName": ""
  },
  {
    "name": "played.honshu",
    "defaultvalue": 0,
    "displayName": ""
  },
  {
    "name": "xp.hungerer",
    "defaultvalue": 0,
    "displayName": ""
  },
  {
    "name": "wins.hungerer",
    "defaultvalue": 0,
    "displayName": ""
  },
  {
    "name": "played.hungerer",
    "defaultvalue": 0,
    "displayName": ""
  },
  {
    "name": "xp.innkeeper",
    "defaultvalue": 0,
    "displayName": ""
  },
  {
    "name": "wins.innkeeper",
    "defaultvalue": 0,
    "displayName": ""
  },
  {
    "name": "played.innkeeper",
    "defaultvalue": 0,
    "displayName": ""
  },
  {
    "name": "xp.inquisitor",
    "defaultvalue": 0,
    "displayName": ""
  },
  {
    "name": "wins.inquisitor",
    "defaultvalue": 0,
    "displayName": ""
  },
  {
    "name": "played.inquisitor",
    "defaultvalue": 0,
    "displayName": ""
  },
  {
    "name": "xp.jarl",
    "defaultvalue": 0,
    "displayName": ""
  },
  {
    "name": "wins.jarl",
    "defaultvalue": 0,
    "displayName": ""
  },
  {
    "name": "played.jarl",
    "defaultvalue": 0,
    "displayName": ""
  },
  {
    "name": "xp.judge",
    "defaultvalue": 0,
    "displayName": ""
  },
  {
    "name": "wins.judge",
    "defaultvalue": 0,
    "displayName": ""
  },
  {
    "name": "played.judge",
    "defaultvalue": 0,
    "displayName": ""
  },
  {
    "name": "xp.kato",
    "defaultvalue": 0,
    "displayName": ""
  },
  {
    "name": "wins.kato",
    "defaultvalue": 0,
    "displayName": ""
  },
  {
    "name": "played.kato",
    "defaultvalue": 0,
    "displayName": ""
  },
  {
    "name": "xp.kurian",
    "defaultvalue": 0,
    "displayName": ""
  },
  {
    "name": "wins.kurian",
    "defaultvalue": 0,
    "displayName": ""
  },
  {
    "name": "played.kurian",
    "defaultvalue": 0,
    "displayName": ""
  },
  {
    "name": "xp.malacoda",
    "defaultvalue": 0,
    "displayName": ""
  },
  {
    "name": "wins.malacoda",
    "defaultvalue": 0,
    "displayName": ""
  },
  {
    "name": "played.malacoda",
    "defaultvalue": 0,
    "displayName": ""
  },
  {
    "name": "xp.medusa",
    "defaultvalue": 0,
    "displayName": ""
  },
  {
    "name": "wins.medusa",
    "defaultvalue": 0,
    "displayName": ""
  },
  {
    "name": "played.medusa",
    "defaultvalue": 0,
    "displayName": ""
  },
  {
    "name": "xp.merman",
    "defaultvalue": 0,
    "displayName": ""
  },
  {
    "name": "wins.merman",
    "defaultvalue": 0,
    "displayName": ""
  },
  {
    "name": "played.merman",
    "defaultvalue": 0,
    "displayName": ""
  },
  {
    "name": "xp.monk",
    "defaultvalue": 0,
    "displayName": ""
  },
  {
    "name": "wins.monk",
    "defaultvalue": 0,
    "displayName": ""
  },
  {
    "name": "played.monk",
    "defaultvalue": 0,
    "displayName": ""
  },
  {
    "name": "xp.moonwitch",
    "defaultvalue": 0,
    "displayName": ""
  },
  {
    "name": "wins.moonwitch",
    "defaultvalue": 0,
    "displayName": ""
  },
  {
    "name": "played.moonwitch",
    "defaultvalue": 0,
    "displayName": ""
  },
  {
    "name": "xp,mothling",
    "defaultvalue": 0,
    "displayName": ""
  },
  {
    "name": "wins.mothling",
    "defaultvalue": 0,
    "displayName": ""
  },
  {
    "name": "played.mothling",
    "defaultvalue": 0,
    "displayName": ""
  },
  {
    "name": "xp.mukk",
    "defaultvalue": 0,
    "displayName": ""
  },
  {
    "name": "wins.mukk",
    "defaultvalue": 0,
    "displayName": ""
  },
  {
    "name": "played.mukk",
    "defaultvalue": 0,
    "displayName": ""
  },
  {
    "name": "xp.nickranchez",
    "defaultvalue": 0,
    "displayName": ""
  },
  {
    "name": "wins.nickranchez",
    "defaultvalue": 0,
    "displayName": ""
  },
  {
    "name": "played.nickranchez",
    "defaultvalue": 0,
    "displayName": ""
  },
  {
    "name": "xp.nightmare",
    "defaultvalue": 0,
    "displayName": ""
  },
  {
    "name": "wins.nightmare",
    "defaultvalue": 0,
    "displayName": ""
  },
  {
    "name": "played.nightmare",
    "defaultvalue": 0,
    "displayName": ""
  },
  {
    "name": "xp.ninja",
    "defaultvalue": 0,
    "displayName": ""
  },
  {
    "name": "wins.ninja",
    "defaultvalue": 0,
    "displayName": ""
  },
  {
    "name": "played.ninja",
    "defaultvalue": 0,
    "displayName": ""
  },
  {
    "name": "xp.nymph",
    "defaultvalue": 0,
    "displayName": ""
  },
  {
    "name": "wins.nymph",
    "defaultvalue": 0,
    "displayName": ""
  },
  {
    "name": "played.nymph",
    "defaultvalue": 0,
    "displayName": ""
  },
  {
    "name": "xp.outsider",
    "defaultvalue": 0,
    "displayName": ""
  },
  {
    "name": "wins.outsider",
    "defaultvalue": 0,
    "displayName": ""
  },
  {
    "name": "played.outsider",
    "defaultvalue": 0,
    "displayName": ""
  },
  {
    "name": "xp.ozymandias",
    "defaultvalue": 0,
    "displayName": ""
  },
  {
    "name": "wins.ozymandias",
    "defaultvalue": 0,
    "displayName": ""
  },
  {
    "name": "played.ozymandias",
    "defaultvalue": 0,
    "displayName": ""
  },
  {
    "name": "xp.paladin",
    "defaultvalue": 0,
    "displayName": ""
  },
  {
    "name": "wins.paladin",
    "defaultvalue": 0,
    "displayName": ""
  },
  {
    "name": "played.paladin",
    "defaultvalue": 0,
    "displayName": ""
  },
  {
    "name": "xp.paranoid",
    "defaultvalue": 0,
    "displayName": ""
  },
  {
    "name": "wins.paranoid",
    "defaultvalue": 0,
    "displayName": ""
  },
  {
    "name": "played.paranoid",
    "defaultvalue": 0,
    "displayName": ""
  },
  {
    "name": "xp.pathfinder",
    "defaultvalue": 0,
    "displayName": ""
  },
  {
    "name": "wins.pathfinder",
    "defaultvalue": 0,
    "displayName": ""
  },
  {
    "name": "played.pathfinder",
    "defaultvalue": 0,
    "displayName": ""
  },
  {
    "name": "xp.piper",
    "defaultvalue": 0,
    "displayName": ""
  },
  {
    "name": "wins.piper",
    "defaultvalue": 0,
    "displayName": ""
  },
  {
    "name": "played.piper",
    "defaultvalue": 0,
    "displayName": ""
  },
  {
    "name": "xp.pirate",
    "defaultvalue": 0,
    "displayName": ""
  },
  {
    "name": "wins.pirate",
    "defaultvalue": 0,
    "displayName": ""
  },
  {
    "name": "played.pirate",
    "defaultvalue": 0,
    "displayName": ""
  },
  {
    "name": "xp.plaguewolf",
    "defaultvalue": 0,
    "displayName": ""
  },
  {
    "name": "wins.plaguewolf",
    "defaultvalue": 0,
    "displayName": ""
  },
  {
    "name": "played.plaguewolf",
    "defaultvalue": 0,
    "displayName": ""
  },
  {
    "name": "xp.prancer",
    "defaultvalue": 0,
    "displayName": ""
  },
  {
    "name": "wins.prancer",
    "defaultvalue": 0,
    "displayName": ""
  },
  {
    "name": "played.prancer",
    "defaultvalue": 0,
    "displayName": ""
  },
  {
    "name": "xp.quaker",
    "defaultvalue": 0,
    "displayName": ""
  },
  {
    "name": "wins.quaker",
    "defaultvalue": 0,
    "displayName": ""
  },
  {
    "name": "played.quaker",
    "defaultvalue": 0,
    "displayName": ""
  },
  {
    "name": "xp.ranger",
    "defaultvalue": 0,
    "displayName": ""
  },
  {
    "name": "wins.ranger",
    "defaultvalue": 0,
    "displayName": ""
  },
  {
    "name": "played.ranger",
    "defaultvalue": 0,
    "displayName": ""
  },
  {
    "name": "xp.rasputin",
    "defaultvalue": 0,
    "displayName": ""
  },
  {
    "name": "wins.rasputin",
    "defaultvalue": 0,
    "displayName": ""
  },
  {
    "name": "played.rasputin",
    "defaultvalue": 0,
    "displayName": ""
  },
  {
    "name": "xp.ravenlord",
    "defaultvalue": 0,
    "displayName": ""
  },
  {
    "name": "wins.ravenlord",
    "defaultvalue": 0,
    "displayName": ""
  },
  {
    "name": "played.ravenlord",
    "defaultvalue": 0,
    "displayName": ""
  },
  {
    "name": "xp.ruffian",
    "defaultvalue": 0,
    "displayName": ""
  },
  {
    "name": "wins.ruffian",
    "defaultvalue": 0,
    "displayName": ""
  },
  {
    "name": "played.ruffian",
    "defaultvalue": 0,
    "displayName": ""
  },
  {
    "name": "xp.saboteur",
    "defaultvalue": 0,
    "displayName": ""
  },
  {
    "name": "wins.saboteur",
    "defaultvalue": 0,
    "displayName": ""
  },
  {
    "name": "played.saboteur",
    "defaultvalue": 0,
    "displayName": ""
  },
  {
    "name": "xp.saint",
    "defaultvalue": 0,
    "displayName": ""
  },
  {
    "name": "wins.saint",
    "defaultvalue": 0,
    "displayName": ""
  },
  {
    "name": "played.saint",
    "defaultvalue": 0,
    "displayName": ""
  },
  {
    "name": "xp.saintnick",
    "defaultvalue": 0,
    "displayName": ""
  },
  {
    "name": "wins.saintnick",
    "defaultvalue": 0,
    "displayName": ""
  },
  {
    "name": "played.saintnick",
    "defaultvalue": 0,
    "displayName": ""
  },
  {
    "name": "xp.scribe",
    "defaultvalue": 0,
    "displayName": ""
  },
  {
    "name": "wins.scribe",
    "defaultvalue": 0,
    "displayName": ""
  },
  {
    "name": "played.scribe",
    "defaultvalue": 0,
    "displayName": ""
  },
  {
    "name": "xp.scryer",
    "defaultvalue": 0,
    "displayName": ""
  },
  {
    "name": "wins.scryer",
    "defaultvalue": 0,
    "displayName": ""
  },
  {
    "name": "played.scryer",
    "defaultvalue": 0,
    "displayName": ""
  },
  {
    "name": "xp.servant",
    "defaultvalue": 0,
    "displayName": ""
  },
  {
    "name": "wins.servant",
    "defaultvalue": 0,
    "displayName": ""
  },
  {
    "name": "played.servant",
    "defaultvalue": 0,
    "displayName": ""
  },
  {
    "name": "xp.skinwalker",
    "defaultvalue": 0,
    "displayName": ""
  },
  {
    "name": "wins.skinwalker",
    "defaultvalue": 0,
    "displayName": ""
  },
  {
    "name": "played.skinwalker",
    "defaultvalue": 0,
    "displayName": ""
  },
  {
    "name": "xp.slither",
    "defaultvalue": 0,
    "displayName": ""
  },
  {
    "name": "wins.slither",
    "defaultvalue": 0,
    "displayName": ""
  },
  {
    "name": "played.slither",
    "defaultvalue": 0,
    "displayName": ""
  },
  {
    "name": "xp.snatcher",
    "defaultvalue": 0,
    "displayName": ""
  },
  {
    "name": "wins.snatcher",
    "defaultvalue": 0,
    "displayName": ""
  },
  {
    "name": "played.snatcher",
    "defaultvalue": 0,
    "displayName": ""
  },
  {
    "name": "xp.spy",
    "defaultvalue": 0,
    "displayName": ""
  },
  {
    "name": "wins.spy",
    "defaultvalue": 0,
    "displayName": ""
  },
  {
    "name": "played.spy",
    "defaultvalue": 0,
    "displayName": ""
  },
  {
    "name": "xp.succubus",
    "defaultvalue": 0,
    "displayName": ""
  },
  {
    "name": "wins.succubus",
    "defaultvalue": 0,
    "displayName": ""
  },
  {
    "name": "played.succubus",
    "defaultvalue": 0,
    "displayName": ""
  },
  {
    "name": "xp.suzaku",
    "defaultvalue": 0,
    "displayName": ""
  },
  {
    "name": "wins.suzaku",
    "defaultvalue": 0,
    "displayName": ""
  },
  {
    "name": "played.suzaku",
    "defaultvalue": 0,
    "displayName": ""
  },
  {
    "name": "xp.swampkin",
    "defaultvalue": 0,
    "displayName": ""
  },
  {
    "name": "wins.swampkin",
    "defaultvalue": 0,
    "displayName": ""
  },
  {
    "name": "played.swampkin",
    "defaultvalue": 0,
    "displayName": ""
  },
  {
    "name": "xp.swindler",
    "defaultvalue": 0,
    "displayName": ""
  },
  {
    "name": "wins.swindler",
    "defaultvalue": 0,
    "displayName": ""
  },
  {
    "name": "played.swindler",
    "defaultvalue": 0,
    "displayName": ""
  },
  {
    "name": "xp.talos",
    "defaultvalue": 0,
    "displayName": ""
  },
  {
    "name": "wins.talos",
    "defaultvalue": 0,
    "displayName": ""
  },
  {
    "name": "played.talos",
    "defaultvalue": 0,
    "displayName": ""
  },
  {
    "name": "xp.taxcollector",
    "defaultvalue": 0,
    "displayName": ""
  },
  {
    "name": "wins.taxcollector",
    "defaultvalue": 0,
    "displayName": ""
  },
  {
    "name": "played.taxcollector",
    "defaultvalue": 0,
    "displayName": ""
  },
  {
    "name": "xp.toad",
    "defaultvalue": 0,
    "displayName": ""
  },
  {
    "name": "wins.toad",
    "defaultvalue": 0,
    "displayName": ""
  },
  {
    "name": "played.toad",
    "defaultvalue": 0,
    "displayName": ""
  },
  {
    "name": "xp.towncrier",
    "defaultvalue": 0,
    "displayName": ""
  },
  {
    "name": "wins.towncrier",
    "defaultvalue": 0,
    "displayName": ""
  },
  {
    "name": "played.towncrier",
    "defaultvalue": 0,
    "displayName": ""
  },
  {
    "name": "xp.tupilaq",
    "defaultvalue": 0,
    "displayName": ""
  },
  {
    "name": "wins.tupilaq",
    "defaultvalue": 0,
    "displayName": ""
  },
  {
    "name": "played.tupilaq",
    "defaultvalue": 0,
    "displayName": ""
  },
  {
    "name": "xp.vampire",
    "defaultvalue": 0,
    "displayName": ""
  },
  {
    "name": "wins.vampire",
    "defaultvalue": 0,
    "displayName": ""
  },
  {
    "name": "played.vampire",
    "defaultvalue": 0,
    "displayName": ""
  },
  {
    "name": "xp.viceroy",
    "defaultvalue": 0,
    "displayName": ""
  },
  {
    "name": "wins.viceroy",
    "defaultvalue": 0,
    "displayName": ""
  },
  {
    "name": "played.viceroy",
    "defaultvalue": 0,
    "displayName": ""
  },
  {
    "name": "xp.virgin",
    "defaultvalue": 0,
    "displayName": ""
  },
  {
    "name": "wins.virgin",
    "defaultvalue": 0,
    "displayName": ""
  },
  {
    "name": "played.virgin",
    "defaultvalue": 0,
    "displayName": ""
  },
  {
    "name": "xp.vixen",
    "defaultvalue": 0,
    "displayName": ""
  },
  {
    "name": "wins.vixen",
    "defaultvalue": 0,
    "displayName": ""
  },
  {
    "name": "played.vixen",
    "defaultvalue": 0,
    "displayName": ""
  },
  {
    "name": "xp.waijun",
    "defaultvalue": 0,
    "displayName": ""
  },
  {
    "name": "wins.waijun",
    "defaultvalue": 0,
    "displayName": ""
  },
  {
    "name": "played.waijun",
    "defaultvalue": 0,
    "displayName": ""
  },
  {
    "name": "xp.whitewitch",
    "defaultvalue": 0,
    "displayName": ""
  },
  {
    "name": "wins.whitewitch",
    "defaultvalue": 0,
    "displayName": ""
  },
  {
    "name": "played.whitewitch",
    "defaultvalue": 0,
    "displayName": ""
  },
  {
    "name": "xp.wildwolf",
    "defaultvalue": 0,
    "displayName": ""
  },
  {
    "name": "wins.wildwolf",
    "defaultvalue": 0,
    "displayName": ""
  },
  {
    "name": "played.wildwolf",
    "defaultvalue": 0,
    "displayName": ""
  },
  {
    "name": "xp.wolfcub",
    "defaultvalue": 0,
    "displayName": ""
  },
  {
    "name": "wins.wolfcub",
    "defaultvalue": 0,
    "displayName": ""
  },
  {
    "name": "played.wolfcub",
    "defaultvalue": 0,
    "displayName": ""
  },
  {
    "name": "xp.wolfknight",
    "defaultvalue": 0,
    "displayName": ""
  },
  {
    "name": "wins.wolfknight",
    "defaultvalue": 0,
    "displayName": ""
  },
  {
    "name": "played.wolfknight",
    "defaultvalue": 0,
    "displayName": ""
  },
  {
    "name": "xp.wolflord",
    "defaultvalue": 0,
    "displayName": ""
  },
  {
    "name": "wins.wolflord",
    "defaultvalue": 0,
    "displayName": ""
  },
  {
    "name": "played.wolflord",
    "defaultvalue": 0,
    "displayName": ""
  },
  {
    "name": "xp.wolfslayer",
    "defaultvalue": 0,
    "displayName": ""
  },
  {
    "name": "wins.wolfslayer",
    "defaultvalue": 0,
    "displayName": ""
  },
  {
    "name": "played.wolfslayer",
    "defaultvalue": 0,
    "displayName": ""
  },
  {
    "name": "xp.witchofenvy",
    "defaultvalue": 0,
    "displayName": ""
  },
  {
    "name": "wins.witchofenvy",
    "defaultvalue": 0,
    "displayName": ""
  },
  {
    "name": "played.witchofenvy",
    "defaultvalue": 0,
    "displayName": ""
  },
  {
    "name": "xp.wildling",
    "defaultvalue": 0,
    "displayName": ""
  },
  {
    "name": "wins.wildling",
    "defaultvalue": 0,
    "displayName": ""
  },
  {
    "name": "played.wildling",
    "defaultvalue": 0,
    "displayName": ""
  },
  {
    "name": "xp.draketamer",
    "defaultvalue": 0,
    "displayName": ""
  },
  {
    "name": "played.draketamer",
    "defaultvalue": 0,
    "displayName": ""
  },
  {
    "name": "wins.draketamer",
    "defaultvalue": 0,
    "displayName": ""
  },
  {
    "name": "xp.stalker",
    "defaultvalue": 0,
    "displayName": ""
  },
  {
    "name": "wins.stalker",
    "defaultvalue": 0,
    "displayName": ""
  },
  {
    "name": "played.stalker",
    "defaultvalue": 0,
    "displayName": ""
  },
  {
    "name": "xp.warden",
    "defaultvalue": 0,
    "displayName": ""
  },
  {
    "name": "wins.warden",
    "defaultvalue": 0,
    "displayName": ""
  },
  {
    "name": "played.warden",
    "defaultvalue": 0,
    "displayName": ""
  },
  {
    "name": "xp.artificer",
    "defaultvalue": 0,
    "displayName": ""
  },
  {
    "name": "played.artificer",
    "defaultvalue": 0,
    "displayName": ""
  },
  {
    "name": "wins.artificer",
    "defaultvalue": 0,
    "displayName": ""
  },
  {
    "name": "wins.necromancer",
    "defaultvalue": 0,
    "displayName": ""
  },
  {
    "name": "played.necromancer",
    "defaultvalue": 0,
    "displayName": ""
  },
  {
    "name": "xp.necromancer",
    "defaultvalue": 0,
    "displayName": ""
  },
  {
    "name": "xp.okami",
    "defaultvalue": 0,
    "displayName": ""
  },
  {
    "name": "played.okami",
    "defaultvalue": 0,
    "displayName": ""
  },
  {
    "name": "wins.okami",
    "defaultvalue": 0,
    "displayName": ""
  },
  {
    "name": "xp.knight",
    "defaultvalue": 0,
    "displayName": ""
  },
  {
    "name": "wins.knight",
    "defaultvalue": 0,
    "displayName": ""
  },
  {
    "name": "played.knight",
    "defaultvalue": 0,
    "displayName": ""
  },
  {
    "name": "xp.banshee",
    "defaultvalue": 0,
    "displayName": ""
  },
  {
    "name": "wins.banshee",
    "defaultvalue": 0,
    "displayName": ""
  },
  {
    "name": "played.banshee",
    "defaultvalue": 0,
    "displayName": ""
  },
  {
    "name": "level.villager",
    "defaultvalue": 0,
    "displayName": ""
  },
  {
    "name": "level.seer",
    "defaultvalue": 0,
    "displayName": ""
  },
  {
    "name": "level.ashling",
    "defaultvalue": 0,
    "displayName": ""
  },
  {
    "name": "level.banshee",
    "defaultvalue": 0,
    "displayName": ""
  },
  {
    "name": "level.baroness",
    "defaultvalue": 0,
    "displayName": ""
  },
  {
    "name": "level.blasphemer",
    "defaultvalue": 0,
    "displayName": ""
  },
  {
    "name": "level.blixem",
    "defaultvalue": 0,
    "displayName": ""
  },
  {
    "name": "level.bloodthorn",
    "defaultvalue": 0,
    "displayName": ""
  },
  {
    "name": "level.cernobog",
    "defaultvalue": 0,
    "displayName": ""
  },
  {
    "name": "level.comet",
    "defaultvalue": 0,
    "displayName": ""
  },
  {
    "name": "level.concubine",
    "defaultvalue": 0,
    "displayName": ""
  },
  {
    "name": "level.countess",
    "defaultvalue": 0,
    "displayName": ""
  },
  {
    "name": "level.crippledwolf",
    "defaultvalue": 0,
    "displayName": ""
  },
  {
    "name": "level.crucifier",
    "defaultvalue": 0,
    "displayName": ""
  },
  {
    "name": "level.cupid",
    "defaultvalue": 0,
    "displayName": ""
  },
  {
    "name": "level.dancer",
    "defaultvalue": 0,
    "displayName": ""
  },
  {
    "name": "level.dasher",
    "defaultvalue": 0,
    "displayName": ""
  },
  {
    "name": "level.direwolf",
    "defaultvalue": 0,
    "displayName": ""
  },
  {
    "name": "level.doomsayer",
    "defaultvalue": 0,
    "displayName": ""
  },
  {
    "name": "level.dunder",
    "defaultvalue": 0,
    "displayName": ""
  },
  {
    "name": "level.fenrir",
    "defaultvalue": 0,
    "displayName": ""
  },
  {
    "name": "level.gargoyle",
    "defaultvalue": 0,
    "displayName": ""
  },
  {
    "name": "level.gorgon",
    "defaultvalue": 0,
    "displayName": ""
  },
  {
    "name": "level.gremlin",
    "defaultvalue": 0,
    "displayName": ""
  },
  {
    "name": "level.harpy",
    "defaultvalue": 0,
    "displayName": ""
  },
  {
    "name": "level.hellhound",
    "defaultvalue": 0,
    "displayName": ""
  },
  {
    "name": "level.hera",
    "defaultvalue": 0,
    "displayName": ""
  },
  {
    "name": "level.hollowhusk",
    "defaultvalue": 0,
    "displayName": ""
  },
  {
    "name": "level.honshu",
    "defaultvalue": 0,
    "displayName": ""
  },
  {
    "name": "level.hungerer",
    "defaultvalue": 0,
    "displayName": ""
  },
  {
    "name": "level.imp",
    "defaultvalue": 0,
    "displayName": ""
  },
  {
    "name": "level.incubus",
    "defaultvalue": 0,
    "displayName": ""
  },
  {
    "name": "level.kato",
    "defaultvalue": 0,
    "displayName": ""
  },
  {
    "name": "level.minotaur",
    "defaultvalue": 0,
    "displayName": ""
  },
  {
    "name": "level.mothling",
    "defaultvalue": 0,
    "displayName": ""
  },
  {
    "name": "level.nightmare",
    "defaultvalue": 0,
    "displayName": ""
  },
  {
    "name": "level.okami",
    "defaultvalue": 0,
    "displayName": ""
  },
  {
    "name": "level.oni",
    "defaultvalue": 0,
    "displayName": ""
  },
  {
    "name": "level.plaguewolf",
    "defaultvalue": 0,
    "displayName": ""
  },
  {
    "name": "level.poppet",
    "defaultvalue": 0,
    "displayName": ""
  },
  {
    "name": "level.prancer",
    "defaultvalue": 0,
    "displayName": ""
  },
  {
    "name": "level.saboteur",
    "defaultvalue": 0,
    "displayName": ""
  },
  {
    "name": "level.scylla",
    "defaultvalue": 0,
    "displayName": ""
  },
  {
    "name": "level.selkie",
    "defaultvalue": 0,
    "displayName": ""
  },
  {
    "name": "level.skinwalker",
    "defaultvalue": 0,
    "displayName": ""
  },
  {
    "name": "level.stalker",
    "defaultvalue": 0,
    "displayName": ""
  },
  {
    "name": "level.succubus",
    "defaultvalue": 0,
    "displayName": ""
  },
  {
    "name": "level.suzaku",
    "defaultvalue": 0,
    "displayName": ""
  },
  {
    "name": "level.swampkin",
    "defaultvalue": 0,
    "displayName": ""
  },
  {
    "name": "level.toothfairy",
    "defaultvalue": 0,
    "displayName": ""
  },
  {
    "name": "level.vixen",
    "defaultvalue": 0,
    "displayName": ""
  },
  {
    "name": "level.wendigo",
    "defaultvalue": 0,
    "displayName": ""
  },
  {
    "name": "level.werebat",
    "defaultvalue": 0,
    "displayName": ""
  },
  {
    "name": "level.werewolf",
    "defaultvalue": 0,
    "displayName": ""
  },
  {
    "name": "level.wildwolf",
    "defaultvalue": 0,
    "displayName": ""
  },
  {
    "name": "level.wolfcub",
    "defaultvalue": 0,
    "displayName": ""
  },
  {
    "name": "level.wolfknight",
    "defaultvalue": 0,
    "displayName": ""
  },
  {
    "name": "level.wolfmother",
    "defaultvalue": 0,
    "displayName": ""
  },
  {
    "name": "wukong",
    "defaultvalue": 0,
    "displayName": ""
  },
  {
    "name": "level.admiral",
    "defaultvalue": 0,
    "displayName": ""
  },
  {
    "name": "level.apprentice",
    "defaultvalue": 0,
    "displayName": ""
  },
  {
    "name": "level.ares",
    "defaultvalue": 0,
    "displayName": ""
  },
  {
    "name": "level.artificer",
    "defaultvalue": 0,
    "displayName": ""
  },
  {
    "name": "level.assassin",
    "defaultvalue": 0,
    "displayName": ""
  },
  {
    "name": "level.auraseer",
    "defaultvalue": 0,
    "displayName": ""
  },
  {
    "name": "level.baker",
    "defaultvalue": 0,
    "displayName": ""
  },
  {
    "name": "level.barbarian",
    "defaultvalue": 0,
    "displayName": ""
  },
  {
    "name": "level.bard",
    "defaultvalue": 0,
    "displayName": ""
  },
  {
    "name": "level.barmaid",
    "defaultvalue": 0,
    "displayName": ""
  },
  {
    "name": "level.berserker",
    "defaultvalue": 0,
    "displayName": ""
  },
  {
    "name": "level.bodyguard",
    "defaultvalue": 0,
    "displayName": ""
  },
  {
    "name": "level.bruiser",
    "defaultvalue": 0,
    "displayName": ""
  },
  {
    "name": "level.candlemaker",
    "defaultvalue": 0,
    "displayName": ""
  },
  {
    "name": "level.captain",
    "defaultvalue": 0,
    "displayName": ""
  },
  {
    "name": "level.carpenter",
    "defaultvalue": 0,
    "displayName": ""
  },
  {
    "name": "level.cleric",
    "defaultvalue": 0,
    "displayName": ""
  },
  {
    "name": "level.coward",
    "defaultvalue": 0,
    "displayName": ""
  },
  {
    "name": "level.crusader",
    "defaultvalue": 0,
    "displayName": ""
  },
  {
    "name": "level.darkwitch",
    "defaultvalue": 0,
    "displayName": ""
  },
  {
    "name": "level.dilletant",
    "defaultvalue": 0,
    "displayName": ""
  },
  {
    "name": "level.diseased",
    "defaultvalue": 0,
    "displayName": ""
  },
  {
    "name": "draketamer",
    "defaultvalue": 0,
    "displayName": ""
  },
  {
    "name": "level.exile",
    "defaultvalue": 0,
    "displayName": ""
  },
  {
    "name": "level.exorcist",
    "defaultvalue": 0,
    "displayName": ""
  },
  {
    "name": "level.fence",
    "defaultvalue": 0,
    "displayName": ""
  },
  {
    "name": "level.fisherman",
    "defaultvalue": 0,
    "displayName": ""
  },
  {
    "name": "level.gardener",
    "defaultvalue": 0,
    "displayName": ""
  },
  {
    "name": "level.general",
    "defaultvalue": 0,
    "displayName": ""
  },
  {
    "name": "level.guardian",
    "defaultvalue": 0,
    "displayName": ""
  },
  {
    "name": "level.hermit",
    "defaultvalue": 0,
    "displayName": ""
  },
  {
    "name": "level.hunter",
    "defaultvalue": 0,
    "displayName": ""
  },
  {
    "name": "level.ignoble",
    "defaultvalue": 0,
    "displayName": ""
  },
  {
    "name": "level.innkeeper",
    "defaultvalue": 0,
    "displayName": ""
  },
  {
    "name": "level.inquisitor",
    "defaultvalue": 0,
    "displayName": ""
  },
  {
    "name": "level.jarl",
    "defaultvalue": 0,
    "displayName": ""
  },
  {
    "name": "level.judge",
    "defaultvalue": 0,
    "displayName": ""
  },
  {
    "name": "level.karura",
    "defaultvalue": 0,
    "displayName": ""
  },
  {
    "name": "level.kitsune",
    "defaultvalue": 0,
    "displayName": ""
  },
  {
    "name": "level.knight",
    "defaultvalue": 0,
    "displayName": ""
  },
  {
    "name": "level.lycan",
    "defaultvalue": 0,
    "displayName": ""
  },
  {
    "name": "level.mentalist",
    "defaultvalue": 0,
    "displayName": ""
  },
  {
    "name": "level.monk",
    "defaultvalue": 0,
    "displayName": ""
  },
  {
    "name": "level.moondancer",
    "defaultvalue": 0,
    "displayName": ""
  },
  {
    "name": "level.ninja",
    "defaultvalue": 0,
    "displayName": ""
  },
  {
    "name": "level.oracle",
    "defaultvalue": 0,
    "displayName": ""
  },
  {
    "name": "level.outsider",
    "defaultvalue": 0,
    "displayName": ""
  },
  {
    "name": "level.ozymandias",
    "defaultvalue": 0,
    "displayName": ""
  },
  {
    "name": "level.paladin",
    "defaultvalue": 0,
    "displayName": ""
  },
  {
    "name": "level.paranoid",
    "defaultvalue": 0,
    "displayName": ""
  },
  {
    "name": "level.pathfinder",
    "defaultvalue": 0,
    "displayName": ""
  },
  {
    "name": "level.patron",
    "defaultvalue": 0,
    "displayName": ""
  },
  {
    "name": "level.piper",
    "defaultvalue": 0,
    "displayName": ""
  },
  {
    "name": "level.prince",
    "defaultvalue": 0,
    "displayName": ""
  },
  {
    "name": "level.quaker",
    "defaultvalue": 0,
    "displayName": ""
  },
  {
    "name": "level.ranger",
    "defaultvalue": 0,
    "displayName": ""
  },
  {
    "name": "level.raven",
    "defaultvalue": 0,
    "displayName": ""
  },
  {
    "name": "level.ronin",
    "defaultvalue": 0,
    "displayName": ""
  },
  {
    "name": "level.ruffian",
    "defaultvalue": 0,
    "displayName": ""
  },
  {
    "name": "level.sage",
    "defaultvalue": 0,
    "displayName": ""
  },
  {
    "name": "level.saint",
    "defaultvalue": 0,
    "displayName": ""
  },
  {
    "name": "level.saintnick",
    "defaultvalue": 0,
    "displayName": ""
  },
  {
    "name": "level.sandman",
    "defaultvalue": 0,
    "displayName": ""
  },
  {
    "name": "level.scout",
    "defaultvalue": 0,
    "displayName": ""
  },
  {
    "name": "level.scribe",
    "defaultvalue": 0,
    "displayName": ""
  },
  {
    "name": "level.scryer",
    "defaultvalue": 0,
    "displayName": ""
  },
  {
    "name": "level.shaman",
    "defaultvalue": 0,
    "displayName": ""
  },
  {
    "name": "level.shieldmaiden",
    "defaultvalue": 0,
    "displayName": ""
  },
  {
    "name": "level.spy",
    "defaultvalue": 0,
    "displayName": ""
  },
  {
    "name": "level.taxcollector",
    "defaultvalue": 0,
    "displayName": ""
  },
  {
    "name": "level.templar",
    "defaultvalue": 0,
    "displayName": ""
  },
  {
    "name": "level.toad",
    "defaultvalue": 0,
    "displayName": ""
  },
  {
    "name": "level.toturer",
    "defaultvalue": 0,
    "displayName": ""
  },
  {
    "name": "level.towncrier",
    "defaultvalue": 0,
    "displayName": ""
  },
  {
    "name": "level.traveller",
    "defaultvalue": 0,
    "displayName": ""
  },
  {
    "name": "level.troublemaker",
    "defaultvalue": 0,
    "displayName": ""
  },
  {
    "name": "level.viceroy",
    "defaultvalue": 0,
    "displayName": ""
  },
  {
    "name": "level.virgin",
    "defaultvalue": 0,
    "displayName": ""
  },
  {
    "name": "level.warden",
    "defaultvalue": 0,
    "displayName": ""
  },
  {
    "name": "level.watchman",
    "defaultvalue": 0,
    "displayName": ""
  },
  {
    "name": "level.whitewitch",
    "defaultvalue": 0,
    "displayName": ""
  },
  {
    "name": "level.witchofblood",
    "defaultvalue": 0,
    "displayName": ""
  },
  {
    "name": "level.witchofenvy",
    "defaultvalue": 0,
    "displayName": ""
  },
  {
    "name": "level.witchoflight",
    "defaultvalue": 0,
    "displayName": ""
  },
  {
    "name": "level.witchofthemoon",
    "defaultvalue": 0,
    "displayName": ""
  },
  {
    "name": "level.wolfslayer",
    "defaultvalue": 0,
    "displayName": ""
  },
  {
    "name": "level.woodsman",
    "defaultvalue": 0,
    "displayName": ""
  },
  {
    "name": "level.babayaga",
    "defaultvalue": 0,
    "displayName": ""
  },
  {
    "name": "level.blackcat",
    "defaultvalue": 0,
    "displayName": ""
  },
  {
    "name": "level.bloodoak",
    "defaultvalue": 0,
    "displayName": ""
  },
  {
    "name": "level.changeling",
    "defaultvalue": 0,
    "displayName": ""
  },
  {
    "name": "level.crook",
    "defaultvalue": 0,
    "displayName": ""
  },
  {
    "name": "level.crookedman",
    "defaultvalue": 0,
    "displayName": ""
  },
  {
    "name": "level.darktwin",
    "defaultvalue": 0,
    "displayName": ""
  },
  {
    "name": "level.easterbunny",
    "defaultvalue": 0,
    "displayName": ""
  },
  {
    "name": "level.gaia",
    "defaultvalue": 0,
    "displayName": ""
  },
  {
    "name": "level.geisha",
    "defaultvalue": 0,
    "displayName": ""
  },
  {
    "name": "level.ghast",
    "defaultvalue": 0,
    "displayName": ""
  },
  {
    "name": "level.ghoul",
    "defaultvalue": 0,
    "displayName": ""
  },
  {
    "name": "level.jester",
    "defaultvalue": 0,
    "displayName": ""
  },
  {
    "name": "level.krampus",
    "defaultvalue": 0,
    "displayName": ""
  },
  {
    "name": "level.kurian",
    "defaultvalue": 0,
    "displayName": ""
  },
  {
    "name": "level.landlord",
    "defaultvalue": 0,
    "displayName": ""
  },
  {
    "name": "level.maggotlord",
    "defaultvalue": 0,
    "displayName": ""
  },
  {
    "name": "level.malacoda",
    "defaultvalue": 0,
    "displayName": ""
  },
  {
    "name": "level.medusa",
    "defaultvalue": 0,
    "displayName": ""
  },
  {
    "name": "level.merman",
    "defaultvalue": 0,
    "displayName": ""
  },
  {
    "name": "level.mukk",
    "defaultvalue": 0,
    "displayName": ""
  },
  {
    "name": "level.necromancer",
    "defaultvalue": 0,
    "displayName": ""
  },
  {
    "name": "level.nickranchez",
    "defaultvalue": 0,
    "displayName": ""
  },
  {
    "name": "level.nymph",
    "defaultvalue": 0,
    "displayName": ""
  },
  {
    "name": "level.pandora",
    "defaultvalue": 0,
    "displayName": ""
  },
  {
    "name": "level.pirate",
    "defaultvalue": 0,
    "displayName": ""
  },
  {
    "name": "level.plaguelord",
    "defaultvalue": 0,
    "displayName": ""
  },
  {
    "name": "level.pumpkinking",
    "defaultvalue": 0,
    "displayName": ""
  },
  {
    "name": "level.rasputin",
    "defaultvalue": 0,
    "displayName": ""
  },
  {
    "name": "level.ravenlord",
    "defaultvalue": 0,
    "displayName": ""
  },
  {
    "name": "level.reaper",
    "defaultvalue": 0,
    "displayName": ""
  },
  {
    "name": "level.ridinghood",
    "defaultvalue": 0,
    "displayName": ""
  },
  {
    "name": "level.servant",
    "defaultvalue": 0,
    "displayName": ""
  },
  {
    "name": "level.skinflayer",
    "defaultvalue": 0,
    "displayName": ""
  },
  {
    "name": "level.slither",
    "defaultvalue": 0,
    "displayName": ""
  },
  {
    "name": "level.snatcher",
    "defaultvalue": 0,
    "displayName": ""
  },
  {
    "name": "level.swindler",
    "defaultvalue": 0,
    "displayName": ""
  },
  {
    "name": "level.talos",
    "defaultvalue": 0,
    "displayName": ""
  },
  {
    "name": "level.troll",
    "defaultvalue": 0,
    "displayName": ""
  },
  {
    "name": "level.tupilaq",
    "defaultvalue": 0,
    "displayName": ""
  },
  {
    "name": "level.usurper",
    "defaultvalue": 0,
    "displayName": ""
  },
  {
    "name": "level.vampire",
    "defaultvalue": 0,
    "displayName": ""
  },
  {
    "name": "level.venomancer",
    "defaultvalue": 0,
    "displayName": ""
  },
  {
    "name": "level.waijun",
    "defaultvalue": 0,
    "displayName": ""
  },
  {
    "name": "level.wildling",
    "defaultvalue": 0,
    "displayName": ""
  },
  {
    "name": "xp.corpsebride",
    "defaultvalue": 0,
    "displayName": ""
  },
  {
    "name": "played.corpsebride",
    "defaultvalue": 0,
    "displayName": ""
  },
  {
    "name": "wins.corpsebride",
    "defaultvalue": 0,
    "displayName": ""
  },
  {
    "name": "level.corpsebride",
    "defaultvalue": 0,
    "displayName": ""
  },
  {
    "name": "wins.arcanist",
    "defaultvalue": 0,
    "displayName": ""
  },
  {
    "name": "xp.arcanist",
    "defaultvalue": 0,
    "displayName": ""
  },
  {
    "name": "played.arcanist",
    "defaultvalue": 0,
    "displayName": ""
  },
  {
    "name": "level.arcanist",
    "defaultvalue": 0,
    "displayName": ""
  },
  {
    "name": "xp.wyvern",
    "defaultvalue": 0,
    "displayName": ""
  },
  {
    "name": "level.wyvern",
    "defaultvalue": 0,
    "displayName": ""
  },
  {
    "name": "wins.wyvern",
    "defaultvalue": 0,
    "displayName": ""
  },
  {
    "name": "played.wyvern",
    "defaultvalue": 0,
    "displayName": ""
  },
  {
    "name": "wins.oni",
    "defaultvalue": 0,
    "displayName": ""
  },
  {
    "name": "xp.oni",
    "defaultvalue": 0,
    "displayName": ""
  },
  {
    "name": "played.oni",
    "defaultvalue": 0,
    "displayName": ""
  },
  {
    "name": "wins.prophet",
    "defaultvalue": 0,
    "displayName": ""
  },
  {
    "name": "xp.prophet",
    "defaultvalue": 0,
    "displayName": ""
  },
  {
    "name": "played.prophet",
    "defaultvalue": 0,
    "displayName": ""
  },
  {
    "name": "level.prophet",
    "defaultvalue": 0,
    "displayName": ""
  },
  {
    "name": "wins.squire",
    "defaultvalue": 0,
    "displayName": ""
  },
  {
    "name": "xp.squire",
    "defaultvalue": 0,
    "displayName": ""
  },
  {
    "name": "played.squire",
    "defaultvalue": 0,
    "displayName": ""
  },
  {
    "name": "level.squire",
    "defaultvalue": 0,
    "displayName": ""
  },
  {
    "name": "xp.pandora",
    "defaultvalue": 0,
    "displayName": ""
  },
  {
    "name": "wins.pandora",
    "defaultvalue": 0,
    "displayName": ""
  },
  {
    "name": "played.pandora",
    "defaultvalue": 0,
    "displayName": ""
  },
  {
    "name": "xp.maiden",
    "defaultvalue": 0,
    "displayName": ""
  },
  {
    "name": "wins.maiden",
    "defaultvalue": 0,
    "displayName": ""
  },
  {
    "name": "played.maiden",
    "defaultvalue": 0,
    "displayName": ""
  },
  {
    "name": "level.maiden",
    "defaultvalue": 0,
    "displayName": ""
  },
  {
    "name": "xp.king",
    "defaultvalue": 0,
    "displayName": ""
  },
  {
    "name": "level.king",
    "defaultvalue": 0,
    "displayName": ""
  },
  {
    "name": "wins.king",
    "defaultvalue": 0,
    "displayName": ""
  },
  {
    "name": "played.king",
    "defaultvalue": 0,
    "displayName": ""
  },
  {
    "name": "xp.sandman",
    "defaultvalue": 0,
    "displayName": ""
  },
  {
    "name": "wins.sandman",
    "defaultvalue": 0,
    "displayName": ""
  },
  {
    "name": "played.sandman",
    "defaultvalue": 0,
    "displayName": ""
  },
  {
    "name": "xp.mirrorbeast",
    "defaultvalue": 0,
    "displayName": ""
  },
  {
    "name": "level.mirrorbeast",
    "defaultvalue": 0,
    "displayName": ""
  },
  {
    "name": "played.mirrorbeast",
    "defaultvalue": 0,
    "displayName": ""
  },
  {
    "name": "wins.mirrorbeast",
    "defaultvalue": 0,
    "displayName": ""
  },
  {
    "name": "xp.madhatter",
    "defaultvalue": 0,
    "displayName": ""
  },
  {
    "name": "wins.madhatter",
    "defaultvalue": 0,
    "displayName": ""
  },
  {
    "name": "played.madhatter",
    "defaultvalue": 0,
    "displayName": ""
  },
  {
    "name": "level.madhatter",
    "defaultvalue": 0,
    "displayName": ""
  }
]