﻿[
  {
    "name": "ENEMIESKILLED",
    "defaultvalue": 0,
    "displayName": "Killed enemies"
  },
  {
    "name": "MELEEATTACKS",
    "defaultvalue": 0,
    "displayName": "Melee attacks"
  },
  {
    "name": "GRENADESTHROWN",
    "defaultvalue": 0,
    "displayName": "Grenades thrown"
  },
  {
    "name": "MELEEKILLS",
    "defaultvalue": 0,
    "displayName": "Melee kills"
  },
  {
    "name": "GRENADEKILLS",
    "defaultvalue": 0,
    "displayName": "Grenade kills"
  },
  {
    "name": "BULLETSFIRED",
    "defaultvalue": 0,
    "displayName": "Bullets fired"
  },
  {
    "name": "WALLSBLASTED",
    "defaultvalue": 0,
    "displayName": "Walls blasted"
  },
  {
    "name": "MINESPLANTED",
    "defaultvalue": 0,
    "displayName": "Mines planted"
  },
  {
    "name": "MINESDEFUSED",
    "defaultvalue": 0,
    "displayName": "Mines defused"
  },
  {
    "name": "MINEKILLS",
    "defaultvalue": 0,
    "displayName": "Kills with mines"
  },
  {
    "name": "HEALTHRESTORED",
    "defaultvalue": 0,
    "displayName": "Health restored"
  },
  {
    "name": "REVIVES",
    "defaultvalue": 0,
    "displayName": "Revived people"
  },
  {
    "name": "DURABILITYRESTORED",
    "defaultvalue": 0,
    "displayName": "Durability restored"
  },
  {
    "name": "MERCSHIRED_0",
    "defaultvalue": 0,
    "displayName": "Mercs hired 0"
  },
  {
    "name": "MERCSHIRED_1",
    "defaultvalue": 0,
    "displayName": "Mercs hired 1"
  },
  {
    "name": "MERCSHIRED_2",
    "defaultvalue": 0,
    "displayName": "Mercs hired 2"
  },
  {
    "name": "MERCSHIRED_3",
    "defaultvalue": 0,
    "displayName": "Mercs hired 3"
  },
  {
    "name": "MONEYLOOTED",
    "defaultvalue": 0,
    "displayName": "Money looted"
  },
  {
    "name": "LOCKPICKS",
    "defaultvalue": 0,
    "displayName": "Lockpicks"
  },
  {
    "name": "CROWBAROPENS",
    "defaultvalue": 0,
    "displayName": "Doors opened by crowbar"
  },
  {
    "name": "MILITIARECRUITED",
    "defaultvalue": 0,
    "displayName": "Militia recruited"
  },
  {
    "name": "EXPLOSIVESPLANTED",
    "defaultvalue": 0,
    "displayName": "Explosives planted"
  },
  {
    "name": "MONEYSPENTSHOP",
    "defaultvalue": 0,
    "displayName": "Total money spent at online shop"
  },
  {
    "name": "SMOKEGRENADESTHROWN",
    "defaultvalue": 0,
    "displayName": "Smoke grenades thrown"
  },
  {
    "name": "STUNGRENADESTHROWN",
    "defaultvalue": 0,
    "displayName": "Stun grenades thrown"
  },
  {
    "name": "FRAGGRENADESTHROWN",
    "defaultvalue": 0,
    "displayName": "Frag grenades thrown"
  },
  {
    "name": "TEARGASGRENADESTHROWN",
    "defaultvalue": 0,
    "displayName": "Tear gas grenades thrown"
  },
  {
    "name": "MELEEKILLS_DLC05",
    "defaultvalue": 0,
    "displayName": "Melee kills in Shades of Red"
  },
  {
    "name": "LEVELUPS",
    "defaultvalue": 0,
    "displayName": "Level ups gained"
  },
  {
    "name": "DAMAGETAKEN",
    "defaultvalue": 0,
    "displayName": "Damage taken"
  },
  {
    "name": "DAILYINCOME",
    "defaultvalue": 0,
    "displayName": "Total sum of daily income"
  },
  {
    "name": "DAYSOFSERVICE",
    "defaultvalue": 0,
    "displayName": "Days in service of all mercs"
  }
]