﻿[
  {
    "name": "ACH_01",
    "defaultvalue": 0,
    "displayName": "The Best of the Best ",
    "hidden": 0,
    "description": "Complete all single player levels 1-5 on elite difficulty",
    "icon": "https://steamcdn-a.akamaihd.net/steamcommunity/public/images/apps/22650/7a8bb166768292648119f8cc8157b31c53a61c5a.jpg",
    "icongray": "https://steamcdn-a.akamaihd.net/steamcommunity/public/images/apps/22650/f95e7c06f8a58a4392f25431c96ed8c36a4bae9b.jpg"
  },
  {
    "name": "ACH_02",
    "defaultvalue": 0,
    "displayName": "Old Soldier",
    "hidden": 0,
    "description": "Complete all single player levels 1-5",
    "icon": "https://steamcdn-a.akamaihd.net/steamcommunity/public/images/apps/22650/0011a386c43c1f5efea9025f0671c7dcba964d12.jpg",
    "icongray": "https://steamcdn-a.akamaihd.net/steamcommunity/public/images/apps/22650/f95e7c06f8a58a4392f25431c96ed8c36a4bae9b.jpg"
  },
  {
    "name": "ACH_03",
    "defaultvalue": 0,
    "displayName": "Co-op Campaigner ",
    "hidden": 0,
    "description": "Complete any multiplayer level",
    "icon": "https://steamcdn-a.akamaihd.net/steamcommunity/public/images/apps/22650/87c250ff2031b9449b7414e932ac285dfc088580.jpg",
    "icongray": "https://steamcdn-a.akamaihd.net/steamcommunity/public/images/apps/22650/f95e7c06f8a58a4392f25431c96ed8c36a4bae9b.jpg"
  },
  {
    "name": "ACH_04",
    "defaultvalue": 0,
    "displayName": "War of Attrition",
    "hidden": 0,
    "description": "Kill 1000 aliens in single player",
    "icon": "https://steamcdn-a.akamaihd.net/steamcommunity/public/images/apps/22650/cb816bb51fa2f74a22515548811e228fab782ddf.jpg",
    "icongray": "https://steamcdn-a.akamaihd.net/steamcommunity/public/images/apps/22650/f95e7c06f8a58a4392f25431c96ed8c36a4bae9b.jpg"
  },
  {
    "name": "ACH_05",
    "defaultvalue": 0,
    "displayName": "Vital Statistics",
    "hidden": 0,
    "description": "Finish ‘Primed’ single player level with 300000 or more overall score",
    "icon": "https://steamcdn-a.akamaihd.net/steamcommunity/public/images/apps/22650/a99b259994eaa78b24b9774c7cf5db5e2ea0079a.jpg",
    "icongray": "https://steamcdn-a.akamaihd.net/steamcommunity/public/images/apps/22650/f95e7c06f8a58a4392f25431c96ed8c36a4bae9b.jpg"
  },
  {
    "name": "ACH_06",
    "defaultvalue": 0,
    "displayName": "Indestructible ",
    "hidden": 0,
    "description": "Finish multiplayer ‘Cargo’ level without taking any damage",
    "icon": "https://steamcdn-a.akamaihd.net/steamcommunity/public/images/apps/22650/425c96dbf824c3072ebff268ba91e92aa55df1ec.jpg",
    "icongray": "https://steamcdn-a.akamaihd.net/steamcommunity/public/images/apps/22650/f95e7c06f8a58a4392f25431c96ed8c36a4bae9b.jpg"
  },
  {
    "name": "ACH_07",
    "defaultvalue": 0,
    "displayName": "Praemonitus Praemunitus",
    "hidden": 0,
    "description": "Collect all logs through out the game",
    "icon": "https://steamcdn-a.akamaihd.net/steamcommunity/public/images/apps/22650/ae2486898ed86ec74106d1972b6c7d1870aa2bec.jpg",
    "icongray": "https://steamcdn-a.akamaihd.net/steamcommunity/public/images/apps/22650/f95e7c06f8a58a4392f25431c96ed8c36a4bae9b.jpg"
  },
  {
    "name": "ACH_08",
    "defaultvalue": 0,
    "displayName": "Survivor",
    "hidden": 0,
    "description": "Stay alive for 8 minutes on any of the Survivor mode single player levels",
    "icon": "https://steamcdn-a.akamaihd.net/steamcommunity/public/images/apps/22650/d7e9a09485d0e28d1e4f2b824fc761fbcd741407.jpg",
    "icongray": "https://steamcdn-a.akamaihd.net/steamcommunity/public/images/apps/22650/f95e7c06f8a58a4392f25431c96ed8c36a4bae9b.jpg"
  },
  {
    "name": "ACH_09",
    "defaultvalue": 0,
    "displayName": "Rapid Deployment",
    "hidden": 0,
    "description": "Complete ‘Cargo’ multiplayer level in 10 minutes or less",
    "icon": "https://steamcdn-a.akamaihd.net/steamcommunity/public/images/apps/22650/92ffd76227d43e8d1fb7a1d7c68bc1d30e9b0476.jpg",
    "icongray": "https://steamcdn-a.akamaihd.net/steamcommunity/public/images/apps/22650/f95e7c06f8a58a4392f25431c96ed8c36a4bae9b.jpg"
  },
  {
    "name": "ACH_10",
    "defaultvalue": 0,
    "displayName": "Super-Sleuth",
    "hidden": 0,
    "description": "Find all ‘secret’ collectibles",
    "icon": "https://steamcdn-a.akamaihd.net/steamcommunity/public/images/apps/22650/839c0369454828f4386a38c157eb1d94fa3d8d95.jpg",
    "icongray": "https://steamcdn-a.akamaihd.net/steamcommunity/public/images/apps/22650/f95e7c06f8a58a4392f25431c96ed8c36a4bae9b.jpg"
  },
  {
    "name": "ACH_11",
    "defaultvalue": 0,
    "displayName": "Deadly Assassin",
    "hidden": 0,
    "description": "Without the player taking damage kill 50 aliens in single player",
    "icon": "https://steamcdn-a.akamaihd.net/steamcommunity/public/images/apps/22650/3414e4b7c03ddbd64ff40f8c29871c2dde2c0530.jpg",
    "icongray": "https://steamcdn-a.akamaihd.net/steamcommunity/public/images/apps/22650/f95e7c06f8a58a4392f25431c96ed8c36a4bae9b.jpg"
  },
  {
    "name": "ACH_12",
    "defaultvalue": 0,
    "displayName": "Cash is King",
    "hidden": 0,
    "description": "Achieve a balance of 20000 credits or more",
    "icon": "https://steamcdn-a.akamaihd.net/steamcommunity/public/images/apps/22650/ea93b8b601b473affd4ef0e4314ea55c3ec14f06.jpg",
    "icongray": "https://steamcdn-a.akamaihd.net/steamcommunity/public/images/apps/22650/f95e7c06f8a58a4392f25431c96ed8c36a4bae9b.jpg"
  },
  {
    "name": "ACH_13",
    "defaultvalue": 0,
    "displayName": "Time to Party",
    "hidden": 0,
    "description": "Complete 3 Co-op Assault multiplayer games",
    "icon": "https://steamcdn-a.akamaihd.net/steamcommunity/public/images/apps/22650/2a3fbec1abc65866d1f4c69d3412b00c94f66a57.jpg",
    "icongray": "https://steamcdn-a.akamaihd.net/steamcommunity/public/images/apps/22650/1cb33c8738b274a83e93858c777e2b39e02be3ba.jpg"
  }
]