﻿{
  "Dlcs": {},
  "Name": "Villagers and Heroes",
  "AppId": "263540",
  "ImageUrl": "https://steamcdn-a.akamaihd.net/steam/apps/263540/header.jpg?t=1576769388",
  "Languages": [
    "english",
    "german",
    "portuguese",
    "french",
    "italian",
    "spanish",
    "turkish",
    "korean",
    "portuguese",
    "russian",
    "swedish",
    "schinese"
  ],
  "Platforms": {
    "windows": true,
    "mac": false,
    "linux": false
  }
}