﻿{
  "Dlcs": {},
  "Name": "Tunche: Arena",
  "AppId": "906200",
  "ImageUrl": "https://steamcdn-a.akamaihd.net/steam/apps/906200/header.jpg?t=1553076740",
  "Languages": [
    "english"
  ],
  "Platforms": {
    "windows": true,
    "mac": false,
    "linux": false
  }
}