﻿{
  "Dlcs": {},
  "Name": "Lucent Heart",
  "AppId": "283060",
  "ImageUrl": "https://steamcdn-a.akamaihd.net/steam/apps/283060/header.jpg?t=1499871629",
  "Languages": [
    "english"
  ],
  "Platforms": {
    "windows": true,
    "mac": false,
    "linux": false
  }
}