﻿[
  {
    "name": "chive1",
    "defaultvalue": 0,
    "displayName": "Pretty in pink",
    "hidden": 0,
    "description": "Masquerade as a tsundere oujou-chan.",
    "icon": "https://steamcdn-a.akamaihd.net/steamcommunity/public/images/apps/585880/a4ae5ce7dac7996b2eb910ef68550a04c6dac62c.jpg",
    "icongray": "https://steamcdn-a.akamaihd.net/steamcommunity/public/images/apps/585880/6b2f83479e3a8e07d5bb4060fec78d6572a43dcf.jpg"
  },
  {
    "name": "chive27",
    "defaultvalue": 0,
    "displayName": "Lycoris",
    "hidden": 0,
    "description": "Lycoris welcomes you to her library.",
    "icon": "https://steamcdn-a.akamaihd.net/steamcommunity/public/images/apps/585880/a4ae5ce7dac7996b2eb910ef68550a04c6dac62c.jpg",
    "icongray": "https://steamcdn-a.akamaihd.net/steamcommunity/public/images/apps/585880/6b2f83479e3a8e07d5bb4060fec78d6572a43dcf.jpg"
  },
  {
    "name": "chive2",
    "defaultvalue": 0,
    "displayName": "Thief",
    "hidden": 0,
    "description": "Try to steal Lycoris' most precious possession.",
    "icon": "https://steamcdn-a.akamaihd.net/steamcommunity/public/images/apps/585880/a4ae5ce7dac7996b2eb910ef68550a04c6dac62c.jpg",
    "icongray": "https://steamcdn-a.akamaihd.net/steamcommunity/public/images/apps/585880/6b2f83479e3a8e07d5bb4060fec78d6572a43dcf.jpg"
  },
  {
    "name": "chive4",
    "defaultvalue": 0,
    "displayName": "Empty sketchbook",
    "hidden": 0,
    "description": "Steal the sensibilities of an artist.",
    "icon": "https://steamcdn-a.akamaihd.net/steamcommunity/public/images/apps/585880/a4ae5ce7dac7996b2eb910ef68550a04c6dac62c.jpg",
    "icongray": "https://steamcdn-a.akamaihd.net/steamcommunity/public/images/apps/585880/6b2f83479e3a8e07d5bb4060fec78d6572a43dcf.jpg"
  },
  {
    "name": "chive5",
    "defaultvalue": 0,
    "displayName": "Like, BA-DAN!",
    "hidden": 0,
    "description": "Become what you've always wanted to be - cheerful.",
    "icon": "https://steamcdn-a.akamaihd.net/steamcommunity/public/images/apps/585880/a4ae5ce7dac7996b2eb910ef68550a04c6dac62c.jpg",
    "icongray": "https://steamcdn-a.akamaihd.net/steamcommunity/public/images/apps/585880/6b2f83479e3a8e07d5bb4060fec78d6572a43dcf.jpg"
  },
  {
    "name": "chive6",
    "defaultvalue": 0,
    "displayName": "Flower garden",
    "hidden": 0,
    "description": "Multiply the number of daffodils in the story.",
    "icon": "https://steamcdn-a.akamaihd.net/steamcommunity/public/images/apps/585880/a4ae5ce7dac7996b2eb910ef68550a04c6dac62c.jpg",
    "icongray": "https://steamcdn-a.akamaihd.net/steamcommunity/public/images/apps/585880/6b2f83479e3a8e07d5bb4060fec78d6572a43dcf.jpg"
  },
  {
    "name": "chive7",
    "defaultvalue": 0,
    "displayName": "Third time's the charm",
    "hidden": 0,
    "description": "Make yourself the third Madeleine.",
    "icon": "https://steamcdn-a.akamaihd.net/steamcommunity/public/images/apps/585880/a4ae5ce7dac7996b2eb910ef68550a04c6dac62c.jpg",
    "icongray": "https://steamcdn-a.akamaihd.net/steamcommunity/public/images/apps/585880/6b2f83479e3a8e07d5bb4060fec78d6572a43dcf.jpg"
  },
  {
    "name": "chive8",
    "defaultvalue": 0,
    "displayName": "Stolen identity",
    "hidden": 0,
    "description": "Take the traveller's name for your own.",
    "icon": "https://steamcdn-a.akamaihd.net/steamcommunity/public/images/apps/585880/a4ae5ce7dac7996b2eb910ef68550a04c6dac62c.jpg",
    "icongray": "https://steamcdn-a.akamaihd.net/steamcommunity/public/images/apps/585880/6b2f83479e3a8e07d5bb4060fec78d6572a43dcf.jpg"
  },
  {
    "name": "chive9",
    "defaultvalue": 0,
    "displayName": "Miss Maiorano",
    "hidden": 0,
    "description": "Learn how to speak Italian.",
    "icon": "https://steamcdn-a.akamaihd.net/steamcommunity/public/images/apps/585880/a4ae5ce7dac7996b2eb910ef68550a04c6dac62c.jpg",
    "icongray": "https://steamcdn-a.akamaihd.net/steamcommunity/public/images/apps/585880/6b2f83479e3a8e07d5bb4060fec78d6572a43dcf.jpg"
  },
  {
    "name": "chive10",
    "defaultvalue": 0,
    "displayName": "Sweetest monster",
    "hidden": 0,
    "description": "Because catgirls are incredibly popular.",
    "icon": "https://steamcdn-a.akamaihd.net/steamcommunity/public/images/apps/585880/a4ae5ce7dac7996b2eb910ef68550a04c6dac62c.jpg",
    "icongray": "https://steamcdn-a.akamaihd.net/steamcommunity/public/images/apps/585880/6b2f83479e3a8e07d5bb4060fec78d6572a43dcf.jpg"
  },
  {
    "name": "chive11",
    "defaultvalue": 0,
    "displayName": "Strawberry girl",
    "hidden": 0,
    "description": "Remodel yourself as a tiny tsundere.",
    "icon": "https://steamcdn-a.akamaihd.net/steamcommunity/public/images/apps/585880/a4ae5ce7dac7996b2eb910ef68550a04c6dac62c.jpg",
    "icongray": "https://steamcdn-a.akamaihd.net/steamcommunity/public/images/apps/585880/6b2f83479e3a8e07d5bb4060fec78d6572a43dcf.jpg"
  },
  {
    "name": "chive12",
    "defaultvalue": 0,
    "displayName": "Demon of gluttony",
    "hidden": 0,
    "description": "Feed me, or I'll reap your soul!",
    "icon": "https://steamcdn-a.akamaihd.net/steamcommunity/public/images/apps/585880/a4ae5ce7dac7996b2eb910ef68550a04c6dac62c.jpg",
    "icongray": "https://steamcdn-a.akamaihd.net/steamcommunity/public/images/apps/585880/6b2f83479e3a8e07d5bb4060fec78d6572a43dcf.jpg"
  },
  {
    "name": "chive13",
    "defaultvalue": 0,
    "displayName": "What's in a name?",
    "hidden": 0,
    "description": "At least it's better than Thomasetta.",
    "icon": "https://steamcdn-a.akamaihd.net/steamcommunity/public/images/apps/585880/a4ae5ce7dac7996b2eb910ef68550a04c6dac62c.jpg",
    "icongray": "https://steamcdn-a.akamaihd.net/steamcommunity/public/images/apps/585880/6b2f83479e3a8e07d5bb4060fec78d6572a43dcf.jpg"
  },
  {
    "name": "chive14",
    "defaultvalue": 0,
    "displayName": "Asphyxia",
    "hidden": 0,
    "description": "Turn into a depressed poet.",
    "icon": "https://steamcdn-a.akamaihd.net/steamcommunity/public/images/apps/585880/a4ae5ce7dac7996b2eb910ef68550a04c6dac62c.jpg",
    "icongray": "https://steamcdn-a.akamaihd.net/steamcommunity/public/images/apps/585880/6b2f83479e3a8e07d5bb4060fec78d6572a43dcf.jpg"
  },
  {
    "name": "chive15",
    "defaultvalue": 0,
    "displayName": "If I burn",
    "hidden": 0,
    "description": "Don't go down in flames.",
    "icon": "https://steamcdn-a.akamaihd.net/steamcommunity/public/images/apps/585880/a4ae5ce7dac7996b2eb910ef68550a04c6dac62c.jpg",
    "icongray": "https://steamcdn-a.akamaihd.net/steamcommunity/public/images/apps/585880/6b2f83479e3a8e07d5bb4060fec78d6572a43dcf.jpg"
  },
  {
    "name": "chive16",
    "defaultvalue": 0,
    "displayName": "An ode to Lillian Wordsworth",
    "hidden": 0,
    "description": "Become the unreachable object of everyone's affections.",
    "icon": "https://steamcdn-a.akamaihd.net/steamcommunity/public/images/apps/585880/a4ae5ce7dac7996b2eb910ef68550a04c6dac62c.jpg",
    "icongray": "https://steamcdn-a.akamaihd.net/steamcommunity/public/images/apps/585880/6b2f83479e3a8e07d5bb4060fec78d6572a43dcf.jpg"
  },
  {
    "name": "chive17",
    "defaultvalue": 0,
    "displayName": "Idiot onee-san",
    "hidden": 0,
    "description": "Try being an unreliable big sister.",
    "icon": "https://steamcdn-a.akamaihd.net/steamcommunity/public/images/apps/585880/a4ae5ce7dac7996b2eb910ef68550a04c6dac62c.jpg",
    "icongray": "https://steamcdn-a.akamaihd.net/steamcommunity/public/images/apps/585880/6b2f83479e3a8e07d5bb4060fec78d6572a43dcf.jpg"
  },
  {
    "name": "chive18",
    "defaultvalue": 0,
    "displayName": "English rose",
    "hidden": 0,
    "description": "Transform into a Victorian maiden.",
    "icon": "https://steamcdn-a.akamaihd.net/steamcommunity/public/images/apps/585880/a4ae5ce7dac7996b2eb910ef68550a04c6dac62c.jpg",
    "icongray": "https://steamcdn-a.akamaihd.net/steamcommunity/public/images/apps/585880/6b2f83479e3a8e07d5bb4060fec78d6572a43dcf.jpg"
  },
  {
    "name": "chive19",
    "defaultvalue": 0,
    "displayName": "Goldilocks",
    "hidden": 0,
    "description": "Without the three bears.",
    "icon": "https://steamcdn-a.akamaihd.net/steamcommunity/public/images/apps/585880/a4ae5ce7dac7996b2eb910ef68550a04c6dac62c.jpg",
    "icongray": "https://steamcdn-a.akamaihd.net/steamcommunity/public/images/apps/585880/6b2f83479e3a8e07d5bb4060fec78d6572a43dcf.jpg"
  },
  {
    "name": "chive20",
    "defaultvalue": 0,
    "displayName": "She walks in beauty",
    "hidden": 0,
    "description": "Act like an aloof lady.",
    "icon": "https://steamcdn-a.akamaihd.net/steamcommunity/public/images/apps/585880/a4ae5ce7dac7996b2eb910ef68550a04c6dac62c.jpg",
    "icongray": "https://steamcdn-a.akamaihd.net/steamcommunity/public/images/apps/585880/6b2f83479e3a8e07d5bb4060fec78d6572a43dcf.jpg"
  },
  {
    "name": "chive21",
    "defaultvalue": 0,
    "displayName": "The beginning of stories",
    "hidden": 0,
    "description": "Start a new story.",
    "icon": "https://steamcdn-a.akamaihd.net/steamcommunity/public/images/apps/585880/a4ae5ce7dac7996b2eb910ef68550a04c6dac62c.jpg",
    "icongray": "https://steamcdn-a.akamaihd.net/steamcommunity/public/images/apps/585880/6b2f83479e3a8e07d5bb4060fec78d6572a43dcf.jpg"
  },
  {
    "name": "chive22",
    "defaultvalue": 0,
    "displayName": "Madeleine",
    "hidden": 0,
    "description": "Read Madeleine's story.",
    "icon": "https://steamcdn-a.akamaihd.net/steamcommunity/public/images/apps/585880/a4ae5ce7dac7996b2eb910ef68550a04c6dac62c.jpg",
    "icongray": "https://steamcdn-a.akamaihd.net/steamcommunity/public/images/apps/585880/6b2f83479e3a8e07d5bb4060fec78d6572a43dcf.jpg"
  },
  {
    "name": "chive23",
    "defaultvalue": 0,
    "displayName": "Daffodil",
    "hidden": 0,
    "description": "Read Daffodil's story.",
    "icon": "https://steamcdn-a.akamaihd.net/steamcommunity/public/images/apps/585880/a4ae5ce7dac7996b2eb910ef68550a04c6dac62c.jpg",
    "icongray": "https://steamcdn-a.akamaihd.net/steamcommunity/public/images/apps/585880/6b2f83479e3a8e07d5bb4060fec78d6572a43dcf.jpg"
  },
  {
    "name": "chive24",
    "defaultvalue": 0,
    "displayName": "Beneath the tree",
    "hidden": 0,
    "description": "Read a lonely spirit's story.",
    "icon": "https://steamcdn-a.akamaihd.net/steamcommunity/public/images/apps/585880/a4ae5ce7dac7996b2eb910ef68550a04c6dac62c.jpg",
    "icongray": "https://steamcdn-a.akamaihd.net/steamcommunity/public/images/apps/585880/6b2f83479e3a8e07d5bb4060fec78d6572a43dcf.jpg"
  },
  {
    "name": "chive25",
    "defaultvalue": 0,
    "displayName": "Spilled ink",
    "hidden": 0,
    "description": "Bring the story to a premature close.",
    "icon": "https://steamcdn-a.akamaihd.net/steamcommunity/public/images/apps/585880/a4ae5ce7dac7996b2eb910ef68550a04c6dac62c.jpg",
    "icongray": "https://steamcdn-a.akamaihd.net/steamcommunity/public/images/apps/585880/6b2f83479e3a8e07d5bb4060fec78d6572a43dcf.jpg"
  },
  {
    "name": "chive26",
    "defaultvalue": 0,
    "displayName": "Happily ever after",
    "hidden": 0,
    "description": "Reach your happy ending.",
    "icon": "https://steamcdn-a.akamaihd.net/steamcommunity/public/images/apps/585880/62e774ba3ebe74db5a5e455a3e72e23e4c31ec78.jpg",
    "icongray": "https://steamcdn-a.akamaihd.net/steamcommunity/public/images/apps/585880/6b2f83479e3a8e07d5bb4060fec78d6572a43dcf.jpg"
  },
  {
    "name": "chive28",
    "defaultvalue": 0,
    "displayName": "Incorrigible sadist",
    "hidden": 0,
    "description": "Arrange the actors back on the stage.",
    "icon": "https://steamcdn-a.akamaihd.net/steamcommunity/public/images/apps/585880/a4ae5ce7dac7996b2eb910ef68550a04c6dac62c.jpg",
    "icongray": "https://steamcdn-a.akamaihd.net/steamcommunity/public/images/apps/585880/6b2f83479e3a8e07d5bb4060fec78d6572a43dcf.jpg"
  },
  {
    "name": "chive29",
    "defaultvalue": 0,
    "displayName": "Exit pursued by bear",
    "hidden": 0,
    "description": "Answer Lycoris' question incorrectly.",
    "icon": "https://steamcdn-a.akamaihd.net/steamcommunity/public/images/apps/585880/a4ae5ce7dac7996b2eb910ef68550a04c6dac62c.jpg",
    "icongray": "https://steamcdn-a.akamaihd.net/steamcommunity/public/images/apps/585880/6b2f83479e3a8e07d5bb4060fec78d6572a43dcf.jpg"
  },
  {
    "name": "chive30",
    "defaultvalue": 0,
    "displayName": "Girls have cooties!",
    "hidden": 0,
    "description": "Profess your profound distaste for women.",
    "icon": "https://steamcdn-a.akamaihd.net/steamcommunity/public/images/apps/585880/a4ae5ce7dac7996b2eb910ef68550a04c6dac62c.jpg",
    "icongray": "https://steamcdn-a.akamaihd.net/steamcommunity/public/images/apps/585880/6b2f83479e3a8e07d5bb4060fec78d6572a43dcf.jpg"
  },
  {
    "name": "chive3",
    "defaultvalue": 0,
    "displayName": "Budding blossoms",
    "hidden": 0,
    "description": "Name yourself after a certain flower.",
    "icon": "https://steamcdn-a.akamaihd.net/steamcommunity/public/images/apps/585880/a4ae5ce7dac7996b2eb910ef68550a04c6dac62c.jpg",
    "icongray": "https://steamcdn-a.akamaihd.net/steamcommunity/public/images/apps/585880/6b2f83479e3a8e07d5bb4060fec78d6572a43dcf.jpg"
  },
  {
    "name": "chive31",
    "defaultvalue": 0,
    "displayName": "Maids, knee socks",
    "hidden": 0,
    "description": "Receive an interesting proposition from Lycoris.",
    "icon": "https://steamcdn-a.akamaihd.net/steamcommunity/public/images/apps/585880/a4ae5ce7dac7996b2eb910ef68550a04c6dac62c.jpg",
    "icongray": "https://steamcdn-a.akamaihd.net/steamcommunity/public/images/apps/585880/6b2f83479e3a8e07d5bb4060fec78d6572a43dcf.jpg"
  },
  {
    "name": "chive32",
    "defaultvalue": 0,
    "displayName": "Shrimp princess",
    "hidden": 0,
    "description": "Learn of the library's overseer.",
    "icon": "https://steamcdn-a.akamaihd.net/steamcommunity/public/images/apps/585880/a4ae5ce7dac7996b2eb910ef68550a04c6dac62c.jpg",
    "icongray": "https://steamcdn-a.akamaihd.net/steamcommunity/public/images/apps/585880/6b2f83479e3a8e07d5bb4060fec78d6572a43dcf.jpg"
  },
  {
    "name": "chive33",
    "defaultvalue": 0,
    "displayName": "Only you",
    "hidden": 0,
    "description": "Lycoris gets a little too possessive.",
    "icon": "https://steamcdn-a.akamaihd.net/steamcommunity/public/images/apps/585880/a4ae5ce7dac7996b2eb910ef68550a04c6dac62c.jpg",
    "icongray": "https://steamcdn-a.akamaihd.net/steamcommunity/public/images/apps/585880/6b2f83479e3a8e07d5bb4060fec78d6572a43dcf.jpg"
  },
  {
    "name": "chive34",
    "defaultvalue": 0,
    "displayName": "Drifting away",
    "hidden": 0,
    "description": "Let yourself forget everything.",
    "icon": "https://steamcdn-a.akamaihd.net/steamcommunity/public/images/apps/585880/a4ae5ce7dac7996b2eb910ef68550a04c6dac62c.jpg",
    "icongray": "https://steamcdn-a.akamaihd.net/steamcommunity/public/images/apps/585880/6b2f83479e3a8e07d5bb4060fec78d6572a43dcf.jpg"
  },
  {
    "name": "chive35",
    "defaultvalue": 0,
    "displayName": "My true self",
    "hidden": 0,
    "description": "You remember who you are.",
    "icon": "https://steamcdn-a.akamaihd.net/steamcommunity/public/images/apps/585880/a4ae5ce7dac7996b2eb910ef68550a04c6dac62c.jpg",
    "icongray": "https://steamcdn-a.akamaihd.net/steamcommunity/public/images/apps/585880/6b2f83479e3a8e07d5bb4060fec78d6572a43dcf.jpg"
  },
  {
    "name": "chive36",
    "defaultvalue": 0,
    "displayName": "Behind the scenes",
    "hidden": 0,
    "description": "Wait for a play that's already over.",
    "icon": "https://steamcdn-a.akamaihd.net/steamcommunity/public/images/apps/585880/a4ae5ce7dac7996b2eb910ef68550a04c6dac62c.jpg",
    "icongray": "https://steamcdn-a.akamaihd.net/steamcommunity/public/images/apps/585880/6b2f83479e3a8e07d5bb4060fec78d6572a43dcf.jpg"
  },
  {
    "name": "chive37",
    "defaultvalue": 0,
    "displayName": "Welcome back",
    "hidden": 0,
    "description": "Return to the library for a second time.",
    "icon": "https://steamcdn-a.akamaihd.net/steamcommunity/public/images/apps/585880/a4ae5ce7dac7996b2eb910ef68550a04c6dac62c.jpg",
    "icongray": "https://steamcdn-a.akamaihd.net/steamcommunity/public/images/apps/585880/6b2f83479e3a8e07d5bb4060fec78d6572a43dcf.jpg"
  },
  {
    "name": "chive38",
    "defaultvalue": 0,
    "displayName": "Just in time",
    "hidden": 0,
    "description": "Return to the library when Lycoris needs you the most.",
    "icon": "https://steamcdn-a.akamaihd.net/steamcommunity/public/images/apps/585880/a4ae5ce7dac7996b2eb910ef68550a04c6dac62c.jpg",
    "icongray": "https://steamcdn-a.akamaihd.net/steamcommunity/public/images/apps/585880/6b2f83479e3a8e07d5bb4060fec78d6572a43dcf.jpg"
  },
  {
    "name": "chive39",
    "defaultvalue": 0,
    "displayName": "Tea for two",
    "hidden": 0,
    "description": "Learn Lycoris' favourite flavour of tea.",
    "icon": "https://steamcdn-a.akamaihd.net/steamcommunity/public/images/apps/585880/a4ae5ce7dac7996b2eb910ef68550a04c6dac62c.jpg",
    "icongray": "https://steamcdn-a.akamaihd.net/steamcommunity/public/images/apps/585880/6b2f83479e3a8e07d5bb4060fec78d6572a43dcf.jpg"
  },
  {
    "name": "chive40",
    "defaultvalue": 0,
    "displayName": "Moving on",
    "hidden": 0,
    "description": "The traveller leaves the church early.",
    "icon": "https://steamcdn-a.akamaihd.net/steamcommunity/public/images/apps/585880/a4ae5ce7dac7996b2eb910ef68550a04c6dac62c.jpg",
    "icongray": "https://steamcdn-a.akamaihd.net/steamcommunity/public/images/apps/585880/6b2f83479e3a8e07d5bb4060fec78d6572a43dcf.jpg"
  },
  {
    "name": "chive41",
    "defaultvalue": 0,
    "displayName": "Endless rain",
    "hidden": 0,
    "description": "Madeleine refuses to share her story.",
    "icon": "https://steamcdn-a.akamaihd.net/steamcommunity/public/images/apps/585880/a4ae5ce7dac7996b2eb910ef68550a04c6dac62c.jpg",
    "icongray": "https://steamcdn-a.akamaihd.net/steamcommunity/public/images/apps/585880/6b2f83479e3a8e07d5bb4060fec78d6572a43dcf.jpg"
  },
  {
    "name": "chive42",
    "defaultvalue": 0,
    "displayName": "Pretty woman",
    "hidden": 0,
    "description": "Offer Daffodil a few too many compliments.",
    "icon": "https://steamcdn-a.akamaihd.net/steamcommunity/public/images/apps/585880/a4ae5ce7dac7996b2eb910ef68550a04c6dac62c.jpg",
    "icongray": "https://steamcdn-a.akamaihd.net/steamcommunity/public/images/apps/585880/6b2f83479e3a8e07d5bb4060fec78d6572a43dcf.jpg"
  },
  {
    "name": "chive43",
    "defaultvalue": 0,
    "displayName": "Liar, liar",
    "hidden": 0,
    "description": "The traveller refuses to tell Daffodil the truth.",
    "icon": "https://steamcdn-a.akamaihd.net/steamcommunity/public/images/apps/585880/a4ae5ce7dac7996b2eb910ef68550a04c6dac62c.jpg",
    "icongray": "https://steamcdn-a.akamaihd.net/steamcommunity/public/images/apps/585880/6b2f83479e3a8e07d5bb4060fec78d6572a43dcf.jpg"
  },
  {
    "name": "chive44",
    "defaultvalue": 0,
    "displayName": "Cat paradise",
    "hidden": 0,
    "description": "Pretend to be a catgirl from a certain other series.",
    "icon": "https://steamcdn-a.akamaihd.net/steamcommunity/public/images/apps/585880/a4ae5ce7dac7996b2eb910ef68550a04c6dac62c.jpg",
    "icongray": "https://steamcdn-a.akamaihd.net/steamcommunity/public/images/apps/585880/6b2f83479e3a8e07d5bb4060fec78d6572a43dcf.jpg"
  },
  {
    "name": "chive45",
    "defaultvalue": 0,
    "displayName": "Metafiction",
    "hidden": 0,
    "description": "Become the author yourself.",
    "icon": "https://steamcdn-a.akamaihd.net/steamcommunity/public/images/apps/585880/a4ae5ce7dac7996b2eb910ef68550a04c6dac62c.jpg",
    "icongray": "https://steamcdn-a.akamaihd.net/steamcommunity/public/images/apps/585880/6b2f83479e3a8e07d5bb4060fec78d6572a43dcf.jpg"
  },
  {
    "name": "chive46",
    "defaultvalue": 0,
    "displayName": "The whisperer in the darkness",
    "hidden": 0,
    "description": "Listen to a mysterious voice.",
    "icon": "https://steamcdn-a.akamaihd.net/steamcommunity/public/images/apps/585880/a4ae5ce7dac7996b2eb910ef68550a04c6dac62c.jpg",
    "icongray": "https://steamcdn-a.akamaihd.net/steamcommunity/public/images/apps/585880/6b2f83479e3a8e07d5bb4060fec78d6572a43dcf.jpg"
  },
  {
    "name": "chive47",
    "defaultvalue": 0,
    "displayName": "Little Miss Sunshine",
    "hidden": 0,
    "description": "Throw caution to the wind!",
    "icon": "https://steamcdn-a.akamaihd.net/steamcommunity/public/images/apps/585880/a4ae5ce7dac7996b2eb910ef68550a04c6dac62c.jpg",
    "icongray": "https://steamcdn-a.akamaihd.net/steamcommunity/public/images/apps/585880/6b2f83479e3a8e07d5bb4060fec78d6572a43dcf.jpg"
  },
  {
    "name": "chive48",
    "defaultvalue": 0,
    "displayName": "Hell's kitchen",
    "hidden": 0,
    "description": "D-Did you just insult a girl's cooking?! You monster!",
    "icon": "https://steamcdn-a.akamaihd.net/steamcommunity/public/images/apps/585880/a4ae5ce7dac7996b2eb910ef68550a04c6dac62c.jpg",
    "icongray": "https://steamcdn-a.akamaihd.net/steamcommunity/public/images/apps/585880/6b2f83479e3a8e07d5bb4060fec78d6572a43dcf.jpg"
  },
  {
    "name": "chive49",
    "defaultvalue": 0,
    "displayName": "Team Daffodil",
    "hidden": 0,
    "description": "Profess your love for Daffodil.",
    "icon": "https://steamcdn-a.akamaihd.net/steamcommunity/public/images/apps/585880/a4ae5ce7dac7996b2eb910ef68550a04c6dac62c.jpg",
    "icongray": "https://steamcdn-a.akamaihd.net/steamcommunity/public/images/apps/585880/6b2f83479e3a8e07d5bb4060fec78d6572a43dcf.jpg"
  },
  {
    "name": "chive50",
    "defaultvalue": 0,
    "displayName": "Team Madeleine",
    "hidden": 0,
    "description": "Profess your love for Madeleine.",
    "icon": "https://steamcdn-a.akamaihd.net/steamcommunity/public/images/apps/585880/a4ae5ce7dac7996b2eb910ef68550a04c6dac62c.jpg",
    "icongray": "https://steamcdn-a.akamaihd.net/steamcommunity/public/images/apps/585880/6b2f83479e3a8e07d5bb4060fec78d6572a43dcf.jpg"
  }
]