﻿{
  "Dlcs": {},
  "Name": "Embers of Magic",
  "AppId": "526400",
  "ImageUrl": "https://steamcdn-a.akamaihd.net/steam/apps/526400/header.jpg?t=1491520537",
  "Languages": [
    "english"
  ],
  "Platforms": {
    "windows": true,
    "mac": true,
    "linux": true
  }
}