﻿[
  {
    "name": "Achievement_1",
    "defaultvalue": 0,
    "displayName": "Tenacious",
    "hidden": 0,
    "description": "Complete single player campaign on any difficulty level",
    "icon": "https://steamcdn-a.akamaihd.net/steamcommunity/public/images/apps/217920/1a006fb84b4e4b0d0a53cb98e77d632a59253d4b.jpg",
    "icongray": "https://steamcdn-a.akamaihd.net/steamcommunity/public/images/apps/217920/4b837d9827bb426df23fdb7ec6b9e4b552f5248b.jpg"
  },
  {
    "name": "Achievement_2",
    "defaultvalue": 0,
    "displayName": "Hardcore",
    "hidden": 0,
    "description": "Complete single player campaign on Brutal difficulty",
    "icon": "https://steamcdn-a.akamaihd.net/steamcommunity/public/images/apps/217920/14da615cf31c6b3cb1f3ac4dba8968476f8e6142.jpg",
    "icongray": "https://steamcdn-a.akamaihd.net/steamcommunity/public/images/apps/217920/4b837d9827bb426df23fdb7ec6b9e4b552f5248b.jpg"
  },
  {
    "name": "Achievement_3",
    "defaultvalue": 0,
    "displayName": "Giant Killer",
    "hidden": 0,
    "description": "Defeat Vorus Centurion",
    "icon": "https://steamcdn-a.akamaihd.net/steamcommunity/public/images/apps/217920/4719b4bedea62e7d3aefdea25695d293565683ec.jpg",
    "icongray": "https://steamcdn-a.akamaihd.net/steamcommunity/public/images/apps/217920/4b837d9827bb426df23fdb7ec6b9e4b552f5248b.jpg"
  },
  {
    "name": "Achievement_4",
    "defaultvalue": 0,
    "displayName": "Secured",
    "hidden": 0,
    "description": "Defeat Security Turrets",
    "icon": "https://steamcdn-a.akamaihd.net/steamcommunity/public/images/apps/217920/504677b4f90776db0eeeb8c9a17f552dbcbb8d9d.jpg",
    "icongray": "https://steamcdn-a.akamaihd.net/steamcommunity/public/images/apps/217920/4b837d9827bb426df23fdb7ec6b9e4b552f5248b.jpg"
  },
  {
    "name": "Achievement_5",
    "defaultvalue": 0,
    "displayName": "Showdown",
    "hidden": 0,
    "description": "Defeat Vorus Gladiator",
    "icon": "https://steamcdn-a.akamaihd.net/steamcommunity/public/images/apps/217920/7c377d88ffeabea54388b78a62ac6934c70b1234.jpg",
    "icongray": "https://steamcdn-a.akamaihd.net/steamcommunity/public/images/apps/217920/4b837d9827bb426df23fdb7ec6b9e4b552f5248b.jpg"
  },
  {
    "name": "Achievement_6",
    "defaultvalue": 0,
    "displayName": "Overdrive",
    "hidden": 0,
    "description": "Defeat Mk XII Heavy Mech",
    "icon": "https://steamcdn-a.akamaihd.net/steamcommunity/public/images/apps/217920/f28a2ae96ff5095750d0aee113cb0ac513209e27.jpg",
    "icongray": "https://steamcdn-a.akamaihd.net/steamcommunity/public/images/apps/217920/4b837d9827bb426df23fdb7ec6b9e4b552f5248b.jpg"
  },
  {
    "name": "Achievement_7",
    "defaultvalue": 0,
    "displayName": "Gangbuster",
    "hidden": 0,
    "description": "Defeat AA-19 Combat Mech",
    "icon": "https://steamcdn-a.akamaihd.net/steamcommunity/public/images/apps/217920/5573b1e72c530e58f60a1545897dda4bcc2df8af.jpg",
    "icongray": "https://steamcdn-a.akamaihd.net/steamcommunity/public/images/apps/217920/4b837d9827bb426df23fdb7ec6b9e4b552f5248b.jpg"
  },
  {
    "name": "Achievement_8",
    "defaultvalue": 0,
    "displayName": "Behemoth",
    "hidden": 0,
    "description": "Defeat GX-7 Destroyer Prototype",
    "icon": "https://steamcdn-a.akamaihd.net/steamcommunity/public/images/apps/217920/55c884eecaa3a1874676b4ea6d647eadb48637f9.jpg",
    "icongray": "https://steamcdn-a.akamaihd.net/steamcommunity/public/images/apps/217920/4b837d9827bb426df23fdb7ec6b9e4b552f5248b.jpg"
  },
  {
    "name": "Achievement_9",
    "defaultvalue": 0,
    "displayName": "Pitching Machine",
    "hidden": 0,
    "description": "Defeat Vorus Primus",
    "icon": "https://steamcdn-a.akamaihd.net/steamcommunity/public/images/apps/217920/537491dbfcd19d11177faec5a487c2c2a4e25ca6.jpg",
    "icongray": "https://steamcdn-a.akamaihd.net/steamcommunity/public/images/apps/217920/4b837d9827bb426df23fdb7ec6b9e4b552f5248b.jpg"
  },
  {
    "name": "Achievement_10",
    "defaultvalue": 0,
    "displayName": "Guardian",
    "hidden": 0,
    "description": "Defeat DF9 Sentry Mech",
    "icon": "https://steamcdn-a.akamaihd.net/steamcommunity/public/images/apps/217920/4ad23001822a0b816b6f56723b601cd111b244a1.jpg",
    "icongray": "https://steamcdn-a.akamaihd.net/steamcommunity/public/images/apps/217920/4b837d9827bb426df23fdb7ec6b9e4b552f5248b.jpg"
  },
  {
    "name": "Achievement_11",
    "defaultvalue": 0,
    "displayName": "Arachnophobe",
    "hidden": 0,
    "description": "Defeat Vorus God Mech",
    "icon": "https://steamcdn-a.akamaihd.net/steamcommunity/public/images/apps/217920/92b0aaa6d53a7ebc9bd02cdf66d71bfbab79ee08.jpg",
    "icongray": "https://steamcdn-a.akamaihd.net/steamcommunity/public/images/apps/217920/4b837d9827bb426df23fdb7ec6b9e4b552f5248b.jpg"
  },
  {
    "name": "Achievement_12",
    "defaultvalue": 0,
    "displayName": "Point & Shoot",
    "hidden": 0,
    "description": "Find a new weapon",
    "icon": "https://steamcdn-a.akamaihd.net/steamcommunity/public/images/apps/217920/13923a8fa3c14f1022a12a70454061b0759eb01f.jpg",
    "icongray": "https://steamcdn-a.akamaihd.net/steamcommunity/public/images/apps/217920/4b837d9827bb426df23fdb7ec6b9e4b552f5248b.jpg"
  },
  {
    "name": "Achievement_13",
    "defaultvalue": 0,
    "displayName": "Armed & Completionist",
    "hidden": 0,
    "description": "Use all weapons",
    "icon": "https://steamcdn-a.akamaihd.net/steamcommunity/public/images/apps/217920/88c146056f1577f919edd5fdb8a4a021dca0f1fe.jpg",
    "icongray": "https://steamcdn-a.akamaihd.net/steamcommunity/public/images/apps/217920/4b837d9827bb426df23fdb7ec6b9e4b552f5248b.jpg"
  },
  {
    "name": "Achievement_14",
    "defaultvalue": 0,
    "displayName": "Juiced",
    "hidden": 0,
    "description": "Unlock first Perk",
    "icon": "https://steamcdn-a.akamaihd.net/steamcommunity/public/images/apps/217920/05e8047a9bc4af86b90cc60015ce69111d858a37.jpg",
    "icongray": "https://steamcdn-a.akamaihd.net/steamcommunity/public/images/apps/217920/4b837d9827bb426df23fdb7ec6b9e4b552f5248b.jpg"
  },
  {
    "name": "Achievement_15",
    "defaultvalue": 0,
    "displayName": "Can’t Homidecide",
    "hidden": 0,
    "description": "Kill an enemy with every weapon",
    "icon": "https://steamcdn-a.akamaihd.net/steamcommunity/public/images/apps/217920/54795cd2ee4b8be3530bc1e410bb23316e04cdee.jpg",
    "icongray": "https://steamcdn-a.akamaihd.net/steamcommunity/public/images/apps/217920/4b837d9827bb426df23fdb7ec6b9e4b552f5248b.jpg"
  },
  {
    "name": "Achievement_16",
    "defaultvalue": 0,
    "displayName": "When Titans Fall",
    "hidden": 0,
    "description": "Defeat all Bosses",
    "icon": "https://steamcdn-a.akamaihd.net/steamcommunity/public/images/apps/217920/80f77fe75008fcf81f8f99cc9c1b27f58f2d2f73.jpg",
    "icongray": "https://steamcdn-a.akamaihd.net/steamcommunity/public/images/apps/217920/4b837d9827bb426df23fdb7ec6b9e4b552f5248b.jpg"
  },
  {
    "name": "Achievement_17",
    "defaultvalue": 0,
    "displayName": "Hoarder",
    "hidden": 0,
    "description": "Find all weapons",
    "icon": "https://steamcdn-a.akamaihd.net/steamcommunity/public/images/apps/217920/77dbec400a6d9dbfb694d2d265e7b5fa73626dfb.jpg",
    "icongray": "https://steamcdn-a.akamaihd.net/steamcommunity/public/images/apps/217920/4b837d9827bb426df23fdb7ec6b9e4b552f5248b.jpg"
  },
  {
    "name": "Achievement_18",
    "defaultvalue": 0,
    "displayName": "Relentless",
    "hidden": 0,
    "description": "1500 Total Kills",
    "icon": "https://steamcdn-a.akamaihd.net/steamcommunity/public/images/apps/217920/c0cee206160a452c2e0d90096e645e38bdc958ce.jpg",
    "icongray": "https://steamcdn-a.akamaihd.net/steamcommunity/public/images/apps/217920/4b837d9827bb426df23fdb7ec6b9e4b552f5248b.jpg"
  },
  {
    "name": "Achievement_19",
    "defaultvalue": 0,
    "displayName": "Utility Belt",
    "hidden": 0,
    "description": "Unlock all player perks",
    "icon": "https://steamcdn-a.akamaihd.net/steamcommunity/public/images/apps/217920/b77b3b70258d6c1ed3fa08752abd4dc4190c96a0.jpg",
    "icongray": "https://steamcdn-a.akamaihd.net/steamcommunity/public/images/apps/217920/4b837d9827bb426df23fdb7ec6b9e4b552f5248b.jpg"
  },
  {
    "name": "Achievement_20",
    "defaultvalue": 0,
    "displayName": "Apex Predator",
    "hidden": 0,
    "description": "Reach a player score of 25,000,000",
    "icon": "https://steamcdn-a.akamaihd.net/steamcommunity/public/images/apps/217920/333bb237bcacc4bb5776f89e2ba22bda8cd0fc8f.jpg",
    "icongray": "https://steamcdn-a.akamaihd.net/steamcommunity/public/images/apps/217920/4b837d9827bb426df23fdb7ec6b9e4b552f5248b.jpg"
  },
  {
    "name": "Achievement_21",
    "defaultvalue": 0,
    "displayName": "Bridgelayer",
    "hidden": 0,
    "description": "Lower the bridge",
    "icon": "https://steamcdn-a.akamaihd.net/steamcommunity/public/images/apps/217920/458e638d210d8c7179c0ac23f0669e56592bbe0b.jpg",
    "icongray": "https://steamcdn-a.akamaihd.net/steamcommunity/public/images/apps/217920/4b837d9827bb426df23fdb7ec6b9e4b552f5248b.jpg"
  },
  {
    "name": "Achievement_22",
    "defaultvalue": 0,
    "displayName": "Fortified",
    "hidden": 0,
    "description": "Take out the bunker",
    "icon": "https://steamcdn-a.akamaihd.net/steamcommunity/public/images/apps/217920/1f6a657dd9668bddf9ef66afd45adf3137bebecc.jpg",
    "icongray": "https://steamcdn-a.akamaihd.net/steamcommunity/public/images/apps/217920/4b837d9827bb426df23fdb7ec6b9e4b552f5248b.jpg"
  },
  {
    "name": "Achievement_23",
    "defaultvalue": 0,
    "displayName": "Called a Meeting",
    "hidden": 0,
    "description": "Survive the Heavy room",
    "icon": "https://steamcdn-a.akamaihd.net/steamcommunity/public/images/apps/217920/ce8af776558d7aa4945aca2766aa0ea01f43a91f.jpg",
    "icongray": "https://steamcdn-a.akamaihd.net/steamcommunity/public/images/apps/217920/4b837d9827bb426df23fdb7ec6b9e4b552f5248b.jpg"
  },
  {
    "name": "Achievement_24",
    "defaultvalue": 0,
    "displayName": "Spin Control",
    "hidden": 0,
    "description": "Set the docking tower centrifuge to overdrive",
    "icon": "https://steamcdn-a.akamaihd.net/steamcommunity/public/images/apps/217920/6fd7a766ae088050ed9cff9e9e87e9d4bbc26f73.jpg",
    "icongray": "https://steamcdn-a.akamaihd.net/steamcommunity/public/images/apps/217920/4b837d9827bb426df23fdb7ec6b9e4b552f5248b.jpg"
  },
  {
    "name": "Achievement_25",
    "defaultvalue": 0,
    "displayName": "Property Damage",
    "hidden": 0,
    "description": "Destroy the security control room",
    "icon": "https://steamcdn-a.akamaihd.net/steamcommunity/public/images/apps/217920/f5a000051a21e39ba4ae1da1bd2807fe3f059321.jpg",
    "icongray": "https://steamcdn-a.akamaihd.net/steamcommunity/public/images/apps/217920/4b837d9827bb426df23fdb7ec6b9e4b552f5248b.jpg"
  },
  {
    "name": "Achievement_26",
    "defaultvalue": 0,
    "displayName": "Welcome to the Party",
    "hidden": 0,
    "description": "Join a multiplayer game",
    "icon": "https://steamcdn-a.akamaihd.net/steamcommunity/public/images/apps/217920/444d47299bd4708bb46e0229a16b82842cfde5ec.jpg",
    "icongray": "https://steamcdn-a.akamaihd.net/steamcommunity/public/images/apps/217920/4b837d9827bb426df23fdb7ec6b9e4b552f5248b.jpg"
  },
  {
    "name": "Achievement_27",
    "defaultvalue": 0,
    "displayName": "Walk in the Park",
    "hidden": 0,
    "description": "Complete single player campaign on Normal difficulty",
    "icon": "https://steamcdn-a.akamaihd.net/steamcommunity/public/images/apps/217920/996f412d1bd264f2b20ecc68595bccc6af663f98.jpg",
    "icongray": "https://steamcdn-a.akamaihd.net/steamcommunity/public/images/apps/217920/4b837d9827bb426df23fdb7ec6b9e4b552f5248b.jpg"
  },
  {
    "name": "Achievement_28",
    "defaultvalue": 0,
    "displayName": "A Serious Man",
    "hidden": 0,
    "description": "Complete single player campaign on Hard difficulty",
    "icon": "https://steamcdn-a.akamaihd.net/steamcommunity/public/images/apps/217920/b76a502c2a1755a7f9bf271b2333ff8f2a1a2fbd.jpg",
    "icongray": "https://steamcdn-a.akamaihd.net/steamcommunity/public/images/apps/217920/4b837d9827bb426df23fdb7ec6b9e4b552f5248b.jpg"
  },
  {
    "name": "Achievement_29",
    "defaultvalue": 0,
    "displayName": "No Stone Unturned",
    "hidden": 0,
    "description": "Complete single player campaign on all difficulty levels",
    "icon": "https://steamcdn-a.akamaihd.net/steamcommunity/public/images/apps/217920/509c878235f446dfd8a274b05a54c0adfa059a98.jpg",
    "icongray": "https://steamcdn-a.akamaihd.net/steamcommunity/public/images/apps/217920/4b837d9827bb426df23fdb7ec6b9e4b552f5248b.jpg"
  },
  {
    "name": "Achievement_30",
    "defaultvalue": 0,
    "displayName": "Trying New Things",
    "hidden": 0,
    "description": "Find an alien weapon",
    "icon": "https://steamcdn-a.akamaihd.net/steamcommunity/public/images/apps/217920/518a02ae050d334cb067a6be36af4f5ad735eb33.jpg",
    "icongray": "https://steamcdn-a.akamaihd.net/steamcommunity/public/images/apps/217920/4b837d9827bb426df23fdb7ec6b9e4b552f5248b.jpg"
  },
  {
    "name": "Achievement_31",
    "defaultvalue": 0,
    "displayName": "Dominator",
    "hidden": 0,
    "description": "Win 10 multiplayer games",
    "icon": "https://steamcdn-a.akamaihd.net/steamcommunity/public/images/apps/217920/307f5855776da6b76fcd626f57971be68408bbb9.jpg",
    "icongray": "https://steamcdn-a.akamaihd.net/steamcommunity/public/images/apps/217920/4b837d9827bb426df23fdb7ec6b9e4b552f5248b.jpg"
  },
  {
    "name": "Achievement_32",
    "defaultvalue": 0,
    "displayName": "Press the Button!",
    "hidden": 0,
    "description": "Use any weapon’s secondary fire mode",
    "icon": "https://steamcdn-a.akamaihd.net/steamcommunity/public/images/apps/217920/3331749024f25aaf07f19da40c120bad317b25d8.jpg",
    "icongray": "https://steamcdn-a.akamaihd.net/steamcommunity/public/images/apps/217920/4b837d9827bb426df23fdb7ec6b9e4b552f5248b.jpg"
  },
  {
    "name": "Achievement_33",
    "defaultvalue": 0,
    "displayName": "Press ALL the Buttons!",
    "hidden": 0,
    "description": "Use every weapon’s secondary fire mode",
    "icon": "https://steamcdn-a.akamaihd.net/steamcommunity/public/images/apps/217920/5bdfba116c19c434c5f180d98712785e32f28159.jpg",
    "icongray": "https://steamcdn-a.akamaihd.net/steamcommunity/public/images/apps/217920/4b837d9827bb426df23fdb7ec6b9e4b552f5248b.jpg"
  },
  {
    "name": "Achievement_34",
    "defaultvalue": 0,
    "displayName": "Going Solo",
    "hidden": 0,
    "description": "Play entire campaign using only 1 weapon",
    "icon": "https://steamcdn-a.akamaihd.net/steamcommunity/public/images/apps/217920/f5cb90d9455798e927b7c5c969d24795b5c83c9b.jpg",
    "icongray": "https://steamcdn-a.akamaihd.net/steamcommunity/public/images/apps/217920/4b837d9827bb426df23fdb7ec6b9e4b552f5248b.jpg"
  },
  {
    "name": "Achievement_35",
    "defaultvalue": 0,
    "displayName": "Explosive Personality",
    "hidden": 0,
    "description": "500 Kills With Explosions",
    "icon": "https://steamcdn-a.akamaihd.net/steamcommunity/public/images/apps/217920/69378295d9a689653dd2d5cdd5c49ec469cfa16a.jpg",
    "icongray": "https://steamcdn-a.akamaihd.net/steamcommunity/public/images/apps/217920/4b837d9827bb426df23fdb7ec6b9e4b552f5248b.jpg"
  },
  {
    "name": "Achievement_36",
    "defaultvalue": 0,
    "displayName": "It’s Personal",
    "hidden": 0,
    "description": "250 Kills With Melee",
    "icon": "https://steamcdn-a.akamaihd.net/steamcommunity/public/images/apps/217920/8ead0e2f25d02684fc413053e0f0094169f04af5.jpg",
    "icongray": "https://steamcdn-a.akamaihd.net/steamcommunity/public/images/apps/217920/4b837d9827bb426df23fdb7ec6b9e4b552f5248b.jpg"
  },
  {
    "name": "Achievement_37",
    "defaultvalue": 0,
    "displayName": "Driving Angry",
    "hidden": 0,
    "description": "80 Kills While Piloting Mech",
    "icon": "https://steamcdn-a.akamaihd.net/steamcommunity/public/images/apps/217920/3235218adaa70edde8f8a164db4779b9d6f17196.jpg",
    "icongray": "https://steamcdn-a.akamaihd.net/steamcommunity/public/images/apps/217920/4b837d9827bb426df23fdb7ec6b9e4b552f5248b.jpg"
  },
  {
    "name": "Achievement_38",
    "defaultvalue": 0,
    "displayName": "The Exterminator",
    "hidden": 0,
    "description": "25 Kills Using Mech To Step On Enemies",
    "icon": "https://steamcdn-a.akamaihd.net/steamcommunity/public/images/apps/217920/2e4e96081dc818d9fbf1f5f2dd448d6e7483ad53.jpg",
    "icongray": "https://steamcdn-a.akamaihd.net/steamcommunity/public/images/apps/217920/4b837d9827bb426df23fdb7ec6b9e4b552f5248b.jpg"
  },
  {
    "name": "Achievement_39",
    "defaultvalue": 0,
    "displayName": "Supreme Being",
    "hidden": 0,
    "description": "Get the most kills during a single multiplayer match",
    "icon": "https://steamcdn-a.akamaihd.net/steamcommunity/public/images/apps/217920/d5a5fdfb0d94cd06a9f204a5eefa5e3a0e3ed4c2.jpg",
    "icongray": "https://steamcdn-a.akamaihd.net/steamcommunity/public/images/apps/217920/4b837d9827bb426df23fdb7ec6b9e4b552f5248b.jpg"
  },
  {
    "name": "Achievement_40",
    "defaultvalue": 0,
    "displayName": "Mellon Baller",
    "hidden": 0,
    "description": "500 Total Headshots",
    "icon": "https://steamcdn-a.akamaihd.net/steamcommunity/public/images/apps/217920/48cfe183b595013e13e154c34d1b6226e83394ec.jpg",
    "icongray": "https://steamcdn-a.akamaihd.net/steamcommunity/public/images/apps/217920/4b837d9827bb426df23fdb7ec6b9e4b552f5248b.jpg"
  },
  {
    "name": "Achievement_41",
    "defaultvalue": 0,
    "displayName": "There Can Be Only YOU!",
    "hidden": 0,
    "description": "Get the most kills AND never die during a single multiplayer match",
    "icon": "https://steamcdn-a.akamaihd.net/steamcommunity/public/images/apps/217920/1756211b0cacbe096afddb899a5c367844c2056a.jpg",
    "icongray": "https://steamcdn-a.akamaihd.net/steamcommunity/public/images/apps/217920/4b837d9827bb426df23fdb7ec6b9e4b552f5248b.jpg"
  },
  {
    "name": "Achievement_42",
    "defaultvalue": 0,
    "displayName": "Godlike",
    "hidden": 0,
    "description": "Reach a player score of 50,000,000",
    "icon": "https://steamcdn-a.akamaihd.net/steamcommunity/public/images/apps/217920/e30cd18df76a9cfacadb4daf80b9063f7f1e24ae.jpg",
    "icongray": "https://steamcdn-a.akamaihd.net/steamcommunity/public/images/apps/217920/3de6bc616fb91cc2e07fd15df339da056e3bf578.jpg"
  },
  {
    "name": "Achievement_44",
    "defaultvalue": 0,
    "displayName": "Home Team",
    "hidden": 0,
    "description": "Play as a human in a multiplayer game",
    "icon": "https://steamcdn-a.akamaihd.net/steamcommunity/public/images/apps/217920/26d7b6495c3811129abbf79ccd92d9b6ce656438.jpg",
    "icongray": "https://steamcdn-a.akamaihd.net/steamcommunity/public/images/apps/217920/4b837d9827bb426df23fdb7ec6b9e4b552f5248b.jpg"
  },
  {
    "name": "Achievement_45",
    "defaultvalue": 0,
    "displayName": "Away Game",
    "hidden": 0,
    "description": "Play as an alien in a multiplayer game",
    "icon": "https://steamcdn-a.akamaihd.net/steamcommunity/public/images/apps/217920/37e38819f959b66c6634685f41398bcd90c4d528.jpg",
    "icongray": "https://steamcdn-a.akamaihd.net/steamcommunity/public/images/apps/217920/4b837d9827bb426df23fdb7ec6b9e4b552f5248b.jpg"
  },
  {
    "name": "Achievement_46",
    "defaultvalue": 0,
    "displayName": "Hard Headed",
    "hidden": 0,
    "description": "Completely recover from damage 3 times during a multiplayer match",
    "icon": "https://steamcdn-a.akamaihd.net/steamcommunity/public/images/apps/217920/dfabf2412905cf0024e07107b1dc6e1d46290f7f.jpg",
    "icongray": "https://steamcdn-a.akamaihd.net/steamcommunity/public/images/apps/217920/4b837d9827bb426df23fdb7ec6b9e4b552f5248b.jpg"
  },
  {
    "name": "Achievement_47",
    "defaultvalue": 0,
    "displayName": "Immortal",
    "hidden": 0,
    "description": "Never die during a single multiplayer match",
    "icon": "https://steamcdn-a.akamaihd.net/steamcommunity/public/images/apps/217920/9831899c36e852b68dc51d61409286a1ee4f8c55.jpg",
    "icongray": "https://steamcdn-a.akamaihd.net/steamcommunity/public/images/apps/217920/4b837d9827bb426df23fdb7ec6b9e4b552f5248b.jpg"
  },
  {
    "name": "Achievement_48",
    "defaultvalue": 0,
    "displayName": "Fire! Fire!",
    "hidden": 0,
    "description": "1000 Promethium Containers Destroyed",
    "icon": "https://steamcdn-a.akamaihd.net/steamcommunity/public/images/apps/217920/6b5076083a799625847964e264cc10464bb7ff17.jpg",
    "icongray": "https://steamcdn-a.akamaihd.net/steamcommunity/public/images/apps/217920/4b837d9827bb426df23fdb7ec6b9e4b552f5248b.jpg"
  },
  {
    "name": "Achievement_49",
    "defaultvalue": 0,
    "displayName": "Books on Tape",
    "hidden": 0,
    "description": "Find all audio recordings",
    "icon": "https://steamcdn-a.akamaihd.net/steamcommunity/public/images/apps/217920/3fd83b1e9b5ff03f3d3c5f9ce47d9e35cd6c5856.jpg",
    "icongray": "https://steamcdn-a.akamaihd.net/steamcommunity/public/images/apps/217920/4b837d9827bb426df23fdb7ec6b9e4b552f5248b.jpg"
  },
  {
    "name": "Achievement_50",
    "defaultvalue": 0,
    "displayName": "Do You Feel Lucky?",
    "hidden": 0,
    "description": "Play entire campaign using only the pistol",
    "icon": "https://steamcdn-a.akamaihd.net/steamcommunity/public/images/apps/217920/6e57079e2ecabb3417339bb11d2f12e1490e3327.jpg",
    "icongray": "https://steamcdn-a.akamaihd.net/steamcommunity/public/images/apps/217920/4b837d9827bb426df23fdb7ec6b9e4b552f5248b.jpg"
  }
]