﻿[
  {
    "name": "stat_GamesPlayed",
    "defaultvalue": 0,
    "displayName": "Games Played"
  },
  {
    "name": "stat_GamesWon",
    "defaultvalue": 0,
    "displayName": "Games Won"
  },
  {
    "name": "stat_GamesDraw",
    "defaultvalue": 0,
    "displayName": "Games Draw"
  },
  {
    "name": "stat_GamesLost",
    "defaultvalue": 0,
    "displayName": "Games Lost"
  },
  {
    "name": "stat_WonWithX",
    "defaultvalue": 0,
    "displayName": "Won with X"
  },
  {
    "name": "stat_WonWithO",
    "defaultvalue": 0,
    "displayName": "Won with O"
  },
  {
    "name": "stat_LeastGameTime",
    "defaultvalue": 0,
    "displayName": "Least Game Time"
  },
  {
    "name": "stat_LeastGameMoves",
    "defaultvalue": 0,
    "displayName": "Least Game Moves"
  },
  {
    "name": "stat_ConsecutiveWins",
    "defaultvalue": 0,
    "displayName": "Current Consecutive Wins"
  },
  {
    "name": "stat_ConsecutiveLoses",
    "defaultvalue": 0,
    "displayName": "Current Consecutive Loses"
  },
  {
    "name": "stat_GameResult",
    "defaultvalue": 0,
    "displayName": ""
  },
  {
    "name": "stat_Level",
    "defaultvalue": 0,
    "displayName": "Level"
  },
  {
    "name": "stat_ConsecutiveWinsAllTime",
    "defaultvalue": 0,
    "displayName": "Best Consecutive Wins"
  },
  {
    "name": "stat_ConsecutiveLosesAllTime",
    "defaultvalue": 0,
    "displayName": "Worst Consecutive Loses"
  }
]