﻿[
  {
    "name": "ACH_1",
    "defaultvalue": 0,
    "displayName": "It's all about me, ME",
    "hidden": 1,
    "icon": "https://steamcdn-a.akamaihd.net/steamcommunity/public/images/apps/612020/ba3749bacb3f4c1b56f2b665d75714ec1d3dbfda.jpg",
    "icongray": "https://steamcdn-a.akamaihd.net/steamcommunity/public/images/apps/612020/024f87582a3848316693347520be7dc80e851701.jpg"
  },
  {
    "name": "ACH_2",
    "defaultvalue": 0,
    "displayName": "IMONABOAT",
    "hidden": 1,
    "icon": "https://steamcdn-a.akamaihd.net/steamcommunity/public/images/apps/612020/5a7a61223b660918ff2ef1f8ff2097af0c1733e5.jpg",
    "icongray": "https://steamcdn-a.akamaihd.net/steamcommunity/public/images/apps/612020/ff50dd6edebde74a614a8a2aa5bd143404aff9a1.jpg"
  },
  {
    "name": "ACH_3",
    "defaultvalue": 0,
    "displayName": "It just looks like a fancy fax",
    "hidden": 1,
    "icon": "https://steamcdn-a.akamaihd.net/steamcommunity/public/images/apps/612020/da1f7bc61d443bebf0b5aa3a95e4cf1d7f562b65.jpg",
    "icongray": "https://steamcdn-a.akamaihd.net/steamcommunity/public/images/apps/612020/15d1de3a47e093849a17edec38065b6f40c62ff3.jpg"
  },
  {
    "name": "ACH_4",
    "defaultvalue": 0,
    "displayName": "Who you gonna call?",
    "hidden": 1,
    "icon": "https://steamcdn-a.akamaihd.net/steamcommunity/public/images/apps/612020/f1af4205833ae51ce05ef09efdf585e04ffe9352.jpg",
    "icongray": "https://steamcdn-a.akamaihd.net/steamcommunity/public/images/apps/612020/d3a901c0f9bc0c8980023c2eea32ab3d2b03c633.jpg"
  },
  {
    "name": "ACH_5",
    "defaultvalue": 0,
    "displayName": "Really Hot Mail",
    "hidden": 1,
    "icon": "https://steamcdn-a.akamaihd.net/steamcommunity/public/images/apps/612020/0b8d098c9b1f1d73e6550ce96d9088bbebf187d3.jpg",
    "icongray": "https://steamcdn-a.akamaihd.net/steamcommunity/public/images/apps/612020/fa60b23f85201e054486be369a5c0be58a41ed0c.jpg"
  },
  {
    "name": "ACH_6",
    "defaultvalue": 0,
    "displayName": "Braaains",
    "hidden": 1,
    "icon": "https://steamcdn-a.akamaihd.net/steamcommunity/public/images/apps/612020/b742fcc9d4c728fa4b6022b471c7ccd621330d53.jpg",
    "icongray": "https://steamcdn-a.akamaihd.net/steamcommunity/public/images/apps/612020/6ccf6df1e9338f4f83214668d024a2ed1b8e113e.jpg"
  },
  {
    "name": "ACH_7",
    "defaultvalue": 0,
    "displayName": "BRAAINS",
    "hidden": 1,
    "icon": "https://steamcdn-a.akamaihd.net/steamcommunity/public/images/apps/612020/cf50c726651a814155c38456f0645cb76a4efdbf.jpg",
    "icongray": "https://steamcdn-a.akamaihd.net/steamcommunity/public/images/apps/612020/fb9430c11f8899be6effa9efb16cfbfd631c639f.jpg"
  },
  {
    "name": "ACH_8",
    "defaultvalue": 0,
    "displayName": "Damned fine cup of coffee",
    "hidden": 1,
    "icon": "https://steamcdn-a.akamaihd.net/steamcommunity/public/images/apps/612020/9bc3316b0edf3842634f9ac885f79199b00605f6.jpg",
    "icongray": "https://steamcdn-a.akamaihd.net/steamcommunity/public/images/apps/612020/94a33daba618e13b78ca33a636244f04a8b2b8e9.jpg"
  },
  {
    "name": "ACH_9",
    "defaultvalue": 0,
    "displayName": "You've got mail",
    "hidden": 1,
    "icon": "https://steamcdn-a.akamaihd.net/steamcommunity/public/images/apps/612020/ab33a1fd3f5c0bd5a1b96e3b8e14fcf6c7dcfd27.jpg",
    "icongray": "https://steamcdn-a.akamaihd.net/steamcommunity/public/images/apps/612020/4ef4e2e51146dfae9f4e615249d4fe84d85f1870.jpg"
  },
  {
    "name": "ACH_10",
    "defaultvalue": 0,
    "displayName": "Adam West Award",
    "hidden": 1,
    "icon": "https://steamcdn-a.akamaihd.net/steamcommunity/public/images/apps/612020/49d23aa2671bb9fa25863e14934b4156911bf929.jpg",
    "icongray": "https://steamcdn-a.akamaihd.net/steamcommunity/public/images/apps/612020/bc13aed23e3e1aa6dfa877486c0b817a4535f8c1.jpg"
  },
  {
    "name": "ACH_11",
    "defaultvalue": 0,
    "displayName": "Progress, not perfection",
    "hidden": 1,
    "icon": "https://steamcdn-a.akamaihd.net/steamcommunity/public/images/apps/612020/a7008766b47707d258e717cc964bb011142b4d15.jpg",
    "icongray": "https://steamcdn-a.akamaihd.net/steamcommunity/public/images/apps/612020/0e33ad56c20522ea93132f65bc5d03f316208be5.jpg"
  },
  {
    "name": "ACH_12",
    "defaultvalue": 0,
    "displayName": "A dark secret",
    "hidden": 1,
    "icon": "https://steamcdn-a.akamaihd.net/steamcommunity/public/images/apps/612020/f1cbd58ee6f1e542934ff3ccf277166608918f9a.jpg",
    "icongray": "https://steamcdn-a.akamaihd.net/steamcommunity/public/images/apps/612020/8c746e87bb3026548da1ab010405d77a53daa0f0.jpg"
  },
  {
    "name": "ACH_13",
    "defaultvalue": 0,
    "displayName": "I've seen enough",
    "hidden": 1,
    "icon": "https://steamcdn-a.akamaihd.net/steamcommunity/public/images/apps/612020/cb1f339d86e2f43d4e423c36f749f9bcaf76d813.jpg",
    "icongray": "https://steamcdn-a.akamaihd.net/steamcommunity/public/images/apps/612020/fb56b5f773f1af175a65d05897a8a8efce344fbe.jpg"
  },
  {
    "name": "ACH_14",
    "defaultvalue": 0,
    "displayName": "Four thousand more years",
    "hidden": 1,
    "icon": "https://steamcdn-a.akamaihd.net/steamcommunity/public/images/apps/612020/981d5b1033c8c0a117d38a11fed5e384a2612285.jpg",
    "icongray": "https://steamcdn-a.akamaihd.net/steamcommunity/public/images/apps/612020/b0c0480155471853f8b127754c7edd1e1b0f16b8.jpg"
  },
  {
    "name": "ACH_15",
    "defaultvalue": 0,
    "displayName": "Forged by, with, and for pure evil",
    "hidden": 1,
    "icon": "https://steamcdn-a.akamaihd.net/steamcommunity/public/images/apps/612020/f55e0f9d319cd5ff933acda80f5a4a796d4e57b9.jpg",
    "icongray": "https://steamcdn-a.akamaihd.net/steamcommunity/public/images/apps/612020/84d278824b4136839977d2ef2fcee843823bc817.jpg"
  },
  {
    "name": "ACH_16",
    "defaultvalue": 0,
    "displayName": "Dark Or White Chocolate?",
    "hidden": 1,
    "icon": "https://steamcdn-a.akamaihd.net/steamcommunity/public/images/apps/612020/8893c47d909274fecd13f64c8555e91740a4618e.jpg",
    "icongray": "https://steamcdn-a.akamaihd.net/steamcommunity/public/images/apps/612020/6ae2c58d2494e86e68c8d410347f1362af5f0e14.jpg"
  },
  {
    "name": "ACH_17",
    "defaultvalue": 0,
    "displayName": "Ha ha ha ha ha",
    "hidden": 1,
    "icon": "https://steamcdn-a.akamaihd.net/steamcommunity/public/images/apps/612020/965594c44d0dcd44e60be2db61f4884d112a06f3.jpg",
    "icongray": "https://steamcdn-a.akamaihd.net/steamcommunity/public/images/apps/612020/346db544dbc28050dc22e7fb3aa8acf69977317d.jpg"
  },
  {
    "name": "ACH_18",
    "defaultvalue": 0,
    "displayName": "Brap brap brap",
    "hidden": 1,
    "icon": "https://steamcdn-a.akamaihd.net/steamcommunity/public/images/apps/612020/2f6a7f132c5eca6cb04cc57b360993fbdc6e41cc.jpg",
    "icongray": "https://steamcdn-a.akamaihd.net/steamcommunity/public/images/apps/612020/68e7657db050b4c3e5430bdb3f1168d76a16aa98.jpg"
  },
  {
    "name": "ACH_19",
    "defaultvalue": 0,
    "displayName": "This is a T rated game",
    "hidden": 1,
    "icon": "https://steamcdn-a.akamaihd.net/steamcommunity/public/images/apps/612020/ffc927b1f04d500809bd5f51c6eacc6e7129c20d.jpg",
    "icongray": "https://steamcdn-a.akamaihd.net/steamcommunity/public/images/apps/612020/ab6ee286990890b0a4ecf3df05967e22c8a24123.jpg"
  },
  {
    "name": "ACH_20",
    "defaultvalue": 0,
    "displayName": "Magicide",
    "hidden": 1,
    "icon": "https://steamcdn-a.akamaihd.net/steamcommunity/public/images/apps/612020/ee2b36e546112bed6cba9bcfe1f880264333341d.jpg",
    "icongray": "https://steamcdn-a.akamaihd.net/steamcommunity/public/images/apps/612020/2af0efa1a73583437432549725e1f59f850bfe0f.jpg"
  },
  {
    "name": "ACH_21",
    "defaultvalue": 0,
    "displayName": "Merlincide",
    "hidden": 1,
    "icon": "https://steamcdn-a.akamaihd.net/steamcommunity/public/images/apps/612020/ae4750e2893867eafb5d1ca5022a7ab966c13df6.jpg",
    "icongray": "https://steamcdn-a.akamaihd.net/steamcommunity/public/images/apps/612020/b51974e635c0f4e206ae03c7299d11c24c320474.jpg"
  },
  {
    "name": "ACH_22",
    "defaultvalue": 0,
    "displayName": "Gandalfcide",
    "hidden": 1,
    "icon": "https://steamcdn-a.akamaihd.net/steamcommunity/public/images/apps/612020/4faf04da9aa3bb35fc0456bd6eb0cd6b820b27b3.jpg",
    "icongray": "https://steamcdn-a.akamaihd.net/steamcommunity/public/images/apps/612020/1c4147c958176e7991967a2849eaf61b60420f19.jpg"
  },
  {
    "name": "ACH_23",
    "defaultvalue": 0,
    "displayName": "Harrycide",
    "hidden": 1,
    "icon": "https://steamcdn-a.akamaihd.net/steamcommunity/public/images/apps/612020/dd3946ef992c4d3c78e4526735f830beef09ff54.jpg",
    "icongray": "https://steamcdn-a.akamaihd.net/steamcommunity/public/images/apps/612020/0f66fd0deea3370ca2331bcfb021e108790223ed.jpg"
  },
  {
    "name": "ACH_24",
    "defaultvalue": 0,
    "displayName": "Shaqcide",
    "hidden": 1,
    "icon": "https://steamcdn-a.akamaihd.net/steamcommunity/public/images/apps/612020/1808f8b3fb3e97c2de5de76b043e25677e437778.jpg",
    "icongray": "https://steamcdn-a.akamaihd.net/steamcommunity/public/images/apps/612020/eb130787bbeaddf7cd189615dbfb779ed21444da.jpg"
  },
  {
    "name": "ACH_25",
    "defaultvalue": 0,
    "displayName": "tnemeveihcA",
    "hidden": 1,
    "icon": "https://steamcdn-a.akamaihd.net/steamcommunity/public/images/apps/612020/897a43accdc1963dfdba9402dce9d5f4af677206.jpg",
    "icongray": "https://steamcdn-a.akamaihd.net/steamcommunity/public/images/apps/612020/4c53cdeda6fc24e38cb467e583d21cde38263569.jpg"
  },
  {
    "name": "ACH_26",
    "defaultvalue": 0,
    "displayName": "I've no idea what to do here",
    "hidden": 1,
    "icon": "https://steamcdn-a.akamaihd.net/steamcommunity/public/images/apps/612020/e13ca21a458798fb10247c4206fd7da947cd662e.jpg",
    "icongray": "https://steamcdn-a.akamaihd.net/steamcommunity/public/images/apps/612020/cd4a62603866de242783b87984ca820d9c762de4.jpg"
  },
  {
    "name": "ACH_27",
    "defaultvalue": 0,
    "displayName": "Taking sides",
    "hidden": 1,
    "icon": "https://steamcdn-a.akamaihd.net/steamcommunity/public/images/apps/612020/de841c2b282fbc54c5f031ec16025de655354ef6.jpg",
    "icongray": "https://steamcdn-a.akamaihd.net/steamcommunity/public/images/apps/612020/2a1155c02bc3723765f56cd6e85e738f5be1e405.jpg"
  },
  {
    "name": "ACH_28",
    "defaultvalue": 0,
    "displayName": "You've hit rock bottom",
    "hidden": 1,
    "icon": "https://steamcdn-a.akamaihd.net/steamcommunity/public/images/apps/612020/78b6f24c4132622ba30e903c32f5dc7215bb250c.jpg",
    "icongray": "https://steamcdn-a.akamaihd.net/steamcommunity/public/images/apps/612020/18da9b9c4ef28d0566da440f349675b20c4c55ed.jpg"
  },
  {
    "name": "ACH_29",
    "defaultvalue": 0,
    "displayName": "Oh the huge vanity",
    "hidden": 1,
    "icon": "https://steamcdn-a.akamaihd.net/steamcommunity/public/images/apps/612020/8b721535f76921bcf9e95fab605e2d8bffaa969b.jpg",
    "icongray": "https://steamcdn-a.akamaihd.net/steamcommunity/public/images/apps/612020/effcaa75d20541f9882b0585d83fa4dac087eb6e.jpg"
  },
  {
    "name": "ACH_30",
    "defaultvalue": 0,
    "displayName": "Bob, your mucus",
    "hidden": 1,
    "icon": "https://steamcdn-a.akamaihd.net/steamcommunity/public/images/apps/612020/029acfa0849d3372690c096a4a282a17c3638829.jpg",
    "icongray": "https://steamcdn-a.akamaihd.net/steamcommunity/public/images/apps/612020/2be90c44940e45bd8323c2207ed2a9e4a70f93cb.jpg"
  },
  {
    "name": "ACH_31",
    "defaultvalue": 0,
    "displayName": "How many hats can a man own!?",
    "hidden": 1,
    "icon": "https://steamcdn-a.akamaihd.net/steamcommunity/public/images/apps/612020/9c0d675eab775a23b717d522178609a6f3e6bb17.jpg",
    "icongray": "https://steamcdn-a.akamaihd.net/steamcommunity/public/images/apps/612020/713ab35ef9f2eed9597c673256379d1d2682b1dc.jpg"
  },
  {
    "name": "ACH_32",
    "defaultvalue": 0,
    "displayName": "Who cares about you Lachhh",
    "hidden": 1,
    "icon": "https://steamcdn-a.akamaihd.net/steamcommunity/public/images/apps/612020/5fb10a0ece1e2009f25750401af8b0457e322cd1.jpg",
    "icongray": "https://steamcdn-a.akamaihd.net/steamcommunity/public/images/apps/612020/0a0709059f0e55fa4bb7826682b0b7db451cc7c8.jpg"
  },
  {
    "name": "ACH_33",
    "defaultvalue": 0,
    "displayName": "SIX, SIX SIX, THE NUMBER OF THE BOB",
    "hidden": 1,
    "icon": "https://steamcdn-a.akamaihd.net/steamcommunity/public/images/apps/612020/bc3befccecc0197c326534657e2c562b6ed73b66.jpg",
    "icongray": "https://steamcdn-a.akamaihd.net/steamcommunity/public/images/apps/612020/cc1cf60254f134ba92ac129e09b410ae043cc64c.jpg"
  },
  {
    "name": "ACH_34",
    "defaultvalue": 0,
    "displayName": "Plenty of phish in the sea",
    "hidden": 1,
    "icon": "https://steamcdn-a.akamaihd.net/steamcommunity/public/images/apps/612020/ab62818ce5aec0acf1d916f9b69e9fdc7ffbda60.jpg",
    "icongray": "https://steamcdn-a.akamaihd.net/steamcommunity/public/images/apps/612020/35dd71f68a5e60ceafd38ac8f9abcc732564bcda.jpg"
  },
  {
    "name": "ACH_35",
    "defaultvalue": 0,
    "displayName": "Got 49 problems but a shard ain't one",
    "hidden": 1,
    "icon": "https://steamcdn-a.akamaihd.net/steamcommunity/public/images/apps/612020/bcfba7bae8394c6c1ff0e35017e5e99b4e6f5bf3.jpg",
    "icongray": "https://steamcdn-a.akamaihd.net/steamcommunity/public/images/apps/612020/68236eb08d2d0cc389e98e407ffd0bde5217cbe1.jpg"
  }
]