﻿{
  "Dlcs": {},
  "Name": "忍者村大战2",
  "AppId": "754350",
  "ImageUrl": "https://steamcdn-a.akamaihd.net/steam/apps/754350/header.jpg?t=1535097270",
  "Languages": [
    "schinese"
  ],
  "Platforms": {
    "windows": true,
    "mac": false,
    "linux": false
  }
}