﻿{
  "Dlcs": {},
  "Name": "4PM",
  "AppId": "281840",
  "ImageUrl": "https://steamcdn-a.akamaihd.net/steam/apps/281840/header.jpg?t=1447360528",
  "Languages": [
    "english",
    "french",
    "german",
    "spanish",
    "russian",
    "italian",
    "portuguese",
    "japanese"
  ],
  "Platforms": {
    "windows": true,
    "mac": true,
    "linux": false
  }
}