﻿{
  "Dlcs": {},
  "Name": "Vampire of the Sands",
  "AppId": "386160",
  "ImageUrl": "https://steamcdn-a.akamaihd.net/steam/apps/386160/header.jpg?t=1590342204",
  "Languages": [
    "english"
  ],
  "Platforms": {
    "windows": true,
    "mac": false,
    "linux": true
  }
}