﻿{
  "Dlcs": {},
  "Name": "Her Story",
  "AppId": "368370",
  "ImageUrl": "https://steamcdn-a.akamaihd.net/steam/apps/368370/header.jpg?t=1593033905",
  "Languages": [
    "english",
    "japanese"
  ],
  "Platforms": {
    "windows": true,
    "mac": true,
    "linux": false
  }
}