﻿{
  "Dlcs": {
    "451410": {
      "Name": "",
      "ImageUrl": ""
    }
  },
  "Name": "The Elder Scrolls III: Morrowind® Game of the Year Edition",
  "AppId": "22320",
  "ImageUrl": "https://steamcdn-a.akamaihd.net/steam/apps/22320/header.jpg?t=1569959880",
  "Languages": [
    "english",
    "french",
    "german"
  ],
  "Platforms": {
    "windows": true,
    "mac": false,
    "linux": false
  }
}