﻿{
  "Dlcs": {},
  "Name": "DesertLand 2115",
  "AppId": "406280",
  "ImageUrl": "https://steamcdn-a.akamaihd.net/steam/apps/406280/header.jpg?t=1482859852",
  "Languages": [
    "english"
  ],
  "Platforms": {
    "windows": true,
    "mac": false,
    "linux": false
  }
}