﻿{
  "Dlcs": {
    "1122400": {
      "Name": "Aim Lab -Elite Supporter Pack",
      "ImageUrl": "https://steamcdn-a.akamaihd.net/steam/apps/1122400/header.jpg?t=1595991513"
    },
    "1206190": {
      "Name": "Aim Lab - Holiday Charity Skins",
      "ImageUrl": "https://steamcdn-a.akamaihd.net/steam/apps/1206190/header.jpg?t=1576706765"
    },
    "1383420": {
      "Name": "Aim Lab Signature Series - Bugha Pack",
      "ImageUrl": "https://steamcdn-a.akamaihd.net/steam/apps/1383420/header.jpg?t=1596471546"
    }
  },
  "Name": "Aim Lab",
  "AppId": "714010",
  "ImageUrl": "https://steamcdn-a.akamaihd.net/steam/apps/714010/header.jpg?t=1598973091",
  "Languages": [
    "english"
  ],
  "Platforms": {
    "windows": true,
    "mac": false,
    "linux": false
  }
}