﻿[
  {
    "name": "LevelThrees",
    "defaultvalue": 0,
    "displayName": ""
  },
  {
    "name": "Sold",
    "defaultvalue": 0,
    "displayName": ""
  },
  {
    "name": "TurretLevelOnes",
    "defaultvalue": 0,
    "displayName": ""
  },
  {
    "name": "AllTurretsEver",
    "defaultvalue": 0,
    "displayName": ""
  },
  {
    "name": "AllSupportEver",
    "defaultvalue": 0,
    "displayName": ""
  },
  {
    "name": "AllLevels",
    "defaultvalue": 0,
    "displayName": ""
  },
  {
    "name": "AllOfficersAnyLevel",
    "defaultvalue": 0,
    "displayName": ""
  },
  {
    "name": "OneOfficerAllLevels",
    "defaultvalue": 0,
    "displayName": ""
  },
  {
    "name": "AllOnIntense",
    "defaultvalue": 0,
    "displayName": ""
  },
  {
    "name": "HostCompleteGames",
    "defaultvalue": 0,
    "displayName": ""
  },
  {
    "name": "WarsSentFast",
    "defaultvalue": 0,
    "displayName": ""
  },
  {
    "name": "AllLevelBadges",
    "defaultvalue": 0,
    "displayName": ""
  },
  {
    "name": "AllOfficerBadges",
    "defaultvalue": 0,
    "displayName": ""
  },
  {
    "name": "AllTurretBadges",
    "defaultvalue": 0,
    "displayName": ""
  },
  {
    "name": "AllSupportBadges",
    "defaultvalue": 0,
    "displayName": ""
  },
  {
    "name": "AllCreepBadges",
    "defaultvalue": 0,
    "displayName": ""
  }
]