﻿[
  {
    "name": "ACHIEVEMENT_01",
    "defaultvalue": 0,
    "displayName": "The Aspirton Incident",
    "hidden": 0,
    "description": "Complete the Aspirton Bank Robbery in \"As Good as Dead\" before demons arrive.",
    "icon": "https://steamcdn-a.akamaihd.net/steamcommunity/public/images/apps/307670/556b1b4a71f6f9e5e8bc3d764f0c27c74e3b1868.jpg",
    "icongray": "https://steamcdn-a.akamaihd.net/steamcommunity/public/images/apps/307670/8e363b58f03e02cd4b090c51b73608c254f62d19.jpg"
  },
  {
    "name": "ACHIEVEMENT_02",
    "defaultvalue": 0,
    "displayName": "His Leniency, The Inquisitor",
    "hidden": 0,
    "description": "Complete \"Law & Order\" having committed at most 2 massacres.",
    "icon": "https://steamcdn-a.akamaihd.net/steamcommunity/public/images/apps/307670/dba4279cd13e71013dc4a31cf78807b7880c5e56.jpg",
    "icongray": "https://steamcdn-a.akamaihd.net/steamcommunity/public/images/apps/307670/f6deb719077abd74f613ed1914a5273bdf30e915.jpg"
  },
  {
    "name": "ACHIEVEMENT_03",
    "defaultvalue": 0,
    "displayName": "Through Thick and Thick",
    "hidden": 0,
    "description": "Complete \"Graveyard Shift\" without anyone being hungry at any time.",
    "icon": "https://steamcdn-a.akamaihd.net/steamcommunity/public/images/apps/307670/747811ca7d88252c612637a4f95ac36b5632f6d3.jpg",
    "icongray": "https://steamcdn-a.akamaihd.net/steamcommunity/public/images/apps/307670/f90bdc1587a391600a2383c6611a6764decf76f2.jpg"
  },
  {
    "name": "ACHIEVEMENT_04",
    "defaultvalue": 0,
    "displayName": "Double Excellence",
    "hidden": 0,
    "description": "Fully develop two technological domains during \"Method in Madness\".",
    "icon": "https://steamcdn-a.akamaihd.net/steamcommunity/public/images/apps/307670/7713392898ff0dea0e8f9d23fd2db01e83a49b82.jpg",
    "icongray": "https://steamcdn-a.akamaihd.net/steamcommunity/public/images/apps/307670/c5e311ae5b51a2d7dbf7ea5fa0428e53dfb5c399.jpg"
  },
  {
    "name": "ACHIEVEMENT_05",
    "defaultvalue": 0,
    "displayName": "Daring but Careful",
    "hidden": 0,
    "description": "Complete \"In Gold We Trust\" with no more than 50 peons dead.",
    "icon": "https://steamcdn-a.akamaihd.net/steamcommunity/public/images/apps/307670/a729579f97e04e71eef09d324cbe60134e94d9bb.jpg",
    "icongray": "https://steamcdn-a.akamaihd.net/steamcommunity/public/images/apps/307670/07b4610ba56196bfe0dad01ab59ef366de76062f.jpg"
  },
  {
    "name": "ACHIEVEMENT_06",
    "defaultvalue": 0,
    "displayName": "What Goes Around, Comes Around",
    "hidden": 0,
    "description": "Kill Joaquim Perez with the Cañón Calavera.",
    "icon": "https://steamcdn-a.akamaihd.net/steamcommunity/public/images/apps/307670/2cb8e686b7b10f62c92bb35a9318255ae7eaeff7.jpg",
    "icongray": "https://steamcdn-a.akamaihd.net/steamcommunity/public/images/apps/307670/69473e18ba1c4aa21c6581903d82d8159fe439dc.jpg"
  },
  {
    "name": "ACHIEVEMENT_07",
    "defaultvalue": 0,
    "displayName": "Vengeance Served Cold",
    "hidden": 0,
    "description": "Complete \"As Good as Dead\".",
    "icon": "https://steamcdn-a.akamaihd.net/steamcommunity/public/images/apps/307670/99537d2b7619fd556c8628f01c50cd092e85064b.jpg",
    "icongray": "https://steamcdn-a.akamaihd.net/steamcommunity/public/images/apps/307670/ba3dc7ebbc2e1740cc71cd50eebbfe5416f24721.jpg"
  },
  {
    "name": "ACHIEVEMENT_08",
    "defaultvalue": 0,
    "displayName": "Drowned in Blood",
    "hidden": 0,
    "description": "Complete \"Law & Order\".",
    "icon": "https://steamcdn-a.akamaihd.net/steamcommunity/public/images/apps/307670/84b9d1dde923f102fd16bb110b2848881c9ece6c.jpg",
    "icongray": "https://steamcdn-a.akamaihd.net/steamcommunity/public/images/apps/307670/83d9a0985ed4685e0774b7875bb00ddab7750bb9.jpg"
  },
  {
    "name": "ACHIEVEMENT_09",
    "defaultvalue": 0,
    "displayName": "The Meaning of Life",
    "hidden": 0,
    "description": "Complete \"Graveyard Shift\".",
    "icon": "https://steamcdn-a.akamaihd.net/steamcommunity/public/images/apps/307670/65e265287769b5c9e276ff6a54aa947cdea868e4.jpg",
    "icongray": "https://steamcdn-a.akamaihd.net/steamcommunity/public/images/apps/307670/f610c7a1b43a12a1d0a664035fb84813112538fd.jpg"
  },
  {
    "name": "ACHIEVEMENT_10",
    "defaultvalue": 0,
    "displayName": "A Gift Scorned",
    "hidden": 0,
    "description": "Complete \"A Matter of Time\".",
    "icon": "https://steamcdn-a.akamaihd.net/steamcommunity/public/images/apps/307670/1d8f3af12513d68a324c9c13b2a9d8324bc2a619.jpg",
    "icongray": "https://steamcdn-a.akamaihd.net/steamcommunity/public/images/apps/307670/b6f1009e56f4ce36b03bd8eec4b023b0276a7f96.jpg"
  },
  {
    "name": "ACHIEVEMENT_11",
    "defaultvalue": 0,
    "displayName": "Sanity Engineered",
    "hidden": 0,
    "description": "Complete \"Method in Madness\".",
    "icon": "https://steamcdn-a.akamaihd.net/steamcommunity/public/images/apps/307670/0266da4010bd05e9dabb57f25360fef9db565ca1.jpg",
    "icongray": "https://steamcdn-a.akamaihd.net/steamcommunity/public/images/apps/307670/c7d5caa70ef939d78dcdfd493201eaa96022dc75.jpg"
  },
  {
    "name": "ACHIEVEMENT_12",
    "defaultvalue": 0,
    "displayName": "Everlasting Fame and Fortune",
    "hidden": 0,
    "description": "Complete \"In Gold We Trust\".",
    "icon": "https://steamcdn-a.akamaihd.net/steamcommunity/public/images/apps/307670/df1ad6e1c0625760a1904f22c296fc9ee226db83.jpg",
    "icongray": "https://steamcdn-a.akamaihd.net/steamcommunity/public/images/apps/307670/16b6612500ae151212383fdd68884a5002c85c16.jpg"
  },
  {
    "name": "ACHIEVEMENT_13",
    "defaultvalue": 0,
    "displayName": "Raw Deal",
    "hidden": 0,
    "description": "Complete \"Hard Times\".",
    "icon": "https://steamcdn-a.akamaihd.net/steamcommunity/public/images/apps/307670/0af4d2556600105d33e09e39926f59309f4621d3.jpg",
    "icongray": "https://steamcdn-a.akamaihd.net/steamcommunity/public/images/apps/307670/281bebbfe302409e420a84c1d5e3ab09661244e9.jpg"
  },
  {
    "name": "ACHIEVEMENT_14",
    "defaultvalue": 0,
    "displayName": "On Earth, as It Is in Hell",
    "hidden": 0,
    "description": "Establish Warren's new world order.",
    "icon": "https://steamcdn-a.akamaihd.net/steamcommunity/public/images/apps/307670/fca523a0441510d73f45a16d7b03f8bc0bc69b62.jpg",
    "icongray": "https://steamcdn-a.akamaihd.net/steamcommunity/public/images/apps/307670/632bce1133d52d237553d81dae9355a0f8856513.jpg"
  },
  {
    "name": "ACHIEVEMENT_15",
    "defaultvalue": 0,
    "displayName": "Requiem for a Gunfighter",
    "hidden": 0,
    "description": "Restore order in the Weird West.",
    "icon": "https://steamcdn-a.akamaihd.net/steamcommunity/public/images/apps/307670/21b8eb52b602ea775b723716d923120052a9a183.jpg",
    "icongray": "https://steamcdn-a.akamaihd.net/steamcommunity/public/images/apps/307670/59cdf8fb9aa1b3d734c177c38888c5496d8e0be7.jpg"
  },
  {
    "name": "ACHIEVEMENT_16",
    "defaultvalue": 0,
    "displayName": "Once Upon a Time in the Weird West",
    "hidden": 0,
    "description": "Complete all Scenarios.",
    "icon": "https://steamcdn-a.akamaihd.net/steamcommunity/public/images/apps/307670/39a60659b775edc7605b204a1e1e8681c5e8852b.jpg",
    "icongray": "https://steamcdn-a.akamaihd.net/steamcommunity/public/images/apps/307670/8be760bd7e4e3a49d710d8717454e22d502ddda6.jpg"
  },
  {
    "name": "ACHIEVEMENT_17",
    "defaultvalue": 0,
    "displayName": "Welcome to Hard Times",
    "hidden": 0,
    "description": "Complete a single Scenario on Hard difficulty, with both Ironman and Injuries enabled.",
    "icon": "https://steamcdn-a.akamaihd.net/steamcommunity/public/images/apps/307670/442d51ea18caf15a3bb4f96898ce49235f3bdc76.jpg",
    "icongray": "https://steamcdn-a.akamaihd.net/steamcommunity/public/images/apps/307670/48288d640b3fd0fd4d5450bac3231b8a4b7722ed.jpg"
  },
  {
    "name": "ACHIEVEMENT_18",
    "defaultvalue": 0,
    "displayName": "Welcome to Even Harder Times",
    "hidden": 0,
    "description": "Complete every Scenario on Hard, every Scenario with Injuries and every Scenario with Ironman enabled.",
    "icon": "https://steamcdn-a.akamaihd.net/steamcommunity/public/images/apps/307670/73947851838cd7e2eeca7cc571497a53a402e42b.jpg",
    "icongray": "https://steamcdn-a.akamaihd.net/steamcommunity/public/images/apps/307670/e11d27a4fce66e821bb55ba11d2553411229a5e0.jpg"
  },
  {
    "name": "ACHIEVEMENT_19",
    "defaultvalue": 0,
    "displayName": "Sudden Death",
    "hidden": 0,
    "description": "Use Equalization in the first combat turn, then complete the mission without raising your characters' Hit Points with items.",
    "icon": "https://steamcdn-a.akamaihd.net/steamcommunity/public/images/apps/307670/66556aa54cdbed33b9c733fbbe5c7d933f95c603.jpg",
    "icongray": "https://steamcdn-a.akamaihd.net/steamcommunity/public/images/apps/307670/62f894a9212538d70203855bf95ca1e56cb0ea86.jpg"
  },
  {
    "name": "ACHIEVEMENT_20",
    "defaultvalue": 0,
    "displayName": "The Searcher",
    "hidden": 0,
    "description": "Unlock all Trinkets in the game.",
    "icon": "https://steamcdn-a.akamaihd.net/steamcommunity/public/images/apps/307670/8afa5956cc7ab788051a53102df7c52f3a5713b2.jpg",
    "icongray": "https://steamcdn-a.akamaihd.net/steamcommunity/public/images/apps/307670/8f9812442c0dc22df0ad7fe5a1885bbdeb524692.jpg"
  },
  {
    "name": "ACHIEVEMENT_21",
    "defaultvalue": 0,
    "displayName": "Arizona Colts",
    "hidden": 0,
    "description": "Complete any tactical encounter without firing weapons other than the Rusty Peashooter.",
    "icon": "https://steamcdn-a.akamaihd.net/steamcommunity/public/images/apps/307670/53846af19b326cf5b14e9996982b84bd7e5f1c17.jpg",
    "icongray": "https://steamcdn-a.akamaihd.net/steamcommunity/public/images/apps/307670/8357ad30437f02430e6f9922aa87fde777a9849c.jpg"
  },
  {
    "name": "ACHIEVEMENT_22",
    "defaultvalue": 0,
    "displayName": "The Shootist",
    "hidden": 0,
    "description": "Complete any tactical encounter firing sure shots (100% Chance to Hit) exclusively.",
    "icon": "https://steamcdn-a.akamaihd.net/steamcommunity/public/images/apps/307670/e239c225372718ebffe6f4830360df4278c41ecb.jpg",
    "icongray": "https://steamcdn-a.akamaihd.net/steamcommunity/public/images/apps/307670/63c3e1e8742f5047ded0d1ccd6744d33246a3aee.jpg"
  },
  {
    "name": "ACHIEVEMENT_23",
    "defaultvalue": 0,
    "displayName": "The Wild Bunch",
    "hidden": 0,
    "description": "Use at least 30 different characters during tactical encounters throughout the game.",
    "icon": "https://steamcdn-a.akamaihd.net/steamcommunity/public/images/apps/307670/290464a24bb9adc06d4eadda171d99a6a0ff533f.jpg",
    "icongray": "https://steamcdn-a.akamaihd.net/steamcommunity/public/images/apps/307670/b16ac29d51321e133733dc23832930ce3736f4ea.jpg"
  },
  {
    "name": "ACHIEVEMENT_24",
    "defaultvalue": 0,
    "displayName": "Blind Justice",
    "hidden": 0,
    "description": "Kill 10 enemies with blind shots (no line of sight)",
    "icon": "https://steamcdn-a.akamaihd.net/steamcommunity/public/images/apps/307670/2a7deba4eea7337fdaa8d14668336997b0021981.jpg",
    "icongray": "https://steamcdn-a.akamaihd.net/steamcommunity/public/images/apps/307670/b7e517f734445c2e27e85ccf5c5b16ede48dcf70.jpg"
  },
  {
    "name": "ACHIEVEMENT_25",
    "defaultvalue": 0,
    "displayName": "Fight No More Forever",
    "hidden": 0,
    "description": "Complete any tactical mission without firing a shot.",
    "icon": "https://steamcdn-a.akamaihd.net/steamcommunity/public/images/apps/307670/fa58aa6d78b9d5e6521621939bc008315d471f06.jpg",
    "icongray": "https://steamcdn-a.akamaihd.net/steamcommunity/public/images/apps/307670/67ac9eda16f6487b67cebd8080594321e0f3c1cb.jpg"
  },
  {
    "name": "ACHIEVEMENT_26",
    "defaultvalue": 0,
    "displayName": "Treasures of the Sierra Madre",
    "hidden": 0,
    "description": "Use 25 different usable items at least once.",
    "icon": "https://steamcdn-a.akamaihd.net/steamcommunity/public/images/apps/307670/9e9af6ed968d0b5b94e7f93912c0b227ee30b691.jpg",
    "icongray": "https://steamcdn-a.akamaihd.net/steamcommunity/public/images/apps/307670/de474228ad28ec7916c183e6a1942f54ff77b05d.jpg"
  },
  {
    "name": "ACHIEVEMENT_27",
    "defaultvalue": 0,
    "displayName": "Trickshooter",
    "hidden": 0,
    "description": "Kill an enemy with a bullet ricocheting off at least 3 different objects.",
    "icon": "https://steamcdn-a.akamaihd.net/steamcommunity/public/images/apps/307670/17f9c626f6de95bb8832321441c17ed9af7b172b.jpg",
    "icongray": "https://steamcdn-a.akamaihd.net/steamcommunity/public/images/apps/307670/fd3b760afa1bf15ec9521fb2d73595b87b9d5c9b.jpg"
  },
  {
    "name": "ACHIEVEMENT_28",
    "defaultvalue": 0,
    "displayName": "Brimstone Killer",
    "hidden": 0,
    "description": "Kill a demon while your character is in demon form.",
    "icon": "https://steamcdn-a.akamaihd.net/steamcommunity/public/images/apps/307670/77e97e266a3c4f444a289daed1adb07ac98757b1.jpg",
    "icongray": "https://steamcdn-a.akamaihd.net/steamcommunity/public/images/apps/307670/e859ed61e59757c11e0d15e3a6af19165f27fb65.jpg"
  },
  {
    "name": "ACHIEVEMENT_29",
    "defaultvalue": 0,
    "displayName": "Aces in the Hole",
    "hidden": 0,
    "description": "Assemble the Five of a Kind hand.",
    "icon": "https://steamcdn-a.akamaihd.net/steamcommunity/public/images/apps/307670/514a1b88610793f8db3462e88cb3745339ae134c.jpg",
    "icongray": "https://steamcdn-a.akamaihd.net/steamcommunity/public/images/apps/307670/9ded5e3fd058dad93cd9e28836287525ec0a1946.jpg"
  },
  {
    "name": "ACHIEVEMENT_30",
    "defaultvalue": 0,
    "displayName": "Fastest Gun in the West",
    "hidden": 0,
    "description": "Kill an enemy in the very first action in a tactical encounter.",
    "icon": "https://steamcdn-a.akamaihd.net/steamcommunity/public/images/apps/307670/c5027ebb1269323169720252f84da117244f6e76.jpg",
    "icongray": "https://steamcdn-a.akamaihd.net/steamcommunity/public/images/apps/307670/88d2aca0c4175fe2194de6027b8b95ce77d2cab9.jpg"
  },
  {
    "name": "ACHIEVEMENT_DLC1_1",
    "defaultvalue": 0,
    "displayName": "Scars of Freedom",
    "hidden": 0,
    "description": "Complete 'Scars of Freedom'.",
    "icon": "https://steamcdn-a.akamaihd.net/steamcommunity/public/images/apps/307670/c548c68f2f52ac021c968676924015bf52ee99e1.jpg",
    "icongray": "https://steamcdn-a.akamaihd.net/steamcommunity/public/images/apps/307670/8a8f034bb270f8e4ed4726fea1527eea81be5562.jpg"
  },
  {
    "name": "ACHIEVEMENT_DLC1_2",
    "defaultvalue": 0,
    "displayName": "Dr Frankenstein",
    "hidden": 0,
    "description": "Complete any of the 'Golem' hands on a character and complete at least one combat encounter with that character.",
    "icon": "https://steamcdn-a.akamaihd.net/steamcommunity/public/images/apps/307670/f55205896a0720f648877b503cc076ffe4990931.jpg",
    "icongray": "https://steamcdn-a.akamaihd.net/steamcommunity/public/images/apps/307670/5d3a0e080fb7d1c8290525f3dba9cd84aebf9aba.jpg"
  },
  {
    "name": "ACHIEVEMENT_DLC1_3",
    "defaultvalue": 0,
    "displayName": "Army of Two",
    "hidden": 0,
    "description": "Complete the train assault with just Libertee and Phineas in your posse.",
    "icon": "https://steamcdn-a.akamaihd.net/steamcommunity/public/images/apps/307670/e31f25675d015b7ce93e51fbfb322df03e27ab5f.jpg",
    "icongray": "https://steamcdn-a.akamaihd.net/steamcommunity/public/images/apps/307670/5c4e89ee1ce2390cf0fe9c73bc59972d3c64cc9a.jpg"
  },
  {
    "name": "ACHIEVEMENT_DLC1_4",
    "defaultvalue": 0,
    "displayName": "High Stakes",
    "hidden": 0,
    "description": "Win a liver in a game of dice.",
    "icon": "https://steamcdn-a.akamaihd.net/steamcommunity/public/images/apps/307670/8a332411406f39846db04a59f1f3b3a43298ae52.jpg",
    "icongray": "https://steamcdn-a.akamaihd.net/steamcommunity/public/images/apps/307670/9700ef2397eb685091f97d7f36a893de29f636d4.jpg"
  },
  {
    "name": "ACHIEVEMENT_DLC1_5",
    "defaultvalue": 0,
    "displayName": "Human Resources",
    "hidden": 0,
    "description": "Collect at least 75 Ether from enemies fallen in one combat encounter.",
    "icon": "https://steamcdn-a.akamaihd.net/steamcommunity/public/images/apps/307670/adefd2d9086ab2768bdbc6e01a3ebd5507aadc34.jpg",
    "icongray": "https://steamcdn-a.akamaihd.net/steamcommunity/public/images/apps/307670/0124a7f4b2d054610ece7c56ddb59316cf9ac3ba.jpg"
  }
]