﻿{
  "Dlcs": {},
  "Name": "Battle For The Sun",
  "AppId": "385700",
  "ImageUrl": "https://steamcdn-a.akamaihd.net/steam/apps/385700/header.jpg?t=1447376999",
  "Languages": [
    "english",
    "french",
    "italian",
    "german",
    "spanish",
    "japanese",
    "portuguese",
    "russian",
    "schinese",
    "turkish"
  ],
  "Platforms": {
    "windows": true,
    "mac": true,
    "linux": true
  }
}