﻿[
  {
    "name": "GRASSES_1000_STAT",
    "defaultvalue": 0,
    "displayName": "1000 grasses"
  },
  {
    "name": "RECORD_HOLDER_STAT",
    "defaultvalue": 0,
    "displayName": "The record holder"
  },
  {
    "name": "DESTROYER_STAT",
    "defaultvalue": 0,
    "displayName": "Destroyer. Disable 50 monsters"
  },
  {
    "name": "TIME_LORD_STAT",
    "defaultvalue": 0,
    "displayName": "Time Lord. Use freeze time 15 times"
  },
  {
    "name": "GUNSLINGER_STAT",
    "defaultvalue": 0,
    "displayName": "Gunslinger. Produce 50 rounds of ammunition"
  }
]