﻿{
  "Dlcs": {},
  "Name": "John, The Zombie",
  "AppId": "741500",
  "ImageUrl": "https://steamcdn-a.akamaihd.net/steam/apps/741500/header.jpg?t=1592882062",
  "Languages": [
    "english",
    "portuguese",
    "schinese"
  ],
  "Platforms": {
    "windows": true,
    "mac": false,
    "linux": false
  }
}