﻿[
  {
    "name": "USER_TOTAL_GAMES_WON_VS_AI",
    "defaultvalue": 0,
    "displayName": "Games won vs AI"
  },
  {
    "name": "USER_TOTAL_GAMES_LOST_VS_AI",
    "defaultvalue": 0,
    "displayName": "Games lost vs AI"
  },
  {
    "name": "USER_TOTAL_GAMES_WON_VS_AI_LVL_0",
    "defaultvalue": 0,
    "displayName": "Games won vs AI level 0"
  },
  {
    "name": "USER_TOTAL_GAMES_LOST_VS_AI_LVL_0",
    "defaultvalue": 0,
    "displayName": "Games lost vs AI level 0"
  },
  {
    "name": "USER_TOTAL_GAMES_WON_VS_AI_LVL_1",
    "defaultvalue": 0,
    "displayName": "Games won vs AI level 1"
  },
  {
    "name": "USER_TOTAL_GAMES_LOST_VS_AI_LVL_1",
    "defaultvalue": 0,
    "displayName": "Games lost vs AI level 1"
  },
  {
    "name": "USER_TOTAL_GAMES_WON_VS_AI_LVL_2",
    "defaultvalue": 0,
    "displayName": "Games won vs AI level 2"
  },
  {
    "name": "USER_TOTAL_GAMES_LOST_VS_AI_LVL_2",
    "defaultvalue": 0,
    "displayName": "Games lost vs AI level 2"
  },
  {
    "name": "USER_TOTAL_GAMES_WON_VS_AI_LVL_3",
    "defaultvalue": 0,
    "displayName": "Games won vs AI level 3"
  },
  {
    "name": "USER_TOTAL_GAMES_LOST_VS_AI_LVL_3",
    "defaultvalue": 0,
    "displayName": "Games lost vs AI level 3"
  },
  {
    "name": "USER_TOTAL_BACKGAMMON_GAMES_WON_VS_AI_LVL_1",
    "defaultvalue": 0,
    "displayName": "Backgammon games won vs AI level 1"
  },
  {
    "name": "USER_TOTAL_BACKGAMMON_GAMES_WON_VS_AI_LVL_2",
    "defaultvalue": 0,
    "displayName": "Backgammon games won vs AI level 2"
  },
  {
    "name": "USER_TOTAL_BACKGAMMON_GAMES_WON_VS_AI_LVL_3",
    "defaultvalue": 0,
    "displayName": "Backgammon games won vs AI level 3"
  },
  {
    "name": "USER_TOTAL_CHECKERS_GAMES_WON_VS_AI_LVL_1",
    "defaultvalue": 0,
    "displayName": "Checkers games won vs AI level 1"
  },
  {
    "name": "USER_TOTAL_CHECKERS_GAMES_WON_VS_AI_LVL_2",
    "defaultvalue": 0,
    "displayName": "Checkers games won vs AI level 2"
  },
  {
    "name": "USER_TOTAL_CHECKERS_GAMES_WON_VS_AI_LVL_3",
    "defaultvalue": 0,
    "displayName": "Checkers games won vs AI level 3"
  }
]