﻿{
  "Dlcs": {},
  "Name": "Judge Dredd: Dredd vs. Death",
  "AppId": "3710",
  "ImageUrl": "https://steamcdn-a.akamaihd.net/steam/apps/3710/header.jpg?t=1579791442",
  "Languages": [
    "english"
  ],
  "Platforms": {
    "windows": true,
    "mac": false,
    "linux": false
  }
}