﻿[
  {
    "name": "THATWENTWELL",
    "defaultvalue": 0,
    "displayName": "That went well",
    "hidden": 0,
    "description": "Talk to that nice girl on the subway",
    "icon": "https://steamcdn-a.akamaihd.net/steamcommunity/public/images/apps/212050/c544e5dcf2a108ad0f64f8a9f5e812a2bce460f9.jpg",
    "icongray": "https://steamcdn-a.akamaihd.net/steamcommunity/public/images/apps/212050/78b5f436cdd88d59e0cfc11f3abfcbabdf602d01.jpg"
  },
  {
    "name": "MIRRORMASTER",
    "defaultvalue": 0,
    "displayName": "Mirror Master",
    "hidden": 0,
    "description": "Grow some eyes in the back of your head",
    "icon": "https://steamcdn-a.akamaihd.net/steamcommunity/public/images/apps/212050/c70b74e9a5c1500971d15c29c6f173bc4602d122.jpg",
    "icongray": "https://steamcdn-a.akamaihd.net/steamcommunity/public/images/apps/212050/78b5f436cdd88d59e0cfc11f3abfcbabdf602d01.jpg"
  },
  {
    "name": "GOTTAHIDE",
    "defaultvalue": 0,
    "displayName": "Gotta hide",
    "hidden": 0,
    "description": "Escape a nightmare",
    "icon": "https://steamcdn-a.akamaihd.net/steamcommunity/public/images/apps/212050/91ac03460cc1b02cbb96a94410ca44e5dac67853.jpg",
    "icongray": "https://steamcdn-a.akamaihd.net/steamcommunity/public/images/apps/212050/78b5f436cdd88d59e0cfc11f3abfcbabdf602d01.jpg"
  },
  {
    "name": "GETTHESCOOP",
    "defaultvalue": 0,
    "displayName": "Get the scoop",
    "hidden": 0,
    "description": "The pulitzer is in the bag",
    "icon": "https://steamcdn-a.akamaihd.net/steamcommunity/public/images/apps/212050/a18115f554594b1501b05cc6048dc70b4b123fbc.jpg",
    "icongray": "https://steamcdn-a.akamaihd.net/steamcommunity/public/images/apps/212050/78b5f436cdd88d59e0cfc11f3abfcbabdf602d01.jpg"
  },
  {
    "name": "JUSTBECAUSE",
    "defaultvalue": 0,
    "displayName": "Just because",
    "hidden": 0,
    "description": "Ray's kind of a jerk",
    "icon": "https://steamcdn-a.akamaihd.net/steamcommunity/public/images/apps/212050/421f8cbd61ff496b3f33c0541987172f7c45a860.jpg",
    "icongray": "https://steamcdn-a.akamaihd.net/steamcommunity/public/images/apps/212050/78b5f436cdd88d59e0cfc11f3abfcbabdf602d01.jpg"
  },
  {
    "name": "THATGUY",
    "defaultvalue": 0,
    "displayName": "\"That\" guy",
    "hidden": 0,
    "description": "That creep on the subway? Yeah, that's you.",
    "icon": "https://steamcdn-a.akamaihd.net/steamcommunity/public/images/apps/212050/ac8d678197abf61eee182f38b2992a115f567363.jpg",
    "icongray": "https://steamcdn-a.akamaihd.net/steamcommunity/public/images/apps/212050/78b5f436cdd88d59e0cfc11f3abfcbabdf602d01.jpg"
  },
  {
    "name": "DUO",
    "defaultvalue": 0,
    "displayName": "Duo",
    "hidden": 0,
    "description": "Gain control of two characters",
    "icon": "https://steamcdn-a.akamaihd.net/steamcommunity/public/images/apps/212050/6d0807dfd418e55c8ae403b7a507c394e4a9999e.jpg",
    "icongray": "https://steamcdn-a.akamaihd.net/steamcommunity/public/images/apps/212050/78b5f436cdd88d59e0cfc11f3abfcbabdf602d01.jpg"
  },
  {
    "name": "TEAMWORK",
    "defaultvalue": 0,
    "displayName": "Teamwork",
    "hidden": 0,
    "description": "Team up to fix the lab's water system",
    "icon": "https://steamcdn-a.akamaihd.net/steamcommunity/public/images/apps/212050/e5ccff42696e32604a52c339bf4c2eed7d570301.jpg",
    "icongray": "https://steamcdn-a.akamaihd.net/steamcommunity/public/images/apps/212050/78b5f436cdd88d59e0cfc11f3abfcbabdf602d01.jpg"
  },
  {
    "name": "SAVIOR",
    "defaultvalue": 0,
    "displayName": "Savior",
    "hidden": 0,
    "description": "Save Dr. Morales",
    "icon": "https://steamcdn-a.akamaihd.net/steamcommunity/public/images/apps/212050/8ce1a290fca0842522bca27d648f5f69880e439d.jpg",
    "icongray": "https://steamcdn-a.akamaihd.net/steamcommunity/public/images/apps/212050/78b5f436cdd88d59e0cfc11f3abfcbabdf602d01.jpg"
  },
  {
    "name": "CUTTHEROPE",
    "defaultvalue": 0,
    "displayName": "Cut the rope",
    "hidden": 0,
    "description": "Save yourself by destroying a rope",
    "icon": "https://steamcdn-a.akamaihd.net/steamcommunity/public/images/apps/212050/8c2c408e46879181cc6fe6b0d4bb7631a09e6a32.jpg",
    "icongray": "https://steamcdn-a.akamaihd.net/steamcommunity/public/images/apps/212050/78b5f436cdd88d59e0cfc11f3abfcbabdf602d01.jpg"
  },
  {
    "name": "GOODLISTENER",
    "defaultvalue": 0,
    "displayName": "Good listener",
    "hidden": 0,
    "description": "Listen to Saul's whole story without interrupting him",
    "icon": "https://steamcdn-a.akamaihd.net/steamcommunity/public/images/apps/212050/bbfff5e7aa2137931b35122ac4f46f8db7cd3b59.jpg",
    "icongray": "https://steamcdn-a.akamaihd.net/steamcommunity/public/images/apps/212050/78b5f436cdd88d59e0cfc11f3abfcbabdf602d01.jpg"
  },
  {
    "name": "NOSMOKING",
    "defaultvalue": 0,
    "displayName": "No smoking",
    "hidden": 0,
    "description": "Discover the chemisty department's secret",
    "icon": "https://steamcdn-a.akamaihd.net/steamcommunity/public/images/apps/212050/b1a8e2264188e6f954c6deac4d0aae0fb3cebf85.jpg",
    "icongray": "https://steamcdn-a.akamaihd.net/steamcommunity/public/images/apps/212050/78b5f436cdd88d59e0cfc11f3abfcbabdf602d01.jpg"
  },
  {
    "name": "WIRED",
    "defaultvalue": 0,
    "displayName": "Wired",
    "hidden": 0,
    "description": "Rewire the lab door circuit",
    "icon": "https://steamcdn-a.akamaihd.net/steamcommunity/public/images/apps/212050/4c0e9709156958a2bfc2c81c57b6d8f091b04f65.jpg",
    "icongray": "https://steamcdn-a.akamaihd.net/steamcommunity/public/images/apps/212050/78b5f436cdd88d59e0cfc11f3abfcbabdf602d01.jpg"
  },
  {
    "name": "ANGEL",
    "defaultvalue": 0,
    "displayName": "Angel",
    "hidden": 0,
    "description": "Open Dr. Morales's journal without damaging it",
    "icon": "https://steamcdn-a.akamaihd.net/steamcommunity/public/images/apps/212050/ed5ae576f89773a41a7377cca60c09accb666e23.jpg",
    "icongray": "https://steamcdn-a.akamaihd.net/steamcommunity/public/images/apps/212050/78b5f436cdd88d59e0cfc11f3abfcbabdf602d01.jpg"
  },
  {
    "name": "DREAMMASTER",
    "defaultvalue": 0,
    "displayName": "Dream master",
    "hidden": 0,
    "description": "Get all the memories from Anna's dream maze",
    "icon": "https://steamcdn-a.akamaihd.net/steamcommunity/public/images/apps/212050/655f5bcea1615831ae423d3b7999011dbf4a7180.jpg",
    "icongray": "https://steamcdn-a.akamaihd.net/steamcommunity/public/images/apps/212050/78b5f436cdd88d59e0cfc11f3abfcbabdf602d01.jpg"
  },
  {
    "name": "QUARTET",
    "defaultvalue": 0,
    "displayName": "Quartet",
    "hidden": 0,
    "description": "Gain control of all four characters",
    "icon": "https://steamcdn-a.akamaihd.net/steamcommunity/public/images/apps/212050/bcba081b7e7454278f7108145a18fc0a9620c10b.jpg",
    "icongray": "https://steamcdn-a.akamaihd.net/steamcommunity/public/images/apps/212050/78b5f436cdd88d59e0cfc11f3abfcbabdf602d01.jpg"
  },
  {
    "name": "BLUEPRINTSNATCHER",
    "defaultvalue": 0,
    "displayName": "Blueprint snatcher",
    "hidden": 0,
    "description": "Nab the blueprints from the police archive",
    "icon": "https://steamcdn-a.akamaihd.net/steamcommunity/public/images/apps/212050/06ea6c3c567d0f6986edc01af3c4cbcf49bd2a5f.jpg",
    "icongray": "https://steamcdn-a.akamaihd.net/steamcommunity/public/images/apps/212050/78b5f436cdd88d59e0cfc11f3abfcbabdf602d01.jpg"
  },
  {
    "name": "SEETHEWIZARD",
    "defaultvalue": 0,
    "displayName": "See the Wizard",
    "hidden": 0,
    "description": "Find Morales's financial information",
    "icon": "https://steamcdn-a.akamaihd.net/steamcommunity/public/images/apps/212050/c31821a45d0a8ccce1fd5c2d04da34271aeaf761.jpg",
    "icongray": "https://steamcdn-a.akamaihd.net/steamcommunity/public/images/apps/212050/78b5f436cdd88d59e0cfc11f3abfcbabdf602d01.jpg"
  },
  {
    "name": "MAGNETICPERSONALITY",
    "defaultvalue": 0,
    "displayName": "Magnetic personality",
    "hidden": 0,
    "description": "Maneuver everyone through the super collider",
    "icon": "https://steamcdn-a.akamaihd.net/steamcommunity/public/images/apps/212050/a21c69d9a99936ff7ca9df92cde5939cdc7183b5.jpg",
    "icongray": "https://steamcdn-a.akamaihd.net/steamcommunity/public/images/apps/212050/78b5f436cdd88d59e0cfc11f3abfcbabdf602d01.jpg"
  },
  {
    "name": "ACCESSGRANTED",
    "defaultvalue": 0,
    "displayName": "Access granted",
    "hidden": 0,
    "description": "Gain access to the inner vault",
    "icon": "https://steamcdn-a.akamaihd.net/steamcommunity/public/images/apps/212050/7e4cc85e227a66b623ba64000a766fe7e5c1b3c9.jpg",
    "icongray": "https://steamcdn-a.akamaihd.net/steamcommunity/public/images/apps/212050/78b5f436cdd88d59e0cfc11f3abfcbabdf602d01.jpg"
  },
  {
    "name": "IPROMISEYOU",
    "defaultvalue": 0,
    "displayName": "I promise you",
    "hidden": 0,
    "description": "Your uncle holds the key",
    "icon": "https://steamcdn-a.akamaihd.net/steamcommunity/public/images/apps/212050/8521a1d8564b0c9f61015bc239839fbed54ae413.jpg",
    "icongray": "https://steamcdn-a.akamaihd.net/steamcommunity/public/images/apps/212050/78b5f436cdd88d59e0cfc11f3abfcbabdf602d01.jpg"
  },
  {
    "name": "SAFECRACKER",
    "defaultvalue": 0,
    "displayName": "Safecracker",
    "hidden": 0,
    "description": "Crack Tortoise's safe",
    "icon": "https://steamcdn-a.akamaihd.net/steamcommunity/public/images/apps/212050/650068c4e31b55dc0d6c775a97b6cf9d58bd158c.jpg",
    "icongray": "https://steamcdn-a.akamaihd.net/steamcommunity/public/images/apps/212050/78b5f436cdd88d59e0cfc11f3abfcbabdf602d01.jpg"
  },
  {
    "name": "BLACKMAILER",
    "defaultvalue": 0,
    "displayName": "Blackmailer",
    "hidden": 0,
    "description": "Gain Tortoise's help by resorting to blackmail",
    "icon": "https://steamcdn-a.akamaihd.net/steamcommunity/public/images/apps/212050/8a8e29873059f978cb930ee6e500f4735170c2c0.jpg",
    "icongray": "https://steamcdn-a.akamaihd.net/steamcommunity/public/images/apps/212050/78b5f436cdd88d59e0cfc11f3abfcbabdf602d01.jpg"
  },
  {
    "name": "ARCHIVEMASTER",
    "defaultvalue": 0,
    "displayName": "Archive master",
    "hidden": 0,
    "description": "Get the blueprints on your first try",
    "icon": "https://steamcdn-a.akamaihd.net/steamcommunity/public/images/apps/212050/fc57e48f8bbc874a05065087dd0cdc0192c1387d.jpg",
    "icongray": "https://steamcdn-a.akamaihd.net/steamcommunity/public/images/apps/212050/78b5f436cdd88d59e0cfc11f3abfcbabdf602d01.jpg"
  },
  {
    "name": "HIPPOCRATES",
    "defaultvalue": 0,
    "displayName": "Hippocrates",
    "hidden": 0,
    "description": "Pay Ozzy while keeping your professional integrity intact",
    "icon": "https://steamcdn-a.akamaihd.net/steamcommunity/public/images/apps/212050/985dfe16e061105a0624f4ecfe6503f03a8dec3d.jpg",
    "icongray": "https://steamcdn-a.akamaihd.net/steamcommunity/public/images/apps/212050/78b5f436cdd88d59e0cfc11f3abfcbabdf602d01.jpg"
  },
  {
    "name": "CLOSETOHEART",
    "defaultvalue": 0,
    "displayName": "Close to heart",
    "hidden": 0,
    "description": "Learn Bennet's secret",
    "icon": "https://steamcdn-a.akamaihd.net/steamcommunity/public/images/apps/212050/cd5bd798edbddb81f56daba28669f213fbfdbdff.jpg",
    "icongray": "https://steamcdn-a.akamaihd.net/steamcommunity/public/images/apps/212050/78b5f436cdd88d59e0cfc11f3abfcbabdf602d01.jpg"
  },
  {
    "name": "FINDINGNORTH",
    "defaultvalue": 0,
    "displayName": "Finding north",
    "hidden": 0,
    "description": "Use a compass to find a new location",
    "icon": "https://steamcdn-a.akamaihd.net/steamcommunity/public/images/apps/212050/37b36f46480ff3bd6e964d978f3860a987097715.jpg",
    "icongray": "https://steamcdn-a.akamaihd.net/steamcommunity/public/images/apps/212050/78b5f436cdd88d59e0cfc11f3abfcbabdf602d01.jpg"
  },
  {
    "name": "KEYNABBER",
    "defaultvalue": 0,
    "displayName": "Key nabber",
    "hidden": 0,
    "description": "Remove the contents of a locker without opening it",
    "icon": "https://steamcdn-a.akamaihd.net/steamcommunity/public/images/apps/212050/2ddc5b782c7811d59adaf36ceb6e0a5ce60db689.jpg",
    "icongray": "https://steamcdn-a.akamaihd.net/steamcommunity/public/images/apps/212050/78b5f436cdd88d59e0cfc11f3abfcbabdf602d01.jpg"
  },
  {
    "name": "PHONETRACER",
    "defaultvalue": 0,
    "displayName": "Phone tracer",
    "hidden": 0,
    "description": "Track the movements of a killer",
    "icon": "https://steamcdn-a.akamaihd.net/steamcommunity/public/images/apps/212050/1a1c9364c48d2d8ae2f988577620000d99940119.jpg",
    "icongray": "https://steamcdn-a.akamaihd.net/steamcommunity/public/images/apps/212050/78b5f436cdd88d59e0cfc11f3abfcbabdf602d01.jpg"
  },
  {
    "name": "MAPMASTER",
    "defaultvalue": 0,
    "displayName": "Technophile",
    "hidden": 0,
    "description": "Find a new location on the map using fancy technology",
    "icon": "https://steamcdn-a.akamaihd.net/steamcommunity/public/images/apps/212050/4a6c396c9eacdaf33d3149e24d244fcb2fcb5e97.jpg",
    "icongray": "https://steamcdn-a.akamaihd.net/steamcommunity/public/images/apps/212050/78b5f436cdd88d59e0cfc11f3abfcbabdf602d01.jpg"
  },
  {
    "name": "LESSEROFTWOEVILS",
    "defaultvalue": 0,
    "displayName": "Lesser of two evils",
    "hidden": 0,
    "description": "You sided with an enemy to stop a greater foe",
    "icon": "https://steamcdn-a.akamaihd.net/steamcommunity/public/images/apps/212050/75b069d0a243b4535f5e133c3f1b6deb0ff32d58.jpg",
    "icongray": "https://steamcdn-a.akamaihd.net/steamcommunity/public/images/apps/212050/78b5f436cdd88d59e0cfc11f3abfcbabdf602d01.jpg"
  },
  {
    "name": "THENEWWORLDORDER",
    "defaultvalue": 0,
    "displayName": "The new world order",
    "hidden": 0,
    "description": "You stopped a killer, but let the big fish go free",
    "icon": "https://steamcdn-a.akamaihd.net/steamcommunity/public/images/apps/212050/ec9e275edf28850fb980644fe407919dd3314e7a.jpg",
    "icongray": "https://steamcdn-a.akamaihd.net/steamcommunity/public/images/apps/212050/78b5f436cdd88d59e0cfc11f3abfcbabdf602d01.jpg"
  },
  {
    "name": "INDEPENDENT",
    "defaultvalue": 0,
    "displayName": "Independent",
    "hidden": 0,
    "description": "Finish the game without asking another character for a hint",
    "icon": "https://steamcdn-a.akamaihd.net/steamcommunity/public/images/apps/212050/44ef14e460ec9a7898902ca35087e949316faf43.jpg",
    "icongray": "https://steamcdn-a.akamaihd.net/steamcommunity/public/images/apps/212050/78b5f436cdd88d59e0cfc11f3abfcbabdf602d01.jpg"
  },
  {
    "name": "LISTENTOUS",
    "defaultvalue": 0,
    "displayName": "Listen to us",
    "hidden": 0,
    "description": "Play the entire game with commentary mode active",
    "icon": "https://steamcdn-a.akamaihd.net/steamcommunity/public/images/apps/212050/7f1e687acc6bb2582d5c47a72c6b5bdcfcf4dbb2.jpg",
    "icongray": "https://steamcdn-a.akamaihd.net/steamcommunity/public/images/apps/212050/78b5f436cdd88d59e0cfc11f3abfcbabdf602d01.jpg"
  },
  {
    "name": "HIGHSCORE",
    "defaultvalue": 0,
    "displayName": "High Score",
    "hidden": 0,
    "description": "SUPER ACHIEVEMENT: Finish the game with a full score",
    "icon": "https://steamcdn-a.akamaihd.net/steamcommunity/public/images/apps/212050/b8c0f04661e5feae4a71d508cd3ad452d713ee47.jpg",
    "icongray": "https://steamcdn-a.akamaihd.net/steamcommunity/public/images/apps/212050/78b5f436cdd88d59e0cfc11f3abfcbabdf602d01.jpg"
  },
  {
    "name": "SAFESEER",
    "defaultvalue": 0,
    "displayName": "Safe seer",
    "hidden": 0,
    "description": "INSANE ACHIEVEMENT: Open Tortoise's safe without using any \"visual aids\"",
    "icon": "https://steamcdn-a.akamaihd.net/steamcommunity/public/images/apps/212050/365f485669102a6e5f473190ff2aa5947b71c5d9.jpg",
    "icongray": "https://steamcdn-a.akamaihd.net/steamcommunity/public/images/apps/212050/78b5f436cdd88d59e0cfc11f3abfcbabdf602d01.jpg"
  },
  {
    "name": "QUICKESCAPE",
    "defaultvalue": 0,
    "displayName": "Quick escape",
    "hidden": 0,
    "description": "INSANE ACHIEVEMENT: Escape from the monster without locking the door",
    "icon": "https://steamcdn-a.akamaihd.net/steamcommunity/public/images/apps/212050/aee8a543f9dd8d1e524e17cc18c886beb3a5edd8.jpg",
    "icongray": "https://steamcdn-a.akamaihd.net/steamcommunity/public/images/apps/212050/d92e7bf18d05918751d5fcb19d3e7283cf32fda5.jpg"
  },
  {
    "name": "DECODER",
    "defaultvalue": 0,
    "displayName": "Decoder ring",
    "hidden": 0,
    "description": "SUPER ACHIEVEMENT: Decode a journal",
    "icon": "https://steamcdn-a.akamaihd.net/steamcommunity/public/images/apps/212050/4fc26257c9a82405537c4e83612b0a01baf82939.jpg",
    "icongray": "https://steamcdn-a.akamaihd.net/steamcommunity/public/images/apps/212050/78b5f436cdd88d59e0cfc11f3abfcbabdf602d01.jpg"
  }
]