﻿[
  {
    "name": "Treasure_hunter",
    "defaultvalue": 0,
    "displayName": "Treasure hunter",
    "hidden": 0,
    "description": "Find 30 treasure!",
    "icon": "https://steamcdn-a.akamaihd.net/steamcommunity/public/images/apps/503480/8e8ae0ff14bd933d56b2900989e452a7fa738655.jpg",
    "icongray": "https://steamcdn-a.akamaihd.net/steamcommunity/public/images/apps/503480/e39487717dc32819fef1a14fee5ee397db82cd81.jpg"
  },
  {
    "name": "boss_fighter",
    "defaultvalue": 0,
    "displayName": "Nightmare of the bosses",
    "hidden": 0,
    "description": "Kill the bosses very fast",
    "icon": "https://steamcdn-a.akamaihd.net/steamcommunity/public/images/apps/503480/106a7e3ee0852724846f0c90ccf0a9ad67349f1b.jpg",
    "icongray": "https://steamcdn-a.akamaihd.net/steamcommunity/public/images/apps/503480/106a7e3ee0852724846f0c90ccf0a9ad67349f1b.jpg"
  },
  {
    "name": "iki_level",
    "defaultvalue": 0,
    "displayName": "First two levels complete!",
    "hidden": 0,
    "description": "First two level complete",
    "icon": "https://steamcdn-a.akamaihd.net/steamcommunity/public/images/apps/503480/3d2fbc7cf73af5603cd1be52a3cfa99e7b5db301.jpg",
    "icongray": "https://steamcdn-a.akamaihd.net/steamcommunity/public/images/apps/503480/3d2fbc7cf73af5603cd1be52a3cfa99e7b5db301.jpg"
  },
  {
    "name": "dort_level",
    "defaultvalue": 0,
    "displayName": "Four level complete!",
    "hidden": 0,
    "description": "Four level complete",
    "icon": "https://steamcdn-a.akamaihd.net/steamcommunity/public/images/apps/503480/8717009bd03c3db533965eb99e37c9c0ee034b55.jpg",
    "icongray": "https://steamcdn-a.akamaihd.net/steamcommunity/public/images/apps/503480/8717009bd03c3db533965eb99e37c9c0ee034b55.jpg"
  },
  {
    "name": "oyunbitti",
    "defaultvalue": 0,
    "displayName": "Game complete!",
    "hidden": 0,
    "description": "All levels finished",
    "icon": "https://steamcdn-a.akamaihd.net/steamcommunity/public/images/apps/503480/17240443f4a40bf647683e12b837824106a000c6.jpg",
    "icongray": "https://steamcdn-a.akamaihd.net/steamcommunity/public/images/apps/503480/17240443f4a40bf647683e12b837824106a000c6.jpg"
  },
  {
    "name": "Jump",
    "defaultvalue": 0,
    "displayName": "First double jump",
    "hidden": 0,
    "description": "First double jump",
    "icon": "https://steamcdn-a.akamaihd.net/steamcommunity/public/images/apps/503480/f4a719577a843b4bb7f77344db995f86f559ca1f.jpg",
    "icongray": "https://steamcdn-a.akamaihd.net/steamcommunity/public/images/apps/503480/f4a719577a843b4bb7f77344db995f86f559ca1f.jpg"
  },
  {
    "name": "six",
    "defaultvalue": 0,
    "displayName": "Six level completed",
    "hidden": 0,
    "description": "Six level completed",
    "icon": "https://steamcdn-a.akamaihd.net/steamcommunity/public/images/apps/503480/a62645a12e3cb23f6a794060a542e79f36b05337.jpg",
    "icongray": "https://steamcdn-a.akamaihd.net/steamcommunity/public/images/apps/503480/a62645a12e3cb23f6a794060a542e79f36b05337.jpg"
  },
  {
    "name": "sekiz",
    "defaultvalue": 0,
    "displayName": "Eight  level completed",
    "hidden": 0,
    "description": "Eight evel completed",
    "icon": "https://steamcdn-a.akamaihd.net/steamcommunity/public/images/apps/503480/b446b34c3ebdf58d6e75ac3f245abe4e3c80e606.jpg",
    "icongray": "https://steamcdn-a.akamaihd.net/steamcommunity/public/images/apps/503480/b446b34c3ebdf58d6e75ac3f245abe4e3c80e606.jpg"
  },
  {
    "name": "on",
    "defaultvalue": 0,
    "displayName": "Ten level completed",
    "hidden": 0,
    "description": "Ten level completed",
    "icon": "https://steamcdn-a.akamaihd.net/steamcommunity/public/images/apps/503480/b6d2a1ad56ceaf144db481a6110fd2330458274b.jpg",
    "icongray": "https://steamcdn-a.akamaihd.net/steamcommunity/public/images/apps/503480/b6d2a1ad56ceaf144db481a6110fd2330458274b.jpg"
  },
  {
    "name": "swamp",
    "defaultvalue": 0,
    "displayName": "Swamp guardian",
    "hidden": 0,
    "description": "Complete swamp guardian mission",
    "icon": "https://steamcdn-a.akamaihd.net/steamcommunity/public/images/apps/503480/b88489c36459898d1bbc3ae08e9e3e7c3911fb4a.jpg",
    "icongray": "https://steamcdn-a.akamaihd.net/steamcommunity/public/images/apps/503480/b88489c36459898d1bbc3ae08e9e3e7c3911fb4a.jpg"
  }
]