﻿{
  "Dlcs": {},
  "Name": "Terminal Hacker",
  "AppId": "547010",
  "ImageUrl": "https://steamcdn-a.akamaihd.net/steam/apps/547010/header.jpg?t=1596215096",
  "Languages": [
    "english"
  ],
  "Platforms": {
    "windows": true,
    "mac": true,
    "linux": true
  }
}