﻿{
  "Dlcs": {
    "435340": {
      "Name": "Suits: A Business Soundtrack",
      "ImageUrl": "https://steamcdn-a.akamaihd.net/steam/apps/435340/header.jpg?t=1479230827"
    }
  },
  "Name": "Suits: A Business RPG",
  "AppId": "410670",
  "ImageUrl": "https://steamcdn-a.akamaihd.net/steam/apps/410670/header.jpg?t=1568758850",
  "Languages": [
    "english"
  ],
  "Platforms": {
    "windows": true,
    "mac": true,
    "linux": true
  }
}