﻿{
  "Dlcs": {},
  "Name": "Mad Bullets",
  "AppId": "452860",
  "ImageUrl": "https://steamcdn-a.akamaihd.net/steam/apps/452860/header.jpg?t=1478250686",
  "Languages": [
    "english"
  ],
  "Platforms": {
    "windows": true,
    "mac": false,
    "linux": false
  }
}