﻿{
  "Dlcs": {},
  "Name": "Overclocked: The Aclockalypse",
  "AppId": "827220",
  "ImageUrl": "https://steamcdn-a.akamaihd.net/steam/apps/827220/header.jpg?t=1524808826",
  "Languages": [
    "english"
  ],
  "Platforms": {
    "windows": true,
    "mac": true,
    "linux": false
  }
}