﻿[
  {
    "name": "ACH_Beat_Metronorman",
    "defaultvalue": 0,
    "displayName": "Final Rest",
    "hidden": 0,
    "description": "Defeat Metronorman",
    "icon": "https://steamcdn-a.akamaihd.net/steamcommunity/public/images/apps/827220/b946264aecc723d01982bc3c9059f12095d37190.jpg",
    "icongray": "https://steamcdn-a.akamaihd.net/steamcommunity/public/images/apps/827220/3353ff234dff9ef13b6a5316321dad492a81ca2f.jpg"
  },
  {
    "name": "ACH_Beat_Clockface",
    "defaultvalue": 0,
    "displayName": "On the Clock",
    "hidden": 0,
    "description": "Survive the Clockface Battle",
    "icon": "https://steamcdn-a.akamaihd.net/steamcommunity/public/images/apps/827220/aee07a51af4f087b36d2f3b3f74f011d5898b33a.jpg",
    "icongray": "https://steamcdn-a.akamaihd.net/steamcommunity/public/images/apps/827220/6e0d407928cd3a87ed5235227114edd255e930d1.jpg"
  },
  {
    "name": "ACH_Beat_Hunterclock",
    "defaultvalue": 0,
    "displayName": "Killing Time",
    "hidden": 0,
    "description": "Defeat the Hunter Clock",
    "icon": "https://steamcdn-a.akamaihd.net/steamcommunity/public/images/apps/827220/1f1e2cef810a01bbab9f754b8e7bb79694faf1d5.jpg",
    "icongray": "https://steamcdn-a.akamaihd.net/steamcommunity/public/images/apps/827220/d1243bb46b9faf63eb6c2176133a57c7db12ed71.jpg"
  },
  {
    "name": "ACH_Beat_Greenwich",
    "defaultvalue": 0,
    "displayName": "Mean Time",
    "hidden": 0,
    "description": "Defeat Greenwich",
    "icon": "https://steamcdn-a.akamaihd.net/steamcommunity/public/images/apps/827220/f1f99301fdef94c3e8fb19fb956ac5fb6f047b02.jpg",
    "icongray": "https://steamcdn-a.akamaihd.net/steamcommunity/public/images/apps/827220/46dcc50dd4f83d8f9577024a51fc64e421d9e04f.jpg"
  }
]