﻿[
  {
    "name": "ach_notgtav_unlockdaffyd",
    "defaultvalue": 0,
    "displayName": "Cael Oddi Fy Tir",
    "hidden": 0,
    "description": "Play as Daffyd for the first time.",
    "icon": "https://steamcdn-a.akamaihd.net/steamcommunity/public/images/apps/369580/37be429afc5da6a0b45e29ae5f61faa5cace5a3d.jpg",
    "icongray": "https://steamcdn-a.akamaihd.net/steamcommunity/public/images/apps/369580/08ad058cd5eab9df7c4dbd2303c96be8911854ad.jpg"
  },
  {
    "name": "ach_notgtav_frombehind",
    "defaultvalue": 0,
    "displayName": "Taking it From Behind",
    "hidden": 0,
    "description": "Hit the Shagging Campers from the top.",
    "icon": "https://steamcdn-a.akamaihd.net/steamcommunity/public/images/apps/369580/8b2944aac0c7729b3e6b88c9ec2b0f6304904f57.jpg",
    "icongray": "https://steamcdn-a.akamaihd.net/steamcommunity/public/images/apps/369580/199969cf9e80d2154d277f5aff08e138711bc3e0.jpg"
  },
  {
    "name": "ach_notgtav_lakewithbody",
    "defaultvalue": 0,
    "displayName": "The Ex-Wife",
    "hidden": 0,
    "description": "Crash into the lake when the body is floating.",
    "icon": "https://steamcdn-a.akamaihd.net/steamcommunity/public/images/apps/369580/dbb77efc2d4ad28d9944701310c41a1c82e82dcf.jpg",
    "icongray": "https://steamcdn-a.akamaihd.net/steamcommunity/public/images/apps/369580/1e989367af52c86d4f5c7fb8f8bbd218ca2ff11c.jpg"
  },
  {
    "name": "ach_notgtav_harvesterkill",
    "defaultvalue": 0,
    "displayName": "Something from the Salad Bar",
    "hidden": 0,
    "description": "Get sliced by the harvester.",
    "icon": "https://steamcdn-a.akamaihd.net/steamcommunity/public/images/apps/369580/e84edf8627d5bebb021e2e8dd459e2e72a6a710f.jpg",
    "icongray": "https://steamcdn-a.akamaihd.net/steamcommunity/public/images/apps/369580/a7afed25d77b834129dfcf605768cf643d8840c5.jpg"
  },
  {
    "name": "ach_notgtav_completewales",
    "defaultvalue": 0,
    "displayName": "Comm Plete Wy Als Lev Al",
    "hidden": 0,
    "description": "Complete Wales.",
    "icon": "https://steamcdn-a.akamaihd.net/steamcommunity/public/images/apps/369580/6f6fe1548c6f3e0593f33c0c6f084f81aa1ff4df.jpg",
    "icongray": "https://steamcdn-a.akamaihd.net/steamcommunity/public/images/apps/369580/85c83ea570ddc71a75e7b88083aad202721c2bef.jpg"
  },
  {
    "name": "ach_notgtav_nosoap",
    "defaultvalue": 0,
    "displayName": "Prison Rules Apply",
    "hidden": 0,
    "description": "Kill all the campers before picking up the soap.",
    "icon": "https://steamcdn-a.akamaihd.net/steamcommunity/public/images/apps/369580/2cba5e8e54a83c7ff31f5e1462d596b845e88732.jpg",
    "icongray": "https://steamcdn-a.akamaihd.net/steamcommunity/public/images/apps/369580/4a1aba19d1f1768deb4f5c9fb17ee09044381fca.jpg"
  },
  {
    "name": "ach_notgtav_unlockdarren",
    "defaultvalue": 0,
    "displayName": "wot u lookin at",
    "hidden": 0,
    "description": "Play as Darren for the first time.",
    "icon": "https://steamcdn-a.akamaihd.net/steamcommunity/public/images/apps/369580/6b6226c3c43cd897870a385c5bddc5c5fc2fa0ae.jpg",
    "icongray": "https://steamcdn-a.akamaihd.net/steamcommunity/public/images/apps/369580/738dc4ddee5c9b930a72323accbf3880daacb001.jpg"
  },
  {
    "name": "ach_notgtav_kenneth",
    "defaultvalue": 0,
    "displayName": "Hello, my name is Kenneth.",
    "hidden": 0,
    "description": "Met Kenneth, the manager of Lidl, Swidon!",
    "icon": "https://steamcdn-a.akamaihd.net/steamcommunity/public/images/apps/369580/ac8fc3f3957726baa758b985fe3d5b2c221ce93f.jpg",
    "icongray": "https://steamcdn-a.akamaihd.net/steamcommunity/public/images/apps/369580/72a8b175038dcc8e8fcca5faf3e9fc522467269e.jpg"
  },
  {
    "name": "ach_notgtav_spudrap",
    "defaultvalue": 0,
    "displayName": "Spud-U-Like",
    "hidden": 0,
    "description": "Listen to entire rap.",
    "icon": "https://steamcdn-a.akamaihd.net/steamcommunity/public/images/apps/369580/844e474ff8cf314f1094fb5e3b1864fd69b376e8.jpg",
    "icongray": "https://steamcdn-a.akamaihd.net/steamcommunity/public/images/apps/369580/25392a1fdea21815c6af325d48ba667a36dfc8e5.jpg"
  },
  {
    "name": "ach_notgtav_destroy",
    "defaultvalue": 0,
    "displayName": "Mindless Destruction",
    "hidden": 0,
    "description": "Destroy all the scenery in the Lidl Car Park.",
    "icon": "https://steamcdn-a.akamaihd.net/steamcommunity/public/images/apps/369580/5fd224f1352f3a214a9fc69cd0e1e865b0dd147d.jpg",
    "icongray": "https://steamcdn-a.akamaihd.net/steamcommunity/public/images/apps/369580/5af7d9d339684aca8cbbd6a0e52735b74aaabb0a.jpg"
  },
  {
    "name": "ach_notgtav_completeswindon",
    "defaultvalue": 0,
    "displayName": "Big Deal",
    "hidden": 0,
    "description": "Complete Swindon.",
    "icon": "https://steamcdn-a.akamaihd.net/steamcommunity/public/images/apps/369580/10cb29c25e0a1d0ef5b4856397711f556b24eaec.jpg",
    "icongray": "https://steamcdn-a.akamaihd.net/steamcommunity/public/images/apps/369580/c3b64d05beac2cf7591ac7065de66b94cc25b024.jpg"
  },
  {
    "name": "ach_notgtav_safe",
    "defaultvalue": 0,
    "displayName": "A Flaw in the System",
    "hidden": 0,
    "description": "Learn the Lidl safe combination.",
    "icon": "https://steamcdn-a.akamaihd.net/steamcommunity/public/images/apps/369580/4427d7285b05f7aba949b9eae876c455362a9d42.jpg",
    "icongray": "https://steamcdn-a.akamaihd.net/steamcommunity/public/images/apps/369580/a115bbd47fe480c5543a01b292300d20aeb9e2c5.jpg"
  },
  {
    "name": "ach_notgtav_unlockdavid",
    "defaultvalue": 0,
    "displayName": "Tally Ho!",
    "hidden": 0,
    "description": "Play as David for the first time.",
    "icon": "https://steamcdn-a.akamaihd.net/steamcommunity/public/images/apps/369580/8c5cebacf22eb30d014d3818bc5762362a103e62.jpg",
    "icongray": "https://steamcdn-a.akamaihd.net/steamcommunity/public/images/apps/369580/568581135b8374f0adca5e60d720d0dda31dc10c.jpg"
  },
  {
    "name": "ach_notgtav_killdavid",
    "defaultvalue": 0,
    "displayName": "Once For Each Year",
    "hidden": 0,
    "description": "Die as David Cameron 5 times in the same game.",
    "icon": "https://steamcdn-a.akamaihd.net/steamcommunity/public/images/apps/369580/fabf7d2aba3431334138267720ccd1b354d3337c.jpg",
    "icongray": "https://steamcdn-a.akamaihd.net/steamcommunity/public/images/apps/369580/0a28ae00296c25e58ffbdea6a3dfdfe79918e6b8.jpg"
  },
  {
    "name": "ach_notgtav_killdavidagain",
    "defaultvalue": 0,
    "displayName": "ReElection Special",
    "hidden": 0,
    "description": "Dies as David Cameron another 5 times in the same game.",
    "icon": "https://steamcdn-a.akamaihd.net/steamcommunity/public/images/apps/369580/36af540ad8fdb525b8f22a75533c00a9a2bfee16.jpg",
    "icongray": "https://steamcdn-a.akamaihd.net/steamcommunity/public/images/apps/369580/f429d6fba647ab9f57985cb9b415ff75b173e195.jpg"
  },
  {
    "name": "ach_notgtav_bigben",
    "defaultvalue": 0,
    "displayName": "Total Clock Up",
    "hidden": 0,
    "description": "Crash into Big Ben while it is chiming.",
    "icon": "https://steamcdn-a.akamaihd.net/steamcommunity/public/images/apps/369580/ffe44f842fe7c23f7fa68271e8aa0421a1b16717.jpg",
    "icongray": "https://steamcdn-a.akamaihd.net/steamcommunity/public/images/apps/369580/9198e49df04d9b886b6e6b82fc2bace91622408d.jpg"
  },
  {
    "name": "ach_notgtav_londoneye",
    "defaultvalue": 0,
    "displayName": "Turn an Eye Blind",
    "hidden": 0,
    "description": "Crash into the London Eye while it is spinning fast.",
    "icon": "https://steamcdn-a.akamaihd.net/steamcommunity/public/images/apps/369580/fab2bc423c86c314931b6dba6a4864a305e62cbd.jpg",
    "icongray": "https://steamcdn-a.akamaihd.net/steamcommunity/public/images/apps/369580/1c4aeb228a2fe807fcfe7d829a8ebb4906d29973.jpg"
  },
  {
    "name": "ach_notgtav_thames",
    "defaultvalue": 0,
    "displayName": "Thamesting Fate",
    "hidden": 0,
    "description": "Cross the Thames 50 times without crashing.",
    "icon": "https://steamcdn-a.akamaihd.net/steamcommunity/public/images/apps/369580/17cc13b8384d7db6261ddb0c0e57f1474b0e4529.jpg",
    "icongray": "https://steamcdn-a.akamaihd.net/steamcommunity/public/images/apps/369580/dc8045db57eb8c55c11b8c86acb0d49f96612520.jpg"
  },
  {
    "name": "ach_notgtav_completegame",
    "defaultvalue": 0,
    "displayName": "Great Traffic Adventure",
    "hidden": 0,
    "description": "Complete the Game.",
    "icon": "https://steamcdn-a.akamaihd.net/steamcommunity/public/images/apps/369580/bbcde31394500b72d79ad48314a20e5ac9c15840.jpg",
    "icongray": "https://steamcdn-a.akamaihd.net/steamcommunity/public/images/apps/369580/c7badfdd9c702d6a0b097135c35e287baaaf0fd3.jpg"
  },
  {
    "name": "ach_notgtav_jimmycarr",
    "defaultvalue": 0,
    "displayName": "Jimmy Carr's Accountant",
    "hidden": 0,
    "description": "Get caught with only one piece of evidence left to destroy.",
    "icon": "https://steamcdn-a.akamaihd.net/steamcommunity/public/images/apps/369580/bbb7928c5c6fb54a4b2dba84fc2ccfb9279b703d.jpg",
    "icongray": "https://steamcdn-a.akamaihd.net/steamcommunity/public/images/apps/369580/60dc82c1d7d1fce9ca5329c66622b7c4abaa808a.jpg"
  },
  {
    "name": "ach_notgtav_paintings",
    "defaultvalue": 0,
    "displayName": "Who Are These Guys!?",
    "hidden": 0,
    "description": "In the London Heist crash into any four of the portaits on the walls.",
    "icon": "https://steamcdn-a.akamaihd.net/steamcommunity/public/images/apps/369580/c34791dede43ced4bfde619c4d452730683860e1.jpg",
    "icongray": "https://steamcdn-a.akamaihd.net/steamcommunity/public/images/apps/369580/e53c4253c85f4fcefa70ec020130d1db825badef.jpg"
  },
  {
    "name": "ach_notgtav_splat",
    "defaultvalue": 0,
    "displayName": "Splat the Rat",
    "hidden": 0,
    "description": "You splat the rat.",
    "icon": "https://steamcdn-a.akamaihd.net/steamcommunity/public/images/apps/369580/c0a3e9f0c5dbe6cd118ac04fc647ffd836da393d.jpg",
    "icongray": "https://steamcdn-a.akamaihd.net/steamcommunity/public/images/apps/369580/54f812b019f6645ae7775773ac52ad51b4ebfa25.jpg"
  },
  {
    "name": "ach_notgtav_left",
    "defaultvalue": 0,
    "displayName": "Communist Leanings.",
    "hidden": 0,
    "description": "Make 100 consecutive left turns in SuperSnake.",
    "icon": "https://steamcdn-a.akamaihd.net/steamcommunity/public/images/apps/369580/38e5b0e009163612e65013ad5259243cc56a86b4.jpg",
    "icongray": "https://steamcdn-a.akamaihd.net/steamcommunity/public/images/apps/369580/e3e6c6c203200e5c3dd6d6a372a08ab65af98043.jpg"
  },
  {
    "name": "ach_notgtav_credits",
    "defaultvalue": 0,
    "displayName": "Know Your Enemy",
    "hidden": 0,
    "description": "Complete the tour of the M4 corridor.",
    "icon": "https://steamcdn-a.akamaihd.net/steamcommunity/public/images/apps/369580/970c3d03867eb78d99ddcc19fface34fb43e25cd.jpg",
    "icongray": "https://steamcdn-a.akamaihd.net/steamcommunity/public/images/apps/369580/b21caa684b31cea67e2fd037da5627824edec243.jpg"
  },
  {
    "name": "ach_notgtav_radio",
    "defaultvalue": 0,
    "displayName": "GaGa",
    "hidden": 0,
    "description": "Listen to all the radio stations.",
    "icon": "https://steamcdn-a.akamaihd.net/steamcommunity/public/images/apps/369580/7a3fc9a74ea1fd1b82a2dd2e080eea72d272c50b.jpg",
    "icongray": "https://steamcdn-a.akamaihd.net/steamcommunity/public/images/apps/369580/7c83e5d67cbc76ad78a2c2fff1a2be9a4db67d04.jpg"
  },
  {
    "name": "ach_notgtav_paradox",
    "defaultvalue": 0,
    "displayName": "Paradox",
    "hidden": 0,
    "description": "If... If we could somehow... harness this lightning... channel it... into the flux capacitor... it just might work",
    "icon": "https://steamcdn-a.akamaihd.net/steamcommunity/public/images/apps/369580/6599620825ee43f5926db121140c335c5119ac88.jpg",
    "icongray": "https://steamcdn-a.akamaihd.net/steamcommunity/public/images/apps/369580/0ed3303dfa709aff693080b6fa2f15e2fa087521.jpg"
  },
  {
    "name": "ach_notgtav_options",
    "defaultvalue": 0,
    "displayName": "Twiddling the Bits",
    "hidden": 0,
    "description": "Visit the options screen.",
    "icon": "https://steamcdn-a.akamaihd.net/steamcommunity/public/images/apps/369580/38cf198055ef02fcacfd3332c5ff9f3d0f4b251a.jpg",
    "icongray": "https://steamcdn-a.akamaihd.net/steamcommunity/public/images/apps/369580/cd72fcf4dd580c0df734a29f9cb31fffe86c0916.jpg"
  },
  {
    "name": "ach_notgtav_darksouls",
    "defaultvalue": 0,
    "displayName": "Beyond the Possible",
    "hidden": 0,
    "description": "Complete any level and its heist on Dark Souls mode.",
    "icon": "https://steamcdn-a.akamaihd.net/steamcommunity/public/images/apps/369580/dc8ec7f180f4fe47d7d42eaf039c64e73d7b18d1.jpg",
    "icongray": "https://steamcdn-a.akamaihd.net/steamcommunity/public/images/apps/369580/cd852edad0c44497c98e09067461dcec915b6c67.jpg"
  },
  {
    "name": "ach_notgtav_nodeaths",
    "defaultvalue": 0,
    "displayName": "Practice Makes Perfect",
    "hidden": 0,
    "description": "Complete London without dying.",
    "icon": "https://steamcdn-a.akamaihd.net/steamcommunity/public/images/apps/369580/c4999bcfd38f2233b1cad4234e519dbe2b8f09ca.jpg",
    "icongray": "https://steamcdn-a.akamaihd.net/steamcommunity/public/images/apps/369580/dc6ccc5cd884e6cf88e2adfd90a20235dcf7b54f.jpg"
  },
  {
    "name": "ach_notgtav_filegrab1",
    "defaultvalue": 0,
    "displayName": "Search and Destroy",
    "hidden": 0,
    "description": "Destroy the first piece of evidence.",
    "icon": "https://steamcdn-a.akamaihd.net/steamcommunity/public/images/apps/369580/8b1181528d3256f61b1a1ae6d7379edf202ba2a4.jpg",
    "icongray": "https://steamcdn-a.akamaihd.net/steamcommunity/public/images/apps/369580/c79bc96f53e2f929dc40165c7e8e4ee2b603779d.jpg"
  },
  {
    "name": "ach_notgtav_filegrab2",
    "defaultvalue": 0,
    "displayName": "Seek and Eliminate",
    "hidden": 0,
    "description": "Destroy the second piece of evidence.",
    "icon": "https://steamcdn-a.akamaihd.net/steamcommunity/public/images/apps/369580/f81796924ae92d2621e2e086732e8985fff45d52.jpg",
    "icongray": "https://steamcdn-a.akamaihd.net/steamcommunity/public/images/apps/369580/d5e5c17d99da34a97d3619a763a5fed3f2041707.jpg"
  },
  {
    "name": "ach_notgtav_filegrab3",
    "defaultvalue": 0,
    "displayName": "Hunt and Kill",
    "hidden": 0,
    "description": "Destroy the third piece of evidence.",
    "icon": "https://steamcdn-a.akamaihd.net/steamcommunity/public/images/apps/369580/50fa93f959b84742f52442705ac0b3cdff957db0.jpg",
    "icongray": "https://steamcdn-a.akamaihd.net/steamcommunity/public/images/apps/369580/d3637534cd3f877be5f06454568bc3f99e875423.jpg"
  },
  {
    "name": "ach_notgtav_filegrab4",
    "defaultvalue": 0,
    "displayName": "Uncover and Cover Up",
    "hidden": 0,
    "description": "Destroy the fourth piece of evidence.",
    "icon": "https://steamcdn-a.akamaihd.net/steamcommunity/public/images/apps/369580/02fe18694d5e1cd2bc95140b6ab78847be1b6ebd.jpg",
    "icongray": "https://steamcdn-a.akamaihd.net/steamcommunity/public/images/apps/369580/48c7f7670ecb478c39d65635b256c6e8bb446b20.jpg"
  },
  {
    "name": "ach_notgtav_filegrab5",
    "defaultvalue": 0,
    "displayName": "Locate and Ruin",
    "hidden": 0,
    "description": "Destroy the fifth piece of evidence.",
    "icon": "https://steamcdn-a.akamaihd.net/steamcommunity/public/images/apps/369580/0046283646f5c3d66fd6cd0fcb32a4ec23056d0f.jpg",
    "icongray": "https://steamcdn-a.akamaihd.net/steamcommunity/public/images/apps/369580/674b2f0c244b8323d6a2552c2391f00ef7be1745.jpg"
  },
  {
    "name": "ach_notgtav_filegrab6",
    "defaultvalue": 0,
    "displayName": "Find and F*** Up",
    "hidden": 0,
    "description": "Destroy the sixth piece of evidence.",
    "icon": "https://steamcdn-a.akamaihd.net/steamcommunity/public/images/apps/369580/a6b75c1d05438d8fe35fa43ff55cb4ad228d7dde.jpg",
    "icongray": "https://steamcdn-a.akamaihd.net/steamcommunity/public/images/apps/369580/92bb58e99503a7a0f9d1aa70b9883913240742b6.jpg"
  },
  {
    "name": "ach_notgtav_filegrab12",
    "defaultvalue": 0,
    "displayName": "Sorry, Went For a Cuppa",
    "hidden": 0,
    "description": "Destroy the... fourteenth piece of evidence?",
    "icon": "https://steamcdn-a.akamaihd.net/steamcommunity/public/images/apps/369580/2e38e2a190c5d0baed8172bb317c8506257f16c4.jpg",
    "icongray": "https://steamcdn-a.akamaihd.net/steamcommunity/public/images/apps/369580/590416d2fe9b6361e4124040d242f7ed86ef95f3.jpg"
  },
  {
    "name": "ach_notgtav_filegrab13",
    "defaultvalue": 0,
    "displayName": "Now Then, Where Were We?",
    "hidden": 0,
    "description": "Destroy the fourteenth piece of evidence.",
    "icon": "https://steamcdn-a.akamaihd.net/steamcommunity/public/images/apps/369580/fcf90bc8a59f0f52dcc0a699d0fd653b0fc012f8.jpg",
    "icongray": "https://steamcdn-a.akamaihd.net/steamcommunity/public/images/apps/369580/89118b08236ab46669b214f9cd867eb6bac7db1c.jpg"
  },
  {
    "name": "ach_notgtav_filegrab14",
    "defaultvalue": 0,
    "displayName": "That Can't Be Right",
    "hidden": 0,
    "description": "Definitely destroy the fourteenth piece of evidence.",
    "icon": "https://steamcdn-a.akamaihd.net/steamcommunity/public/images/apps/369580/ccaa00c4b1ab41713679bb7e9d4704c664fbdd36.jpg",
    "icongray": "https://steamcdn-a.akamaihd.net/steamcommunity/public/images/apps/369580/200052bccd1d03bc3976fa906bd4c789d87d1814.jpg"
  },
  {
    "name": "ach_notgtav_filegrab15",
    "defaultvalue": 0,
    "displayName": "Oh I Give Up",
    "hidden": 0,
    "description": "All this counting is boring.",
    "icon": "https://steamcdn-a.akamaihd.net/steamcommunity/public/images/apps/369580/738d3f16bf798afe791c1e8d34a537475d4ca669.jpg",
    "icongray": "https://steamcdn-a.akamaihd.net/steamcommunity/public/images/apps/369580/2ce529fd94c9145370a0bad8d4429f04a6ffc242.jpg"
  }
]