﻿{
  "Dlcs": {
    "675400": {
      "Name": "Spaceship Looter - Soundtrack",
      "ImageUrl": "https://steamcdn-a.akamaihd.net/steam/apps/675400/header.jpg?t=1499745022"
    }
  },
  "Name": "Spaceship Looter",
  "AppId": "600630",
  "ImageUrl": "https://steamcdn-a.akamaihd.net/steam/apps/600630/header.jpg?t=1570513391",
  "Languages": [
    "english",
    "russian",
    "portuguese",
    "ukrainian",
    "schinese",
    "polish",
    "french"
  ],
  "Platforms": {
    "windows": true,
    "mac": false,
    "linux": false
  }
}