﻿[
  {
    "name": "stat_richman",
    "defaultvalue": 0,
    "displayName": "Rich man"
  },
  {
    "name": "stat_fireball",
    "defaultvalue": 0,
    "displayName": "Fireball"
  },
  {
    "name": "stat_lampdie",
    "defaultvalue": 0,
    "displayName": "Lamp die"
  },
  {
    "name": "stat_acidhell",
    "defaultvalue": 0,
    "displayName": "Acid hell"
  },
  {
    "name": "stat_hakerman",
    "defaultvalue": 0,
    "displayName": "Hakerman"
  },
  {
    "name": "stat_loader",
    "defaultvalue": 0,
    "displayName": "Loader"
  },
  {
    "name": "stat_finder",
    "defaultvalue": 0,
    "displayName": "Finder"
  }
]