﻿{
  "Dlcs": {},
  "Name": "The Valley In My Mind",
  "AppId": "745550",
  "ImageUrl": "https://steamcdn-a.akamaihd.net/steam/apps/745550/header.jpg?t=1559137089",
  "Languages": [
    "english"
  ],
  "Platforms": {
    "windows": true,
    "mac": false,
    "linux": false
  }
}