﻿[
  {
    "name": "humansKilled",
    "defaultvalue": 0,
    "displayName": "People Shot"
  },
  {
    "name": "brotherShotYou",
    "defaultvalue": 0,
    "displayName": "Brother Shot You"
  },
  {
    "name": "chickensKilled",
    "defaultvalue": 0,
    "displayName": "Chickens killed"
  },
  {
    "name": "uncleShot",
    "defaultvalue": 0,
    "displayName": "Uncle Shot"
  },
  {
    "name": "lizardsShot",
    "defaultvalue": 0,
    "displayName": "Lizards Shot"
  },
  {
    "name": "sheriffShot",
    "defaultvalue": 0,
    "displayName": "Sheriff Shot"
  },
  {
    "name": "buffaloShot",
    "defaultvalue": 0,
    "displayName": "Buffalo Shot"
  },
  {
    "name": "bottleShot",
    "defaultvalue": 0,
    "displayName": "Bottle Shot"
  },
  {
    "name": "hatShotsInARow",
    "defaultvalue": 0,
    "displayName": "Hat Shots"
  },
  {
    "name": "charsUnlocked",
    "defaultvalue": 0,
    "displayName": "Chars Unlocked"
  },
  {
    "name": "outfitChanged",
    "defaultvalue": 0,
    "displayName": "Outfit Changed"
  },
  {
    "name": "nohitBeat",
    "defaultvalue": 0,
    "displayName": "No Hits Beat"
  },
  {
    "name": "pacifistBeat",
    "defaultvalue": 0,
    "displayName": "Pacifist Beat"
  },
  {
    "name": "fastBeat",
    "defaultvalue": 0,
    "displayName": "Fast Beat"
  },
  {
    "name": "slingerBeat",
    "defaultvalue": 0,
    "displayName": "Slinger Beat"
  },
  {
    "name": "brotherBeat",
    "defaultvalue": 0,
    "displayName": "Brother Beat"
  },
  {
    "name": "sisterBeat",
    "defaultvalue": 0,
    "displayName": "Sister Beat"
  },
  {
    "name": "indianBeat",
    "defaultvalue": 0,
    "displayName": "Indian Beat"
  },
  {
    "name": "mapSploration",
    "defaultvalue": 0,
    "displayName": "Map Exploration"
  },
  {
    "name": "cluesPercentage",
    "defaultvalue": 0,
    "displayName": "Clues Percentage"
  },
  {
    "name": "talk",
    "defaultvalue": 0,
    "displayName": "Talking Done"
  },
  {
    "name": "intimidate",
    "defaultvalue": 0,
    "displayName": "Guns Pulled"
  },
  {
    "name": "bankMoney",
    "defaultvalue": 0,
    "displayName": "Bank Money"
  },
  {
    "name": "pokerWins",
    "defaultvalue": 0,
    "displayName": "Poker Wins"
  },
  {
    "name": "pokerLosses",
    "defaultvalue": 0,
    "displayName": "Poker Losses"
  },
  {
    "name": "wantedCompleted",
    "defaultvalue": 0,
    "displayName": "Wanted Completed"
  },
  {
    "name": "Hats_Unlocked",
    "defaultvalue": 0,
    "displayName": "Hats Unlocked"
  },
  {
    "name": "Weapons_Unlocked",
    "defaultvalue": 0,
    "displayName": "Weapons Unlocked"
  },
  {
    "name": "RancherBob_DoucheDone",
    "defaultvalue": 0,
    "displayName": "Bob Bad"
  },
  {
    "name": "RancherBob_GoodDone",
    "defaultvalue": 0,
    "displayName": "Bob Good"
  },
  {
    "name": "Sheriff_Achievement",
    "defaultvalue": 0,
    "displayName": "Sheriff 3"
  },
  {
    "name": "Big_Star_Kills",
    "defaultvalue": 0,
    "displayName": "Big Star Kills"
  },
  {
    "name": "dew",
    "defaultvalue": 0,
    "displayName": "Dew Drunk"
  }
]