﻿[
  {
    "name": "MaximumAdventureLevel",
    "defaultvalue": 0,
    "displayName": "Maximum adventure level completed"
  },
  {
    "name": "AdventureLevelsWithoutPowerUps",
    "defaultvalue": 0,
    "displayName": "Adventure levels completed in a row without using power-ups"
  },
  {
    "name": "RevealedCells",
    "defaultvalue": 0,
    "displayName": "Revealed cells"
  },
  {
    "name": "RevealedBoards",
    "defaultvalue": 0,
    "displayName": "Fully revealed boards"
  },
  {
    "name": "RevealedBoardsClassic",
    "defaultvalue": 0,
    "displayName": "Fully revealed Classic boards"
  },
  {
    "name": "RevealedBoardsNonomino",
    "defaultvalue": 0,
    "displayName": "Fully revealed Nonomino boards"
  },
  {
    "name": "RevealedBoardsOverlapped",
    "defaultvalue": 0,
    "displayName": "Fully revealed Overlapped Classics boards"
  },
  {
    "name": "CollectedGold",
    "defaultvalue": 0,
    "displayName": "Collected gold"
  }
]