﻿[
  {
    "name": "Shell Primal Collector",
    "defaultvalue": 0,
    "displayName": "Collect 1 shell",
    "hidden": 0,
    "description": "Collect 1 shell",
    "icon": "https://steamcdn-a.akamaihd.net/steamcommunity/public/images/apps/400250/912281e055e42d05d4277c6cb2496813d3457090.jpg",
    "icongray": "https://steamcdn-a.akamaihd.net/steamcommunity/public/images/apps/400250/e58dbf985f06681ba4ccfebbb7d08157bf1b7c03.jpg"
  },
  {
    "name": "Shell Great collector",
    "defaultvalue": 0,
    "displayName": "Collect 5 shells",
    "hidden": 0,
    "description": "Collect 5 shells",
    "icon": "https://steamcdn-a.akamaihd.net/steamcommunity/public/images/apps/400250/91355960be4f26a6ab0ee60d8b2f94247e98d158.jpg",
    "icongray": "https://steamcdn-a.akamaihd.net/steamcommunity/public/images/apps/400250/e58dbf985f06681ba4ccfebbb7d08157bf1b7c03.jpg"
  },
  {
    "name": "Shell Zen collector",
    "defaultvalue": 0,
    "displayName": "Collect 15 shells",
    "hidden": 0,
    "description": "Collect 15 shells",
    "icon": "https://steamcdn-a.akamaihd.net/steamcommunity/public/images/apps/400250/82dd6700038cf5d38622fb4f0cd432ace31ff657.jpg",
    "icongray": "https://steamcdn-a.akamaihd.net/steamcommunity/public/images/apps/400250/e58dbf985f06681ba4ccfebbb7d08157bf1b7c03.jpg"
  },
  {
    "name": "Shell Meditation collector",
    "defaultvalue": 0,
    "displayName": "Collect 30 shells",
    "hidden": 0,
    "description": "Collect 30 shells",
    "icon": "https://steamcdn-a.akamaihd.net/steamcommunity/public/images/apps/400250/8c86cc948fa9f04579c609e1422367e60a23fb36.jpg",
    "icongray": "https://steamcdn-a.akamaihd.net/steamcommunity/public/images/apps/400250/e58dbf985f06681ba4ccfebbb7d08157bf1b7c03.jpg"
  },
  {
    "name": "Shell Master collector",
    "defaultvalue": 0,
    "displayName": "Collect 60 shells",
    "hidden": 0,
    "description": "Collect 60 shells",
    "icon": "https://steamcdn-a.akamaihd.net/steamcommunity/public/images/apps/400250/c7a3d9593e6ef5c92d8d8b22618182b7c6474ad2.jpg",
    "icongray": "https://steamcdn-a.akamaihd.net/steamcommunity/public/images/apps/400250/e58dbf985f06681ba4ccfebbb7d08157bf1b7c03.jpg"
  },
  {
    "name": "Shell Master Zen collector",
    "defaultvalue": 0,
    "displayName": "Collect all 70 shells",
    "hidden": 0,
    "description": "Collect all 70 shells",
    "icon": "https://steamcdn-a.akamaihd.net/steamcommunity/public/images/apps/400250/d5dfd67ef955b6520ae8ada9b7566d632f8791dc.jpg",
    "icongray": "https://steamcdn-a.akamaihd.net/steamcommunity/public/images/apps/400250/e58dbf985f06681ba4ccfebbb7d08157bf1b7c03.jpg"
  },
  {
    "name": "Apple Primal collector",
    "defaultvalue": 0,
    "displayName": "Collect 1 apple",
    "hidden": 0,
    "description": "Collect 1 apple",
    "icon": "https://steamcdn-a.akamaihd.net/steamcommunity/public/images/apps/400250/7a0a1dbeb14ab901670df4826c9fdcaebc8919fc.jpg",
    "icongray": "https://steamcdn-a.akamaihd.net/steamcommunity/public/images/apps/400250/0d97a5364ed096b0c3385e9eeb89ca0d943b30c0.jpg"
  },
  {
    "name": "Apple Great collector",
    "defaultvalue": 0,
    "displayName": "Collect 5 apple",
    "hidden": 0,
    "description": "Collect 5 apple",
    "icon": "https://steamcdn-a.akamaihd.net/steamcommunity/public/images/apps/400250/4df3de97def1f1ffcc761a65b58a290b1138d99f.jpg",
    "icongray": "https://steamcdn-a.akamaihd.net/steamcommunity/public/images/apps/400250/0d97a5364ed096b0c3385e9eeb89ca0d943b30c0.jpg"
  },
  {
    "name": "Apple Zen collector",
    "defaultvalue": 0,
    "displayName": "Collect 15 apples",
    "hidden": 0,
    "description": "Collect 15 apples",
    "icon": "https://steamcdn-a.akamaihd.net/steamcommunity/public/images/apps/400250/f614445c910f3a69e128df2c6e0e86adb0ff5f2b.jpg",
    "icongray": "https://steamcdn-a.akamaihd.net/steamcommunity/public/images/apps/400250/0d97a5364ed096b0c3385e9eeb89ca0d943b30c0.jpg"
  },
  {
    "name": "Apple Meditation collector",
    "defaultvalue": 0,
    "displayName": "Collect 30 apples",
    "hidden": 0,
    "description": "Collect 30 apples",
    "icon": "https://steamcdn-a.akamaihd.net/steamcommunity/public/images/apps/400250/6866d9f12e60be10f0ccb9397e2f0ebc9e873c02.jpg",
    "icongray": "https://steamcdn-a.akamaihd.net/steamcommunity/public/images/apps/400250/0d97a5364ed096b0c3385e9eeb89ca0d943b30c0.jpg"
  },
  {
    "name": "Apple Master collector",
    "defaultvalue": 0,
    "displayName": "Collect 60 apples",
    "hidden": 0,
    "description": "Collect 60 apples",
    "icon": "https://steamcdn-a.akamaihd.net/steamcommunity/public/images/apps/400250/e72de8922e15320fcdb6aa1698e5a36f1e90e76b.jpg",
    "icongray": "https://steamcdn-a.akamaihd.net/steamcommunity/public/images/apps/400250/0d97a5364ed096b0c3385e9eeb89ca0d943b30c0.jpg"
  },
  {
    "name": "Apple Master Zen collector",
    "defaultvalue": 0,
    "displayName": "Collect 70 apples",
    "hidden": 0,
    "description": "Collect 70 apples",
    "icon": "https://steamcdn-a.akamaihd.net/steamcommunity/public/images/apps/400250/7dfec2b4bc02a288c4009f13be7644e6bd81d16b.jpg",
    "icongray": "https://steamcdn-a.akamaihd.net/steamcommunity/public/images/apps/400250/0d97a5364ed096b0c3385e9eeb89ca0d943b30c0.jpg"
  }
]