﻿{
  "Dlcs": {},
  "Name": "Mech Anarchy",
  "AppId": "420900",
  "ImageUrl": "https://steamcdn-a.akamaihd.net/steam/apps/420900/header.jpg?t=1527816107",
  "Languages": [
    "english"
  ],
  "Platforms": {
    "windows": true,
    "mac": false,
    "linux": false
  }
}