﻿{
  "Dlcs": {},
  "Name": "Magical Eyes - Red is for Anguish",
  "AppId": "366780",
  "ImageUrl": "https://steamcdn-a.akamaihd.net/steam/apps/366780/header.jpg?t=1597457848",
  "Languages": [
    "english"
  ],
  "Platforms": {
    "windows": true,
    "mac": false,
    "linux": false
  }
}