﻿[
  {
    "name": "exploration_silan_0",
    "defaultvalue": 0,
    "displayName": "Bye Bye Silan! (Test in progress)",
    "hidden": 1,
    "icon": "https://steamcdn-a.akamaihd.net/steamcommunity/public/images/apps/373720/2b07e223ef4bb4ab80434e5bcc18fce82440a423.jpg",
    "icongray": "https://steamcdn-a.akamaihd.net/steamcommunity/public/images/apps/373720/7ca8dfbc5d93c50e7deec3b6bbb0aa4b432b9abf.jpg"
  },
  {
    "name": "exploration_silan_1",
    "defaultvalue": 0,
    "displayName": "Silan (Test in progress)",
    "hidden": 1,
    "icon": "https://steamcdn-a.akamaihd.net/steamcommunity/public/images/apps/373720/3d38d73e6cc502693b8a5cbb8775e4b5d39acfd8.jpg",
    "icongray": "https://steamcdn-a.akamaihd.net/steamcommunity/public/images/apps/373720/d5360e3dc3dc92334943a93b66d347f7a0a876c4.jpg"
  },
  {
    "name": "general_4",
    "defaultvalue": 0,
    "displayName": "Popularity (Test in progress)",
    "hidden": 1,
    "icon": "https://steamcdn-a.akamaihd.net/steamcommunity/public/images/apps/373720/a0146d76fb1cd1713b69d5768f047c8805c8ceb9.jpg",
    "icongray": "https://steamcdn-a.akamaihd.net/steamcommunity/public/images/apps/373720/35e4d9564d06f67f2f6de51841042d1e0f4f2253.jpg"
  }
]