﻿[
  {
    "name": "Welcome to the Mars, buddy",
    "defaultvalue": 0,
    "displayName": "Welcome to the Mars, buddy",
    "hidden": 0,
    "description": "Launch game",
    "icon": "https://steamcdn-a.akamaihd.net/steamcommunity/public/images/apps/773640/59ef99575d4e020775a508a4d76b206c5f488064.jpg",
    "icongray": "https://steamcdn-a.akamaihd.net/steamcommunity/public/images/apps/773640/03300d00ca7216b68fbc7852150eafe59d1789cc.jpg"
  },
  {
    "name": "Mission 1",
    "defaultvalue": 0,
    "displayName": "Mission 1",
    "hidden": 0,
    "description": "Complete mission 1",
    "icon": "https://steamcdn-a.akamaihd.net/steamcommunity/public/images/apps/773640/cad578139a0307063a073fff9a62d97b1252c982.jpg",
    "icongray": "https://steamcdn-a.akamaihd.net/steamcommunity/public/images/apps/773640/03300d00ca7216b68fbc7852150eafe59d1789cc.jpg"
  },
  {
    "name": "Mission 2",
    "defaultvalue": 0,
    "displayName": "Mission 2",
    "hidden": 0,
    "description": "Complete mission 2",
    "icon": "https://steamcdn-a.akamaihd.net/steamcommunity/public/images/apps/773640/78b0cdf46e10cdb904d43a9ff0e50c5db34f3740.jpg",
    "icongray": "https://steamcdn-a.akamaihd.net/steamcommunity/public/images/apps/773640/7ed00cce6b3370e3802e2c905bd92333b2833437.jpg"
  },
  {
    "name": "Mission 3",
    "defaultvalue": 0,
    "displayName": "Mission 3",
    "hidden": 0,
    "description": "Complete mission 3",
    "icon": "https://steamcdn-a.akamaihd.net/steamcommunity/public/images/apps/773640/e66149c31efa56ca01ae98f84c94268a2b08112e.jpg",
    "icongray": "https://steamcdn-a.akamaihd.net/steamcommunity/public/images/apps/773640/03300d00ca7216b68fbc7852150eafe59d1789cc.jpg"
  },
  {
    "name": "Mission 4",
    "defaultvalue": 0,
    "displayName": "Mission 4",
    "hidden": 0,
    "description": "Complete mission 4",
    "icon": "https://steamcdn-a.akamaihd.net/steamcommunity/public/images/apps/773640/1d7321d30316c4fa3fc1ff06833989f64ebf8a68.jpg",
    "icongray": "https://steamcdn-a.akamaihd.net/steamcommunity/public/images/apps/773640/03300d00ca7216b68fbc7852150eafe59d1789cc.jpg"
  },
  {
    "name": "Mission 5",
    "defaultvalue": 0,
    "displayName": "Mission 5",
    "hidden": 0,
    "description": "Complete mission 5",
    "icon": "https://steamcdn-a.akamaihd.net/steamcommunity/public/images/apps/773640/fea187deaa5db138c793829063902f4e05b888d4.jpg",
    "icongray": "https://steamcdn-a.akamaihd.net/steamcommunity/public/images/apps/773640/03300d00ca7216b68fbc7852150eafe59d1789cc.jpg"
  },
  {
    "name": "Campaign",
    "defaultvalue": 0,
    "displayName": "Campaign",
    "hidden": 0,
    "description": "Start the campaign",
    "icon": "https://steamcdn-a.akamaihd.net/steamcommunity/public/images/apps/773640/72ef04c59f4903e02b11998eab4ee2d5d5586498.jpg",
    "icongray": "https://steamcdn-a.akamaihd.net/steamcommunity/public/images/apps/773640/03300d00ca7216b68fbc7852150eafe59d1789cc.jpg"
  },
  {
    "name": "Free mode",
    "defaultvalue": 0,
    "displayName": "Free mode",
    "hidden": 0,
    "description": "Play in Free mode",
    "icon": "https://steamcdn-a.akamaihd.net/steamcommunity/public/images/apps/773640/1fbd7f47a468160d8cb1e7b4968e20e0af23b969.jpg",
    "icongray": "https://steamcdn-a.akamaihd.net/steamcommunity/public/images/apps/773640/03300d00ca7216b68fbc7852150eafe59d1789cc.jpg"
  },
  {
    "name": "God mode",
    "defaultvalue": 0,
    "displayName": "God mode",
    "hidden": 0,
    "description": "Play in God mode",
    "icon": "https://steamcdn-a.akamaihd.net/steamcommunity/public/images/apps/773640/16e9d94c758d71c028cd781a77c4657d5e70c30c.jpg",
    "icongray": "https://steamcdn-a.akamaihd.net/steamcommunity/public/images/apps/773640/03300d00ca7216b68fbc7852150eafe59d1789cc.jpg"
  },
  {
    "name": "Water",
    "defaultvalue": 0,
    "displayName": "Water",
    "hidden": 0,
    "description": "Check credits",
    "icon": "https://steamcdn-a.akamaihd.net/steamcommunity/public/images/apps/773640/88a5307b9caaeca8676b900295cb3ddc2444290a.jpg",
    "icongray": "https://steamcdn-a.akamaihd.net/steamcommunity/public/images/apps/773640/03300d00ca7216b68fbc7852150eafe59d1789cc.jpg"
  }
]