﻿{
  "Dlcs": {
    "400770": {
      "Name": "Solar Shifter EX - Soundtrack",
      "ImageUrl": "https://steamcdn-a.akamaihd.net/steam/apps/400770/header.jpg?t=1478537445"
    }
  },
  "Name": "Solar Shifter EX",
  "AppId": "363940",
  "ImageUrl": "https://steamcdn-a.akamaihd.net/steam/apps/363940/header.jpg?t=1574261145",
  "Languages": [
    "english"
  ],
  "Platforms": {
    "windows": true,
    "mac": true,
    "linux": true
  }
}