﻿{
  "Dlcs": {},
  "Name": "Carmageddon 2: Carpocalypse Now",
  "AppId": "282030",
  "ImageUrl": "https://steamcdn-a.akamaihd.net/steam/apps/282030/header.jpg?t=1588593961",
  "Languages": [
    "english"
  ],
  "Platforms": {
    "windows": true,
    "mac": false,
    "linux": false
  }
}