﻿{
  "Dlcs": {
    "522930": {
      "Name": "Rescue Bear Operation - Bouncy Castle",
      "ImageUrl": "https://steamcdn-a.akamaihd.net/steam/apps/522930/header.jpg?t=1475165175"
    },
    "523580": {
      "Name": "Rescue Bear Operation - Lucha Libre Mask",
      "ImageUrl": "https://steamcdn-a.akamaihd.net/steam/apps/523580/header.jpg?t=1475165250"
    },
    "523581": {
      "Name": "Rescue Bear Operation - Red Plaid Shirt",
      "ImageUrl": "https://steamcdn-a.akamaihd.net/steam/apps/523581/header.jpg?t=1475165559"
    },
    "523582": {
      "Name": "Rescue Bear Operation - Golf Pants",
      "ImageUrl": "https://steamcdn-a.akamaihd.net/steam/apps/523582/header.jpg?t=1475165384"
    },
    "523583": {
      "Name": "Rescue Bear Operation - Gurney",
      "ImageUrl": "https://steamcdn-a.akamaihd.net/steam/apps/523583/header.jpg?t=1475165307"
    },
    "531720": {
      "Name": "Rescue Bear Operation - Moo Bucket",
      "ImageUrl": "https://steamcdn-a.akamaihd.net/steam/apps/531720/header.jpg?t=1475165697"
    }
  },
  "Name": "Rescue Bear Operation",
  "AppId": "513210",
  "ImageUrl": "https://steamcdn-a.akamaihd.net/steam/apps/513210/header.jpg?t=1580840373",
  "Languages": [
    "english"
  ],
  "Platforms": {
    "windows": true,
    "mac": false,
    "linux": false
  }
}