﻿{
  "Dlcs": {},
  "Name": "Back to the Future: The Game",
  "AppId": "31290",
  "ImageUrl": "https://steamcdn-a.akamaihd.net/steam/apps/31290/header.jpg?t=1542232304",
  "Languages": [
    "english",
    "german"
  ],
  "Platforms": {
    "windows": true,
    "mac": true,
    "linux": false
  }
}