﻿{
  "Dlcs": {},
  "Name": "Bomb U!",
  "AppId": "523090",
  "ImageUrl": "https://steamcdn-a.akamaihd.net/steam/apps/523090/header.jpg?t=1501070066",
  "Languages": [
    "english"
  ],
  "Platforms": {
    "windows": true,
    "mac": false,
    "linux": false
  }
}