﻿{
  "Dlcs": {},
  "Name": "Hello Neighbor Alpha 1",
  "AppId": "1092710",
  "ImageUrl": "https://steamcdn-a.akamaihd.net/steam/apps/1092710/header.jpg?t=1596223790",
  "Languages": [
    "english"
  ],
  "Platforms": {
    "windows": true,
    "mac": false,
    "linux": false
  }
}