﻿[
  {
    "name": "Time",
    "defaultvalue": 0,
    "displayName": "Time played"
  },
  {
    "name": "Deaths",
    "defaultvalue": 0,
    "displayName": "Deaths"
  },
  {
    "name": "Secrets",
    "defaultvalue": 0,
    "displayName": "Secrets found"
  },
  {
    "name": "Achievements",
    "defaultvalue": 0,
    "displayName": "Unique achievements unlocked"
  },
  {
    "name": "AchievementsPoints",
    "defaultvalue": 0,
    "displayName": "Achievements points"
  },
  {
    "name": "Kills",
    "defaultvalue": 0,
    "displayName": ""
  },
  {
    "name": "KillsByEnv",
    "defaultvalue": 0,
    "displayName": ""
  },
  {
    "name": "Destructions",
    "defaultvalue": 0,
    "displayName": ""
  },
  {
    "name": "DmgApplied",
    "defaultvalue": 0,
    "displayName": ""
  },
  {
    "name": "DmgReceived",
    "defaultvalue": 0,
    "displayName": ""
  },
  {
    "name": "TotalPoints",
    "defaultvalue": 0,
    "displayName": ""
  },
  {
    "name": "stat_16",
    "defaultvalue": 0,
    "displayName": ""
  },
  {
    "name": "LevelPoints0",
    "defaultvalue": 0,
    "displayName": ""
  },
  {
    "name": "LevelPoints1",
    "defaultvalue": 0,
    "displayName": ""
  },
  {
    "name": "LevelPoints2",
    "defaultvalue": 0,
    "displayName": ""
  },
  {
    "name": "LevelPoints3",
    "defaultvalue": 0,
    "displayName": ""
  },
  {
    "name": "LevelPoints4",
    "defaultvalue": 0,
    "displayName": ""
  },
  {
    "name": "LevelPoints5",
    "defaultvalue": 0,
    "displayName": ""
  },
  {
    "name": "LevelPoints6",
    "defaultvalue": 0,
    "displayName": ""
  },
  {
    "name": "LevelPoints7",
    "defaultvalue": 0,
    "displayName": ""
  },
  {
    "name": "LevelPoints8",
    "defaultvalue": 0,
    "displayName": ""
  },
  {
    "name": "LevelPoints9",
    "defaultvalue": 0,
    "displayName": ""
  },
  {
    "name": "LevelPoints10",
    "defaultvalue": 0,
    "displayName": ""
  },
  {
    "name": "LevelPoints11",
    "defaultvalue": 0,
    "displayName": ""
  },
  {
    "name": "SurvivalPoints0",
    "defaultvalue": 0,
    "displayName": ""
  },
  {
    "name": "SurvivalPoints1",
    "defaultvalue": 0,
    "displayName": ""
  },
  {
    "name": "SurvivalPoints2",
    "defaultvalue": 0,
    "displayName": ""
  },
  {
    "name": "SurvivalPoints3",
    "defaultvalue": 0,
    "displayName": ""
  }
]