﻿{
  "Dlcs": {},
  "Name": "Red Faction II",
  "AppId": "20550",
  "ImageUrl": "https://steamcdn-a.akamaihd.net/steam/apps/20550/header.jpg?t=1591104052",
  "Languages": [
    "english"
  ],
  "Platforms": {
    "windows": true,
    "mac": false,
    "linux": false
  }
}