﻿{
  "Dlcs": {},
  "Name": "MadOut2 BigCityOnline",
  "AppId": "586980",
  "ImageUrl": "https://steamcdn-a.akamaihd.net/steam/apps/586980/header.jpg?t=1533530711",
  "Languages": [
    "english",
    "russian"
  ],
  "Platforms": {
    "windows": true,
    "mac": true,
    "linux": true
  }
}