﻿[
  {
    "name": "headshot_count",
    "defaultvalue": 0,
    "displayName": "Headshots count"
  },
  {
    "name": "mushrooms_collected",
    "defaultvalue": 0,
    "displayName": "Mushrooms collected count"
  },
  {
    "name": "death_count",
    "defaultvalue": 0,
    "displayName": "Death count"
  },
  {
    "name": "grenade_kills",
    "defaultvalue": 0,
    "displayName": "Killed by the grenade"
  },
  {
    "name": "gauge_kills",
    "defaultvalue": 0,
    "displayName": "Killed by gauge shots"
  },
  {
    "name": "mine_kills",
    "defaultvalue": 0,
    "displayName": "Killed by mine"
  },
  {
    "name": "handgun_kills",
    "defaultvalue": 0,
    "displayName": "Killed by handgun"
  },
  {
    "name": "sniper_rifle_kills",
    "defaultvalue": 0,
    "displayName": "Killed by sniper rifle"
  },
  {
    "name": "awl_stimulator_used",
    "defaultvalue": 0,
    "displayName": "Awl stimulator usage count"
  },
  {
    "name": "kills_count",
    "defaultvalue": 0,
    "displayName": "Killed players count"
  },
  {
    "name": "max_damage_made",
    "defaultvalue": 0,
    "displayName": "Max amount of damage made by single hit"
  },
  {
    "name": "max_sniper_rifle_hit_distance",
    "defaultvalue": 0,
    "displayName": "Maximum distance from a sniper rifle"
  },
  {
    "name": "max_shotgun_hit_distance",
    "defaultvalue": 0,
    "displayName": "Maximum distance from a shotgun"
  },
  {
    "name": "max_handgun_hit_distance",
    "defaultvalue": 0,
    "displayName": "Maximum distance from a handgun"
  },
  {
    "name": "max_submachine_gun_hit_distance",
    "defaultvalue": 0,
    "displayName": "Maximum distance from a submachine gun"
  },
  {
    "name": "max_assault_rifle_hit_distance",
    "defaultvalue": 0,
    "displayName": "Maximum distance from a assualt rifle"
  },
  {
    "name": "bear_killed_count",
    "defaultvalue": 0,
    "displayName": "Count of killed bears"
  },
  {
    "name": "elder_boar_killed_count",
    "defaultvalue": 0,
    "displayName": "Count of killed elder boars"
  },
  {
    "name": "stray_boar_killed_count",
    "defaultvalue": 0,
    "displayName": "Count of killed stray boars"
  },
  {
    "name": "symbiont_killed_count",
    "defaultvalue": 0,
    "displayName": "Count of killed symbionts"
  },
  {
    "name": "bog_symbiont_killed_count",
    "defaultvalue": 0,
    "displayName": "Count of killed bog symbionts"
  },
  {
    "name": "bog_belch_killed_count",
    "defaultvalue": 0,
    "displayName": "Count of killed bog belchs"
  },
  {
    "name": "elder_stray_dog_killed_count",
    "defaultvalue": 0,
    "displayName": "Count of killed elder stray dogs"
  },
  {
    "name": "bug_killed_count",
    "defaultvalue": 0,
    "displayName": "Count of killed bugs"
  },
  {
    "name": "flesheater_killed_count",
    "defaultvalue": 0,
    "displayName": "Count of killed flesheaters"
  },
  {
    "name": "watcher_killed_count",
    "defaultvalue": 0,
    "displayName": "Count of killed watchers"
  },
  {
    "name": "elder_lizard_killed_count",
    "defaultvalue": 0,
    "displayName": "Count of killed elder lizards"
  },
  {
    "name": "elder_bloodsucker_killed_count",
    "defaultvalue": 0,
    "displayName": "Count of killed elder bloodsuckers"
  },
  {
    "name": "elder_hornet_killed_count",
    "defaultvalue": 0,
    "displayName": "Count of killed elder hornets"
  },
  {
    "name": "boss_cave_spider_killed_count",
    "defaultvalue": 0,
    "displayName": "Count of killed boss cave spiders"
  },
  {
    "name": "big_sand_spider_killed_count",
    "defaultvalue": 0,
    "displayName": "Count of killed big sand spiders"
  },
  {
    "name": "jelly_killed_count",
    "defaultvalue": 0,
    "displayName": "Count of killed jellys"
  },
  {
    "name": "flytrap_killed_count",
    "defaultvalue": 0,
    "displayName": "Count of killed flytraps"
  },
  {
    "name": "matador_killed_count",
    "defaultvalue": 0,
    "displayName": "Count of killed matadors"
  },
  {
    "name": "stingray_killed_count",
    "defaultvalue": 0,
    "displayName": "Count of killed stingrays"
  },
  {
    "name": "rodent_killed_count",
    "defaultvalue": 0,
    "displayName": "Count of killed rodents"
  },
  {
    "name": "chicken_killed_count",
    "defaultvalue": 0,
    "displayName": "Count of killed chickens"
  },
  {
    "name": "rabbit_killed_count",
    "defaultvalue": 0,
    "displayName": "Count of killed rabbits"
  },
  {
    "name": "fox_killed_count",
    "defaultvalue": 0,
    "displayName": "Count of killed foxes"
  },
  {
    "name": "deer_killed_count",
    "defaultvalue": 0,
    "displayName": "Count of killed deers"
  },
  {
    "name": "monsters_killed_count",
    "defaultvalue": 0,
    "displayName": "Count of killed monsters"
  },
  {
    "name": "monsters_killed_in_head_count",
    "defaultvalue": 0,
    "displayName": "Count of monsters killed in head"
  },
  {
    "name": "medkit_used",
    "defaultvalue": 0,
    "displayName": "Count of used medkits"
  }
]