﻿{
  "Dlcs": {
    "412870": {
      "Name": "Miracle Fly Original Soundtrack",
      "ImageUrl": "https://steamcdn-a.akamaihd.net/steam/apps/412870/header.jpg?t=1447378590"
    }
  },
  "Name": "Miracle Fly",
  "AppId": "395140",
  "ImageUrl": "https://steamcdn-a.akamaihd.net/steam/apps/395140/header.jpg?t=1473746097",
  "Languages": [
    "english",
    "japanese"
  ],
  "Platforms": {
    "windows": true,
    "mac": true,
    "linux": false
  }
}