﻿{
  "Dlcs": {},
  "Name": "The Incredible Adventures of Van Helsing III",
  "AppId": "359900",
  "ImageUrl": "https://steamcdn-a.akamaihd.net/steam/apps/359900/header.jpg?t=1572445840",
  "Languages": [
    "english",
    "french",
    "italian",
    "german",
    "spanish",
    "hungarian",
    "polish",
    "portuguese",
    "russian"
  ],
  "Platforms": {
    "windows": true,
    "mac": false,
    "linux": false
  }
}