﻿[
  {
    "name": "killed_monsters_total",
    "defaultvalue": 0,
    "displayName": ""
  },
  {
    "name": "irresistible_force",
    "defaultvalue": 0,
    "displayName": ""
  },
  {
    "name": "highest_damage_survived",
    "defaultvalue": 0,
    "displayName": ""
  },
  {
    "name": "potions_drunk",
    "defaultvalue": 0,
    "displayName": ""
  },
  {
    "name": "resurrection_money",
    "defaultvalue": 0,
    "displayName": ""
  },
  {
    "name": "vh3_smart",
    "defaultvalue": 0,
    "displayName": ""
  },
  {
    "name": "vh3_fast",
    "defaultvalue": 0,
    "displayName": ""
  },
  {
    "name": "vh3_strong",
    "defaultvalue": 0,
    "displayName": ""
  },
  {
    "name": "vh3_lucky",
    "defaultvalue": 0,
    "displayName": ""
  },
  {
    "name": "easy_come",
    "defaultvalue": 0,
    "displayName": ""
  },
  {
    "name": "atta_dog",
    "defaultvalue": 0,
    "displayName": ""
  },
  {
    "name": "max_trap_count",
    "defaultvalue": 0,
    "displayName": ""
  },
  {
    "name": "never_walk_alone",
    "defaultvalue": 0,
    "displayName": ""
  },
  {
    "name": "real_life_is_overrated",
    "defaultvalue": 0,
    "displayName": ""
  },
  {
    "name": "grim_reaper",
    "defaultvalue": 0,
    "displayName": ""
  },
  {
    "name": "hunter_of_hunters",
    "defaultvalue": 0,
    "displayName": ""
  },
  {
    "name": "legend",
    "defaultvalue": 0,
    "displayName": ""
  },
  {
    "name": "good_catch",
    "defaultvalue": 0,
    "displayName": ""
  },
  {
    "name": "the_core",
    "defaultvalue": 0,
    "displayName": ""
  }
]