﻿{
  "Dlcs": {},
  "Name": "CINEVR",
  "AppId": "687870",
  "ImageUrl": "https://steamcdn-a.akamaihd.net/steam/apps/687870/header.jpg?t=1594891627",
  "Languages": [
    "english",
    "french"
  ],
  "Platforms": {
    "windows": true,
    "mac": false,
    "linux": false
  }
}