﻿{
  "Dlcs": {
    "63003": {
      "Name": "HOARD: Dynamite Roll!",
      "ImageUrl": "https://steamcdn-a.akamaihd.net/steam/apps/63003/header.jpg?t=1566516084"
    },
    "63004": {
      "Name": "HOARD: Flame-Broiled SANDwich",
      "ImageUrl": "https://steamcdn-a.akamaihd.net/steam/apps/63004/header.jpg?t=1566516188"
    }
  },
  "Name": "HOARD",
  "AppId": "63000",
  "ImageUrl": "https://steamcdn-a.akamaihd.net/steam/apps/63000/header.jpg?t=1566774619",
  "Languages": [
    "english",
    "french",
    "german",
    "italian",
    "spanish"
  ],
  "Platforms": {
    "windows": true,
    "mac": true,
    "linux": true
  }
}