﻿{
  "Dlcs": {
    "750640": {
      "Name": "Squarism: Soundtrack",
      "ImageUrl": "https://steamcdn-a.akamaihd.net/steam/apps/750640/header.jpg?t=1511305645"
    }
  },
  "Name": "Squarism",
  "AppId": "745030",
  "ImageUrl": "https://steamcdn-a.akamaihd.net/steam/apps/745030/header.jpg?t=1548172336",
  "Languages": [
    "english",
    "french",
    "german",
    "portuguese",
    "schinese",
    "korean",
    "polish",
    "russian",
    "finnish",
    "swedish",
    "japanese"
  ],
  "Platforms": {
    "windows": true,
    "mac": false,
    "linux": false
  }
}