﻿{
  "Dlcs": {},
  "Name": "Ukrainian ball in search of gas",
  "AppId": "758480",
  "ImageUrl": "https://steamcdn-a.akamaihd.net/steam/apps/758480/header.jpg?t=1512740171",
  "Languages": [
    "english"
  ],
  "Platforms": {
    "windows": true,
    "mac": false,
    "linux": false
  }
}