﻿{
  "Dlcs": {
    "766580": {
      "Name": "Chicken Farm 2K17 - Premium",
      "ImageUrl": "https://steamcdn-a.akamaihd.net/steam/apps/766580/header.jpg?t=1518059737"
    }
  },
  "Name": "Chicken Farm 2K17",
  "AppId": "746910",
  "ImageUrl": "https://steamcdn-a.akamaihd.net/steam/apps/746910/header.jpg?t=1512721638",
  "Languages": [
    "english"
  ],
  "Platforms": {
    "windows": true,
    "mac": false,
    "linux": false
  }
}