﻿[
  {
    "name": "SA_COLLECTION_EMOTES",
    "defaultvalue": 0,
    "displayName": "Emotional",
    "hidden": 0,
    "description": "Use every emote in the game.",
    "icon": "https://steamcdn-a.akamaihd.net/steamcommunity/public/images/apps/761890/a96b967e1f8b06ed8840eec9e91767cd36297e27.jpg",
    "icongray": "https://steamcdn-a.akamaihd.net/steamcommunity/public/images/apps/761890/1a7755533b4a3101ed84a7268e753c65fe61221c.jpg"
  },
  {
    "name": "SA_EXPLORATION_CITIES",
    "defaultvalue": 0,
    "displayName": "Tourist",
    "hidden": 0,
    "description": "Visit every player city.",
    "icon": "https://steamcdn-a.akamaihd.net/steamcommunity/public/images/apps/761890/1993fee7305c33342ab9ab631e5cce83c34d955a.jpg",
    "icongray": "https://steamcdn-a.akamaihd.net/steamcommunity/public/images/apps/761890/f33c59a19589e50f893ebd809d9af6c69eed7c8b.jpg"
  },
  {
    "name": "SA_GATHERING_FAME_01",
    "defaultvalue": 0,
    "displayName": "This looks interesting!",
    "hidden": 0,
    "description": "Gather resources worth 10,000 fame.",
    "icon": "https://steamcdn-a.akamaihd.net/steamcommunity/public/images/apps/761890/775ff9c4538f3c55fc7890c129f302018929519f.jpg",
    "icongray": "https://steamcdn-a.akamaihd.net/steamcommunity/public/images/apps/761890/17f731b3b4369c21b105bf8850b68537a51120e7.jpg"
  },
  {
    "name": "SA_GATHERING_FAME_02",
    "defaultvalue": 0,
    "displayName": "Determined",
    "hidden": 0,
    "description": "Gather resources worth 100,000 fame.",
    "icon": "https://steamcdn-a.akamaihd.net/steamcommunity/public/images/apps/761890/63ec58406106fe74b22f79441fd90828b4493782.jpg",
    "icongray": "https://steamcdn-a.akamaihd.net/steamcommunity/public/images/apps/761890/0bfd6aaff95196b53d9c1f8c8b8c257552d88e9e.jpg"
  },
  {
    "name": "SA_GATHERING_FAME_03",
    "defaultvalue": 0,
    "displayName": "Gathering is not a game! It's war!",
    "hidden": 0,
    "description": "Gather resources worth 1,000,000 fame.",
    "icon": "https://steamcdn-a.akamaihd.net/steamcommunity/public/images/apps/761890/ca7b4067c69bbf0e41d7b4a34f9503e30e7feca7.jpg",
    "icongray": "https://steamcdn-a.akamaihd.net/steamcommunity/public/images/apps/761890/29800ca73cc6559a30c04a41a0890406f6782909.jpg"
  },
  {
    "name": "SA_CRAFTING_FAME_01",
    "defaultvalue": 0,
    "displayName": "Beginner Crafter",
    "hidden": 0,
    "description": "Craft Items worth 10,000 fame.",
    "icon": "https://steamcdn-a.akamaihd.net/steamcommunity/public/images/apps/761890/68446e03e75cce5de30462c39c2ab659f6bd39e2.jpg",
    "icongray": "https://steamcdn-a.akamaihd.net/steamcommunity/public/images/apps/761890/97d73f4945e8f83a1306e80200f83cf5ff39a5b3.jpg"
  },
  {
    "name": "SA_CRAFTING_FAME_02",
    "defaultvalue": 0,
    "displayName": "Hardworking Crafter",
    "hidden": 0,
    "description": "Craft Items worth 100,000 fame.",
    "icon": "https://steamcdn-a.akamaihd.net/steamcommunity/public/images/apps/761890/2b6f4ef303e58a474f287078dd1764be6bb21a6f.jpg",
    "icongray": "https://steamcdn-a.akamaihd.net/steamcommunity/public/images/apps/761890/5693f747e26f0646cf4dc98f80a6c423ec53f8d5.jpg"
  },
  {
    "name": "SA_CRAFTING_FAME_03",
    "defaultvalue": 0,
    "displayName": "Industrious Crafter",
    "hidden": 0,
    "description": "Craft Items worth 1,000,000 fame.",
    "icon": "https://steamcdn-a.akamaihd.net/steamcommunity/public/images/apps/761890/ca0fc20d9e2d80051f25a081f386f96b53313701.jpg",
    "icongray": "https://steamcdn-a.akamaihd.net/steamcommunity/public/images/apps/761890/36fab1ee07b47dfe06dcb66871833711489dc947.jpg"
  },
  {
    "name": "SA_CRAFTING_FAME_04",
    "defaultvalue": 0,
    "displayName": "Work, Work!",
    "hidden": 0,
    "description": "Craft items worth 10,000,000 fame.",
    "icon": "https://steamcdn-a.akamaihd.net/steamcommunity/public/images/apps/761890/6919df34c4c96e7c5f904ef3691e3539459a9169.jpg",
    "icongray": "https://steamcdn-a.akamaihd.net/steamcommunity/public/images/apps/761890/48e82569600c041957c367b0e9fe0e0105d82247.jpg"
  },
  {
    "name": "SA_PVE_FAME_01",
    "defaultvalue": 0,
    "displayName": "That's a start.",
    "hidden": 0,
    "description": "Gain 1,000 Fame from killing mobs.",
    "icon": "https://steamcdn-a.akamaihd.net/steamcommunity/public/images/apps/761890/78fb671ae14d4721c08290b850d3e9df51a3bc6b.jpg",
    "icongray": "https://steamcdn-a.akamaihd.net/steamcommunity/public/images/apps/761890/b3fceea844d0809ddf3df4968d1a6a039d37360a.jpg"
  },
  {
    "name": "SA_PVE_FAME_02",
    "defaultvalue": 0,
    "displayName": "Killing is… fun?",
    "hidden": 0,
    "description": "Gain 100,000 Fame from killing mobs.",
    "icon": "https://steamcdn-a.akamaihd.net/steamcommunity/public/images/apps/761890/746cbce1091fbf4c50b394a467759e72aa155d08.jpg",
    "icongray": "https://steamcdn-a.akamaihd.net/steamcommunity/public/images/apps/761890/c4fb4e0be0c5c6ca5750d77fcacad9b422505dc7.jpg"
  },
  {
    "name": "SA_PVE_FAME_03",
    "defaultvalue": 0,
    "displayName": "Die, Die, Die My Darling!",
    "hidden": 0,
    "description": "Gain 10,000,000 Fame from killing mobs.",
    "icon": "https://steamcdn-a.akamaihd.net/steamcommunity/public/images/apps/761890/114a53c2609038196ca64b17e928f28de49cb2c2.jpg",
    "icongray": "https://steamcdn-a.akamaihd.net/steamcommunity/public/images/apps/761890/dff3535db0daf733c1a66e6809c61b8b45f283a8.jpg"
  },
  {
    "name": "SA_PVE_KILL_MORGANA",
    "defaultvalue": 0,
    "displayName": "More-ganna die",
    "hidden": 0,
    "description": "Kill 1000 Morgana mobs.",
    "icon": "https://steamcdn-a.akamaihd.net/steamcommunity/public/images/apps/761890/fc128b73c24db307162c3e6deaa9fe4766d4f311.jpg",
    "icongray": "https://steamcdn-a.akamaihd.net/steamcommunity/public/images/apps/761890/5b764275dcf8fe8346685cfc5d53d7160784c410.jpg"
  },
  {
    "name": "SA_PVE_KILL_KEEPER",
    "defaultvalue": 0,
    "displayName": "Recycle",
    "hidden": 0,
    "description": "Kill 1000 Keeper mobs.",
    "icon": "https://steamcdn-a.akamaihd.net/steamcommunity/public/images/apps/761890/7cdff45177e9174e7f65407e49f7e6da86dbe24b.jpg",
    "icongray": "https://steamcdn-a.akamaihd.net/steamcommunity/public/images/apps/761890/e70206331c3c8313f017ab84f7dd4829f5c56c80.jpg"
  },
  {
    "name": "SA_PVE_KILL_UNDEAD",
    "defaultvalue": 0,
    "displayName": "And stay down!",
    "hidden": 0,
    "description": "Kill 1000 Undead mobs.",
    "icon": "https://steamcdn-a.akamaihd.net/steamcommunity/public/images/apps/761890/7c5f59f5e05453ebd6d2e0d5ae3755d238d9de22.jpg",
    "icongray": "https://steamcdn-a.akamaihd.net/steamcommunity/public/images/apps/761890/9e5313b3dd76c653b0ac91ca65d4cb222a4fb2a4.jpg"
  },
  {
    "name": "SA_PVE_KILL_HERETIC",
    "defaultvalue": 0,
    "displayName": "No one expects the Inquisition!",
    "hidden": 0,
    "description": "Kill 1000 Heretic mobs.",
    "icon": "https://steamcdn-a.akamaihd.net/steamcommunity/public/images/apps/761890/16135ee0818cffbf706c726ae7625ab6ea0b7f27.jpg",
    "icongray": "https://steamcdn-a.akamaihd.net/steamcommunity/public/images/apps/761890/5ce05c6b9772dfb769054efa9efc99092f52e9a1.jpg"
  },
  {
    "name": "SA_COLLECTION_USE_INSPECT",
    "defaultvalue": 0,
    "displayName": "Not creepy at all!",
    "hidden": 0,
    "description": "Inspect 100 players.",
    "icon": "https://steamcdn-a.akamaihd.net/steamcommunity/public/images/apps/761890/fca41bcd22aa067a336777a5ff3ca926c8dc0da3.jpg",
    "icongray": "https://steamcdn-a.akamaihd.net/steamcommunity/public/images/apps/761890/3e6052f5f3071c312fda7d640a417456a7ad9162.jpg"
  },
  {
    "name": "SA_REPUTATION_MAX",
    "defaultvalue": 0,
    "displayName": "Model Citizen",
    "hidden": 0,
    "description": "Reach maximum reputation.",
    "icon": "https://steamcdn-a.akamaihd.net/steamcommunity/public/images/apps/761890/69129c59563c5cbbda686fabc6c3dbf8aab68798.jpg",
    "icongray": "https://steamcdn-a.akamaihd.net/steamcommunity/public/images/apps/761890/42a03289a8a6a653fa0aa8287e9edbdaedc3dbac.jpg"
  },
  {
    "name": "SA_REPUTATION_GOOD",
    "defaultvalue": 0,
    "displayName": "Harmless Person",
    "hidden": 0,
    "description": "Reach the first positive reputation level.",
    "icon": "https://steamcdn-a.akamaihd.net/steamcommunity/public/images/apps/761890/d5c419ba8abccb40b4cdf112d9f989c969e0bc04.jpg",
    "icongray": "https://steamcdn-a.akamaihd.net/steamcommunity/public/images/apps/761890/22ba8643384aca2b0a9eaf85497ee9f0958c7295.jpg"
  },
  {
    "name": "SA_REPUTATION_MIN",
    "defaultvalue": 0,
    "displayName": "Wanted Dead! Not Alive!",
    "hidden": 1,
    "icon": "https://steamcdn-a.akamaihd.net/steamcommunity/public/images/apps/761890/37a4efa549b04fdbda3b95d6544a4c637cc68704.jpg",
    "icongray": "https://steamcdn-a.akamaihd.net/steamcommunity/public/images/apps/761890/a5164ecba7299f0c9f8d06e23ac3119844299a27.jpg"
  },
  {
    "name": "SA_COLLECTION_HITPOINTS",
    "defaultvalue": 0,
    "displayName": "Like a Boss",
    "hidden": 1,
    "icon": "https://steamcdn-a.akamaihd.net/steamcommunity/public/images/apps/761890/e3f48cc5824e063e396086d5c7395f810b7b12a9.jpg",
    "icongray": "https://steamcdn-a.akamaihd.net/steamcommunity/public/images/apps/761890/e5e92e3d50a34228281f20951733db0c743c87a7.jpg"
  },
  {
    "name": "SA_COLLECTION_SALVAGE",
    "defaultvalue": 0,
    "displayName": "Salvaging",
    "hidden": 0,
    "description": "Salvage an item.",
    "icon": "https://steamcdn-a.akamaihd.net/steamcommunity/public/images/apps/761890/3222572ed5bec9c0dd2e38eb909a63605806abf3.jpg",
    "icongray": "https://steamcdn-a.akamaihd.net/steamcommunity/public/images/apps/761890/3e8bd1ccd6420126d097fc24d2b4d54f1935b4a8.jpg"
  },
  {
    "name": "SA_COLLECTION_UNLOCK_ALL_T4",
    "defaultvalue": 0,
    "displayName": "Jack of All Trades",
    "hidden": 0,
    "description": "Unlock everything in Tier 4.",
    "icon": "https://steamcdn-a.akamaihd.net/steamcommunity/public/images/apps/761890/8b012b52ecd87d2a0307bddb65a04f81eaaed559.jpg",
    "icongray": "https://steamcdn-a.akamaihd.net/steamcommunity/public/images/apps/761890/20b6d254dca69355b85b48d9216edb1ee46cc410.jpg"
  },
  {
    "name": "SA_COLLECTION_UNLOCK_WEAPONS",
    "defaultvalue": 0,
    "displayName": "It's not a phase, mom!",
    "hidden": 0,
    "description": "Unlock all Tier 4 weapons and offhands.",
    "icon": "https://steamcdn-a.akamaihd.net/steamcommunity/public/images/apps/761890/eb574b367136dccb776dfd9d24230eb1ad84811e.jpg",
    "icongray": "https://steamcdn-a.akamaihd.net/steamcommunity/public/images/apps/761890/945f1865d041d2855ef695e8824e61a8c82ccef1.jpg"
  },
  {
    "name": "SA_CRAFTING_STUDY_01",
    "defaultvalue": 0,
    "displayName": "Studious Crafter",
    "hidden": 0,
    "description": "Study an item.",
    "icon": "https://steamcdn-a.akamaihd.net/steamcommunity/public/images/apps/761890/94c3c2dd1100308a6c21238e0904439ed2fea368.jpg",
    "icongray": "https://steamcdn-a.akamaihd.net/steamcommunity/public/images/apps/761890/dd1835b1083ac04c46f4355acc3d0cec1f294f4b.jpg"
  },
  {
    "name": "SA_PLAYERISLAND",
    "defaultvalue": 0,
    "displayName": "My Sanctuary",
    "hidden": 0,
    "description": "Get your very own island.",
    "icon": "https://steamcdn-a.akamaihd.net/steamcommunity/public/images/apps/761890/7cf6ac21ea7840556432d2e35bbd9439bfea4035.jpg",
    "icongray": "https://steamcdn-a.akamaihd.net/steamcommunity/public/images/apps/761890/5407592682745e8e1f1fe9d95b714a2ee43ea81f.jpg"
  },
  {
    "name": "SA_PVE_KILL_DEMONPRINCE",
    "defaultvalue": 0,
    "displayName": "Long Live the King!",
    "hidden": 0,
    "description": "Kill the Morgana Demon Prince.",
    "icon": "https://steamcdn-a.akamaihd.net/steamcommunity/public/images/apps/761890/1d00b8597fd25cff3ab1bdf35f0daaf3c180e8b1.jpg",
    "icongray": "https://steamcdn-a.akamaihd.net/steamcommunity/public/images/apps/761890/4d4ac056e384caa83cbdebad01edc21a5f283225.jpg"
  },
  {
    "name": "SA_PVE_KILL_EARTHMOTHER",
    "defaultvalue": 0,
    "displayName": "Yo mama is so big…",
    "hidden": 0,
    "description": "Kill the Keeper Earthmother.",
    "icon": "https://steamcdn-a.akamaihd.net/steamcommunity/public/images/apps/761890/83f56feded68305ba0a0268cc0c6dcac021f932a.jpg",
    "icongray": "https://steamcdn-a.akamaihd.net/steamcommunity/public/images/apps/761890/b8dfeea46ba7dd1a360da3186cec691279fa6ef2.jpg"
  },
  {
    "name": "SA_PVE_KILL_HARVESTER",
    "defaultvalue": 0,
    "displayName": "Defeating Death Itself",
    "hidden": 0,
    "description": "Kill the Undead Harvester.",
    "icon": "https://steamcdn-a.akamaihd.net/steamcommunity/public/images/apps/761890/0546894c691ea707367693742f3452421f5b9f95.jpg",
    "icongray": "https://steamcdn-a.akamaihd.net/steamcommunity/public/images/apps/761890/d847515051a9c6b4c9db4c6a302907661f993ea1.jpg"
  },
  {
    "name": "SA_PVE_KILL_T1",
    "defaultvalue": 0,
    "displayName": "Critter Killer",
    "hidden": 0,
    "description": "Kill 100 Tier 1 mobs of any kind.",
    "icon": "https://steamcdn-a.akamaihd.net/steamcommunity/public/images/apps/761890/b744a9fccfb20f19f311a6e0ccf9f83d02ba01cc.jpg",
    "icongray": "https://steamcdn-a.akamaihd.net/steamcommunity/public/images/apps/761890/7e3965b62172ea995ba7af843998e1bba13374b0.jpg"
  },
  {
    "name": "SA_REPUTATION_BAD",
    "defaultvalue": 0,
    "displayName": "Baddy",
    "hidden": 1,
    "icon": "https://steamcdn-a.akamaihd.net/steamcommunity/public/images/apps/761890/1311dbd5d23db51ebcc1cd942dd43468aeeff01d.jpg",
    "icongray": "https://steamcdn-a.akamaihd.net/steamcommunity/public/images/apps/761890/5dc1e80613e7c098b0ef6f3419f41fe4031b7282.jpg"
  },
  {
    "name": "SA_SOCIAL_GUILD",
    "defaultvalue": 0,
    "displayName": "More Fun Together",
    "hidden": 0,
    "description": "Create or join a guild.",
    "icon": "https://steamcdn-a.akamaihd.net/steamcommunity/public/images/apps/761890/0f02d1c37885c4a661dbb56c186fd2e38a830093.jpg",
    "icongray": "https://steamcdn-a.akamaihd.net/steamcommunity/public/images/apps/761890/edfbcbc19da75d9ce7c7e8eff50ef6dc0107217a.jpg"
  },
  {
    "name": "SA_EXPLORATION_GOTO_HELLGATE",
    "defaultvalue": 0,
    "displayName": "Highway to Hell",
    "hidden": 0,
    "description": "Enter a Hellgate.",
    "icon": "https://steamcdn-a.akamaihd.net/steamcommunity/public/images/apps/761890/7d10c8dc6e3aac9804e4c35e133a094732b501cb.jpg",
    "icongray": "https://steamcdn-a.akamaihd.net/steamcommunity/public/images/apps/761890/7f194fd98aff0d2868158ab7932b764bd975f6e8.jpg"
  },
  {
    "name": "SA_SOCIAL_FRIEND_01",
    "defaultvalue": 0,
    "displayName": "Alone No Longer",
    "hidden": 0,
    "description": "Add a friend to your friend list.",
    "icon": "https://steamcdn-a.akamaihd.net/steamcommunity/public/images/apps/761890/161d9f61872ea27d6b3f7674a8357d4537e54812.jpg",
    "icongray": "https://steamcdn-a.akamaihd.net/steamcommunity/public/images/apps/761890/be368b2073e1cf6ffd22c3a83f3a0040f2d4302d.jpg"
  },
  {
    "name": "SA_COLLECTION_SILVER",
    "defaultvalue": 0,
    "displayName": "Silver Millionaire",
    "hidden": 0,
    "description": "Have a character that owns a million silver.",
    "icon": "https://steamcdn-a.akamaihd.net/steamcommunity/public/images/apps/761890/bf9613ad5b21df812774b16c8eb933a983b3040c.jpg",
    "icongray": "https://steamcdn-a.akamaihd.net/steamcommunity/public/images/apps/761890/b1d430cb51383807ada394a7802b1926c53ac84c.jpg"
  },
  {
    "name": "SA_EXPLORATION_BLACKZONE",
    "defaultvalue": 0,
    "displayName": "It's dark in here…",
    "hidden": 0,
    "description": "Enter a black zone.",
    "icon": "https://steamcdn-a.akamaihd.net/steamcommunity/public/images/apps/761890/28caa53792343dfe155cd2db01c4a6cea8cceb52.jpg",
    "icongray": "https://steamcdn-a.akamaihd.net/steamcommunity/public/images/apps/761890/c44540a03caf428dc31adac92041bcb2c765c8ec.jpg"
  },
  {
    "name": "SA_EXPEDITION_FINISH_01",
    "defaultvalue": 0,
    "displayName": "Expedition? What's an Expedition?",
    "hidden": 0,
    "description": "Successfully finish an Expedition.",
    "icon": "https://steamcdn-a.akamaihd.net/steamcommunity/public/images/apps/761890/8c533155a0380ebeca206bf6be91e66ce8074160.jpg",
    "icongray": "https://steamcdn-a.akamaihd.net/steamcommunity/public/images/apps/761890/fd98ad037fcf2fc431743bd0fcae5cf1d161f4d2.jpg"
  },
  {
    "name": "SA_EXPEDITION_FINISH_ALL",
    "defaultvalue": 0,
    "displayName": "Expedition Veteran",
    "hidden": 0,
    "description": "Successfully finish every non-hardcore Expedition.",
    "icon": "https://steamcdn-a.akamaihd.net/steamcommunity/public/images/apps/761890/ce3652856188ec454dd0e1320c89161fedf0011c.jpg",
    "icongray": "https://steamcdn-a.akamaihd.net/steamcommunity/public/images/apps/761890/c7a26c2631512b8636b8f49750e7aaf8cffa0d75.jpg"
  },
  {
    "name": "SA_EXPEDITION_HARDCORE_01",
    "defaultvalue": 0,
    "displayName": "That wasn't so hard…",
    "hidden": 0,
    "description": "Successfully finish any Hardcore Expedition.",
    "icon": "https://steamcdn-a.akamaihd.net/steamcommunity/public/images/apps/761890/1eb613883680e2b62b98106e7c4b94698e3adbbd.jpg",
    "icongray": "https://steamcdn-a.akamaihd.net/steamcommunity/public/images/apps/761890/af24d5d2f7b5ef045ae7ab0cedeaaeee8b33c17d.jpg"
  },
  {
    "name": "SA_PVP_DIE_PLAYER",
    "defaultvalue": 0,
    "displayName": "Welcome to Albion",
    "hidden": 1,
    "icon": "https://steamcdn-a.akamaihd.net/steamcommunity/public/images/apps/761890/55d53a58d71150b869a3968020fb20f3a9b29b5d.jpg",
    "icongray": "https://steamcdn-a.akamaihd.net/steamcommunity/public/images/apps/761890/c934130b07896523026ff5a409cb9c9f001e2a1e.jpg"
  },
  {
    "name": "SA_PVP_KILL_PLAYER_01",
    "defaultvalue": 0,
    "displayName": "First Blood!",
    "hidden": 0,
    "description": "Kill or assist a kill in PvP.",
    "icon": "https://steamcdn-a.akamaihd.net/steamcommunity/public/images/apps/761890/418f6a52fb145fac7d46e33f8b28c689fdda1932.jpg",
    "icongray": "https://steamcdn-a.akamaihd.net/steamcommunity/public/images/apps/761890/1fec93f866fc59c3da1481f9d36c1a5c883c1d98.jpg"
  },
  {
    "name": "SA_PVP_KILL_PLAYER_02",
    "defaultvalue": 0,
    "displayName": "This. Is. Albion!",
    "hidden": 0,
    "description": "Kill 300 players in the open world.",
    "icon": "https://steamcdn-a.akamaihd.net/steamcommunity/public/images/apps/761890/a16bff5eac6f9dcc8cf92978864bc4002cae1893.jpg",
    "icongray": "https://steamcdn-a.akamaihd.net/steamcommunity/public/images/apps/761890/839d5d8ef9aa5b2cb1443eb7272830fff92545e0.jpg"
  },
  {
    "name": "SA_PVP_KILL_PLAYER_MONSTER",
    "defaultvalue": 0,
    "displayName": "M-m-m-monster Kill!",
    "hidden": 1,
    "icon": "https://steamcdn-a.akamaihd.net/steamcommunity/public/images/apps/761890/1ea4c0e52a9df445a6464b684bdb0cf5a1d2aedb.jpg",
    "icongray": "https://steamcdn-a.akamaihd.net/steamcommunity/public/images/apps/761890/9e0265a9bed097f9ee34183f4e329a50ca5c8976.jpg"
  },
  {
    "name": "SA_ARENA_WIN_01",
    "defaultvalue": 0,
    "displayName": "Blood and Sand",
    "hidden": 0,
    "description": "Win your first Arena match.",
    "icon": "https://steamcdn-a.akamaihd.net/steamcommunity/public/images/apps/761890/104ed8383923035b6501268cda3ebfe298e60f2c.jpg",
    "icongray": "https://steamcdn-a.akamaihd.net/steamcommunity/public/images/apps/761890/950697a9f0e62dcf7e0ae3f4baff633113c39590.jpg"
  },
  {
    "name": "SA_ARENA_WIN_02",
    "defaultvalue": 0,
    "displayName": "Gladiator",
    "hidden": 0,
    "description": "Win 100 Arena matches.",
    "icon": "https://steamcdn-a.akamaihd.net/steamcommunity/public/images/apps/761890/104ed8383923035b6501268cda3ebfe298e60f2c.jpg",
    "icongray": "https://steamcdn-a.akamaihd.net/steamcommunity/public/images/apps/761890/950697a9f0e62dcf7e0ae3f4baff633113c39590.jpg"
  },
  {
    "name": "SA_COLLECTION_DIREWOLF",
    "defaultvalue": 0,
    "displayName": "Wolf Among Sheep",
    "hidden": 0,
    "description": "Ride a Direwolf.",
    "icon": "https://steamcdn-a.akamaihd.net/steamcommunity/public/images/apps/761890/7c407f8f63f4c076f9973cf246a5b5cb3f9c690d.jpg",
    "icongray": "https://steamcdn-a.akamaihd.net/steamcommunity/public/images/apps/761890/ab7fef38e7a443ff87a35dd0ec75231a3b8fd18d.jpg"
  },
  {
    "name": "SA_COLLECTION_USE_POTIONS",
    "defaultvalue": 0,
    "displayName": "Chug! Chug! Chug!",
    "hidden": 0,
    "description": "Use any 100 potions.",
    "icon": "https://steamcdn-a.akamaihd.net/steamcommunity/public/images/apps/761890/9b01bc779ca9ba3b3b5c9567a97352c617eed030.jpg",
    "icongray": "https://steamcdn-a.akamaihd.net/steamcommunity/public/images/apps/761890/6d3228ff4dfed3a6a79bd0c7245c6dc25dc25dcc.jpg"
  },
  {
    "name": "SA_CRAFTING_UNLOCK_01",
    "defaultvalue": 0,
    "displayName": "Adept Crafter",
    "hidden": 0,
    "description": "Unlock any Tier 4 Crafting Profession.",
    "icon": "https://steamcdn-a.akamaihd.net/steamcommunity/public/images/apps/761890/c569bb82b6d6bb0315ea1b68b1c5f6c48d04c911.jpg",
    "icongray": "https://steamcdn-a.akamaihd.net/steamcommunity/public/images/apps/761890/495b07ffe8f92e37ad9a2fc608236e2a8754a116.jpg"
  },
  {
    "name": "SA_CRAFTING_UNLOCK_02",
    "defaultvalue": 0,
    "displayName": "Master Crafter",
    "hidden": 0,
    "description": "Unlock any Tier 6 Crafting Profession.",
    "icon": "https://steamcdn-a.akamaihd.net/steamcommunity/public/images/apps/761890/cfb7b3effff5b24fbf0058ee9827bf87af6fd5a5.jpg",
    "icongray": "https://steamcdn-a.akamaihd.net/steamcommunity/public/images/apps/761890/73b2680123a616088f9840a7ca1e5b3bb48703f3.jpg"
  },
  {
    "name": "SA_CRAFTING_UNLOCK_03",
    "defaultvalue": 0,
    "displayName": "Elder Crafter",
    "hidden": 0,
    "description": "Unlock any Tier 8 Crafting Profession.",
    "icon": "https://steamcdn-a.akamaihd.net/steamcommunity/public/images/apps/761890/c892efeb71b9b56f54b03c5b4a0e6cc0f4d4aedc.jpg",
    "icongray": "https://steamcdn-a.akamaihd.net/steamcommunity/public/images/apps/761890/6d68437dd5e8096c915aff67493491b7a0d6f8c9.jpg"
  },
  {
    "name": "SA_FARMING_FAME_01",
    "defaultvalue": 0,
    "displayName": "My Little Farm",
    "hidden": 0,
    "description": "Farm your first crop.",
    "icon": "https://steamcdn-a.akamaihd.net/steamcommunity/public/images/apps/761890/7432bb6ff50188a8ec7f7f625a4623539f6eacf3.jpg",
    "icongray": "https://steamcdn-a.akamaihd.net/steamcommunity/public/images/apps/761890/5d9ea71e426b2069468b9b1f9010bb95bfdb7ab5.jpg"
  },
  {
    "name": "SA_FARMING_FAME_02",
    "defaultvalue": 0,
    "displayName": "Seasoned Farmer",
    "hidden": 0,
    "description": "Farm crops worth 100,000 fame.",
    "icon": "https://steamcdn-a.akamaihd.net/steamcommunity/public/images/apps/761890/eaca99ec835c042541433726561c845ca07ab760.jpg",
    "icongray": "https://steamcdn-a.akamaihd.net/steamcommunity/public/images/apps/761890/819a588749c2b0b0354c47816f6459db761402aa.jpg"
  },
  {
    "name": "SA_FARMING_FAME_03",
    "defaultvalue": 0,
    "displayName": "My Epic Farm",
    "hidden": 0,
    "description": "Farm crops worth 1,000,000 fame.",
    "icon": "https://steamcdn-a.akamaihd.net/steamcommunity/public/images/apps/761890/2813b88bf4fa6eea1a0ea8a0e23f9a5ce62c6466.jpg",
    "icongray": "https://steamcdn-a.akamaihd.net/steamcommunity/public/images/apps/761890/bd15bd7c6f181418435d632c446e4c6ef4e5c811.jpg"
  },
  {
    "name": "SA_FISHING_FAME_01",
    "defaultvalue": 0,
    "displayName": "Fishing for Compliments",
    "hidden": 0,
    "description": "Catch your first fish.",
    "icon": "https://steamcdn-a.akamaihd.net/steamcommunity/public/images/apps/761890/82a87e14f1395597dcfc9f5b8642835b164f9ec7.jpg",
    "icongray": "https://steamcdn-a.akamaihd.net/steamcommunity/public/images/apps/761890/b5ea6d41134768d81fc57d14916950a0af266ef5.jpg"
  },
  {
    "name": "SA_FISHING_FAME_02",
    "defaultvalue": 0,
    "displayName": "Fishing for More Compliments",
    "hidden": 0,
    "description": "Gather fish worth 10,000 fame.",
    "icon": "https://steamcdn-a.akamaihd.net/steamcommunity/public/images/apps/761890/e8398e9039db1786e4b5a72bbe0aff30072de02a.jpg",
    "icongray": "https://steamcdn-a.akamaihd.net/steamcommunity/public/images/apps/761890/ea7fec33e387649bf56f78ea9482bcca8538cdf3.jpg"
  },
  {
    "name": "SA_FISHING_FAME_03",
    "defaultvalue": 0,
    "displayName": "You're Gonna Need a Bigger Boat",
    "hidden": 0,
    "description": "Gather fish worth 1,000,000 fame.",
    "icon": "https://steamcdn-a.akamaihd.net/steamcommunity/public/images/apps/761890/b5ce5812409afc0bb9e68a07869dca25f6f0d310.jpg",
    "icongray": "https://steamcdn-a.akamaihd.net/steamcommunity/public/images/apps/761890/6b2fe21d5e04fa256393c0cbac107ef20f33a3d1.jpg"
  },
  {
    "name": "SA_GATHERING_TERRITORY_RAID",
    "defaultvalue": 0,
    "displayName": "Thief: The Gathering Project",
    "hidden": 0,
    "description": "Gather any Tier 8 resource in an enemy territory.",
    "icon": "https://steamcdn-a.akamaihd.net/steamcommunity/public/images/apps/761890/5547897dbf636214dd8a834bef50898709e264ac.jpg",
    "icongray": "https://steamcdn-a.akamaihd.net/steamcommunity/public/images/apps/761890/102582758142fc6340558d0a9a43c5323efa32f5.jpg"
  },
  {
    "name": "SA_GATHERING_UNLOCK_01",
    "defaultvalue": 0,
    "displayName": "Adept Gatherer",
    "hidden": 0,
    "description": "Unlock any Tier 4 Gathering Profession.",
    "icon": "https://steamcdn-a.akamaihd.net/steamcommunity/public/images/apps/761890/ca7b4067c69bbf0e41d7b4a34f9503e30e7feca7.jpg",
    "icongray": "https://steamcdn-a.akamaihd.net/steamcommunity/public/images/apps/761890/29800ca73cc6559a30c04a41a0890406f6782909.jpg"
  },
  {
    "name": "SA_GATHERING_UNLOCK_02",
    "defaultvalue": 0,
    "displayName": "Master Gatherer",
    "hidden": 0,
    "description": "Unlock any Tier 6 Gathering Profession.",
    "icon": "https://steamcdn-a.akamaihd.net/steamcommunity/public/images/apps/761890/63ec58406106fe74b22f79441fd90828b4493782.jpg",
    "icongray": "https://steamcdn-a.akamaihd.net/steamcommunity/public/images/apps/761890/0bfd6aaff95196b53d9c1f8c8b8c257552d88e9e.jpg"
  },
  {
    "name": "SA_GATHERING_UNLOCK_03",
    "defaultvalue": 0,
    "displayName": "Elder Gatherer",
    "hidden": 0,
    "description": "Unlock any Tier 8 Gathering Profession.",
    "icon": "https://steamcdn-a.akamaihd.net/steamcommunity/public/images/apps/761890/260561ac5f97feecfe18a74b7d8b7f47d8219301.jpg",
    "icongray": "https://steamcdn-a.akamaihd.net/steamcommunity/public/images/apps/761890/ec006bbafb9144f95d13d4a22aa5e865dc2896bd.jpg"
  },
  {
    "name": "SA_PLAYERISLAND_BUILD_01",
    "defaultvalue": 0,
    "displayName": "My Home is my Shack",
    "hidden": 0,
    "description": "Build a house on your island.",
    "icon": "https://steamcdn-a.akamaihd.net/steamcommunity/public/images/apps/761890/0a426a8dacb4d2fe5d9e04dd7ba5cd6bc96da5e2.jpg",
    "icongray": "https://steamcdn-a.akamaihd.net/steamcommunity/public/images/apps/761890/3fdc367cdf0716c15aba6cb5f66bb90d56f45386.jpg"
  },
  {
    "name": "SA_PLAYERISLAND_BUILD_02",
    "defaultvalue": 0,
    "displayName": "My Home is my Castle",
    "hidden": 0,
    "description": "Upgrade a house on your island to Tier 8.",
    "icon": "https://steamcdn-a.akamaihd.net/steamcommunity/public/images/apps/761890/123cdb9ba8b406b43440ad002b1b7ebaecf497b8.jpg",
    "icongray": "https://steamcdn-a.akamaihd.net/steamcommunity/public/images/apps/761890/0fb5c2bea1bd874ad00165119229559be2d36aaf.jpg"
  },
  {
    "name": "SA_PLAYERISLAND_LABORER_01",
    "defaultvalue": 0,
    "displayName": "Shared Workload",
    "hidden": 0,
    "description": "Employ any kind of Laborer.",
    "icon": "https://steamcdn-a.akamaihd.net/steamcommunity/public/images/apps/761890/63d5d89d16d8ff7b138f20153e455da8308f4a1d.jpg",
    "icongray": "https://steamcdn-a.akamaihd.net/steamcommunity/public/images/apps/761890/74fa54e3ce48131c4830aea46713dd560b38dabf.jpg"
  },
  {
    "name": "SA_PLAYERISLAND_LABORER_02",
    "defaultvalue": 0,
    "displayName": "Your very own indentured servant!",
    "hidden": 0,
    "description": "Have a Tier 8 Laborer and send them on a mission.",
    "icon": "https://steamcdn-a.akamaihd.net/steamcommunity/public/images/apps/761890/b54c5729d2cf4b7ae0593df8c20586693bda5d7f.jpg",
    "icongray": "https://steamcdn-a.akamaihd.net/steamcommunity/public/images/apps/761890/af40ce257b11934959de176cc194be6b32e12a96.jpg"
  },
  {
    "name": "SA_PLAYERISLAND_LABORER_03",
    "defaultvalue": 0,
    "displayName": "Happy Workforce",
    "hidden": 0,
    "description": "Send a Laborer with at least 100% yield on a mission.",
    "icon": "https://steamcdn-a.akamaihd.net/steamcommunity/public/images/apps/761890/77455e60f365ec2a23aa13b78e6f79bbefb59a30.jpg",
    "icongray": "https://steamcdn-a.akamaihd.net/steamcommunity/public/images/apps/761890/6d3e4e4407d3eb306e44863aa6a06e7c73e32040.jpg"
  },
  {
    "name": "SA_PLAYERISLAND_MAX",
    "defaultvalue": 0,
    "displayName": "My sanctuary. Complete.",
    "hidden": 0,
    "description": "Upgrade your island to the maximum of 6/6.",
    "icon": "https://steamcdn-a.akamaihd.net/steamcommunity/public/images/apps/761890/b54c5729d2cf4b7ae0593df8c20586693bda5d7f.jpg",
    "icongray": "https://steamcdn-a.akamaihd.net/steamcommunity/public/images/apps/761890/af40ce257b11934959de176cc194be6b32e12a96.jpg"
  },
  {
    "name": "SA_FARMING_HORSE",
    "defaultvalue": 0,
    "displayName": "Horsin' Around",
    "hidden": 0,
    "description": "Raise a horse.",
    "icon": "https://steamcdn-a.akamaihd.net/steamcommunity/public/images/apps/761890/86a113563773e0f783144e5fc5e5e28efe007230.jpg",
    "icongray": "https://steamcdn-a.akamaihd.net/steamcommunity/public/images/apps/761890/c0127d70ffd7da85f8b21ef5ab6665589a637cfa.jpg"
  },
  {
    "name": "SA_PVP_GVG_WIN_01",
    "defaultvalue": 0,
    "displayName": "All Your Base are Belong to Us",
    "hidden": 0,
    "description": "Participate in a successful attack on a territory.",
    "icon": "https://steamcdn-a.akamaihd.net/steamcommunity/public/images/apps/761890/234289ad72d348cd7e059d407e12d726ecc11604.jpg",
    "icongray": "https://steamcdn-a.akamaihd.net/steamcommunity/public/images/apps/761890/8c1d9e9e813a1e32041a9f68db2333b9873b2d62.jpg"
  },
  {
    "name": "SA_PVP_TERMINATOR",
    "defaultvalue": 0,
    "displayName": "Give me your clothes, your boots and your mount...",
    "hidden": 1,
    "icon": "https://steamcdn-a.akamaihd.net/steamcommunity/public/images/apps/761890/d8368ade6d7fbd63aa1e59e830d0d8898ace4102.jpg",
    "icongray": "https://steamcdn-a.akamaihd.net/steamcommunity/public/images/apps/761890/29938c8aa2c094e95bb062eb204dd408845a4e63.jpg"
  },
  {
    "name": "SA_PVP_WIN_HELLGATE_01",
    "defaultvalue": 0,
    "displayName": "Tonight We Dine in Hell!",
    "hidden": 0,
    "description": "Defeat a Hellgate Boss.",
    "icon": "https://steamcdn-a.akamaihd.net/steamcommunity/public/images/apps/761890/0186a1f7607d00b40659b348b75b56253d7e6adf.jpg",
    "icongray": "https://steamcdn-a.akamaihd.net/steamcommunity/public/images/apps/761890/115df12880609b66ef956b16a8c6e4a07bba9223.jpg"
  },
  {
    "name": "SA_TRADE_ANY_ITEM_BM",
    "defaultvalue": 0,
    "displayName": "Smuggler",
    "hidden": 0,
    "description": "Sell any item on the Black Market in Caerleon.",
    "icon": "https://steamcdn-a.akamaihd.net/steamcommunity/public/images/apps/761890/4dc32ce8edf93f95ef7fa5b3e1f8c589beaa250e.jpg",
    "icongray": "https://steamcdn-a.akamaihd.net/steamcommunity/public/images/apps/761890/393484af996a256b158bc3f92a6c8189bf195704.jpg"
  },
  {
    "name": "SA_TRADE_ANY_ITEM_MP",
    "defaultvalue": 0,
    "displayName": "Sold!",
    "hidden": 0,
    "description": "Sell any item through the Marketplace.",
    "icon": "https://steamcdn-a.akamaihd.net/steamcommunity/public/images/apps/761890/f200b064227d1a65ee144f15bba45bc2bee7060b.jpg",
    "icongray": "https://steamcdn-a.akamaihd.net/steamcommunity/public/images/apps/761890/c7def190d50b41627ca8362dd0177bc9c2fc11c9.jpg"
  },
  {
    "name": "SA_TRADE_SILVER_01",
    "defaultvalue": 0,
    "displayName": "Entrepreneur",
    "hidden": 0,
    "description": "Earn a total of 100,000 Silver through the Marketplace.",
    "icon": "https://steamcdn-a.akamaihd.net/steamcommunity/public/images/apps/761890/84a273329730c0fd99a46a2698094ce49d756cbf.jpg",
    "icongray": "https://steamcdn-a.akamaihd.net/steamcommunity/public/images/apps/761890/02470cbababed5fe7cb19e112cc1da3ea483229e.jpg"
  },
  {
    "name": "SA_TRADE_SILVER_02",
    "defaultvalue": 0,
    "displayName": "Grand Merchant",
    "hidden": 0,
    "description": "Earn a total of 1,000,000 Silver through the Marketplace.",
    "icon": "https://steamcdn-a.akamaihd.net/steamcommunity/public/images/apps/761890/e792d71b5686a1cc686cc5906e408f3c479e5f0e.jpg",
    "icongray": "https://steamcdn-a.akamaihd.net/steamcommunity/public/images/apps/761890/59ba545dcc2946582874d1e435301cebd8974aea.jpg"
  },
  {
    "name": "SA_TRADE_SILVER_03",
    "defaultvalue": 0,
    "displayName": "Tycoon",
    "hidden": 0,
    "description": "Earn a total of 10,000,000 Silver through the Marketplace.",
    "icon": "https://steamcdn-a.akamaihd.net/steamcommunity/public/images/apps/761890/5a853affc3398dbcebefa581de4dc3713a4c23e8.jpg",
    "icongray": "https://steamcdn-a.akamaihd.net/steamcommunity/public/images/apps/761890/18bd3503eb8f1db1a8d75f05476d84750a14b03a.jpg"
  },
  {
    "name": "SA_FACTIONWARFARE_JOIN",
    "defaultvalue": 0,
    "displayName": "WE. NEED. YOU.",
    "hidden": 0,
    "description": "Join any of the five City Factions.",
    "icon": "https://steamcdn-a.akamaihd.net/steamcommunity/public/images/apps/761890/a502b2f1500f775cfa21203ad07d6f386d755746.jpg",
    "icongray": "https://steamcdn-a.akamaihd.net/steamcommunity/public/images/apps/761890/1c8a1cbca5f6ff919ad2d0379077433b6a3b33fa.jpg"
  },
  {
    "name": "SA_FACTIONWARFARE_JOIN_ALL",
    "defaultvalue": 0,
    "displayName": "Irons in the Fire",
    "hidden": 0,
    "description": "Join each of the five City Factions at least once.",
    "icon": "https://steamcdn-a.akamaihd.net/steamcommunity/public/images/apps/761890/3c6b1c227451ab1dbbdeeaba93a56f87f1d4fdc0.jpg",
    "icongray": "https://steamcdn-a.akamaihd.net/steamcommunity/public/images/apps/761890/b95b505b49835ac9c9f0eeaddf64c19107ce1fda.jpg"
  },
  {
    "name": "SA_FACTIONWARFARE_CAPTURE_01",
    "defaultvalue": 0,
    "displayName": "Get off my lawn!",
    "hidden": 0,
    "description": "Capture an Outpost. ",
    "icon": "https://steamcdn-a.akamaihd.net/steamcommunity/public/images/apps/761890/a16b260a373bec5025bfbce4b46ab86eec00ad89.jpg",
    "icongray": "https://steamcdn-a.akamaihd.net/steamcommunity/public/images/apps/761890/210622ca350d3d440c5af7528a8996f83b4b4ab4.jpg"
  },
  {
    "name": "SA_FACTIONWARFARE_CAPTURE_02",
    "defaultvalue": 0,
    "displayName": "Frontier Justice",
    "hidden": 0,
    "description": "Capture 10 Outposts.",
    "icon": "https://steamcdn-a.akamaihd.net/steamcommunity/public/images/apps/761890/818ddaf8e5d6ee0f107b39a745ee969c18249d42.jpg",
    "icongray": "https://steamcdn-a.akamaihd.net/steamcommunity/public/images/apps/761890/2a066cc53bd6140c9d918b3c441281641bb9f309.jpg"
  },
  {
    "name": "SA_FACTIONWARFARE_CAPTURE_03",
    "defaultvalue": 0,
    "displayName": "Napoleon Complex",
    "hidden": 0,
    "description": "Capture 100 Outposts.",
    "icon": "https://steamcdn-a.akamaihd.net/steamcommunity/public/images/apps/761890/57adb97d1fb5849925385c1c088874a04971e649.jpg",
    "icongray": "https://steamcdn-a.akamaihd.net/steamcommunity/public/images/apps/761890/55b65625874f670152c26ab5b1c4df5f9903c791.jpg"
  },
  {
    "name": "SA_FACTIONWARFARE_KILLBOSS_ALL",
    "defaultvalue": 0,
    "displayName": "New Sheriff in Town",
    "hidden": 0,
    "description": "Defeat all five City Faction Warmasters.",
    "icon": "https://steamcdn-a.akamaihd.net/steamcommunity/public/images/apps/761890/e779f0dea6c7436a21caa09910ef094a91d7b62b.jpg",
    "icongray": "https://steamcdn-a.akamaihd.net/steamcommunity/public/images/apps/761890/57fe4fd486c2bde456bd1a8d413c748453905c13.jpg"
  },
  {
    "name": "SA_FACTIONWARFARE_STANDING_MAX",
    "defaultvalue": 0,
    "displayName": "Partisan",
    "hidden": 0,
    "description": "Achieve maximum standing with any faction.",
    "icon": "https://steamcdn-a.akamaihd.net/steamcommunity/public/images/apps/761890/13432057faf2b3567bf20cdb80890aa9e433c41b.jpg",
    "icongray": "https://steamcdn-a.akamaihd.net/steamcommunity/public/images/apps/761890/04da68d5a17d8356aa029df4186402d559d5b118.jpg"
  },
  {
    "name": "SA_FACTIONWARFARE_TRADEMISSION_01",
    "defaultvalue": 0,
    "displayName": "Safe Passage",
    "hidden": 0,
    "description": "Finish a Trade Mission for any city.",
    "icon": "https://steamcdn-a.akamaihd.net/steamcommunity/public/images/apps/761890/b8d4116a97df0702a87f099cb623d041fede5028.jpg",
    "icongray": "https://steamcdn-a.akamaihd.net/steamcommunity/public/images/apps/761890/b92946ae08f6a39a3615073f0220420bbd0d30d6.jpg"
  },
  {
    "name": "SA_COLLECTION_OVERCHARGE_01",
    "defaultvalue": 0,
    "displayName": "Turn it up to 11!",
    "hidden": 0,
    "description": "Overcharge one or more equipped items.",
    "icon": "https://steamcdn-a.akamaihd.net/steamcommunity/public/images/apps/761890/d0b2a865ae6e5de45a85808f7cba125f7288e75a.jpg",
    "icongray": "https://steamcdn-a.akamaihd.net/steamcommunity/public/images/apps/761890/b7ddeca7c1487f7628b2ab758294a1e2506db9c1.jpg"
  },
  {
    "name": "SA_ANNIVERSARY_01",
    "defaultvalue": 0,
    "displayName": "One Year of Service",
    "hidden": 0,
    "description": "Be part of Albion for one year.",
    "icon": "https://steamcdn-a.akamaihd.net/steamcommunity/public/images/apps/761890/a3b4e66f6604de6c221dc399e26d16b3a3ae5b73.jpg",
    "icongray": "https://steamcdn-a.akamaihd.net/steamcommunity/public/images/apps/761890/6318c106f2a9758fc397560db9fab5e741e2b77c.jpg"
  },
  {
    "name": "SA_COLLECTION_TUTORIAL",
    "defaultvalue": 0,
    "displayName": "Cast Away",
    "hidden": 0,
    "description": "Complete the tutorial.",
    "icon": "https://steamcdn-a.akamaihd.net/steamcommunity/public/images/apps/761890/92843957da67d920095b1c630822fd87d36be1b0.jpg",
    "icongray": "https://steamcdn-a.akamaihd.net/steamcommunity/public/images/apps/761890/58842ae945a3789ace8b5bb16450ef28f94b179b.jpg"
  },
  {
    "name": "SA_COLLECTION_TUTORIAL_02",
    "defaultvalue": 0,
    "displayName": "Whatever Floats Your Boat",
    "hidden": 0,
    "description": "Fix Captain Tia's ship.",
    "icon": "https://steamcdn-a.akamaihd.net/steamcommunity/public/images/apps/761890/3564701cadb2a8bb24c3d8a5f3804bd7be40a2c3.jpg",
    "icongray": "https://steamcdn-a.akamaihd.net/steamcommunity/public/images/apps/761890/99f31ab6df92c45077f51f0bc09658dcb21588e6.jpg"
  },
  {
    "name": "SA_PVE_RANDOMDUNGEON_ENTERED_01",
    "defaultvalue": 0,
    "displayName": "Into the Unknown",
    "hidden": 0,
    "description": "Enter a Randomized Dungeon.",
    "icon": "https://steamcdn-a.akamaihd.net/steamcommunity/public/images/apps/761890/47d5c13b6440ee4555ff3a14ed37fb6556d2b188.jpg",
    "icongray": "https://steamcdn-a.akamaihd.net/steamcommunity/public/images/apps/761890/df1e1850dc581e4241a3f4c94ce01f6f5e32c881.jpg"
  },
  {
    "name": "SA_PVE_RANDOMDUNGEON_ENTERED_02",
    "defaultvalue": 0,
    "displayName": "Tomb Raider",
    "hidden": 0,
    "description": "Enter 1,000 Randomized Dungeons.",
    "icon": "https://steamcdn-a.akamaihd.net/steamcommunity/public/images/apps/761890/4b0c1faae81cdef4ece0d4fc320b7fc71bb84d83.jpg",
    "icongray": "https://steamcdn-a.akamaihd.net/steamcommunity/public/images/apps/761890/d6205a6b4ba8bb7d2e8fa87055357f5ec347af53.jpg"
  },
  {
    "name": "SA_PVP_CRYSTAL_PARTICIPATION",
    "defaultvalue": 0,
    "displayName": "Crystal Realm Chronicles",
    "hidden": 0,
    "description": "Participate in a Crystal Realm Battle.",
    "icon": "https://steamcdn-a.akamaihd.net/steamcommunity/public/images/apps/761890/b565c34aba6637e573ed6393fb05dafd9f2962ef.jpg",
    "icongray": "https://steamcdn-a.akamaihd.net/steamcommunity/public/images/apps/761890/a25453944b692dba6d68a1d935cb43e20077a7fd.jpg"
  },
  {
    "name": "SA_COLLECTION_PARTYFINDER",
    "defaultvalue": 0,
    "displayName": "Party Time!",
    "hidden": 0,
    "description": "Use the Party Finder to form or join a party.",
    "icon": "https://steamcdn-a.akamaihd.net/steamcommunity/public/images/apps/761890/ba513c3d0050f48e92f86ab735b362fedd6c1bd9.jpg",
    "icongray": "https://steamcdn-a.akamaihd.net/steamcommunity/public/images/apps/761890/12e7be2ba419dc3b864bb859df36a05c543dd97f.jpg"
  },
  {
    "name": "SA_PVE_RANDOMDUNGEON_LEGENDARY",
    "defaultvalue": 0,
    "displayName": "Seen it All",
    "hidden": 0,
    "description": "Kill the legendary Morgana Demon General, Keeper Earth Aspirant, Undead Reaper, and Heretic Shadowmask.",
    "icon": "https://steamcdn-a.akamaihd.net/steamcommunity/public/images/apps/761890/a407daea47ef3d275e52a222ecff394b444c7c41.jpg",
    "icongray": "https://steamcdn-a.akamaihd.net/steamcommunity/public/images/apps/761890/c02aadeb7657a4ee419a7a2243d6310c0a0edbff.jpg"
  },
  {
    "name": "SA_PVE_KILL_MINIGUARDIANS",
    "defaultvalue": 0,
    "displayName": "Big Game Hunter",
    "hidden": 0,
    "description": "Kill a Guardian Aspect from every biome.",
    "icon": "https://steamcdn-a.akamaihd.net/steamcommunity/public/images/apps/761890/7a8340ae61cc5b381a3010f3fe17dbed87ba40d5.jpg",
    "icongray": "https://steamcdn-a.akamaihd.net/steamcommunity/public/images/apps/761890/3c81a8fa48ae2eae6e5c76ae924be85d9900033f.jpg"
  },
  {
    "name": "SA_COLLECTION_LOOTCHEST",
    "defaultvalue": 0,
    "displayName": "Lost my chest-ity",
    "hidden": 0,
    "description": "Unlock your first chest in any kind of randomized dungeon.",
    "icon": "https://steamcdn-a.akamaihd.net/steamcommunity/public/images/apps/761890/bd665d8cb6794e61ad514a788e136aab3c4493da.jpg",
    "icongray": "https://steamcdn-a.akamaihd.net/steamcommunity/public/images/apps/761890/b350ab733798f3829a6dc7856d3bfcc151a876bc.jpg"
  },
  {
    "name": "SA_COLLECTION_VANITY_UNLOCK",
    "defaultvalue": 0,
    "displayName": "Just a trim, please.",
    "hidden": 0,
    "description": "Unlock any customization option.",
    "icon": "https://steamcdn-a.akamaihd.net/steamcommunity/public/images/apps/761890/8a108b120ae31113a64885597ce75ebff345b53a.jpg",
    "icongray": "https://steamcdn-a.akamaihd.net/steamcommunity/public/images/apps/761890/389936df4f1ee9493be87be4bd973c06058900f8.jpg"
  },
  {
    "name": "SA_COLLECTION_VANITY_MOUNTSKIN",
    "defaultvalue": 0,
    "displayName": "Look at my horse, my horse is amazing!",
    "hidden": 0,
    "description": "Apply any Mount Skin.",
    "icon": "https://steamcdn-a.akamaihd.net/steamcommunity/public/images/apps/761890/003e2d77e6341481881c5746bc0b28831d64dc3d.jpg",
    "icongray": "https://steamcdn-a.akamaihd.net/steamcommunity/public/images/apps/761890/8ee079e9319c91588428660a2676925479a00d23.jpg"
  },
  {
    "name": "SA_PVE_RANDOMDUNGEON_LOOTCHEST_SOLO_01",
    "defaultvalue": 0,
    "displayName": "My precious!",
    "hidden": 0,
    "description": "Unlock 10 chests in solo randomized dungeons.",
    "icon": "https://steamcdn-a.akamaihd.net/steamcommunity/public/images/apps/761890/c04139e135f22b90a4ba38ffec0fc9fcbfa0945c.jpg",
    "icongray": "https://steamcdn-a.akamaihd.net/steamcommunity/public/images/apps/761890/7fce1edb840f2c091e71be0857178e3fc8de7e40.jpg"
  },
  {
    "name": "SA_PVE_RANDOMDUNGEON_LOOTCHEST_SOLO_02",
    "defaultvalue": 0,
    "displayName": "Treasure Hunter",
    "hidden": 0,
    "description": "Unlock 100 chests in solo randomized dungeons.",
    "icon": "https://steamcdn-a.akamaihd.net/steamcommunity/public/images/apps/761890/98875624b5ad0c52247abd6d61ae3d90efbcc634.jpg",
    "icongray": "https://steamcdn-a.akamaihd.net/steamcommunity/public/images/apps/761890/b1f9b2d1ad9667d83f46d1d976373522e91075c7.jpg"
  },
  {
    "name": "SA_PVE_RANDOMDUNGEON_LOOTCHEST_GROUP_01",
    "defaultvalue": 0,
    "displayName": "Mind if I roll need?",
    "hidden": 0,
    "description": "Unlock 10 chests with your party in group randomized dungeons.",
    "icon": "https://steamcdn-a.akamaihd.net/steamcommunity/public/images/apps/761890/5e9707c84baee8751076a998227899ce7f541aa5.jpg",
    "icongray": "https://steamcdn-a.akamaihd.net/steamcommunity/public/images/apps/761890/ed0d7b62c61f2ae20cc66bc24b1bcf92329dd92c.jpg"
  },
  {
    "name": "SA_PVE_RANDOMDUNGEON_LOOTCHEST_GROUP_02",
    "defaultvalue": 0,
    "displayName": "Chest Rat",
    "hidden": 0,
    "description": "Unlock 100 chests with your party in group randomized dungeons.",
    "icon": "https://steamcdn-a.akamaihd.net/steamcommunity/public/images/apps/761890/bdf1236e81d5f8eb9b824da914f9d433ee3e7dfa.jpg",
    "icongray": "https://steamcdn-a.akamaihd.net/steamcommunity/public/images/apps/761890/ce2f17765025fc303da07c88eec1b430cc903f2d.jpg"
  },
  {
    "name": "SA_PVE_RANDOMDUNGEON_LOOTCHEST_ELITE_01",
    "defaultvalue": 0,
    "displayName": "This Belongs in a Museum",
    "hidden": 0,
    "description": "Unlock 10 chests in Elite Randomized Dungeons.",
    "icon": "https://steamcdn-a.akamaihd.net/steamcommunity/public/images/apps/761890/410867786030212fc989e831e7965757b93ddac4.jpg",
    "icongray": "https://steamcdn-a.akamaihd.net/steamcommunity/public/images/apps/761890/413a43b8060c3574ee88c8c4519378631e06f1e5.jpg"
  },
  {
    "name": "SA_PVE_RANDOMDUNGEON_LOOTCHEST_ELITE_02",
    "defaultvalue": 0,
    "displayName": "Loot Goblins",
    "hidden": 0,
    "description": "Unlock 100 chests in Elite Randomized Dungeons.",
    "icon": "https://steamcdn-a.akamaihd.net/steamcommunity/public/images/apps/761890/9b243a9982fbed695525df37285d05c5f7377bbe.jpg",
    "icongray": "https://steamcdn-a.akamaihd.net/steamcommunity/public/images/apps/761890/a313155a9de25cc860572f956f62deba7bbb1784.jpg"
  },
  {
    "name": "SA_PVE_KILL_RD_ELITE_01",
    "defaultvalue": 0,
    "displayName": "In a League of Their Own",
    "hidden": 0,
    "description": "Kill the following Avalonian bosses in Elite Randomized Dungeons: Knight Captain, Construct, Crystal Basilisk, High Priestess, Archmage.",
    "icon": "https://steamcdn-a.akamaihd.net/steamcommunity/public/images/apps/761890/54462d64d30cf963c2f8a95349c4c4f2a97bf4dd.jpg",
    "icongray": "https://steamcdn-a.akamaihd.net/steamcommunity/public/images/apps/761890/13309048b5f6ec67fe0cde694960dbc4ef14c324.jpg"
  },
  {
    "name": "SA_PVE_KILL_RD_ELITE_02",
    "defaultvalue": 0,
    "displayName": "Bound by His Oath",
    "hidden": 0,
    "description": "Kill Sir Bedivere in an Elite Randomized Dungeon.",
    "icon": "https://steamcdn-a.akamaihd.net/steamcommunity/public/images/apps/761890/9806fb3e9487d7af2e9011d9a883e7ce878b63b6.jpg",
    "icongray": "https://steamcdn-a.akamaihd.net/steamcommunity/public/images/apps/761890/f3d98697b2de10d62cfd58664b4771cd730526af.jpg"
  },
  {
    "name": "SA_PVP_CRYSTAL_LEAGUE_WIN",
    "defaultvalue": 0,
    "displayName": "Crystal Novice",
    "hidden": 0,
    "description": "Win a Crystal League Match.",
    "icon": "https://steamcdn-a.akamaihd.net/steamcommunity/public/images/apps/761890/b93539f0d9ce8962e133fcdd9887ea5e77a8f7b8.jpg",
    "icongray": "https://steamcdn-a.akamaihd.net/steamcommunity/public/images/apps/761890/d3e462817242df22df041b5cb25d73778343ae7e.jpg"
  },
  {
    "name": "SA_PVP_CRYSTAL_LEAGUE_RANK_01",
    "defaultvalue": 0,
    "displayName": "Crystal Adept",
    "hidden": 0,
    "description": "Win a Crystal League Match of Rank 3.",
    "icon": "https://steamcdn-a.akamaihd.net/steamcommunity/public/images/apps/761890/8b47de869e1080dc394cbcf9843a4c9e72df8dbd.jpg",
    "icongray": "https://steamcdn-a.akamaihd.net/steamcommunity/public/images/apps/761890/1e02b5dcbfb057092f0a9ecd174359491e31eec3.jpg"
  },
  {
    "name": "SA_PVP_CRYSTAL_LEAGUE_RANK_02",
    "defaultvalue": 0,
    "displayName": "Crystal Grandmaster",
    "hidden": 0,
    "description": "Win a Crystal League Match of Rank 7.",
    "icon": "https://steamcdn-a.akamaihd.net/steamcommunity/public/images/apps/761890/673d0535859ab7393f2e04518d578edd8424ffae.jpg",
    "icongray": "https://steamcdn-a.akamaihd.net/steamcommunity/public/images/apps/761890/d25dcace03a205bff472650842835c944e2d2bad.jpg"
  },
  {
    "name": "SA_PVP_TERRITORY_DEFEAT_COMMANDER",
    "defaultvalue": 0,
    "displayName": "Pull the Plug",
    "hidden": 0,
    "description": "Defeat the Sentry Mage in an enemy territory.",
    "icon": "https://steamcdn-a.akamaihd.net/steamcommunity/public/images/apps/761890/55bbcb86b271ea788a27dbca744e4342c30c4319.jpg",
    "icongray": "https://steamcdn-a.akamaihd.net/steamcommunity/public/images/apps/761890/279e12d6b0630a21b85dfb9603b325cf946adb0c.jpg"
  },
  {
    "name": "SA_COLLECTION_ELITE_DUNGEON_BUFF",
    "defaultvalue": 0,
    "displayName": "Empowered!",
    "hidden": 0,
    "description": "Receive the buff from the final shrine in an Elite Randomized Dungeon.",
    "icon": "https://steamcdn-a.akamaihd.net/steamcommunity/public/images/apps/761890/2836aaa75b9735cbc13a53a58c0783e422644571.jpg",
    "icongray": "https://steamcdn-a.akamaihd.net/steamcommunity/public/images/apps/761890/924f25820e5138a25ca3c4e5a599f3a1e1e4ab63.jpg"
  },
  {
    "name": "SA_PVP_CORRUPTED_DUNGEON_01",
    "defaultvalue": 0,
    "displayName": "Invader Banished",
    "hidden": 0,
    "description": "Defeat an invading player in a Corrupted Dungeon.",
    "icon": "https://steamcdn-a.akamaihd.net/steamcommunity/public/images/apps/761890/fdbbaae6d323dd1a7b77b9e2c50aefdbc566c5d4.jpg",
    "icongray": "https://steamcdn-a.akamaihd.net/steamcommunity/public/images/apps/761890/abf3dc1db82d68884714a17d31d221633b69bdf0.jpg"
  },
  {
    "name": "SA_PVP_CORRUPTED_DUNGEON_02",
    "defaultvalue": 0,
    "displayName": "Target Destroyed",
    "hidden": 0,
    "description": "Defeat another player after invading their Corrupted Dungeon.",
    "icon": "https://steamcdn-a.akamaihd.net/steamcommunity/public/images/apps/761890/6b73dc894a09d4d7acfad5f5c500ed09421d1403.jpg",
    "icongray": "https://steamcdn-a.akamaihd.net/steamcommunity/public/images/apps/761890/3372429f5fe4b2da35db598f95a846e671d7162c.jpg"
  },
  {
    "name": "SA_COLLECTION_CORRUPTED_DUNGEONS_INFAMY",
    "defaultvalue": 0,
    "displayName": "On and On, South of Avalon",
    "hidden": 0,
    "description": "Unlock the Slayer difficulty in Corrupted Dungeons.",
    "icon": "https://steamcdn-a.akamaihd.net/steamcommunity/public/images/apps/761890/b06d5ee29236cbb9bf5f1248a5caaa6e6c07fe19.jpg",
    "icongray": "https://steamcdn-a.akamaihd.net/steamcommunity/public/images/apps/761890/05c71212bb3dfafeaf32cc144c1656ff3e8f2552.jpg"
  },
  {
    "name": "SA_PVE_CORRUPTED_DUNGEONS_01",
    "defaultvalue": 0,
    "displayName": "Corrupted No More",
    "hidden": 0,
    "description": "Defeat the final boss in a Corrupted Dungeon.",
    "icon": "https://steamcdn-a.akamaihd.net/steamcommunity/public/images/apps/761890/dea9dced040fcda7792c8b26ba3950529119a010.jpg",
    "icongray": "https://steamcdn-a.akamaihd.net/steamcommunity/public/images/apps/761890/5b816e03479721465d599ced8795eb0cf4da8d3c.jpg"
  },
  {
    "name": "SA_PVE_CORRUPTED_DUNGEONS_02",
    "defaultvalue": 0,
    "displayName": "Demon Hunter",
    "hidden": 0,
    "description": "Defeat 100 enemies in Corrupted Dungeons.",
    "icon": "https://steamcdn-a.akamaihd.net/steamcommunity/public/images/apps/761890/0e0b5f4f84513fbede2558b1d37c8be3bc85f49c.jpg",
    "icongray": "https://steamcdn-a.akamaihd.net/steamcommunity/public/images/apps/761890/f59656ad1b8b4ead3d860604cd837372c53aab3d.jpg"
  },
  {
    "name": "SA_PVE_CORRUPTED_DUNGEONS_03",
    "defaultvalue": 0,
    "displayName": "Exorcist",
    "hidden": 0,
    "description": "Defeat 1,000 enemies in Corrupted Dungeons.",
    "icon": "https://steamcdn-a.akamaihd.net/steamcommunity/public/images/apps/761890/29b4ecdced6a9654e39346ae1f17fb26d6f57eb3.jpg",
    "icongray": "https://steamcdn-a.akamaihd.net/steamcommunity/public/images/apps/761890/fc62f9021e270bd5f5d14db88fd9070567c7f0d7.jpg"
  },
  {
    "name": "SA_COLLECTION_ROADS_01",
    "defaultvalue": 0,
    "displayName": "Hit the Road",
    "hidden": 0,
    "description": "Enter a Road of Avalon.",
    "icon": "https://steamcdn-a.akamaihd.net/steamcommunity/public/images/apps/761890/1a7313e2b6cc241365b92aa34670a417e9711644.jpg",
    "icongray": "https://steamcdn-a.akamaihd.net/steamcommunity/public/images/apps/761890/2fc4822101ed3b2ab5d1d9645862bec367fbfd4f.jpg"
  },
  {
    "name": "SA_COLLECTION_ROADS_02",
    "defaultvalue": 0,
    "displayName": "Far Down the Rabbit Hole",
    "hidden": 0,
    "description": "Enter a Deep Road of Avalon.",
    "icon": "https://steamcdn-a.akamaihd.net/steamcommunity/public/images/apps/761890/ac07894ec6ea164a3baf5f9eb7bf49d87b2aef8e.jpg",
    "icongray": "https://steamcdn-a.akamaihd.net/steamcommunity/public/images/apps/761890/98d14afa33cd0bbab7641c4ca8fe096fcb6326b9.jpg"
  },
  {
    "name": "SA_PVE_ROADS_GUARDIAN",
    "defaultvalue": 0,
    "displayName": "Big Game Hunter in Another World",
    "hidden": 0,
    "description": "Defeat a Guardian in a Road of Avalon.",
    "icon": "https://steamcdn-a.akamaihd.net/steamcommunity/public/images/apps/761890/c93b6e90eacafbf27ebbf3f0cda37b6c90c48a49.jpg",
    "icongray": "https://steamcdn-a.akamaihd.net/steamcommunity/public/images/apps/761890/4d2954be07bf7c04db4dca532dc20c4542a20bb4.jpg"
  },
  {
    "name": "SA_PVE_ROADS_AVALON",
    "defaultvalue": 0,
    "displayName": "Get Outta My Way!",
    "hidden": 0,
    "description": "Defeat 250 Avalonians in the Roads of Avalon.",
    "icon": "https://steamcdn-a.akamaihd.net/steamcommunity/public/images/apps/761890/d747b9f38a2c00708efda37f089718ba7e816471.jpg",
    "icongray": "https://steamcdn-a.akamaihd.net/steamcommunity/public/images/apps/761890/1b2256103a087da3acb4f2e4769d67065b0c32be.jpg"
  }
]