﻿{
  "Dlcs": {
    "567960": {
      "Name": "Say Goodbye - Deluxe Edition",
      "ImageUrl": "https://steamcdn-a.akamaihd.net/steam/apps/567960/header.jpg?t=1483461581"
    }
  },
  "Name": "Say Goodbye",
  "AppId": "557880",
  "ImageUrl": "https://steamcdn-a.akamaihd.net/steam/apps/557880/header.jpg?t=1483461542",
  "Languages": [
    "english",
    "russian"
  ],
  "Platforms": {
    "windows": true,
    "mac": false,
    "linux": false
  }
}