﻿[
  {
    "name": "ZOMBIE_ZOMBIE",
    "defaultvalue": 0,
    "displayName": "Killed Zombies"
  },
  {
    "name": "SHOTGUN_SHOTGUN",
    "defaultvalue": 0,
    "displayName": "Killed with a shotgun"
  },
  {
    "name": "RIFLE_RIFLE",
    "defaultvalue": 0,
    "displayName": "Killed with a rifle"
  },
  {
    "name": "JERRYCAN_JERRYCAN",
    "defaultvalue": 0,
    "displayName": "Killed by the explosion of the Jerrycan"
  },
  {
    "name": "HEADSHOT_HEADSHOT",
    "defaultvalue": 0,
    "displayName": "Headshots"
  },
  {
    "name": "DISTANCE_DISTANCE",
    "defaultvalue": 0,
    "displayName": "Distance traveled"
  },
  {
    "name": "HEALTH_HEALTH",
    "defaultvalue": 0,
    "displayName": "The amount of reduced health"
  },
  {
    "name": "ARMOR_ARMOR",
    "defaultvalue": 0,
    "displayName": "The amount of reduced armor"
  }
]