﻿{
  "Dlcs": {},
  "Name": "Prominence Poker",
  "AppId": "384180",
  "ImageUrl": "https://steamcdn-a.akamaihd.net/steam/apps/384180/header.jpg?t=1522862292",
  "Languages": [
    "english",
    "french",
    "italian",
    "german",
    "spanish"
  ],
  "Platforms": {
    "windows": true,
    "mac": false,
    "linux": false
  }
}