﻿{
  "Dlcs": {},
  "Name": "Shrouded in Sanity: Freebirth",
  "AppId": "820400",
  "ImageUrl": "https://steamcdn-a.akamaihd.net/steam/apps/820400/header.jpg?t=1521826443",
  "Languages": [
    "english"
  ],
  "Platforms": {
    "windows": true,
    "mac": false,
    "linux": false
  }
}