﻿{
  "Dlcs": {
    "1040500": {
      "Name": "Tabletopia - Altiplano",
      "ImageUrl": "https://steamcdn-a.akamaihd.net/steam/apps/1040500/header.jpg?t=1551299722"
    },
    "869241": {
      "Name": "Tabletopia - Anachrony + Modules",
      "ImageUrl": "https://steamcdn-a.akamaihd.net/steam/apps/869241/header.jpg?t=1555788090"
    },
    "1392020": {
      "Name": "Tabletopia - Aquanauts",
      "ImageUrl": "https://steamcdn-a.akamaihd.net/steam/apps/1392020/header.jpg?t=1597874141"
    },
    "414237": {
      "Name": "Tabletopia - Argent: the Consortium",
      "ImageUrl": "https://steamcdn-a.akamaihd.net/steam/apps/414237/header.jpg?t=1522298291"
    },
    "984160": {
      "Name": "Tabletopia - Between Two Castles of Mad King Ludwig",
      "ImageUrl": "https://steamcdn-a.akamaihd.net/steam/apps/984160/header.jpg?t=1551150558"
    },
    "414230": {
      "Name": "Tabletopia - Champions of Midgard",
      "ImageUrl": "https://steamcdn-a.akamaihd.net/steam/apps/414230/header.jpg?t=1551150837"
    },
    "414233": {
      "Name": "Tabletopia - Champions of Midgard: The Dark Mountains",
      "ImageUrl": "https://steamcdn-a.akamaihd.net/steam/apps/414233/header.jpg?t=1503539385"
    },
    "414234": {
      "Name": "Tabletopia - Champions of Midgard: Valhalla",
      "ImageUrl": "https://steamcdn-a.akamaihd.net/steam/apps/414234/header.jpg?t=1503539304"
    },
    "869240": {
      "Name": "Tabletopia - Eight-Minute Empire: Legends",
      "ImageUrl": "https://steamcdn-a.akamaihd.net/steam/apps/869240/header.jpg?t=1551151057"
    },
    "948570": {
      "Name": "Tabletopia - Euphoria: Build a Better Dystopia",
      "ImageUrl": "https://steamcdn-a.akamaihd.net/steam/apps/948570/header.jpg?t=1537404767"
    },
    "839400": {
      "Name": "Tabletopia - Feudum + Expansions",
      "ImageUrl": "https://steamcdn-a.akamaihd.net/steam/apps/839400/header.jpg?t=1523651092"
    },
    "1370810": {
      "Name": "Tabletopia - Food Truck Champion",
      "ImageUrl": "https://steamcdn-a.akamaihd.net/steam/apps/1370810/header.jpg?t=1594808798"
    },
    "1359610": {
      "Name": "Tabletopia - Guards of Atlantis II",
      "ImageUrl": "https://steamcdn-a.akamaihd.net/steam/apps/1359610/header.jpg?t=1594185136"
    },
    "1351910": {
      "Name": "Tabletopia - Hansa Teutonica + Expansions",
      "ImageUrl": "https://steamcdn-a.akamaihd.net/steam/apps/1351910/header.jpg?t=1594004865"
    },
    "948572": {
      "Name": "Tabletopia - Millennium Blades",
      "ImageUrl": "https://steamcdn-a.akamaihd.net/steam/apps/948572/header.jpg?t=1551151457"
    },
    "931791": {
      "Name": "Tabletopia - Maximum Apocalypse",
      "ImageUrl": "https://steamcdn-a.akamaihd.net/steam/apps/931791/header.jpg?t=1551151731"
    },
    "1391810": {
      "Name": "Tabletopia - NewSpeak",
      "ImageUrl": "https://steamcdn-a.akamaihd.net/steam/apps/1391810/header.jpg?t=1597874149"
    },
    "984161": {
      "Name": "Tabletopia - NOIR",
      "ImageUrl": "https://steamcdn-a.akamaihd.net/steam/apps/984161/header.jpg?t=1551152029"
    },
    "1040501": {
      "Name": "Tabletopia - Orléans",
      "ImageUrl": "https://steamcdn-a.akamaihd.net/steam/apps/1040501/header.jpg?t=1551299749"
    },
    "1350800": {
      "Name": "Tabletopia - Pocket Investigations",
      "ImageUrl": "https://steamcdn-a.akamaihd.net/steam/apps/1350800/header.jpg?t=1594003758"
    },
    "931790": {
      "Name": "Tabletopia - Raiders of the North Sea",
      "ImageUrl": "https://steamcdn-a.akamaihd.net/steam/apps/931790/header.jpg?t=1551152254"
    },
    "414231": {
      "Name": "Tabletopia - Scythe",
      "ImageUrl": "https://steamcdn-a.akamaihd.net/steam/apps/414231/header.jpg?t=1551152508"
    },
    "1351420": {
      "Name": "Tabletopia - Scythe: The Rise of Fenris",
      "ImageUrl": "https://steamcdn-a.akamaihd.net/steam/apps/1351420/header.jpg?t=1594004533"
    },
    "414238": {
      "Name": "Tabletopia - Scythe: The Wind Gambit",
      "ImageUrl": "https://steamcdn-a.akamaihd.net/steam/apps/414238/header.jpg?t=1513599645"
    },
    "414232": {
      "Name": "Tabletopia - Scythe: The Wind Gambit + Invaders from Afar",
      "ImageUrl": "https://steamcdn-a.akamaihd.net/steam/apps/414232/header.jpg?t=1512919786"
    },
    "948571": {
      "Name": "Tabletopia - Sellswords + Olympus",
      "ImageUrl": "https://steamcdn-a.akamaihd.net/steam/apps/948571/header.jpg?t=1537405034"
    },
    "409570": {
      "Name": "Tabletopia - Sub Terra + Expansions",
      "ImageUrl": "https://steamcdn-a.akamaihd.net/steam/apps/409570/header.jpg?t=1551152687"
    },
    "1391930": {
      "Name": "Tabletopia - Sub Terra II: Inferno's Edge",
      "ImageUrl": "https://steamcdn-a.akamaihd.net/steam/apps/1391930/header.jpg?t=1597874152"
    },
    "1348420": {
      "Name": "Tabletopia - Tapestry",
      "ImageUrl": "https://steamcdn-a.akamaihd.net/steam/apps/1348420/header.jpg?t=1593398922"
    },
    "984162": {
      "Name": "Tabletopia - The Networks",
      "ImageUrl": "https://steamcdn-a.akamaihd.net/steam/apps/984162/header.jpg?t=1551153136"
    },
    "414236": {
      "Name": "Tabletopia - Tuscany: Essential Edition",
      "ImageUrl": "https://steamcdn-a.akamaihd.net/steam/apps/414236/header.jpg?t=1551153526"
    },
    "414235": {
      "Name": "Tabletopia - Viticulture: Essential Edition",
      "ImageUrl": "https://steamcdn-a.akamaihd.net/steam/apps/414235/header.jpg?t=1551153655"
    },
    "988180": {
      "Name": "Tabletopia - Wingspan",
      "ImageUrl": "https://steamcdn-a.akamaihd.net/steam/apps/988180/header.jpg?t=1551299734"
    },
    "1217910": {
      "Name": "Tabletopia - Wingspan: European Expansion",
      "ImageUrl": "https://steamcdn-a.akamaihd.net/steam/apps/1217910/header.jpg?t=1578504733"
    },
    "1352110": {
      "Name": "Tabletopia - Wizard Kittens + Magical Monsters Expansion",
      "ImageUrl": "https://steamcdn-a.akamaihd.net/steam/apps/1352110/header.jpg?t=1594248210"
    },
    "1351920": {
      "Name": "Tabletopia - Zoom In Barcelona",
      "ImageUrl": "https://steamcdn-a.akamaihd.net/steam/apps/1351920/header.jpg?t=1594004246"
    }
  },
  "Name": "Tabletopia",
  "AppId": "402560",
  "ImageUrl": "https://steamcdn-a.akamaihd.net/steam/apps/402560/header.jpg?t=1600091636",
  "Languages": [
    "english"
  ],
  "Platforms": {
    "windows": true,
    "mac": true,
    "linux": false
  }
}