﻿[
  {
    "name": "ach_startFineSweeper",
    "defaultvalue": 0,
    "displayName": "Indie Dev Supporter",
    "hidden": 0,
    "description": "Launch Fine Sweeper",
    "icon": "https://steamcdn-a.akamaihd.net/steamcommunity/public/images/apps/367000/879e453066cac13a3c0b5d544f3c37b56f18429e.jpg",
    "icongray": "https://steamcdn-a.akamaihd.net/steamcommunity/public/images/apps/367000/b5cc5455eee5dbcaeea09a36940a97041b5fc13a.jpg"
  },
  {
    "name": "ach_stepon5Kbombs",
    "defaultvalue": 0,
    "displayName": "Lapse Frenzy",
    "hidden": 0,
    "description": "Step on 5000 bombs",
    "icon": "https://steamcdn-a.akamaihd.net/steamcommunity/public/images/apps/367000/346cbb5105f5c25f40805a83da5e64dcf1942f1f.jpg",
    "icongray": "https://steamcdn-a.akamaihd.net/steamcommunity/public/images/apps/367000/b5cc5455eee5dbcaeea09a36940a97041b5fc13a.jpg"
  },
  {
    "name": "ach_1clicksweeper",
    "defaultvalue": 0,
    "displayName": "1-Click Wonder",
    "hidden": 0,
    "description": "Clear the whole board in 1 click",
    "icon": "https://steamcdn-a.akamaihd.net/steamcommunity/public/images/apps/367000/c5615407bfc197c3f2e9c4ad31d6a7381aab14e7.jpg",
    "icongray": "https://steamcdn-a.akamaihd.net/steamcommunity/public/images/apps/367000/b5cc5455eee5dbcaeea09a36940a97041b5fc13a.jpg"
  },
  {
    "name": "ach_flag50Kbombs",
    "defaultvalue": 0,
    "displayName": "The Fine Sweeper",
    "hidden": 1,
    "icon": "https://steamcdn-a.akamaihd.net/steamcommunity/public/images/apps/367000/c1fce8c3f52883c93fb51cac62dc062fe8a9f985.jpg",
    "icongray": "https://steamcdn-a.akamaihd.net/steamcommunity/public/images/apps/367000/b5cc5455eee5dbcaeea09a36940a97041b5fc13a.jpg"
  },
  {
    "name": "ach_beatHiscoreBy1",
    "defaultvalue": 0,
    "displayName": "1-Upped",
    "hidden": 1,
    "icon": "https://steamcdn-a.akamaihd.net/steamcommunity/public/images/apps/367000/8a05bb91ca54c1d8881f9755f4672b1ccbd85925.jpg",
    "icongray": "https://steamcdn-a.akamaihd.net/steamcommunity/public/images/apps/367000/b5cc5455eee5dbcaeea09a36940a97041b5fc13a.jpg"
  },
  {
    "name": "ach_pickUp113Hearts",
    "defaultvalue": 0,
    "displayName": "Ma-Ti",
    "hidden": 1,
    "icon": "https://steamcdn-a.akamaihd.net/steamcommunity/public/images/apps/367000/32ee2c4ad0b02c25c11d0b1e0d2cba9ec9f51d0b.jpg",
    "icongray": "https://steamcdn-a.akamaihd.net/steamcommunity/public/images/apps/367000/b5cc5455eee5dbcaeea09a36940a97041b5fc13a.jpg"
  },
  {
    "name": "ach_speedLv5under1min",
    "defaultvalue": 0,
    "displayName": "Need 4 Sweep",
    "hidden": 0,
    "description": "Make it to level 7 in less than 1 minute",
    "icon": "https://steamcdn-a.akamaihd.net/steamcommunity/public/images/apps/367000/d0b7536a18990a3d92daf77ccda27ebd6446a88f.jpg",
    "icongray": "https://steamcdn-a.akamaihd.net/steamcommunity/public/images/apps/367000/b5cc5455eee5dbcaeea09a36940a97041b5fc13a.jpg"
  },
  {
    "name": "ach_makeItToLv10",
    "defaultvalue": 0,
    "displayName": "Ten Forward",
    "hidden": 1,
    "icon": "https://steamcdn-a.akamaihd.net/steamcommunity/public/images/apps/367000/8a2af21ca7e9949fd3e412f9a7db56233de0574e.jpg",
    "icongray": "https://steamcdn-a.akamaihd.net/steamcommunity/public/images/apps/367000/b5cc5455eee5dbcaeea09a36940a97041b5fc13a.jpg"
  },
  {
    "name": "ach_makeItToLv20",
    "defaultvalue": 0,
    "displayName": "Venti",
    "hidden": 0,
    "description": "Make it to Level 20",
    "icon": "https://steamcdn-a.akamaihd.net/steamcommunity/public/images/apps/367000/f399945085a8bf35e8dac08b434cca1ae4190a13.jpg",
    "icongray": "https://steamcdn-a.akamaihd.net/steamcommunity/public/images/apps/367000/b5cc5455eee5dbcaeea09a36940a97041b5fc13a.jpg"
  },
  {
    "name": "ach_makeItToLv30",
    "defaultvalue": 0,
    "displayName": "The Big Bag",
    "hidden": 0,
    "description": "Make it to Level 30",
    "icon": "https://steamcdn-a.akamaihd.net/steamcommunity/public/images/apps/367000/b865635390cd0509471cd1aabad3ce6ff8e677b8.jpg",
    "icongray": "https://steamcdn-a.akamaihd.net/steamcommunity/public/images/apps/367000/b5cc5455eee5dbcaeea09a36940a97041b5fc13a.jpg"
  },
  {
    "name": "ach_makeItToLv40",
    "defaultvalue": 0,
    "displayName": "Have some Cake",
    "hidden": 1,
    "icon": "https://steamcdn-a.akamaihd.net/steamcommunity/public/images/apps/367000/66911da666050076e3f7d1e9ea6510eb696ca677.jpg",
    "icongray": "https://steamcdn-a.akamaihd.net/steamcommunity/public/images/apps/367000/b5cc5455eee5dbcaeea09a36940a97041b5fc13a.jpg"
  },
  {
    "name": "ach_perfectRunToLv10",
    "defaultvalue": 0,
    "displayName": "Class of '92",
    "hidden": 1,
    "icon": "https://steamcdn-a.akamaihd.net/steamcommunity/public/images/apps/367000/c59b6eb1353eac48f8fe38b1dc465ca5fcfabe20.jpg",
    "icongray": "https://steamcdn-a.akamaihd.net/steamcommunity/public/images/apps/367000/b5cc5455eee5dbcaeea09a36940a97041b5fc13a.jpg"
  },
  {
    "name": "ach_noPickupsUntilLv10",
    "defaultvalue": 0,
    "displayName": "Fine Keeper",
    "hidden": 0,
    "description": "Make it to Level 10 without any pick-ups",
    "icon": "https://steamcdn-a.akamaihd.net/steamcommunity/public/images/apps/367000/b9c6388e9eea4f5f10b4da41dabc7fda5135d8c7.jpg",
    "icongray": "https://steamcdn-a.akamaihd.net/steamcommunity/public/images/apps/367000/b5cc5455eee5dbcaeea09a36940a97041b5fc13a.jpg"
  },
  {
    "name": "ach_maxHeartContainersFull",
    "defaultvalue": 0,
    "displayName": "Seven of Hearts",
    "hidden": 0,
    "description": "Have all heart containers filled",
    "icon": "https://steamcdn-a.akamaihd.net/steamcommunity/public/images/apps/367000/54c6af47aa2be8fb664d9126c6142cc45c5f1d14.jpg",
    "icongray": "https://steamcdn-a.akamaihd.net/steamcommunity/public/images/apps/367000/b5cc5455eee5dbcaeea09a36940a97041b5fc13a.jpg"
  },
  {
    "name": "ach_pickUpFullHeartContainer",
    "defaultvalue": 0,
    "displayName": "What Ails You, My Friend?",
    "hidden": 1,
    "icon": "https://steamcdn-a.akamaihd.net/steamcommunity/public/images/apps/367000/24e0f2f7feec27523d5a0b9860dc66ff85c070a6.jpg",
    "icongray": "https://steamcdn-a.akamaihd.net/steamcommunity/public/images/apps/367000/b5cc5455eee5dbcaeea09a36940a97041b5fc13a.jpg"
  },
  {
    "name": "ach_beatLevel50",
    "defaultvalue": 0,
    "displayName": "Shades Forever",
    "hidden": 1,
    "icon": "https://steamcdn-a.akamaihd.net/steamcommunity/public/images/apps/367000/2b0d52028f1c0385158be5e02195b480c33ae23e.jpg",
    "icongray": "https://steamcdn-a.akamaihd.net/steamcommunity/public/images/apps/367000/b5cc5455eee5dbcaeea09a36940a97041b5fc13a.jpg"
  },
  {
    "name": "ach_xyzzy",
    "defaultvalue": 0,
    "displayName": "A Pixel’s Prophecy",
    "hidden": 1,
    "icon": "https://steamcdn-a.akamaihd.net/steamcommunity/public/images/apps/367000/1cd1492e9da64e1ce804f514a0c50c01c22bba33.jpg",
    "icongray": "https://steamcdn-a.akamaihd.net/steamcommunity/public/images/apps/367000/b5cc5455eee5dbcaeea09a36940a97041b5fc13a.jpg"
  },
  {
    "name": "ach_konamiCode",
    "defaultvalue": 0,
    "displayName": "Up, up...",
    "hidden": 1,
    "icon": "https://steamcdn-a.akamaihd.net/steamcommunity/public/images/apps/367000/1474b534d70a85069e8fa07cd5537ea6c5afd345.jpg",
    "icongray": "https://steamcdn-a.akamaihd.net/steamcommunity/public/images/apps/367000/b5cc5455eee5dbcaeea09a36940a97041b5fc13a.jpg"
  },
  {
    "name": "ach_startCustomGame",
    "defaultvalue": 0,
    "displayName": "Your Deck",
    "hidden": 0,
    "description": "Start a Custom Game",
    "icon": "https://steamcdn-a.akamaihd.net/steamcommunity/public/images/apps/367000/75e2b84128287ada7ac72dbae36c2c8164aa9f0e.jpg",
    "icongray": "https://steamcdn-a.akamaihd.net/steamcommunity/public/images/apps/367000/b5cc5455eee5dbcaeea09a36940a97041b5fc13a.jpg"
  }
]