﻿{
  "Dlcs": {},
  "Name": "Secret Of Magia",
  "AppId": "396160",
  "ImageUrl": "https://steamcdn-a.akamaihd.net/steam/apps/396160/header.jpg?t=1574484701",
  "Languages": [
    "english"
  ],
  "Platforms": {
    "windows": true,
    "mac": false,
    "linux": false
  }
}