﻿[
  {
    "name": "boss1",
    "defaultvalue": 0,
    "displayName": "25-B",
    "hidden": 0,
    "description": "Defeat Roundleaf",
    "icon": "https://steamcdn-a.akamaihd.net/steamcommunity/public/images/apps/359960/040c0a57a8b0f14e113a83640fa383a9fb7807e3.jpg",
    "icongray": "https://steamcdn-a.akamaihd.net/steamcommunity/public/images/apps/359960/f87fc86418994d7be3351e982e870db6b26c7dde.jpg"
  },
  {
    "name": "boss2",
    "defaultvalue": 0,
    "displayName": "50-B",
    "hidden": 0,
    "description": "Defeat Starnose",
    "icon": "https://steamcdn-a.akamaihd.net/steamcommunity/public/images/apps/359960/02087557f315f939a1c67e981d3dd4003df24bd8.jpg",
    "icongray": "https://steamcdn-a.akamaihd.net/steamcommunity/public/images/apps/359960/4bedc1771b2cdacc8549b29304f1a3b197586923.jpg"
  },
  {
    "name": "boss3",
    "defaultvalue": 0,
    "displayName": "75-B",
    "hidden": 0,
    "description": "Defeat Jellyball",
    "icon": "https://steamcdn-a.akamaihd.net/steamcommunity/public/images/apps/359960/cbfce7cf0850c7aeb0ed13f000b87d3539d28c22.jpg",
    "icongray": "https://steamcdn-a.akamaihd.net/steamcommunity/public/images/apps/359960/d9abdb6c75be0c11c4ebda46918dca90aa7007e9.jpg"
  },
  {
    "name": "boss4",
    "defaultvalue": 0,
    "displayName": "100-B",
    "hidden": 0,
    "description": "Defeat Alpha",
    "icon": "https://steamcdn-a.akamaihd.net/steamcommunity/public/images/apps/359960/529811e873b249e021cf8f1c5c0417b4dd9f6189.jpg",
    "icongray": "https://steamcdn-a.akamaihd.net/steamcommunity/public/images/apps/359960/edc3778b0c2de3f535af4c97ed5893476724697b.jpg"
  },
  {
    "name": "bossAll",
    "defaultvalue": 0,
    "displayName": "Et tu?",
    "hidden": 1,
    "icon": "https://steamcdn-a.akamaihd.net/steamcommunity/public/images/apps/359960/7dc062ef1461a216def2577dd07b463c1e9e9401.jpg",
    "icongray": "https://steamcdn-a.akamaihd.net/steamcommunity/public/images/apps/359960/433121ea45f2331331422fac6a62dfe03ddcb643.jpg"
  },
  {
    "name": "2spikes",
    "defaultvalue": 0,
    "displayName": "Didn't Even Hurt",
    "hidden": 0,
    "description": "Possess 2 spiked hearts at the same time",
    "icon": "https://steamcdn-a.akamaihd.net/steamcommunity/public/images/apps/359960/daa149e6bddc1cf3ae0e00d9e85c4a0798af0229.jpg",
    "icongray": "https://steamcdn-a.akamaihd.net/steamcommunity/public/images/apps/359960/47e97991ae450e8fc238f2c1daf6225101acbc53.jpg"
  },
  {
    "name": "10noJump",
    "defaultvalue": 0,
    "displayName": "POGOORNOGO",
    "hidden": 0,
    "description": "Progress through 10 consecutive rooms without pressing jump",
    "icon": "https://steamcdn-a.akamaihd.net/steamcommunity/public/images/apps/359960/d10935cdcf1c0607c4f180c49f67d580ebd51c75.jpg",
    "icongray": "https://steamcdn-a.akamaihd.net/steamcommunity/public/images/apps/359960/9aec54b3cebf949cee8032b6a5830e164f1888b4.jpg"
  },
  {
    "name": "10noLeft",
    "defaultvalue": 0,
    "displayName": "The Right Way",
    "hidden": 0,
    "description": "Progress through 10 consecutive rooms without running left",
    "icon": "https://steamcdn-a.akamaihd.net/steamcommunity/public/images/apps/359960/8bf072f92dbb1e526dcf6eb310e8c19c7113c41d.jpg",
    "icongray": "https://steamcdn-a.akamaihd.net/steamcommunity/public/images/apps/359960/b945bfdaff9c26270ed4a6594e68b8dbf14f0497.jpg"
  },
  {
    "name": "5in1",
    "defaultvalue": 0,
    "displayName": "Fell Swoop",
    "hidden": 0,
    "description": "Defeat 5 or more enemies with a single attack",
    "icon": "https://steamcdn-a.akamaihd.net/steamcommunity/public/images/apps/359960/d15afeb86aeec03e3298eb58f1eeaed16b080a6c.jpg",
    "icongray": "https://steamcdn-a.akamaihd.net/steamcommunity/public/images/apps/359960/2a04d8d3fc053135c55b2a62097ca3e8dbb4bc28.jpg"
  },
  {
    "name": "noWarp",
    "defaultvalue": 0,
    "displayName": "Scenic Route",
    "hidden": 0,
    "description": "Complete the game without warps or shortcuts",
    "icon": "https://steamcdn-a.akamaihd.net/steamcommunity/public/images/apps/359960/c5a032c59717813b88d5c6080bc8b3276adc02fe.jpg",
    "icongray": "https://steamcdn-a.akamaihd.net/steamcommunity/public/images/apps/359960/2e07e0b2409bc36af0c8de20ed1e3dbbf11da5f4.jpg"
  },
  {
    "name": "doneIn15",
    "defaultvalue": 0,
    "displayName": "Detour",
    "hidden": 0,
    "description": "Complete the game in 15 rooms or less (chest and shop rooms don't count)",
    "icon": "https://steamcdn-a.akamaihd.net/steamcommunity/public/images/apps/359960/e9c61eb4be3bdd0d23e15b6ced232bbd35e0930b.jpg",
    "icongray": "https://steamcdn-a.akamaihd.net/steamcommunity/public/images/apps/359960/302e8392cea4a67427fb685da9d476d2e8825e83.jpg"
  },
  {
    "name": "5uniqueHearts",
    "defaultvalue": 0,
    "displayName": "Five of Hearts",
    "hidden": 0,
    "description": "Possess 5 unique hearts at the same time",
    "icon": "https://steamcdn-a.akamaihd.net/steamcommunity/public/images/apps/359960/6c4bf26e350523a5781bb9327f3f63c8ff9f5511.jpg",
    "icongray": "https://steamcdn-a.akamaihd.net/steamcommunity/public/images/apps/359960/4c14f992632776cf01528d001cdddaced26b6cf1.jpg"
  },
  {
    "name": "10uniqueHearts",
    "defaultvalue": 0,
    "displayName": "Ten of Hearts",
    "hidden": 0,
    "description": "Possess 10 unique hearts at the same time",
    "icon": "https://steamcdn-a.akamaihd.net/steamcommunity/public/images/apps/359960/d231fa2d0edce92f90654bbe8c6581a365db3384.jpg",
    "icongray": "https://steamcdn-a.akamaihd.net/steamcommunity/public/images/apps/359960/673c3c49667f71abf3472cd8aec0b6e376a1d013.jpg"
  },
  {
    "name": "5hearts",
    "defaultvalue": 0,
    "displayName": "<33333",
    "hidden": 0,
    "description": "Possess 5 hearts at the same time",
    "icon": "https://steamcdn-a.akamaihd.net/steamcommunity/public/images/apps/359960/499441ad57beab453ffa0599637a841eb54427f6.jpg",
    "icongray": "https://steamcdn-a.akamaihd.net/steamcommunity/public/images/apps/359960/b3c46422d2f810844570dd47db8ebcc404b40a85.jpg"
  },
  {
    "name": "10hearts",
    "defaultvalue": 0,
    "displayName": "<3333333333",
    "hidden": 0,
    "description": "Possess 10 hearts at the same time",
    "icon": "https://steamcdn-a.akamaihd.net/steamcommunity/public/images/apps/359960/31459e118f9e9365aee34e24e842d0dda435faff.jpg",
    "icongray": "https://steamcdn-a.akamaihd.net/steamcommunity/public/images/apps/359960/87dc402267599870cb9b2e6b28a15370c8b41dc7.jpg"
  },
  {
    "name": "bossNoAttacking",
    "defaultvalue": 0,
    "displayName": "What Friends Are For",
    "hidden": 0,
    "description": "Defeat a Boss without attacking nor help from Gizmos",
    "icon": "https://steamcdn-a.akamaihd.net/steamcommunity/public/images/apps/359960/45bcbf872eb6fa52a6c53bcf5d473aefef74832d.jpg",
    "icongray": "https://steamcdn-a.akamaihd.net/steamcommunity/public/images/apps/359960/ca2515cea0fadb8f35cb68e51faf45608ccc455e.jpg"
  },
  {
    "name": "gizmo200",
    "defaultvalue": 0,
    "displayName": "Lurkers No More",
    "hidden": 0,
    "description": "Receive 200% or more entries for a Gizmo",
    "icon": "https://steamcdn-a.akamaihd.net/steamcommunity/public/images/apps/359960/bbb3a02cf9e66b8d8185356091c21a651349b0d7.jpg",
    "icongray": "https://steamcdn-a.akamaihd.net/steamcommunity/public/images/apps/359960/e38add50ae434ef7b9cc19cedd8818830f694525.jpg"
  },
  {
    "name": "upBridge",
    "defaultvalue": 0,
    "displayName": "Stairway to Heaven",
    "hidden": 0,
    "description": "Complete a bridge that never goes back down",
    "icon": "https://steamcdn-a.akamaihd.net/steamcommunity/public/images/apps/359960/3f307766e804de1dcd9a8192b4bd92e8940f8c06.jpg",
    "icongray": "https://steamcdn-a.akamaihd.net/steamcommunity/public/images/apps/359960/034f78b92f1e456bf212191fd707e7b95448263f.jpg"
  },
  {
    "name": "getMax",
    "defaultvalue": 0,
    "displayName": "Get Max",
    "hidden": 0,
    "description": "Unlock Max",
    "icon": "https://steamcdn-a.akamaihd.net/steamcommunity/public/images/apps/359960/91d94d532936b6007f99eda61e67dfe9c65e6773.jpg",
    "icongray": "https://steamcdn-a.akamaihd.net/steamcommunity/public/images/apps/359960/91afe6f2fd1a3da8819bd91d1c781549f6e0b386.jpg"
  },
  {
    "name": "getLucky",
    "defaultvalue": 0,
    "displayName": "Get Lucky",
    "hidden": 0,
    "description": "Unlock Lucky",
    "icon": "https://steamcdn-a.akamaihd.net/steamcommunity/public/images/apps/359960/6d8c70308083966ee0a843acf7f2294cf7f8a1fb.jpg",
    "icongray": "https://steamcdn-a.akamaihd.net/steamcommunity/public/images/apps/359960/d67d5a30c771de2a51bdf1e61d2c6cf409a09b4a.jpg"
  },
  {
    "name": "fireBat",
    "defaultvalue": 0,
    "displayName": "Pass the Torch",
    "hidden": 0,
    "description": "Kill a Bat with fire without attacking it",
    "icon": "https://steamcdn-a.akamaihd.net/steamcommunity/public/images/apps/359960/a5a228db24c85c8d997c8cf59e53ee771c43b070.jpg",
    "icongray": "https://steamcdn-a.akamaihd.net/steamcommunity/public/images/apps/359960/e113319b3caf0b2bf935096a9e949d2ee4f52db0.jpg"
  },
  {
    "name": "leaveEarly",
    "defaultvalue": 0,
    "displayName": "Early Bird",
    "hidden": 0,
    "description": "Exit through a door before defeating all enemies",
    "icon": "https://steamcdn-a.akamaihd.net/steamcommunity/public/images/apps/359960/9270ca83f30d124c47b1590e91876504a0cf087f.jpg",
    "icongray": "https://steamcdn-a.akamaihd.net/steamcommunity/public/images/apps/359960/7f52a1412b973f77dd52bb0203ead2206053ccd7.jpg"
  },
  {
    "name": "2wayTie",
    "defaultvalue": 0,
    "displayName": "Two for the Road",
    "hidden": 0,
    "description": "Purchase 2 items in a shop",
    "icon": "https://steamcdn-a.akamaihd.net/steamcommunity/public/images/apps/359960/90fbdcf18f6fa498cf1dcd2ef407593d2da8c379.jpg",
    "icongray": "https://steamcdn-a.akamaihd.net/steamcommunity/public/images/apps/359960/4bc35105b52ed5f1b32f5a8982007c079229603b.jpg"
  },
  {
    "name": "3wayTie",
    "defaultvalue": 0,
    "displayName": "All the Things",
    "hidden": 0,
    "description": "Purchase all 3 items in a shop",
    "icon": "https://steamcdn-a.akamaihd.net/steamcommunity/public/images/apps/359960/9acc16ee59e56d0c3e09fa74f06c1dded240ce74.jpg",
    "icongray": "https://steamcdn-a.akamaihd.net/steamcommunity/public/images/apps/359960/48b5ef8331adc741a827279ae61b5428d10590fa.jpg"
  },
  {
    "name": "sleepyTotem",
    "defaultvalue": 0,
    "displayName": "Sneak Attack",
    "hidden": 0,
    "description": "Defeat a Totem without waking it up nor help from Gizmos",
    "icon": "https://steamcdn-a.akamaihd.net/steamcommunity/public/images/apps/359960/e2cb41259ec0411574b3874f320c6d3d3ee1c774.jpg",
    "icongray": "https://steamcdn-a.akamaihd.net/steamcommunity/public/images/apps/359960/e466534d5ee8fdde5f35b2ec3a1904797d9fcef0.jpg"
  },
  {
    "name": "5gnats",
    "defaultvalue": 0,
    "displayName": "Groupies",
    "hidden": 0,
    "description": "Be surrounded by 5 or more Gnats at the same time",
    "icon": "https://steamcdn-a.akamaihd.net/steamcommunity/public/images/apps/359960/2a9d8c5f4b6f80a170e28e0345a55df8c76e8dfe.jpg",
    "icongray": "https://steamcdn-a.akamaihd.net/steamcommunity/public/images/apps/359960/a712f3c9fbba472e8a2f7c742bc674876a50dfa2.jpg"
  },
  {
    "name": "bloodsport",
    "defaultvalue": 0,
    "displayName": "Dux Classic",
    "hidden": 0,
    "description": "Defeat a divekicking Diver with 1 heart left",
    "icon": "https://steamcdn-a.akamaihd.net/steamcommunity/public/images/apps/359960/2e0acce08b8bd64df918b1812ac985d5594aeb8b.jpg",
    "icongray": "https://steamcdn-a.akamaihd.net/steamcommunity/public/images/apps/359960/4b61599e9d43ba8f5ec30df1e614f8942c216578.jpg"
  },
  {
    "name": "25bounces",
    "defaultvalue": 0,
    "displayName": "$40",
    "hidden": 0,
    "description": "Bounce a ball on your head 25 times in a row",
    "icon": "https://steamcdn-a.akamaihd.net/steamcommunity/public/images/apps/359960/b764ac950062ab6f6722d4606533b3e0557a67ca.jpg",
    "icongray": "https://steamcdn-a.akamaihd.net/steamcommunity/public/images/apps/359960/95b89fd3319a0d5abcf1a240c0d51eb5c45164d2.jpg"
  },
  {
    "name": "50bounces",
    "defaultvalue": 0,
    "displayName": "$89",
    "hidden": 0,
    "description": "Bounce a ball on your head 50 times in a row",
    "icon": "https://steamcdn-a.akamaihd.net/steamcommunity/public/images/apps/359960/4608e70d04f3cf72c4134227cdb23793e13b7818.jpg",
    "icongray": "https://steamcdn-a.akamaihd.net/steamcommunity/public/images/apps/359960/912f25ca8b07c02c584ecf0791a1fa0b41da04a5.jpg"
  },
  {
    "name": "brokenOnly",
    "defaultvalue": 0,
    "displayName": ":'(",
    "hidden": 0,
    "description": "Possess only a Broken Heart",
    "icon": "https://steamcdn-a.akamaihd.net/steamcommunity/public/images/apps/359960/c609ba46a5a8f4feea533fb66d9be6b204cf5e9d.jpg",
    "icongray": "https://steamcdn-a.akamaihd.net/steamcommunity/public/images/apps/359960/40c75a62d7c61a3ad9001eed282ad6a7c2633dd3.jpg"
  },
  {
    "name": "lastStack",
    "defaultvalue": 0,
    "displayName": "Final Nail",
    "hidden": 0,
    "description": "Get crushed by the final block in the Stack Room",
    "icon": "https://steamcdn-a.akamaihd.net/steamcommunity/public/images/apps/359960/339d59d4f7499be536b83fabd10ce81fc4ebf9dd.jpg",
    "icongray": "https://steamcdn-a.akamaihd.net/steamcommunity/public/images/apps/359960/e64e04e3f4f306d4eb19271675ceb02c305449dd.jpg"
  },
  {
    "name": "noAttacking",
    "defaultvalue": 0,
    "displayName": "I would prefer not to.",
    "hidden": 0,
    "description": "Clear a normal room without attacking",
    "icon": "https://steamcdn-a.akamaihd.net/steamcommunity/public/images/apps/359960/0ebce36b37ab68e90c436b1b0bb16ed92c6090c0.jpg",
    "icongray": "https://steamcdn-a.akamaihd.net/steamcommunity/public/images/apps/359960/3448b5e7fa55cb0c04d5e58d5a14e7ca7e540c3b.jpg"
  },
  {
    "name": "hunter",
    "defaultvalue": 0,
    "displayName": "Hunter",
    "hidden": 0,
    "description": "Defeat every thing",
    "icon": "https://steamcdn-a.akamaihd.net/steamcommunity/public/images/apps/359960/56f52516b15e6a80a45ed4934bef3576347a87e4.jpg",
    "icongray": "https://steamcdn-a.akamaihd.net/steamcommunity/public/images/apps/359960/96ac3c1b51864df9867b66b700da37d6353aaaf9.jpg"
  },
  {
    "name": "hunterGold",
    "defaultvalue": 0,
    "displayName": "Gold Hunter",
    "hidden": 1,
    "icon": "https://steamcdn-a.akamaihd.net/steamcommunity/public/images/apps/359960/d9912d3946fc50eb17e3fd611a08813c8232e02e.jpg",
    "icongray": "https://steamcdn-a.akamaihd.net/steamcommunity/public/images/apps/359960/3564a97a29775a05d37d386f31f711f7f63b4616.jpg"
  }
]