﻿[
  {
    "name": "World Complete",
    "defaultvalue": 0,
    "displayName": ""
  },
  {
    "name": "Grenade_Kills",
    "defaultvalue": 0,
    "displayName": ""
  },
  {
    "name": "Puck_Kills",
    "defaultvalue": 0,
    "displayName": ""
  },
  {
    "name": "Mits_Heals",
    "defaultvalue": 0,
    "displayName": ""
  },
  {
    "name": "Zombie_Kills",
    "defaultvalue": 0,
    "displayName": ""
  },
  {
    "name": "Single_Turret_Upgrade",
    "defaultvalue": 0,
    "displayName": ""
  },
  {
    "name": "Kamakaze_Kills",
    "defaultvalue": 0,
    "displayName": ""
  },
  {
    "name": "Gold",
    "defaultvalue": 0,
    "displayName": ""
  },
  {
    "name": "Total_Turret_Built",
    "defaultvalue": 0,
    "displayName": ""
  },
  {
    "name": "Single_Turret_Built",
    "defaultvalue": 0,
    "displayName": ""
  },
  {
    "name": "Machine_Turret_Built",
    "defaultvalue": 0,
    "displayName": ""
  },
  {
    "name": "Sniper_Turret_Built",
    "defaultvalue": 0,
    "displayName": ""
  },
  {
    "name": "Flamethrower_Turret_Built",
    "defaultvalue": 0,
    "displayName": ""
  },
  {
    "name": "Cannon_Turret_Built",
    "defaultvalue": 0,
    "displayName": ""
  },
  {
    "name": "Rocket_Turret_Built",
    "defaultvalue": 0,
    "displayName": ""
  },
  {
    "name": "Water_Turret_Built",
    "defaultvalue": 0,
    "displayName": ""
  },
  {
    "name": "Cat_Trops_Built",
    "defaultvalue": 0,
    "displayName": ""
  },
  {
    "name": "Scratching_Post_Built",
    "defaultvalue": 0,
    "displayName": ""
  },
  {
    "name": "Money_Tower_Built",
    "defaultvalue": 0,
    "displayName": ""
  },
  {
    "name": "Single_Turret_Kills",
    "defaultvalue": 0,
    "displayName": ""
  },
  {
    "name": "Machine_Turret_Kills",
    "defaultvalue": 0,
    "displayName": ""
  },
  {
    "name": "Sniper_Turret_Kills",
    "defaultvalue": 0,
    "displayName": ""
  },
  {
    "name": "Flamethrower_Turret_Kills",
    "defaultvalue": 0,
    "displayName": ""
  },
  {
    "name": "Cannon_Turret_Kills",
    "defaultvalue": 0,
    "displayName": ""
  },
  {
    "name": "Rocket_Turret_Kills",
    "defaultvalue": 0,
    "displayName": ""
  },
  {
    "name": "Cat_Trops_Kills",
    "defaultvalue": 0,
    "displayName": ""
  },
  {
    "name": "Vaccum_Turret_Built",
    "defaultvalue": 0,
    "displayName": ""
  },
  {
    "name": "Wall_Built",
    "defaultvalue": 0,
    "displayName": ""
  },
  {
    "name": "Started_Tutorial",
    "defaultvalue": 0,
    "displayName": ""
  },
  {
    "name": "Hardware_Store_completed",
    "defaultvalue": 0,
    "displayName": ""
  },
  {
    "name": "Apartment_Completed",
    "defaultvalue": 0,
    "displayName": ""
  },
  {
    "name": "Shopping_Center_Completed",
    "defaultvalue": 0,
    "displayName": ""
  },
  {
    "name": "World_One_Completed",
    "defaultvalue": 0,
    "displayName": ""
  },
  {
    "name": "Farm_Completed",
    "defaultvalue": 0,
    "displayName": ""
  },
  {
    "name": "Logging_Mill_Completed",
    "defaultvalue": 0,
    "displayName": ""
  },
  {
    "name": "Highway_Completed",
    "defaultvalue": 0,
    "displayName": ""
  },
  {
    "name": "Forest_Completed",
    "defaultvalue": 0,
    "displayName": ""
  },
  {
    "name": "World_Two_Completed",
    "defaultvalue": 0,
    "displayName": ""
  },
  {
    "name": "Fort_Completed",
    "defaultvalue": 0,
    "displayName": ""
  },
  {
    "name": "Hospital_Completed",
    "defaultvalue": 0,
    "displayName": ""
  },
  {
    "name": "Lab_Completed",
    "defaultvalue": 0,
    "displayName": ""
  },
  {
    "name": "World_Three_Completed",
    "defaultvalue": 0,
    "displayName": ""
  },
  {
    "name": "Final_Boss_Started",
    "defaultvalue": 0,
    "displayName": ""
  },
  {
    "name": "Game_Won",
    "defaultvalue": 0,
    "displayName": ""
  },
  {
    "name": "Zapped_In_Alley",
    "defaultvalue": 0,
    "displayName": ""
  },
  {
    "name": "Zapped_In_Apartment",
    "defaultvalue": 0,
    "displayName": ""
  },
  {
    "name": "Zapped_In_Shopping_Center",
    "defaultvalue": 0,
    "displayName": ""
  },
  {
    "name": "Zapped_In_Farm",
    "defaultvalue": 0,
    "displayName": ""
  },
  {
    "name": "Zapped_In_Logging_Mill",
    "defaultvalue": 0,
    "displayName": ""
  },
  {
    "name": "Zapped_In_Highway",
    "defaultvalue": 0,
    "displayName": ""
  },
  {
    "name": "Zapped_In_Forest",
    "defaultvalue": 0,
    "displayName": ""
  },
  {
    "name": "Zapped_In_Fort",
    "defaultvalue": 0,
    "displayName": ""
  },
  {
    "name": "Zapped_In_Hospital",
    "defaultvalue": 0,
    "displayName": ""
  },
  {
    "name": "Zapped_In_Lab",
    "defaultvalue": 0,
    "displayName": ""
  },
  {
    "name": "Zapped_In_Final_Boss",
    "defaultvalue": 0,
    "displayName": ""
  },
  {
    "name": "Zapped_Total",
    "defaultvalue": 0,
    "displayName": ""
  },
  {
    "name": "Gold_Spent",
    "defaultvalue": 0,
    "displayName": ""
  },
  {
    "name": "Level_Two_Single_Shot",
    "defaultvalue": 0,
    "displayName": ""
  },
  {
    "name": "Level_Two_Machine",
    "defaultvalue": 0,
    "displayName": ""
  },
  {
    "name": "Level_Two_Sniper",
    "defaultvalue": 0,
    "displayName": ""
  },
  {
    "name": "Level_Two_Cannon",
    "defaultvalue": 0,
    "displayName": ""
  },
  {
    "name": "Level_Two_Flame",
    "defaultvalue": 0,
    "displayName": ""
  },
  {
    "name": "Level_Two_Rocket",
    "defaultvalue": 0,
    "displayName": ""
  },
  {
    "name": "Level_Two_Water",
    "defaultvalue": 0,
    "displayName": ""
  },
  {
    "name": "Level_Two_Vaccum",
    "defaultvalue": 0,
    "displayName": ""
  },
  {
    "name": "Level_Two_Assassin",
    "defaultvalue": 0,
    "displayName": ""
  },
  {
    "name": "Level_Three_Single_Shot",
    "defaultvalue": 0,
    "displayName": ""
  },
  {
    "name": "Level_Three_Machine",
    "defaultvalue": 0,
    "displayName": ""
  },
  {
    "name": "Level_Three_Sniper",
    "defaultvalue": 0,
    "displayName": ""
  },
  {
    "name": "Level_Three_Cannon",
    "defaultvalue": 0,
    "displayName": ""
  },
  {
    "name": "Level_Three_Flame",
    "defaultvalue": 0,
    "displayName": ""
  },
  {
    "name": "Level_Three_Rocket",
    "defaultvalue": 0,
    "displayName": ""
  },
  {
    "name": "Level_Three_Water",
    "defaultvalue": 0,
    "displayName": ""
  },
  {
    "name": "Level_Three_Vaccum",
    "defaultvalue": 0,
    "displayName": ""
  },
  {
    "name": "Level_Three_Assassin",
    "defaultvalue": 0,
    "displayName": ""
  },
  {
    "name": "Total_Turret_Upgrade",
    "defaultvalue": 0,
    "displayName": ""
  },
  {
    "name": "Alley_Completed",
    "defaultvalue": 0,
    "displayName": ""
  }
]