﻿{
  "Dlcs": {},
  "Name": "Beached",
  "AppId": "652560",
  "ImageUrl": "https://steamcdn-a.akamaihd.net/steam/apps/652560/header.jpg?t=1581528884",
  "Languages": [
    "english"
  ],
  "Platforms": {
    "windows": true,
    "mac": false,
    "linux": false
  }
}