﻿{
  "Dlcs": {},
  "Name": "Chunks",
  "AppId": "402800",
  "ImageUrl": "https://steamcdn-a.akamaihd.net/steam/apps/402800/header.jpg?t=1565990230",
  "Languages": [
    "english"
  ],
  "Platforms": {
    "windows": true,
    "mac": false,
    "linux": false
  }
}