﻿{
  "Dlcs": {
    "520360": {
      "Name": "Trick & Treat - The Art Book",
      "ImageUrl": "https://steamcdn-a.akamaihd.net/steam/apps/520360/header.jpg?t=1592002290"
    }
  },
  "Name": "Trick & Treat",
  "AppId": "497640",
  "ImageUrl": "https://steamcdn-a.akamaihd.net/steam/apps/497640/header.jpg?t=1592053613",
  "Languages": [
    "english",
    "spanish",
    "schinese",
    "japanese"
  ],
  "Platforms": {
    "windows": true,
    "mac": false,
    "linux": false
  }
}