﻿{
  "Dlcs": {
    "261220": {
      "Name": "True Gentlemen Pack",
      "ImageUrl": "https://steamcdn-a.akamaihd.net/steam/apps/261220/header.jpg?t=1447359278"
    },
    "300150": {
      "Name": "Animal Pack",
      "ImageUrl": "https://steamcdn-a.akamaihd.net/steam/apps/300150/header.jpg?t=1478025779"
    },
    "376550": {
      "Name": "King Pack",
      "ImageUrl": "https://steamcdn-a.akamaihd.net/steam/apps/376550/header.jpg?t=1447375814"
    }
  },
  "Name": "Max Gentlemen",
  "AppId": "257710",
  "ImageUrl": "https://steamcdn-a.akamaihd.net/steam/apps/257710/header.jpg?t=1568995627",
  "Languages": [
    "english"
  ],
  "Platforms": {
    "windows": true,
    "mac": true,
    "linux": true
  }
}