﻿{
  "Dlcs": {},
  "Name": "Sophie's Curse",
  "AppId": "446380",
  "ImageUrl": "https://steamcdn-a.akamaihd.net/steam/apps/446380/header.jpg?t=1589386301",
  "Languages": [
    "english",
    "spanish"
  ],
  "Platforms": {
    "windows": true,
    "mac": false,
    "linux": false
  }
}