﻿{
  "Dlcs": {},
  "Name": "Millia -The ending-",
  "AppId": "428060",
  "ImageUrl": "https://steamcdn-a.akamaihd.net/steam/apps/428060/header.jpg?t=1517504837",
  "Languages": [
    "english"
  ],
  "Platforms": {
    "windows": true,
    "mac": false,
    "linux": false
  }
}