﻿{
  "Dlcs": {
    "463360": {
      "Name": "Atulos Online - Premier Edition",
      "ImageUrl": "https://steamcdn-a.akamaihd.net/steam/apps/463360/header.jpg?t=1462818616"
    },
    "469880": {
      "Name": "Atulos Online - Reaper & Orc",
      "ImageUrl": "https://steamcdn-a.akamaihd.net/steam/apps/469880/header.jpg?t=1462820544"
    }
  },
  "Name": "Atulos Online",
  "AppId": "449470",
  "ImageUrl": "https://steamcdn-a.akamaihd.net/steam/apps/449470/header.jpg?t=1462956637",
  "Languages": [
    "english"
  ],
  "Platforms": {
    "windows": true,
    "mac": false,
    "linux": false
  }
}