﻿{
  "Dlcs": {
    "235580": {
      "Name": "Sid Meier's Civilization V: Brave New World",
      "ImageUrl": "https://steamcdn-a.akamaihd.net/steam/apps/235580/header.jpg?t=1545237044"
    },
    "16870": {
      "Name": "Sid Meier's Civilization V: Gods and Kings",
      "ImageUrl": "https://steamcdn-a.akamaihd.net/steam/apps/16870/header.jpg?t=1545236911"
    },
    "235584": {
      "Name": "Civilization V - Scrambled Continents Map Pack",
      "ImageUrl": "https://steamcdn-a.akamaihd.net/steam/apps/235584/header.jpg?t=1545237048"
    },
    "235585": {
      "Name": "Civilization V - Scrambled Nations Map Pack",
      "ImageUrl": "https://steamcdn-a.akamaihd.net/steam/apps/235585/header.jpg?t=1545237049"
    },
    "16868": {
      "Name": "Civilization V - Babylon (Nebuchadnezzar II)",
      "ImageUrl": "https://steamcdn-a.akamaihd.net/steam/apps/16868/header.jpg?t=1545236909"
    },
    "16860": {
      "Name": "Civilization V - Cradle of Civilization Map Pack: Mediterranean",
      "ImageUrl": "https://steamcdn-a.akamaihd.net/steam/apps/16860/header.jpg?t=1545236895"
    },
    "16861": {
      "Name": "Civilization V - Cradle of Civilization Map Pack: Asia",
      "ImageUrl": "https://steamcdn-a.akamaihd.net/steam/apps/16861/header.jpg?t=1545236897"
    },
    "16862": {
      "Name": "Civilization V - Cradle of Civilization Map Pack: Americas",
      "ImageUrl": "https://steamcdn-a.akamaihd.net/steam/apps/16862/header.jpg?t=1545236901"
    },
    "16863": {
      "Name": "Civilization V - Cradle of Civilization Map Pack: Mesopotamia",
      "ImageUrl": "https://steamcdn-a.akamaihd.net/steam/apps/16863/header.jpg?t=1545236903"
    },
    "16867": {
      "Name": "Civilization V - Civ and Scenario Double Pack: Spain and Inca",
      "ImageUrl": "https://steamcdn-a.akamaihd.net/steam/apps/16867/header.jpg?t=1545236907"
    },
    "99610": {
      "Name": "Civilization V - Civ and Scenario Pack: Polynesia",
      "ImageUrl": "https://steamcdn-a.akamaihd.net/steam/apps/99610/header.jpg?t=1545237039"
    },
    "99611": {
      "Name": "Civilization V - Civ and Scenario Pack: Denmark (The Vikings)",
      "ImageUrl": "https://steamcdn-a.akamaihd.net/steam/apps/99611/header.jpg?t=1545237041"
    },
    "16866": {
      "Name": "Civilization V - Explorer’s Map Pack",
      "ImageUrl": "https://steamcdn-a.akamaihd.net/steam/apps/16866/header.jpg?t=1545236907"
    },
    "99614": {
      "Name": "Civilization V - Scenario Pack: Wonders of the Ancient World",
      "ImageUrl": "https://steamcdn-a.akamaihd.net/steam/apps/99614/header.jpg?t=1526518475"
    },
    "99612": {
      "Name": "Civilization V - Civ and Scenario Pack: Korea",
      "ImageUrl": "https://steamcdn-a.akamaihd.net/steam/apps/99612/header.jpg?t=1545237043"
    }
  },
  "Name": "Sid Meier's Civilization® V",
  "AppId": "8930",
  "ImageUrl": "https://steamcdn-a.akamaihd.net/steam/apps/8930/header.jpg?t=1579731804",
  "Languages": [
    "english",
    "french",
    "german",
    "italian",
    "spanish",
    "polish",
    "japanese",
    "korean",
    "russian",
    "tchinese"
  ],
  "Platforms": {
    "windows": true,
    "mac": true,
    "linux": true
  }
}