﻿[
  {
    "name": "1",
    "defaultvalue": 0,
    "displayName": "Level 1",
    "hidden": 0,
    "description": "Level 1",
    "icon": "https://steamcdn-a.akamaihd.net/steamcommunity/public/images/apps/692200/c1488a2d60e300c346a038903904aebe2c2c83d2.jpg",
    "icongray": "https://steamcdn-a.akamaihd.net/steamcommunity/public/images/apps/692200/7cb817dda091f5c4e5f5b665f0082a5c527e4f4d.jpg"
  },
  {
    "name": "2",
    "defaultvalue": 0,
    "displayName": "Level 2",
    "hidden": 0,
    "description": "Level 2",
    "icon": "https://steamcdn-a.akamaihd.net/steamcommunity/public/images/apps/692200/cb36242b41d22076149cc3e664e959985ddff326.jpg",
    "icongray": "https://steamcdn-a.akamaihd.net/steamcommunity/public/images/apps/692200/a644f897d5b8df2f44e6205b2ebdc55e89602ae5.jpg"
  },
  {
    "name": "3",
    "defaultvalue": 0,
    "displayName": "Level 3",
    "hidden": 0,
    "description": "Level 3",
    "icon": "https://steamcdn-a.akamaihd.net/steamcommunity/public/images/apps/692200/2c503cb4a3edd7e1ed2b1f1a3d008ad57346244c.jpg",
    "icongray": "https://steamcdn-a.akamaihd.net/steamcommunity/public/images/apps/692200/b199cf7f6496b765dc161487df3c79d5d866842c.jpg"
  },
  {
    "name": "4",
    "defaultvalue": 0,
    "displayName": "Level 4",
    "hidden": 0,
    "description": "Level 4",
    "icon": "https://steamcdn-a.akamaihd.net/steamcommunity/public/images/apps/692200/61b38eeb2aa46132d9e388530cb11a72e8b6f3fa.jpg",
    "icongray": "https://steamcdn-a.akamaihd.net/steamcommunity/public/images/apps/692200/c9f1076054298de47bbd62ef117dd16c6893314b.jpg"
  },
  {
    "name": "5",
    "defaultvalue": 0,
    "displayName": "Level 5",
    "hidden": 0,
    "description": "Level 5",
    "icon": "https://steamcdn-a.akamaihd.net/steamcommunity/public/images/apps/692200/7274c63654b42489d4958d8df386011cf7617372.jpg",
    "icongray": "https://steamcdn-a.akamaihd.net/steamcommunity/public/images/apps/692200/8928a12602f661847eb0b7919acc6c1358702f64.jpg"
  },
  {
    "name": "6",
    "defaultvalue": 0,
    "displayName": "Level 6",
    "hidden": 0,
    "description": "Level 6",
    "icon": "https://steamcdn-a.akamaihd.net/steamcommunity/public/images/apps/692200/4fa9b7b8b4b1288d13816ea16b75095a668d360d.jpg",
    "icongray": "https://steamcdn-a.akamaihd.net/steamcommunity/public/images/apps/692200/d2172fcf65fb78b178462c4c3756e118a605bed7.jpg"
  },
  {
    "name": "7",
    "defaultvalue": 0,
    "displayName": "Level 7",
    "hidden": 0,
    "description": "Level  7",
    "icon": "https://steamcdn-a.akamaihd.net/steamcommunity/public/images/apps/692200/54840328ba0785c2ed9b6ae9a0f4bc41b1ca33f8.jpg",
    "icongray": "https://steamcdn-a.akamaihd.net/steamcommunity/public/images/apps/692200/b2c9891050289eb063b8209e595b73a63de262c9.jpg"
  },
  {
    "name": "8",
    "defaultvalue": 0,
    "displayName": "Level 8",
    "hidden": 0,
    "description": "Level  8",
    "icon": "https://steamcdn-a.akamaihd.net/steamcommunity/public/images/apps/692200/056cc66ab75b712d2b60aeb4924646d926f5d390.jpg",
    "icongray": "https://steamcdn-a.akamaihd.net/steamcommunity/public/images/apps/692200/8af0191acb834dbf9a80da2c98ef7519bd54927f.jpg"
  },
  {
    "name": "9",
    "defaultvalue": 0,
    "displayName": "Level 9",
    "hidden": 0,
    "description": "Level 9",
    "icon": "https://steamcdn-a.akamaihd.net/steamcommunity/public/images/apps/692200/b0e90cf5abebb3b18568de0a29b77e8842c88d6b.jpg",
    "icongray": "https://steamcdn-a.akamaihd.net/steamcommunity/public/images/apps/692200/396e14a13bf86276c98602a7c9f54c3a8688e5c8.jpg"
  },
  {
    "name": "10",
    "defaultvalue": 0,
    "displayName": "Level 10",
    "hidden": 0,
    "description": "Level 10",
    "icon": "https://steamcdn-a.akamaihd.net/steamcommunity/public/images/apps/692200/411c7e5deae33f474e82a3b3b286f7bcc4076b05.jpg",
    "icongray": "https://steamcdn-a.akamaihd.net/steamcommunity/public/images/apps/692200/5f55b14f41b9b202f2b3bccce8a791a649da6a30.jpg"
  },
  {
    "name": "11",
    "defaultvalue": 0,
    "displayName": "Level 11",
    "hidden": 0,
    "description": "Level 11",
    "icon": "https://steamcdn-a.akamaihd.net/steamcommunity/public/images/apps/692200/ad6e17af532cb6605ebf59d303d9f174b09562bb.jpg",
    "icongray": "https://steamcdn-a.akamaihd.net/steamcommunity/public/images/apps/692200/9504277178bccd054bf0888d4ff70d3c63dea648.jpg"
  },
  {
    "name": "12",
    "defaultvalue": 0,
    "displayName": "Level 12",
    "hidden": 0,
    "description": "Level 12",
    "icon": "https://steamcdn-a.akamaihd.net/steamcommunity/public/images/apps/692200/fc9a8a9b40f5d30bce7676ef57a51d7235bd8996.jpg",
    "icongray": "https://steamcdn-a.akamaihd.net/steamcommunity/public/images/apps/692200/6d16646678fd399d4bba06169fd13fa13ae9f9d9.jpg"
  },
  {
    "name": "13",
    "defaultvalue": 0,
    "displayName": "Level 13",
    "hidden": 0,
    "description": "Level 13",
    "icon": "https://steamcdn-a.akamaihd.net/steamcommunity/public/images/apps/692200/789288285b5764db853f7c228b7eed9ffba18c72.jpg",
    "icongray": "https://steamcdn-a.akamaihd.net/steamcommunity/public/images/apps/692200/e53fb770318ee4c7025a81bf17903e85d3c48233.jpg"
  },
  {
    "name": "14",
    "defaultvalue": 0,
    "displayName": "Level 14",
    "hidden": 0,
    "description": "Level 14",
    "icon": "https://steamcdn-a.akamaihd.net/steamcommunity/public/images/apps/692200/e7e382e146093acc7110ad15a34bbf53529a54e4.jpg",
    "icongray": "https://steamcdn-a.akamaihd.net/steamcommunity/public/images/apps/692200/c5279a1a0e8910067af1d05f004403c83ae73ac0.jpg"
  },
  {
    "name": "15",
    "defaultvalue": 0,
    "displayName": "Level 15",
    "hidden": 0,
    "description": "Level 15",
    "icon": "https://steamcdn-a.akamaihd.net/steamcommunity/public/images/apps/692200/e2f50160616b179ccc47e5361833b2297561ca3c.jpg",
    "icongray": "https://steamcdn-a.akamaihd.net/steamcommunity/public/images/apps/692200/2ab75418bc0a8f4cfbd5997d1bd69d39a308ff7c.jpg"
  },
  {
    "name": "16",
    "defaultvalue": 0,
    "displayName": "Level 16",
    "hidden": 0,
    "description": "Level 16",
    "icon": "https://steamcdn-a.akamaihd.net/steamcommunity/public/images/apps/692200/06db553be6b15a333d3e0d766bfdbcdd6883201d.jpg",
    "icongray": "https://steamcdn-a.akamaihd.net/steamcommunity/public/images/apps/692200/104405e573c523be6da1d1bfa41aac52daff2f4d.jpg"
  },
  {
    "name": "17",
    "defaultvalue": 0,
    "displayName": "Level 17",
    "hidden": 0,
    "description": "Level 17",
    "icon": "https://steamcdn-a.akamaihd.net/steamcommunity/public/images/apps/692200/96ed041aefefe61551efae79fef3ff4375c0a42c.jpg",
    "icongray": "https://steamcdn-a.akamaihd.net/steamcommunity/public/images/apps/692200/d4ad32a9e893443b476e268a95b32d5f4ed0151e.jpg"
  },
  {
    "name": "18",
    "defaultvalue": 0,
    "displayName": "Level 18",
    "hidden": 0,
    "description": "Level 18",
    "icon": "https://steamcdn-a.akamaihd.net/steamcommunity/public/images/apps/692200/fdd0f3c2862ae93581ea23055837c2690ac8c687.jpg",
    "icongray": "https://steamcdn-a.akamaihd.net/steamcommunity/public/images/apps/692200/317e71f127f8078286dfa7095680537cad3e366e.jpg"
  },
  {
    "name": "19",
    "defaultvalue": 0,
    "displayName": "Level 19",
    "hidden": 0,
    "description": "Level 19",
    "icon": "https://steamcdn-a.akamaihd.net/steamcommunity/public/images/apps/692200/f10d3fd940583b842449ac703b7522a65eef971f.jpg",
    "icongray": "https://steamcdn-a.akamaihd.net/steamcommunity/public/images/apps/692200/0e8b26da1d765263af84c866de6f27b7cabc3f8c.jpg"
  },
  {
    "name": "20",
    "defaultvalue": 0,
    "displayName": "Level 20",
    "hidden": 0,
    "description": "Level 20",
    "icon": "https://steamcdn-a.akamaihd.net/steamcommunity/public/images/apps/692200/493c0297a48bd5a48811e5fbc38c21087306abdc.jpg",
    "icongray": "https://steamcdn-a.akamaihd.net/steamcommunity/public/images/apps/692200/566f9505733c52246dec6edeec3b8d692d9d407a.jpg"
  },
  {
    "name": "21",
    "defaultvalue": 0,
    "displayName": "Level 21",
    "hidden": 0,
    "description": "Level 21",
    "icon": "https://steamcdn-a.akamaihd.net/steamcommunity/public/images/apps/692200/5fbaadc69f5db99146628b5861cb8a04e03b3108.jpg",
    "icongray": "https://steamcdn-a.akamaihd.net/steamcommunity/public/images/apps/692200/0fcfbe8fd32ba2bc623b6adc32b2501d13fe5852.jpg"
  },
  {
    "name": "22",
    "defaultvalue": 0,
    "displayName": "Level 22",
    "hidden": 0,
    "description": "Level 22",
    "icon": "https://steamcdn-a.akamaihd.net/steamcommunity/public/images/apps/692200/eca5e979a042d7ed5d0033b381e3ecfa8b3dcf83.jpg",
    "icongray": "https://steamcdn-a.akamaihd.net/steamcommunity/public/images/apps/692200/97c79dd12d1d4aec5bceb5c98e1bb3f7a20ae0b7.jpg"
  },
  {
    "name": "23",
    "defaultvalue": 0,
    "displayName": "Level 23",
    "hidden": 0,
    "description": "Level 23",
    "icon": "https://steamcdn-a.akamaihd.net/steamcommunity/public/images/apps/692200/1c05adf34597e2c7485353eaa2a9413404dda18f.jpg",
    "icongray": "https://steamcdn-a.akamaihd.net/steamcommunity/public/images/apps/692200/20e7154be4cbd3b467fee59bea688e8e37353d5b.jpg"
  },
  {
    "name": "24",
    "defaultvalue": 0,
    "displayName": "Level 24",
    "hidden": 0,
    "description": "Level 24",
    "icon": "https://steamcdn-a.akamaihd.net/steamcommunity/public/images/apps/692200/eb8c2e1283ad648a3c37d6986113886bd707a718.jpg",
    "icongray": "https://steamcdn-a.akamaihd.net/steamcommunity/public/images/apps/692200/2654cd1139bbeeb65d9a1216e3aee1df3f8c1b26.jpg"
  },
  {
    "name": "25",
    "defaultvalue": 0,
    "displayName": "Level 25",
    "hidden": 0,
    "description": "Level 25",
    "icon": "https://steamcdn-a.akamaihd.net/steamcommunity/public/images/apps/692200/eb93e83cccf7ad0f326ede2fdb90b87922b8b1b4.jpg",
    "icongray": "https://steamcdn-a.akamaihd.net/steamcommunity/public/images/apps/692200/d99bc50d7a69440b03bfce4653c66ca6f14b298c.jpg"
  },
  {
    "name": "26",
    "defaultvalue": 0,
    "displayName": "Level 26",
    "hidden": 0,
    "description": "Level 26",
    "icon": "https://steamcdn-a.akamaihd.net/steamcommunity/public/images/apps/692200/4307ebf5f2813c08065ffb6b00549bf7675d3fec.jpg",
    "icongray": "https://steamcdn-a.akamaihd.net/steamcommunity/public/images/apps/692200/b3dea87867708c27aecaa53bc714b03691214a8c.jpg"
  },
  {
    "name": "27",
    "defaultvalue": 0,
    "displayName": "Level 27",
    "hidden": 0,
    "description": "Level 27",
    "icon": "https://steamcdn-a.akamaihd.net/steamcommunity/public/images/apps/692200/f20e72e0493fdf6425aff6712e8013bd424e0b48.jpg",
    "icongray": "https://steamcdn-a.akamaihd.net/steamcommunity/public/images/apps/692200/ae584e37553fc804fe55c332da8c975157b60206.jpg"
  },
  {
    "name": "28",
    "defaultvalue": 0,
    "displayName": "Level 28",
    "hidden": 0,
    "description": "Level 28",
    "icon": "https://steamcdn-a.akamaihd.net/steamcommunity/public/images/apps/692200/df54750d55984718eca5988b4e8627adca2f7da3.jpg",
    "icongray": "https://steamcdn-a.akamaihd.net/steamcommunity/public/images/apps/692200/5ed7af2627af766a8a24adef7cf26d0fe8bd7cc3.jpg"
  },
  {
    "name": "29",
    "defaultvalue": 0,
    "displayName": "Level 29",
    "hidden": 0,
    "description": "Level 29",
    "icon": "https://steamcdn-a.akamaihd.net/steamcommunity/public/images/apps/692200/cbc26c78138deee5b068b2d01de2873c012b0b6d.jpg",
    "icongray": "https://steamcdn-a.akamaihd.net/steamcommunity/public/images/apps/692200/932f285c2f0bbd411c5bbe8d6cde4c7716e1cecf.jpg"
  },
  {
    "name": "30",
    "defaultvalue": 0,
    "displayName": "Level 30",
    "hidden": 0,
    "description": "Level 30",
    "icon": "https://steamcdn-a.akamaihd.net/steamcommunity/public/images/apps/692200/334ceb0dc0c03f6b944258dc7c02060b9474a329.jpg",
    "icongray": "https://steamcdn-a.akamaihd.net/steamcommunity/public/images/apps/692200/365d755983bdc038e7155ddbc0ef6bf1e7203fe4.jpg"
  },
  {
    "name": "31",
    "defaultvalue": 0,
    "displayName": "Level 31",
    "hidden": 0,
    "description": "Level 31",
    "icon": "https://steamcdn-a.akamaihd.net/steamcommunity/public/images/apps/692200/0d5c2d3f397659a164b385b2298b9cd0327cfbdd.jpg",
    "icongray": "https://steamcdn-a.akamaihd.net/steamcommunity/public/images/apps/692200/12900fbced85ffb1e2e90eca0fb834a8401849c5.jpg"
  },
  {
    "name": "32",
    "defaultvalue": 0,
    "displayName": "Level 32",
    "hidden": 0,
    "description": "Level 32",
    "icon": "https://steamcdn-a.akamaihd.net/steamcommunity/public/images/apps/692200/789a8ddec4e064ab27a95975b2e9b3e62740c3e3.jpg",
    "icongray": "https://steamcdn-a.akamaihd.net/steamcommunity/public/images/apps/692200/f0948180c1cf5b8295c22ed02dae3fa0c77ea6be.jpg"
  },
  {
    "name": "33",
    "defaultvalue": 0,
    "displayName": "Level 33",
    "hidden": 0,
    "description": "Level 33",
    "icon": "https://steamcdn-a.akamaihd.net/steamcommunity/public/images/apps/692200/8f40d43d6a18dbf7c250e8c36b30143dcacf7472.jpg",
    "icongray": "https://steamcdn-a.akamaihd.net/steamcommunity/public/images/apps/692200/e86b8f24a7318c82cd489769a52e281907343614.jpg"
  },
  {
    "name": "34",
    "defaultvalue": 0,
    "displayName": "Level 34",
    "hidden": 0,
    "description": "Level 34",
    "icon": "https://steamcdn-a.akamaihd.net/steamcommunity/public/images/apps/692200/7db0a42d358a979dab0b09034ded44703d8c18cf.jpg",
    "icongray": "https://steamcdn-a.akamaihd.net/steamcommunity/public/images/apps/692200/766aa0e95a2c51b57677b0b7a13a2552a2f8a002.jpg"
  },
  {
    "name": "35",
    "defaultvalue": 0,
    "displayName": "Level 35",
    "hidden": 0,
    "description": "Level 35",
    "icon": "https://steamcdn-a.akamaihd.net/steamcommunity/public/images/apps/692200/991b44a51aacb23acdd47c6a9afb918f66cca016.jpg",
    "icongray": "https://steamcdn-a.akamaihd.net/steamcommunity/public/images/apps/692200/2dc7ac7f5d801a86b46b22cacde3155d18a48880.jpg"
  },
  {
    "name": "36",
    "defaultvalue": 0,
    "displayName": "Level 36",
    "hidden": 0,
    "description": "Level 36",
    "icon": "https://steamcdn-a.akamaihd.net/steamcommunity/public/images/apps/692200/5e3ab87d21cac26c9883afd73091108a2bdc179c.jpg",
    "icongray": "https://steamcdn-a.akamaihd.net/steamcommunity/public/images/apps/692200/e512e79aa81adda2d3452afe5bb11053966ea64d.jpg"
  },
  {
    "name": "37",
    "defaultvalue": 0,
    "displayName": "Level 37",
    "hidden": 0,
    "description": "Level 37",
    "icon": "https://steamcdn-a.akamaihd.net/steamcommunity/public/images/apps/692200/51e316c103718e74a53a9fffea5244144467a136.jpg",
    "icongray": "https://steamcdn-a.akamaihd.net/steamcommunity/public/images/apps/692200/0d61da316994041ac38a27c7dfe06f6f584b20a8.jpg"
  },
  {
    "name": "38",
    "defaultvalue": 0,
    "displayName": "Level 38",
    "hidden": 0,
    "description": "Level 38",
    "icon": "https://steamcdn-a.akamaihd.net/steamcommunity/public/images/apps/692200/5ac972111296afa136105041ab6b1c49c139b427.jpg",
    "icongray": "https://steamcdn-a.akamaihd.net/steamcommunity/public/images/apps/692200/c6cc9d5d2416de04f77956e0836c0b81ff7e0a97.jpg"
  },
  {
    "name": "39",
    "defaultvalue": 0,
    "displayName": "Level 39",
    "hidden": 0,
    "description": "Level 39",
    "icon": "https://steamcdn-a.akamaihd.net/steamcommunity/public/images/apps/692200/2cbe4da307813270ee0e697a2d1bac9c04045205.jpg",
    "icongray": "https://steamcdn-a.akamaihd.net/steamcommunity/public/images/apps/692200/718f48cdc9caa84bd0b79807fd5418627aedde58.jpg"
  },
  {
    "name": "40",
    "defaultvalue": 0,
    "displayName": "Level 40",
    "hidden": 0,
    "description": "Level 40",
    "icon": "https://steamcdn-a.akamaihd.net/steamcommunity/public/images/apps/692200/6693e17b1bb9e02cff60fbd2039c8a59685c8002.jpg",
    "icongray": "https://steamcdn-a.akamaihd.net/steamcommunity/public/images/apps/692200/5f4984a2596785335ec71659153d16d0c07177c7.jpg"
  },
  {
    "name": "41",
    "defaultvalue": 0,
    "displayName": "Level 41",
    "hidden": 0,
    "description": "Level 41",
    "icon": "https://steamcdn-a.akamaihd.net/steamcommunity/public/images/apps/692200/f9a1e9f01992b8642a0581cce30ec1de0a2bedc0.jpg",
    "icongray": "https://steamcdn-a.akamaihd.net/steamcommunity/public/images/apps/692200/70ac023017ec2a9298c9078e93e63d2738b8d44c.jpg"
  },
  {
    "name": "42",
    "defaultvalue": 0,
    "displayName": "Level 42",
    "hidden": 0,
    "description": "Level 42",
    "icon": "https://steamcdn-a.akamaihd.net/steamcommunity/public/images/apps/692200/bf8be7dc87a9499faf428942bbb485885433c1e9.jpg",
    "icongray": "https://steamcdn-a.akamaihd.net/steamcommunity/public/images/apps/692200/18a42604a55a0dab2545cf6927cc6e7ced340e39.jpg"
  },
  {
    "name": "43",
    "defaultvalue": 0,
    "displayName": "Level 43",
    "hidden": 0,
    "description": "Level 43",
    "icon": "https://steamcdn-a.akamaihd.net/steamcommunity/public/images/apps/692200/74bcd1f8d38bc1690b7a11e55b5a8f733d9ba063.jpg",
    "icongray": "https://steamcdn-a.akamaihd.net/steamcommunity/public/images/apps/692200/5cdbdb5b7ec8c8d07bb06b29341293e4d9da8194.jpg"
  },
  {
    "name": "44",
    "defaultvalue": 0,
    "displayName": "Level 44",
    "hidden": 0,
    "description": "Level 44",
    "icon": "https://steamcdn-a.akamaihd.net/steamcommunity/public/images/apps/692200/4485725eedddfebee3ab061947fbb38226e319e9.jpg",
    "icongray": "https://steamcdn-a.akamaihd.net/steamcommunity/public/images/apps/692200/8a9897172c179d02fbe6312a73c2b180f43a7b00.jpg"
  },
  {
    "name": "45",
    "defaultvalue": 0,
    "displayName": "Level 45",
    "hidden": 0,
    "description": "Level 45",
    "icon": "https://steamcdn-a.akamaihd.net/steamcommunity/public/images/apps/692200/5d69ed3eebf95be2baa9cd85f24d4607eb49e810.jpg",
    "icongray": "https://steamcdn-a.akamaihd.net/steamcommunity/public/images/apps/692200/bcf4d9753714a6a2ba2fd126c628cd7f924e3b5d.jpg"
  },
  {
    "name": "46",
    "defaultvalue": 0,
    "displayName": "Level 46",
    "hidden": 0,
    "description": "Level 46",
    "icon": "https://steamcdn-a.akamaihd.net/steamcommunity/public/images/apps/692200/6e3494928999603d8cb02bf2a27ddabb95bbec28.jpg",
    "icongray": "https://steamcdn-a.akamaihd.net/steamcommunity/public/images/apps/692200/46097f0394e87e7f668f3c70ebb187a45461e316.jpg"
  },
  {
    "name": "47",
    "defaultvalue": 0,
    "displayName": "Level 47",
    "hidden": 0,
    "description": "Level 47",
    "icon": "https://steamcdn-a.akamaihd.net/steamcommunity/public/images/apps/692200/68d7bff1edd31cae065d6d3278dad4200f81e429.jpg",
    "icongray": "https://steamcdn-a.akamaihd.net/steamcommunity/public/images/apps/692200/578b595c31205e1f98667be1590a184b55d7fd2e.jpg"
  },
  {
    "name": "48",
    "defaultvalue": 0,
    "displayName": "Level 48",
    "hidden": 0,
    "description": "Level 48",
    "icon": "https://steamcdn-a.akamaihd.net/steamcommunity/public/images/apps/692200/972b3b73eb705d38b1a5639c89195a6007abd03b.jpg",
    "icongray": "https://steamcdn-a.akamaihd.net/steamcommunity/public/images/apps/692200/6d511bea247fa78ba91c8dc1871d70a1079f13fd.jpg"
  },
  {
    "name": "49",
    "defaultvalue": 0,
    "displayName": "Level 49",
    "hidden": 0,
    "description": "Level 49",
    "icon": "https://steamcdn-a.akamaihd.net/steamcommunity/public/images/apps/692200/e3591fc7044ab3e247aba64f1b6163123625bc47.jpg",
    "icongray": "https://steamcdn-a.akamaihd.net/steamcommunity/public/images/apps/692200/d98c608c838cd2fd35f2d04d1b354cbb56f5afa2.jpg"
  },
  {
    "name": "50",
    "defaultvalue": 0,
    "displayName": "Level 50",
    "hidden": 0,
    "description": "Level 50",
    "icon": "https://steamcdn-a.akamaihd.net/steamcommunity/public/images/apps/692200/07dcf6e4037606dd5c36500b660286646cd421f5.jpg",
    "icongray": "https://steamcdn-a.akamaihd.net/steamcommunity/public/images/apps/692200/6635453aebe9d9fc075b8db0066e049ade4b12b3.jpg"
  },
  {
    "name": "51",
    "defaultvalue": 0,
    "displayName": "Level 51",
    "hidden": 0,
    "description": "Level 51",
    "icon": "https://steamcdn-a.akamaihd.net/steamcommunity/public/images/apps/692200/9b4aa11c092bcae448fa8346058c8c73e60b4e9c.jpg",
    "icongray": "https://steamcdn-a.akamaihd.net/steamcommunity/public/images/apps/692200/df6def5faf4445a34d46020f981038f81a8d55e3.jpg"
  },
  {
    "name": "52",
    "defaultvalue": 0,
    "displayName": "Level 52",
    "hidden": 0,
    "description": "Level 52",
    "icon": "https://steamcdn-a.akamaihd.net/steamcommunity/public/images/apps/692200/c03550ef2cc00880fc4e576417cd33a4138145b5.jpg",
    "icongray": "https://steamcdn-a.akamaihd.net/steamcommunity/public/images/apps/692200/975e6d8c1390787d003442127a9b91654db4edeb.jpg"
  },
  {
    "name": "53",
    "defaultvalue": 0,
    "displayName": "Level 53",
    "hidden": 0,
    "description": "Level 53",
    "icon": "https://steamcdn-a.akamaihd.net/steamcommunity/public/images/apps/692200/43ca12ed94877a91d96c900f365860f5b0364b07.jpg",
    "icongray": "https://steamcdn-a.akamaihd.net/steamcommunity/public/images/apps/692200/16c75b5f81b879ca378b3fc729bba96bb117d7e0.jpg"
  },
  {
    "name": "54",
    "defaultvalue": 0,
    "displayName": "Level 54",
    "hidden": 0,
    "description": "Level 54",
    "icon": "https://steamcdn-a.akamaihd.net/steamcommunity/public/images/apps/692200/90c2d2e117f42eae235f9d7dba677b2f34d388ac.jpg",
    "icongray": "https://steamcdn-a.akamaihd.net/steamcommunity/public/images/apps/692200/a8fe69ce45c4c51679afb2b2c753e465b7b099a6.jpg"
  },
  {
    "name": "55",
    "defaultvalue": 0,
    "displayName": "Level 55",
    "hidden": 0,
    "description": "Level 55",
    "icon": "https://steamcdn-a.akamaihd.net/steamcommunity/public/images/apps/692200/0018b2f4fa6497fac407602e161069ad4061bcf6.jpg",
    "icongray": "https://steamcdn-a.akamaihd.net/steamcommunity/public/images/apps/692200/c569819e3e82b91ce751140b034caf74ea928dbe.jpg"
  },
  {
    "name": "56",
    "defaultvalue": 0,
    "displayName": "Level 56",
    "hidden": 0,
    "description": "Level 56",
    "icon": "https://steamcdn-a.akamaihd.net/steamcommunity/public/images/apps/692200/b79f46ed5d3b0378787a8bb6d49cce044ff8b1d7.jpg",
    "icongray": "https://steamcdn-a.akamaihd.net/steamcommunity/public/images/apps/692200/1f3f0869149906a02ffe59ee6b2f7a8df694965e.jpg"
  },
  {
    "name": "57",
    "defaultvalue": 0,
    "displayName": "Level 57",
    "hidden": 0,
    "description": "Level 57",
    "icon": "https://steamcdn-a.akamaihd.net/steamcommunity/public/images/apps/692200/293c5482428ae3618a8c2a606bd30afba3537ac6.jpg",
    "icongray": "https://steamcdn-a.akamaihd.net/steamcommunity/public/images/apps/692200/23acd9d8326e14225b8ca7534a757305397ef778.jpg"
  },
  {
    "name": "58",
    "defaultvalue": 0,
    "displayName": "Level 58",
    "hidden": 0,
    "description": "Level 58",
    "icon": "https://steamcdn-a.akamaihd.net/steamcommunity/public/images/apps/692200/3a126152e0ba60d374b2a1f21e5a0e0768b6faad.jpg",
    "icongray": "https://steamcdn-a.akamaihd.net/steamcommunity/public/images/apps/692200/041447f188e981532321fc0c347b226d8a7662e6.jpg"
  },
  {
    "name": "59",
    "defaultvalue": 0,
    "displayName": "Level 59",
    "hidden": 0,
    "description": "Level 59",
    "icon": "https://steamcdn-a.akamaihd.net/steamcommunity/public/images/apps/692200/090ae16f4412a511324dc49ead0bee59e42763ac.jpg",
    "icongray": "https://steamcdn-a.akamaihd.net/steamcommunity/public/images/apps/692200/5450bf27e4a2d57f4901cfe5cbb4b97084fa10c1.jpg"
  },
  {
    "name": "60",
    "defaultvalue": 0,
    "displayName": "Level 60",
    "hidden": 0,
    "description": "Level 60",
    "icon": "https://steamcdn-a.akamaihd.net/steamcommunity/public/images/apps/692200/4b1594bf555f8048260ec70cf721498adb25cd16.jpg",
    "icongray": "https://steamcdn-a.akamaihd.net/steamcommunity/public/images/apps/692200/1d34af05496c95f17af22d12e6aeb1ad5da91aae.jpg"
  },
  {
    "name": "61",
    "defaultvalue": 0,
    "displayName": "Level 61",
    "hidden": 0,
    "description": "Level 61",
    "icon": "https://steamcdn-a.akamaihd.net/steamcommunity/public/images/apps/692200/653ba9af67646317998b53ac6a59c43ba62e1875.jpg",
    "icongray": "https://steamcdn-a.akamaihd.net/steamcommunity/public/images/apps/692200/6edc588b865522c225971e358dce504583dec64b.jpg"
  },
  {
    "name": "62",
    "defaultvalue": 0,
    "displayName": "Level 62",
    "hidden": 0,
    "description": "Level 62",
    "icon": "https://steamcdn-a.akamaihd.net/steamcommunity/public/images/apps/692200/eec952c6845944bae097f1c67ae2f7e56b6dbca9.jpg",
    "icongray": "https://steamcdn-a.akamaihd.net/steamcommunity/public/images/apps/692200/5d9bfdd7057774b7814a97940cf1ee884f54d17c.jpg"
  },
  {
    "name": "63",
    "defaultvalue": 0,
    "displayName": "Level 63",
    "hidden": 0,
    "description": "Level 63",
    "icon": "https://steamcdn-a.akamaihd.net/steamcommunity/public/images/apps/692200/a4b3e17d6a9ea24bfd1c25085833c11e1d3235e3.jpg",
    "icongray": "https://steamcdn-a.akamaihd.net/steamcommunity/public/images/apps/692200/3095fb6b4543c52b127a0c4a7b19b72532bd6e99.jpg"
  },
  {
    "name": "64",
    "defaultvalue": 0,
    "displayName": "Level 64",
    "hidden": 0,
    "description": "Level 64",
    "icon": "https://steamcdn-a.akamaihd.net/steamcommunity/public/images/apps/692200/4cb70d816db6d54828e547cd6682cdcfcb5b59dd.jpg",
    "icongray": "https://steamcdn-a.akamaihd.net/steamcommunity/public/images/apps/692200/8d846d8e1cd25c6b784d41cb9cda986b04c02853.jpg"
  },
  {
    "name": "65",
    "defaultvalue": 0,
    "displayName": "Level 65",
    "hidden": 0,
    "description": "Level 65",
    "icon": "https://steamcdn-a.akamaihd.net/steamcommunity/public/images/apps/692200/99592b7c4451e38559714392a1e3a2bec0e318b4.jpg",
    "icongray": "https://steamcdn-a.akamaihd.net/steamcommunity/public/images/apps/692200/d7a9c819908e153244589a901b448723dc79237f.jpg"
  },
  {
    "name": "66",
    "defaultvalue": 0,
    "displayName": "Level 66",
    "hidden": 0,
    "description": "Level 66",
    "icon": "https://steamcdn-a.akamaihd.net/steamcommunity/public/images/apps/692200/7c875aed345ae07aeb013fa203c0befb4190ab7d.jpg",
    "icongray": "https://steamcdn-a.akamaihd.net/steamcommunity/public/images/apps/692200/866c061986b1c7904a4d1c1797ae73f6f1752ff3.jpg"
  },
  {
    "name": "67",
    "defaultvalue": 0,
    "displayName": "Level 67",
    "hidden": 0,
    "description": "Level 67",
    "icon": "https://steamcdn-a.akamaihd.net/steamcommunity/public/images/apps/692200/c132ec2588acf6cb4b31483c95f78aa7c23d8b6c.jpg",
    "icongray": "https://steamcdn-a.akamaihd.net/steamcommunity/public/images/apps/692200/e64fb75139fbc84c2b013e80b530640928fc41d4.jpg"
  },
  {
    "name": "68",
    "defaultvalue": 0,
    "displayName": "Level 68",
    "hidden": 0,
    "description": "Level 68",
    "icon": "https://steamcdn-a.akamaihd.net/steamcommunity/public/images/apps/692200/4329a3696c9b3fb95ab2c2cc51c2fab2e71ed186.jpg",
    "icongray": "https://steamcdn-a.akamaihd.net/steamcommunity/public/images/apps/692200/fcf40c4767467e01b07712bfe00965378b6d22c0.jpg"
  },
  {
    "name": "69",
    "defaultvalue": 0,
    "displayName": "Level 69",
    "hidden": 0,
    "description": "Level 69",
    "icon": "https://steamcdn-a.akamaihd.net/steamcommunity/public/images/apps/692200/129a5b4d9d2ff5dd8a67115464d3d1831b44ee29.jpg",
    "icongray": "https://steamcdn-a.akamaihd.net/steamcommunity/public/images/apps/692200/603c3efa41209d2cf8052b13be1d8a7927103f78.jpg"
  },
  {
    "name": "70",
    "defaultvalue": 0,
    "displayName": "Level 70",
    "hidden": 0,
    "description": "Level 70",
    "icon": "https://steamcdn-a.akamaihd.net/steamcommunity/public/images/apps/692200/a7485998cd2d47e6e944c87dd1b38c02674f5746.jpg",
    "icongray": "https://steamcdn-a.akamaihd.net/steamcommunity/public/images/apps/692200/a58bbfa0d4ed0c50c2dc0fb1289c914420574b20.jpg"
  },
  {
    "name": "71",
    "defaultvalue": 0,
    "displayName": "Level 71",
    "hidden": 0,
    "description": "Level 71",
    "icon": "https://steamcdn-a.akamaihd.net/steamcommunity/public/images/apps/692200/60afe84554ba22dba687d244c3e61cc2262c8cf3.jpg",
    "icongray": "https://steamcdn-a.akamaihd.net/steamcommunity/public/images/apps/692200/9ad04e822edbea1a360157f260ba3b238ccce2b3.jpg"
  },
  {
    "name": "72",
    "defaultvalue": 0,
    "displayName": "Level 72",
    "hidden": 0,
    "description": "Level 72",
    "icon": "https://steamcdn-a.akamaihd.net/steamcommunity/public/images/apps/692200/b0dcce0d7d409079640b49cd49fc580cf93b5cbf.jpg",
    "icongray": "https://steamcdn-a.akamaihd.net/steamcommunity/public/images/apps/692200/79cb5e9034384f4c26a4d81bdfb9544ad9e30a13.jpg"
  },
  {
    "name": "73",
    "defaultvalue": 0,
    "displayName": "Level 73",
    "hidden": 0,
    "description": "Level 73",
    "icon": "https://steamcdn-a.akamaihd.net/steamcommunity/public/images/apps/692200/fd0e9a5a820192d7f40c2f30d93546365b622234.jpg",
    "icongray": "https://steamcdn-a.akamaihd.net/steamcommunity/public/images/apps/692200/95276a2284f942f5a66ad29db1341b15311ea8f1.jpg"
  },
  {
    "name": "74",
    "defaultvalue": 0,
    "displayName": "Level 74",
    "hidden": 0,
    "description": "Level 74",
    "icon": "https://steamcdn-a.akamaihd.net/steamcommunity/public/images/apps/692200/3fe1155f4b5222ae4a7e3f17d463dba1a923e29c.jpg",
    "icongray": "https://steamcdn-a.akamaihd.net/steamcommunity/public/images/apps/692200/659dee6a343fed46b0c6be0f1a343130140905d1.jpg"
  },
  {
    "name": "75",
    "defaultvalue": 0,
    "displayName": "Level 75",
    "hidden": 0,
    "description": "Level 75",
    "icon": "https://steamcdn-a.akamaihd.net/steamcommunity/public/images/apps/692200/e1ab2a17f76febaa65bd6520fb014a5579616823.jpg",
    "icongray": "https://steamcdn-a.akamaihd.net/steamcommunity/public/images/apps/692200/59f35d6be8dcafe612ea0de25fb23cb7d3cc7787.jpg"
  },
  {
    "name": "76",
    "defaultvalue": 0,
    "displayName": "Level 76",
    "hidden": 0,
    "description": "Level 76",
    "icon": "https://steamcdn-a.akamaihd.net/steamcommunity/public/images/apps/692200/a688912d058c36a5dc866ea491d95e6f7a512c15.jpg",
    "icongray": "https://steamcdn-a.akamaihd.net/steamcommunity/public/images/apps/692200/2533f8df7eb835f25ab130551ad6cd131a6fc14e.jpg"
  },
  {
    "name": "77",
    "defaultvalue": 0,
    "displayName": "Level 77",
    "hidden": 0,
    "description": "Level 77",
    "icon": "https://steamcdn-a.akamaihd.net/steamcommunity/public/images/apps/692200/8d44e1705785db1ab1c8c612cacbd9fc462c83b6.jpg",
    "icongray": "https://steamcdn-a.akamaihd.net/steamcommunity/public/images/apps/692200/f27f7651f7106481c207137bba24791b91275ad8.jpg"
  },
  {
    "name": "78",
    "defaultvalue": 0,
    "displayName": "Level 78",
    "hidden": 0,
    "description": "Level 78",
    "icon": "https://steamcdn-a.akamaihd.net/steamcommunity/public/images/apps/692200/c9aa1f3e79bf2017fd1e6922c9eaf31bd14ae1df.jpg",
    "icongray": "https://steamcdn-a.akamaihd.net/steamcommunity/public/images/apps/692200/9c7443c569c6a24eecc3fa1b2c4aea6ee0552a18.jpg"
  },
  {
    "name": "79",
    "defaultvalue": 0,
    "displayName": "Level 79",
    "hidden": 0,
    "description": "Level 79",
    "icon": "https://steamcdn-a.akamaihd.net/steamcommunity/public/images/apps/692200/d2e6f9637867705b07e88758aee9f41896bd6759.jpg",
    "icongray": "https://steamcdn-a.akamaihd.net/steamcommunity/public/images/apps/692200/14553b241cfcbc3af21491b18980c142701772c6.jpg"
  },
  {
    "name": "80",
    "defaultvalue": 0,
    "displayName": "Level 80",
    "hidden": 0,
    "description": "Level 80",
    "icon": "https://steamcdn-a.akamaihd.net/steamcommunity/public/images/apps/692200/a2e45a7a683d5679472338b37b682262563fe905.jpg",
    "icongray": "https://steamcdn-a.akamaihd.net/steamcommunity/public/images/apps/692200/070fc7b45ca0dcb29ce5c684b35a8c971918f972.jpg"
  },
  {
    "name": "81",
    "defaultvalue": 0,
    "displayName": "Level 81",
    "hidden": 0,
    "description": "Level 81",
    "icon": "https://steamcdn-a.akamaihd.net/steamcommunity/public/images/apps/692200/0cc14a42148e5d77680c7a4e41e13fa89d799c77.jpg",
    "icongray": "https://steamcdn-a.akamaihd.net/steamcommunity/public/images/apps/692200/35e82c9c08d0f40cb1f79c920b27240951a3a561.jpg"
  },
  {
    "name": "82",
    "defaultvalue": 0,
    "displayName": "Level 82",
    "hidden": 0,
    "description": "Level 82",
    "icon": "https://steamcdn-a.akamaihd.net/steamcommunity/public/images/apps/692200/432891064d85fe780e6253c1e3e8012d2a720844.jpg",
    "icongray": "https://steamcdn-a.akamaihd.net/steamcommunity/public/images/apps/692200/fa6805dfa6f2bb31a78e91dbfff95f03df135166.jpg"
  },
  {
    "name": "83",
    "defaultvalue": 0,
    "displayName": "Level 83",
    "hidden": 0,
    "description": "Level 83",
    "icon": "https://steamcdn-a.akamaihd.net/steamcommunity/public/images/apps/692200/d19d9ae94a2f383c21d1712537c225fccacc2761.jpg",
    "icongray": "https://steamcdn-a.akamaihd.net/steamcommunity/public/images/apps/692200/eddf16a54ca66f9780a4eaa86174659c2ecb03a5.jpg"
  },
  {
    "name": "84",
    "defaultvalue": 0,
    "displayName": "Level 84",
    "hidden": 0,
    "description": "Level 84",
    "icon": "https://steamcdn-a.akamaihd.net/steamcommunity/public/images/apps/692200/ceaca58a8a6dc8704291fbc92eb3d5a5604d0be5.jpg",
    "icongray": "https://steamcdn-a.akamaihd.net/steamcommunity/public/images/apps/692200/86611ee1a340865317c36bdc9b53d5ffe110dc68.jpg"
  },
  {
    "name": "85",
    "defaultvalue": 0,
    "displayName": "Level 85",
    "hidden": 0,
    "description": "Level 85",
    "icon": "https://steamcdn-a.akamaihd.net/steamcommunity/public/images/apps/692200/68f13270d14dfcacd021c2ceea88b39636252304.jpg",
    "icongray": "https://steamcdn-a.akamaihd.net/steamcommunity/public/images/apps/692200/59e149cc41401e5b7b48574ef4449f984893a384.jpg"
  },
  {
    "name": "86",
    "defaultvalue": 0,
    "displayName": "Level 86",
    "hidden": 0,
    "description": "Level 86",
    "icon": "https://steamcdn-a.akamaihd.net/steamcommunity/public/images/apps/692200/53d0af55b0fd76a12fc35c6b5122c80e8a402c6e.jpg",
    "icongray": "https://steamcdn-a.akamaihd.net/steamcommunity/public/images/apps/692200/56f570e08efc04d931fc182c96b12762c0316d4b.jpg"
  },
  {
    "name": "87",
    "defaultvalue": 0,
    "displayName": "Level 87",
    "hidden": 0,
    "description": "Level 87",
    "icon": "https://steamcdn-a.akamaihd.net/steamcommunity/public/images/apps/692200/19865439a7ebcb4fb41745d8531cdb146fa2de6f.jpg",
    "icongray": "https://steamcdn-a.akamaihd.net/steamcommunity/public/images/apps/692200/9f66c095114df637a6bb0b0d2b3687059fd3a750.jpg"
  },
  {
    "name": "88",
    "defaultvalue": 0,
    "displayName": "Level 88",
    "hidden": 0,
    "description": "Level 88",
    "icon": "https://steamcdn-a.akamaihd.net/steamcommunity/public/images/apps/692200/25c20bfbf0dde74e84f4d208a4d91546f46a6777.jpg",
    "icongray": "https://steamcdn-a.akamaihd.net/steamcommunity/public/images/apps/692200/958ff56d1b0bc01b1504c9bb021eb6299f8762ef.jpg"
  },
  {
    "name": "89",
    "defaultvalue": 0,
    "displayName": "Level 89",
    "hidden": 0,
    "description": "Level 89",
    "icon": "https://steamcdn-a.akamaihd.net/steamcommunity/public/images/apps/692200/932fccc59c70682713292fbfa18bbc65db2bad1f.jpg",
    "icongray": "https://steamcdn-a.akamaihd.net/steamcommunity/public/images/apps/692200/d1522bce017d5f7e3f5efcb814bfa15418b3bcca.jpg"
  },
  {
    "name": "90",
    "defaultvalue": 0,
    "displayName": "Level 90",
    "hidden": 0,
    "description": "Level 90",
    "icon": "https://steamcdn-a.akamaihd.net/steamcommunity/public/images/apps/692200/0cd22f9a4cc7483a4c97ec7e30653d43ec9f1dfb.jpg",
    "icongray": "https://steamcdn-a.akamaihd.net/steamcommunity/public/images/apps/692200/6eac691778d6d262e732c5bd4548851d773d6249.jpg"
  },
  {
    "name": "91",
    "defaultvalue": 0,
    "displayName": "Level 91",
    "hidden": 0,
    "description": "Level 91",
    "icon": "https://steamcdn-a.akamaihd.net/steamcommunity/public/images/apps/692200/89ef8d2d83062bc4dc8e639abe66c9e1585d7a90.jpg",
    "icongray": "https://steamcdn-a.akamaihd.net/steamcommunity/public/images/apps/692200/aa485cf333361d8d430bdb1255516a0c261c6476.jpg"
  },
  {
    "name": "92",
    "defaultvalue": 0,
    "displayName": "Level 92",
    "hidden": 0,
    "description": "Level 92",
    "icon": "https://steamcdn-a.akamaihd.net/steamcommunity/public/images/apps/692200/32a3cb440708b889344ae520a78bcb9415e6dd61.jpg",
    "icongray": "https://steamcdn-a.akamaihd.net/steamcommunity/public/images/apps/692200/42ff24eacdbbd0ce7e64d1a5764fb1f5f9821258.jpg"
  },
  {
    "name": "93",
    "defaultvalue": 0,
    "displayName": "Level 93",
    "hidden": 0,
    "description": "Level 93",
    "icon": "https://steamcdn-a.akamaihd.net/steamcommunity/public/images/apps/692200/ed319354eef393885788f9888e7095264c4f58a4.jpg",
    "icongray": "https://steamcdn-a.akamaihd.net/steamcommunity/public/images/apps/692200/d31a6b77f19c50c398f606c8c9bc1eae84ab7bf6.jpg"
  },
  {
    "name": "94",
    "defaultvalue": 0,
    "displayName": "Level 94",
    "hidden": 0,
    "description": "Level 94",
    "icon": "https://steamcdn-a.akamaihd.net/steamcommunity/public/images/apps/692200/6f2e2902fed587dafbdb3b0ff565b520228ed4c9.jpg",
    "icongray": "https://steamcdn-a.akamaihd.net/steamcommunity/public/images/apps/692200/866bd9b3aae15026613a2734105331f92b63de53.jpg"
  },
  {
    "name": "95",
    "defaultvalue": 0,
    "displayName": "Level 95",
    "hidden": 0,
    "description": "Level 95",
    "icon": "https://steamcdn-a.akamaihd.net/steamcommunity/public/images/apps/692200/ac4057c2a6d7b8f00ca3302041bf7fbc9a09d149.jpg",
    "icongray": "https://steamcdn-a.akamaihd.net/steamcommunity/public/images/apps/692200/71f99b9c403f4d7befaecf083331123c23f6d6b3.jpg"
  },
  {
    "name": "96",
    "defaultvalue": 0,
    "displayName": "Level 96",
    "hidden": 0,
    "description": "Level 96",
    "icon": "https://steamcdn-a.akamaihd.net/steamcommunity/public/images/apps/692200/c81b5dbc8ba2076ffeb5f29c4d45fd628ab7fc0b.jpg",
    "icongray": "https://steamcdn-a.akamaihd.net/steamcommunity/public/images/apps/692200/19744f1a8829eef1415ba1250f44d15cbe2f0faf.jpg"
  },
  {
    "name": "97",
    "defaultvalue": 0,
    "displayName": "Level 97",
    "hidden": 0,
    "description": "Level 97",
    "icon": "https://steamcdn-a.akamaihd.net/steamcommunity/public/images/apps/692200/f8dc01bbf353b821fb9e5838beb70a220e26479f.jpg",
    "icongray": "https://steamcdn-a.akamaihd.net/steamcommunity/public/images/apps/692200/b006e70915c5df123d6cbe701a11b75be3a47e17.jpg"
  },
  {
    "name": "98",
    "defaultvalue": 0,
    "displayName": "Level 98",
    "hidden": 0,
    "description": "Level 98",
    "icon": "https://steamcdn-a.akamaihd.net/steamcommunity/public/images/apps/692200/c26a63462e2e9c8489f149bce5fceab702999fe1.jpg",
    "icongray": "https://steamcdn-a.akamaihd.net/steamcommunity/public/images/apps/692200/31b9246e6d82eaac0113cbb8696bb6402ec5b8c9.jpg"
  },
  {
    "name": "99",
    "defaultvalue": 0,
    "displayName": "Level 99",
    "hidden": 0,
    "description": "Level 99",
    "icon": "https://steamcdn-a.akamaihd.net/steamcommunity/public/images/apps/692200/f5391b0775773eacd7958f5fca9be22cfeb4941b.jpg",
    "icongray": "https://steamcdn-a.akamaihd.net/steamcommunity/public/images/apps/692200/0239d5afff4aecb4edadbdbc62cc34c60bb0543f.jpg"
  },
  {
    "name": "100",
    "defaultvalue": 0,
    "displayName": "Level 100",
    "hidden": 0,
    "description": "Level 100",
    "icon": "https://steamcdn-a.akamaihd.net/steamcommunity/public/images/apps/692200/2152983c2022a11195564bf223cf91cdcdcb4882.jpg",
    "icongray": "https://steamcdn-a.akamaihd.net/steamcommunity/public/images/apps/692200/24fff313c40d3469cdb5a47953bd6560d2e5f302.jpg"
  },
  {
    "name": "101",
    "defaultvalue": 0,
    "displayName": "A",
    "hidden": 0,
    "description": "A",
    "icon": "https://steamcdn-a.akamaihd.net/steamcommunity/public/images/apps/692200/6e90667712d5a42e39fd8066ae18882d7bf75a1d.jpg",
    "icongray": "https://steamcdn-a.akamaihd.net/steamcommunity/public/images/apps/692200/23b44d424d81e61de153c76d8801c6a61a878d98.jpg"
  },
  {
    "name": "102",
    "defaultvalue": 0,
    "displayName": "B",
    "hidden": 0,
    "description": "B",
    "icon": "https://steamcdn-a.akamaihd.net/steamcommunity/public/images/apps/692200/16d3799037e0b5c29321b787e26e14d6c02b1e7e.jpg",
    "icongray": "https://steamcdn-a.akamaihd.net/steamcommunity/public/images/apps/692200/d9542b6738975cf28a00ebb6d3d31b21083fdd6f.jpg"
  },
  {
    "name": "103",
    "defaultvalue": 0,
    "displayName": "C",
    "hidden": 0,
    "description": "C",
    "icon": "https://steamcdn-a.akamaihd.net/steamcommunity/public/images/apps/692200/8e227c581dcc574c55f443d34ed507580021a0b9.jpg",
    "icongray": "https://steamcdn-a.akamaihd.net/steamcommunity/public/images/apps/692200/8822be1e20fba7cfdc5a1eb5c178aca1b38ab33d.jpg"
  },
  {
    "name": "104",
    "defaultvalue": 0,
    "displayName": "D",
    "hidden": 0,
    "description": "D",
    "icon": "https://steamcdn-a.akamaihd.net/steamcommunity/public/images/apps/692200/a114d6da012a4b7b116b003a43207a8df27ee3ed.jpg",
    "icongray": "https://steamcdn-a.akamaihd.net/steamcommunity/public/images/apps/692200/39f99f26be2926a3de7f0bb85e254fed2e4751b3.jpg"
  },
  {
    "name": "105",
    "defaultvalue": 0,
    "displayName": "Z5",
    "hidden": 0,
    "description": "Z5",
    "icon": "https://steamcdn-a.akamaihd.net/steamcommunity/public/images/apps/692200/1cd1f53cb67023b15f80ccd91228825e42ea0938.jpg",
    "icongray": "https://steamcdn-a.akamaihd.net/steamcommunity/public/images/apps/692200/475b8c9886f64ef0aa1501dfe1c8a39e563c6777.jpg"
  },
  {
    "name": "106",
    "defaultvalue": 0,
    "displayName": "F",
    "hidden": 0,
    "description": "F",
    "icon": "https://steamcdn-a.akamaihd.net/steamcommunity/public/images/apps/692200/b1230c3bd53fe707c7b4f1a200f8311ccddd3371.jpg",
    "icongray": "https://steamcdn-a.akamaihd.net/steamcommunity/public/images/apps/692200/fb47687f8073ee265b9f6b9c6012f5af5c85d9e8.jpg"
  },
  {
    "name": "107",
    "defaultvalue": 0,
    "displayName": "G",
    "hidden": 0,
    "description": "G",
    "icon": "https://steamcdn-a.akamaihd.net/steamcommunity/public/images/apps/692200/e4eb53c586ca69ece8e554ee5771180c4e7422a0.jpg",
    "icongray": "https://steamcdn-a.akamaihd.net/steamcommunity/public/images/apps/692200/5d120a1c4cdcc2eab0e2f3d217b93a7a64a47cec.jpg"
  },
  {
    "name": "108",
    "defaultvalue": 0,
    "displayName": "H",
    "hidden": 0,
    "description": "H",
    "icon": "https://steamcdn-a.akamaihd.net/steamcommunity/public/images/apps/692200/e8535cea8288afdafa4d0b2709b5ede0467fbaae.jpg",
    "icongray": "https://steamcdn-a.akamaihd.net/steamcommunity/public/images/apps/692200/7f94aff322d671e8151a4d6b88e229c92b370366.jpg"
  },
  {
    "name": "109",
    "defaultvalue": 0,
    "displayName": "I",
    "hidden": 0,
    "description": "I",
    "icon": "https://steamcdn-a.akamaihd.net/steamcommunity/public/images/apps/692200/c6a99ff2e353db8a4ef0ab67a7d53995dc9486ee.jpg",
    "icongray": "https://steamcdn-a.akamaihd.net/steamcommunity/public/images/apps/692200/cefa4122a453c03bf32213b1a5189c5a63d02d39.jpg"
  },
  {
    "name": "110",
    "defaultvalue": 0,
    "displayName": "J",
    "hidden": 0,
    "description": "J",
    "icon": "https://steamcdn-a.akamaihd.net/steamcommunity/public/images/apps/692200/dff19921bec65aa77f0360a23419739b24e1f326.jpg",
    "icongray": "https://steamcdn-a.akamaihd.net/steamcommunity/public/images/apps/692200/2ff310d2450a1cc3680d5bd0353c29cf907830b8.jpg"
  },
  {
    "name": "111",
    "defaultvalue": 0,
    "displayName": "K",
    "hidden": 0,
    "description": "K",
    "icon": "https://steamcdn-a.akamaihd.net/steamcommunity/public/images/apps/692200/16ac09187a95863feff76488871ae107682e0767.jpg",
    "icongray": "https://steamcdn-a.akamaihd.net/steamcommunity/public/images/apps/692200/7ee5a36c2868170f08e0a69c5f8c80ca0c8ebaca.jpg"
  },
  {
    "name": "112",
    "defaultvalue": 0,
    "displayName": "L",
    "hidden": 0,
    "description": "L",
    "icon": "https://steamcdn-a.akamaihd.net/steamcommunity/public/images/apps/692200/5306b03e82c2924bcf0fd72d7cd41870ddbf2c7f.jpg",
    "icongray": "https://steamcdn-a.akamaihd.net/steamcommunity/public/images/apps/692200/1bc80b34480a1e438e7ea5ef29278fa3d78052be.jpg"
  },
  {
    "name": "113",
    "defaultvalue": 0,
    "displayName": "M",
    "hidden": 0,
    "description": "M",
    "icon": "https://steamcdn-a.akamaihd.net/steamcommunity/public/images/apps/692200/434150ea4ab450d9c4eaddd51a1e0f9b91af34c2.jpg",
    "icongray": "https://steamcdn-a.akamaihd.net/steamcommunity/public/images/apps/692200/e5c92ae2365e677ce84e8ddf147542ad4c4225e8.jpg"
  },
  {
    "name": "114",
    "defaultvalue": 0,
    "displayName": "N",
    "hidden": 0,
    "description": "N",
    "icon": "https://steamcdn-a.akamaihd.net/steamcommunity/public/images/apps/692200/d52b9281fc2cd41119d82156cdbf228a44cb00fa.jpg",
    "icongray": "https://steamcdn-a.akamaihd.net/steamcommunity/public/images/apps/692200/a2507940ac6173881ba5d49d3362049be2be807e.jpg"
  },
  {
    "name": "115",
    "defaultvalue": 0,
    "displayName": "O",
    "hidden": 0,
    "description": "O",
    "icon": "https://steamcdn-a.akamaihd.net/steamcommunity/public/images/apps/692200/fe050cf578ac421636af9ad20b0b5a3656a4a681.jpg",
    "icongray": "https://steamcdn-a.akamaihd.net/steamcommunity/public/images/apps/692200/92abb4aea609b17f53a0ac6d6b72e38fc042ac5f.jpg"
  },
  {
    "name": "116",
    "defaultvalue": 0,
    "displayName": "P",
    "hidden": 0,
    "description": "P",
    "icon": "https://steamcdn-a.akamaihd.net/steamcommunity/public/images/apps/692200/496aadbaa027db794120d8400a38482f6e8f641e.jpg",
    "icongray": "https://steamcdn-a.akamaihd.net/steamcommunity/public/images/apps/692200/e549a92ed2a0865feefe5f83ea50cd39425052ef.jpg"
  },
  {
    "name": "117",
    "defaultvalue": 0,
    "displayName": "Q",
    "hidden": 0,
    "description": "Q",
    "icon": "https://steamcdn-a.akamaihd.net/steamcommunity/public/images/apps/692200/dddfea1e8b7ef309598fa5ca59f10c38cf8f0a2a.jpg",
    "icongray": "https://steamcdn-a.akamaihd.net/steamcommunity/public/images/apps/692200/793852b1f454181b88d158f602ec086f53135a53.jpg"
  },
  {
    "name": "118",
    "defaultvalue": 0,
    "displayName": "R",
    "hidden": 0,
    "description": "R",
    "icon": "https://steamcdn-a.akamaihd.net/steamcommunity/public/images/apps/692200/412ca1425b6bd881cf671744d4404de59ae296dc.jpg",
    "icongray": "https://steamcdn-a.akamaihd.net/steamcommunity/public/images/apps/692200/24475eb3a458bffcfd02a55f08c888a42f29bf38.jpg"
  },
  {
    "name": "119",
    "defaultvalue": 0,
    "displayName": "S",
    "hidden": 0,
    "description": "S",
    "icon": "https://steamcdn-a.akamaihd.net/steamcommunity/public/images/apps/692200/f8ef8f2f006f2423e68f3c4cbd3a84498a372ab9.jpg",
    "icongray": "https://steamcdn-a.akamaihd.net/steamcommunity/public/images/apps/692200/d300d5bbb03b353adec0d103d78bcaa48a598516.jpg"
  },
  {
    "name": "120",
    "defaultvalue": 0,
    "displayName": "T",
    "hidden": 0,
    "description": "T",
    "icon": "https://steamcdn-a.akamaihd.net/steamcommunity/public/images/apps/692200/d7e9d47ec6612f675d10b189ee5b9c73f209ce7e.jpg",
    "icongray": "https://steamcdn-a.akamaihd.net/steamcommunity/public/images/apps/692200/ec5f00e386defa12b03e6c17b510019837a7b88a.jpg"
  },
  {
    "name": "121",
    "defaultvalue": 0,
    "displayName": "U",
    "hidden": 0,
    "description": "U",
    "icon": "https://steamcdn-a.akamaihd.net/steamcommunity/public/images/apps/692200/9ac933ce165a9f740e8cbd3bd429abfc988ece6e.jpg",
    "icongray": "https://steamcdn-a.akamaihd.net/steamcommunity/public/images/apps/692200/43db0ad2ac541a5b4d290c6be20274ea9a79825b.jpg"
  },
  {
    "name": "122",
    "defaultvalue": 0,
    "displayName": "V",
    "hidden": 0,
    "description": "V",
    "icon": "https://steamcdn-a.akamaihd.net/steamcommunity/public/images/apps/692200/5f63054a5ff82d87f0be9c353546cbdd34c3f878.jpg",
    "icongray": "https://steamcdn-a.akamaihd.net/steamcommunity/public/images/apps/692200/6b1f136d6ddcfaf4b6806f40e1e039016f6c7165.jpg"
  },
  {
    "name": "123",
    "defaultvalue": 0,
    "displayName": "W",
    "hidden": 0,
    "description": "W",
    "icon": "https://steamcdn-a.akamaihd.net/steamcommunity/public/images/apps/692200/545df1d6d60b797cecd98b86bb5698f3d503b880.jpg",
    "icongray": "https://steamcdn-a.akamaihd.net/steamcommunity/public/images/apps/692200/d07cef3b2f44aaf187b3645a00cff46eff9f8644.jpg"
  },
  {
    "name": "124",
    "defaultvalue": 0,
    "displayName": "X",
    "hidden": 0,
    "description": "X",
    "icon": "https://steamcdn-a.akamaihd.net/steamcommunity/public/images/apps/692200/84ca3261d3dafe1726829f84315c9a3046a23398.jpg",
    "icongray": "https://steamcdn-a.akamaihd.net/steamcommunity/public/images/apps/692200/4a70e16d8f6bbdc394284244060f1a7ff37a7819.jpg"
  },
  {
    "name": "125",
    "defaultvalue": 0,
    "displayName": "Y",
    "hidden": 0,
    "description": "Y",
    "icon": "https://steamcdn-a.akamaihd.net/steamcommunity/public/images/apps/692200/79acc6d2b086a5ebf6e84ecdf4893f480b56a1ae.jpg",
    "icongray": "https://steamcdn-a.akamaihd.net/steamcommunity/public/images/apps/692200/291e31eecd48c4a830549ad39da309303825080c.jpg"
  },
  {
    "name": "126",
    "defaultvalue": 0,
    "displayName": "Z",
    "hidden": 0,
    "description": "Z",
    "icon": "https://steamcdn-a.akamaihd.net/steamcommunity/public/images/apps/692200/0dd9286f0dbb0330cb080a6a4e1d3f12c5a4fc8b.jpg",
    "icongray": "https://steamcdn-a.akamaihd.net/steamcommunity/public/images/apps/692200/11fc6f52620096ca2e3fc9870b1c46901243a5b8.jpg"
  },
  {
    "name": "127",
    "defaultvalue": 0,
    "displayName": "(",
    "hidden": 0,
    "description": "(",
    "icon": "https://steamcdn-a.akamaihd.net/steamcommunity/public/images/apps/692200/ed55bd5f6b590d69309d25242a0501546cd5b05c.jpg",
    "icongray": "https://steamcdn-a.akamaihd.net/steamcommunity/public/images/apps/692200/f7721527bf77d5b26150fac627859bf71c0e031a.jpg"
  },
  {
    "name": "128",
    "defaultvalue": 0,
    "displayName": ")",
    "hidden": 0,
    "description": ")",
    "icon": "https://steamcdn-a.akamaihd.net/steamcommunity/public/images/apps/692200/a20a92d5dfd86c10a53a2ef7c6fc24c35791f488.jpg",
    "icongray": "https://steamcdn-a.akamaihd.net/steamcommunity/public/images/apps/692200/bf137817eeb779ac9cee8ce46378e33810ff9d4b.jpg"
  },
  {
    "name": "129",
    "defaultvalue": 0,
    "displayName": "*",
    "hidden": 0,
    "description": "*",
    "icon": "https://steamcdn-a.akamaihd.net/steamcommunity/public/images/apps/692200/c66a087b05bf52ae6e812b0f01f4af251b228cc9.jpg",
    "icongray": "https://steamcdn-a.akamaihd.net/steamcommunity/public/images/apps/692200/62e23ff8d8619bafff750df7bdcc9ae272c1cd6e.jpg"
  },
  {
    "name": "130",
    "defaultvalue": 0,
    "displayName": "-",
    "hidden": 0,
    "description": "-",
    "icon": "https://steamcdn-a.akamaihd.net/steamcommunity/public/images/apps/692200/ef2188136dc20deb8e2c696eb0a8fb1c646dcc15.jpg",
    "icongray": "https://steamcdn-a.akamaihd.net/steamcommunity/public/images/apps/692200/d488793a4be0d407a3730c3dc5dd850bf09035a8.jpg"
  },
  {
    "name": "131",
    "defaultvalue": 0,
    "displayName": "S1",
    "hidden": 0,
    "description": "S1",
    "icon": "https://steamcdn-a.akamaihd.net/steamcommunity/public/images/apps/692200/4f0926f0c86aa23ae4b32fee7893bbd0f94ed823.jpg",
    "icongray": "https://steamcdn-a.akamaihd.net/steamcommunity/public/images/apps/692200/c54cc70abf645f3d2a58bd44b51c8a8a762fd845.jpg"
  },
  {
    "name": "132",
    "defaultvalue": 0,
    "displayName": "S2",
    "hidden": 0,
    "description": "S2",
    "icon": "https://steamcdn-a.akamaihd.net/steamcommunity/public/images/apps/692200/a444b82648eabf633c307f7a2f12f8b512868c45.jpg",
    "icongray": "https://steamcdn-a.akamaihd.net/steamcommunity/public/images/apps/692200/9f9b9c70b8e9b9ce2df1b699b33a76e8cffcc99d.jpg"
  },
  {
    "name": "133",
    "defaultvalue": 0,
    "displayName": "S3",
    "hidden": 0,
    "description": "S3",
    "icon": "https://steamcdn-a.akamaihd.net/steamcommunity/public/images/apps/692200/9a5c8691f803fecfe23584cce72e9f03a06b6f74.jpg",
    "icongray": "https://steamcdn-a.akamaihd.net/steamcommunity/public/images/apps/692200/8555cbc4b5fe478a7f424ba25b7906b99980f551.jpg"
  },
  {
    "name": "134",
    "defaultvalue": 0,
    "displayName": "S4",
    "hidden": 0,
    "description": "S4",
    "icon": "https://steamcdn-a.akamaihd.net/steamcommunity/public/images/apps/692200/8560a73c13107e48bd7944fa252b09d0d3c94e9e.jpg",
    "icongray": "https://steamcdn-a.akamaihd.net/steamcommunity/public/images/apps/692200/4e358792879a72013d8783c14373963f6551db68.jpg"
  },
  {
    "name": "135",
    "defaultvalue": 0,
    "displayName": "S5",
    "hidden": 0,
    "description": "S5",
    "icon": "https://steamcdn-a.akamaihd.net/steamcommunity/public/images/apps/692200/e53f8803130adbed5cf070b175b4b87920d09286.jpg",
    "icongray": "https://steamcdn-a.akamaihd.net/steamcommunity/public/images/apps/692200/b5162985c20d7c923445825e2857532ef8141f7c.jpg"
  },
  {
    "name": "136",
    "defaultvalue": 0,
    "displayName": "S6",
    "hidden": 0,
    "description": "S6",
    "icon": "https://steamcdn-a.akamaihd.net/steamcommunity/public/images/apps/692200/b87c08d693cd7c79ba54f07bfb31b15eb3f8e0cf.jpg",
    "icongray": "https://steamcdn-a.akamaihd.net/steamcommunity/public/images/apps/692200/0a7ddfc64ca02162b605d491f496acc270080c67.jpg"
  },
  {
    "name": "137",
    "defaultvalue": 0,
    "displayName": "S7",
    "hidden": 0,
    "description": "S7",
    "icon": "https://steamcdn-a.akamaihd.net/steamcommunity/public/images/apps/692200/92b9e54394b4d59ceddee0bc471b979fc6659b8c.jpg",
    "icongray": "https://steamcdn-a.akamaihd.net/steamcommunity/public/images/apps/692200/07841a66213e611f6be7e7a43ce458e888db11b7.jpg"
  },
  {
    "name": "138",
    "defaultvalue": 0,
    "displayName": "S8",
    "hidden": 0,
    "description": "S8",
    "icon": "https://steamcdn-a.akamaihd.net/steamcommunity/public/images/apps/692200/d77c3e4061b4ab764fca72ffa3132b788cd29dea.jpg",
    "icongray": "https://steamcdn-a.akamaihd.net/steamcommunity/public/images/apps/692200/12c8a04bc896bb7d7d1d5e52c5a5bf58b3e33693.jpg"
  },
  {
    "name": "139",
    "defaultvalue": 0,
    "displayName": "S9",
    "hidden": 0,
    "description": "S9",
    "icon": "https://steamcdn-a.akamaihd.net/steamcommunity/public/images/apps/692200/e501e4a816609ca9eb5c5511945d0f82eef622fa.jpg",
    "icongray": "https://steamcdn-a.akamaihd.net/steamcommunity/public/images/apps/692200/9ad94abd6fa3507f91a455974b3758f2cb61db55.jpg"
  },
  {
    "name": "140",
    "defaultvalue": 0,
    "displayName": "S10",
    "hidden": 0,
    "description": "S10",
    "icon": "https://steamcdn-a.akamaihd.net/steamcommunity/public/images/apps/692200/1dd2e1c596232dfd19f9250436322e4d7cce3440.jpg",
    "icongray": "https://steamcdn-a.akamaihd.net/steamcommunity/public/images/apps/692200/23bef150b40c511e083da2041b9d3ff8f28e7ac5.jpg"
  },
  {
    "name": "141",
    "defaultvalue": 0,
    "displayName": "S11",
    "hidden": 0,
    "description": "S11",
    "icon": "https://steamcdn-a.akamaihd.net/steamcommunity/public/images/apps/692200/a54cd88c2604b32b85339731a971ae4f917e9822.jpg",
    "icongray": "https://steamcdn-a.akamaihd.net/steamcommunity/public/images/apps/692200/6856336827ffdffabb7f02ee4c7dba47757e4acb.jpg"
  },
  {
    "name": "142",
    "defaultvalue": 0,
    "displayName": "S12",
    "hidden": 0,
    "description": "S12",
    "icon": "https://steamcdn-a.akamaihd.net/steamcommunity/public/images/apps/692200/5f38d65a462b14d01fed21ac985e73b54320eb1b.jpg",
    "icongray": "https://steamcdn-a.akamaihd.net/steamcommunity/public/images/apps/692200/a059af818bfb67758b9e3cd4065eba7b21fca2b9.jpg"
  },
  {
    "name": "143",
    "defaultvalue": 0,
    "displayName": "S13",
    "hidden": 0,
    "description": "S13",
    "icon": "https://steamcdn-a.akamaihd.net/steamcommunity/public/images/apps/692200/b19b351a61399985240476d59eb35a37666cca0d.jpg",
    "icongray": "https://steamcdn-a.akamaihd.net/steamcommunity/public/images/apps/692200/e329190f149943c553bc3ce8f1f0846f24df92fa.jpg"
  },
  {
    "name": "144",
    "defaultvalue": 0,
    "displayName": "S14",
    "hidden": 0,
    "description": "S14",
    "icon": "https://steamcdn-a.akamaihd.net/steamcommunity/public/images/apps/692200/9922b30981725cb8ee23eb58113e20bcf3bc18a1.jpg",
    "icongray": "https://steamcdn-a.akamaihd.net/steamcommunity/public/images/apps/692200/508a508c193569a17802e0cbecca2886e52aa378.jpg"
  },
  {
    "name": "145",
    "defaultvalue": 0,
    "displayName": "S15",
    "hidden": 0,
    "description": "S15",
    "icon": "https://steamcdn-a.akamaihd.net/steamcommunity/public/images/apps/692200/55f8798880a71ee1dca6e2b179f56e5138d79655.jpg",
    "icongray": "https://steamcdn-a.akamaihd.net/steamcommunity/public/images/apps/692200/cf001ad06979fdea7a6923a6c65fb9d4ceb009c3.jpg"
  },
  {
    "name": "146",
    "defaultvalue": 0,
    "displayName": "S16",
    "hidden": 0,
    "description": "S16",
    "icon": "https://steamcdn-a.akamaihd.net/steamcommunity/public/images/apps/692200/883a6cc0b2cbabce9cffdbe484d2e1f0a6314cab.jpg",
    "icongray": "https://steamcdn-a.akamaihd.net/steamcommunity/public/images/apps/692200/12680fcca5c393ef0138f1a10bbf1d4ce44b14ea.jpg"
  },
  {
    "name": "147",
    "defaultvalue": 0,
    "displayName": "S17",
    "hidden": 0,
    "description": "S17",
    "icon": "https://steamcdn-a.akamaihd.net/steamcommunity/public/images/apps/692200/f669033d7c48e463b5e57e10c86b55c5ba1b9ab7.jpg",
    "icongray": "https://steamcdn-a.akamaihd.net/steamcommunity/public/images/apps/692200/66ccaa26d22f492e81c1d58c8c966ba3bd1b7963.jpg"
  },
  {
    "name": "148",
    "defaultvalue": 0,
    "displayName": "S18",
    "hidden": 0,
    "description": "S18",
    "icon": "https://steamcdn-a.akamaihd.net/steamcommunity/public/images/apps/692200/5169a1d6249f7bdff6031f474ca97c88d6634e6c.jpg",
    "icongray": "https://steamcdn-a.akamaihd.net/steamcommunity/public/images/apps/692200/2852595ea0e2acb1976972370fa72eaa69db6308.jpg"
  },
  {
    "name": "149",
    "defaultvalue": 0,
    "displayName": "S19",
    "hidden": 0,
    "description": "S19",
    "icon": "https://steamcdn-a.akamaihd.net/steamcommunity/public/images/apps/692200/1c6e5fad83dede227d170b3fc0e830f31c188bba.jpg",
    "icongray": "https://steamcdn-a.akamaihd.net/steamcommunity/public/images/apps/692200/c20011d41a949bc850495defa45d2a29584132e5.jpg"
  },
  {
    "name": "150",
    "defaultvalue": 0,
    "displayName": "S20",
    "hidden": 0,
    "description": "S20",
    "icon": "https://steamcdn-a.akamaihd.net/steamcommunity/public/images/apps/692200/15c5cbea8fd911469839b8a64b142382f797512f.jpg",
    "icongray": "https://steamcdn-a.akamaihd.net/steamcommunity/public/images/apps/692200/22e2f1bfbd2eb34d2a0a9e62067a70adf4c7809a.jpg"
  },
  {
    "name": "151",
    "defaultvalue": 0,
    "displayName": "S21",
    "hidden": 0,
    "description": "S21",
    "icon": "https://steamcdn-a.akamaihd.net/steamcommunity/public/images/apps/692200/1cfa203759c669c93654b8e06093727df130fd59.jpg",
    "icongray": "https://steamcdn-a.akamaihd.net/steamcommunity/public/images/apps/692200/1891b589d5f66bb42af41be73e83b4011bdb7bb8.jpg"
  },
  {
    "name": "152",
    "defaultvalue": 0,
    "displayName": "S22",
    "hidden": 0,
    "description": "S22",
    "icon": "https://steamcdn-a.akamaihd.net/steamcommunity/public/images/apps/692200/31f00d4a9a207b326e6fb20c743b7ba92a77352f.jpg",
    "icongray": "https://steamcdn-a.akamaihd.net/steamcommunity/public/images/apps/692200/3810b67ccab9902747457baa3711caec7dce4fea.jpg"
  },
  {
    "name": "153",
    "defaultvalue": 0,
    "displayName": "S23",
    "hidden": 0,
    "description": "S23",
    "icon": "https://steamcdn-a.akamaihd.net/steamcommunity/public/images/apps/692200/9357b78d75bb9ed0406494034349310a65ef21d5.jpg",
    "icongray": "https://steamcdn-a.akamaihd.net/steamcommunity/public/images/apps/692200/478a06a175dff05a3e2ebf4ff8f38a0d20e7cb4b.jpg"
  },
  {
    "name": "154",
    "defaultvalue": 0,
    "displayName": "S24",
    "hidden": 0,
    "description": "S24",
    "icon": "https://steamcdn-a.akamaihd.net/steamcommunity/public/images/apps/692200/166c55e8acfab5746be4508bac1b01ed1a90261d.jpg",
    "icongray": "https://steamcdn-a.akamaihd.net/steamcommunity/public/images/apps/692200/099225f28dd9ee067b289798ab87db0584d00469.jpg"
  },
  {
    "name": "155",
    "defaultvalue": 0,
    "displayName": "S25",
    "hidden": 0,
    "description": "S25",
    "icon": "https://steamcdn-a.akamaihd.net/steamcommunity/public/images/apps/692200/f37a917d4bdb87eafe58c1a2f5a48b2fe5bd1079.jpg",
    "icongray": "https://steamcdn-a.akamaihd.net/steamcommunity/public/images/apps/692200/33405cb53e9cff0dcc6f3a44c97c558322c384f2.jpg"
  },
  {
    "name": "156",
    "defaultvalue": 0,
    "displayName": "S26",
    "hidden": 0,
    "description": "S26",
    "icon": "https://steamcdn-a.akamaihd.net/steamcommunity/public/images/apps/692200/ffd392c3c3b38507863d44aff2b35e3753882bc4.jpg",
    "icongray": "https://steamcdn-a.akamaihd.net/steamcommunity/public/images/apps/692200/e75fc9d28dd1079114744502f46e5a4512a03ad1.jpg"
  },
  {
    "name": "157",
    "defaultvalue": 0,
    "displayName": "S27",
    "hidden": 0,
    "description": "S27",
    "icon": "https://steamcdn-a.akamaihd.net/steamcommunity/public/images/apps/692200/dd37ae8f9cacd3d16989afc624537c892c7d75d4.jpg",
    "icongray": "https://steamcdn-a.akamaihd.net/steamcommunity/public/images/apps/692200/7af378c0d8b919a9167f8a818f0b212139b36b41.jpg"
  },
  {
    "name": "158",
    "defaultvalue": 0,
    "displayName": "S28",
    "hidden": 0,
    "description": "S28",
    "icon": "https://steamcdn-a.akamaihd.net/steamcommunity/public/images/apps/692200/704db91c4a8c4debded5922fc6eae448552fe73e.jpg",
    "icongray": "https://steamcdn-a.akamaihd.net/steamcommunity/public/images/apps/692200/8c9c24b527b06473df7d88b32bd0601070f9d3cd.jpg"
  },
  {
    "name": "159",
    "defaultvalue": 0,
    "displayName": "S29",
    "hidden": 0,
    "description": "S29",
    "icon": "https://steamcdn-a.akamaihd.net/steamcommunity/public/images/apps/692200/632108a6ea9748978aadd3faf55badabb8e01fab.jpg",
    "icongray": "https://steamcdn-a.akamaihd.net/steamcommunity/public/images/apps/692200/e273d34e40524d43b5c4507313190b1e5086574a.jpg"
  },
  {
    "name": "160",
    "defaultvalue": 0,
    "displayName": "S30",
    "hidden": 0,
    "description": "S30",
    "icon": "https://steamcdn-a.akamaihd.net/steamcommunity/public/images/apps/692200/1c9a92ec551ea9b41ad107e9ce2dfe31894ef1b0.jpg",
    "icongray": "https://steamcdn-a.akamaihd.net/steamcommunity/public/images/apps/692200/1aa3e937f536fef5bc0c0e3b84f5daded5122250.jpg"
  },
  {
    "name": "161",
    "defaultvalue": 0,
    "displayName": "S31",
    "hidden": 0,
    "description": "S31",
    "icon": "https://steamcdn-a.akamaihd.net/steamcommunity/public/images/apps/692200/664fc6a58cfe5740accafddf18cc86b02943088f.jpg",
    "icongray": "https://steamcdn-a.akamaihd.net/steamcommunity/public/images/apps/692200/73dd8c1ffdfcaee2e31c972bdefdc1101761427b.jpg"
  },
  {
    "name": "162",
    "defaultvalue": 0,
    "displayName": "S32",
    "hidden": 0,
    "description": "S32",
    "icon": "https://steamcdn-a.akamaihd.net/steamcommunity/public/images/apps/692200/a6980aa1825541754a7f726e58d6855cbe1c540a.jpg",
    "icongray": "https://steamcdn-a.akamaihd.net/steamcommunity/public/images/apps/692200/0cf602ab03cb77635acf13aebe701eaff413d6a5.jpg"
  },
  {
    "name": "163",
    "defaultvalue": 0,
    "displayName": "S33",
    "hidden": 0,
    "description": "S33",
    "icon": "https://steamcdn-a.akamaihd.net/steamcommunity/public/images/apps/692200/a9d964f32d89ad82744d1ac7eb1bd11ce06738f3.jpg",
    "icongray": "https://steamcdn-a.akamaihd.net/steamcommunity/public/images/apps/692200/f0f9b7cbf44d009b3b911d32093e1d102f03f515.jpg"
  },
  {
    "name": "164",
    "defaultvalue": 0,
    "displayName": "S34",
    "hidden": 0,
    "description": "S34",
    "icon": "https://steamcdn-a.akamaihd.net/steamcommunity/public/images/apps/692200/5a731f9faa700ea5b323529a4404c085c91d40e3.jpg",
    "icongray": "https://steamcdn-a.akamaihd.net/steamcommunity/public/images/apps/692200/417b2597ca0bdd5211d22145c32edfb68920df81.jpg"
  },
  {
    "name": "165",
    "defaultvalue": 0,
    "displayName": "S35",
    "hidden": 0,
    "description": "S35",
    "icon": "https://steamcdn-a.akamaihd.net/steamcommunity/public/images/apps/692200/4e0c05713e0af0b5b0b41bb0ac9f7e77a71ce0dd.jpg",
    "icongray": "https://steamcdn-a.akamaihd.net/steamcommunity/public/images/apps/692200/0832b431f10bf9f44852146107d2f9792cfe9310.jpg"
  },
  {
    "name": "166",
    "defaultvalue": 0,
    "displayName": "S36",
    "hidden": 0,
    "description": "S36",
    "icon": "https://steamcdn-a.akamaihd.net/steamcommunity/public/images/apps/692200/8f4a59479c4de9c49c8fc53b3082bd2c7ace5967.jpg",
    "icongray": "https://steamcdn-a.akamaihd.net/steamcommunity/public/images/apps/692200/db88a3f4f0d0a584ce59bfd9e0f5731d25fe9a70.jpg"
  },
  {
    "name": "167",
    "defaultvalue": 0,
    "displayName": "S37",
    "hidden": 0,
    "description": "S37",
    "icon": "https://steamcdn-a.akamaihd.net/steamcommunity/public/images/apps/692200/865c691a1945048693240537380afc9b289e739a.jpg",
    "icongray": "https://steamcdn-a.akamaihd.net/steamcommunity/public/images/apps/692200/f5f9ea62176c9c3fcd9ab1967215ad49756f34de.jpg"
  },
  {
    "name": "168",
    "defaultvalue": 0,
    "displayName": "S38",
    "hidden": 0,
    "description": "S38",
    "icon": "https://steamcdn-a.akamaihd.net/steamcommunity/public/images/apps/692200/d428bb34534e7a7814b90fe64aefc6f54d6b8aad.jpg",
    "icongray": "https://steamcdn-a.akamaihd.net/steamcommunity/public/images/apps/692200/db26adb3bdd9abd6e30e63e0ca4a9b914af16242.jpg"
  },
  {
    "name": "169",
    "defaultvalue": 0,
    "displayName": "S39",
    "hidden": 0,
    "description": "S39",
    "icon": "https://steamcdn-a.akamaihd.net/steamcommunity/public/images/apps/692200/3ce1641c0552eb77758729c23bf129878f278b8e.jpg",
    "icongray": "https://steamcdn-a.akamaihd.net/steamcommunity/public/images/apps/692200/02937290d1e0167096cfa58d8aff98b35b5d80d1.jpg"
  },
  {
    "name": "170",
    "defaultvalue": 0,
    "displayName": "S40",
    "hidden": 0,
    "description": "S40",
    "icon": "https://steamcdn-a.akamaihd.net/steamcommunity/public/images/apps/692200/2edf78827281a6e4777aacc7272b91f2d751c5ce.jpg",
    "icongray": "https://steamcdn-a.akamaihd.net/steamcommunity/public/images/apps/692200/df05560f505a289c2549c0c56a21605f47643b5d.jpg"
  },
  {
    "name": "171",
    "defaultvalue": 0,
    "displayName": "S41",
    "hidden": 0,
    "description": "S41",
    "icon": "https://steamcdn-a.akamaihd.net/steamcommunity/public/images/apps/692200/d76ef9de0ad8a914a42c2de8704a46dfefef3e08.jpg",
    "icongray": "https://steamcdn-a.akamaihd.net/steamcommunity/public/images/apps/692200/2ceab27e11038823798a007900d6d8e2def2e854.jpg"
  },
  {
    "name": "172",
    "defaultvalue": 0,
    "displayName": "S42",
    "hidden": 0,
    "description": "S42",
    "icon": "https://steamcdn-a.akamaihd.net/steamcommunity/public/images/apps/692200/041e16c124924fcefb5d76b36d2eaa4c8909acc0.jpg",
    "icongray": "https://steamcdn-a.akamaihd.net/steamcommunity/public/images/apps/692200/4122a07605bd68be6cbfc80e4219ea6d6f2f35ae.jpg"
  },
  {
    "name": "173",
    "defaultvalue": 0,
    "displayName": "S43",
    "hidden": 0,
    "description": "S43",
    "icon": "https://steamcdn-a.akamaihd.net/steamcommunity/public/images/apps/692200/030361be3d7a2f628ad92842f4a2baac3fa13b38.jpg",
    "icongray": "https://steamcdn-a.akamaihd.net/steamcommunity/public/images/apps/692200/227b9597def47c9bfd740c24014f1a52c50bf884.jpg"
  },
  {
    "name": "174",
    "defaultvalue": 0,
    "displayName": "S44",
    "hidden": 0,
    "description": "S44",
    "icon": "https://steamcdn-a.akamaihd.net/steamcommunity/public/images/apps/692200/77a53952dedb5cdad87bd82af424c23345c0914c.jpg",
    "icongray": "https://steamcdn-a.akamaihd.net/steamcommunity/public/images/apps/692200/5889f31152e6877545fd736728cfe38f9a89ed82.jpg"
  },
  {
    "name": "175",
    "defaultvalue": 0,
    "displayName": "S45",
    "hidden": 0,
    "description": "S45",
    "icon": "https://steamcdn-a.akamaihd.net/steamcommunity/public/images/apps/692200/7f7042e8369babea8bea0301d8c74c4349ef134d.jpg",
    "icongray": "https://steamcdn-a.akamaihd.net/steamcommunity/public/images/apps/692200/ce49dc047dba2a9be95709771ce105216be9d33a.jpg"
  },
  {
    "name": "176",
    "defaultvalue": 0,
    "displayName": "S46",
    "hidden": 0,
    "description": "S46",
    "icon": "https://steamcdn-a.akamaihd.net/steamcommunity/public/images/apps/692200/6440a2a46d7cee06bc2c4b20f6607f8dc9f3fb1b.jpg",
    "icongray": "https://steamcdn-a.akamaihd.net/steamcommunity/public/images/apps/692200/005b8758e6898fe7b925f4b0c3f36dc0eb644dfa.jpg"
  },
  {
    "name": "177",
    "defaultvalue": 0,
    "displayName": "S47",
    "hidden": 0,
    "description": "S47",
    "icon": "https://steamcdn-a.akamaihd.net/steamcommunity/public/images/apps/692200/a37b4f1940c89aa90e391705ab3f0e9a0233e691.jpg",
    "icongray": "https://steamcdn-a.akamaihd.net/steamcommunity/public/images/apps/692200/5d334f5a1473369438cf043af59240758b98993f.jpg"
  },
  {
    "name": "178",
    "defaultvalue": 0,
    "displayName": "S48",
    "hidden": 0,
    "description": "S48",
    "icon": "https://steamcdn-a.akamaihd.net/steamcommunity/public/images/apps/692200/7182a4c62fc083d6d9bbda72edd3b128968cf450.jpg",
    "icongray": "https://steamcdn-a.akamaihd.net/steamcommunity/public/images/apps/692200/e307530194a9007cc75b7c67e256626eb5cc76f0.jpg"
  },
  {
    "name": "179",
    "defaultvalue": 0,
    "displayName": "S49",
    "hidden": 0,
    "description": "S49",
    "icon": "https://steamcdn-a.akamaihd.net/steamcommunity/public/images/apps/692200/abf80b4b80695a291cbf88ba1a89300c6c6dec64.jpg",
    "icongray": "https://steamcdn-a.akamaihd.net/steamcommunity/public/images/apps/692200/01c2ab42160d610df638cbcbd69cf8bc54883f9a.jpg"
  },
  {
    "name": "180",
    "defaultvalue": 0,
    "displayName": "S50",
    "hidden": 0,
    "description": "S50",
    "icon": "https://steamcdn-a.akamaihd.net/steamcommunity/public/images/apps/692200/9aa8648f56cf2a49a5d15abfc76994a1e2809656.jpg",
    "icongray": "https://steamcdn-a.akamaihd.net/steamcommunity/public/images/apps/692200/103c59cebcd4ebf0e459c01714c9b70165ca47e0.jpg"
  },
  {
    "name": "181",
    "defaultvalue": 0,
    "displayName": "S51",
    "hidden": 0,
    "description": "S51",
    "icon": "https://steamcdn-a.akamaihd.net/steamcommunity/public/images/apps/692200/5c03ca58415562031a95236b304467c117516338.jpg",
    "icongray": "https://steamcdn-a.akamaihd.net/steamcommunity/public/images/apps/692200/dfce08b5ee11976ba09c502f791c840eb4ced703.jpg"
  },
  {
    "name": "182",
    "defaultvalue": 0,
    "displayName": "S52",
    "hidden": 0,
    "description": "S52",
    "icon": "https://steamcdn-a.akamaihd.net/steamcommunity/public/images/apps/692200/a8b23e8c7cf29c63e475198f214d3a1e8dfd6338.jpg",
    "icongray": "https://steamcdn-a.akamaihd.net/steamcommunity/public/images/apps/692200/b843d55728081d3647a7596e4201451a9fb6e1be.jpg"
  },
  {
    "name": "183",
    "defaultvalue": 0,
    "displayName": "S53",
    "hidden": 0,
    "description": "S53",
    "icon": "https://steamcdn-a.akamaihd.net/steamcommunity/public/images/apps/692200/f018784eca7cce2ce16819430a65b81c00f76349.jpg",
    "icongray": "https://steamcdn-a.akamaihd.net/steamcommunity/public/images/apps/692200/e9806679fa7e048290877f81e0a3c759c601f261.jpg"
  },
  {
    "name": "184",
    "defaultvalue": 0,
    "displayName": "S54",
    "hidden": 0,
    "description": "S54",
    "icon": "https://steamcdn-a.akamaihd.net/steamcommunity/public/images/apps/692200/b04d7eb219d2227c737b34eda3e74513bb141761.jpg",
    "icongray": "https://steamcdn-a.akamaihd.net/steamcommunity/public/images/apps/692200/1a5043ed0a3c100b4773efc0fda19bb1fc1befac.jpg"
  },
  {
    "name": "185",
    "defaultvalue": 0,
    "displayName": "S55",
    "hidden": 0,
    "description": "S55",
    "icon": "https://steamcdn-a.akamaihd.net/steamcommunity/public/images/apps/692200/51081ce366407da1c6ecdb5247df519482d051cb.jpg",
    "icongray": "https://steamcdn-a.akamaihd.net/steamcommunity/public/images/apps/692200/b6d749d336690f568bc5c073944c1455fe42c9ea.jpg"
  },
  {
    "name": "186",
    "defaultvalue": 0,
    "displayName": "S56",
    "hidden": 0,
    "description": "S56",
    "icon": "https://steamcdn-a.akamaihd.net/steamcommunity/public/images/apps/692200/3a054d306dbbc4f9ad9bd1c0db2c279110f5887a.jpg",
    "icongray": "https://steamcdn-a.akamaihd.net/steamcommunity/public/images/apps/692200/54bd9ea73bcaee572eac3eb51d9b7a96ca445336.jpg"
  },
  {
    "name": "187",
    "defaultvalue": 0,
    "displayName": "S57",
    "hidden": 0,
    "description": "S57",
    "icon": "https://steamcdn-a.akamaihd.net/steamcommunity/public/images/apps/692200/dd9b2ef687c447a9d12c07cfd6e4a42f194151e0.jpg",
    "icongray": "https://steamcdn-a.akamaihd.net/steamcommunity/public/images/apps/692200/8bfc1aafb95ca85ee3740c1560cd6665ca6cb83f.jpg"
  },
  {
    "name": "188",
    "defaultvalue": 0,
    "displayName": "S58",
    "hidden": 0,
    "description": "S58",
    "icon": "https://steamcdn-a.akamaihd.net/steamcommunity/public/images/apps/692200/18f9acd5651477009e48a12839f0c3c48bbabb28.jpg",
    "icongray": "https://steamcdn-a.akamaihd.net/steamcommunity/public/images/apps/692200/556a4c0dda0794476ce19716c8aaaac1f0baf516.jpg"
  },
  {
    "name": "189",
    "defaultvalue": 0,
    "displayName": "S59",
    "hidden": 0,
    "description": "S59",
    "icon": "https://steamcdn-a.akamaihd.net/steamcommunity/public/images/apps/692200/f6bfb607557e3e99a30c2d7be1bb8ea0511e35ee.jpg",
    "icongray": "https://steamcdn-a.akamaihd.net/steamcommunity/public/images/apps/692200/beb4ab1de7bf418c2f8a5f2176ddf9991f506c47.jpg"
  },
  {
    "name": "190",
    "defaultvalue": 0,
    "displayName": "S60",
    "hidden": 0,
    "description": "S60",
    "icon": "https://steamcdn-a.akamaihd.net/steamcommunity/public/images/apps/692200/64113d6cc63a377341f11ad3438c3596df0338fc.jpg",
    "icongray": "https://steamcdn-a.akamaihd.net/steamcommunity/public/images/apps/692200/8bb3b17ebc936f13a71e43889e83983e038e6567.jpg"
  },
  {
    "name": "191",
    "defaultvalue": 0,
    "displayName": "S61",
    "hidden": 0,
    "description": "S61",
    "icon": "https://steamcdn-a.akamaihd.net/steamcommunity/public/images/apps/692200/d822d7c2719719140c543e611bbafcbdbc8be113.jpg",
    "icongray": "https://steamcdn-a.akamaihd.net/steamcommunity/public/images/apps/692200/d91457bc3a5bcbfeaab65e494c73542be3e0fe92.jpg"
  },
  {
    "name": "192",
    "defaultvalue": 0,
    "displayName": "S62",
    "hidden": 0,
    "description": "S62",
    "icon": "https://steamcdn-a.akamaihd.net/steamcommunity/public/images/apps/692200/8bd4c4725ec5853537e6cacb46bb46a276910a42.jpg",
    "icongray": "https://steamcdn-a.akamaihd.net/steamcommunity/public/images/apps/692200/2b7163b6924017d48b7bb3d1b5b2d4044c9c3bb3.jpg"
  },
  {
    "name": "193",
    "defaultvalue": 0,
    "displayName": "S63",
    "hidden": 0,
    "description": "S63",
    "icon": "https://steamcdn-a.akamaihd.net/steamcommunity/public/images/apps/692200/35824d1a0d73ec35e7426c2827b0415a44a2a825.jpg",
    "icongray": "https://steamcdn-a.akamaihd.net/steamcommunity/public/images/apps/692200/462fac2c3f5de795f35999d2cf4f3edb13327eb4.jpg"
  },
  {
    "name": "194",
    "defaultvalue": 0,
    "displayName": "S64",
    "hidden": 0,
    "description": "S64",
    "icon": "https://steamcdn-a.akamaihd.net/steamcommunity/public/images/apps/692200/cc5dda38065ec58148eda34d8749fde86cedd7d0.jpg",
    "icongray": "https://steamcdn-a.akamaihd.net/steamcommunity/public/images/apps/692200/837c2643663a461160434a27688e760e4c8a8091.jpg"
  },
  {
    "name": "195",
    "defaultvalue": 0,
    "displayName": "S65",
    "hidden": 0,
    "description": "S65",
    "icon": "https://steamcdn-a.akamaihd.net/steamcommunity/public/images/apps/692200/bfe24867c655179dfdefc99c39310c241956bb2a.jpg",
    "icongray": "https://steamcdn-a.akamaihd.net/steamcommunity/public/images/apps/692200/5141d97fcd7b31352ebb87ea7a7980322516cc60.jpg"
  },
  {
    "name": "196",
    "defaultvalue": 0,
    "displayName": "S66",
    "hidden": 0,
    "description": "S66",
    "icon": "https://steamcdn-a.akamaihd.net/steamcommunity/public/images/apps/692200/dcdb3135b6dde45d07433acc82f2282bea864025.jpg",
    "icongray": "https://steamcdn-a.akamaihd.net/steamcommunity/public/images/apps/692200/ec7aafbebe0bfa3f1a01a18c4a9710f276b8b2ec.jpg"
  },
  {
    "name": "197",
    "defaultvalue": 0,
    "displayName": "S67",
    "hidden": 0,
    "description": "S67",
    "icon": "https://steamcdn-a.akamaihd.net/steamcommunity/public/images/apps/692200/6004ffc6ed100c00af4bdb81ea51cb6eb71de6fc.jpg",
    "icongray": "https://steamcdn-a.akamaihd.net/steamcommunity/public/images/apps/692200/d47082e5d4cd9fadb3a68be94a3c46dbcb5b3474.jpg"
  },
  {
    "name": "198",
    "defaultvalue": 0,
    "displayName": "S68",
    "hidden": 0,
    "description": "S68",
    "icon": "https://steamcdn-a.akamaihd.net/steamcommunity/public/images/apps/692200/d70cfba51ba5a09fdc4fa7c7589c60d68a9935b0.jpg",
    "icongray": "https://steamcdn-a.akamaihd.net/steamcommunity/public/images/apps/692200/100a5715b006440c6a21a7bad4f45232576c36ac.jpg"
  },
  {
    "name": "199",
    "defaultvalue": 0,
    "displayName": "S69",
    "hidden": 0,
    "description": "S69",
    "icon": "https://steamcdn-a.akamaihd.net/steamcommunity/public/images/apps/692200/4e2539569473319b9879a85b5c8cf23fe96e3630.jpg",
    "icongray": "https://steamcdn-a.akamaihd.net/steamcommunity/public/images/apps/692200/a86629fb8273afc30f8021a8505b340b055ceae4.jpg"
  },
  {
    "name": "200",
    "defaultvalue": 0,
    "displayName": "S70",
    "hidden": 0,
    "description": "S70",
    "icon": "https://steamcdn-a.akamaihd.net/steamcommunity/public/images/apps/692200/8142bb329b0d1c86bd2e3f0747ee4aa00130616c.jpg",
    "icongray": "https://steamcdn-a.akamaihd.net/steamcommunity/public/images/apps/692200/ad430880d0d9c0139f67493692a142ad571e7f0e.jpg"
  },
  {
    "name": "201",
    "defaultvalue": 0,
    "displayName": "S71",
    "hidden": 0,
    "description": "S71",
    "icon": "https://steamcdn-a.akamaihd.net/steamcommunity/public/images/apps/692200/d653e687bced1e796117cdd9a6427c162db1bb58.jpg",
    "icongray": "https://steamcdn-a.akamaihd.net/steamcommunity/public/images/apps/692200/2320d0cc9f30a1dce72d6da95952b3b2374c4cb7.jpg"
  },
  {
    "name": "202",
    "defaultvalue": 0,
    "displayName": "S72",
    "hidden": 0,
    "description": "S72",
    "icon": "https://steamcdn-a.akamaihd.net/steamcommunity/public/images/apps/692200/ee09949f889c6122c7434aafe3245bc7d3efd445.jpg",
    "icongray": "https://steamcdn-a.akamaihd.net/steamcommunity/public/images/apps/692200/20c443bddcecace47ddd5d7c9b2519c66ce67430.jpg"
  },
  {
    "name": "203",
    "defaultvalue": 0,
    "displayName": "S73",
    "hidden": 0,
    "description": "S73",
    "icon": "https://steamcdn-a.akamaihd.net/steamcommunity/public/images/apps/692200/7565a3335039a42ba7f3973a4771fab85607defd.jpg",
    "icongray": "https://steamcdn-a.akamaihd.net/steamcommunity/public/images/apps/692200/00b710dfc31d8ea21f80ef83cdbdbe366aaf5d2f.jpg"
  },
  {
    "name": "204",
    "defaultvalue": 0,
    "displayName": "S74",
    "hidden": 0,
    "description": "S74",
    "icon": "https://steamcdn-a.akamaihd.net/steamcommunity/public/images/apps/692200/1f01073ef347651cdf5bc710e818890d08a1e2f3.jpg",
    "icongray": "https://steamcdn-a.akamaihd.net/steamcommunity/public/images/apps/692200/88b9dfd205aeb27d8cf2b68f36c6a241bb84d850.jpg"
  },
  {
    "name": "205",
    "defaultvalue": 0,
    "displayName": "S75",
    "hidden": 0,
    "description": "S75",
    "icon": "https://steamcdn-a.akamaihd.net/steamcommunity/public/images/apps/692200/85896218478a7fe4095bc9b5fddc818872e167a9.jpg",
    "icongray": "https://steamcdn-a.akamaihd.net/steamcommunity/public/images/apps/692200/c704c48468a38fc9da0e6cd326c1cb9bce56d817.jpg"
  },
  {
    "name": "206",
    "defaultvalue": 0,
    "displayName": "S76",
    "hidden": 0,
    "description": "S76",
    "icon": "https://steamcdn-a.akamaihd.net/steamcommunity/public/images/apps/692200/451027a4444570c9168a44b37ec0e4ebe807f19b.jpg",
    "icongray": "https://steamcdn-a.akamaihd.net/steamcommunity/public/images/apps/692200/ec6a430e5ed4f76882f7f0b34f3dcdd8b2975bdb.jpg"
  },
  {
    "name": "207",
    "defaultvalue": 0,
    "displayName": "S77",
    "hidden": 0,
    "description": "S77",
    "icon": "https://steamcdn-a.akamaihd.net/steamcommunity/public/images/apps/692200/fa52c07b9140f0d05b52df54c3e6a2da8f03e43b.jpg",
    "icongray": "https://steamcdn-a.akamaihd.net/steamcommunity/public/images/apps/692200/a3f8568a041553d842e541ef54fbaa4344815c6d.jpg"
  },
  {
    "name": "208",
    "defaultvalue": 0,
    "displayName": "S78",
    "hidden": 0,
    "description": "S78",
    "icon": "https://steamcdn-a.akamaihd.net/steamcommunity/public/images/apps/692200/0570ce56a806af12e71eb752a3ff1944314ff6cb.jpg",
    "icongray": "https://steamcdn-a.akamaihd.net/steamcommunity/public/images/apps/692200/2c8e4b052a10715f9f2de23f2cb8610954e4a903.jpg"
  },
  {
    "name": "209",
    "defaultvalue": 0,
    "displayName": "S79",
    "hidden": 0,
    "description": "S79",
    "icon": "https://steamcdn-a.akamaihd.net/steamcommunity/public/images/apps/692200/57ccb3926033515b32bb00ff0d8217209a7efc8b.jpg",
    "icongray": "https://steamcdn-a.akamaihd.net/steamcommunity/public/images/apps/692200/67ca71d18a4872a488a74a46f19ba99fe2025f91.jpg"
  },
  {
    "name": "210",
    "defaultvalue": 0,
    "displayName": "S80",
    "hidden": 0,
    "description": "S80",
    "icon": "https://steamcdn-a.akamaihd.net/steamcommunity/public/images/apps/692200/aacad473b7a7693a8e88c56f19d141c91a546301.jpg",
    "icongray": "https://steamcdn-a.akamaihd.net/steamcommunity/public/images/apps/692200/6567173c508109d25c7e8b5cdb62caf2a9723981.jpg"
  }
]