﻿[
  {
    "name": "1",
    "defaultvalue": 0,
    "displayName": "We'll Find You, Jill",
    "hidden": 0,
    "description": "【CAMPAIGN】Clear Episodes 1 - 3.",
    "icon": "https://steamcdn-a.akamaihd.net/steamcommunity/public/images/apps/222480/b40d406f95fcacb974aa68ce9f0e4fd91a154af3.jpg",
    "icongray": "https://steamcdn-a.akamaihd.net/steamcommunity/public/images/apps/222480/165f346faedf5bce857e66268ac2f019ec5a640a.jpg"
  },
  {
    "name": "2",
    "defaultvalue": 0,
    "displayName": "Get Us Out of Here!",
    "hidden": 0,
    "description": "【CAMPAIGN】Clear Episodes 4 - 6.",
    "icon": "https://steamcdn-a.akamaihd.net/steamcommunity/public/images/apps/222480/cbb81d8ae4a559e0d90b62212559a67adc2acb73.jpg",
    "icongray": "https://steamcdn-a.akamaihd.net/steamcommunity/public/images/apps/222480/17ee9430a7044e4f37e5ae9de98db9b1534a4623.jpg"
  },
  {
    "name": "3",
    "defaultvalue": 0,
    "displayName": "The Queen Zenobia",
    "hidden": 0,
    "description": "【CAMPAIGN】Clear Episodes 7 - 9.",
    "icon": "https://steamcdn-a.akamaihd.net/steamcommunity/public/images/apps/222480/776d005f16f84b92e8ed0bdb98077638cc987aec.jpg",
    "icongray": "https://steamcdn-a.akamaihd.net/steamcommunity/public/images/apps/222480/e43150a84a964829afa64b349e7990721ae09900.jpg"
  },
  {
    "name": "4",
    "defaultvalue": 0,
    "displayName": "The Storm is Gone",
    "hidden": 0,
    "description": "【CAMPAIGN】Clear Episodes 10 - 12.",
    "icon": "https://steamcdn-a.akamaihd.net/steamcommunity/public/images/apps/222480/0a95e8408ba12ba6a3c1f6d025b4b61878854514.jpg",
    "icongray": "https://steamcdn-a.akamaihd.net/steamcommunity/public/images/apps/222480/ed26ccfbaa0b2b34c0052d89e3cfdb167c71f5cd.jpg"
  },
  {
    "name": "5",
    "defaultvalue": 0,
    "displayName": "The Dark Forest",
    "hidden": 0,
    "description": "【CAMPAIGN】Clear Casual difficulty or higher.",
    "icon": "https://steamcdn-a.akamaihd.net/steamcommunity/public/images/apps/222480/552fec306e4592c13f936a9394fb03daf5b679b3.jpg",
    "icongray": "https://steamcdn-a.akamaihd.net/steamcommunity/public/images/apps/222480/bb87c1f23a87a4922a9938f11da0e5aa3081e33f.jpg"
  },
  {
    "name": "6",
    "defaultvalue": 0,
    "displayName": "The Shores of Purgatory",
    "hidden": 0,
    "description": "【CAMPAIGN】Clear Normal difficulty or higher.",
    "icon": "https://steamcdn-a.akamaihd.net/steamcommunity/public/images/apps/222480/fdfe6c6b412aed8ce3089c2132cd0e66bfb8e296.jpg",
    "icongray": "https://steamcdn-a.akamaihd.net/steamcommunity/public/images/apps/222480/0c667abb077d92a14cf89a5e47171fa28f610ac3.jpg"
  },
  {
    "name": "7",
    "defaultvalue": 0,
    "displayName": "The Vestibule of Hell",
    "hidden": 0,
    "description": "【CAMPAIGN】Clear Infernal difficulty.",
    "icon": "https://steamcdn-a.akamaihd.net/steamcommunity/public/images/apps/222480/d2fd88e8f28c25843f70ada0b443acff2a7371cb.jpg",
    "icongray": "https://steamcdn-a.akamaihd.net/steamcommunity/public/images/apps/222480/3cb84b5414f8cbaea7b0ea02a336be4d9893dc40.jpg"
  },
  {
    "name": "8",
    "defaultvalue": 0,
    "displayName": "Surviving Deep Darkness",
    "hidden": 0,
    "description": "【CAMPAIGN】Clear the game in Normal difficulty or above without dying once.",
    "icon": "https://steamcdn-a.akamaihd.net/steamcommunity/public/images/apps/222480/a4242618efe5b8540d983139ce902720b3478a2f.jpg",
    "icongray": "https://steamcdn-a.akamaihd.net/steamcommunity/public/images/apps/222480/3592a525efe4a73d937c09d81b47a14345ad8292.jpg"
  },
  {
    "name": "9",
    "defaultvalue": 0,
    "displayName": "First Victim",
    "hidden": 0,
    "description": "【CAMPAIGN】Scan 1 hidden hand print.",
    "icon": "https://steamcdn-a.akamaihd.net/steamcommunity/public/images/apps/222480/046e96ccb459d3576003edb8eebe3bc9d5515d8c.jpg",
    "icongray": "https://steamcdn-a.akamaihd.net/steamcommunity/public/images/apps/222480/c8ea16ec2f5f9d0e27a42646dc3cf43275e3e805.jpg"
  },
  {
    "name": "10",
    "defaultvalue": 0,
    "displayName": "Traces of Tragedy",
    "hidden": 0,
    "description": "【CAMPAIGN】Scan 15 hidden hand prints.",
    "icon": "https://steamcdn-a.akamaihd.net/steamcommunity/public/images/apps/222480/fe9472fbf310083e361ce34e89160cc3b1acba03.jpg",
    "icongray": "https://steamcdn-a.akamaihd.net/steamcommunity/public/images/apps/222480/bd9a22b0b0e6c8a6625bbd5f89fe28b557e4c6bd.jpg"
  },
  {
    "name": "11",
    "defaultvalue": 0,
    "displayName": "Last Victim",
    "hidden": 0,
    "description": "【CAMPAIGN】Scan 30 hidden hand prints.",
    "icon": "https://steamcdn-a.akamaihd.net/steamcommunity/public/images/apps/222480/0040550269e2b724ce82c8ce6581cfc320a86366.jpg",
    "icongray": "https://steamcdn-a.akamaihd.net/steamcommunity/public/images/apps/222480/c29fc5a1387cacc4ce8605af50c43fd97f307d91.jpg"
  },
  {
    "name": "12",
    "defaultvalue": 0,
    "displayName": "Researcher",
    "hidden": 0,
    "description": "【CAMPAIGN】Scan an enemy for the first time.",
    "icon": "https://steamcdn-a.akamaihd.net/steamcommunity/public/images/apps/222480/11d7df87c80a3fa99d694c6c0d5d71d7aed1792a.jpg",
    "icongray": "https://steamcdn-a.akamaihd.net/steamcommunity/public/images/apps/222480/6dc6dfb1a33b3f1324188256be617c07a009e544.jpg"
  },
  {
    "name": "13",
    "defaultvalue": 0,
    "displayName": "Research Complete",
    "hidden": 0,
    "description": "【CAMPAIGN】Scan all enemy types.",
    "icon": "https://steamcdn-a.akamaihd.net/steamcommunity/public/images/apps/222480/7cc44e1ec40f873fb25bb9444c879ce6f81d0724.jpg",
    "icongray": "https://steamcdn-a.akamaihd.net/steamcommunity/public/images/apps/222480/b0e384e8343ea4078bf4230c6a8ac941c1761799.jpg"
  },
  {
    "name": "14",
    "defaultvalue": 0,
    "displayName": "B.O.W. Hunter",
    "hidden": 0,
    "description": "【CAMPAIGN】Defeat 150 enemies.",
    "icon": "https://steamcdn-a.akamaihd.net/steamcommunity/public/images/apps/222480/e4a6b3c15ab96016888f97af1366d712b4be8729.jpg",
    "icongray": "https://steamcdn-a.akamaihd.net/steamcommunity/public/images/apps/222480/0cdcd6deae553979fae175bd7ad8239f7ff3b8dc.jpg"
  },
  {
    "name": "15",
    "defaultvalue": 0,
    "displayName": "Living on the Edge",
    "hidden": 0,
    "description": "【CAMPAIGN】Stop an enemy bullet with your knife.",
    "icon": "https://steamcdn-a.akamaihd.net/steamcommunity/public/images/apps/222480/142c099175f50db745b71ae207b18764f2f99c9b.jpg",
    "icongray": "https://steamcdn-a.akamaihd.net/steamcommunity/public/images/apps/222480/e4128e9946b7d0147b136eb2353edfa195d74766.jpg"
  },
  {
    "name": "16",
    "defaultvalue": 0,
    "displayName": "By the Crosshairs",
    "hidden": 0,
    "description": "【CAMPAIGN】Defeat Rachael before she gets to the cafeteria.",
    "icon": "https://steamcdn-a.akamaihd.net/steamcommunity/public/images/apps/222480/ef9a01f94453418ebe458799f6d062ed958ab0f3.jpg",
    "icongray": "https://steamcdn-a.akamaihd.net/steamcommunity/public/images/apps/222480/d879fde0bcada29c2a542c1c3fdafa5ba9fcb89b.jpg"
  },
  {
    "name": "17",
    "defaultvalue": 0,
    "displayName": "Bamboozle the Oozes",
    "hidden": 0,
    "description": "【CAMPAIGN】Defeat 10 Oozes with headshots.",
    "icon": "https://steamcdn-a.akamaihd.net/steamcommunity/public/images/apps/222480/43aa92739897b8328843f8cd783a66102861d554.jpg",
    "icongray": "https://steamcdn-a.akamaihd.net/steamcommunity/public/images/apps/222480/e5f2465f8fcbbf38327c959cbff6a070b1bf8888.jpg"
  },
  {
    "name": "18",
    "defaultvalue": 0,
    "displayName": "Die Another Day",
    "hidden": 0,
    "description": "【CAMPAIGN】Evade a Scagdead's instant-death attack.",
    "icon": "https://steamcdn-a.akamaihd.net/steamcommunity/public/images/apps/222480/fd7fbef14a38616fadbe21d8de1730c0f6184ccb.jpg",
    "icongray": "https://steamcdn-a.akamaihd.net/steamcommunity/public/images/apps/222480/63129253c5fd9053c56dd3366caa3b3578346297.jpg"
  },
  {
    "name": "19",
    "defaultvalue": 0,
    "displayName": "Triple Play",
    "hidden": 0,
    "description": "【CAMPAIGN】Defeat 3 enemies with one shock grenade.",
    "icon": "https://steamcdn-a.akamaihd.net/steamcommunity/public/images/apps/222480/f64071fd4fe0f15ac397aadc7c4421c098458af2.jpg",
    "icongray": "https://steamcdn-a.akamaihd.net/steamcommunity/public/images/apps/222480/4c94f7c9278f5b44efc0773177183deade685fcf.jpg"
  },
  {
    "name": "20",
    "defaultvalue": 0,
    "displayName": "A Packaged Deal",
    "hidden": 0,
    "description": "【CAMPAIGN】Defeat a Scarmiglione as a whole without killing both parts of its body separately.",
    "icon": "https://steamcdn-a.akamaihd.net/steamcommunity/public/images/apps/222480/139247d2317434106b9da741c639660075df2029.jpg",
    "icongray": "https://steamcdn-a.akamaihd.net/steamcommunity/public/images/apps/222480/10f86d344223e30ef3fdcd0c8e566487dc41e6fe.jpg"
  },
  {
    "name": "21",
    "defaultvalue": 0,
    "displayName": "Rockets are for Losers",
    "hidden": 0,
    "description": "【CAMPAIGN】Defeat a Malacoda without using a rocket launcher.",
    "icon": "https://steamcdn-a.akamaihd.net/steamcommunity/public/images/apps/222480/560c057195e0e1e53b052d0ada700cc43c143a82.jpg",
    "icongray": "https://steamcdn-a.akamaihd.net/steamcommunity/public/images/apps/222480/fa2c363e2a0c7087a14dd94bfca3a1075d40baf1.jpg"
  },
  {
    "name": "22",
    "defaultvalue": 0,
    "displayName": "The Pool Is Open",
    "hidden": 0,
    "description": "【CAMPAIGN】Swim in the Solarium.",
    "icon": "https://steamcdn-a.akamaihd.net/steamcommunity/public/images/apps/222480/4c93440a6722ff2478ea0ee7bbe5b79d882ddf2c.jpg",
    "icongray": "https://steamcdn-a.akamaihd.net/steamcommunity/public/images/apps/222480/26ab99a502448cc9c315be6f0b1c767c2853d72d.jpg"
  },
  {
    "name": "23",
    "defaultvalue": 0,
    "displayName": "Dodge Master",
    "hidden": 0,
    "description": "【CAMPAIGN】Dodge 20 times.",
    "icon": "https://steamcdn-a.akamaihd.net/steamcommunity/public/images/apps/222480/a308edea82f462485d97a3d57c6cf53ce40bceaa.jpg",
    "icongray": "https://steamcdn-a.akamaihd.net/steamcommunity/public/images/apps/222480/e4c0da7e46a9dfa6b6e7c085b352ce62b383331c.jpg"
  },
  {
    "name": "24",
    "defaultvalue": 0,
    "displayName": "Angry Fist",
    "hidden": 0,
    "description": "【CAMPAIGN】Land 10 fully charged physical attacks.",
    "icon": "https://steamcdn-a.akamaihd.net/steamcommunity/public/images/apps/222480/14545dc5db504a25737b4609755ef484233777fb.jpg",
    "icongray": "https://steamcdn-a.akamaihd.net/steamcommunity/public/images/apps/222480/435a4bd298604f6ce4401d3b5d9f6e8f0ace52f7.jpg"
  },
  {
    "name": "25",
    "defaultvalue": 0,
    "displayName": "First Circle Traveler",
    "hidden": 0,
    "description": "【RAID MODE】Clear all stages in Raid mode on Chasm.",
    "icon": "https://steamcdn-a.akamaihd.net/steamcommunity/public/images/apps/222480/c0d7fa76a0c683e075213b7c871af8dea1bd7262.jpg",
    "icongray": "https://steamcdn-a.akamaihd.net/steamcommunity/public/images/apps/222480/1f500c91de0e822ca30a3d81c530277095a4a13d.jpg"
  },
  {
    "name": "26",
    "defaultvalue": 0,
    "displayName": "Midland Traveler",
    "hidden": 0,
    "description": "【RAID MODE】Clear all stages in Raid mode on Trench.",
    "icon": "https://steamcdn-a.akamaihd.net/steamcommunity/public/images/apps/222480/5384a13b11a2f63860645aac714622f27782c4ba.jpg",
    "icongray": "https://steamcdn-a.akamaihd.net/steamcommunity/public/images/apps/222480/e0455fe3f9fa40536e0c55f5d7a437f1cab0b36a.jpg"
  },
  {
    "name": "27",
    "defaultvalue": 0,
    "displayName": "Seventh Circle Traveler",
    "hidden": 0,
    "description": "【RAID MODE】Clear all stages in Raid mode on Abyss.",
    "icon": "https://steamcdn-a.akamaihd.net/steamcommunity/public/images/apps/222480/7ade315a59568fc390fa53086a8a19b23aa03fad.jpg",
    "icongray": "https://steamcdn-a.akamaihd.net/steamcommunity/public/images/apps/222480/64082cb3393b6dfe0feea407062c6817608e481a.jpg"
  },
  {
    "name": "28",
    "defaultvalue": 0,
    "displayName": "First Circle Overseer",
    "hidden": 0,
    "description": "【RAID MODE】Clear all stages in Raid mode on Chasm with an S rank.",
    "icon": "https://steamcdn-a.akamaihd.net/steamcommunity/public/images/apps/222480/9fc99cd9af7be83050984b674f321d3daf8f289f.jpg",
    "icongray": "https://steamcdn-a.akamaihd.net/steamcommunity/public/images/apps/222480/dfb46113217e67d1ab0eb536564aba2d7ac9b113.jpg"
  },
  {
    "name": "29",
    "defaultvalue": 0,
    "displayName": "Midland Overseer",
    "hidden": 0,
    "description": "【RAID MODE】Clear all stages in Raid mode on Trench with an S rank.",
    "icon": "https://steamcdn-a.akamaihd.net/steamcommunity/public/images/apps/222480/4edcf1bc3fe432be1935f3760458daf335842aad.jpg",
    "icongray": "https://steamcdn-a.akamaihd.net/steamcommunity/public/images/apps/222480/709a49687137e688ee151b50385b895af851edff.jpg"
  },
  {
    "name": "30",
    "defaultvalue": 0,
    "displayName": "Seventh Circle Overseer",
    "hidden": 0,
    "description": "【RAID MODE】Clear all stages in Raid mode on Abyss with an S rank.",
    "icon": "https://steamcdn-a.akamaihd.net/steamcommunity/public/images/apps/222480/ea92f432a89f4f3f19110b91f6091cf0fc6f856e.jpg",
    "icongray": "https://steamcdn-a.akamaihd.net/steamcommunity/public/images/apps/222480/ee5907aac8802d3bbf6e864971c1076dbe6b41f0.jpg"
  },
  {
    "name": "31",
    "defaultvalue": 0,
    "displayName": "Beyond the Veil",
    "hidden": 0,
    "description": "【RAID MODE】Clear the bonus stage, The Ghost Ship.",
    "icon": "https://steamcdn-a.akamaihd.net/steamcommunity/public/images/apps/222480/7d71174f41014384b19a1217f71b9263b6fa9f11.jpg",
    "icongray": "https://steamcdn-a.akamaihd.net/steamcommunity/public/images/apps/222480/c0f535ddd117706eb30c1594600963712e67f290.jpg"
  },
  {
    "name": "32",
    "defaultvalue": 0,
    "displayName": "On Your Way",
    "hidden": 0,
    "description": "【RAID MODE】Reach player level 5.",
    "icon": "https://steamcdn-a.akamaihd.net/steamcommunity/public/images/apps/222480/c3f83a36fe1eb4200aeb632e24df030901cc550a.jpg",
    "icongray": "https://steamcdn-a.akamaihd.net/steamcommunity/public/images/apps/222480/fee02216eb79b50d1ae6f354b4e27f5a1ac06b34.jpg"
  },
  {
    "name": "33",
    "defaultvalue": 0,
    "displayName": "Moving on Up",
    "hidden": 0,
    "description": "【RAID MODE】Reach player level 10.",
    "icon": "https://steamcdn-a.akamaihd.net/steamcommunity/public/images/apps/222480/f508d3dc10ad737e7125465d8aae95b182e5bbed.jpg",
    "icongray": "https://steamcdn-a.akamaihd.net/steamcommunity/public/images/apps/222480/2c34d93c8a9fd1d2193835e306bf81fe8e139a10.jpg"
  },
  {
    "name": "34",
    "defaultvalue": 0,
    "displayName": "Reaching Higher",
    "hidden": 0,
    "description": "【RAID MODE】Reach player level 20.",
    "icon": "https://steamcdn-a.akamaihd.net/steamcommunity/public/images/apps/222480/57b47afef233c02e71c075f60bec4965d03650b5.jpg",
    "icongray": "https://steamcdn-a.akamaihd.net/steamcommunity/public/images/apps/222480/81bb1606336f7d70378504ed20035f5112c86910.jpg"
  },
  {
    "name": "35",
    "defaultvalue": 0,
    "displayName": "Raising the Bar",
    "hidden": 0,
    "description": "【RAID MODE】Reach player level 30.",
    "icon": "https://steamcdn-a.akamaihd.net/steamcommunity/public/images/apps/222480/fa18960b9df95ef8e8663eb659ae3bc03de04514.jpg",
    "icongray": "https://steamcdn-a.akamaihd.net/steamcommunity/public/images/apps/222480/4fd263cefca35a69bad7de92114ac1db7038bfab.jpg"
  },
  {
    "name": "36",
    "defaultvalue": 0,
    "displayName": "Meteoric Rise",
    "hidden": 0,
    "description": "【RAID MODE】Reach player level 40.",
    "icon": "https://steamcdn-a.akamaihd.net/steamcommunity/public/images/apps/222480/a72066a8138d6af629113c27d7a7701b6512fd6c.jpg",
    "icongray": "https://steamcdn-a.akamaihd.net/steamcommunity/public/images/apps/222480/b39695c68379cfcb855d84f97909fa07914cdccc.jpg"
  },
  {
    "name": "37",
    "defaultvalue": 0,
    "displayName": "Top of My Game",
    "hidden": 0,
    "description": "【RAID MODE】Reach player level 50.",
    "icon": "https://steamcdn-a.akamaihd.net/steamcommunity/public/images/apps/222480/ab237e2fe56a495356af82a70157a8423479302d.jpg",
    "icongray": "https://steamcdn-a.akamaihd.net/steamcommunity/public/images/apps/222480/a5258b4667e50fb15041aaf99263460136244dbe.jpg"
  },
  {
    "name": "38",
    "defaultvalue": 0,
    "displayName": "One for Each Minnesota Lake",
    "hidden": 0,
    "description": "【RAID MODE】Defeat 10,000 enemies.",
    "icon": "https://steamcdn-a.akamaihd.net/steamcommunity/public/images/apps/222480/54317db30deb48b4d9dd89f5a738101657dbf9c0.jpg",
    "icongray": "https://steamcdn-a.akamaihd.net/steamcommunity/public/images/apps/222480/2a84cc39caa41c5dd48e18fe18a2bd7afe55256a.jpg"
  },
  {
    "name": "39",
    "defaultvalue": 0,
    "displayName": "That'll Leave a Mark",
    "hidden": 0,
    "description": "【RAID MODE】Inflict 100,000 points of damage to an enemy in one hit.",
    "icon": "https://steamcdn-a.akamaihd.net/steamcommunity/public/images/apps/222480/e9a8c50c1b50f11cbec3a2de52866352935ecbfd.jpg",
    "icongray": "https://steamcdn-a.akamaihd.net/steamcommunity/public/images/apps/222480/aeae2cafd4d13b7e8e30ccf62519d4e4acf6bbbf.jpg"
  },
  {
    "name": "40",
    "defaultvalue": 0,
    "displayName": "Dynamic Duo",
    "hidden": 0,
    "description": "【RAID MODE】Land a fully charged physical attack on an enemy at the same time as your partner.",
    "icon": "https://steamcdn-a.akamaihd.net/steamcommunity/public/images/apps/222480/89f7a2111eca6a80a6e19f4dfbe59556003f830f.jpg",
    "icongray": "https://steamcdn-a.akamaihd.net/steamcommunity/public/images/apps/222480/e935032f4377d4ca8739ce623f4e18e7fcf15223.jpg"
  },
  {
    "name": "41",
    "defaultvalue": 0,
    "displayName": "Legendary Find",
    "hidden": 0,
    "description": "【RAID MODE】Obtain a super rare weapon.",
    "icon": "https://steamcdn-a.akamaihd.net/steamcommunity/public/images/apps/222480/aff88a8be896d95c7f5f97abd0ba2cccc7aff9f6.jpg",
    "icongray": "https://steamcdn-a.akamaihd.net/steamcommunity/public/images/apps/222480/f0ae041d1d7c61568211998d0c609285303d96a0.jpg"
  },
  {
    "name": "42",
    "defaultvalue": 0,
    "displayName": "Legends Are Made, Not Born",
    "hidden": 0,
    "description": "【RAID MODE】Obtain all super rare weapons.",
    "icon": "https://steamcdn-a.akamaihd.net/steamcommunity/public/images/apps/222480/dcd9cbb5d506bd4a2c5bcbb7731f95c36f910005.jpg",
    "icongray": "https://steamcdn-a.akamaihd.net/steamcommunity/public/images/apps/222480/0be45752925e5464be1646117d155885ee84a8d7.jpg"
  },
  {
    "name": "43",
    "defaultvalue": 0,
    "displayName": "Shop 'til Ya Drop",
    "hidden": 0,
    "description": "【RAID MODE】Spend 1,000,000 BP in the store.",
    "icon": "https://steamcdn-a.akamaihd.net/steamcommunity/public/images/apps/222480/0d3da04fa578f7a1f6ddbc50ea4efd33cc6c3042.jpg",
    "icongray": "https://steamcdn-a.akamaihd.net/steamcommunity/public/images/apps/222480/2a19d4c25f998d70d56f35be96c561f073d36781.jpg"
  },
  {
    "name": "44",
    "defaultvalue": 0,
    "displayName": "The Unbroken Thread",
    "hidden": 0,
    "description": "【RAID MODE】Acquire No Damage Bonus for the first time.",
    "icon": "https://steamcdn-a.akamaihd.net/steamcommunity/public/images/apps/222480/5dfd7d862ce293d5e079660deb29770cc0573005.jpg",
    "icongray": "https://steamcdn-a.akamaihd.net/steamcommunity/public/images/apps/222480/4eaa3ec14fb1c3ff0ce023ddc1638cd48d223366.jpg"
  },
  {
    "name": "45",
    "defaultvalue": 0,
    "displayName": "Gutsy",
    "hidden": 0,
    "description": "【RAID MODE】Clear a stage at 5 levels lower than the recommended level.",
    "icon": "https://steamcdn-a.akamaihd.net/steamcommunity/public/images/apps/222480/a76dd68d99b81037aac887fcb819a28b8b63b420.jpg",
    "icongray": "https://steamcdn-a.akamaihd.net/steamcommunity/public/images/apps/222480/d37b354d805c7fc7215758a864d192bc618884e4.jpg"
  },
  {
    "name": "46",
    "defaultvalue": 0,
    "displayName": "Three is the Magic Number",
    "hidden": 0,
    "description": "【RAID MODE】Acquire Trinity Bonus for the first time.",
    "icon": "https://steamcdn-a.akamaihd.net/steamcommunity/public/images/apps/222480/9e44da3a13db3700e81ddfe9aea255a6ea5d5205.jpg",
    "icongray": "https://steamcdn-a.akamaihd.net/steamcommunity/public/images/apps/222480/4b0993f494c5d46383db0b3ad64977076463475b.jpg"
  },
  {
    "name": "47",
    "defaultvalue": 0,
    "displayName": "Bonus Enthusiast",
    "hidden": 0,
    "description": "【RAID MODE】Acquire 10 bonuses.",
    "icon": "https://steamcdn-a.akamaihd.net/steamcommunity/public/images/apps/222480/522663fc8cf3795f286e34af12c2e890b9dfa4f9.jpg",
    "icongray": "https://steamcdn-a.akamaihd.net/steamcommunity/public/images/apps/222480/66c71817ded585b61caa1fed180175767a8dd86b.jpg"
  },
  {
    "name": "48",
    "defaultvalue": 0,
    "displayName": "Bonus Ace",
    "hidden": 0,
    "description": "【RAID MODE】Acquire 50 bonuses.",
    "icon": "https://steamcdn-a.akamaihd.net/steamcommunity/public/images/apps/222480/6ca9f6349923d805bba2df13b598d9594fb90d61.jpg",
    "icongray": "https://steamcdn-a.akamaihd.net/steamcommunity/public/images/apps/222480/2ceaa599e11daabc6e032e31ca1455b6891359ee.jpg"
  },
  {
    "name": "49",
    "defaultvalue": 0,
    "displayName": "Bonus Legend",
    "hidden": 0,
    "description": "【RAID MODE】Acquire 100 bonuses.",
    "icon": "https://steamcdn-a.akamaihd.net/steamcommunity/public/images/apps/222480/0d7b9a63b60ba1e1e75eeb80bb4b9374e60933f4.jpg",
    "icongray": "https://steamcdn-a.akamaihd.net/steamcommunity/public/images/apps/222480/6a72e61f845082a936f3bfc4bafc6ab17ad9d3b2.jpg"
  },
  {
    "name": "50",
    "defaultvalue": 0,
    "displayName": "Bonus Demi-god",
    "hidden": 0,
    "description": "【RAID MODE】Acquire 150 bonuses.",
    "icon": "https://steamcdn-a.akamaihd.net/steamcommunity/public/images/apps/222480/b716149300c7405eafab77029b996f768ca65ec7.jpg",
    "icongray": "https://steamcdn-a.akamaihd.net/steamcommunity/public/images/apps/222480/3eba8bae0ff7c53b243186f4c66fabe291c81ace.jpg"
  }
]