﻿[
  {
    "name": "BACH_C1",
    "defaultvalue": 0,
    "displayName": "Colors are the smiles of nature",
    "hidden": 0,
    "description": "Whenever a doctor cannot do good, he must be kept from doing harm.",
    "icon": "https://steamcdn-a.akamaihd.net/steamcommunity/public/images/apps/448470/32b39db59b218d35c0f3f86999f53a672e59919c.jpg",
    "icongray": "https://steamcdn-a.akamaihd.net/steamcommunity/public/images/apps/448470/9d285efb8983cae60a6775e77e521e11ebf4d950.jpg"
  },
  {
    "name": "BACH_C2",
    "defaultvalue": 0,
    "displayName": "Nature always wears the colors of the spirit",
    "hidden": 0,
    "description": "Illness is the doctor to whom we pay most heed; to kindness, to knowledge, we make promise only; pain we obey.",
    "icon": "https://steamcdn-a.akamaihd.net/steamcommunity/public/images/apps/448470/655a3db8a35d31918761f0552e6dbc64c16b0b28.jpg",
    "icongray": "https://steamcdn-a.akamaihd.net/steamcommunity/public/images/apps/448470/46e2c19d00713cf9336864439df0113ed25d7f34.jpg"
  },
  {
    "name": "BACH_C3",
    "defaultvalue": 0,
    "displayName": "Color can do anything that black-and-white can",
    "hidden": 0,
    "description": "Doctors are great - as long as you don't need them.",
    "icon": "https://steamcdn-a.akamaihd.net/steamcommunity/public/images/apps/448470/8a25e2c3951d3db33c23aadef2895ad9c047f06f.jpg",
    "icongray": "https://steamcdn-a.akamaihd.net/steamcommunity/public/images/apps/448470/d8bc9cb32d5bf2adfb8f1ecd39da2e7afe233c84.jpg"
  },
  {
    "name": "BACH_BW1",
    "defaultvalue": 0,
    "displayName": "Monochrome one",
    "hidden": 0,
    "description": "A doctor gave a man six months to live. The man couldn't pay his bill, so he gave him another six months.",
    "icon": "https://steamcdn-a.akamaihd.net/steamcommunity/public/images/apps/448470/7542fd3726c7d625ebb2bf7590802b94612eb79b.jpg",
    "icongray": "https://steamcdn-a.akamaihd.net/steamcommunity/public/images/apps/448470/d28cea16493000e9893a82c9861faf77fb885360.jpg"
  },
  {
    "name": "BACH_BW2",
    "defaultvalue": 0,
    "displayName": "Full monochrome",
    "hidden": 0,
    "description": "The life so short, the craft so long to learn.",
    "icon": "https://steamcdn-a.akamaihd.net/steamcommunity/public/images/apps/448470/c8884a585507ad854439b41281bb44080846b66b.jpg",
    "icongray": "https://steamcdn-a.akamaihd.net/steamcommunity/public/images/apps/448470/2466b35aa0aa70926bf6882615d0ab98e461621e.jpg"
  },
  {
    "name": "BACH_SIM",
    "defaultvalue": 0,
    "displayName": "Simulation",
    "hidden": 0,
    "description": "There is no such thing as an infallible doctor.",
    "icon": "https://steamcdn-a.akamaihd.net/steamcommunity/public/images/apps/448470/c954b0d7b7e8f10c13baf70eb1054f42d808da8e.jpg",
    "icongray": "https://steamcdn-a.akamaihd.net/steamcommunity/public/images/apps/448470/8c28d764610524dfce4ff18cc3633198ab2a04bd.jpg"
  }
]