﻿{
  "Dlcs": {},
  "Name": "Tap Tap Infinity",
  "AppId": "380360",
  "ImageUrl": "https://steamcdn-a.akamaihd.net/steam/apps/380360/header.jpg?t=1447376636",
  "Languages": [
    "english"
  ],
  "Platforms": {
    "windows": true,
    "mac": true,
    "linux": false
  }
}