﻿[
  {
    "name": "selfPublisher",
    "defaultvalue": 0,
    "displayName": "Self-Publisher",
    "hidden": 0,
    "description": "Publish a game on Vault",
    "icon": "https://steamcdn-a.akamaihd.net/steamcommunity/public/images/apps/549740/8e13da3fa020ffa5ad7b22b6a21fec9a3ab08998.jpg",
    "icongray": "https://steamcdn-a.akamaihd.net/steamcommunity/public/images/apps/549740/a08052f408cc985f1936d205281b62c8da127d58.jpg"
  },
  {
    "name": "mediumDev",
    "defaultvalue": 0,
    "displayName": "Thinking Bigger",
    "hidden": 0,
    "description": "Make a medium-sized game",
    "icon": "https://steamcdn-a.akamaihd.net/steamcommunity/public/images/apps/549740/f5c801000ca2cfb278728c61882e40bdde9290e6.jpg",
    "icongray": "https://steamcdn-a.akamaihd.net/steamcommunity/public/images/apps/549740/5eeae9ef49ffa4ef2b547862350f7ec3d0ecfedd.jpg"
  },
  {
    "name": "prolificPublisher",
    "defaultvalue": 0,
    "displayName": "Prolific Publisher",
    "hidden": 0,
    "description": "Publish 10 games",
    "icon": "https://steamcdn-a.akamaihd.net/steamcommunity/public/images/apps/549740/3c34a911acdaf60cc5ce93f336e67639186f4eae.jpg",
    "icongray": "https://steamcdn-a.akamaihd.net/steamcommunity/public/images/apps/549740/8ed3bbc32f9330322ed011c0fbd59b2083bf5ab7.jpg"
  },
  {
    "name": "largeDev",
    "defaultvalue": 0,
    "displayName": "Outrageous!!1",
    "hidden": 0,
    "description": "Publish a $14.99 game",
    "icon": "https://steamcdn-a.akamaihd.net/steamcommunity/public/images/apps/549740/98f6ed0ada237c8f57b427c70d9eac72819debe2.jpg",
    "icongray": "https://steamcdn-a.akamaihd.net/steamcommunity/public/images/apps/549740/c6963366b0007c2f0948e37a474009d3ccdf3811.jpg"
  },
  {
    "name": "consumerDev",
    "defaultvalue": 0,
    "displayName": "Full Stack Dev",
    "hidden": 0,
    "description": "Buy all dev tools",
    "icon": "https://steamcdn-a.akamaihd.net/steamcommunity/public/images/apps/549740/2d12bb8e68103a3d04a9b743e97cb8b7d4a96f9c.jpg",
    "icongray": "https://steamcdn-a.akamaihd.net/steamcommunity/public/images/apps/549740/dcb83dc083f7b959d879274111148ce3ded441f9.jpg"
  },
  {
    "name": "consumerAll",
    "defaultvalue": 0,
    "displayName": "Ballin'",
    "hidden": 0,
    "description": "Buy out the store",
    "icon": "https://steamcdn-a.akamaihd.net/steamcommunity/public/images/apps/549740/2c7255d0810d335f1f603cd3f4ae239b58820f0a.jpg",
    "icongray": "https://steamcdn-a.akamaihd.net/steamcommunity/public/images/apps/549740/4ec2261e9b59caf669e2c7900fec0b6d606ad8e3.jpg"
  },
  {
    "name": "expertPlayer",
    "defaultvalue": 0,
    "displayName": "Expert Player",
    "hidden": 0,
    "description": "Beat all competitor games",
    "icon": "https://steamcdn-a.akamaihd.net/steamcommunity/public/images/apps/549740/a2ecf1dfa199278616da5055b1b7a33c47a2540c.jpg",
    "icongray": "https://steamcdn-a.akamaihd.net/steamcommunity/public/images/apps/549740/c5887a42690360a0b07a0bfd6d1ecea7f16a6255.jpg"
  },
  {
    "name": "solidEffort",
    "defaultvalue": 0,
    "displayName": "Solid Effort",
    "hidden": 0,
    "description": "Make $10k with one game",
    "icon": "https://steamcdn-a.akamaihd.net/steamcommunity/public/images/apps/549740/a0ed3cac4d0ff53ea64e5a9baee2c991230fd04b.jpg",
    "icongray": "https://steamcdn-a.akamaihd.net/steamcommunity/public/images/apps/549740/151ee6cf41ca1975cf48a5648868a4ee21061e03.jpg"
  },
  {
    "name": "hitGame",
    "defaultvalue": 0,
    "displayName": "Hit Game",
    "hidden": 0,
    "description": "Make $100k with one game",
    "icon": "https://steamcdn-a.akamaihd.net/steamcommunity/public/images/apps/549740/6889e7291e927c1233604c720380122dc87a6a39.jpg",
    "icongray": "https://steamcdn-a.akamaihd.net/steamcommunity/public/images/apps/549740/4d1611ec1743c89a9343b8c4b65f0339709013ae.jpg"
  },
  {
    "name": "bigSpender",
    "defaultvalue": 0,
    "displayName": "Big Spender",
    "hidden": 0,
    "description": "Publish a game for $50k",
    "icon": "https://steamcdn-a.akamaihd.net/steamcommunity/public/images/apps/549740/fa854814d2f897a4a8be0329ce7d291fe06dc1a5.jpg",
    "icongray": "https://steamcdn-a.akamaihd.net/steamcommunity/public/images/apps/549740/84e2f8136dfffd23a0a787dfbe036fc16bd24a3b.jpg"
  },
  {
    "name": "bigTime",
    "defaultvalue": 0,
    "displayName": "The Big Time",
    "hidden": 0,
    "description": "Make $1 million total",
    "icon": "https://steamcdn-a.akamaihd.net/steamcommunity/public/images/apps/549740/8e597818a2f0f7e8c0c188aef00f0cd09e7963e7.jpg",
    "icongray": "https://steamcdn-a.akamaihd.net/steamcommunity/public/images/apps/549740/4c75eff337717b402a92b7e153a6b73c390097b3.jpg"
  },
  {
    "name": "partyAnimal",
    "defaultvalue": 0,
    "displayName": "Party Animal",
    "hidden": 0,
    "description": "Throw an 8-person party",
    "icon": "https://steamcdn-a.akamaihd.net/steamcommunity/public/images/apps/549740/cc4dd3d9b334873b3aab200d4afb31eff3d5f2cb.jpg",
    "icongray": "https://steamcdn-a.akamaihd.net/steamcommunity/public/images/apps/549740/9882344534cb6abd6055603afc220bcb7885a0b1.jpg"
  },
  {
    "name": "newUsers",
    "defaultvalue": 0,
    "displayName": "New Users",
    "hidden": 0,
    "description": "Get 1k fans with 1 game",
    "icon": "https://steamcdn-a.akamaihd.net/steamcommunity/public/images/apps/549740/03e438e63c7da2b1a700db9a3bdccf1cbb90f94a.jpg",
    "icongray": "https://steamcdn-a.akamaihd.net/steamcommunity/public/images/apps/549740/b944ea17c46ec5edc4d8962c02a1d4b039a71ecc.jpg"
  },
  {
    "name": "fanClub",
    "defaultvalue": 0,
    "displayName": "Fan Club",
    "hidden": 0,
    "description": "Get 10k total fans",
    "icon": "https://steamcdn-a.akamaihd.net/steamcommunity/public/images/apps/549740/1e58019e91393382fbaf71811f9e6fc591f5ec82.jpg",
    "icongray": "https://steamcdn-a.akamaihd.net/steamcommunity/public/images/apps/549740/522e1063f2ce3d38beefbbf1b71be699a5cb2df8.jpg"
  },
  {
    "name": "rollCredits",
    "defaultvalue": 0,
    "displayName": "Roll Call",
    "hidden": 0,
    "description": "Roll the Credits",
    "icon": "https://steamcdn-a.akamaihd.net/steamcommunity/public/images/apps/549740/4583d448c7d762fdd500fbbdd59b3564ad69a0fd.jpg",
    "icongray": "https://steamcdn-a.akamaihd.net/steamcommunity/public/images/apps/549740/02013f42987ad5602aa865d97a9f6591aa02f644.jpg"
  },
  {
    "name": "playerBenzer",
    "defaultvalue": 0,
    "displayName": "Lizard Schoolboy",
    "hidden": 0,
    "description": "Unlock Benzer",
    "icon": "https://steamcdn-a.akamaihd.net/steamcommunity/public/images/apps/549740/d384bcd3dcf9e6ea2b6e35b989c207235328e7df.jpg",
    "icongray": "https://steamcdn-a.akamaihd.net/steamcommunity/public/images/apps/549740/9dda13bdf5dd71787f9902b8076781b17570c1c1.jpg"
  },
  {
    "name": "playerChicken",
    "defaultvalue": 0,
    "displayName": "Chicken Dance",
    "hidden": 0,
    "description": "Unlock the player chicken",
    "icon": "https://steamcdn-a.akamaihd.net/steamcommunity/public/images/apps/549740/b3778474668197947ab3602721dbf5060d7c54c8.jpg",
    "icongray": "https://steamcdn-a.akamaihd.net/steamcommunity/public/images/apps/549740/ed582261a39de354c2d881101d51847ae7c69b7d.jpg"
  },
  {
    "name": "playerFranklin",
    "defaultvalue": 0,
    "displayName": "Pixelated",
    "hidden": 0,
    "description": "Unlock Franklin",
    "icon": "https://steamcdn-a.akamaihd.net/steamcommunity/public/images/apps/549740/743c92b2428a8f2110b6eff3d3ced9a7514ded6d.jpg",
    "icongray": "https://steamcdn-a.akamaihd.net/steamcommunity/public/images/apps/549740/29b1c7156e63362026725f9b9a90e80fe5c389e3.jpg"
  },
  {
    "name": "playerGoblin",
    "defaultvalue": 0,
    "displayName": "Genero",
    "hidden": 0,
    "description": "Unlock the goblin",
    "icon": "https://steamcdn-a.akamaihd.net/steamcommunity/public/images/apps/549740/6879faf606900567f97a77edbfa4b0d68bf8a1db.jpg",
    "icongray": "https://steamcdn-a.akamaihd.net/steamcommunity/public/images/apps/549740/166bd6d9aaeb1da9d52c2825abecf3be9293369c.jpg"
  },
  {
    "name": "playerJanitor",
    "defaultvalue": 0,
    "displayName": "It's-a-Him",
    "hidden": 0,
    "description": "Unlock the janitor",
    "icon": "https://steamcdn-a.akamaihd.net/steamcommunity/public/images/apps/549740/f9e1af508595ed81c8fca350a9d135eb739be419.jpg",
    "icongray": "https://steamcdn-a.akamaihd.net/steamcommunity/public/images/apps/549740/64a48cfb10205370abd77644b90fc7b404e3a4e8.jpg"
  },
  {
    "name": "playerLars",
    "defaultvalue": 0,
    "displayName": "Lars Blade",
    "hidden": 0,
    "description": "Unlock Lars",
    "icon": "https://steamcdn-a.akamaihd.net/steamcommunity/public/images/apps/549740/d6bf7fb2aee1335a8115f939f7c35df057617f6a.jpg",
    "icongray": "https://steamcdn-a.akamaihd.net/steamcommunity/public/images/apps/549740/9232904a406aaffa7c308cec3ac80ba7b4bf9b9f.jpg"
  },
  {
    "name": "playerLuna",
    "defaultvalue": 0,
    "displayName": "Huntress",
    "hidden": 0,
    "description": "Unlock Luna",
    "icon": "https://steamcdn-a.akamaihd.net/steamcommunity/public/images/apps/549740/c581839788e045adde3d3f550752d3f7246e1806.jpg",
    "icongray": "https://steamcdn-a.akamaihd.net/steamcommunity/public/images/apps/549740/f1a4aae4e37478d3fd5a405e2d7ca8bc74a29216.jpg"
  },
  {
    "name": "playerWizard",
    "defaultvalue": 0,
    "displayName": "A Wizard",
    "hidden": 0,
    "description": "Unlock the wizard",
    "icon": "https://steamcdn-a.akamaihd.net/steamcommunity/public/images/apps/549740/1e6662f1ac871000434ee9c02150e1457c7467df.jpg",
    "icongray": "https://steamcdn-a.akamaihd.net/steamcommunity/public/images/apps/549740/701c39217aff392a69e60f14958da69f0965235f.jpg"
  },
  {
    "name": "playerRaga",
    "defaultvalue": 0,
    "displayName": "A Wizard's Lizard",
    "hidden": 0,
    "description": "Unlock Raga",
    "icon": "https://steamcdn-a.akamaihd.net/steamcommunity/public/images/apps/549740/167d012d402858d9532999412aede75d02954951.jpg",
    "icongray": "https://steamcdn-a.akamaihd.net/steamcommunity/public/images/apps/549740/ba08632fe8042ad727543a32ff08a05da8cf6e96.jpg"
  },
  {
    "name": "playerTiger",
    "defaultvalue": 0,
    "displayName": "Tiger Hat",
    "hidden": 0,
    "description": "Unlock the tiger",
    "icon": "https://steamcdn-a.akamaihd.net/steamcommunity/public/images/apps/549740/68620be7327fe99c86022882b2152e8ee65998a6.jpg",
    "icongray": "https://steamcdn-a.akamaihd.net/steamcommunity/public/images/apps/549740/7d3094b2c1176ec23705f76e97564108f295a7c4.jpg"
  },
  {
    "name": "playerXam",
    "defaultvalue": 0,
    "displayName": "Gladiator",
    "hidden": 0,
    "description": "Unlock Xam",
    "icon": "https://steamcdn-a.akamaihd.net/steamcommunity/public/images/apps/549740/a1d1087bd34cf911b1ba01531b71f2bfd09ed90f.jpg",
    "icongray": "https://steamcdn-a.akamaihd.net/steamcommunity/public/images/apps/549740/4da6c6818c8f078e5b3acbf4421f64f47d83203f.jpg"
  },
  {
    "name": "playerZombie",
    "defaultvalue": 0,
    "displayName": "Brains etc.",
    "hidden": 0,
    "description": "Unlock the zombie",
    "icon": "https://steamcdn-a.akamaihd.net/steamcommunity/public/images/apps/549740/bb6e4a05028857da44b787b58e08daebcd54725f.jpg",
    "icongray": "https://steamcdn-a.akamaihd.net/steamcommunity/public/images/apps/549740/a0132bd3b5c3bf03a97647d582d7b945eb73f201.jpg"
  },
  {
    "name": "playerMother",
    "defaultvalue": 0,
    "displayName": "Marigold",
    "hidden": 0,
    "description": "Unlock Marigold",
    "icon": "https://steamcdn-a.akamaihd.net/steamcommunity/public/images/apps/549740/e1297329a3c46961d7373bb8eaa60f7d6bb3a0f6.jpg",
    "icongray": "https://steamcdn-a.akamaihd.net/steamcommunity/public/images/apps/549740/5410ac6f931ca7d302a7770ad0f0be1df30beb42.jpg"
  },
  {
    "name": "playerFather",
    "defaultvalue": 0,
    "displayName": "Mr. Hackett",
    "hidden": 0,
    "description": "Unlock Mr. Hackett",
    "icon": "https://steamcdn-a.akamaihd.net/steamcommunity/public/images/apps/549740/3f60006f9dbaf5fcb2b74f9be8a4335d0d28ab1a.jpg",
    "icongray": "https://steamcdn-a.akamaihd.net/steamcommunity/public/images/apps/549740/3d284814bdcb4cbbf8f69cdec8138ee6b9b6001a.jpg"
  },
  {
    "name": "boss",
    "defaultvalue": 0,
    "displayName": "Totally Boss",
    "hidden": 0,
    "description": "Unlock the boss",
    "icon": "https://steamcdn-a.akamaihd.net/steamcommunity/public/images/apps/549740/7e8eb4051946647acf16257ff648b277039c93d2.jpg",
    "icongray": "https://steamcdn-a.akamaihd.net/steamcommunity/public/images/apps/549740/9092865349174dbb4abbf98ed85ed08a60a8d19f.jpg"
  },
  {
    "name": "goldenBoy",
    "defaultvalue": 0,
    "displayName": "Golden Boy",
    "hidden": 0,
    "description": "Kill a boss with gold",
    "icon": "https://steamcdn-a.akamaihd.net/steamcommunity/public/images/apps/549740/ba8e8627c7d5d1a0993e2bf22c22cd15eb52429e.jpg",
    "icongray": "https://steamcdn-a.akamaihd.net/steamcommunity/public/images/apps/549740/7e7eb51f76f7eedf5f6d0f30da0280d05dbf873c.jpg"
  }
]