﻿[
  {
    "name": "NumRoundsPlayed",
    "defaultvalue": 0,
    "displayName": "Rounds played"
  },
  {
    "name": "NumRoundsEscapedAsMercOrTraitor",
    "defaultvalue": 0,
    "displayName": "Rounds escaped as mercenary or traitor"
  },
  {
    "name": "NumRoundsEscapedAsTraitor",
    "defaultvalue": 0,
    "displayName": "Rounds escaped as traitor"
  },
  {
    "name": "MPModesPlayed",
    "defaultvalue": 0,
    "displayName": "Multiplayer modes played"
  },
  {
    "name": "NumKilled",
    "defaultvalue": 0,
    "displayName": "Total kills"
  },
  {
    "name": "NumKilledMercs",
    "defaultvalue": 0,
    "displayName": "Killed mercenaries"
  },
  {
    "name": "NumAssists",
    "defaultvalue": 0,
    "displayName": "Assisted kills"
  },
  {
    "name": "NumKilledRogues",
    "defaultvalue": 0,
    "displayName": "Killed rogues"
  },
  {
    "name": "NumPersonalRevenge_FA",
    "defaultvalue": 0,
    "displayName": "Personal revenge"
  },
  {
    "name": "NumTraitorsKilled_FA",
    "defaultvalue": 0,
    "displayName": "Killed traitors"
  },
  {
    "name": "TotalRewardMoney",
    "defaultvalue": 0,
    "displayName": "Total reward money"
  },
  {
    "name": "TotalLootMoney",
    "defaultvalue": 0,
    "displayName": "Total loot money"
  },
  {
    "name": "BiggestGrab",
    "defaultvalue": 0,
    "displayName": "Biggest grab"
  },
  {
    "name": "NumCompletedSessions_FA",
    "defaultvalue": 0,
    "displayName": "Completed sessions"
  },
  {
    "name": "NumSessionsWon_CnR",
    "defaultvalue": 0,
    "displayName": "Sessions won"
  },
  {
    "name": "NumRoundsWonAsMerc_FA",
    "defaultvalue": 0,
    "displayName": "Rounds won as mercenary"
  },
  {
    "name": "NumRoundsWon_FA",
    "defaultvalue": 0,
    "displayName": "Rounds won"
  },
  {
    "name": "MoneyEscapedWith_FA",
    "defaultvalue": 0,
    "displayName": "Escaped money"
  },
  {
    "name": "ExperiencePoints_FA",
    "defaultvalue": 0,
    "displayName": "Experience"
  }
]