﻿{
  "Dlcs": {},
  "Name": "Robot Warriors",
  "AppId": "756560",
  "ImageUrl": "https://steamcdn-a.akamaihd.net/steam/apps/756560/header.jpg?t=1599235201",
  "Languages": [
    "english"
  ],
  "Platforms": {
    "windows": true,
    "mac": false,
    "linux": false
  }
}