﻿[
  {
    "name": "finish_game_trooper",
    "defaultvalue": 0,
    "displayName": "Elite Trooper",
    "hidden": 0,
    "description": "Finish the game using the trooper character",
    "icon": "https://steamcdn-a.akamaihd.net/steamcommunity/public/images/apps/756560/b1c53093796f25b2574ddd158ad62af61992f43f.jpg",
    "icongray": "https://steamcdn-a.akamaihd.net/steamcommunity/public/images/apps/756560/d69af8ae9bc2418628f21d1afb1ed05b4cdec894.jpg"
  },
  {
    "name": "finish_game_swordmaster",
    "defaultvalue": 0,
    "displayName": "Swordmaster",
    "hidden": 0,
    "description": "Finish the game using the swordmaster character",
    "icon": "https://steamcdn-a.akamaihd.net/steamcommunity/public/images/apps/756560/0ae712825f4d46cccfe890184915aa044bde7d45.jpg",
    "icongray": "https://steamcdn-a.akamaihd.net/steamcommunity/public/images/apps/756560/a04f539d2e439f5d97e5b005ff7b69a133ffbb97.jpg"
  },
  {
    "name": "finish_level_100_health",
    "defaultvalue": 0,
    "displayName": " Full Health",
    "hidden": 0,
    "description": "Finish Any Level with Full Health",
    "icon": "https://steamcdn-a.akamaihd.net/steamcommunity/public/images/apps/756560/868c4c191e9f2509048c46b1c866ad8a16581a41.jpg",
    "icongray": "https://steamcdn-a.akamaihd.net/steamcommunity/public/images/apps/756560/72abc278e3e801175c46e2a07a8df2a368b2dce8.jpg"
  },
  {
    "name": "play_game_for_1_hour",
    "defaultvalue": 0,
    "displayName": "Much Time",
    "hidden": 0,
    "description": "Play the game for 1 hour",
    "icon": "https://steamcdn-a.akamaihd.net/steamcommunity/public/images/apps/756560/65c5cfbfae9c02544ba885f0be2750d9fe90900d.jpg",
    "icongray": "https://steamcdn-a.akamaihd.net/steamcommunity/public/images/apps/756560/db9bb5c91d5f3ff4e2f753670bee9940304097d3.jpg"
  }
]