﻿{
  "Dlcs": {
    "1098291": {
      "Name": "DOOM Eternal - Year One Pass",
      "ImageUrl": "https://steamcdn-a.akamaihd.net/steam/apps/1098291/header.jpg?t=1589477200"
    },
    "1098300": {
      "Name": "DOOM Eternal: The Rip and Tear Pack",
      "ImageUrl": "https://steamcdn-a.akamaihd.net/steam/apps/1098300/header.jpg?t=1589895226"
    }
  },
  "Name": "DOOM Eternal",
  "AppId": "782330",
  "ImageUrl": "https://steamcdn-a.akamaihd.net/steam/apps/782330/header.jpg?t=1589577706",
  "Languages": [
    "english",
    "french",
    "italian",
    "german",
    "spanish",
    "japanese",
    "korean",
    "portuguese",
    "schinese",
    "latam",
    "tchinese",
    "polish",
    "russian"
  ],
  "Platforms": {
    "windows": true,
    "mac": false,
    "linux": false
  }
}