﻿[
  {
    "name": "Survive a Coup",
    "defaultvalue": 0,
    "displayName": "Coup de Grace",
    "hidden": 0,
    "description": "Suppress a Military Coup",
    "icon": "https://steamcdn-a.akamaihd.net/steamcommunity/public/images/apps/57690/1f9fe048d8687bf7610a9d3dbf308202593554de.jpg",
    "icongray": "https://steamcdn-a.akamaihd.net/steamcommunity/public/images/apps/57690/070f1453b75190d763afe7a9678602bf298ee1bd.jpg"
  },
  {
    "name": "Survive an uprising",
    "defaultvalue": 0,
    "displayName": "Iron Fist",
    "hidden": 0,
    "description": "Suppress an uprising",
    "icon": "https://steamcdn-a.akamaihd.net/steamcommunity/public/images/apps/57690/b874a951b63fe0ac95c2cf8ca1332d5433e05e9d.jpg",
    "icongray": "https://steamcdn-a.akamaihd.net/steamcommunity/public/images/apps/57690/b60e7acc8047d6d324d3b1e46f69e13b23c7ca3f.jpg"
  },
  {
    "name": "Construct 1337 buildings",
    "defaultvalue": 0,
    "displayName": "Elitist",
    "hidden": 0,
    "description": "Construct 1337 buildings",
    "icon": "https://steamcdn-a.akamaihd.net/steamcommunity/public/images/apps/57690/e0ac5d2b276a8a5944b4a27409b95fdb6642f605.jpg",
    "icongray": "https://steamcdn-a.akamaihd.net/steamcommunity/public/images/apps/57690/218ba2f75fd58e7a2f5cf65338882b985f23959a.jpg"
  },
  {
    "name": "Money in Swiss account",
    "defaultvalue": 0,
    "displayName": "Filthy Rich",
    "hidden": 0,
    "description": "Make $100 000 for your Swiss Bank account in a mission",
    "icon": "https://steamcdn-a.akamaihd.net/steamcommunity/public/images/apps/57690/2bffe038fc3b5f6ed0801fec996cf0caacd5ef7e.jpg",
    "icongray": "https://steamcdn-a.akamaihd.net/steamcommunity/public/images/apps/57690/49621845420bd51dec1be6bdd8511a278cd7ae15.jpg"
  },
  {
    "name": "Roads and garages",
    "defaultvalue": 0,
    "displayName": "Heavy Traffic",
    "hidden": 0,
    "description": "Construct at least 1000 meters of roads and 4 Garages",
    "icon": "https://steamcdn-a.akamaihd.net/steamcommunity/public/images/apps/57690/5b2337cf6c93d1f79c93511fa42ab09fffe1d6c1.jpg",
    "icongray": "https://steamcdn-a.akamaihd.net/steamcommunity/public/images/apps/57690/00519beb0c69c85d0876e00e33e95ec0ad89d424.jpg"
  },
  {
    "name": "Population over 300 and no shacks",
    "defaultvalue": 0,
    "displayName": "Homes for Everyone",
    "hidden": 0,
    "description": "Have population of over 300 and no Shacks",
    "icon": "https://steamcdn-a.akamaihd.net/steamcommunity/public/images/apps/57690/b39d6f74cea0439f3c9d59cbcbbaa07284e762e0.jpg",
    "icongray": "https://steamcdn-a.akamaihd.net/steamcommunity/public/images/apps/57690/042f13817dc900ae18693e898d973f046053718a.jpg"
  },
  {
    "name": "200 buildings on one island",
    "defaultvalue": 0,
    "displayName": "Metropolis",
    "hidden": 0,
    "description": "Construct 200 buildings on one island",
    "icon": "https://steamcdn-a.akamaihd.net/steamcommunity/public/images/apps/57690/e0ac5d2b276a8a5944b4a27409b95fdb6642f605.jpg",
    "icongray": "https://steamcdn-a.akamaihd.net/steamcommunity/public/images/apps/57690/218ba2f75fd58e7a2f5cf65338882b985f23959a.jpg"
  },
  {
    "name": "20 soldiers and generals",
    "defaultvalue": 0,
    "displayName": "Militarist",
    "hidden": 0,
    "description": "Have more than 20 soldiers and generals in one game",
    "icon": "https://steamcdn-a.akamaihd.net/steamcommunity/public/images/apps/57690/40f589f1caeed41e7554831997c3311af4107829.jpg",
    "icongray": "https://steamcdn-a.akamaihd.net/steamcommunity/public/images/apps/57690/1d122e91f67362445891d1049b649bb20f041680.jpg"
  },
  {
    "name": "Earn 1 000 000 from tourism",
    "defaultvalue": 0,
    "displayName": "Paradise Island",
    "hidden": 0,
    "description": "Earn $1 000 000 from tourism profits in a single game",
    "icon": "https://steamcdn-a.akamaihd.net/steamcommunity/public/images/apps/57690/c61fe240fa992655d58a4cf118bb53856025c7e9.jpg",
    "icongray": "https://steamcdn-a.akamaihd.net/steamcommunity/public/images/apps/57690/9133b786fd896c224ce39105354cfb4ad4f0d8b0.jpg"
  },
  {
    "name": "Export 1 000 000 from industry",
    "defaultvalue": 0,
    "displayName": "Top Exporter",
    "hidden": 0,
    "description": "Earn $1 000 000 from industry in a single game",
    "icon": "https://steamcdn-a.akamaihd.net/steamcommunity/public/images/apps/57690/7d589b8033738580fffc977016b7436ac3ab3c58.jpg",
    "icongray": "https://steamcdn-a.akamaihd.net/steamcommunity/public/images/apps/57690/070384b30b6c8ca1402cc0de672e03be4847bcde.jpg"
  },
  {
    "name": "Finish a game high happiness",
    "defaultvalue": 0,
    "displayName": "Tropican Fiesta",
    "hidden": 0,
    "description": "Finish a game with overall Happines of your citizens above 70%",
    "icon": "https://steamcdn-a.akamaihd.net/steamcommunity/public/images/apps/57690/fcc34e789e3ce005d38679d0c4c05f285a48e9ee.jpg",
    "icongray": "https://steamcdn-a.akamaihd.net/steamcommunity/public/images/apps/57690/364f3a5de9e235bbb59a193b71848b907abfaad3.jpg"
  },
  {
    "name": "Finish a game Sandbox God mode",
    "defaultvalue": 0,
    "displayName": "God Complex",
    "hidden": 0,
    "description": "Finish a Sandbox game in God mode",
    "icon": "https://steamcdn-a.akamaihd.net/steamcommunity/public/images/apps/57690/1e8d0e28f62e634eeefc4239eb73bda8c6e61a1b.jpg",
    "icongray": "https://steamcdn-a.akamaihd.net/steamcommunity/public/images/apps/57690/c018593b280c142d1079ee28a23d6ab838cb2754.jpg"
  },
  {
    "name": "Finish all tutorials",
    "defaultvalue": 0,
    "displayName": "Dictatorship for Dummies",
    "hidden": 0,
    "description": "Finish all tutorial missions",
    "icon": "https://steamcdn-a.akamaihd.net/steamcommunity/public/images/apps/57690/cfdbdfbd0c024fc0c0cb2aab0276075c8b315839.jpg",
    "icongray": "https://steamcdn-a.akamaihd.net/steamcommunity/public/images/apps/57690/89b8a5120f1d1e4040be8467d84c638253cb8721.jpg"
  },
  {
    "name": "Campaign milestone 1",
    "defaultvalue": 0,
    "displayName": "Tropico VS The World",
    "hidden": 1,
    "icon": "https://steamcdn-a.akamaihd.net/steamcommunity/public/images/apps/57690/ade7ba60c9286aef544e1c9c80e51caa3941562a.jpg",
    "icongray": "https://steamcdn-a.akamaihd.net/steamcommunity/public/images/apps/57690/26ac8a29365330b62aea543b63b9762d3f760899.jpg"
  },
  {
    "name": "Campaign milestone 2",
    "defaultvalue": 0,
    "displayName": "Scapegoat",
    "hidden": 1,
    "icon": "https://steamcdn-a.akamaihd.net/steamcommunity/public/images/apps/57690/9de54c571fa71511745e54b487b88a83df84c1aa.jpg",
    "icongray": "https://steamcdn-a.akamaihd.net/steamcommunity/public/images/apps/57690/1eafafb91ff077efae4dd9a976dcab5f338b736a.jpg"
  },
  {
    "name": "Campaign milestone 3",
    "defaultvalue": 0,
    "displayName": "The Mastermind",
    "hidden": 1,
    "icon": "https://steamcdn-a.akamaihd.net/steamcommunity/public/images/apps/57690/ff917bd3b15aaaaeaf7378a54dd57c7e622c96f9.jpg",
    "icongray": "https://steamcdn-a.akamaihd.net/steamcommunity/public/images/apps/57690/9d20e19532976b569a9f1b84da56701a153446a8.jpg"
  },
  {
    "name": "Campaign milestone 4",
    "defaultvalue": 0,
    "displayName": "On Top of the World",
    "hidden": 1,
    "icon": "https://steamcdn-a.akamaihd.net/steamcommunity/public/images/apps/57690/ccd390eb31f71a93f47d0d13b065afb8097c8c35.jpg",
    "icongray": "https://steamcdn-a.akamaihd.net/steamcommunity/public/images/apps/57690/ff8377d415dbfa9b102ad3d33177cd73d0782100.jpg"
  },
  {
    "name": "20 national tasks",
    "defaultvalue": 0,
    "displayName": "National Agenda",
    "hidden": 0,
    "description": "Complete 20 agenda tasks in a single mission",
    "icon": "https://steamcdn-a.akamaihd.net/steamcommunity/public/images/apps/57690/1215b6790bbbed9c37426fb3e1f11926858e1e2f.jpg",
    "icongray": "https://steamcdn-a.akamaihd.net/steamcommunity/public/images/apps/57690/3fbc513a2ec34d893a88f3f0a6fe1e01b0dfc106.jpg"
  },
  {
    "name": "10 faction tasks",
    "defaultvalue": 0,
    "displayName": "Domestic Agenda",
    "hidden": 0,
    "description": "Complete 10 Faction tasks in a single mission",
    "icon": "https://steamcdn-a.akamaihd.net/steamcommunity/public/images/apps/57690/5e688676fa1cf8b5a9ced8d71e42f237ce343338.jpg",
    "icongray": "https://steamcdn-a.akamaihd.net/steamcommunity/public/images/apps/57690/0d4b9b2941575ce3c472437b9c97e1a9a2d3f8c0.jpg"
  },
  {
    "name": "10 foreign tasks",
    "defaultvalue": 0,
    "displayName": "Foreign Agenda",
    "hidden": 0,
    "description": "Complete 10 Foreign tasks in a single mission",
    "icon": "https://steamcdn-a.akamaihd.net/steamcommunity/public/images/apps/57690/60bbe3f3d8328588a8235f5e8be981e5f27947cf.jpg",
    "icongray": "https://steamcdn-a.akamaihd.net/steamcommunity/public/images/apps/57690/f914659162d0f65c682daa1882b887f68cd9026d.jpg"
  },
  {
    "name": "Arrest 10 criminals",
    "defaultvalue": 0,
    "displayName": "War on Crime",
    "hidden": 0,
    "description": "Arrest 10 Criminals in a single mission",
    "icon": "https://steamcdn-a.akamaihd.net/steamcommunity/public/images/apps/57690/cf0933333362074dccce84f37ed84c0b5e68f289.jpg",
    "icongray": "https://steamcdn-a.akamaihd.net/steamcommunity/public/images/apps/57690/95cc188ca300a9fb2e8e21cd05db194ad3eadd57.jpg"
  },
  {
    "name": "Hire all ministers",
    "defaultvalue": 0,
    "displayName": "The Full Monty",
    "hidden": 0,
    "description": "Have a full Ministry cabinet",
    "icon": "https://steamcdn-a.akamaihd.net/steamcommunity/public/images/apps/57690/42b67b5c79cc51d40fec48d9f4f4bd47f2ab7f71.jpg",
    "icongray": "https://steamcdn-a.akamaihd.net/steamcommunity/public/images/apps/57690/3be3bccc7ac15dc2ab2ed5b8c4697a215f7230b6.jpg"
  },
  {
    "name": "Fire minister for a gaffe",
    "defaultvalue": 0,
    "displayName": "You are Fired!",
    "hidden": 0,
    "description": "Fire a Minister because of his gaffe",
    "icon": "https://steamcdn-a.akamaihd.net/steamcommunity/public/images/apps/57690/ad255e110acae4f37643406f256b7b96dd2711fc.jpg",
    "icongray": "https://steamcdn-a.akamaihd.net/steamcommunity/public/images/apps/57690/3843e0e11fc1de862bbabdfd82569cf446af179a.jpg"
  },
  {
    "name": "Your lucky day",
    "defaultvalue": 0,
    "displayName": "Your Lucky Day",
    "hidden": 0,
    "description": "Hire an unemployed citizen as a Minister",
    "icon": "https://steamcdn-a.akamaihd.net/steamcommunity/public/images/apps/57690/1d681f900273e010e8e745051680e5d4c81dc604.jpg",
    "icongray": "https://steamcdn-a.akamaihd.net/steamcommunity/public/images/apps/57690/deab1ea4ea8a396aac89e5acc0657b97af0f1aca.jpg"
  },
  {
    "name": "Clean oil spill fast",
    "defaultvalue": 0,
    "displayName": "The Golf Balls Solution",
    "hidden": 0,
    "description": "Clean an Oil Spill in less than 4 months",
    "icon": "https://steamcdn-a.akamaihd.net/steamcommunity/public/images/apps/57690/062df56b352015a77b83696e58b204cc047ead56.jpg",
    "icongray": "https://steamcdn-a.akamaihd.net/steamcommunity/public/images/apps/57690/61eb1e7b87d3023787bb7c93b9269506014df5df.jpg"
  },
  {
    "name": "Put out 10 fires in a mission",
    "defaultvalue": 0,
    "displayName": "Year Of the Dragon",
    "hidden": 0,
    "description": "Put out 10 buildings on fire in a single mission",
    "icon": "https://steamcdn-a.akamaihd.net/steamcommunity/public/images/apps/57690/198518294d10509d7f7baf119a6a7a37b689c244.jpg",
    "icongray": "https://steamcdn-a.akamaihd.net/steamcommunity/public/images/apps/57690/785afc5ac832c4ed603ae529090d05caae09e3e3.jpg"
  },
  {
    "name": "Survive 3 volcanic eruptions",
    "defaultvalue": 0,
    "displayName": "Old Faithful",
    "hidden": 0,
    "description": "Survive 3 Volcanic eruptions in a single mission",
    "icon": "https://steamcdn-a.akamaihd.net/steamcommunity/public/images/apps/57690/425f08d1483fcecbb8efb101ab626e9bb92e9b97.jpg",
    "icongray": "https://steamcdn-a.akamaihd.net/steamcommunity/public/images/apps/57690/16f4cab23cd8e4227a02242d298919c09e22e31e.jpg"
  },
  {
    "name": "Survive a tornado outbreak no casualties",
    "defaultvalue": 0,
    "displayName": "Tornado Valley",
    "hidden": 0,
    "description": "Survive a Tornado Outbreak with no human casualties",
    "icon": "https://steamcdn-a.akamaihd.net/steamcommunity/public/images/apps/57690/b982d871fcfdb035b34f703c12ca9354172ae271.jpg",
    "icongray": "https://steamcdn-a.akamaihd.net/steamcommunity/public/images/apps/57690/be88afa57b23debbcf3b6fd552f15f00aefd29be.jpg"
  },
  {
    "name": "No dry fields at the end of a drought",
    "defaultvalue": 0,
    "displayName": "Modern Agriculture",
    "hidden": 0,
    "description": "Have no dry fields at the end of a Drought",
    "icon": "https://steamcdn-a.akamaihd.net/steamcommunity/public/images/apps/57690/3410f98a86f361674a927f860d32c7bd7292e1c3.jpg",
    "icongray": "https://steamcdn-a.akamaihd.net/steamcommunity/public/images/apps/57690/f5724e14f05e311cfdd18823e68409520798c7ee.jpg"
  },
  {
    "name": "Survive a tsunami no casualties",
    "defaultvalue": 0,
    "displayName": "Head for High Ground",
    "hidden": 0,
    "description": "Survive a Tsunami with no human casualties",
    "icon": "https://steamcdn-a.akamaihd.net/steamcommunity/public/images/apps/57690/eb6e1919631e43aa7f11f933ffc0def75726edf7.jpg",
    "icongray": "https://steamcdn-a.akamaihd.net/steamcommunity/public/images/apps/57690/0a000c93a555df60b0427428cf5e2df61bfd0fb7.jpg"
  },
  {
    "name": "Unlock all blueprints",
    "defaultvalue": 0,
    "displayName": "Building Blues",
    "hidden": 0,
    "description": "Unlock 20 Blueprints in a single mission",
    "icon": "https://steamcdn-a.akamaihd.net/steamcommunity/public/images/apps/57690/873d1a81f1833b8eb5f118ce31d54d6bfc087971.jpg",
    "icongray": "https://steamcdn-a.akamaihd.net/steamcommunity/public/images/apps/57690/f9349d3d191b6e58162cd0afcdd1c72268ccf6bb.jpg"
  },
  {
    "name": "Generate power from nuclear plant",
    "defaultvalue": 0,
    "displayName": "The Power of the Atom",
    "hidden": 0,
    "description": "Generate 1 000 MW of electricity in a Nuclear Power Plant",
    "icon": "https://steamcdn-a.akamaihd.net/steamcommunity/public/images/apps/57690/0dcc780a36904523f015fe9e9bf9d708025aca1a.jpg",
    "icongray": "https://steamcdn-a.akamaihd.net/steamcommunity/public/images/apps/57690/bcb40da30e9581ee2ad37a94613ad32fe9b127f1.jpg"
  },
  {
    "name": "Nuclear plant and nuclear program",
    "defaultvalue": 0,
    "displayName": "Nuclear Future",
    "hidden": 0,
    "description": "Have a Nuclear Power Plant and a Nuclear Program built on your island",
    "icon": "https://steamcdn-a.akamaihd.net/steamcommunity/public/images/apps/57690/10be21c8a01d1956bf9796819f4bdbc6c54669de.jpg",
    "icongray": "https://steamcdn-a.akamaihd.net/steamcommunity/public/images/apps/57690/d92c2b599db056875c214d4218ad70771d3c2837.jpg"
  },
  {
    "name": "Distribute 1000 luxury goods",
    "defaultvalue": 0,
    "displayName": "Made In China",
    "hidden": 0,
    "description": "Distribute more than 1 000 Luxury Goods from a Shopping mall ",
    "icon": "https://steamcdn-a.akamaihd.net/steamcommunity/public/images/apps/57690/0752dba5a2712815b185d8ea2d777fef12688b71.jpg",
    "icongray": "https://steamcdn-a.akamaihd.net/steamcommunity/public/images/apps/57690/3aa7ed0e3530043be1be0aeebb59c34ddf501d50.jpg"
  },
  {
    "name": "Upgraded Chemical plant",
    "defaultvalue": 0,
    "displayName": "Smells Like Chemistry",
    "hidden": 0,
    "description": "Buy all upgrades for a Chemical Plant",
    "icon": "https://steamcdn-a.akamaihd.net/steamcommunity/public/images/apps/57690/1825c57bad15435a001160bb5882ff40b177c376.jpg",
    "icongray": "https://steamcdn-a.akamaihd.net/steamcommunity/public/images/apps/57690/7342c56fc2eb14ff86956c4b729fc2a1d5c6eeba.jpg"
  },
  {
    "name": "Earn money from Tropican art",
    "defaultvalue": 0,
    "displayName": "Mona Llama",
    "hidden": 0,
    "description": "Earn more than $30 000 from selling Tropican art in a Museum of Modern Art",
    "icon": "https://steamcdn-a.akamaihd.net/steamcommunity/public/images/apps/57690/8b551a49785adf7827f731ad739e9fdc1f62b82e.jpg",
    "icongray": "https://steamcdn-a.akamaihd.net/steamcommunity/public/images/apps/57690/972bbc9f9360b1265fd0eb28e57c04809773e35c.jpg"
  },
  {
    "name": "Swiss account from customs office",
    "defaultvalue": 0,
    "displayName": "Special Taxes",
    "hidden": 0,
    "description": "Gain $15 000 for your Swiss account from a Customs Office",
    "icon": "https://steamcdn-a.akamaihd.net/steamcommunity/public/images/apps/57690/3a117987c5231609f3c80f6fa2a433792ba8b10c.jpg",
    "icongray": "https://steamcdn-a.akamaihd.net/steamcommunity/public/images/apps/57690/6a6f22ce79159e24e8b28fbd494f0e2a7bd8baf2.jpg"
  },
  {
    "name": "Have your clone die",
    "defaultvalue": 0,
    "displayName": "The Rumors of my Death...",
    "hidden": 0,
    "description": "Have one of your clones die instead of you during an assassination attempt",
    "icon": "https://steamcdn-a.akamaihd.net/steamcommunity/public/images/apps/57690/ae7132c032be14c7fc4e5531d434925140409727.jpg",
    "icongray": "https://steamcdn-a.akamaihd.net/steamcommunity/public/images/apps/57690/5ca7f7a103857ac5338dec0bd1dc4c161f049ab7.jpg"
  },
  {
    "name": "Kill rebels with the Masuoleum trap",
    "defaultvalue": 0,
    "displayName": "It's a Trap!",
    "hidden": 0,
    "description": "Kill 5 rebels at once with a trap in your Mausoleum",
    "icon": "https://steamcdn-a.akamaihd.net/steamcommunity/public/images/apps/57690/274d5d1c2d6941b5e160d969e4a5ae8eb76a75a1.jpg",
    "icongray": "https://steamcdn-a.akamaihd.net/steamcommunity/public/images/apps/57690/8c61b530407b369397226897b6508a12548c71ad.jpg"
  },
  {
    "name": "Roller coaster aqua park ferris wheel",
    "defaultvalue": 0,
    "displayName": "Theme Park",
    "hidden": 0,
    "description": "Have a Roller Coaster near a Ferris Wheel and an Aqua park",
    "icon": "https://steamcdn-a.akamaihd.net/steamcommunity/public/images/apps/57690/1b552e9c0f56fb5b755d307ba173ae9b3dff7d06.jpg",
    "icongray": "https://steamcdn-a.akamaihd.net/steamcommunity/public/images/apps/57690/7bbffe2831f4b06f0a946c4dfcddafc5e60d010b.jpg"
  },
  {
    "name": "Upgraded Weather station",
    "defaultvalue": 0,
    "displayName": "Prepared For Everything",
    "hidden": 0,
    "description": "Buy all upgrades for a Weather Station",
    "icon": "https://steamcdn-a.akamaihd.net/steamcommunity/public/images/apps/57690/e5ffd53431bbc1994b0991d10408ba6a7b168616.jpg",
    "icongray": "https://steamcdn-a.akamaihd.net/steamcommunity/public/images/apps/57690/20d1d9fa94af2de1aa757988add8712e1008e95f.jpg"
  },
  {
    "name": "Dungeon and Colonial Museum",
    "defaultvalue": 0,
    "displayName": "Past and Present",
    "hidden": 0,
    "description": "Have both a Dungeon and a Colonial Museum in the same mission",
    "icon": "https://steamcdn-a.akamaihd.net/steamcommunity/public/images/apps/57690/8cad73b8a1df0e35fb5f90c540b19e8d10f2bdec.jpg",
    "icongray": "https://steamcdn-a.akamaihd.net/steamcommunity/public/images/apps/57690/133abe622804b8fb3007b539d9447855e11f963a.jpg"
  },
  {
    "name": "Trait at level 5",
    "defaultvalue": 0,
    "displayName": "Competent",
    "hidden": 0,
    "description": "Have Character Trait at level 5",
    "icon": "https://steamcdn-a.akamaihd.net/steamcommunity/public/images/apps/57690/a18ba1a0e9596309f136b548b86c66c575700feb.jpg",
    "icongray": "https://steamcdn-a.akamaihd.net/steamcommunity/public/images/apps/57690/bc0e334c4265b88488774eafac97ec69890e7521.jpg"
  },
  {
    "name": "Have 3 traits at level 5",
    "defaultvalue": 0,
    "displayName": "Specialist",
    "hidden": 0,
    "description": "Have 3 Character Traits  at level 5",
    "icon": "https://steamcdn-a.akamaihd.net/steamcommunity/public/images/apps/57690/dc0cbc245d930da1efd312719a55f209f8ba93a9.jpg",
    "icongray": "https://steamcdn-a.akamaihd.net/steamcommunity/public/images/apps/57690/9ec00d8d58d60aa7d6edae552be47ea74ee07cc5.jpg"
  },
  {
    "name": "Have all traits at level 5",
    "defaultvalue": 0,
    "displayName": "Expert",
    "hidden": 0,
    "description": "Have all Character Traits at level 5",
    "icon": "https://steamcdn-a.akamaihd.net/steamcommunity/public/images/apps/57690/1b876343fca38ae4254f66c68781ea283e633536.jpg",
    "icongray": "https://steamcdn-a.akamaihd.net/steamcommunity/public/images/apps/57690/f88e5a066d456d0a8ce5a827abc2dd03332439bd.jpg"
  },
  {
    "name": "Import 2000 food",
    "defaultvalue": 0,
    "displayName": "Foreign Cuisine",
    "hidden": 0,
    "description": "Import 2 000 food",
    "icon": "https://steamcdn-a.akamaihd.net/steamcommunity/public/images/apps/57690/b5a82c9039d64efcd7a9eb1901549165b5c13930.jpg",
    "icongray": "https://steamcdn-a.akamaihd.net/steamcommunity/public/images/apps/57690/9ca2bb4f0382230ec7d059e96b1fd3b540bcbb98.jpg"
  },
  {
    "name": "Import 10 000 resources",
    "defaultvalue": 0,
    "displayName": "IMPORTant business",
    "hidden": 0,
    "description": "Import 10 000 resources",
    "icon": "https://steamcdn-a.akamaihd.net/steamcommunity/public/images/apps/57690/85d3a0139f108b1cefc830ad56da20490088f053.jpg",
    "icongray": "https://steamcdn-a.akamaihd.net/steamcommunity/public/images/apps/57690/198d1fd5bb629097eb5a21da5e3fc1b277c4df2d.jpg"
  },
  {
    "name": "Kill Juanito",
    "defaultvalue": 0,
    "displayName": "Kill Juanito",
    "hidden": 0,
    "description": "Issue an Execution order on a citizen called Juanito",
    "icon": "https://steamcdn-a.akamaihd.net/steamcommunity/public/images/apps/57690/052ca830a95d8f21de5b5c9f1b9041367b779e55.jpg",
    "icongray": "https://steamcdn-a.akamaihd.net/steamcommunity/public/images/apps/57690/09a88ee08115ecf0f07e643e6640b8210d63365f.jpg"
  },
  {
    "name": "Quick build 10 constructions",
    "defaultvalue": 0,
    "displayName": "Instant Construction",
    "hidden": 0,
    "description": "Issue the Quick-build command on 10 constructions",
    "icon": "https://steamcdn-a.akamaihd.net/steamcommunity/public/images/apps/57690/ff06a8038241df32e7fad2e283b9bce8f3955d94.jpg",
    "icongray": "https://steamcdn-a.akamaihd.net/steamcommunity/public/images/apps/57690/59df92cda7eeaf79cf79c2b764bd721400d9fda1.jpg"
  },
  {
    "name": "Survive 10 disasters",
    "defaultvalue": 0,
    "displayName": "Curse of the Llama",
    "hidden": 0,
    "description": "Survive 10 disasters",
    "icon": "https://steamcdn-a.akamaihd.net/steamcommunity/public/images/apps/57690/af9f1285bf5e101e4c26fc7aaa4d1473d2adf106.jpg",
    "icongray": "https://steamcdn-a.akamaihd.net/steamcommunity/public/images/apps/57690/e6e60c57c32ec8c90cd665c1c5185430581e7673.jpg"
  },
  {
    "name": "Megalopolis",
    "defaultvalue": 0,
    "displayName": "Megalopolis",
    "hidden": 0,
    "description": "Reach a population of 1000",
    "icon": "https://steamcdn-a.akamaihd.net/steamcommunity/public/images/apps/57690/ca2dbe81b5c855e71fa1eef4b1aa8959958f90bb.jpg",
    "icongray": "https://steamcdn-a.akamaihd.net/steamcommunity/public/images/apps/57690/b1295de9e61460181addced7d0349de5446d3cc1.jpg"
  },
  {
    "name": "Touristico",
    "defaultvalue": 0,
    "displayName": "Touristico",
    "hidden": 0,
    "description": "Have 10 hotels and 15 tourist attractions",
    "icon": "https://steamcdn-a.akamaihd.net/steamcommunity/public/images/apps/57690/474f9db83088ca76add314f535c9f227aee69a29.jpg",
    "icongray": "https://steamcdn-a.akamaihd.net/steamcommunity/public/images/apps/57690/04a9a70c975b81814d49cc067cc9dbe97703c033.jpg"
  },
  {
    "name": "Generalissimo",
    "defaultvalue": 0,
    "displayName": "Generalissimo",
    "hidden": 0,
    "description": "Have a total of 100 Soldiers and Generals",
    "icon": "https://steamcdn-a.akamaihd.net/steamcommunity/public/images/apps/57690/6752c8990fe45538d8795f50450981c06527ffdb.jpg",
    "icongray": "https://steamcdn-a.akamaihd.net/steamcommunity/public/images/apps/57690/53e2878aeb3e7542249123af1810d12f7db35e4f.jpg"
  },
  {
    "name": "Domestic Affairs",
    "defaultvalue": 0,
    "displayName": "Domestic Affairs",
    "hidden": 0,
    "description": "Have maximum respect with all factions",
    "icon": "https://steamcdn-a.akamaihd.net/steamcommunity/public/images/apps/57690/6cf9787f2adfa860852245f1e1f7910f06b0b5f2.jpg",
    "icongray": "https://steamcdn-a.akamaihd.net/steamcommunity/public/images/apps/57690/ddf51f3e3b023c82817c6c53cffb67c3afc1d2d9.jpg"
  },
  {
    "name": "Foreign Affairs",
    "defaultvalue": 0,
    "displayName": "Foreign Affairs",
    "hidden": 0,
    "description": "Have maximum relations with all foreign powers",
    "icon": "https://steamcdn-a.akamaihd.net/steamcommunity/public/images/apps/57690/6d3bc25407414cc45e2607e5c8ad141fb8aee3bc.jpg",
    "icongray": "https://steamcdn-a.akamaihd.net/steamcommunity/public/images/apps/57690/de67c8e2034d304f226cd0baf631333f4a63a49f.jpg"
  },
  {
    "name": "Tropico for the Tropicans",
    "defaultvalue": 0,
    "displayName": "Tropico for the Tropicans",
    "hidden": 0,
    "description": "Finish a sandbox game with the \"No immigrants\" option",
    "icon": "https://steamcdn-a.akamaihd.net/steamcommunity/public/images/apps/57690/972a490f747767b6dfc686fdfa2caaa81ee52608.jpg",
    "icongray": "https://steamcdn-a.akamaihd.net/steamcommunity/public/images/apps/57690/19391dc769d85724b981ecc1d128ac65a34bca4d.jpg"
  },
  {
    "name": "Down with the Tyrant",
    "defaultvalue": 0,
    "displayName": "Down with the Tyrant",
    "hidden": 0,
    "description": "Finish a sandbox game with the \"Rebel Yell\" option",
    "icon": "https://steamcdn-a.akamaihd.net/steamcommunity/public/images/apps/57690/5930670196c89051c55fa8a89bbd950b7be06f3c.jpg",
    "icongray": "https://steamcdn-a.akamaihd.net/steamcommunity/public/images/apps/57690/9de1fbe9a6339f2fa2fb914e9d7f0e1a7377e008.jpg"
  },
  {
    "name": "The Big House",
    "defaultvalue": 0,
    "displayName": "The Big House",
    "hidden": 0,
    "description": "Have 40 inmates in your Prisons",
    "icon": "https://steamcdn-a.akamaihd.net/steamcommunity/public/images/apps/57690/859666237a458c06ee4c3aa3add2a0f1a1313cf9.jpg",
    "icongray": "https://steamcdn-a.akamaihd.net/steamcommunity/public/images/apps/57690/dd199c578a82f6f86ca8f9de1e5bf83e81dc98ad.jpg"
  },
  {
    "name": "From Rags to Riches",
    "defaultvalue": 0,
    "displayName": "From Rags to Riches",
    "hidden": 0,
    "description": "Have 30 Mansions and 10 Tenements",
    "icon": "https://steamcdn-a.akamaihd.net/steamcommunity/public/images/apps/57690/6695083223cd0dfee0c49687cd04f3e7ec8e8b63.jpg",
    "icongray": "https://steamcdn-a.akamaihd.net/steamcommunity/public/images/apps/57690/d9efe32b3766ce868988213616ca78d8e826e94c.jpg"
  },
  {
    "name": "Philanthropist",
    "defaultvalue": 0,
    "displayName": "Philanthropist",
    "hidden": 0,
    "description": "Issue the \"Tax Cut\" edict 10 times in a single mission",
    "icon": "https://steamcdn-a.akamaihd.net/steamcommunity/public/images/apps/57690/e33d13197493a93bd831025a17e94d631b8cc48f.jpg",
    "icongray": "https://steamcdn-a.akamaihd.net/steamcommunity/public/images/apps/57690/bed8c81035e3d269af240d8a2daac223cbe75081.jpg"
  },
  {
    "name": "Finish expansion mission 1",
    "defaultvalue": 0,
    "displayName": "Crisis Measures",
    "hidden": 1,
    "icon": "https://steamcdn-a.akamaihd.net/steamcommunity/public/images/apps/57690/ff40c18d7d1b17a9746e0db9a76655d13c0d4313.jpg",
    "icongray": "https://steamcdn-a.akamaihd.net/steamcommunity/public/images/apps/57690/01b6680b12bf861ea0c686a17cd07ec4b3bf3dfa.jpg"
  },
  {
    "name": "Finish expansion mission 4",
    "defaultvalue": 0,
    "displayName": "The Conclave",
    "hidden": 1,
    "icon": "https://steamcdn-a.akamaihd.net/steamcommunity/public/images/apps/57690/4ba310c2736a6979c393aea32da5860c7b9ca473.jpg",
    "icongray": "https://steamcdn-a.akamaihd.net/steamcommunity/public/images/apps/57690/7227fe4db7e1d746ce16366a81d39126124442fc.jpg"
  },
  {
    "name": "Finish expansion mission 6",
    "defaultvalue": 0,
    "displayName": "Averted World War 3",
    "hidden": 1,
    "icon": "https://steamcdn-a.akamaihd.net/steamcommunity/public/images/apps/57690/805e02bfe4e28314aa9f34c8aecd1c928723ade8.jpg",
    "icongray": "https://steamcdn-a.akamaihd.net/steamcommunity/public/images/apps/57690/f5b6c12600e5de97efce10e57c904658f0ec6c5c.jpg"
  },
  {
    "name": "Completed the expansion campaign",
    "defaultvalue": 0,
    "displayName": "Zeitgeist",
    "hidden": 1,
    "icon": "https://steamcdn-a.akamaihd.net/steamcommunity/public/images/apps/57690/10360315d1cd61ae5150f46e8355d4303898a5d6.jpg",
    "icongray": "https://steamcdn-a.akamaihd.net/steamcommunity/public/images/apps/57690/21c3dc1558ac9070972bfb4858c6eabbd3839eb3.jpg"
  },
  {
    "name": "Babel tower with 50 workers",
    "defaultvalue": 0,
    "displayName": "Office Space",
    "hidden": 0,
    "description": "Have a Babel Tower with 50 employees",
    "icon": "https://steamcdn-a.akamaihd.net/steamcommunity/public/images/apps/57690/bc79f445f812d93a92746b147ba0f37cd45aa875.jpg",
    "icongray": "https://steamcdn-a.akamaihd.net/steamcommunity/public/images/apps/57690/ef3f094236736e576db097ba7a1a1fb12037b8f2.jpg"
  },
  {
    "name": "Ziggurat with 50 families",
    "defaultvalue": 0,
    "displayName": "Better Than Tenements",
    "hidden": 0,
    "description": "Have a Ziggurat with 50 families as tenants",
    "icon": "https://steamcdn-a.akamaihd.net/steamcommunity/public/images/apps/57690/0de8e616c91acaadd8c498b4984cc00988611cce.jpg",
    "icongray": "https://steamcdn-a.akamaihd.net/steamcommunity/public/images/apps/57690/e1d2ab0abfbc160a1688e883ea4eee58966f93ce.jpg"
  },
  {
    "name": "Have Presidency",
    "defaultvalue": 0,
    "displayName": "Capo Di Tutti Capi",
    "hidden": 0,
    "description": "Renovate your Palace",
    "icon": "https://steamcdn-a.akamaihd.net/steamcommunity/public/images/apps/57690/7322786a9b541d5723a6abea71ac98c378836ca9.jpg",
    "icongray": "https://steamcdn-a.akamaihd.net/steamcommunity/public/images/apps/57690/91f5acd7d66e81a31185c09a084844e7795ddd5e.jpg"
  },
  {
    "name": "4 Biofarms and 4 Organic ranches",
    "defaultvalue": 0,
    "displayName": "Going Green",
    "hidden": 0,
    "description": "Build 4 Bio Farms and 4 Organic Ranches in a single mission",
    "icon": "https://steamcdn-a.akamaihd.net/steamcommunity/public/images/apps/57690/c5c71ab5e6f466158ba37cb0cc285222a8dc4258.jpg",
    "icongray": "https://steamcdn-a.akamaihd.net/steamcommunity/public/images/apps/57690/8d7e2866bcc200580208e0813f3d8f77446d02d1.jpg"
  },
  {
    "name": "Crystal Cathedral before 1990",
    "defaultvalue": 0,
    "displayName": "Heaven On Earth",
    "hidden": 0,
    "description": "Build a Diamond Cathedral before 1990",
    "icon": "https://steamcdn-a.akamaihd.net/steamcommunity/public/images/apps/57690/3389dd49620d26a70e2ab9a36fa47d549d1f32f1.jpg",
    "icongray": "https://steamcdn-a.akamaihd.net/steamcommunity/public/images/apps/57690/cbfd25f6e89f43acae81ec92900dffb74804d94a.jpg"
  },
  {
    "name": "Have Aerodrome and SevenStar hotel",
    "defaultvalue": 0,
    "displayName": "A Better Tourist Trap",
    "hidden": 0,
    "description": "Build an Aerodrome and a Seven-star hotel in a single mission",
    "icon": "https://steamcdn-a.akamaihd.net/steamcommunity/public/images/apps/57690/5f348dda14ad43ab42defd7e92cf317274c301f2.jpg",
    "icongray": "https://steamcdn-a.akamaihd.net/steamcommunity/public/images/apps/57690/133318dbdfa1f0fa5ab3b14b9c1a66a459a567c0.jpg"
  }
]