﻿{
  "Dlcs": {},
  "Name": "ARMA: Cold War Assault",
  "AppId": "65790",
  "ImageUrl": "https://steamcdn-a.akamaihd.net/steam/apps/65790/header.jpg?t=1582122531",
  "Languages": [
    "english",
    "french",
    "italian",
    "german",
    "spanish"
  ],
  "Platforms": {
    "windows": true,
    "mac": false,
    "linux": false
  }
}