﻿{
  "Dlcs": {},
  "Name": "Regimental Chess",
  "AppId": "362400",
  "ImageUrl": "https://steamcdn-a.akamaihd.net/steam/apps/362400/header.jpg?t=1596801602",
  "Languages": [
    "english"
  ],
  "Platforms": {
    "windows": true,
    "mac": true,
    "linux": false
  }
}