﻿{
  "Dlcs": {},
  "Name": "Venusian Vengeance",
  "AppId": "351240",
  "ImageUrl": "https://steamcdn-a.akamaihd.net/steam/apps/351240/header.jpg?t=1556138673",
  "Languages": [
    "english"
  ],
  "Platforms": {
    "windows": true,
    "mac": true,
    "linux": false
  }
}