﻿{
  "Dlcs": {},
  "Name": "FootLOL: Epic Fail League",
  "AppId": "263740",
  "ImageUrl": "https://steamcdn-a.akamaihd.net/steam/apps/263740/header.jpg?t=1590499536",
  "Languages": [
    "english",
    "french",
    "german",
    "spanish",
    "russian"
  ],
  "Platforms": {
    "windows": true,
    "mac": true,
    "linux": true
  }
}