﻿{
  "Dlcs": {},
  "Name": "Helldorado",
  "AppId": "18470",
  "ImageUrl": "https://steamcdn-a.akamaihd.net/steam/apps/18470/header.jpg?t=1568713768",
  "Languages": [
    "english",
    "french",
    "german",
    "spanish"
  ],
  "Platforms": {
    "windows": true,
    "mac": false,
    "linux": false
  }
}