﻿[
  {
    "name": "ACH_SKEWER",
    "defaultvalue": 0,
    "displayName": "Skewer",
    "hidden": 0,
    "description": "Kill 4 zombies with a single crossbow shot.",
    "icon": "https://steamcdn-a.akamaihd.net/steamcommunity/public/images/apps/33980/40f4ced8c32639390498e8011dc1eff3e1e6c678.jpg",
    "icongray": "https://steamcdn-a.akamaihd.net/steamcommunity/public/images/apps/33980/142c2148b60f39ed638736e3b5bf266016c7cbe9.jpg"
  },
  {
    "name": "ACH_FORCEMEAT",
    "defaultvalue": 0,
    "displayName": "Surprise in a Barrel",
    "hidden": 0,
    "description": "Kill at least 10 zombies by shooting the explosive barrel.",
    "icon": "https://steamcdn-a.akamaihd.net/steamcommunity/public/images/apps/33980/f3a22eba20c8f2036d073673cfad848577755fed.jpg",
    "icongray": "https://steamcdn-a.akamaihd.net/steamcommunity/public/images/apps/33980/300051fa366701cafaf72d9e8e2f31e337a2a234.jpg"
  },
  {
    "name": "ACH_HEADSHOT",
    "defaultvalue": 0,
    "displayName": "Out of Ammo? Not Me!",
    "hidden": 0,
    "description": "With a handgun kill 6 zombies without reloading.",
    "icon": "https://steamcdn-a.akamaihd.net/steamcommunity/public/images/apps/33980/42fec02ea733b9833d22fd223ab778f4aa5c327e.jpg",
    "icongray": "https://steamcdn-a.akamaihd.net/steamcommunity/public/images/apps/33980/7e7e6324e1f8045f3cc9eb8460272eed226027bc.jpg"
  },
  {
    "name": "ACH_TORPEDO",
    "defaultvalue": 0,
    "displayName": "Hot Rod",
    "hidden": 0,
    "description": "Tune up your car to the max.",
    "icon": "https://steamcdn-a.akamaihd.net/steamcommunity/public/images/apps/33980/7520ec1edd45dc95f0b21090f90ee8f14ba8ec0c.jpg",
    "icongray": "https://steamcdn-a.akamaihd.net/steamcommunity/public/images/apps/33980/765d9e5f29466bf281acdda7a67c65f91df8b32f.jpg"
  },
  {
    "name": "ACH_FROG",
    "defaultvalue": 0,
    "displayName": "Froggie Style",
    "hidden": 0,
    "description": "Perform a car jump over more than 172m.",
    "icon": "https://steamcdn-a.akamaihd.net/steamcommunity/public/images/apps/33980/2891b8446e09397614abdb461827868620a6ab49.jpg",
    "icongray": "https://steamcdn-a.akamaihd.net/steamcommunity/public/images/apps/33980/44c39ba86adf825ab7a1eeb07c52baac735718f0.jpg"
  },
  {
    "name": "ACH_HOMER",
    "defaultvalue": 0,
    "displayName": "Homer, J. S.",
    "hidden": 0,
    "description": "Make a zombie fly over 33m with your baseball bat.",
    "icon": "https://steamcdn-a.akamaihd.net/steamcommunity/public/images/apps/33980/3b64f9ae68147a4f4d6cb74d8fe070c2130b3b4f.jpg",
    "icongray": "https://steamcdn-a.akamaihd.net/steamcommunity/public/images/apps/33980/73a66941d676e070875266230d7d8f50eb0fb793.jpg"
  },
  {
    "name": "ACH_RAMBO",
    "defaultvalue": 0,
    "displayName": "Pound of Ground",
    "hidden": 0,
    "description": "Kill 15 zombies within 25 seconds using your firearms only.",
    "icon": "https://steamcdn-a.akamaihd.net/steamcommunity/public/images/apps/33980/0e8a2df59a871b5a5c9045e2c53c898a52457db5.jpg",
    "icongray": "https://steamcdn-a.akamaihd.net/steamcommunity/public/images/apps/33980/5bf0f567927e88ccf37fa5ad43eb365feea0867b.jpg"
  },
  {
    "name": "ACH_TWILLIAMS",
    "defaultvalue": 0,
    "displayName": "Best Batter Ever",
    "hidden": 0,
    "description": "Make the zombies fly over the total of 1212m with your baseball bat.",
    "icon": "https://steamcdn-a.akamaihd.net/steamcommunity/public/images/apps/33980/3aaa8a73adc045e89b88b03a5240102448bdbe41.jpg",
    "icongray": "https://steamcdn-a.akamaihd.net/steamcommunity/public/images/apps/33980/971a0501f697297e4966c2888a6b1ca977bdc0c2.jpg"
  },
  {
    "name": "ACH_SMACHER",
    "defaultvalue": 0,
    "displayName": "Speed of Light",
    "hidden": 0,
    "description": "Hit the speedometer limit.",
    "icon": "https://steamcdn-a.akamaihd.net/steamcommunity/public/images/apps/33980/59a2f96770d3e11b5eb296bdac75cba8fe43f96f.jpg",
    "icongray": "https://steamcdn-a.akamaihd.net/steamcommunity/public/images/apps/33980/491ef288b511bf721ec8b3e62d17da22a5028c3d.jpg"
  },
  {
    "name": "ACH_DOGBURGER",
    "defaultvalue": 0,
    "displayName": "Dogburger, Anyone?",
    "hidden": 0,
    "description": "Kill 5 hyenas with a dynamite.",
    "icon": "https://steamcdn-a.akamaihd.net/steamcommunity/public/images/apps/33980/fed6006d191f08eb40bad559ae5d938b4ba04d83.jpg",
    "icongray": "https://steamcdn-a.akamaihd.net/steamcommunity/public/images/apps/33980/9578133d40d4d97533ceb39c5b00e31893fdf962.jpg"
  },
  {
    "name": "ACH_KILLINGMACHINE",
    "defaultvalue": 0,
    "displayName": "Killing Machine",
    "hidden": 0,
    "description": "Kill 911 zombies with your weapons or your car.",
    "icon": "https://steamcdn-a.akamaihd.net/steamcommunity/public/images/apps/33980/fe2f167aec2b28964d553680daa85c4ed43565f0.jpg",
    "icongray": "https://steamcdn-a.akamaihd.net/steamcommunity/public/images/apps/33980/b8f6cd2b1238032aab17e5fae18a69cacad34777.jpg"
  },
  {
    "name": "ACH_AVIATOR",
    "defaultvalue": 0,
    "displayName": "Aviator",
    "hidden": 0,
    "description": "Perform car jumps with total distance of 3.14159265 km.",
    "icon": "https://steamcdn-a.akamaihd.net/steamcommunity/public/images/apps/33980/6d08cfc994cf9d78c77984bc879dd0b0228c6292.jpg",
    "icongray": "https://steamcdn-a.akamaihd.net/steamcommunity/public/images/apps/33980/fb3942c049bcb19ece736df942b480413328ee9b.jpg"
  },
  {
    "name": "ACH_FATALITY",
    "defaultvalue": 0,
    "displayName": "Finish Them!",
    "hidden": 0,
    "description": "Kill 66 stunned zombies with your baseball bat.",
    "icon": "https://steamcdn-a.akamaihd.net/steamcommunity/public/images/apps/33980/4e64b7d7fb7f784e408a7c2fc36773a8e06eef07.jpg",
    "icongray": "https://steamcdn-a.akamaihd.net/steamcommunity/public/images/apps/33980/0ebce37e0899bac460f3a52d81de4f3d98201678.jpg"
  },
  {
    "name": "ACH_VKOZENY",
    "defaultvalue": 0,
    "displayName": "Home At the Bahamas",
    "hidden": 0,
    "description": "Collect 1111 coins.",
    "icon": "https://steamcdn-a.akamaihd.net/steamcommunity/public/images/apps/33980/66f671bb1e7cf2356aa39b279982ed3bbeb4384b.jpg",
    "icongray": "https://steamcdn-a.akamaihd.net/steamcommunity/public/images/apps/33980/1c7f80a523658d6a4226127250f7285a63463b0b.jpg"
  },
  {
    "name": "ACH_CARMAGEDDON",
    "defaultvalue": 0,
    "displayName": "Hit and Run",
    "hidden": 0,
    "description": "Run 192 zombies over with your car.",
    "icon": "https://steamcdn-a.akamaihd.net/steamcommunity/public/images/apps/33980/b356c1161c29446f6c71e6085dfcd0ac30ae8537.jpg",
    "icongray": "https://steamcdn-a.akamaihd.net/steamcommunity/public/images/apps/33980/a5f07b580ade7b198303336ce86f46e6c91f4c5b.jpg"
  },
  {
    "name": "ACH_PEACEMAKER",
    "defaultvalue": 0,
    "displayName": "Peacemaker",
    "hidden": 0,
    "description": "Blow up the first generator on the farm without killing ANY zombies on the way.",
    "icon": "https://steamcdn-a.akamaihd.net/steamcommunity/public/images/apps/33980/c68003dcd7883d44e20333b958cb947081c1c73a.jpg",
    "icongray": "https://steamcdn-a.akamaihd.net/steamcommunity/public/images/apps/33980/fe2788704c9831820b1fb6c3feb3e0598bf18400.jpg"
  },
  {
    "name": "ACH_TOUGHGUY",
    "defaultvalue": 0,
    "displayName": "Tough Guy",
    "hidden": 0,
    "description": "Kill 68 zombies using any weapons without curing yourself.",
    "icon": "https://steamcdn-a.akamaihd.net/steamcommunity/public/images/apps/33980/5b214a6a1e2e1a1478fbd5c0fd975be31eed32ed.jpg",
    "icongray": "https://steamcdn-a.akamaihd.net/steamcommunity/public/images/apps/33980/5a833dbbaa7fe5d672af3b40844ca0883f49cb56.jpg"
  },
  {
    "name": "ACH_QUICKLAME",
    "defaultvalue": 0,
    "displayName": "What the Hell?",
    "hidden": 0,
    "description": "Reach the game's end within 5 minutes. Yes, MINUTES!",
    "icon": "https://steamcdn-a.akamaihd.net/steamcommunity/public/images/apps/33980/1a7d77073db6e256b50e7442cb6c473b4c5b941a.jpg",
    "icongray": "https://steamcdn-a.akamaihd.net/steamcommunity/public/images/apps/33980/083156ec807bb7ee95ddbe23d8d7929cfb43a104.jpg"
  },
  {
    "name": "ACH_STORY1",
    "defaultvalue": 0,
    "displayName": "Red Lightning",
    "hidden": 0,
    "description": "Locate your red car.",
    "icon": "https://steamcdn-a.akamaihd.net/steamcommunity/public/images/apps/33980/532b593f30c02524830ae599ebe8f7d68a23fb89.jpg",
    "icongray": "https://steamcdn-a.akamaihd.net/steamcommunity/public/images/apps/33980/7ec687b44d3dfd5b7ef22d6c2dda12baca3c1118.jpg"
  },
  {
    "name": "ACH_STORY2",
    "defaultvalue": 0,
    "displayName": "El Mariachi",
    "hidden": 0,
    "description": "Find the guitar case.",
    "icon": "https://steamcdn-a.akamaihd.net/steamcommunity/public/images/apps/33980/dfcc4200a5ace8a72a3d26a1fde451ce0dc34c2f.jpg",
    "icongray": "https://steamcdn-a.akamaihd.net/steamcommunity/public/images/apps/33980/ce3b4aee0f6bacb1676198a6da657c758516a25f.jpg"
  },
  {
    "name": "ACH_STORY3",
    "defaultvalue": 0,
    "displayName": "Chicks Digg the Heroes",
    "hidden": 0,
    "description": "Clear the Airport location and save all the hotties!",
    "icon": "https://steamcdn-a.akamaihd.net/steamcommunity/public/images/apps/33980/ee1204b639f8147cc9e2047d202ce5958ab216f7.jpg",
    "icongray": "https://steamcdn-a.akamaihd.net/steamcommunity/public/images/apps/33980/91ac9c8d31834b501636e9b552413168a40fcfdf.jpg"
  },
  {
    "name": "ACH_STORY4",
    "defaultvalue": 0,
    "displayName": "Ravioli with ketchup",
    "hidden": 0,
    "description": "Exterminate the Mafia family.",
    "icon": "https://steamcdn-a.akamaihd.net/steamcommunity/public/images/apps/33980/f99ef84b3dae8d1628c7d548f408e4e94d17f8c6.jpg",
    "icongray": "https://steamcdn-a.akamaihd.net/steamcommunity/public/images/apps/33980/7d2d2719797a4a68f2267357078259343b1818a0.jpg"
  },
  {
    "name": "ACH_STORY5",
    "defaultvalue": 0,
    "displayName": "Peace Pipe",
    "hidden": 0,
    "description": "Find the Indian drug dealer.",
    "icon": "https://steamcdn-a.akamaihd.net/steamcommunity/public/images/apps/33980/35cd715e663794da688cac4577df8523c6b0e33e.jpg",
    "icongray": "https://steamcdn-a.akamaihd.net/steamcommunity/public/images/apps/33980/7c84b052d9cf011c1ae7855092c4c060e173b24a.jpg"
  },
  {
    "name": "ACH_STORYEND",
    "defaultvalue": 0,
    "displayName": "Make It Count!",
    "hidden": 0,
    "description": "Finish the Game on Hard Difficulty. Don't be a wimp!",
    "icon": "https://steamcdn-a.akamaihd.net/steamcommunity/public/images/apps/33980/42bc074a8af764b3aee58a8baba8294d1c0a37d0.jpg",
    "icongray": "https://steamcdn-a.akamaihd.net/steamcommunity/public/images/apps/33980/710757cd2de28cb22abf5fc5243c42862c92186c.jpg"
  },
  {
    "name": "ACH_BASEBALLPRO",
    "defaultvalue": 0,
    "displayName": "U-Baseball",
    "hidden": 0,
    "description": "Fight your way through the first underground while using only the baseball bat.",
    "icon": "https://steamcdn-a.akamaihd.net/steamcommunity/public/images/apps/33980/00f42a8a4ce50e9ce01eddef06f4d34d04770ca3.jpg",
    "icongray": "https://steamcdn-a.akamaihd.net/steamcommunity/public/images/apps/33980/4ca902de575e88ebe6ea047fe19ff0a869a1b32a.jpg"
  },
  {
    "name": "ACH_FISHFEED",
    "defaultvalue": 0,
    "displayName": "Feed the Fishes",
    "hidden": 0,
    "description": "Throw 26 dead zombies under water.",
    "icon": "https://steamcdn-a.akamaihd.net/steamcommunity/public/images/apps/33980/e8e3872f2faf48b6033bd8fe30f56df6e0a5a132.jpg",
    "icongray": "https://steamcdn-a.akamaihd.net/steamcommunity/public/images/apps/33980/b4c6f7473804673887db21b39848d0f185f18acb.jpg"
  }
]