﻿{
  "Dlcs": {
    "483280": {
      "Name": "Kabitis: Old Version",
      "ImageUrl": "https://steamcdn-a.akamaihd.net/steam/apps/483280/header.jpg?t=1498776921"
    },
    "533220": {
      "Name": "Microbits K",
      "ImageUrl": "https://steamcdn-a.akamaihd.net/steam/apps/533220/header.jpg?t=1498776982"
    }
  },
  "Name": "Kabitis",
  "AppId": "475220",
  "ImageUrl": "https://steamcdn-a.akamaihd.net/steam/apps/475220/header.jpg?t=1564922056",
  "Languages": [
    "english",
    "portuguese"
  ],
  "Platforms": {
    "windows": true,
    "mac": true,
    "linux": true
  }
}