﻿{
  "Dlcs": {},
  "Name": "Volt",
  "AppId": "290280",
  "ImageUrl": "https://steamcdn-a.akamaihd.net/steam/apps/290280/header.jpg?t=1589548607",
  "Languages": [
    "english"
  ],
  "Platforms": {
    "windows": true,
    "mac": true,
    "linux": true
  }
}