﻿{
  "Dlcs": {
    "837860": {
      "Name": "Alien Shooter - Fight for Life",
      "ImageUrl": "https://steamcdn-a.akamaihd.net/steam/apps/837860/header.jpg?t=1553857189"
    },
    "837861": {
      "Name": "Alien Shooter - The Experiment",
      "ImageUrl": "https://steamcdn-a.akamaihd.net/steam/apps/837861/header.jpg?t=1554722114"
    }
  },
  "Name": "Alien Shooter",
  "AppId": "33100",
  "ImageUrl": "https://steamcdn-a.akamaihd.net/steam/apps/33100/header.jpg?t=1552377105",
  "Languages": [
    "english",
    "russian"
  ],
  "Platforms": {
    "windows": true,
    "mac": false,
    "linux": false
  }
}