﻿{
  "Dlcs": {},
  "Name": "Veer",
  "AppId": "405530",
  "ImageUrl": "https://steamcdn-a.akamaihd.net/steam/apps/405530/header.jpg?t=1573820313",
  "Languages": [
    "english"
  ],
  "Platforms": {
    "windows": true,
    "mac": true,
    "linux": true
  }
}