﻿[
  {
    "name": "Progress",
    "defaultvalue": 0,
    "displayName": "Progress"
  },
  {
    "name": "Current",
    "defaultvalue": 0,
    "displayName": "Current"
  },
  {
    "name": "Version",
    "defaultvalue": 9,
    "displayName": "Version"
  }
]