﻿[
  {
    "name": "COMPLETED_LEVEL_1",
    "defaultvalue": 0,
    "displayName": "Canyons Completed",
    "hidden": 0,
    "description": "Complete the Canyons level challenges",
    "icon": "https://steamcdn-a.akamaihd.net/steamcommunity/public/images/apps/343440/ad7003b1d5ccdc70af82f6bcd51858960a4b27bc.jpg",
    "icongray": "https://steamcdn-a.akamaihd.net/steamcommunity/public/images/apps/343440/adf76cdce78a894bbdfae7bd23aab37878240fff.jpg"
  },
  {
    "name": "COMPLETED_LEVEL_2",
    "defaultvalue": 0,
    "displayName": "Tropical Completed",
    "hidden": 0,
    "description": "Complete the Tropical level challenges",
    "icon": "https://steamcdn-a.akamaihd.net/steamcommunity/public/images/apps/343440/0a8217ccfe20225f4aa3faf7c87e18a505be2bfa.jpg",
    "icongray": "https://steamcdn-a.akamaihd.net/steamcommunity/public/images/apps/343440/adf76cdce78a894bbdfae7bd23aab37878240fff.jpg"
  },
  {
    "name": "COMPLETED_LEVEL_3",
    "defaultvalue": 0,
    "displayName": "Forest Completed",
    "hidden": 0,
    "description": "Complete the Forest level challenges",
    "icon": "https://steamcdn-a.akamaihd.net/steamcommunity/public/images/apps/343440/bb03c134459cc217187598072d73616e725112b2.jpg",
    "icongray": "https://steamcdn-a.akamaihd.net/steamcommunity/public/images/apps/343440/adf76cdce78a894bbdfae7bd23aab37878240fff.jpg"
  },
  {
    "name": "COMPLETED_LEVEL_4",
    "defaultvalue": 0,
    "displayName": "Snow Completed",
    "hidden": 0,
    "description": "Complete the Snow level challenges",
    "icon": "https://steamcdn-a.akamaihd.net/steamcommunity/public/images/apps/343440/4ee37298508dc85ba3c059e7f7805b9ab0d35d0f.jpg",
    "icongray": "https://steamcdn-a.akamaihd.net/steamcommunity/public/images/apps/343440/adf76cdce78a894bbdfae7bd23aab37878240fff.jpg"
  },
  {
    "name": "FIND_ALL_GAPS",
    "defaultvalue": 0,
    "displayName": "Ringmaster",
    "hidden": 0,
    "description": "Find all rings",
    "icon": "https://steamcdn-a.akamaihd.net/steamcommunity/public/images/apps/343440/df1ede3828045a09883d5417005158f7f6e837ac.jpg",
    "icongray": "https://steamcdn-a.akamaihd.net/steamcommunity/public/images/apps/343440/adf76cdce78a894bbdfae7bd23aab37878240fff.jpg"
  },
  {
    "name": "WIN_10_EVENTS",
    "defaultvalue": 0,
    "displayName": "Event Amateur",
    "hidden": 0,
    "description": "Win 10 Events",
    "icon": "https://steamcdn-a.akamaihd.net/steamcommunity/public/images/apps/343440/c46a23d73de4f677cbbe05dc393c06f37c435802.jpg",
    "icongray": "https://steamcdn-a.akamaihd.net/steamcommunity/public/images/apps/343440/411e0d7eb6c6a2c6df2eee445cefca2e0d6ceafb.jpg"
  },
  {
    "name": "WIN_50_EVENTS",
    "defaultvalue": 0,
    "displayName": "Event Pro",
    "hidden": 0,
    "description": "Win 50 Events",
    "icon": "https://steamcdn-a.akamaihd.net/steamcommunity/public/images/apps/343440/63a5a660459a600dae7a717d6d696a5902b4267f.jpg",
    "icongray": "https://steamcdn-a.akamaihd.net/steamcommunity/public/images/apps/343440/adf76cdce78a894bbdfae7bd23aab37878240fff.jpg"
  },
  {
    "name": "WIN_100_EVENTS",
    "defaultvalue": 0,
    "displayName": "Event Master",
    "hidden": 0,
    "description": "Win 100 Events",
    "icon": "https://steamcdn-a.akamaihd.net/steamcommunity/public/images/apps/343440/33bea991eb4612e869af2a2ae97ecf5eb1a21530.jpg",
    "icongray": "https://steamcdn-a.akamaihd.net/steamcommunity/public/images/apps/343440/adf76cdce78a894bbdfae7bd23aab37878240fff.jpg"
  },
  {
    "name": "GET_SPECIAL_CARS",
    "defaultvalue": 0,
    "displayName": "Special Car Collector",
    "hidden": 0,
    "description": "Unlock all special cars",
    "icon": "https://steamcdn-a.akamaihd.net/steamcommunity/public/images/apps/343440/d7a4ea35e74712ed1849b8854131bf257ad717a1.jpg",
    "icongray": "https://steamcdn-a.akamaihd.net/steamcommunity/public/images/apps/343440/adf76cdce78a894bbdfae7bd23aab37878240fff.jpg"
  },
  {
    "name": "HONK_100_TIMES",
    "defaultvalue": 0,
    "displayName": "Toot Toot!",
    "hidden": 0,
    "description": "Honk 100 times",
    "icon": "https://steamcdn-a.akamaihd.net/steamcommunity/public/images/apps/343440/a8c9aa1da2b373a47968525cd9858d63d9ccbda9.jpg",
    "icongray": "https://steamcdn-a.akamaihd.net/steamcommunity/public/images/apps/343440/adf76cdce78a894bbdfae7bd23aab37878240fff.jpg"
  },
  {
    "name": "COLLECT_5_CARS",
    "defaultvalue": 0,
    "displayName": "A Starting Collector",
    "hidden": 0,
    "description": "Collect 5 cars",
    "icon": "https://steamcdn-a.akamaihd.net/steamcommunity/public/images/apps/343440/b2ba0ffdfe65ab8eaf5cc955db41c6f7801c5a2a.jpg",
    "icongray": "https://steamcdn-a.akamaihd.net/steamcommunity/public/images/apps/343440/adf76cdce78a894bbdfae7bd23aab37878240fff.jpg"
  },
  {
    "name": "COLLECT_10_CARS",
    "defaultvalue": 0,
    "displayName": "Car Collecting Fanatic",
    "hidden": 0,
    "description": "Collect 10 cars",
    "icon": "https://steamcdn-a.akamaihd.net/steamcommunity/public/images/apps/343440/9e5ce02eb2bf7bf4d40541a7c01b7c4f29dd479f.jpg",
    "icongray": "https://steamcdn-a.akamaihd.net/steamcommunity/public/images/apps/343440/adf76cdce78a894bbdfae7bd23aab37878240fff.jpg"
  },
  {
    "name": "COLLECT_20_CARS",
    "defaultvalue": 0,
    "displayName": "Car Collecting Addict",
    "hidden": 0,
    "description": "Collect 20 cars",
    "icon": "https://steamcdn-a.akamaihd.net/steamcommunity/public/images/apps/343440/8654035635e9e31b5bae879f5fd2c37066e154a3.jpg",
    "icongray": "https://steamcdn-a.akamaihd.net/steamcommunity/public/images/apps/343440/adf76cdce78a894bbdfae7bd23aab37878240fff.jpg"
  },
  {
    "name": "COLLECT_30_CARS",
    "defaultvalue": 0,
    "displayName": "Ultimate Car Collector",
    "hidden": 0,
    "description": "Collect 30 cars",
    "icon": "https://steamcdn-a.akamaihd.net/steamcommunity/public/images/apps/343440/3e3634e7b33ba00493d7515eb9f5855bdd037f9b.jpg",
    "icongray": "https://steamcdn-a.akamaihd.net/steamcommunity/public/images/apps/343440/adf76cdce78a894bbdfae7bd23aab37878240fff.jpg"
  },
  {
    "name": "SPIN_1080",
    "defaultvalue": 0,
    "displayName": "Feeling dizzy?",
    "hidden": 0,
    "description": "Do a 1080 spin",
    "icon": "https://steamcdn-a.akamaihd.net/steamcommunity/public/images/apps/343440/3013bf2d0cfefa951c185746f25add55abc838ce.jpg",
    "icongray": "https://steamcdn-a.akamaihd.net/steamcommunity/public/images/apps/343440/adf76cdce78a894bbdfae7bd23aab37878240fff.jpg"
  },
  {
    "name": "AIRTIME_6_SEC",
    "defaultvalue": 0,
    "displayName": "I Believe I Can Fly",
    "hidden": 0,
    "description": "Get 6 Seconds of airtime",
    "icon": "https://steamcdn-a.akamaihd.net/steamcommunity/public/images/apps/343440/f1a9e38b0cad8faa0bc03058246693b903383ded.jpg",
    "icongray": "https://steamcdn-a.akamaihd.net/steamcommunity/public/images/apps/343440/adf76cdce78a894bbdfae7bd23aab37878240fff.jpg"
  },
  {
    "name": "TRIPLE_FRONTFLIP",
    "defaultvalue": 0,
    "displayName": "Triple Frontflip",
    "hidden": 0,
    "description": "Do a triple frontflip",
    "icon": "https://steamcdn-a.akamaihd.net/steamcommunity/public/images/apps/343440/a46f90216331e36f00608210a5d666f387af1b92.jpg",
    "icongray": "https://steamcdn-a.akamaihd.net/steamcommunity/public/images/apps/343440/adf76cdce78a894bbdfae7bd23aab37878240fff.jpg"
  },
  {
    "name": "TRIPLE_BACKFLIP",
    "defaultvalue": 0,
    "displayName": "Triple Backflip",
    "hidden": 0,
    "description": "Do a triple backflip",
    "icon": "https://steamcdn-a.akamaihd.net/steamcommunity/public/images/apps/343440/d9d348e97fe132b193cbf649e5c546c3617a7ee3.jpg",
    "icongray": "https://steamcdn-a.akamaihd.net/steamcommunity/public/images/apps/343440/adf76cdce78a894bbdfae7bd23aab37878240fff.jpg"
  },
  {
    "name": "FRONT_AND_BACKFLIP",
    "defaultvalue": 0,
    "displayName": "Daredevil",
    "hidden": 0,
    "description": "Do a front and backflip in one combo",
    "icon": "https://steamcdn-a.akamaihd.net/steamcommunity/public/images/apps/343440/9c2c68200ac49109e63ee7dc47fafb59e9eed8b5.jpg",
    "icongray": "https://steamcdn-a.akamaihd.net/steamcommunity/public/images/apps/343440/adf76cdce78a894bbdfae7bd23aab37878240fff.jpg"
  },
  {
    "name": "DRIFT_500M",
    "defaultvalue": 0,
    "displayName": "Burning Rubber",
    "hidden": 0,
    "description": "Do a 500m drift",
    "icon": "https://steamcdn-a.akamaihd.net/steamcommunity/public/images/apps/343440/b2822eae0ec8cefb9d10feab3a1ec1f844d773c1.jpg",
    "icongray": "https://steamcdn-a.akamaihd.net/steamcommunity/public/images/apps/343440/adf76cdce78a894bbdfae7bd23aab37878240fff.jpg"
  },
  {
    "name": "LEFT_LEVEL",
    "defaultvalue": 0,
    "displayName": "The End Of The Level",
    "hidden": 0,
    "description": "Fall out of the level",
    "icon": "https://steamcdn-a.akamaihd.net/steamcommunity/public/images/apps/343440/efb81fed0e037f2b4e5391f58783e1db273685cb.jpg",
    "icongray": "https://steamcdn-a.akamaihd.net/steamcommunity/public/images/apps/343440/adf76cdce78a894bbdfae7bd23aab37878240fff.jpg"
  },
  {
    "name": "SHOT_PLAYER",
    "defaultvalue": 0,
    "displayName": "KABOOM!",
    "hidden": 0,
    "description": "Shoot a player with the tank",
    "icon": "https://steamcdn-a.akamaihd.net/steamcommunity/public/images/apps/343440/a95276be59b3bd476542950892bb45dd2f0ac6e2.jpg",
    "icongray": "https://steamcdn-a.akamaihd.net/steamcommunity/public/images/apps/343440/adf76cdce78a894bbdfae7bd23aab37878240fff.jpg"
  },
  {
    "name": "FULLY_LEVEL_CAR",
    "defaultvalue": 0,
    "displayName": "Beginning Driver",
    "hidden": 0,
    "description": "Fully level a car",
    "icon": "https://steamcdn-a.akamaihd.net/steamcommunity/public/images/apps/343440/3a0f82a21cff5d2399cdab863876793c4cb45afb.jpg",
    "icongray": "https://steamcdn-a.akamaihd.net/steamcommunity/public/images/apps/343440/adf76cdce78a894bbdfae7bd23aab37878240fff.jpg"
  },
  {
    "name": "FULLY_LEVEL_5_CARS",
    "defaultvalue": 0,
    "displayName": "Competent Driver",
    "hidden": 0,
    "description": "Fully level 5 cars",
    "icon": "https://steamcdn-a.akamaihd.net/steamcommunity/public/images/apps/343440/e7b01541d04ecb4a47a26e7675d5d03a1ed4542b.jpg",
    "icongray": "https://steamcdn-a.akamaihd.net/steamcommunity/public/images/apps/343440/adf76cdce78a894bbdfae7bd23aab37878240fff.jpg"
  },
  {
    "name": "FULLY_LEVEL_10_CARS",
    "defaultvalue": 0,
    "displayName": "Advanced Driver",
    "hidden": 0,
    "description": "Fully level 10 cars",
    "icon": "https://steamcdn-a.akamaihd.net/steamcommunity/public/images/apps/343440/09dc8777ab67a3ff1d7915ecad7785a5f94b29a0.jpg",
    "icongray": "https://steamcdn-a.akamaihd.net/steamcommunity/public/images/apps/343440/adf76cdce78a894bbdfae7bd23aab37878240fff.jpg"
  },
  {
    "name": "FULLY_LEVEL_20_CARS",
    "defaultvalue": 0,
    "displayName": "Professional Driver",
    "hidden": 0,
    "description": "Fully level 20 cars",
    "icon": "https://steamcdn-a.akamaihd.net/steamcommunity/public/images/apps/343440/c6f1155626aaf5e7bb6d7e38ba332c6fb19b5efd.jpg",
    "icongray": "https://steamcdn-a.akamaihd.net/steamcommunity/public/images/apps/343440/adf76cdce78a894bbdfae7bd23aab37878240fff.jpg"
  },
  {
    "name": "FULLY_LEVEL_30_CARS",
    "defaultvalue": 0,
    "displayName": "Expert Driver",
    "hidden": 0,
    "description": "Fully level 30 cars",
    "icon": "https://steamcdn-a.akamaihd.net/steamcommunity/public/images/apps/343440/df35158906b8ba922447968660e8c62882074cce.jpg",
    "icongray": "https://steamcdn-a.akamaihd.net/steamcommunity/public/images/apps/343440/adf76cdce78a894bbdfae7bd23aab37878240fff.jpg"
  },
  {
    "name": "HIGH_COMBO_SCORE",
    "defaultvalue": 0,
    "displayName": "C-C-C-Combo!",
    "hidden": 0,
    "description": "Get 10.000 points in one combo",
    "icon": "https://steamcdn-a.akamaihd.net/steamcommunity/public/images/apps/343440/d6dc7da1ba55861278e80d3c4d17ce038216a943.jpg",
    "icongray": "https://steamcdn-a.akamaihd.net/steamcommunity/public/images/apps/343440/adf76cdce78a894bbdfae7bd23aab37878240fff.jpg"
  },
  {
    "name": "TAGGED_25_OBJECTS",
    "defaultvalue": 0,
    "displayName": "Paint it Green",
    "hidden": 0,
    "description": "Tag 25 objects in a Tag event",
    "icon": "https://steamcdn-a.akamaihd.net/steamcommunity/public/images/apps/343440/1686337b2eb3d1c9410909f45beece5999e8a95a.jpg",
    "icongray": "https://steamcdn-a.akamaihd.net/steamcommunity/public/images/apps/343440/adf76cdce78a894bbdfae7bd23aab37878240fff.jpg"
  },
  {
    "name": "WIN_RACE_AGAINST_3",
    "defaultvalue": 0,
    "displayName": "Eat My Dust",
    "hidden": 0,
    "description": "Win a race against atleast 3 opponents",
    "icon": "https://steamcdn-a.akamaihd.net/steamcommunity/public/images/apps/343440/ffeef6e94ad5724b557f14c2153c16be8b63fdcc.jpg",
    "icongray": "https://steamcdn-a.akamaihd.net/steamcommunity/public/images/apps/343440/adf76cdce78a894bbdfae7bd23aab37878240fff.jpg"
  },
  {
    "name": "FIND_THE_GAP",
    "defaultvalue": 0,
    "displayName": "First Come First Serve",
    "hidden": 0,
    "description": "Be the first to find the ring",
    "icon": "https://steamcdn-a.akamaihd.net/steamcommunity/public/images/apps/343440/c19a460258841e5e27cd66310e69b3ecfe8f1eef.jpg",
    "icongray": "https://steamcdn-a.akamaihd.net/steamcommunity/public/images/apps/343440/adf76cdce78a894bbdfae7bd23aab37878240fff.jpg"
  },
  {
    "name": "EXPLODED_BOMB",
    "defaultvalue": 0,
    "displayName": "King of the Crown",
    "hidden": 0,
    "description": "Win a King of the Crown event",
    "icon": "https://steamcdn-a.akamaihd.net/steamcommunity/public/images/apps/343440/5c8753fd5ab0abd16c7fb0ac24a9211d00f27c55.jpg",
    "icongray": "https://steamcdn-a.akamaihd.net/steamcommunity/public/images/apps/343440/adf76cdce78a894bbdfae7bd23aab37878240fff.jpg"
  }
]