﻿[
  {
    "name": "WinAMatch",
    "defaultvalue": 0,
    "displayName": "Straight off the Assembly Line",
    "hidden": 0,
    "description": "Win a Ranked Match",
    "icon": "https://steamcdn-a.akamaihd.net/steamcommunity/public/images/apps/351140/5a51da4721af0507b4d952890302c5c214a8d84d.jpg",
    "icongray": "https://steamcdn-a.akamaihd.net/steamcommunity/public/images/apps/351140/bc59608aa1c1ba011fa54f51e3433efac7c9363b.jpg"
  },
  {
    "name": "RustbucketChallenger",
    "defaultvalue": 0,
    "displayName": "Rustbucket Challenger",
    "hidden": 0,
    "description": "Get to level 25 in Ranked Matches",
    "icon": "https://steamcdn-a.akamaihd.net/steamcommunity/public/images/apps/351140/3362be531d4bbc02b23e1f89c78c2b0c080f0472.jpg",
    "icongray": "https://steamcdn-a.akamaihd.net/steamcommunity/public/images/apps/351140/bc59608aa1c1ba011fa54f51e3433efac7c9363b.jpg"
  },
  {
    "name": "RustbucketChampion",
    "defaultvalue": 0,
    "displayName": "Rustbucket Champion",
    "hidden": 0,
    "description": "Get to level 50 in Ranked Matches",
    "icon": "https://steamcdn-a.akamaihd.net/steamcommunity/public/images/apps/351140/9571aa5572c579cb34cbef187b3675c01fad4f63.jpg",
    "icongray": "https://steamcdn-a.akamaihd.net/steamcommunity/public/images/apps/351140/bc59608aa1c1ba011fa54f51e3433efac7c9363b.jpg"
  },
  {
    "name": "WarmingUp",
    "defaultvalue": 0,
    "displayName": "Warming Up",
    "hidden": 0,
    "description": "Play 50 games",
    "icon": "https://steamcdn-a.akamaihd.net/steamcommunity/public/images/apps/351140/6c9f224658ce125c3d8af0cfc0b1d37eb093d517.jpg",
    "icongray": "https://steamcdn-a.akamaihd.net/steamcommunity/public/images/apps/351140/bc59608aa1c1ba011fa54f51e3433efac7c9363b.jpg"
  },
  {
    "name": "FriendlyMatch",
    "defaultvalue": 0,
    "displayName": "Friendly Match",
    "hidden": 0,
    "description": "Play a match with a friend",
    "icon": "https://steamcdn-a.akamaihd.net/steamcommunity/public/images/apps/351140/a810cc9b5582b5a9d6ca9851a419b5076ebac660.jpg",
    "icongray": "https://steamcdn-a.akamaihd.net/steamcommunity/public/images/apps/351140/bc59608aa1c1ba011fa54f51e3433efac7c9363b.jpg"
  },
  {
    "name": "LearningtheRopes",
    "defaultvalue": 0,
    "displayName": "Learning the Ropes",
    "hidden": 0,
    "description": "Complete a character tutorial",
    "icon": "https://steamcdn-a.akamaihd.net/steamcommunity/public/images/apps/351140/86fde7c2e53c62058eaddd6cb0326ad35d1ee9a1.jpg",
    "icongray": "https://steamcdn-a.akamaihd.net/steamcommunity/public/images/apps/351140/bc59608aa1c1ba011fa54f51e3433efac7c9363b.jpg"
  },
  {
    "name": "ShamelessSelfPromotion",
    "defaultvalue": 0,
    "displayName": "Shameless Self Promotion",
    "hidden": 0,
    "description": "Watch the credits",
    "icon": "https://steamcdn-a.akamaihd.net/steamcommunity/public/images/apps/351140/07b2469d6499131a0ff68af7563920bd81b182c8.jpg",
    "icongray": "https://steamcdn-a.akamaihd.net/steamcommunity/public/images/apps/351140/bc59608aa1c1ba011fa54f51e3433efac7c9363b.jpg"
  },
  {
    "name": "TakingDownaTitan",
    "defaultvalue": 0,
    "displayName": "Taking Down a Titan",
    "hidden": 0,
    "description": "Land the killing shot on El Rey Gigante Robo Jr.",
    "icon": "https://steamcdn-a.akamaihd.net/steamcommunity/public/images/apps/351140/a448c2458ffffed146042f6061fb6832ea784096.jpg",
    "icongray": "https://steamcdn-a.akamaihd.net/steamcommunity/public/images/apps/351140/bc59608aa1c1ba011fa54f51e3433efac7c9363b.jpg"
  },
  {
    "name": "NotToday",
    "defaultvalue": 0,
    "displayName": "Not Today",
    "hidden": 0,
    "description": "Save an ally from being consumed by El Rey Gigante Robo Jr.",
    "icon": "https://steamcdn-a.akamaihd.net/steamcommunity/public/images/apps/351140/c567ac47646d477ffde80c35e52d2d4c928b1dd7.jpg",
    "icongray": "https://steamcdn-a.akamaihd.net/steamcommunity/public/images/apps/351140/bc59608aa1c1ba011fa54f51e3433efac7c9363b.jpg"
  },
  {
    "name": "CloseSave",
    "defaultvalue": 0,
    "displayName": "Close Save",
    "hidden": 0,
    "description": "While playing as Clancy, heal an ally with less than 10% health",
    "icon": "https://steamcdn-a.akamaihd.net/steamcommunity/public/images/apps/351140/7c5b4bca83f4c3aad0aa26f4ae3e581f32b56e44.jpg",
    "icongray": "https://steamcdn-a.akamaihd.net/steamcommunity/public/images/apps/351140/bc59608aa1c1ba011fa54f51e3433efac7c9363b.jpg"
  },
  {
    "name": "HealPlz",
    "defaultvalue": 0,
    "displayName": "Heal Plz",
    "hidden": 0,
    "description": "While playing as Clancy, heal yourself and 2 allies",
    "icon": "https://steamcdn-a.akamaihd.net/steamcommunity/public/images/apps/351140/7c5b4bca83f4c3aad0aa26f4ae3e581f32b56e44.jpg",
    "icongray": "https://steamcdn-a.akamaihd.net/steamcommunity/public/images/apps/351140/bc59608aa1c1ba011fa54f51e3433efac7c9363b.jpg"
  },
  {
    "name": "ImmovableObject",
    "defaultvalue": 0,
    "displayName": "Immovable Object",
    "hidden": 0,
    "description": "While playing as Bjorn, absorb 100 damage with a single shield",
    "icon": "https://steamcdn-a.akamaihd.net/steamcommunity/public/images/apps/351140/9e82e450cb771a2822529ee73958b4e93b8a9e9d.jpg",
    "icongray": "https://steamcdn-a.akamaihd.net/steamcommunity/public/images/apps/351140/bc59608aa1c1ba011fa54f51e3433efac7c9363b.jpg"
  },
  {
    "name": "InescapableRage",
    "defaultvalue": 0,
    "displayName": "Inescapable Rage",
    "hidden": 0,
    "description": "While playing as Bjorn, stun 5 enemies that are carrying",
    "icon": "https://steamcdn-a.akamaihd.net/steamcommunity/public/images/apps/351140/332d1b3bc28fe1be2188065ef8f472ced6f4d172.jpg",
    "icongray": "https://steamcdn-a.akamaihd.net/steamcommunity/public/images/apps/351140/bc59608aa1c1ba011fa54f51e3433efac7c9363b.jpg"
  },
  {
    "name": "StealthyAssassin",
    "defaultvalue": 0,
    "displayName": "Stealthy Assassin",
    "hidden": 0,
    "description": "While playing as Kasumi, stun someone and make it back to your recycler without being stunned",
    "icon": "https://steamcdn-a.akamaihd.net/steamcommunity/public/images/apps/351140/1d9d603f16f4beb2fd3dc7e6206ab810697a06a1.jpg",
    "icongray": "https://steamcdn-a.akamaihd.net/steamcommunity/public/images/apps/351140/bc59608aa1c1ba011fa54f51e3433efac7c9363b.jpg"
  },
  {
    "name": "MyCoverWasNotBlown",
    "defaultvalue": 0,
    "displayName": "My Cover was not Blown",
    "hidden": 0,
    "description": "While playing as Kasumi, carry something at least 50 meters without using teleport",
    "icon": "https://steamcdn-a.akamaihd.net/steamcommunity/public/images/apps/351140/d887d83ed83a008391e3e5298e60f080c931b8a9.jpg",
    "icongray": "https://steamcdn-a.akamaihd.net/steamcommunity/public/images/apps/351140/bc59608aa1c1ba011fa54f51e3433efac7c9363b.jpg"
  },
  {
    "name": "TooSlow",
    "defaultvalue": 0,
    "displayName": "Robots in a Barrel",
    "hidden": 0,
    "description": "While playing as Valentina, stun someone who has been disabled",
    "icon": "https://steamcdn-a.akamaihd.net/steamcommunity/public/images/apps/351140/2608c31580c099ad1b36e884b02343329fe584d1.jpg",
    "icongray": "https://steamcdn-a.akamaihd.net/steamcommunity/public/images/apps/351140/bc59608aa1c1ba011fa54f51e3433efac7c9363b.jpg"
  },
  {
    "name": "LongArmOfTheLaw",
    "defaultvalue": 0,
    "displayName": "Long Arm of the Law",
    "hidden": 0,
    "description": "While playing as Valentina, grab something from max range",
    "icon": "https://steamcdn-a.akamaihd.net/steamcommunity/public/images/apps/351140/76fccc8d244753d41bc20c8cb6bc5f936a329335.jpg",
    "icongray": "https://steamcdn-a.akamaihd.net/steamcommunity/public/images/apps/351140/bc59608aa1c1ba011fa54f51e3433efac7c9363b.jpg"
  },
  {
    "name": "DangerZone",
    "defaultvalue": 0,
    "displayName": "Danger Zone",
    "hidden": 0,
    "description": "While playing as Maverick, hit 3 or more enemies with a single rocket",
    "icon": "https://steamcdn-a.akamaihd.net/steamcommunity/public/images/apps/351140/03fa027dd8db3b1d2475138c72d51e57f1705ef6.jpg",
    "icongray": "https://steamcdn-a.akamaihd.net/steamcommunity/public/images/apps/351140/bc59608aa1c1ba011fa54f51e3433efac7c9363b.jpg"
  },
  {
    "name": "Afterburner",
    "defaultvalue": 0,
    "displayName": "Afterburner",
    "hidden": 0,
    "description": "While playing as Maverick, use bombing run twice while carrying something",
    "icon": "https://steamcdn-a.akamaihd.net/steamcommunity/public/images/apps/351140/c380767d597893b39b92ecac91ccc2f785d08053.jpg",
    "icongray": "https://steamcdn-a.akamaihd.net/steamcommunity/public/images/apps/351140/bc59608aa1c1ba011fa54f51e3433efac7c9363b.jpg"
  },
  {
    "name": "GoMyMinions",
    "defaultvalue": 0,
    "displayName": "Go My Minions",
    "hidden": 0,
    "description": "While playing as Daisy, have 3 carry drones out at once.",
    "icon": "https://steamcdn-a.akamaihd.net/steamcommunity/public/images/apps/351140/4d607629b40c220a2a07510875a47d04f1f2b1e9.jpg",
    "icongray": "https://steamcdn-a.akamaihd.net/steamcommunity/public/images/apps/351140/bc59608aa1c1ba011fa54f51e3433efac7c9363b.jpg"
  },
  {
    "name": "TargetLocked",
    "defaultvalue": 0,
    "displayName": "Target Locked",
    "hidden": 0,
    "description": "While playing as Daisy, stun an enemy with your turret.",
    "icon": "https://steamcdn-a.akamaihd.net/steamcommunity/public/images/apps/351140/843e691874885ad822001e6201963fc8b8fb15d1.jpg",
    "icongray": "https://steamcdn-a.akamaihd.net/steamcommunity/public/images/apps/351140/bc59608aa1c1ba011fa54f51e3433efac7c9363b.jpg"
  }
]