﻿{
  "Dlcs": {},
  "Name": "Avem33",
  "AppId": "673900",
  "ImageUrl": "https://steamcdn-a.akamaihd.net/steam/apps/673900/header.jpg?t=1519962125",
  "Languages": [
    "english"
  ],
  "Platforms": {
    "windows": true,
    "mac": false,
    "linux": false
  }
}