﻿{
  "Dlcs": {
    "674100": {
      "Name": "RC Plane 3 - Complete Edition",
      "ImageUrl": "https://steamcdn-a.akamaihd.net/steam/apps/674100/header.jpg?t=1502168704"
    },
    "675770": {
      "Name": "RC Plane 3 - Airbus",
      "ImageUrl": "https://steamcdn-a.akamaihd.net/steam/apps/675770/header.jpg?t=1502168585"
    },
    "675780": {
      "Name": "RC Plane 3 - Stunt Pack",
      "ImageUrl": "https://steamcdn-a.akamaihd.net/steam/apps/675780/header.jpg?t=1502169294"
    },
    "675790": {
      "Name": "RC Plane 3 - EDF Sparrow",
      "ImageUrl": "https://steamcdn-a.akamaihd.net/steam/apps/675790/header.jpg?t=1502168806"
    },
    "675800": {
      "Name": "RC Plane 3 - Warbirds Bundle",
      "ImageUrl": "https://steamcdn-a.akamaihd.net/steam/apps/675800/header.jpg?t=1502169392"
    },
    "675801": {
      "Name": "RC Plane 3 - F 141 - Combo",
      "ImageUrl": "https://steamcdn-a.akamaihd.net/steam/apps/675801/header.jpg?t=1502168864"
    },
    "675802": {
      "Name": "RC Plane 3 - Firefighter Bundle",
      "ImageUrl": "https://steamcdn-a.akamaihd.net/steam/apps/675802/header.jpg?t=1502169003"
    },
    "675803": {
      "Name": "RC Plane 3 - DroneGP",
      "ImageUrl": "https://steamcdn-a.akamaihd.net/steam/apps/675803/header.jpg?t=1502168754"
    },
    "675804": {
      "Name": "RC Plane 3 - Red Baron",
      "ImageUrl": "https://steamcdn-a.akamaihd.net/steam/apps/675804/header.jpg?t=1502169201"
    },
    "675805": {
      "Name": "RC Plane 3 - CP-350",
      "ImageUrl": "https://steamcdn-a.akamaihd.net/steam/apps/675805/header.jpg?t=1502168646"
    },
    "675806": {
      "Name": "RC Plane 3 - Luxury Jet",
      "ImageUrl": "https://steamcdn-a.akamaihd.net/steam/apps/675806/header.jpg?t=1502169155"
    },
    "675807": {
      "Name": "RC Plane 3 - Flying Fortress",
      "ImageUrl": "https://steamcdn-a.akamaihd.net/steam/apps/675807/header.jpg?t=1502169107"
    },
    "675808": {
      "Name": "RC Plane 3 -Carrier Ops F 181",
      "ImageUrl": "https://steamcdn-a.akamaihd.net/steam/apps/675808/header.jpg?t=1502168947"
    },
    "675809": {
      "Name": "RC Plane 3 - Flying Dorito",
      "ImageUrl": "https://steamcdn-a.akamaihd.net/steam/apps/675809/header.jpg?t=1502169048"
    },
    "675820": {
      "Name": "RC Plane 3 - Ventus Glider",
      "ImageUrl": "https://steamcdn-a.akamaihd.net/steam/apps/675820/header.jpg?t=1502169341"
    },
    "675821": {
      "Name": "RC Plane 3 - Stealth Plane",
      "ImageUrl": "https://steamcdn-a.akamaihd.net/steam/apps/675821/header.jpg?t=1502169248"
    }
  },
  "Name": "RC Plane 3",
  "AppId": "670500",
  "ImageUrl": "https://steamcdn-a.akamaihd.net/steam/apps/670500/header.jpg?t=1502210456",
  "Languages": [
    "english"
  ],
  "Platforms": {
    "windows": true,
    "mac": true,
    "linux": false
  }
}