﻿[
  {
    "name": "o_entity",
    "defaultvalue": 0,
    "displayName": "The Entity",
    "hidden": 0,
    "description": "What is the entity?",
    "icon": "https://steamcdn-a.akamaihd.net/steamcommunity/public/images/apps/97000/67abe48d603bf3f59d34aa447f82a1c2e5825222.jpg",
    "icongray": "https://steamcdn-a.akamaihd.net/steamcommunity/public/images/apps/97000/8ca5adc688501a68f4c627d1b20ff14a5403bcef.jpg"
  },
  {
    "name": "o_bigCrunch",
    "defaultvalue": 0,
    "displayName": "Big Crunch",
    "hidden": 0,
    "description": "Grow so large you absorb the whole universe.",
    "icon": "https://steamcdn-a.akamaihd.net/steamcommunity/public/images/apps/97000/5069858a32840421adf9f1c6956b88dbc7108d24.jpg",
    "icongray": "https://steamcdn-a.akamaihd.net/steamcommunity/public/images/apps/97000/b44086bd9064436f0ace9ac3695ad8eccc65fdc0.jpg"
  },
  {
    "name": "o_elite",
    "defaultvalue": 0,
    "displayName": "Elite",
    "hidden": 0,
    "description": "Make a 6 star system.",
    "icon": "https://steamcdn-a.akamaihd.net/steamcommunity/public/images/apps/97000/cece3201656d35a05f10a0c11300aa5013792535.jpg",
    "icongray": "https://steamcdn-a.akamaihd.net/steamcommunity/public/images/apps/97000/03e0d28ebc4d503735edc099219de7459dbc57e1.jpg"
  },
  {
    "name": "o_supremacy",
    "defaultvalue": 0,
    "displayName": "Supremacy",
    "hidden": 0,
    "description": "As a star have an orbiting life planet with 100 kills.",
    "icon": "https://steamcdn-a.akamaihd.net/steamcommunity/public/images/apps/97000/9f769af8876f898f6f9bfbe9084f9ce97bbf8a11.jpg",
    "icongray": "https://steamcdn-a.akamaihd.net/steamcommunity/public/images/apps/97000/113d6afb3df011a2ffada707ea3239e111c7c432.jpg"
  },
  {
    "name": "o_asteroidNursery",
    "defaultvalue": 0,
    "displayName": "Asteroid Nursery",
    "hidden": 0,
    "description": "Have 15 asteroid moons around your planet.",
    "icon": "https://steamcdn-a.akamaihd.net/steamcommunity/public/images/apps/97000/d0ab2f7b338ce59b8d4d3de681f67334134ad9a5.jpg",
    "icongray": "https://steamcdn-a.akamaihd.net/steamcommunity/public/images/apps/97000/8edbc610f939eec9ad1021639aa82459facc8c37.jpg"
  },
  {
    "name": "o_overCrowding",
    "defaultvalue": 0,
    "displayName": "Overcrowding",
    "hidden": 0,
    "description": "Get the maximum possible life in your system.",
    "icon": "https://steamcdn-a.akamaihd.net/steamcommunity/public/images/apps/97000/039f219ec79fd9aedbdc909f8865f823ed00ec5b.jpg",
    "icongray": "https://steamcdn-a.akamaihd.net/steamcommunity/public/images/apps/97000/e165f33696b2fa33325f4dcf54a4aa5825e0bd7b.jpg"
  },
  {
    "name": "o_superClock",
    "defaultvalue": 0,
    "displayName": "Super Clock",
    "hidden": 0,
    "description": "Get 10 planets in your system orbiting clockwise.",
    "icon": "https://steamcdn-a.akamaihd.net/steamcommunity/public/images/apps/97000/bc3a8cf1bab006c2664f26308bd8f6f822857240.jpg",
    "icongray": "https://steamcdn-a.akamaihd.net/steamcommunity/public/images/apps/97000/c9c90ce83d1f31a6ba3616794a212321c697b943.jpg"
  },
  {
    "name": "o_betrayal",
    "defaultvalue": 0,
    "displayName": "Betrayal",
    "hidden": 0,
    "description": "Grow to a black hole from a multi star system.",
    "icon": "https://steamcdn-a.akamaihd.net/steamcommunity/public/images/apps/97000/9f236fd96016fb694daba4b90139b8de39e718fd.jpg",
    "icongray": "https://steamcdn-a.akamaihd.net/steamcommunity/public/images/apps/97000/c07e8c1b82c17a14af7f132d183bcfecd841667b.jpg"
  },
  {
    "name": "o_flyingBlind",
    "defaultvalue": 0,
    "displayName": "Flying Blind",
    "hidden": 0,
    "description": "Go from a small black hole (<150k mass) to Big Crunch without the interface visible. ",
    "icon": "https://steamcdn-a.akamaihd.net/steamcommunity/public/images/apps/97000/d006a9d4e06d20c46754765ce9b874f97253e19f.jpg",
    "icongray": "https://steamcdn-a.akamaihd.net/steamcommunity/public/images/apps/97000/1902cccac32a4740e6428b22fe09dab4f1611d13.jpg"
  },
  {
    "name": "o_speedCycle",
    "defaultvalue": 0,
    "displayName": "Speed Cycle",
    "hidden": 0,
    "description": "Go from Big Bang to Big Crunch in under 20 minutes. No menu respawning. ",
    "icon": "https://steamcdn-a.akamaihd.net/steamcommunity/public/images/apps/97000/1fee28e36ce308480d534051db92f5b731015b3a.jpg",
    "icongray": "https://steamcdn-a.akamaihd.net/steamcommunity/public/images/apps/97000/54696d65a66c150f7f21d93d3afa7063042ae3fe.jpg"
  },
  {
    "name": "o_gentle",
    "defaultvalue": 0,
    "displayName": "Gentle But Firm",
    "hidden": 0,
    "description": "Complete the 2nd part of the \"Fine Art\" mission without dying and without evolved life on your planet. ",
    "icon": "https://steamcdn-a.akamaihd.net/steamcommunity/public/images/apps/97000/e0d05db91a9b324f93afbb189a3e86e62c5eb783.jpg",
    "icongray": "https://steamcdn-a.akamaihd.net/steamcommunity/public/images/apps/97000/3f75b319d0acc740b565e5a774ee44aa97470ce0.jpg"
  },
  {
    "name": "o_ninja",
    "defaultvalue": 0,
    "displayName": "Ninja",
    "hidden": 0,
    "description": "Complete each of the \"Assassin\" mission parts without dying.",
    "icon": "https://steamcdn-a.akamaihd.net/steamcommunity/public/images/apps/97000/50441a24e57d0f674fb4c4472e623f82dfe831ac.jpg",
    "icongray": "https://steamcdn-a.akamaihd.net/steamcommunity/public/images/apps/97000/5c04ad28d9a0bc29a1daa20e3c5675834c34eb64.jpg"
  },
  {
    "name": "o_iGotThis",
    "defaultvalue": 0,
    "displayName": "I Got This",
    "hidden": 0,
    "description": "Kill all the attacking ships in the first part of the \"Heist\" mission before completing it.",
    "icon": "https://steamcdn-a.akamaihd.net/steamcommunity/public/images/apps/97000/e04d7482d628de7e3bee67d90654f7aad1bd00d2.jpg",
    "icongray": "https://steamcdn-a.akamaihd.net/steamcommunity/public/images/apps/97000/35a16f6b58e54ade371ed9b4252e3b069e53ae96.jpg"
  },
  {
    "name": "o_hoboStar",
    "defaultvalue": 0,
    "displayName": "Hobo Star",
    "hidden": 0,
    "description": "Start the 3rd part of the \"Duel\" mission as a single star with no planets and beat it in under 3 minutes. ",
    "icon": "https://steamcdn-a.akamaihd.net/steamcommunity/public/images/apps/97000/c7250aa5919bcce0c4cb8bdb6b6c81e847dafa37.jpg",
    "icongray": "https://steamcdn-a.akamaihd.net/steamcommunity/public/images/apps/97000/a925294eaa50d5869830e76274840468ffa0861a.jpg"
  },
  {
    "name": "o_imLate",
    "defaultvalue": 0,
    "displayName": "I'm Late!",
    "hidden": 0,
    "description": "Complete the first part of the \"Concert\" mission in under 1 minute.",
    "icon": "https://steamcdn-a.akamaihd.net/steamcommunity/public/images/apps/97000/fd95182b335876b84f371116760524b787c70933.jpg",
    "icongray": "https://steamcdn-a.akamaihd.net/steamcommunity/public/images/apps/97000/befa318c7b57e49cef37f4552cb061694e593a1e.jpg"
  },
  {
    "name": "o_phantom",
    "defaultvalue": 0,
    "displayName": "Planetary Soloist",
    "hidden": 0,
    "description": "Complete the second part of the \"Concert\" mission with no evolved life on your planet.",
    "icon": "https://steamcdn-a.akamaihd.net/steamcommunity/public/images/apps/97000/2f5f21a5a5dce5c9a5c9f21badec114f46706dde.jpg",
    "icongray": "https://steamcdn-a.akamaihd.net/steamcommunity/public/images/apps/97000/aa47a28b1f6ef698b0c21590bcf5e994287a5de7.jpg"
  },
  {
    "name": "o_kitties",
    "defaultvalue": 0,
    "displayName": "Why did you kill me?",
    "hidden": 0,
    "description": "Why?",
    "icon": "https://steamcdn-a.akamaihd.net/steamcommunity/public/images/apps/97000/cb3b5f7b5d9e50e5285f1b3677f5fac1da0dcf12.jpg",
    "icongray": "https://steamcdn-a.akamaihd.net/steamcommunity/public/images/apps/97000/6e091f93d17ebd4b8ee26fe4684114036eced1df.jpg"
  },
  {
    "name": "o_lost",
    "defaultvalue": 0,
    "displayName": "Get Lost",
    "hidden": 0,
    "description": "Get Lost.",
    "icon": "https://steamcdn-a.akamaihd.net/steamcommunity/public/images/apps/97000/c5dede33358a12bdc5524ccc7edcab1a20a07560.jpg",
    "icongray": "https://steamcdn-a.akamaihd.net/steamcommunity/public/images/apps/97000/08a2f8a127283e62735adea5064dba6ec0e422d0.jpg"
  },
  {
    "name": "o_grindStar",
    "defaultvalue": 0,
    "displayName": "Grind Star",
    "hidden": 0,
    "description": "Make a 40 star system.",
    "icon": "https://steamcdn-a.akamaihd.net/steamcommunity/public/images/apps/97000/5861450b47f352f8e2440bd3a39cc5d5293c52ed.jpg",
    "icongray": "https://steamcdn-a.akamaihd.net/steamcommunity/public/images/apps/97000/bc22494b0b83033a3145659bf962db4eade71ed4.jpg"
  },
  {
    "name": "o_iDontSuck",
    "defaultvalue": 0,
    "displayName": "Dude, I Don't Suck!",
    "hidden": 0,
    "description": "Beat all the missions without using Physics or God options.",
    "icon": "https://steamcdn-a.akamaihd.net/steamcommunity/public/images/apps/97000/e1d1f422f28ca3465b99ae7680ae53d05c5d2e37.jpg",
    "icongray": "https://steamcdn-a.akamaihd.net/steamcommunity/public/images/apps/97000/cadf0b922fb9545c05ec0f4a7a0db355d28ee3db.jpg"
  },
  {
    "name": "o_darkChampion",
    "defaultvalue": 0,
    "displayName": "Dark Champion",
    "hidden": 0,
    "description": "Beat the final boss as a dark matter star without using Physics or God options.",
    "icon": "https://steamcdn-a.akamaihd.net/steamcommunity/public/images/apps/97000/18c5bd57dd67e4c59b99a0f4106b20f5145de9a7.jpg",
    "icongray": "https://steamcdn-a.akamaihd.net/steamcommunity/public/images/apps/97000/3acff84ff0ed11258af5bcfeeccc371d38a9f46d.jpg"
  },
  {
    "name": "o_masterThief",
    "defaultvalue": 0,
    "displayName": "Master Thief",
    "hidden": 0,
    "description": "Steal 10 planets on the \"Planet Stealer\" challenge mission.",
    "icon": "https://steamcdn-a.akamaihd.net/steamcommunity/public/images/apps/97000/6c15375c1b3bdba6d1a0cc6aa3da13e5c8193823.jpg",
    "icongray": "https://steamcdn-a.akamaihd.net/steamcommunity/public/images/apps/97000/0665860ef390edd89a6cc6e8b9ddcc9db5dceadf.jpg"
  },
  {
    "name": "o_challengeNovice",
    "defaultvalue": 0,
    "displayName": "Challenge Novice",
    "hidden": 0,
    "description": "Complete every challenge mission with any score.",
    "icon": "https://steamcdn-a.akamaihd.net/steamcommunity/public/images/apps/97000/c1910e15dff63e888baac7f2bb853474ed3758ad.jpg",
    "icongray": "https://steamcdn-a.akamaihd.net/steamcommunity/public/images/apps/97000/b6cfb570d13d9565b53613a36fc8d6a18abc34aa.jpg"
  },
  {
    "name": "o_challengePro",
    "defaultvalue": 0,
    "displayName": "Challenge Pro",
    "hidden": 0,
    "description": "Complete every challenge mission with a hard level score. ",
    "icon": "https://steamcdn-a.akamaihd.net/steamcommunity/public/images/apps/97000/8c79680e420498ec768748a18bc3b50527cb7028.jpg",
    "icongray": "https://steamcdn-a.akamaihd.net/steamcommunity/public/images/apps/97000/5613e3fc31b5f67a691aea2ec803d38bc1934066.jpg"
  },
  {
    "name": "o_snowFight",
    "defaultvalue": 0,
    "displayName": "Snowflake Star",
    "hidden": 0,
    "description": "Get 4 points in the star challenge mission \"Snowball Fight\".",
    "icon": "https://steamcdn-a.akamaihd.net/steamcommunity/public/images/apps/97000/cc2bb066264509e7be4491e7e8d289925b3535a7.jpg",
    "icongray": "https://steamcdn-a.akamaihd.net/steamcommunity/public/images/apps/97000/559e9b3bdeb1b8ec4df41a30fe8e6bf861fde50c.jpg"
  }
]