﻿{
  "Dlcs": {},
  "Name": "TAKEN",
  "AppId": "359160",
  "ImageUrl": "https://steamcdn-a.akamaihd.net/steam/apps/359160/header.jpg?t=1448926683",
  "Languages": [
    "english",
    "french",
    "italian",
    "german",
    "spanish",
    "greek",
    "japanese",
    "korean",
    "portuguese",
    "russian",
    "schinese"
  ],
  "Platforms": {
    "windows": true,
    "mac": true,
    "linux": true
  }
}