﻿{
  "Dlcs": {},
  "Name": "わがままアリスと百日戦争 -Brutal Alice and the Hundred Day's War-",
  "AppId": "738840",
  "ImageUrl": "https://steamcdn-a.akamaihd.net/steam/apps/738840/header.jpg?t=1584990483",
  "Languages": [
    "japanese",
    "schinese"
  ],
  "Platforms": {
    "windows": true,
    "mac": true,
    "linux": false
  }
}