﻿{
  "Dlcs": {},
  "Name": "Legacy of Kain: Defiance",
  "AppId": "224300",
  "ImageUrl": "https://steamcdn-a.akamaihd.net/steam/apps/224300/header.jpg?t=1592492274",
  "Languages": [
    "english"
  ],
  "Platforms": {
    "windows": true,
    "mac": false,
    "linux": false
  }
}