﻿{
  "Dlcs": {},
  "Name": "Soundscape VR",
  "AppId": "636930",
  "ImageUrl": "https://steamcdn-a.akamaihd.net/steam/apps/636930/header.jpg?t=1598995597",
  "Languages": [
    "english"
  ],
  "Platforms": {
    "windows": true,
    "mac": false,
    "linux": false
  }
}