﻿[
  {
    "name": "CAM_WIN",
    "defaultvalue": 0,
    "displayName": "New Adventurer",
    "hidden": 0,
    "description": "Win a battle in campaign",
    "icon": "https://steamcdn-a.akamaihd.net/steamcommunity/public/images/apps/381560/8ba43efd63960dc621e76c01e4d62d1864a5c991.jpg",
    "icongray": "https://steamcdn-a.akamaihd.net/steamcommunity/public/images/apps/381560/0db677f5200bfc64b37f387938f763fd1622dbd0.jpg"
  },
  {
    "name": "CAM_WIN_HARD",
    "defaultvalue": 0,
    "displayName": "I Like To Challenge",
    "hidden": 0,
    "description": "Complete a campaign quest in Hard difficulty",
    "icon": "https://steamcdn-a.akamaihd.net/steamcommunity/public/images/apps/381560/e22adb3b904df8f03e0b7578b7b1c19accad7692.jpg",
    "icongray": "https://steamcdn-a.akamaihd.net/steamcommunity/public/images/apps/381560/f107229f1aadfdeed07eeebbbab829ef1c1780b6.jpg"
  },
  {
    "name": "CAM_WIN_BOSS",
    "defaultvalue": 0,
    "displayName": "Defeat Boss",
    "hidden": 0,
    "description": "Complete a Boss campaign quest",
    "icon": "https://steamcdn-a.akamaihd.net/steamcommunity/public/images/apps/381560/f1ea9f34d064019eeebc5cd397c0be26eb6a1b86.jpg",
    "icongray": "https://steamcdn-a.akamaihd.net/steamcommunity/public/images/apps/381560/24b7ff8246f0fb5650611d168e5511ea1cdf3f92.jpg"
  },
  {
    "name": "CAM_WIN_STAR",
    "defaultvalue": 0,
    "displayName": "Stars Chaser",
    "hidden": 0,
    "description": "Achieved 100 stars in campaign",
    "icon": "https://steamcdn-a.akamaihd.net/steamcommunity/public/images/apps/381560/e27adeaba497cbe912ab022d5fb8f848d11a916d.jpg",
    "icongray": "https://steamcdn-a.akamaihd.net/steamcommunity/public/images/apps/381560/be648d714d2b3f1e6390807c6e4ca0d4f0ea186a.jpg"
  },
  {
    "name": "CAM_WIN_VIRGO",
    "defaultvalue": 0,
    "displayName": "VIRGO",
    "hidden": 0,
    "description": "Complete all campaign quests in Hard difficulty",
    "icon": "https://steamcdn-a.akamaihd.net/steamcommunity/public/images/apps/381560/b27c77743838048899dec9a3fffc06aa4f42fe61.jpg",
    "icongray": "https://steamcdn-a.akamaihd.net/steamcommunity/public/images/apps/381560/788aeaefa6e9e62709901de550437b3ff79d17cd.jpg"
  },
  {
    "name": "PVP_WIN",
    "defaultvalue": 0,
    "displayName": "First Blood",
    "hidden": 0,
    "description": "Win a battles in global match",
    "icon": "https://steamcdn-a.akamaihd.net/steamcommunity/public/images/apps/381560/ef9f6a8ca4144ced796b06fba88b3a6a858d71d1.jpg",
    "icongray": "https://steamcdn-a.akamaihd.net/steamcommunity/public/images/apps/381560/3d1542e8fba8009d1c0971d9f6d9db67a9eb8f2f.jpg"
  },
  {
    "name": "PVP_WIN_20",
    "defaultvalue": 0,
    "displayName": "PVP Novice",
    "hidden": 0,
    "description": "Win 20 battles in global match",
    "icon": "https://steamcdn-a.akamaihd.net/steamcommunity/public/images/apps/381560/e996da9aff47f402fd5df591dda7146543f0db1c.jpg",
    "icongray": "https://steamcdn-a.akamaihd.net/steamcommunity/public/images/apps/381560/7a505986bb354f35d59dce44db136fe487295967.jpg"
  },
  {
    "name": "PVP_WIN_100",
    "defaultvalue": 0,
    "displayName": "PVP Hobbyist",
    "hidden": 0,
    "description": "Win 100 battles in global match",
    "icon": "https://steamcdn-a.akamaihd.net/steamcommunity/public/images/apps/381560/0e19adfa0fe396b1cefba7f43c043e20cb53d21f.jpg",
    "icongray": "https://steamcdn-a.akamaihd.net/steamcommunity/public/images/apps/381560/a8418c4e5605f4880563d182a560eb6ce5f53c21.jpg"
  },
  {
    "name": "PVP_WIN_250",
    "defaultvalue": 0,
    "displayName": "PVP Expert",
    "hidden": 0,
    "description": "Win 250 battles in global match",
    "icon": "https://steamcdn-a.akamaihd.net/steamcommunity/public/images/apps/381560/8e5e49a32ec433783c78b05581591efe547b8769.jpg",
    "icongray": "https://steamcdn-a.akamaihd.net/steamcommunity/public/images/apps/381560/cb4fd8b76df9d49459eeca17d60e2225771f8292.jpg"
  },
  {
    "name": "PVP_WIN_500",
    "defaultvalue": 0,
    "displayName": "PVP Master",
    "hidden": 0,
    "description": "Win 500 battles in global match",
    "icon": "https://steamcdn-a.akamaihd.net/steamcommunity/public/images/apps/381560/81f20f802c2ca830fafe5dfc7882c43be8df0c3f.jpg",
    "icongray": "https://steamcdn-a.akamaihd.net/steamcommunity/public/images/apps/381560/c2a1ba5ff15f69b373574b6e919cd35e04cd3c91.jpg"
  },
  {
    "name": "PVP_WIN_QUICK",
    "defaultvalue": 0,
    "displayName": "Quick Mode Player",
    "hidden": 0,
    "description": "Win 5 battles in quick mode",
    "icon": "https://steamcdn-a.akamaihd.net/steamcommunity/public/images/apps/381560/6595eee0a893a6aa8238105c2afa2d5d09bcabad.jpg",
    "icongray": "https://steamcdn-a.akamaihd.net/steamcommunity/public/images/apps/381560/bdcb4766602dd620c5414155c597693058ca2287.jpg"
  },
  {
    "name": "PVP_WIN_PRO",
    "defaultvalue": 0,
    "displayName": "Pro Mode Player",
    "hidden": 0,
    "description": "Win 5 battles in pro mode",
    "icon": "https://steamcdn-a.akamaihd.net/steamcommunity/public/images/apps/381560/5e1c9c8c5a6cf2261d142d79f77bbd2c8914dedd.jpg",
    "icongray": "https://steamcdn-a.akamaihd.net/steamcommunity/public/images/apps/381560/604affe7abde855162b01618ca96d614d9b8f6f0.jpg"
  },
  {
    "name": "PVP_WIN_HARDCORE",
    "defaultvalue": 0,
    "displayName": "Hardcore Mode Player",
    "hidden": 0,
    "description": "Win 5 battles in hardcore mode",
    "icon": "https://steamcdn-a.akamaihd.net/steamcommunity/public/images/apps/381560/61b6b3496bd7a1b598221f0fa7c8008d76c4b264.jpg",
    "icongray": "https://steamcdn-a.akamaihd.net/steamcommunity/public/images/apps/381560/172ae2bb80d41fb0589cea2198903ab3f5f41584.jpg"
  },
  {
    "name": "CARD_10",
    "defaultvalue": 0,
    "displayName": "Small Pocket",
    "hidden": 0,
    "description": "Possess 10 distinct cards",
    "icon": "https://steamcdn-a.akamaihd.net/steamcommunity/public/images/apps/381560/9748a8ac6107628afc0aa3a479a12d94e022cfef.jpg",
    "icongray": "https://steamcdn-a.akamaihd.net/steamcommunity/public/images/apps/381560/05197bfd86dfa849d37573a12bf2b13a05faca70.jpg"
  },
  {
    "name": "CARD_20",
    "defaultvalue": 0,
    "displayName": "Large Pocket",
    "hidden": 0,
    "description": "Possess 20 distinct cards",
    "icon": "https://steamcdn-a.akamaihd.net/steamcommunity/public/images/apps/381560/eb23611f79d93fffa455cd8417c0f604c3e78249.jpg",
    "icongray": "https://steamcdn-a.akamaihd.net/steamcommunity/public/images/apps/381560/4400896b9b650b1798c5bdd235b2d344ade882c2.jpg"
  },
  {
    "name": "CARD_50",
    "defaultvalue": 0,
    "displayName": "Strategy Expert",
    "hidden": 0,
    "description": "Possess 50 distinct cards",
    "icon": "https://steamcdn-a.akamaihd.net/steamcommunity/public/images/apps/381560/ba3367abb9ae51e0d70d34860e63efab882df2c1.jpg",
    "icongray": "https://steamcdn-a.akamaihd.net/steamcommunity/public/images/apps/381560/7219b248958220944441fedddd1f34877b1ead17.jpg"
  },
  {
    "name": "CARD_100",
    "defaultvalue": 0,
    "displayName": "Strategy Master",
    "hidden": 0,
    "description": "Possess 100 distinct cards",
    "icon": "https://steamcdn-a.akamaihd.net/steamcommunity/public/images/apps/381560/01b6975bf86643b2031fd17ae0b39d745cca7963.jpg",
    "icongray": "https://steamcdn-a.akamaihd.net/steamcommunity/public/images/apps/381560/a6e5da9d12f73be24f9adf489d48341408205204.jpg"
  },
  {
    "name": "CARD_ENHANCE_5",
    "defaultvalue": 0,
    "displayName": "Decent Deck",
    "hidden": 0,
    "description": "Reach 5% of enhancing rate",
    "icon": "https://steamcdn-a.akamaihd.net/steamcommunity/public/images/apps/381560/597a7d665bb1631fd910cc376991f33881693dec.jpg",
    "icongray": "https://steamcdn-a.akamaihd.net/steamcommunity/public/images/apps/381560/b436f5e4b531e9948da739b8625689dc0f8ed118.jpg"
  },
  {
    "name": "CARD_ENHANCE_20",
    "defaultvalue": 0,
    "displayName": "Powerful",
    "hidden": 0,
    "description": "Reach 15% of enhancing rate",
    "icon": "https://steamcdn-a.akamaihd.net/steamcommunity/public/images/apps/381560/a314302549a31d74f508645dd35b21e100302cee.jpg",
    "icongray": "https://steamcdn-a.akamaihd.net/steamcommunity/public/images/apps/381560/bf5b07668f1d6da6dc5a37da82ac00372f804968.jpg"
  },
  {
    "name": "CARD_ENHANCE_50",
    "defaultvalue": 0,
    "displayName": "Unstoppable",
    "hidden": 0,
    "description": "Reach 30% of enhancing rate",
    "icon": "https://steamcdn-a.akamaihd.net/steamcommunity/public/images/apps/381560/36b9cce0a392f58a17f55a2e78a3c097d2b5a858.jpg",
    "icongray": "https://steamcdn-a.akamaihd.net/steamcommunity/public/images/apps/381560/db87a8fedc7b6247587dbf73f25233efa45ebf6f.jpg"
  },
  {
    "name": "MISC_FRIEND",
    "defaultvalue": 0,
    "displayName": "New Buddy",
    "hidden": 0,
    "description": "Add a friend",
    "icon": "https://steamcdn-a.akamaihd.net/steamcommunity/public/images/apps/381560/a7a017d9c12fd3a110a62b8277ce40a9253362b0.jpg",
    "icongray": "https://steamcdn-a.akamaihd.net/steamcommunity/public/images/apps/381560/184970dbb2dbecdf3512994448e9fa2b0becaffb.jpg"
  },
  {
    "name": "MISC_GUILD",
    "defaultvalue": 0,
    "displayName": "For Glory",
    "hidden": 0,
    "description": "Join a guild",
    "icon": "https://steamcdn-a.akamaihd.net/steamcommunity/public/images/apps/381560/ef7e15ea207f0b2f91db48153cd6b4a1b1eddada.jpg",
    "icongray": "https://steamcdn-a.akamaihd.net/steamcommunity/public/images/apps/381560/fe2660d4b0357bbe6749b0f4a8153604b35513d7.jpg"
  },
  {
    "name": "MISC_ENHANCER",
    "defaultvalue": 0,
    "displayName": "Card Enhancer",
    "hidden": 0,
    "description": "Enhance a card to level 10",
    "icon": "https://steamcdn-a.akamaihd.net/steamcommunity/public/images/apps/381560/af32143dc99e552ded15b7e5081ba89c8ca14a76.jpg",
    "icongray": "https://steamcdn-a.akamaihd.net/steamcommunity/public/images/apps/381560/3f9727b3f1545b596e5575c8a9d8d33776b6e085.jpg"
  },
  {
    "name": "MISC_EVOLVER",
    "defaultvalue": 0,
    "displayName": "Card Evolver",
    "hidden": 0,
    "description": "Evolve a card",
    "icon": "https://steamcdn-a.akamaihd.net/steamcommunity/public/images/apps/381560/f5c3a3869b5a806db030c883a05b5113fec17581.jpg",
    "icongray": "https://steamcdn-a.akamaihd.net/steamcommunity/public/images/apps/381560/f74ff1b50883577f44834ccfa9ea2ce283faf46a.jpg"
  },
  {
    "name": "MISC_LEARNER",
    "defaultvalue": 0,
    "displayName": "Fast Learner",
    "hidden": 0,
    "description": "Complete all lessons in academy",
    "icon": "https://steamcdn-a.akamaihd.net/steamcommunity/public/images/apps/381560/0f29b089ea1380e861d2f91c4e94a7a77d3a4cc8.jpg",
    "icongray": "https://steamcdn-a.akamaihd.net/steamcommunity/public/images/apps/381560/45c08a2f6344a0f9c05b2dd4334f4927a33821cd.jpg"
  },
  {
    "name": "MISC_COLLECTOR",
    "defaultvalue": 0,
    "displayName": "Collector",
    "hidden": 0,
    "description": "Unlocks 50 arts in gallery",
    "icon": "https://steamcdn-a.akamaihd.net/steamcommunity/public/images/apps/381560/e7c78f0a1e2ca48e5cd69bbd0b4ce769069fe7b6.jpg",
    "icongray": "https://steamcdn-a.akamaihd.net/steamcommunity/public/images/apps/381560/2da1cdf8a1b95fe549e08221a45b22778a111f4e.jpg"
  },
  {
    "name": "LEVEL_5",
    "defaultvalue": 0,
    "displayName": "Apprentice",
    "hidden": 0,
    "description": "Reach Level 5",
    "icon": "https://steamcdn-a.akamaihd.net/steamcommunity/public/images/apps/381560/aff128a3fcb188bb08d0281293969435ea1dccc4.jpg",
    "icongray": "https://steamcdn-a.akamaihd.net/steamcommunity/public/images/apps/381560/79c20e5ca4a8af5135200cdfc16ed516f173ab63.jpg"
  },
  {
    "name": "LEVEL_10",
    "defaultvalue": 0,
    "displayName": "Apprentice Summoner",
    "hidden": 0,
    "description": "Reach Level 10",
    "icon": "https://steamcdn-a.akamaihd.net/steamcommunity/public/images/apps/381560/c30388953c69fe3baf39864dc2106b734028f266.jpg",
    "icongray": "https://steamcdn-a.akamaihd.net/steamcommunity/public/images/apps/381560/fcd3214c8f23f64fb3ee4ae2623441aa88632969.jpg"
  },
  {
    "name": "LEVEL_15",
    "defaultvalue": 0,
    "displayName": "Junior Summoner[3rd class]",
    "hidden": 0,
    "description": "Reach Level 15",
    "icon": "https://steamcdn-a.akamaihd.net/steamcommunity/public/images/apps/381560/61e7c78e6208e3ec0cde013b97860c1e7aadb9ce.jpg",
    "icongray": "https://steamcdn-a.akamaihd.net/steamcommunity/public/images/apps/381560/82d1baa6f3f0489da1ee8e15fcc32b0d7da64442.jpg"
  },
  {
    "name": "LEVEL_20",
    "defaultvalue": 0,
    "displayName": "Junior Summoner[2nd class]",
    "hidden": 0,
    "description": "Reach Level 20",
    "icon": "https://steamcdn-a.akamaihd.net/steamcommunity/public/images/apps/381560/676f135ff6bdaef44fcfadeae723ef257d18b47c.jpg",
    "icongray": "https://steamcdn-a.akamaihd.net/steamcommunity/public/images/apps/381560/6c4b870dbad57bfb29969a6d451b5732b807e42e.jpg"
  },
  {
    "name": "LEVEL_25",
    "defaultvalue": 0,
    "displayName": "Junior Summoner[1st class]",
    "hidden": 0,
    "description": "Reach Level 25",
    "icon": "https://steamcdn-a.akamaihd.net/steamcommunity/public/images/apps/381560/42f3107139606ade20e42ef686189a07c7478804.jpg",
    "icongray": "https://steamcdn-a.akamaihd.net/steamcommunity/public/images/apps/381560/f95dbd9168d6d98d289c3f5056256358fb5b0cc8.jpg"
  },
  {
    "name": "LEVEL_30",
    "defaultvalue": 0,
    "displayName": "The Summoner[3rd class]",
    "hidden": 0,
    "description": "Reach Level 30",
    "icon": "https://steamcdn-a.akamaihd.net/steamcommunity/public/images/apps/381560/f7a179dca9b098558e03dffc2437ab9cfe95702e.jpg",
    "icongray": "https://steamcdn-a.akamaihd.net/steamcommunity/public/images/apps/381560/e99b7db728c8dc0d60a297945894b63973f91126.jpg"
  },
  {
    "name": "LEVEL_35",
    "defaultvalue": 0,
    "displayName": "The Summoner[2nd class]",
    "hidden": 0,
    "description": "Reach Level 35",
    "icon": "https://steamcdn-a.akamaihd.net/steamcommunity/public/images/apps/381560/a217c8fad799d4fe56ed452721cb6cca09385a2a.jpg",
    "icongray": "https://steamcdn-a.akamaihd.net/steamcommunity/public/images/apps/381560/f0a4ec85bae591673a6b877aaea7e36dc17b9f67.jpg"
  },
  {
    "name": "LEVEL_40",
    "defaultvalue": 0,
    "displayName": "The Summoner[1st class]",
    "hidden": 0,
    "description": "Reach Level 40",
    "icon": "https://steamcdn-a.akamaihd.net/steamcommunity/public/images/apps/381560/f1e2107f5d2f370efb3ae956e3b39af69497cabd.jpg",
    "icongray": "https://steamcdn-a.akamaihd.net/steamcommunity/public/images/apps/381560/9d871bea6b6cc462185e973d01107de6ff88212d.jpg"
  },
  {
    "name": "LEVEL_45",
    "defaultvalue": 0,
    "displayName": "High Summoner [3rd class]",
    "hidden": 0,
    "description": "Reach Level 45",
    "icon": "https://steamcdn-a.akamaihd.net/steamcommunity/public/images/apps/381560/91954162ed378f1a301ab9760b932f86964dd2ca.jpg",
    "icongray": "https://steamcdn-a.akamaihd.net/steamcommunity/public/images/apps/381560/de50ddb54af7cd53b59d3c0330c4ca79da5fd0e7.jpg"
  },
  {
    "name": "LEVEL_50",
    "defaultvalue": 0,
    "displayName": "High Summoner [2nd class]",
    "hidden": 0,
    "description": "Reach Level 50",
    "icon": "https://steamcdn-a.akamaihd.net/steamcommunity/public/images/apps/381560/da0d88045228dcc784f35165a2de631870ee23c5.jpg",
    "icongray": "https://steamcdn-a.akamaihd.net/steamcommunity/public/images/apps/381560/eae76cda1ebda9d94b554d8fcf35196789166760.jpg"
  },
  {
    "name": "LEVEL_55",
    "defaultvalue": 0,
    "displayName": "High Summoner [1st class]",
    "hidden": 0,
    "description": "Reach Level 55",
    "icon": "https://steamcdn-a.akamaihd.net/steamcommunity/public/images/apps/381560/9ee29d911cc74b06ea95d6d653dd96530bebc3cb.jpg",
    "icongray": "https://steamcdn-a.akamaihd.net/steamcommunity/public/images/apps/381560/599b65acb984a179bd7fccc7a9d6ed5955078382.jpg"
  },
  {
    "name": "LEVEL_60",
    "defaultvalue": 0,
    "displayName": "Summoner Master",
    "hidden": 0,
    "description": "Reach Level 60",
    "icon": "https://steamcdn-a.akamaihd.net/steamcommunity/public/images/apps/381560/4fcb22b0352604a9d04bb9f4b727fd0dcdc187e7.jpg",
    "icongray": "https://steamcdn-a.akamaihd.net/steamcommunity/public/images/apps/381560/a0b1cfff4d624dfd9df3e96254d00c38b3aafb9f.jpg"
  },
  {
    "name": "LEVEL_65",
    "defaultvalue": 0,
    "displayName": "Legendary Summoner",
    "hidden": 0,
    "description": "Reach Level 65",
    "icon": "https://steamcdn-a.akamaihd.net/steamcommunity/public/images/apps/381560/a29bfc591c6ed7bade23683edc12d8ae7422dd09.jpg",
    "icongray": "https://steamcdn-a.akamaihd.net/steamcommunity/public/images/apps/381560/b5274a8548fcc30871302771bc01f365e42e7dd6.jpg"
  },
  {
    "name": "LEVEL_70",
    "defaultvalue": 0,
    "displayName": "Epic Summoner",
    "hidden": 0,
    "description": "Reach Level 70",
    "icon": "https://steamcdn-a.akamaihd.net/steamcommunity/public/images/apps/381560/4dfb37645a4b667023ef484efd7ddeb23e022205.jpg",
    "icongray": "https://steamcdn-a.akamaihd.net/steamcommunity/public/images/apps/381560/f31b47382703bbdeb821c1b574bba5d954841b91.jpg"
  },
  {
    "name": "ACTION_CHAT",
    "defaultvalue": 0,
    "displayName": "Hello World",
    "hidden": 0,
    "description": "Send a chat message",
    "icon": "https://steamcdn-a.akamaihd.net/steamcommunity/public/images/apps/381560/f9b285d4aaee5c2ef034603f409233911f59a710.jpg",
    "icongray": "https://steamcdn-a.akamaihd.net/steamcommunity/public/images/apps/381560/50af44df9d3a86c54e7e41641e11d60bd4c092be.jpg"
  },
  {
    "name": "ACTION_MISSION",
    "defaultvalue": 0,
    "displayName": "Mission Complete",
    "hidden": 0,
    "description": "Complete a daily mission",
    "icon": "https://steamcdn-a.akamaihd.net/steamcommunity/public/images/apps/381560/054227c93f6d85105f45d7f1669ae4b1089b6bac.jpg",
    "icongray": "https://steamcdn-a.akamaihd.net/steamcommunity/public/images/apps/381560/9a09d42ca8f2db9ebf707893dc203df05d7c7c0d.jpg"
  },
  {
    "name": "ACTION_SHOPPER",
    "defaultvalue": 0,
    "displayName": "Shopper",
    "hidden": 0,
    "description": "Buy any item in shop",
    "icon": "https://steamcdn-a.akamaihd.net/steamcommunity/public/images/apps/381560/455d7237830dad226df19d2d730a20025b69cef3.jpg",
    "icongray": "https://steamcdn-a.akamaihd.net/steamcommunity/public/images/apps/381560/ae9a5ba854b778b118ba6e1af97861728aa0ce0b.jpg"
  },
  {
    "name": "ACTION_CRAFTER",
    "defaultvalue": 0,
    "displayName": "Card Crafter",
    "hidden": 0,
    "description": "Craft a new card successfully",
    "icon": "https://steamcdn-a.akamaihd.net/steamcommunity/public/images/apps/381560/f1f2ed9b61a0f5cd05cc6bd98cd4e53daaadace1.jpg",
    "icongray": "https://steamcdn-a.akamaihd.net/steamcommunity/public/images/apps/381560/4b983fd397554a315ef4694bbd699e5b1b18584c.jpg"
  },
  {
    "name": "ACTION_REPLAY",
    "defaultvalue": 0,
    "displayName": "Researcher",
    "hidden": 0,
    "description": "Watch a battle replay of your own",
    "icon": "https://steamcdn-a.akamaihd.net/steamcommunity/public/images/apps/381560/474f3e422796a4051fb2546c3b5b4e2c49097ab6.jpg",
    "icongray": "https://steamcdn-a.akamaihd.net/steamcommunity/public/images/apps/381560/586a6df90ad128b6a75e3cc12a56dc989b54a55c.jpg"
  },
  {
    "name": "ACTION_LIVE_REPLAY",
    "defaultvalue": 0,
    "displayName": "Observer",
    "hidden": 0,
    "description": "Watch a live battle between other players",
    "icon": "https://steamcdn-a.akamaihd.net/steamcommunity/public/images/apps/381560/dcb1aaa3d04c291ca9ab394da06085c1b90710fc.jpg",
    "icongray": "https://steamcdn-a.akamaihd.net/steamcommunity/public/images/apps/381560/1fc08041fa869f71de534327877e7753cb36201d.jpg"
  },
  {
    "name": "ACTION_RESULT_EXTINCTION",
    "defaultvalue": 0,
    "displayName": "Lucky",
    "hidden": 0,
    "description": "Win a global match under condition \"Extinction\"",
    "icon": "https://steamcdn-a.akamaihd.net/steamcommunity/public/images/apps/381560/d343c42ec99128162b6d6e1915e88a6005ced397.jpg",
    "icongray": "https://steamcdn-a.akamaihd.net/steamcommunity/public/images/apps/381560/dc4038916dfc01d7bed516148b3eaccd21c364f9.jpg"
  },
  {
    "name": "ACTION_RESULT_OVERTIME",
    "defaultvalue": 0,
    "displayName": "Patience",
    "hidden": 0,
    "description": "Win a global match under condition \"Time Out\"",
    "icon": "https://steamcdn-a.akamaihd.net/steamcommunity/public/images/apps/381560/352feb41f91932f25768c9bd9efc89f3ac45b91d.jpg",
    "icongray": "https://steamcdn-a.akamaihd.net/steamcommunity/public/images/apps/381560/75e3f966c32e44ba651ab46932d0eea346d99d4d.jpg"
  },
  {
    "name": "ACTION_LADDER",
    "defaultvalue": 0,
    "displayName": "Good Start",
    "hidden": 0,
    "description": "Win a Ladder battle",
    "icon": "https://steamcdn-a.akamaihd.net/steamcommunity/public/images/apps/381560/898007f700202f8ab73f856671d935ee5f25bb19.jpg",
    "icongray": "https://steamcdn-a.akamaihd.net/steamcommunity/public/images/apps/381560/4465b7dc53dac46bdde5894543fc57493b211a6d.jpg"
  },
  {
    "name": "ACTION_LADDER_100",
    "defaultvalue": 0,
    "displayName": "Cyber Athlete",
    "hidden": 0,
    "description": "Ranked in Ladder TOP 100 and get rewards",
    "icon": "https://steamcdn-a.akamaihd.net/steamcommunity/public/images/apps/381560/ef81298cc7a65bfa59b02c79ff74b871896be68f.jpg",
    "icongray": "https://steamcdn-a.akamaihd.net/steamcommunity/public/images/apps/381560/2fa7d1f0da87a0c28eac06c7f27a0d051ac51804.jpg"
  }
]