﻿[
  {
    "name": "ACH_FOUNDED_HQ",
    "defaultvalue": 0,
    "displayName": "Founded HQ",
    "hidden": 0,
    "description": "Complete the tutorial",
    "icon": "https://steamcdn-a.akamaihd.net/steamcommunity/public/images/apps/446150/0fcfd0209536fa34901c3aaea97c837a6791930c.jpg",
    "icongray": "https://steamcdn-a.akamaihd.net/steamcommunity/public/images/apps/446150/873e463e20b4d94ef25119f0125c3543dcd8ffcb.jpg"
  },
  {
    "name": "ACH_TOUCH_OF_STYLE",
    "defaultvalue": 0,
    "displayName": "Touch of Style",
    "hidden": 0,
    "description": "Customize your troops",
    "icon": "https://steamcdn-a.akamaihd.net/steamcommunity/public/images/apps/446150/5c4af49c8d061b63a3fa52233617fe13a2765792.jpg",
    "icongray": "https://steamcdn-a.akamaihd.net/steamcommunity/public/images/apps/446150/873e463e20b4d94ef25119f0125c3543dcd8ffcb.jpg"
  },
  {
    "name": "ACH_SEEK_AND_DESTROY",
    "defaultvalue": 0,
    "displayName": "Seek and Destroy",
    "hidden": 0,
    "description": "Win 25 PVP attacks",
    "icon": "https://steamcdn-a.akamaihd.net/steamcommunity/public/images/apps/446150/4f20afd5d2f6b35f59bb014d3d297ea223d8866b.jpg",
    "icongray": "https://steamcdn-a.akamaihd.net/steamcommunity/public/images/apps/446150/873e463e20b4d94ef25119f0125c3543dcd8ffcb.jpg"
  },
  {
    "name": "ACH_D_FENCE",
    "defaultvalue": 0,
    "displayName": "D-Fence",
    "hidden": 0,
    "description": "Last 6 minutes in CPU Defend",
    "icon": "https://steamcdn-a.akamaihd.net/steamcommunity/public/images/apps/446150/ad4845c3a1d3cad6334b2925495a3486d29ac747.jpg",
    "icongray": "https://steamcdn-a.akamaihd.net/steamcommunity/public/images/apps/446150/873e463e20b4d94ef25119f0125c3543dcd8ffcb.jpg"
  },
  {
    "name": "ACH_LIGHT_EM_UP",
    "defaultvalue": 0,
    "displayName": "Light 'em Up",
    "hidden": 0,
    "description": "Attack and get 10 Monster kills or better",
    "icon": "https://steamcdn-a.akamaihd.net/steamcommunity/public/images/apps/446150/c950851b0d1cac01957c219f7a8f4bf1a38c8181.jpg",
    "icongray": "https://steamcdn-a.akamaihd.net/steamcommunity/public/images/apps/446150/873e463e20b4d94ef25119f0125c3543dcd8ffcb.jpg"
  },
  {
    "name": "ACH_PERKY",
    "defaultvalue": 0,
    "displayName": "Perky",
    "hidden": 0,
    "description": "Assign 2 perks to 1 Unit",
    "icon": "https://steamcdn-a.akamaihd.net/steamcommunity/public/images/apps/446150/737b3746036718468c6f4f467b73474d5ba60a71.jpg",
    "icongray": "https://steamcdn-a.akamaihd.net/steamcommunity/public/images/apps/446150/873e463e20b4d94ef25119f0125c3543dcd8ffcb.jpg"
  },
  {
    "name": "ACH_RED_SKULL_CRUSHER",
    "defaultvalue": 0,
    "displayName": "Red Skull Crusher",
    "hidden": 0,
    "description": "Win an attack against a nightmare opponent (red skulls)",
    "icon": "https://steamcdn-a.akamaihd.net/steamcommunity/public/images/apps/446150/5f635c9d246c7872cc8ed1468a76302debb5ef36.jpg",
    "icongray": "https://steamcdn-a.akamaihd.net/steamcommunity/public/images/apps/446150/873e463e20b4d94ef25119f0125c3543dcd8ffcb.jpg"
  },
  {
    "name": "ACH_GONE_STREAKING",
    "defaultvalue": 0,
    "displayName": "Gone Streaking",
    "hidden": 0,
    "description": "Win 10 attacks in a row",
    "icon": "https://steamcdn-a.akamaihd.net/steamcommunity/public/images/apps/446150/3951b66cce53d79ae2689704bb29487f334fb9b2.jpg",
    "icongray": "https://steamcdn-a.akamaihd.net/steamcommunity/public/images/apps/446150/873e463e20b4d94ef25119f0125c3543dcd8ffcb.jpg"
  },
  {
    "name": "ACH_LOCKED_N_LOADED",
    "defaultvalue": 0,
    "displayName": "Locked n' Loaded",
    "hidden": 0,
    "description": "Use 50 attack cards",
    "icon": "https://steamcdn-a.akamaihd.net/steamcommunity/public/images/apps/446150/ead3d39c341116be6c5a69ea596bb78065ede523.jpg",
    "icongray": "https://steamcdn-a.akamaihd.net/steamcommunity/public/images/apps/446150/873e463e20b4d94ef25119f0125c3543dcd8ffcb.jpg"
  },
  {
    "name": "ACH_LEADER_OF_THE_PACK",
    "defaultvalue": 0,
    "displayName": "Leader of the Pack",
    "hidden": 0,
    "description": "Open an Epic Card Pack",
    "icon": "https://steamcdn-a.akamaihd.net/steamcommunity/public/images/apps/446150/17b3e6446140536fddf207782447b6e12e07927f.jpg",
    "icongray": "https://steamcdn-a.akamaihd.net/steamcommunity/public/images/apps/446150/873e463e20b4d94ef25119f0125c3543dcd8ffcb.jpg"
  },
  {
    "name": "ACH_TOP_BRASS",
    "defaultvalue": 0,
    "displayName": "Top Brass",
    "hidden": 0,
    "description": "Fully rank up 3 units",
    "icon": "https://steamcdn-a.akamaihd.net/steamcommunity/public/images/apps/446150/178e0fa068021f8f024a03e317c17215d6f3a66d.jpg",
    "icongray": "https://steamcdn-a.akamaihd.net/steamcommunity/public/images/apps/446150/873e463e20b4d94ef25119f0125c3543dcd8ffcb.jpg"
  },
  {
    "name": "ACH_CLIMBING_THE_RANKS",
    "defaultvalue": 0,
    "displayName": "Climbing the Ranks",
    "hidden": 0,
    "description": "Reach level 25",
    "icon": "https://steamcdn-a.akamaihd.net/steamcommunity/public/images/apps/446150/457e45eeb5830cc8edf6e721fd369f678b8b35ef.jpg",
    "icongray": "https://steamcdn-a.akamaihd.net/steamcommunity/public/images/apps/446150/873e463e20b4d94ef25119f0125c3543dcd8ffcb.jpg"
  },
  {
    "name": "ACH_BEST_BUDS",
    "defaultvalue": 0,
    "displayName": "Best Buds",
    "hidden": 0,
    "description": "Attack 3 friends",
    "icon": "https://steamcdn-a.akamaihd.net/steamcommunity/public/images/apps/446150/a94fbebc6ead2fcbc3b727f9d2ee6425d40e8490.jpg",
    "icongray": "https://steamcdn-a.akamaihd.net/steamcommunity/public/images/apps/446150/873e463e20b4d94ef25119f0125c3543dcd8ffcb.jpg"
  },
  {
    "name": "ACH_DEDICATED",
    "defaultvalue": 0,
    "displayName": "Dedicated",
    "hidden": 0,
    "description": "Collect 3 daily rations",
    "icon": "https://steamcdn-a.akamaihd.net/steamcommunity/public/images/apps/446150/cb4d63818a7b32e1fab15fd67520d3164b64036b.jpg",
    "icongray": "https://steamcdn-a.akamaihd.net/steamcommunity/public/images/apps/446150/873e463e20b4d94ef25119f0125c3543dcd8ffcb.jpg"
  },
  {
    "name": "ACH_PURPLE_SPLENDOR",
    "defaultvalue": 0,
    "displayName": "Purple Splendor",
    "hidden": 0,
    "description": "Obtain a Legendary card from PVP rewards or card pack",
    "icon": "https://steamcdn-a.akamaihd.net/steamcommunity/public/images/apps/446150/6c095114baace0cd0f8e2974be96008a0d64d58b.jpg",
    "icongray": "https://steamcdn-a.akamaihd.net/steamcommunity/public/images/apps/446150/873e463e20b4d94ef25119f0125c3543dcd8ffcb.jpg"
  },
  {
    "name": "ACH_GET_BACKUP",
    "defaultvalue": 0,
    "displayName": "Get Backup",
    "hidden": 0,
    "description": "Earn 4 or more Veterans in a single battle",
    "icon": "https://steamcdn-a.akamaihd.net/steamcommunity/public/images/apps/446150/3d3d24985bd1fc2f3db066a43558afa266b360b9.jpg",
    "icongray": "https://steamcdn-a.akamaihd.net/steamcommunity/public/images/apps/446150/873e463e20b4d94ef25119f0125c3543dcd8ffcb.jpg"
  },
  {
    "name": "ACH_WELL_ROUNDED",
    "defaultvalue": 0,
    "displayName": "Well Rounded",
    "hidden": 0,
    "description": "Spawn 5 different Veteran unit types in battle",
    "icon": "https://steamcdn-a.akamaihd.net/steamcommunity/public/images/apps/446150/b15439a57f15d66b679bb66300aa6e32436f3a26.jpg",
    "icongray": "https://steamcdn-a.akamaihd.net/steamcommunity/public/images/apps/446150/873e463e20b4d94ef25119f0125c3543dcd8ffcb.jpg"
  },
  {
    "name": "ACH_RESOURCEFUL",
    "defaultvalue": 0,
    "displayName": "Resourceful",
    "hidden": 0,
    "description": "Play one more than your daily Alliance Battle limit",
    "icon": "https://steamcdn-a.akamaihd.net/steamcommunity/public/images/apps/446150/90f85f1e1512222b62642cd5133f36a426b5df16.jpg",
    "icongray": "https://steamcdn-a.akamaihd.net/steamcommunity/public/images/apps/446150/873e463e20b4d94ef25119f0125c3543dcd8ffcb.jpg"
  },
  {
    "name": "ACH_BADGE_OF_HONOR",
    "defaultvalue": 0,
    "displayName": "Badge of Honor",
    "hidden": 0,
    "description": "Be in an Alliance that receives a badge at the end of an Alliance Battle Season",
    "icon": "https://steamcdn-a.akamaihd.net/steamcommunity/public/images/apps/446150/810a8b7ae0b9d0b550300a90ac50c0d696dacb4f.jpg",
    "icongray": "https://steamcdn-a.akamaihd.net/steamcommunity/public/images/apps/446150/873e463e20b4d94ef25119f0125c3543dcd8ffcb.jpg"
  },
  {
    "name": "ACH_IMPACT_RESISTANT",
    "defaultvalue": 0,
    "displayName": "Impact Resistant",
    "hidden": 0,
    "description": "Obtain a Level 7 Wall",
    "icon": "https://steamcdn-a.akamaihd.net/steamcommunity/public/images/apps/446150/91b98379cfd347be196178147681ca091f28a01b.jpg",
    "icongray": "https://steamcdn-a.akamaihd.net/steamcommunity/public/images/apps/446150/873e463e20b4d94ef25119f0125c3543dcd8ffcb.jpg"
  },
  {
    "name": "ACH_TEAM_PLAYER",
    "defaultvalue": 0,
    "displayName": "Team Player",
    "hidden": 0,
    "description": "Earn 300 Alliance Points in a Season",
    "icon": "https://steamcdn-a.akamaihd.net/steamcommunity/public/images/apps/446150/2ee1d486a91d37e1127b2cd169e732fbfb7cea5c.jpg",
    "icongray": "https://steamcdn-a.akamaihd.net/steamcommunity/public/images/apps/446150/873e463e20b4d94ef25119f0125c3543dcd8ffcb.jpg"
  }
]