﻿[
  {
    "name": "gamesPlayed",
    "defaultvalue": 0,
    "displayName": ""
  },
  {
    "name": "gamesWonAsAsian",
    "defaultvalue": 0,
    "displayName": ""
  },
  {
    "name": "gamesWonAsAztec",
    "defaultvalue": 0,
    "displayName": ""
  },
  {
    "name": "gamesWonAsViking",
    "defaultvalue": 0,
    "displayName": ""
  },
  {
    "name": "rankingScore",
    "defaultvalue": 1000,
    "displayName": ""
  },
  {
    "name": "totalGameTime",
    "defaultvalue": 0,
    "displayName": ""
  },
  {
    "name": "minGameTime",
    "defaultvalue": 1215752192,
    "displayName": ""
  },
  {
    "name": "maxGameTime",
    "defaultvalue": 0,
    "displayName": ""
  },
  {
    "name": "vikingWinViking",
    "defaultvalue": 0,
    "displayName": ""
  },
  {
    "name": "vikingWinAztec",
    "defaultvalue": 0,
    "displayName": ""
  },
  {
    "name": "vikingWinAsian",
    "defaultvalue": 0,
    "displayName": ""
  },
  {
    "name": "asianWinViking",
    "defaultvalue": 0,
    "displayName": ""
  },
  {
    "name": "asianWinAsian",
    "defaultvalue": 0,
    "displayName": ""
  },
  {
    "name": "asianWinAztec",
    "defaultvalue": 0,
    "displayName": ""
  },
  {
    "name": "aztecWinViking",
    "defaultvalue": 0,
    "displayName": ""
  },
  {
    "name": "aztecWinAsian",
    "defaultvalue": 0,
    "displayName": ""
  },
  {
    "name": "aztecWinAztec",
    "defaultvalue": 0,
    "displayName": ""
  },
  {
    "name": "spellVikingHeal",
    "defaultvalue": 0,
    "displayName": ""
  },
  {
    "name": "spellVikingLightning",
    "defaultvalue": 0,
    "displayName": ""
  },
  {
    "name": "spellVikingRage",
    "defaultvalue": 0,
    "displayName": ""
  },
  {
    "name": "spellVikingSnowstorm",
    "defaultvalue": 0,
    "displayName": ""
  },
  {
    "name": "spellVikingHammerOfThor",
    "defaultvalue": 0,
    "displayName": ""
  },
  {
    "name": "spellAztecSacrifice",
    "defaultvalue": 0,
    "displayName": ""
  },
  {
    "name": "spellAztecCagetrag",
    "defaultvalue": 0,
    "displayName": ""
  },
  {
    "name": "spellAztecPoisoncloud",
    "defaultvalue": 0,
    "displayName": ""
  },
  {
    "name": "spellAztecMindcontrol",
    "defaultvalue": 0,
    "displayName": ""
  },
  {
    "name": "spellAztecBoulder",
    "defaultvalue": 0,
    "displayName": ""
  },
  {
    "name": "spellAsianTerracotta",
    "defaultvalue": 0,
    "displayName": ""
  },
  {
    "name": "spellAsianInvulnerability",
    "defaultvalue": 0,
    "displayName": ""
  },
  {
    "name": "spellAsianYinyang",
    "defaultvalue": 0,
    "displayName": ""
  },
  {
    "name": "spellAsianArrowrain",
    "defaultvalue": 0,
    "displayName": ""
  },
  {
    "name": "spellAsianDragon",
    "defaultvalue": 0,
    "displayName": ""
  },
  {
    "name": "unitVikingWorker",
    "defaultvalue": 0,
    "displayName": ""
  },
  {
    "name": "unitVikingMelee",
    "defaultvalue": 0,
    "displayName": ""
  },
  {
    "name": "unitVikingRanged",
    "defaultvalue": 0,
    "displayName": ""
  },
  {
    "name": "unitVikingStormhammer",
    "defaultvalue": 0,
    "displayName": ""
  },
  {
    "name": "unitVikingCatapult",
    "defaultvalue": 0,
    "displayName": ""
  },
  {
    "name": "unitAztecWorker",
    "defaultvalue": 0,
    "displayName": ""
  },
  {
    "name": "unitAztecMelee",
    "defaultvalue": 0,
    "displayName": ""
  },
  {
    "name": "unitAztecRanged",
    "defaultvalue": 0,
    "displayName": ""
  },
  {
    "name": "unitAztecGiant",
    "defaultvalue": 0,
    "displayName": ""
  },
  {
    "name": "unitAztecNecromancer",
    "defaultvalue": 0,
    "displayName": ""
  },
  {
    "name": "unitAztecSkeleton",
    "defaultvalue": 0,
    "displayName": ""
  },
  {
    "name": "unitAsianWorker",
    "defaultvalue": 0,
    "displayName": ""
  },
  {
    "name": "unitAsianMelee",
    "defaultvalue": 0,
    "displayName": ""
  },
  {
    "name": "unitAsianRanged",
    "defaultvalue": 0,
    "displayName": ""
  },
  {
    "name": "unitAsianNinja",
    "defaultvalue": 0,
    "displayName": ""
  },
  {
    "name": "unitAsianInstantkiller",
    "defaultvalue": 0,
    "displayName": ""
  },
  {
    "name": "unitAsianTerracotta",
    "defaultvalue": 0,
    "displayName": ""
  },
  {
    "name": "towerViking",
    "defaultvalue": 0,
    "displayName": ""
  },
  {
    "name": "towerAztec",
    "defaultvalue": 0,
    "displayName": ""
  },
  {
    "name": "towerAsian",
    "defaultvalue": 0,
    "displayName": ""
  },
  {
    "name": "maxGoldAmount",
    "defaultvalue": 0,
    "displayName": ""
  },
  {
    "name": "totalGoldAmount",
    "defaultvalue": 0,
    "displayName": ""
  },
  {
    "name": "minGoldAmount",
    "defaultvalue": 1215752192,
    "displayName": ""
  },
  {
    "name": "maxManaAmount",
    "defaultvalue": 0,
    "displayName": ""
  },
  {
    "name": "totalManaAmount",
    "defaultvalue": 0,
    "displayName": ""
  },
  {
    "name": "minManaAmount",
    "defaultvalue": 1215752192,
    "displayName": ""
  },
  {
    "name": "gamesFinished",
    "defaultvalue": 0,
    "displayName": ""
  },
  {
    "name": "gamesStarted",
    "defaultvalue": 0,
    "displayName": ""
  },
  {
    "name": "vikingWinVikingMap1",
    "defaultvalue": 0,
    "displayName": ""
  },
  {
    "name": "vikingWinVikingMap2",
    "defaultvalue": 0,
    "displayName": ""
  },
  {
    "name": "vikingWinVikingMap3",
    "defaultvalue": 0,
    "displayName": ""
  },
  {
    "name": "vikingWinVikingMap4",
    "defaultvalue": 0,
    "displayName": ""
  },
  {
    "name": "vikingWinAsianMap1",
    "defaultvalue": 0,
    "displayName": ""
  },
  {
    "name": "vikingWinAsianMap2",
    "defaultvalue": 0,
    "displayName": ""
  },
  {
    "name": "vikingWinAsianMap3",
    "defaultvalue": 0,
    "displayName": ""
  },
  {
    "name": "vikingWinAsianMap4",
    "defaultvalue": 0,
    "displayName": ""
  },
  {
    "name": "vikingWinAztecMap1",
    "defaultvalue": 0,
    "displayName": ""
  },
  {
    "name": "vikingWinAztecMap2",
    "defaultvalue": 0,
    "displayName": ""
  },
  {
    "name": "vikingWinAztecMap3",
    "defaultvalue": 0,
    "displayName": ""
  },
  {
    "name": "vikingWinAztecMap4",
    "defaultvalue": 0,
    "displayName": ""
  },
  {
    "name": "asianWinVikingMap1",
    "defaultvalue": 0,
    "displayName": ""
  },
  {
    "name": "asianWinVikingMap2",
    "defaultvalue": 0,
    "displayName": ""
  },
  {
    "name": "asianWinVikingMap3",
    "defaultvalue": 0,
    "displayName": ""
  },
  {
    "name": "asianWinVikingMap4",
    "defaultvalue": 0,
    "displayName": ""
  },
  {
    "name": "asianWinAsianMap1",
    "defaultvalue": 0,
    "displayName": ""
  },
  {
    "name": "asianWinAsianMap2",
    "defaultvalue": 0,
    "displayName": ""
  },
  {
    "name": "asianWinAsianMap3",
    "defaultvalue": 0,
    "displayName": ""
  },
  {
    "name": "asianWinAsianMap4",
    "defaultvalue": 0,
    "displayName": ""
  },
  {
    "name": "asianWinAztecMap1",
    "defaultvalue": 0,
    "displayName": ""
  },
  {
    "name": "asianWinAztecMap2",
    "defaultvalue": 0,
    "displayName": ""
  },
  {
    "name": "asianWinAztecMap3",
    "defaultvalue": 0,
    "displayName": ""
  },
  {
    "name": "asianWinAztecMap4",
    "defaultvalue": 0,
    "displayName": ""
  },
  {
    "name": "aztecWinVikingMap1",
    "defaultvalue": 0,
    "displayName": ""
  },
  {
    "name": "aztecWinVikingMap2",
    "defaultvalue": 0,
    "displayName": ""
  },
  {
    "name": "aztecWinVikingMap3",
    "defaultvalue": 0,
    "displayName": ""
  },
  {
    "name": "aztecWinVikingMap4",
    "defaultvalue": 0,
    "displayName": ""
  },
  {
    "name": "aztecWinAsianMap1",
    "defaultvalue": 0,
    "displayName": ""
  },
  {
    "name": "aztecWinAsianMap2",
    "defaultvalue": 0,
    "displayName": ""
  },
  {
    "name": "aztecWinAsianMap3",
    "defaultvalue": 0,
    "displayName": ""
  },
  {
    "name": "aztecWinAsianMap4",
    "defaultvalue": 0,
    "displayName": ""
  },
  {
    "name": "aztecWinAztecMap1",
    "defaultvalue": 0,
    "displayName": ""
  },
  {
    "name": "aztecWinAztecMap2",
    "defaultvalue": 0,
    "displayName": ""
  },
  {
    "name": "aztecWinAztecMap3",
    "defaultvalue": 0,
    "displayName": ""
  },
  {
    "name": "aztecWinAztecMap4",
    "defaultvalue": 0,
    "displayName": ""
  }
]