﻿[
  {
    "name": "AnyPlayTimeStat",
    "defaultvalue": 0,
    "displayName": "AnyPlayTime"
  },
  {
    "name": "StageSelectionWinMinigameStat",
    "defaultvalue": 0,
    "displayName": "StageSelectionWinMinigame"
  },
  {
    "name": "AnyDestroyAllItemsStat",
    "defaultvalue": 0,
    "displayName": "AnyDestroyAllItems"
  },
  {
    "name": "AnyBlocksStat",
    "defaultvalue": 0,
    "displayName": "AnyBlocks"
  },
  {
    "name": "AnyUseAllItemsStat",
    "defaultvalue": 0,
    "displayName": "AnyUseAllItems"
  },
  {
    "name": "AnyThrowAmmosStat",
    "defaultvalue": 0,
    "displayName": "AnyThrowAmmos"
  },
  {
    "name": "AnyThrowFridgesStat",
    "defaultvalue": 0,
    "displayName": "AnyThrowFridges"
  },
  {
    "name": "AnyPerfectsStat",
    "defaultvalue": 0,
    "displayName": "AnyPerfects"
  },
  {
    "name": "AnyFinishWithThrowItemStat",
    "defaultvalue": 0,
    "displayName": "AnyFinishWithThrowItem"
  },
  {
    "name": "MultiFinishMatchesStat",
    "defaultvalue": 0,
    "displayName": "MultiFinishMatches"
  },
  {
    "name": "AnyAllStageStat",
    "defaultvalue": 0,
    "displayName": "AnyAllStage"
  },
  {
    "name": "AnyAllDeathDealerStat",
    "defaultvalue": 0,
    "displayName": "AnyAllDeathDealer"
  },
  {
    "name": "AnyAllCharactersStat",
    "defaultvalue": 0,
    "displayName": "AnyAllCharacters"
  },
  {
    "name": "CollectionWatchEverythingStat",
    "defaultvalue": 0,
    "displayName": "CollectionWatchEverything"
  },
  {
    "name": "CollectionAllPinsStat",
    "defaultvalue": 0,
    "displayName": "CollectionAllPins"
  },
  {
    "name": "StoryFinishStat",
    "defaultvalue": 0,
    "displayName": "StoryFinish"
  }
]