﻿[
  {
    "name": "Sniper",
    "defaultvalue": 0,
    "displayName": "Sniper",
    "hidden": 0,
    "description": "Reach 1000 successful hits",
    "icon": "https://steamcdn-a.akamaihd.net/steamcommunity/public/images/apps/444620/ae3d44116cd59fc36123dbe936464bfaf0f00370.jpg",
    "icongray": "https://steamcdn-a.akamaihd.net/steamcommunity/public/images/apps/444620/c31309e0bfaa56f08ae6d45f4fdcae45da7fbea1.jpg"
  },
  {
    "name": "Level 10",
    "defaultvalue": 0,
    "displayName": "Level 10",
    "hidden": 0,
    "description": "Reach level 10",
    "icon": "https://steamcdn-a.akamaihd.net/steamcommunity/public/images/apps/444620/2b60fe3d36abae1182663e9fe4f2df1f345fe22f.jpg",
    "icongray": "https://steamcdn-a.akamaihd.net/steamcommunity/public/images/apps/444620/6e63b6d632e37b4f69c1fe491cd19ef9beae1c94.jpg"
  },
  {
    "name": "Level 20",
    "defaultvalue": 0,
    "displayName": "Level 20",
    "hidden": 0,
    "description": "Reach level 20",
    "icon": "https://steamcdn-a.akamaihd.net/steamcommunity/public/images/apps/444620/0f60ba9cebec910c3229edd99921c43776981043.jpg",
    "icongray": "https://steamcdn-a.akamaihd.net/steamcommunity/public/images/apps/444620/c82fa746ebf4eebdb235c4f13af8311bb2fe54d6.jpg"
  },
  {
    "name": "level 30",
    "defaultvalue": 0,
    "displayName": "Level 30",
    "hidden": 0,
    "description": "Reach level 30",
    "icon": "https://steamcdn-a.akamaihd.net/steamcommunity/public/images/apps/444620/7c9049954f6d790a0db73a5daded0034e58103da.jpg",
    "icongray": "https://steamcdn-a.akamaihd.net/steamcommunity/public/images/apps/444620/a1cc8f416ebaa832047e627618afa19bea60b604.jpg"
  },
  {
    "name": "Level 40",
    "defaultvalue": 0,
    "displayName": "Level 40",
    "hidden": 0,
    "description": "Reach level 40",
    "icon": "https://steamcdn-a.akamaihd.net/steamcommunity/public/images/apps/444620/6cee97931d39dd0212c7f086aebd4e71143d568c.jpg",
    "icongray": "https://steamcdn-a.akamaihd.net/steamcommunity/public/images/apps/444620/dda18420f884e6b74816f0dfa27132ee4cb85302.jpg"
  },
  {
    "name": "Level 50",
    "defaultvalue": 0,
    "displayName": "Level 50",
    "hidden": 0,
    "description": "Reach level 50",
    "icon": "https://steamcdn-a.akamaihd.net/steamcommunity/public/images/apps/444620/6c7bbcc77388a139e22dcca1445cacf4a07d168d.jpg",
    "icongray": "https://steamcdn-a.akamaihd.net/steamcommunity/public/images/apps/444620/f76dae7dbdd923460279db05f21c6721286585c4.jpg"
  },
  {
    "name": "Level 60",
    "defaultvalue": 0,
    "displayName": "Level 60",
    "hidden": 0,
    "description": "Reach level 60",
    "icon": "https://steamcdn-a.akamaihd.net/steamcommunity/public/images/apps/444620/185a28a00c7e89558e52a118e5d7c213aa2cb857.jpg",
    "icongray": "https://steamcdn-a.akamaihd.net/steamcommunity/public/images/apps/444620/1267485f5d95fa07ae3465d31b459ea8ca9eeff4.jpg"
  },
  {
    "name": "Level 70",
    "defaultvalue": 0,
    "displayName": "Level 70",
    "hidden": 0,
    "description": "Reach level 70",
    "icon": "https://steamcdn-a.akamaihd.net/steamcommunity/public/images/apps/444620/2bd2de3dce43714e54790478a8f2994a28bd26c9.jpg",
    "icongray": "https://steamcdn-a.akamaihd.net/steamcommunity/public/images/apps/444620/4c3abd954c87880428db90e60bb231e357ad79a9.jpg"
  },
  {
    "name": "Level 80",
    "defaultvalue": 0,
    "displayName": "Level 80",
    "hidden": 0,
    "description": "Reach level 80",
    "icon": "https://steamcdn-a.akamaihd.net/steamcommunity/public/images/apps/444620/aeed6d8f522b461b96deea485e20191f762e61e8.jpg",
    "icongray": "https://steamcdn-a.akamaihd.net/steamcommunity/public/images/apps/444620/28dc2dd8f53b5c864e3ef1b6289368f5e3c8d9b1.jpg"
  },
  {
    "name": "Level 90",
    "defaultvalue": 0,
    "displayName": "Level 90",
    "hidden": 0,
    "description": "Reach level 90",
    "icon": "https://steamcdn-a.akamaihd.net/steamcommunity/public/images/apps/444620/099192f08eb5e19211e6c24033f066db68866b5e.jpg",
    "icongray": "https://steamcdn-a.akamaihd.net/steamcommunity/public/images/apps/444620/99a34712b2fe5e411c6ecff86f9aa74984f4034d.jpg"
  },
  {
    "name": "Level 99",
    "defaultvalue": 0,
    "displayName": "Level 99",
    "hidden": 0,
    "description": "Reach level 99",
    "icon": "https://steamcdn-a.akamaihd.net/steamcommunity/public/images/apps/444620/e6723b3fd3f552317aa1a382e27553365cf01e0f.jpg",
    "icongray": "https://steamcdn-a.akamaihd.net/steamcommunity/public/images/apps/444620/4a710680de59e757015fb7d3d8c55aeee87db4c9.jpg"
  },
  {
    "name": "Beginner",
    "defaultvalue": 0,
    "displayName": "Beginner",
    "hidden": 0,
    "description": "Win 5 games",
    "icon": "https://steamcdn-a.akamaihd.net/steamcommunity/public/images/apps/444620/7b3316f79af60532e2c056ff766e6e64b0a497b9.jpg",
    "icongray": "https://steamcdn-a.akamaihd.net/steamcommunity/public/images/apps/444620/b8cdb4c9f79dcec053e1055bf1ee91f710551ed9.jpg"
  },
  {
    "name": "Champion",
    "defaultvalue": 0,
    "displayName": "Champion",
    "hidden": 0,
    "description": "Win 25 games",
    "icon": "https://steamcdn-a.akamaihd.net/steamcommunity/public/images/apps/444620/c0c9a8184d50a14deccac81ea5a0c389137b42e4.jpg",
    "icongray": "https://steamcdn-a.akamaihd.net/steamcommunity/public/images/apps/444620/55c9dedd3880565e21136ab04b4317bcb2691f18.jpg"
  },
  {
    "name": "Legend",
    "defaultvalue": 0,
    "displayName": "Legend",
    "hidden": 0,
    "description": "Win 100 games",
    "icon": "https://steamcdn-a.akamaihd.net/steamcommunity/public/images/apps/444620/2757caaffef3c522217b1813cc9356f24655d5cb.jpg",
    "icongray": "https://steamcdn-a.akamaihd.net/steamcommunity/public/images/apps/444620/9ddc17749666bdf8742ef9fbb006cfa142db3403.jpg"
  },
  {
    "name": "WhoNeedsMagic",
    "defaultvalue": 0,
    "displayName": "Who Needs Magic",
    "hidden": 0,
    "description": "Kill an enemy with a melee attack",
    "icon": "https://steamcdn-a.akamaihd.net/steamcommunity/public/images/apps/444620/423108f95cabe6bd98c678cd5d52499db0aabe65.jpg",
    "icongray": "https://steamcdn-a.akamaihd.net/steamcommunity/public/images/apps/444620/423108f95cabe6bd98c678cd5d52499db0aabe65.jpg"
  },
  {
    "name": "Untouchable",
    "defaultvalue": 0,
    "displayName": "Untouchable",
    "hidden": 0,
    "description": "Win a round without getting hit",
    "icon": "https://steamcdn-a.akamaihd.net/steamcommunity/public/images/apps/444620/9ad7369c6632725318375433115fa4b010048b12.jpg",
    "icongray": "https://steamcdn-a.akamaihd.net/steamcommunity/public/images/apps/444620/9ee4917e18b46d7bb1ad5a390291ce6e6d0312c8.jpg"
  },
  {
    "name": "TrueSurvivor",
    "defaultvalue": 0,
    "displayName": " True survivor",
    "hidden": 0,
    "description": "Win a round with 1 hp left",
    "icon": "https://steamcdn-a.akamaihd.net/steamcommunity/public/images/apps/444620/5d77c996c5e45f4434957a4faedc05bf4f73ec56.jpg",
    "icongray": "https://steamcdn-a.akamaihd.net/steamcommunity/public/images/apps/444620/4b58282162f1738de5d1a6e17ffb0fc5f114200c.jpg"
  },
  {
    "name": "Firebender",
    "defaultvalue": 0,
    "displayName": "FireBender",
    "hidden": 0,
    "description": "Win a round using only fire",
    "icon": "https://steamcdn-a.akamaihd.net/steamcommunity/public/images/apps/444620/eaa10e5b0595134676f40c9e0aec74d0146a9e80.jpg",
    "icongray": "https://steamcdn-a.akamaihd.net/steamcommunity/public/images/apps/444620/9ff7e2c53487dfff9370c7fcde548f754e998dc7.jpg"
  },
  {
    "name": "Waterbender",
    "defaultvalue": 0,
    "displayName": "Waterbender",
    "hidden": 0,
    "description": "Win a round using only water",
    "icon": "https://steamcdn-a.akamaihd.net/steamcommunity/public/images/apps/444620/faf238ba0694f1b879e0df54846c4690052221c0.jpg",
    "icongray": "https://steamcdn-a.akamaihd.net/steamcommunity/public/images/apps/444620/af4381cdd98071dffc52e402774b524bb7d20c07.jpg"
  },
  {
    "name": "Earthbender",
    "defaultvalue": 0,
    "displayName": "Earthbender",
    "hidden": 0,
    "description": "Win a round using only Earth",
    "icon": "https://steamcdn-a.akamaihd.net/steamcommunity/public/images/apps/444620/8028b9b0c45d51be247159e9005ba6f4cf53ff98.jpg",
    "icongray": "https://steamcdn-a.akamaihd.net/steamcommunity/public/images/apps/444620/adf741428a4ca0e6ff15c3ba29594dd23c50835e.jpg"
  },
  {
    "name": "Windbender",
    "defaultvalue": 0,
    "displayName": "Windbender",
    "hidden": 0,
    "description": "Win a round using only Wind",
    "icon": "https://steamcdn-a.akamaihd.net/steamcommunity/public/images/apps/444620/910ec5dece97403841f562079845c8c37c663b5b.jpg",
    "icongray": "https://steamcdn-a.akamaihd.net/steamcommunity/public/images/apps/444620/1355ee0ad8b51b5f3b25e2ef619d0058351136dd.jpg"
  },
  {
    "name": "MySafespace",
    "defaultvalue": 0,
    "displayName": "My safespace",
    "hidden": 0,
    "description": "Stay 25 seconds inside a shield",
    "icon": "https://steamcdn-a.akamaihd.net/steamcommunity/public/images/apps/444620/e6511268f223d6ce259ece2d6fa551dcd0b90a6e.jpg",
    "icongray": "https://steamcdn-a.akamaihd.net/steamcommunity/public/images/apps/444620/10a9fd9cb1ae461f2b109c03521a00081972e3bf.jpg"
  },
  {
    "name": "MasterOfTheElements",
    "defaultvalue": 0,
    "displayName": "Master of the elements",
    "hidden": 0,
    "description": "Destroy 5 projectiles with their opposites elements",
    "icon": "https://steamcdn-a.akamaihd.net/steamcommunity/public/images/apps/444620/76fb4e3d3e13bd8f20fc72c8bffc0ab04c87ef1b.jpg",
    "icongray": "https://steamcdn-a.akamaihd.net/steamcommunity/public/images/apps/444620/a2e456e8d973612b8bef876f23faf173d7b8918b.jpg"
  },
  {
    "name": "TrueSpeed",
    "defaultvalue": 0,
    "displayName": "True Speed",
    "hidden": 0,
    "description": "While having the Speed run power up, destroy three power ups",
    "icon": "https://steamcdn-a.akamaihd.net/steamcommunity/public/images/apps/444620/28da52a6f4f623f88de38d23bbc4ed65f5d8abc1.jpg",
    "icongray": "https://steamcdn-a.akamaihd.net/steamcommunity/public/images/apps/444620/816f419c55f25daac897bf92b3c610e4c98438fc.jpg"
  },
  {
    "name": "FinishHim",
    "defaultvalue": 0,
    "displayName": "Finish him",
    "hidden": 0,
    "description": "While having double damage power up, kill a player",
    "icon": "https://steamcdn-a.akamaihd.net/steamcommunity/public/images/apps/444620/2c8a8b91a2c17f2343f469ab495212d89da633cc.jpg",
    "icongray": "https://steamcdn-a.akamaihd.net/steamcommunity/public/images/apps/444620/207a96f959f025124872de43ed0e71ef8cbb03c6.jpg"
  },
  {
    "name": "SavedByTheBell",
    "defaultvalue": 0,
    "displayName": "Saved by the bell",
    "hidden": 0,
    "description": "Get hit while having shield creation power up and 1 hp left.",
    "icon": "https://steamcdn-a.akamaihd.net/steamcommunity/public/images/apps/444620/0999bb5ac7566af1b9966d71d146ec306c306edd.jpg",
    "icongray": "https://steamcdn-a.akamaihd.net/steamcommunity/public/images/apps/444620/504d9d94b09bf3b64cd4193877be166fc3aff954.jpg"
  },
  {
    "name": "Riposte",
    "defaultvalue": 0,
    "displayName": "Rektflected",
    "hidden": 0,
    "description": "While having shield reflection power up, kill a player with the projectile reflect",
    "icon": "https://steamcdn-a.akamaihd.net/steamcommunity/public/images/apps/444620/f3b91cd00cd4a73cb0036e18559e2cf16cd230cf.jpg",
    "icongray": "https://steamcdn-a.akamaihd.net/steamcommunity/public/images/apps/444620/2f5ed7ed394ef22fd2b2e40c51f67407d6b4f7a3.jpg"
  },
  {
    "name": "GoingForASwim",
    "defaultvalue": 0,
    "displayName": "Going for a swim",
    "hidden": 0,
    "description": "Fall into the water",
    "icon": "https://steamcdn-a.akamaihd.net/steamcommunity/public/images/apps/444620/2ebc630a7b5b02d658a9b6423da914132ad0bcda.jpg",
    "icongray": "https://steamcdn-a.akamaihd.net/steamcommunity/public/images/apps/444620/03f7d7426fa2d086d39421e01728728ba5fab35b.jpg"
  }
]