﻿[
  {
    "name": "achievement-01-ach",
    "defaultvalue": 0,
    "displayName": "Champion of Acharos",
    "hidden": 0,
    "description": "Win 20 Battles.",
    "icon": "https://steamcdn-a.akamaihd.net/steamcommunity/public/images/apps/368980/9224dc4eb7b0c89e507ee64d5e84c3c3f48079ef.jpg",
    "icongray": "https://steamcdn-a.akamaihd.net/steamcommunity/public/images/apps/368980/324bb14597d95f4ba6eed360fe37c20bccfb3a03.jpg"
  },
  {
    "name": "achievement-02-ach",
    "defaultvalue": 0,
    "displayName": "Undefeated",
    "hidden": 0,
    "description": "Win 5 battles in a row.",
    "icon": "https://steamcdn-a.akamaihd.net/steamcommunity/public/images/apps/368980/9ca2c2ef1b7dc6dbfecdc99c15a59c7117e43f9a.jpg",
    "icongray": "https://steamcdn-a.akamaihd.net/steamcommunity/public/images/apps/368980/932ed0bf131b360d2dd965481e533d0558949412.jpg"
  },
  {
    "name": "achievement-03-ach",
    "defaultvalue": 0,
    "displayName": "Slayer",
    "hidden": 0,
    "description": "Deal 12,000 damage to opponents.",
    "icon": "https://steamcdn-a.akamaihd.net/steamcommunity/public/images/apps/368980/8db675adc06ea8bff3c1806d6cb4690501f83ddd.jpg",
    "icongray": "https://steamcdn-a.akamaihd.net/steamcommunity/public/images/apps/368980/824d22a4be22155a68352680fbe1d3209a50d0f8.jpg"
  },
  {
    "name": "achievement-04-ach",
    "defaultvalue": 0,
    "displayName": "Auramancer",
    "hidden": 0,
    "description": "Play a game with 5 different auras.",
    "icon": "https://steamcdn-a.akamaihd.net/steamcommunity/public/images/apps/368980/3d783e1f179071fbd615e1a7186b5edd573f5f11.jpg",
    "icongray": "https://steamcdn-a.akamaihd.net/steamcommunity/public/images/apps/368980/98b2da33d871865546b915ba0e19070ffcb0efb3.jpg"
  },
  {
    "name": "achievement-05-ach",
    "defaultvalue": 0,
    "displayName": "Power Broker",
    "hidden": 0,
    "description": "Create 500 Power Gems by matching gems.",
    "icon": "https://steamcdn-a.akamaihd.net/steamcommunity/public/images/apps/368980/d3f14cacf6729478bd8a8d1f4a72bfb39c4f672c.jpg",
    "icongray": "https://steamcdn-a.akamaihd.net/steamcommunity/public/images/apps/368980/457860730433c708825bc433ef44752b5a5c6bb1.jpg"
  },
  {
    "name": "achievement-06-ach",
    "defaultvalue": 0,
    "displayName": "Skyreach Tailor",
    "hidden": 0,
    "description": "Own 1 additional hero skin.",
    "icon": "https://steamcdn-a.akamaihd.net/steamcommunity/public/images/apps/368980/5470afd96b2ce5fc65c66488d6a8c5ca62640f3a.jpg",
    "icongray": "https://steamcdn-a.akamaihd.net/steamcommunity/public/images/apps/368980/93350481effebc3c26ee200fced5c3e358439873.jpg"
  },
  {
    "name": "achievement-07-ach",
    "defaultvalue": 0,
    "displayName": "Elementalist",
    "hidden": 0,
    "description": "Create 50 Amplifier Gems by matching gems.",
    "icon": "https://steamcdn-a.akamaihd.net/steamcommunity/public/images/apps/368980/50691f88804240ced7ccd6c111dbd96774f6a35e.jpg",
    "icongray": "https://steamcdn-a.akamaihd.net/steamcommunity/public/images/apps/368980/094a8740d6413f5d109e357e453d51c3e8e55f5e.jpg"
  },
  {
    "name": "achievement-08-ach",
    "defaultvalue": 0,
    "displayName": "Goblin Sapper",
    "hidden": 0,
    "description": "Create 50 Bombs.",
    "icon": "https://steamcdn-a.akamaihd.net/steamcommunity/public/images/apps/368980/9254daf583857b7a353dcd18dfbb65d887456e91.jpg",
    "icongray": "https://steamcdn-a.akamaihd.net/steamcommunity/public/images/apps/368980/062f163b48127b78ea50914c92207d7e1cd6085a.jpg"
  },
  {
    "name": "achievement-09-ach",
    "defaultvalue": 0,
    "displayName": "Disciple of Argus",
    "hidden": 0,
    "description": "Make 100,000 gem matches.",
    "icon": "https://steamcdn-a.akamaihd.net/steamcommunity/public/images/apps/368980/6800d3ded880e3278346fa63f5dd33145d5adf0e.jpg",
    "icongray": "https://steamcdn-a.akamaihd.net/steamcommunity/public/images/apps/368980/ec25b83e262e698dfd499bac2f2fe1643b0d2cb8.jpg"
  },
  {
    "name": "achievement-14-ach",
    "defaultvalue": 0,
    "displayName": "Tactician",
    "hidden": 0,
    "description": "Play 10 games in Moves mode.",
    "icon": "https://steamcdn-a.akamaihd.net/steamcommunity/public/images/apps/368980/a42d3e27456707aea4ad23af623bf7c86538cc58.jpg",
    "icongray": "https://steamcdn-a.akamaihd.net/steamcommunity/public/images/apps/368980/713841f8647063a291bf671f74cf387973160562.jpg"
  },
  {
    "name": "achievement-15-ach",
    "defaultvalue": 0,
    "displayName": "Mercenary",
    "hidden": 0,
    "description": "Play 10 games in Timed mode.",
    "icon": "https://steamcdn-a.akamaihd.net/steamcommunity/public/images/apps/368980/e0efc60c7f4bbbc5d060f0f78d8a84d2d3a8e9f9.jpg",
    "icongray": "https://steamcdn-a.akamaihd.net/steamcommunity/public/images/apps/368980/75c9229ff8eb48b1efc41f6d183530180cbcdfbe.jpg"
  },
  {
    "name": "achievement-16-ach",
    "defaultvalue": 0,
    "displayName": "Veteran",
    "hidden": 0,
    "description": "Play 100 games in any mode.",
    "icon": "https://steamcdn-a.akamaihd.net/steamcommunity/public/images/apps/368980/f2cc2d619045478542e0a66ad849297fce4cabe0.jpg",
    "icongray": "https://steamcdn-a.akamaihd.net/steamcommunity/public/images/apps/368980/dfd507ee56f528194f0393f6ed768f162b5a8573.jpg"
  },
  {
    "name": "achievement-17-ach",
    "defaultvalue": 0,
    "displayName": "Duelist",
    "hidden": 0,
    "description": "Battle a friend in a direct challenge game.",
    "icon": "https://steamcdn-a.akamaihd.net/steamcommunity/public/images/apps/368980/0cf645d72aace0b3a14daefe98ec07de59df5418.jpg",
    "icongray": "https://steamcdn-a.akamaihd.net/steamcommunity/public/images/apps/368980/13b9003684b41829233fb4cbd6b1c687652e2b3b.jpg"
  },
  {
    "name": "achievement-18-ach",
    "defaultvalue": 0,
    "displayName": "Artificer",
    "hidden": 0,
    "description": "Purchase a Level 2 Aura.",
    "icon": "https://steamcdn-a.akamaihd.net/steamcommunity/public/images/apps/368980/6f3e3f55ce4412aaba8cc24d5b93317c7843aa71.jpg",
    "icongray": "https://steamcdn-a.akamaihd.net/steamcommunity/public/images/apps/368980/7615e4697a0736ff6cdf9ef7289335f8b27ce245.jpg"
  },
  {
    "name": "achievement-31-ach",
    "defaultvalue": 0,
    "displayName": "Skyreach Guardian",
    "hidden": 0,
    "description": "Reach Mastery Level 20 with Ki.",
    "icon": "https://steamcdn-a.akamaihd.net/steamcommunity/public/images/apps/368980/29786b55d9da874c84015e96a5e1d58ac3536c34.jpg",
    "icongray": "https://steamcdn-a.akamaihd.net/steamcommunity/public/images/apps/368980/1913a6c47d481748a66482e62b82349901d2b8d1.jpg"
  },
  {
    "name": "achievement-32-ach",
    "defaultvalue": 0,
    "displayName": "Sun Falcon Champion",
    "hidden": 0,
    "description": "Reach Mastery Level 20 with Sol.",
    "icon": "https://steamcdn-a.akamaihd.net/steamcommunity/public/images/apps/368980/e8db479a4d17f5e5e0b1e9319f9183a55bf86b95.jpg",
    "icongray": "https://steamcdn-a.akamaihd.net/steamcommunity/public/images/apps/368980/f70eb87597500700be0b3729895baf8123c2125d.jpg"
  },
  {
    "name": "achievement-33-ach",
    "defaultvalue": 0,
    "displayName": "Sangorn Paragon",
    "hidden": 0,
    "description": "Reach Mastery Level 20 with Sir Vaskos.",
    "icon": "https://steamcdn-a.akamaihd.net/steamcommunity/public/images/apps/368980/28ee7aa6e122d2eca45900355adc91bfdaf61417.jpg",
    "icongray": "https://steamcdn-a.akamaihd.net/steamcommunity/public/images/apps/368980/8d316821c0e925a1ad5ba4efcc0715a3c5e13559.jpg"
  },
  {
    "name": "achievement-34-ach",
    "defaultvalue": 0,
    "displayName": "Dark Avenger",
    "hidden": 0,
    "description": "Reach Mastery Level 20 with Tarkin.",
    "icon": "https://steamcdn-a.akamaihd.net/steamcommunity/public/images/apps/368980/3055c016e1d9df0896e6c06f9acf402d1fbfd939.jpg",
    "icongray": "https://steamcdn-a.akamaihd.net/steamcommunity/public/images/apps/368980/1f23802a264b2def31607cc30ab72cacada79621.jpg"
  },
  {
    "name": "achievement-35-ach",
    "defaultvalue": 0,
    "displayName": "Grey Wastes Scion",
    "hidden": 0,
    "description": "Reach Mastery Level 20 with Phasmus.",
    "icon": "https://steamcdn-a.akamaihd.net/steamcommunity/public/images/apps/368980/ced828e6fd0950d6307f0e84e22ed5632f91aab2.jpg",
    "icongray": "https://steamcdn-a.akamaihd.net/steamcommunity/public/images/apps/368980/e0f96e1b37e6ffbbd8bf7337be4d5fa3ddd582fb.jpg"
  },
  {
    "name": "achievement-36-ach",
    "defaultvalue": 0,
    "displayName": "Swamp Defender",
    "hidden": 0,
    "description": "Reach Mastery Level 20 with Mudruk.",
    "icon": "https://steamcdn-a.akamaihd.net/steamcommunity/public/images/apps/368980/2e0ab47c1edc93a30b867bbc7eb6cdf7a1dce540.jpg",
    "icongray": "https://steamcdn-a.akamaihd.net/steamcommunity/public/images/apps/368980/9a3f24582d3d14ba15df7c67c171f980378031b5.jpg"
  }
]