﻿[
  {
    "name": "BBX_ST_LEVEL",
    "defaultvalue": 1,
    "displayName": "Level"
  },
  {
    "name": "BBX_ST_XP_CURRENT",
    "defaultvalue": 0,
    "displayName": "XP Current"
  },
  {
    "name": "BBX_ST_XP_LEFT",
    "defaultvalue": 5,
    "displayName": "XP Left"
  },
  {
    "name": "BBX_ST_TALENTS",
    "defaultvalue": 0,
    "displayName": "Talents"
  },
  {
    "name": "BBX_KI_AK74",
    "defaultvalue": 0,
    "displayName": "AK-74"
  },
  {
    "name": "BBX_KI_BERETTA",
    "defaultvalue": 0,
    "displayName": "Beretta"
  },
  {
    "name": "BBX_KI_870",
    "defaultvalue": 0,
    "displayName": "Remington 870"
  },
  {
    "name": "BBX_KI_SAWOFF",
    "defaultvalue": 0,
    "displayName": "Sawed-Off"
  },
  {
    "name": "BBX_KI_M9PHROBIS",
    "defaultvalue": 0,
    "displayName": "M9 Phrobis"
  },
  {
    "name": "BBX_KI_FIREAXE",
    "defaultvalue": 0,
    "displayName": "Fireaxe"
  },
  {
    "name": "BBX_KI_FISTS",
    "defaultvalue": 0,
    "displayName": "Fists"
  },
  {
    "name": "BBX_KI_ZOMBIES",
    "defaultvalue": 0,
    "displayName": "Zomies Killed"
  },
  {
    "name": "BBX_KI_EXPLOSIVES",
    "defaultvalue": 0,
    "displayName": "Kills with Explosives"
  },
  {
    "name": "BBX_ST_AGI_SPEED",
    "defaultvalue": 0,
    "displayName": "Speed"
  },
  {
    "name": "BBX_ST_AGI_ACROBATICS",
    "defaultvalue": 0,
    "displayName": "Acrobatics"
  },
  {
    "name": "BBX_ST_AGI_SLIDE",
    "defaultvalue": 0,
    "displayName": "Slide"
  },
  {
    "name": "BBX_ST_AGI_SNIPER_MASTER",
    "defaultvalue": 0,
    "displayName": "Sniper Master"
  },
  {
    "name": "BBX_ST_AGI_ENHANCED_REFLEXES",
    "defaultvalue": 0,
    "displayName": "Enhanced Reflexes"
  },
  {
    "name": "BBX_ST_AGI_MELEE_SPEED",
    "defaultvalue": 0,
    "displayName": "Melee Speed"
  },
  {
    "name": "BBX_ST_AGI_LIGHTWEIGHT",
    "defaultvalue": 0,
    "displayName": "Lightweight"
  },
  {
    "name": "BBX_ST_AGI_WEIGHTLESS",
    "defaultvalue": 0,
    "displayName": "Weightless"
  },
  {
    "name": "BBX_ST_AGI_HEALTH_REGEN",
    "defaultvalue": 0,
    "displayName": "Health Regeneration"
  },
  {
    "name": "BBX_ST_AGI_REALITY_PHASE",
    "defaultvalue": 0,
    "displayName": "Reality Phase"
  },
  {
    "name": "BBX_ST_STR_HEALTH",
    "defaultvalue": 0,
    "displayName": "Health"
  },
  {
    "name": "BBX_ST_STR_IMPENETRABLE",
    "defaultvalue": 0,
    "displayName": "Impenetrable"
  },
  {
    "name": "BBX_ST_STR_PAINKILLER",
    "defaultvalue": 0,
    "displayName": "Painkiller"
  },
  {
    "name": "BBX_ST_STR_LIFE_LEECH",
    "defaultvalue": 0,
    "displayName": "Life Leech"
  },
  {
    "name": "BBX_ST_STR_POWER_KICK",
    "defaultvalue": 0,
    "displayName": "Power Kick"
  },
  {
    "name": "BBX_ST_STR_BLEED",
    "defaultvalue": 0,
    "displayName": "Bleed"
  },
  {
    "name": "BBX_ST_STR_CRIPPLING_BLOW",
    "defaultvalue": 0,
    "displayName": "Crippling Blow"
  },
  {
    "name": "BBX_ST_STR_ARMOR_MASTER",
    "defaultvalue": 0,
    "displayName": "Armor Master"
  },
  {
    "name": "BBX_ST_STR_MELEE_MASTER",
    "defaultvalue": 0,
    "displayName": "Melee Master"
  },
  {
    "name": "BBX_ST_STR_BLOOD_RAGE",
    "defaultvalue": 0,
    "displayName": "Blood Rage"
  },
  {
    "name": "BBX_ST_PRO_RIFLE_MASTER",
    "defaultvalue": 0,
    "displayName": "Rifle Master"
  },
  {
    "name": "BBX_ST_PRO_SHOTGUN_MASTER",
    "defaultvalue": 0,
    "displayName": "Shotgun Master"
  },
  {
    "name": "BBX_ST_PRO_PISTOL_MASTER",
    "defaultvalue": 0,
    "displayName": "Pistol Master"
  },
  {
    "name": "BBX_ST_PRO_RESOURCEFUL",
    "defaultvalue": 0,
    "displayName": "Resourceful"
  },
  {
    "name": "BBX_ST_PRO_BLAZING_AMMO",
    "defaultvalue": 0,
    "displayName": "Blazing Ammo"
  },
  {
    "name": "BBX_ST_PRO_COLDSNAP",
    "defaultvalue": 0,
    "displayName": "Coldsnap"
  },
  {
    "name": "BBX_ST_PRO_SHOUT_AND_SPRAY",
    "defaultvalue": 0,
    "displayName": "Shout And Spray"
  },
  {
    "name": "BBX_ST_PRO_EMPOWERED_BULLETS",
    "defaultvalue": 0,
    "displayName": "Empowered Bullets"
  },
  {
    "name": "BBX_ST_PRO_MAGAZINE_REFILL",
    "defaultvalue": 0,
    "displayName": "Magazine Refill"
  },
  {
    "name": "BBX_ST_PRO_GUNSLINGER",
    "defaultvalue": 0,
    "displayName": "Gunslinger"
  },
  {
    "name": "BBX_ST_KILLS",
    "defaultvalue": 0,
    "displayName": "Kills"
  },
  {
    "name": "BBX_ST_DEATHS",
    "defaultvalue": 0,
    "displayName": "Deaths"
  },
  {
    "name": "BBX_KI_FAMAS",
    "defaultvalue": 0,
    "displayName": "Famas"
  },
  {
    "name": "BBX_KI_MACHETE",
    "defaultvalue": 0,
    "displayName": "Machete"
  },
  {
    "name": "BBX_KI_BASEBALLBAT",
    "defaultvalue": 0,
    "displayName": "Baseballbat"
  },
  {
    "name": "BBX_KI_HATCHET",
    "defaultvalue": 0,
    "displayName": "Hatchet"
  },
  {
    "name": "BBX_KI_SLEDGEHAMMER",
    "defaultvalue": 0,
    "displayName": "Sledgehammer"
  },
  {
    "name": "BBX_KI_MINIGUN",
    "defaultvalue": 0,
    "displayName": "Minigun"
  },
  {
    "name": "BBX_KI_AKIMBO",
    "defaultvalue": 0,
    "displayName": "Akimbo Kills"
  },
  {
    "name": "BBX_KI_HKMP7",
    "defaultvalue": 0,
    "displayName": "HK MP7"
  },
  {
    "name": "BBX_KI_MAC11",
    "defaultvalue": 0,
    "displayName": "MAC11"
  },
  {
    "name": "BBX_KI_REM700",
    "defaultvalue": 0,
    "displayName": "Remington 700"
  },
  {
    "name": "BBX_KI_GLOCK17",
    "defaultvalue": 0,
    "displayName": "Glock17"
  },
  {
    "name": "BBX_KI_TRAPPER",
    "defaultvalue": 0,
    "displayName": "Winchester 1894"
  },
  {
    "name": "BBX_ST_ZM_POINTS",
    "defaultvalue": 0,
    "displayName": "Zombie Credits"
  },
  {
    "name": "BBX_ST_ZM_HEALTH",
    "defaultvalue": 0,
    "displayName": "Zombie Health"
  },
  {
    "name": "BBX_ST_ZM_DAMAGE",
    "defaultvalue": 0,
    "displayName": "Zombie Damage"
  },
  {
    "name": "BBX_ST_ZM_DAMAGE_REDUCTION",
    "defaultvalue": 0,
    "displayName": "Zombie Damage Reduction"
  },
  {
    "name": "BBX_ST_ZM_SPEED",
    "defaultvalue": 0,
    "displayName": "Zombie Speed"
  },
  {
    "name": "BBX_ST_ZM_JUMP",
    "defaultvalue": 0,
    "displayName": "Zombie Jump"
  },
  {
    "name": "BBX_ST_ZM_LEAP",
    "defaultvalue": 0,
    "displayName": "Zombie Leap"
  },
  {
    "name": "BBX_ST_ZM_DEATH",
    "defaultvalue": 0,
    "displayName": "Zombie Death"
  },
  {
    "name": "BBX_ST_ZM_LIFE_LEECH",
    "defaultvalue": 0,
    "displayName": "Zombie Life Leech"
  },
  {
    "name": "BBX_ST_ZM_HEALTH_REGEN",
    "defaultvalue": 0,
    "displayName": "Zombie Health Regen"
  },
  {
    "name": "BBX_ST_ZM_MASS_INVASION",
    "defaultvalue": 0,
    "displayName": "Zombie Mass Invasion"
  },
  {
    "name": "BBX_KI_G36C",
    "defaultvalue": 0,
    "displayName": "G36C"
  },
  {
    "name": "BBX_KI_UZI",
    "defaultvalue": 0,
    "displayName": "Micro-Uzi"
  },
  {
    "name": "BBX_KI_BENELLIM4",
    "defaultvalue": 0,
    "displayName": "Benelli M4"
  },
  {
    "name": "BBX_KI_FLAMETHROWER",
    "defaultvalue": 0,
    "displayName": "Flamethrower"
  },
  {
    "name": "BBX_KI_KICK",
    "defaultvalue": 0,
    "displayName": "Kick"
  },
  {
    "name": "BBX_KI_BRICK",
    "defaultvalue": 0,
    "displayName": "Brick"
  },
  {
    "name": "BBX_KI_HKMP5",
    "defaultvalue": 0,
    "displayName": "HK MP5"
  },
  {
    "name": "BBX_QUESTS",
    "defaultvalue": 0,
    "displayName": "Quests Finished"
  },
  {
    "name": "BBX_KI_DEAGLE",
    "defaultvalue": 0,
    "displayName": "Desert Eagle"
  }
]