﻿{
  "Dlcs": {},
  "Name": "Zezenia Online",
  "AppId": "497860",
  "ImageUrl": "https://steamcdn-a.akamaihd.net/steam/apps/497860/header.jpg?t=1591916766",
  "Languages": [
    "english"
  ],
  "Platforms": {
    "windows": true,
    "mac": false,
    "linux": false
  }
}