﻿{
  "Dlcs": {},
  "Name": "GunGirl 2",
  "AppId": "517320",
  "ImageUrl": "https://steamcdn-a.akamaihd.net/steam/apps/517320/header.jpg?t=1578120430",
  "Languages": [
    "english"
  ],
  "Platforms": {
    "windows": true,
    "mac": false,
    "linux": false
  }
}