﻿{
  "Dlcs": {},
  "Name": "E.Y.E: Divine Cybermancy",
  "AppId": "91700",
  "ImageUrl": "https://steamcdn-a.akamaihd.net/steam/apps/91700/header.jpg?t=1574359860",
  "Languages": [
    "english",
    "french"
  ],
  "Platforms": {
    "windows": true,
    "mac": false,
    "linux": false
  }
}