﻿[
  {
    "name": "STAT_1",
    "defaultvalue": 0,
    "displayName": ""
  },
  {
    "name": "STAT_2",
    "defaultvalue": 0,
    "displayName": ""
  },
  {
    "name": "STAT_3",
    "defaultvalue": 0,
    "displayName": ""
  },
  {
    "name": "STAT_4",
    "defaultvalue": 0,
    "displayName": ""
  },
  {
    "name": "STAT_5",
    "defaultvalue": 0,
    "displayName": ""
  },
  {
    "name": "STAT_6",
    "defaultvalue": 0,
    "displayName": ""
  },
  {
    "name": "STAT_7",
    "defaultvalue": 0,
    "displayName": ""
  },
  {
    "name": "STAT_8",
    "defaultvalue": 0,
    "displayName": ""
  },
  {
    "name": "STAT_9",
    "defaultvalue": 0,
    "displayName": ""
  },
  {
    "name": "STAT_10",
    "defaultvalue": 0,
    "displayName": ""
  },
  {
    "name": "STAT_11",
    "defaultvalue": 0,
    "displayName": ""
  },
  {
    "name": "STAT_12",
    "defaultvalue": 0,
    "displayName": ""
  },
  {
    "name": "STAT_13",
    "defaultvalue": 0,
    "displayName": ""
  },
  {
    "name": "STAT_14",
    "defaultvalue": 0,
    "displayName": ""
  }
]