{
  "Releases": [
    "Windows"
  ],
  "Name": "SAMURAI SHODOWN NEOGEO COLLECTION",
  "AppId": "75553c71fa1744a4be89f71d5b862eae",
  "Namespace": "3e84a6d0684b4f7593e6bf88bee0cbaf",
  "ItemId": "c4aa7780f1ad4084aea750b7e28873e8",
  "ImageUrl": "https://cdn1.epicgames.com/3e84a6d0684b4f7593e6bf88bee0cbaf/item/EGS_SAMURAISHODOWNNEOGEOCOLLECTION_DigitalEclipse_S1-2560x1440-415377927f279a9edec4a122ef00c092.jpg",
  "Dlcs": {}
}