﻿{
  "Dlcs": {},
  "Name": "Curse of the Crescent Isle DX",
  "AppId": "365120",
  "ImageUrl": "https://steamcdn-a.akamaihd.net/steam/apps/365120/header.jpg?t=1572575059",
  "Languages": [
    "english"
  ],
  "Platforms": {
    "windows": true,
    "mac": true,
    "linux": true
  }
}