﻿{
  "Dlcs": {},
  "Name": "Surgeon Simulator",
  "AppId": "233720",
  "ImageUrl": "https://steamcdn-a.akamaihd.net/steam/apps/233720/header.jpg?t=1591792277",
  "Languages": [
    "english",
    "french",
    "italian",
    "german",
    "spanish",
    "danish",
    "dutch",
    "finnish",
    "norwegian",
    "polish",
    "portuguese",
    "russian",
    "swedish"
  ],
  "Platforms": {
    "windows": true,
    "mac": true,
    "linux": true
  }
}