﻿[
  {
    "name": "heart_transplant_1",
    "defaultvalue": 0,
    "displayName": "It's Life Jim, But Not As We Know It",
    "hidden": 0,
    "description": "Perform a heart transplant.",
    "icon": "https://steamcdn-a.akamaihd.net/steamcommunity/public/images/apps/233720/c54334cae5f53f71848e9e8c8f4ef38dcf54291f.jpg",
    "icongray": "https://steamcdn-a.akamaihd.net/steamcommunity/public/images/apps/233720/b5f6c937503b8c1a8212aa344fe13b0248e04368.jpg"
  },
  {
    "name": "heart_transplant_2",
    "defaultvalue": 0,
    "displayName": "Kali Mah!",
    "hidden": 0,
    "description": "Perform a heart transplant in under 2 minutes.",
    "icon": "https://steamcdn-a.akamaihd.net/steamcommunity/public/images/apps/233720/ee505aa3b57bc180cd33080bdd418a2dc326536f.jpg",
    "icongray": "https://steamcdn-a.akamaihd.net/steamcommunity/public/images/apps/233720/285298309ca639ce9e6c8cf04c766f1094993c58.jpg"
  },
  {
    "name": "heart_transplant_3",
    "defaultvalue": 0,
    "displayName": "Socialised Medicine!",
    "hidden": 0,
    "description": "Perform a heart transplant losing less than 1500ml of blood.",
    "icon": "https://steamcdn-a.akamaihd.net/steamcommunity/public/images/apps/233720/56b157f30d7fa152def90a3c0177e49c9c6b0ebb.jpg",
    "icongray": "https://steamcdn-a.akamaihd.net/steamcommunity/public/images/apps/233720/3ed1e2ebc760a032b0ab2ce41eafb952748532c5.jpg"
  },
  {
    "name": "heart_ambulance_1",
    "defaultvalue": 0,
    "displayName": "Nine Nine Nine!",
    "hidden": 0,
    "description": "Perform a heart transplant in an ambulance.",
    "icon": "https://steamcdn-a.akamaihd.net/steamcommunity/public/images/apps/233720/b1a549a246ebec5691e021ecf22def2808fe5fc4.jpg",
    "icongray": "https://steamcdn-a.akamaihd.net/steamcommunity/public/images/apps/233720/41fa8dc72949524df378a0f88587aa417dfd3f69.jpg"
  },
  {
    "name": "heart_ambulance_2",
    "defaultvalue": 0,
    "displayName": "Life's Too Short",
    "hidden": 0,
    "description": "Perform a heart transplant in an ambulance in under 2 minutes 30 seconds.",
    "icon": "https://steamcdn-a.akamaihd.net/steamcommunity/public/images/apps/233720/500641221d5b73ecb44d31eb7f5cd46b399e4041.jpg",
    "icongray": "https://steamcdn-a.akamaihd.net/steamcommunity/public/images/apps/233720/3d9d6e30a4832146f6da6c359481ed666fd906f7.jpg"
  },
  {
    "name": "heart_ambulance_3",
    "defaultvalue": 0,
    "displayName": "One With The Speed Bumps",
    "hidden": 0,
    "description": "Perform a heart transplant in an ambulance losing less than 2000ml of blood.",
    "icon": "https://steamcdn-a.akamaihd.net/steamcommunity/public/images/apps/233720/66c7e0c3d8bbf56048f91ac0cc0f8717f1be050d.jpg",
    "icongray": "https://steamcdn-a.akamaihd.net/steamcommunity/public/images/apps/233720/b351335663da007773535bae9ef37cb16fcbf08d.jpg"
  },
  {
    "name": "brain_transplant_1",
    "defaultvalue": 0,
    "displayName": "I Think I Got This",
    "hidden": 0,
    "description": "Perform a brain transplant.",
    "icon": "https://steamcdn-a.akamaihd.net/steamcommunity/public/images/apps/233720/1616e87be1e0b69c511742d27bda0d80f8dbea8e.jpg",
    "icongray": "https://steamcdn-a.akamaihd.net/steamcommunity/public/images/apps/233720/ba3396fb5e41a1a729dbdec1fd8e22563f1d6f94.jpg"
  },
  {
    "name": "brain_transplant_2",
    "defaultvalue": 0,
    "displayName": "How Long Can You Live Without A Brain?",
    "hidden": 0,
    "description": "Perform a brain transplant in under 1 minute.",
    "icon": "https://steamcdn-a.akamaihd.net/steamcommunity/public/images/apps/233720/c0460bf5bfae95e4e6dc2b9781419097974dcff3.jpg",
    "icongray": "https://steamcdn-a.akamaihd.net/steamcommunity/public/images/apps/233720/006f0e33831ae9da125991a2f1307619e9c3e78c.jpg"
  },
  {
    "name": "brain_transplant_3",
    "defaultvalue": 0,
    "displayName": "Sweet Blasphemy",
    "hidden": 0,
    "description": "Perform a brain transplant losing less than 600ml of blood.",
    "icon": "https://steamcdn-a.akamaihd.net/steamcommunity/public/images/apps/233720/22932225f9dba1c6163f184f73b44e1f28c84c30.jpg",
    "icongray": "https://steamcdn-a.akamaihd.net/steamcommunity/public/images/apps/233720/25074db8ca756c49469c86a4786d8ea2f20b357f.jpg"
  },
  {
    "name": "brain_ambulance_1",
    "defaultvalue": 0,
    "displayName": "What Could Possibly Go Wrong?",
    "hidden": 0,
    "description": "Perform a brain transplant in an ambulance.",
    "icon": "https://steamcdn-a.akamaihd.net/steamcommunity/public/images/apps/233720/7eea2f9bafa8fa8ca29bf2c87d3a20e369583427.jpg",
    "icongray": "https://steamcdn-a.akamaihd.net/steamcommunity/public/images/apps/233720/9fe20a24927d826553f5795b895570cc0a85c971.jpg"
  },
  {
    "name": "brain_ambulance_2",
    "defaultvalue": 0,
    "displayName": "Brainstorm",
    "hidden": 0,
    "description": "Perform a brain transplant in an ambulance in under 1 minute 15 seconds.",
    "icon": "https://steamcdn-a.akamaihd.net/steamcommunity/public/images/apps/233720/05eb8fa6487ced2e3d99b906352b192c34543dd7.jpg",
    "icongray": "https://steamcdn-a.akamaihd.net/steamcommunity/public/images/apps/233720/17f253fc3e5fa520a18c3c4be56b6a06589c5e12.jpg"
  },
  {
    "name": "brain_ambulance_3",
    "defaultvalue": 0,
    "displayName": "Nigel You Bloody Hero",
    "hidden": 0,
    "description": "Perform a brain transplant in an ambulance losing less than 1200ml of blood.",
    "icon": "https://steamcdn-a.akamaihd.net/steamcommunity/public/images/apps/233720/15c4dc88e7f26470b3d25fa8273e11c7e70a7a9e.jpg",
    "icongray": "https://steamcdn-a.akamaihd.net/steamcommunity/public/images/apps/233720/b0b985457d906ae77088522e4452760115deb7ab.jpg"
  },
  {
    "name": "kidney_transplant_1",
    "defaultvalue": 0,
    "displayName": "You've Got To Be Kid'n'ey!",
    "hidden": 0,
    "description": "Perform a double kidney transplant.",
    "icon": "https://steamcdn-a.akamaihd.net/steamcommunity/public/images/apps/233720/9b849d4795c6e51e06a000dbbf118e9fa0edbe0c.jpg",
    "icongray": "https://steamcdn-a.akamaihd.net/steamcommunity/public/images/apps/233720/b595308ae9a8e08f68c18bf765b73db6aef9faa2.jpg"
  },
  {
    "name": "kidney_transplant_2",
    "defaultvalue": 0,
    "displayName": "Don't In-Test My Patience",
    "hidden": 0,
    "description": "Perform a double kidney transplant in under 2 minutes 50 seconds.",
    "icon": "https://steamcdn-a.akamaihd.net/steamcommunity/public/images/apps/233720/beec3e78a5bc19b48d437a47d6ffc05e04f7bb25.jpg",
    "icongray": "https://steamcdn-a.akamaihd.net/steamcommunity/public/images/apps/233720/21247861c0ac67e09aa75d940de645eaebd132be.jpg"
  },
  {
    "name": "kidney_transplant_3",
    "defaultvalue": 0,
    "displayName": "Performance Anxiety",
    "hidden": 0,
    "description": "Perform a double kidney transplant losing less than 500ml of blood.",
    "icon": "https://steamcdn-a.akamaihd.net/steamcommunity/public/images/apps/233720/4b97bb2e8e60cd74a6f7a86659d43c316084c39b.jpg",
    "icongray": "https://steamcdn-a.akamaihd.net/steamcommunity/public/images/apps/233720/1e5e203dab65eba9db5c23255b90095f665c731a.jpg"
  },
  {
    "name": "kidney_ambulance_1",
    "defaultvalue": 0,
    "displayName": "When You Have No Choice But To Operate",
    "hidden": 0,
    "description": "Perform a double kidney transplant in an ambulance.",
    "icon": "https://steamcdn-a.akamaihd.net/steamcommunity/public/images/apps/233720/c3e9fdf664b4c0f8537f0ac6d046e361f07c3814.jpg",
    "icongray": "https://steamcdn-a.akamaihd.net/steamcommunity/public/images/apps/233720/821b9174f8875f9879c138bac9c810afc3e83a20.jpg"
  },
  {
    "name": "kidney_ambulance_2",
    "defaultvalue": 0,
    "displayName": "A Surgeon's Merit Is Based On Speed",
    "hidden": 0,
    "description": "Perform a double kidney transplant in an ambulance in under 3 minutes.",
    "icon": "https://steamcdn-a.akamaihd.net/steamcommunity/public/images/apps/233720/0f6e58da0beda2900998eeb809c26ef1080e1dae.jpg",
    "icongray": "https://steamcdn-a.akamaihd.net/steamcommunity/public/images/apps/233720/fbf7619f77878a4c94094679f69a9b4cd5e00f5e.jpg"
  },
  {
    "name": "kidney_ambulance_3",
    "defaultvalue": 0,
    "displayName": "At Least He Won't Be Peeing Blood",
    "hidden": 0,
    "description": "Perform a double kidney transplant in an ambulance losing less than 600ml of blood.",
    "icon": "https://steamcdn-a.akamaihd.net/steamcommunity/public/images/apps/233720/94fd97cc81d6f369cf7c9d5cae2eccaa2ebbc3de.jpg",
    "icongray": "https://steamcdn-a.akamaihd.net/steamcommunity/public/images/apps/233720/99bea0146f3b0e7642414f25a476fe1fb85eebe4.jpg"
  },
  {
    "name": "shh_i_doctor",
    "defaultvalue": 0,
    "displayName": "Shh I Doctor Now",
    "hidden": 0,
    "description": "Calm your patient.",
    "icon": "https://steamcdn-a.akamaihd.net/steamcommunity/public/images/apps/233720/4c6344a3ce73763d5fc0dea903bf9074485f6053.jpg",
    "icongray": "https://steamcdn-a.akamaihd.net/steamcommunity/public/images/apps/233720/e3b1d35a0e29aa41e4e07cdf823657f8ee331430.jpg"
  },
  {
    "name": "flippin_the_bird",
    "defaultvalue": 0,
    "displayName": "Flippin' The Bird",
    "hidden": 0,
    "description": "Show the patient your disdain.",
    "icon": "https://steamcdn-a.akamaihd.net/steamcommunity/public/images/apps/233720/3b53f9786d925443ef53a890904aa9ca5f5ade5e.jpg",
    "icongray": "https://steamcdn-a.akamaihd.net/steamcommunity/public/images/apps/233720/8bbd6163e7a5df297bdc031d014b728985a29225.jpg"
  },
  {
    "name": "surgery_horns",
    "defaultvalue": 0,
    "displayName": "Surgery Horns",
    "hidden": 0,
    "description": "Express your appreciation of the metal.",
    "icon": "https://steamcdn-a.akamaihd.net/steamcommunity/public/images/apps/233720/8fda2a0a564848d3626c451499532fb17297a559.jpg",
    "icongray": "https://steamcdn-a.akamaihd.net/steamcommunity/public/images/apps/233720/fbc7a83ed64f33f19a9c832b81b4c1e59c7dbd60.jpg"
  },
  {
    "name": "pinky_swear",
    "defaultvalue": 0,
    "displayName": "Pinky Swear",
    "hidden": 0,
    "description": "Make a promise with the rib cage.",
    "icon": "https://steamcdn-a.akamaihd.net/steamcommunity/public/images/apps/233720/3680804433ae37853ebe580809283eb0a047294f.jpg",
    "icongray": "https://steamcdn-a.akamaihd.net/steamcommunity/public/images/apps/233720/e278d0bef41ed142fcb1ce68056bf0c597682fd2.jpg"
  },
  {
    "name": "surgetricity",
    "defaultvalue": 0,
    "displayName": "Surgetricity",
    "hidden": 0,
    "description": "Complete a procedure after being electrocuted. (Must be electrocuted within 10 secs)",
    "icon": "https://steamcdn-a.akamaihd.net/steamcommunity/public/images/apps/233720/b59af4087706b95c04e1b676d38c0a48e265c627.jpg",
    "icongray": "https://steamcdn-a.akamaihd.net/steamcommunity/public/images/apps/233720/fd38338de4afe4a2a72ae6157251d1bccbb77155.jpg"
  },
  {
    "name": "performance_enhancer",
    "defaultvalue": 0,
    "displayName": "Performance Enhancer?",
    "hidden": 0,
    "description": "Complete a procedure after injecting a drug. (Must be drugged within 10 secs)",
    "icon": "https://steamcdn-a.akamaihd.net/steamcommunity/public/images/apps/233720/83869d9938f553920b2488b69f4a50e42765c8ff.jpg",
    "icongray": "https://steamcdn-a.akamaihd.net/steamcommunity/public/images/apps/233720/7a20440eb2250b916231ee882fa42046a5678c33.jpg"
  },
  {
    "name": "regret_this_decision",
    "defaultvalue": 0,
    "displayName": "I Immediately Regret This Decision",
    "hidden": 0,
    "description": "Electrocute and drug yourself at the same time.",
    "icon": "https://steamcdn-a.akamaihd.net/steamcommunity/public/images/apps/233720/e649bae6693c6c414b9450c9871363ce896eca96.jpg",
    "icongray": "https://steamcdn-a.akamaihd.net/steamcommunity/public/images/apps/233720/c4be69d40e5ce963fc6fa5bee63d560aa52e701e.jpg"
  },
  {
    "name": "it_was_impossible",
    "defaultvalue": 0,
    "displayName": "And They Said It Was Impossible!",
    "hidden": 0,
    "description": "Complete a procedure after being drugged and electrocuted. (Must be afflicted within 20 secs)",
    "icon": "https://steamcdn-a.akamaihd.net/steamcommunity/public/images/apps/233720/d0220aa0d1a50193a7b3051b13d0a36ef6e39a1a.jpg",
    "icongray": "https://steamcdn-a.akamaihd.net/steamcommunity/public/images/apps/233720/7f575c06de40d2ade91512c7a7ed27281ed34646.jpg"
  },
  {
    "name": "butter_fingers",
    "defaultvalue": 0,
    "displayName": "Butter Fingers",
    "hidden": 0,
    "description": "Lose every organ out the back of the ambulance during the heart transplant.",
    "icon": "https://steamcdn-a.akamaihd.net/steamcommunity/public/images/apps/233720/a07789338cd208bb1d9a3e021e395cb51f7c29dc.jpg",
    "icongray": "https://steamcdn-a.akamaihd.net/steamcommunity/public/images/apps/233720/5c1fabf921d864c577e28f628bfed1ab1a0397e4.jpg"
  },
  {
    "name": "what_have_i_done",
    "defaultvalue": 0,
    "displayName": "What Have I Done??",
    "hidden": 0,
    "description": "Lose the patient within 15 seconds.",
    "icon": "https://steamcdn-a.akamaihd.net/steamcommunity/public/images/apps/233720/45b27c02dcb1d11b2d5391e525c918917cf254e1.jpg",
    "icongray": "https://steamcdn-a.akamaihd.net/steamcommunity/public/images/apps/233720/87a463744eddbbcd27eaeb332a55b7a84291eee9.jpg"
  },
  {
    "name": "hammer_time",
    "defaultvalue": 0,
    "displayName": "Hammer Time",
    "hidden": 0,
    "description": "Lose 50,000ml of blood using the hammer.",
    "icon": "https://steamcdn-a.akamaihd.net/steamcommunity/public/images/apps/233720/bdfe99ee2e65cbbfba228e4340227644a0753e54.jpg",
    "icongray": "https://steamcdn-a.akamaihd.net/steamcommunity/public/images/apps/233720/bcca567e8912c869d1509a7e12c2a2018a87270a.jpg"
  },
  {
    "name": "mother_hen",
    "defaultvalue": 0,
    "displayName": "Mother Hen",
    "hidden": 0,
    "description": "Don't lose any tools out the back of the ambulance.",
    "icon": "https://steamcdn-a.akamaihd.net/steamcommunity/public/images/apps/233720/de597229896e7f423924ef1dbca8a9d4d5a04663.jpg",
    "icongray": "https://steamcdn-a.akamaihd.net/steamcommunity/public/images/apps/233720/afa0b45606aed4da5b0e09030a2b3af4890603d4.jpg"
  },
  {
    "name": "keyhole_surgery",
    "defaultvalue": 0,
    "displayName": "Keyhole Surgery",
    "hidden": 0,
    "description": "Completely remove the rib cage.",
    "icon": "https://steamcdn-a.akamaihd.net/steamcommunity/public/images/apps/233720/8615caeddbfa321b49b54a2d642d475b799b4e03.jpg",
    "icongray": "https://steamcdn-a.akamaihd.net/steamcommunity/public/images/apps/233720/9c8e511b6d1aab0440d4853922b1fe5c1622bdea.jpg"
  },
  {
    "name": "practically_licensed",
    "defaultvalue": 0,
    "displayName": "Practically Licensed",
    "hidden": 0,
    "description": "Complete all procedures.",
    "icon": "https://steamcdn-a.akamaihd.net/steamcommunity/public/images/apps/233720/38d4525140b1a57442c58d232e2c2e1eb600dd41.jpg",
    "icongray": "https://steamcdn-a.akamaihd.net/steamcommunity/public/images/apps/233720/37eb6050008d8af5d88fe8395730f508a697d086.jpg"
  },
  {
    "name": "never_doubted_myself",
    "defaultvalue": 0,
    "displayName": "I Should Never Have Doubted Myself",
    "hidden": 0,
    "description": "Get an A++ rating on a procedure.",
    "icon": "https://steamcdn-a.akamaihd.net/steamcommunity/public/images/apps/233720/154e9942f168b021e05ed5fb2f688ac2da034cb2.jpg",
    "icongray": "https://steamcdn-a.akamaihd.net/steamcommunity/public/images/apps/233720/150f7b576a821850a2a84d9969ad5e96935ff943.jpg"
  },
  {
    "name": "best_in_the_world",
    "defaultvalue": 0,
    "displayName": "Best Surgeon In The World",
    "hidden": 0,
    "description": "Get an A++ rating on all procedures.",
    "icon": "https://steamcdn-a.akamaihd.net/steamcommunity/public/images/apps/233720/a49aed68d282544bee1781072887591a12930f2b.jpg",
    "icongray": "https://steamcdn-a.akamaihd.net/steamcommunity/public/images/apps/233720/0942c3ed5bdaa75d654c35142271c9c5f9d6e409.jpg"
  },
  {
    "name": "wet_paper_towel",
    "defaultvalue": 0,
    "displayName": "Like A Wet Paper Towel",
    "hidden": 0,
    "description": "Throw the new heart away in the surgery.",
    "icon": "https://steamcdn-a.akamaihd.net/steamcommunity/public/images/apps/233720/de9fc8bbd514248fb34d437c98ced7759f15228a.jpg",
    "icongray": "https://steamcdn-a.akamaihd.net/steamcommunity/public/images/apps/233720/6e6380dad989b273294c038979e4c30af0531cfe.jpg"
  },
  {
    "name": "sure_hell_live",
    "defaultvalue": 0,
    "displayName": "I'm Sure He'll Live",
    "hidden": 0,
    "description": "Complete a procedure with less than 10ml of blood remaining.",
    "icon": "https://steamcdn-a.akamaihd.net/steamcommunity/public/images/apps/233720/247e7befb562ccc8c0aaf6ae93c62e25d4198199.jpg",
    "icongray": "https://steamcdn-a.akamaihd.net/steamcommunity/public/images/apps/233720/4b77a31e2f52c2f7e8bd38c5b6c240fbf20ddf52.jpg"
  },
  {
    "name": "like_an_animal",
    "defaultvalue": 0,
    "displayName": "Like An Animal",
    "hidden": 0,
    "description": "Throw everything on to the floor in the kidney transplant surgery.",
    "icon": "https://steamcdn-a.akamaihd.net/steamcommunity/public/images/apps/233720/1583781babf52740c96323932a2f93a5d5a3e38f.jpg",
    "icongray": "https://steamcdn-a.akamaihd.net/steamcommunity/public/images/apps/233720/60ba876447ca708f9fea6140960968cb2d288c6a.jpg"
  },
  {
    "name": "time_lord",
    "defaultvalue": 0,
    "displayName": "Vworrrp Vworrrp ",
    "hidden": 0,
    "description": "Create a Time Lord.",
    "icon": "https://steamcdn-a.akamaihd.net/steamcommunity/public/images/apps/233720/97b653bb1329cb4197270d36adb222ab776081eb.jpg",
    "icongray": "https://steamcdn-a.akamaihd.net/steamcommunity/public/images/apps/233720/a478a5be7d76c42d7f4f3e7e5d3881389330a901.jpg"
  },
  {
    "name": "beat_of_your_heart",
    "defaultvalue": 0,
    "displayName": "The Beat Of Your Heart",
    "hidden": 0,
    "description": "Replace the heart with something else.",
    "icon": "https://steamcdn-a.akamaihd.net/steamcommunity/public/images/apps/233720/a865efe128e4b476751b9e8551e0e68379a31c6d.jpg",
    "icongray": "https://steamcdn-a.akamaihd.net/steamcommunity/public/images/apps/233720/c4236f2a5584f1b7135ae26f8a6c43ba11f1084a.jpg"
  },
  {
    "name": "frikkin_lasers",
    "defaultvalue": 0,
    "displayName": "Frikkin' Lasers",
    "hidden": 0,
    "description": "Complete a procedure using only the surgical laser.",
    "icon": "https://steamcdn-a.akamaihd.net/steamcommunity/public/images/apps/233720/16e23ddccef21ba485d7cb21a385d3d10672ac33.jpg",
    "icongray": "https://steamcdn-a.akamaihd.net/steamcommunity/public/images/apps/233720/c836d6c49b15ec17284cbefd1bb739856a1fa641.jpg"
  },
  {
    "name": "doctor_doctor",
    "defaultvalue": 0,
    "displayName": "Doctor Doctor, Give Me The News",
    "hidden": 0,
    "description": "Answer the phone.",
    "icon": "https://steamcdn-a.akamaihd.net/steamcommunity/public/images/apps/233720/d3c85393e92311e6cbaa0aa90608127730e079aa.jpg",
    "icongray": "https://steamcdn-a.akamaihd.net/steamcommunity/public/images/apps/233720/8c9543acf7fb9a8e1893e6acfd0810675012a1a1.jpg"
  },
  {
    "name": "the_secretary",
    "defaultvalue": 0,
    "displayName": "Nigel The Secretary",
    "hidden": 0,
    "description": "Go about your secretarial duties.",
    "icon": "https://steamcdn-a.akamaihd.net/steamcommunity/public/images/apps/233720/297f8a095073732901983378cc508c7c3dbef75f.jpg",
    "icongray": "https://steamcdn-a.akamaihd.net/steamcommunity/public/images/apps/233720/ec0e769160398dbe8006daa543200e16a45130d6.jpg"
  },
  {
    "name": "go_for_the_optics",
    "defaultvalue": 0,
    "displayName": "Go For The Optics!",
    "hidden": 0,
    "description": "Perform ",
    "icon": "https://steamcdn-a.akamaihd.net/steamcommunity/public/images/apps/233720/4d05a6655941f3ada6161ba158ce69df8e6ceb40.jpg",
    "icongray": "https://steamcdn-a.akamaihd.net/steamcommunity/public/images/apps/233720/2195f54a8c3367c4b1d5dd5a2de0ac90a34df699.jpg"
  },
  {
    "name": "10mb_raw_data",
    "defaultvalue": 0,
    "displayName": "10 Megabytes Of Raw Data",
    "hidden": 0,
    "description": "Collect all floppy disks.",
    "icon": "https://steamcdn-a.akamaihd.net/steamcommunity/public/images/apps/233720/48f908129a4b2480557bffffa7fd581e16298612.jpg",
    "icongray": "https://steamcdn-a.akamaihd.net/steamcommunity/public/images/apps/233720/e23c227df2ae20f40f2977c76a7e8e9e68fab3ea.jpg"
  },
  {
    "name": "space",
    "defaultvalue": 0,
    "displayName": "Spaaaaaaaaace",
    "hidden": 0,
    "description": "Go where no surgeon has gone before.",
    "icon": "https://steamcdn-a.akamaihd.net/steamcommunity/public/images/apps/233720/9c841bb4e211a9efc2ed7fde00e8392b9357b8b1.jpg",
    "icongray": "https://steamcdn-a.akamaihd.net/steamcommunity/public/images/apps/233720/88a9734e1d262aaecda6427ce934dee2b660e8a1.jpg"
  },
  {
    "name": "ribs_grow_back",
    "defaultvalue": 0,
    "displayName": "Don't Be Such A Baby, Ribs Grow Back!",
    "hidden": 0,
    "description": "Completely smash up the rib cage.",
    "icon": "https://steamcdn-a.akamaihd.net/steamcommunity/public/images/apps/233720/f049a5c02c0c98440dde8853239880354673c81c.jpg",
    "icongray": "https://steamcdn-a.akamaihd.net/steamcommunity/public/images/apps/233720/ba4e42bc712512c49bd9ed531122c4cf4e49f40b.jpg"
  },
  {
    "name": "correct_as_fur",
    "defaultvalue": 0,
    "displayName": "About As Politically Correct As Fur",
    "hidden": 0,
    "description": "Give the patient a... scarf.",
    "icon": "https://steamcdn-a.akamaihd.net/steamcommunity/public/images/apps/233720/eae091ec2abdc39793787d243002c98de7fa1300.jpg",
    "icongray": "https://steamcdn-a.akamaihd.net/steamcommunity/public/images/apps/233720/d79c75a66841fb0914fde455ee8e31cb292fc39e.jpg"
  },
  {
    "name": "nothing_more_to_teach",
    "defaultvalue": 0,
    "displayName": "There Is Nothing More To Teach...",
    "hidden": 0,
    "description": "Completed every achievement. Now go save lives!",
    "icon": "https://steamcdn-a.akamaihd.net/steamcommunity/public/images/apps/233720/1b64988e802250ef3c3c6aeb3cc28de807d7757e.jpg",
    "icongray": "https://steamcdn-a.akamaihd.net/steamcommunity/public/images/apps/233720/93a8d1c137fdcb2d700cd2611bbec9be8fc769d3.jpg"
  },
  {
    "name": "tf2_valve_let_us",
    "defaultvalue": 0,
    "displayName": "Valve Actually Let Us Do This?",
    "hidden": 0,
    "description": "Successfully use the VHS tape.",
    "icon": "https://steamcdn-a.akamaihd.net/steamcommunity/public/images/apps/233720/e5b37b7e6c46f02773c454b9811365769b470604.jpg",
    "icongray": "https://steamcdn-a.akamaihd.net/steamcommunity/public/images/apps/233720/828aabc7a12383f2595466e32390c562c9c64608.jpg"
  },
  {
    "name": "tf2_transplant_1",
    "defaultvalue": 0,
    "displayName": "Let's Go Practice Medicine",
    "hidden": 0,
    "description": "Perform an uber heart transplant.",
    "icon": "https://steamcdn-a.akamaihd.net/steamcommunity/public/images/apps/233720/07aede25d37b296f72ca5e16aceea036ad74065c.jpg",
    "icongray": "https://steamcdn-a.akamaihd.net/steamcommunity/public/images/apps/233720/e426f226f0d55f2150bc135738d10748faf6d418.jpg"
  },
  {
    "name": "tf2_transplant_2",
    "defaultvalue": 0,
    "displayName": "That's How I Lost My Medical License",
    "hidden": 0,
    "description": "Perform an uber heart transplant in under 2 minutes 30 seconds.",
    "icon": "https://steamcdn-a.akamaihd.net/steamcommunity/public/images/apps/233720/a54c9da598d710a80647cd83e470bdbf426709c6.jpg",
    "icongray": "https://steamcdn-a.akamaihd.net/steamcommunity/public/images/apps/233720/49b0d0da3e336d0202148dad0cccb68724858d54.jpg"
  },
  {
    "name": "tf2_transplant_3",
    "defaultvalue": 0,
    "displayName": "Should I Be Awake For This?",
    "hidden": 0,
    "description": "Perform an uber heart transplant losing less than 1000ml of blood.",
    "icon": "https://steamcdn-a.akamaihd.net/steamcommunity/public/images/apps/233720/c904b4c374ad9e49bbb77cb36d2f97efaf969062.jpg",
    "icongray": "https://steamcdn-a.akamaihd.net/steamcommunity/public/images/apps/233720/62fcb04a4d84557467318183d0e54385c3be35a8.jpg"
  },
  {
    "name": "tf2_sound_of_progress",
    "defaultvalue": 0,
    "displayName": "The Sound Of Progress My Friend!",
    "hidden": 0,
    "description": "Explode a heart.",
    "icon": "https://steamcdn-a.akamaihd.net/steamcommunity/public/images/apps/233720/b8bc63f31eb447748ac0d6540ce6ae4c00bda3d8.jpg",
    "icongray": "https://steamcdn-a.akamaihd.net/steamcommunity/public/images/apps/233720/7356a75680e224a91fda89a2dc3ad0c78dd9a9cc.jpg"
  },
  {
    "name": "tf2_archimedes",
    "defaultvalue": 0,
    "displayName": "Archimedes!",
    "hidden": 0,
    "description": "Hit Archimedes with a heart.",
    "icon": "https://steamcdn-a.akamaihd.net/steamcommunity/public/images/apps/233720/de812e7ea0d3e9932bbebfd418b9512696a6c5ad.jpg",
    "icongray": "https://steamcdn-a.akamaihd.net/steamcommunity/public/images/apps/233720/1643db16c8f9983506521a77c1b344d0f9587885.jpg"
  },
  {
    "name": "its_in",
    "defaultvalue": 0,
    "displayName": "It's In! It's In I Tell You!",
    "hidden": 0,
    "description": "...and it was going so well.",
    "icon": "https://steamcdn-a.akamaihd.net/steamcommunity/public/images/apps/233720/ec0ee0941cc45e952642a147dacc6c9b4482f3e6.jpg",
    "icongray": "https://steamcdn-a.akamaihd.net/steamcommunity/public/images/apps/233720/50941b5b5a02210f708ac0bfa84c12bbbda59c8e.jpg"
  },
  {
    "name": "nothing_but_skull",
    "defaultvalue": 0,
    "displayName": "Nothing But Skull",
    "hidden": 0,
    "description": "Complete a brain transplant by throwing it in.",
    "icon": "https://steamcdn-a.akamaihd.net/steamcommunity/public/images/apps/233720/df5557688e1b102856a6370833bbc05e8bb8b6ee.jpg",
    "icongray": "https://steamcdn-a.akamaihd.net/steamcommunity/public/images/apps/233720/cd119168b46c5e7b5bbd93679321fbc04a0486f5.jpg"
  },
  {
    "name": "sick_filth",
    "defaultvalue": 0,
    "displayName": "Let's See That Sick Filth Again",
    "hidden": 0,
    "description": "Perform a 180° spoon flip.",
    "icon": "https://steamcdn-a.akamaihd.net/steamcommunity/public/images/apps/233720/1b529ba0773c13cfb09f0db126a1deee672ecccb.jpg",
    "icongray": "https://steamcdn-a.akamaihd.net/steamcommunity/public/images/apps/233720/7c8ad30b4838aff86c8f356a53fc19ed0cac24a6.jpg"
  },
  {
    "name": "call_trisha",
    "defaultvalue": 0,
    "displayName": "Call Trisha",
    "hidden": 0,
    "description": "Now where did you leave her number...",
    "icon": "https://steamcdn-a.akamaihd.net/steamcommunity/public/images/apps/233720/04bb8f67a8f93351d26089722ccb8748a6e4bfc8.jpg",
    "icongray": "https://steamcdn-a.akamaihd.net/steamcommunity/public/images/apps/233720/b8b4e75c4d85738fd1c540ecd8ca485be1d09783.jpg"
  },
  {
    "name": "spc_heart_space_1",
    "defaultvalue": 0,
    "displayName": "In Space, No One Can Hear You Bleed",
    "hidden": 0,
    "description": "Perform a heart transplant in space.",
    "icon": "https://steamcdn-a.akamaihd.net/steamcommunity/public/images/apps/233720/58fd777ea49116d50f848afe547def0e94dca6bf.jpg",
    "icongray": "https://steamcdn-a.akamaihd.net/steamcommunity/public/images/apps/233720/73e1a67d4d8482c9b8ae66a75a0a92e88cfb4837.jpg"
  },
  {
    "name": "spc_heart_space_2",
    "defaultvalue": 0,
    "displayName": "No Time To Admire The View",
    "hidden": 0,
    "description": "Perform a heart transplant in space in under 1 minute 40 seconds.",
    "icon": "https://steamcdn-a.akamaihd.net/steamcommunity/public/images/apps/233720/b4bd149a7a930516d1479b38bc2abc810a60c155.jpg",
    "icongray": "https://steamcdn-a.akamaihd.net/steamcommunity/public/images/apps/233720/fd760f937f5aa19f66eade196125d210a094b07f.jpg"
  },
  {
    "name": "spc_heart_space_3",
    "defaultvalue": 0,
    "displayName": "Just Enough To Clog The Gravity Engine",
    "hidden": 0,
    "description": "Perform a heart transplant in space losing less than 400ml of blood.",
    "icon": "https://steamcdn-a.akamaihd.net/steamcommunity/public/images/apps/233720/43e733cdda16b2b103871c78a6357504528312b5.jpg",
    "icongray": "https://steamcdn-a.akamaihd.net/steamcommunity/public/images/apps/233720/83972c3d0d8207660668569df31549aa7941ddc8.jpg"
  },
  {
    "name": "spc_kidney_space_1",
    "defaultvalue": 0,
    "displayName": "Zero G Kidney",
    "hidden": 0,
    "description": "Perform a double kidney transplant in space.",
    "icon": "https://steamcdn-a.akamaihd.net/steamcommunity/public/images/apps/233720/419121a94df54ce9d7de897eb1cc52abb5f6f332.jpg",
    "icongray": "https://steamcdn-a.akamaihd.net/steamcommunity/public/images/apps/233720/3ff2dbc171da7b6137ab83295c70582554893d2c.jpg"
  },
  {
    "name": "spc_kidney_space_2",
    "defaultvalue": 0,
    "displayName": "Stomach O'Clock",
    "hidden": 0,
    "description": "Perform a double kidney transplant in space in under 2 minutes.",
    "icon": "https://steamcdn-a.akamaihd.net/steamcommunity/public/images/apps/233720/3cb26e4d1f6ea1b333a5a26a7f5d22b8bb639eb7.jpg",
    "icongray": "https://steamcdn-a.akamaihd.net/steamcommunity/public/images/apps/233720/37e9fef53ea09163c2976a73082ee14352a92dcd.jpg"
  },
  {
    "name": "spc_kidney_space_3",
    "defaultvalue": 0,
    "displayName": "The Surgery Of The Future",
    "hidden": 0,
    "description": "Perform a double kidney transplant in space losing less than 400ml of blood.",
    "icon": "https://steamcdn-a.akamaihd.net/steamcommunity/public/images/apps/233720/21b5e4dc4baa73564b58ae40c34b7a8374f95a48.jpg",
    "icongray": "https://steamcdn-a.akamaihd.net/steamcommunity/public/images/apps/233720/12d2bd7b6313949c07715bde9a43f142226678d9.jpg"
  },
  {
    "name": "spc_brain_space_1",
    "defaultvalue": 0,
    "displayName": "It's Hardly Rocket Science",
    "hidden": 0,
    "description": "Perform a brain transplant in space.",
    "icon": "https://steamcdn-a.akamaihd.net/steamcommunity/public/images/apps/233720/c862fc0986f0bee04f4625cd7f40ebd131171253.jpg",
    "icongray": "https://steamcdn-a.akamaihd.net/steamcommunity/public/images/apps/233720/51fd1f9e18c3fd0017b90f79c737b7e4a8093645.jpg"
  },
  {
    "name": "spc_brain_space_2",
    "defaultvalue": 0,
    "displayName": "Speedrun Time",
    "hidden": 0,
    "description": "Perform a brain transplant in space in under 1 minute.",
    "icon": "https://steamcdn-a.akamaihd.net/steamcommunity/public/images/apps/233720/ff5af5622dd67b8d4b5ef0b07af35b61764cc466.jpg",
    "icongray": "https://steamcdn-a.akamaihd.net/steamcommunity/public/images/apps/233720/589a3b43eb6005fd8a480caa4e85ab3a5735dd29.jpg"
  },
  {
    "name": "spc_brain_space_3",
    "defaultvalue": 0,
    "displayName": "Precision Instrument Time",
    "hidden": 0,
    "description": "Perform a brain transplant in space losing less than 600ml of blood.",
    "icon": "https://steamcdn-a.akamaihd.net/steamcommunity/public/images/apps/233720/79b527b88f7ad3bdc91d8e688763e85a0e57e076.jpg",
    "icongray": "https://steamcdn-a.akamaihd.net/steamcommunity/public/images/apps/233720/3dfd59a27f75fa502cfd66c2f44568de9ef20895.jpg"
  },
  {
    "name": "spc_enter_the_code",
    "defaultvalue": 0,
    "displayName": "Enter The Code",
    "hidden": 0,
    "description": "I'm not sure that was worth it...",
    "icon": "https://steamcdn-a.akamaihd.net/steamcommunity/public/images/apps/233720/7da9843fdf9aa62c282744f2b04e43a3934eba2b.jpg",
    "icongray": "https://steamcdn-a.akamaihd.net/steamcommunity/public/images/apps/233720/43b5f74763c7d6bd75e34a1d487a995f33eeac97.jpg"
  },
  {
    "name": "spc_adventure",
    "defaultvalue": 0,
    "displayName": "We're Going On An Adventure!",
    "hidden": 0,
    "description": "Take your radio with you.",
    "icon": "https://steamcdn-a.akamaihd.net/steamcommunity/public/images/apps/233720/ad0a4d2b948c757c7d44927443a3df9a0ab7c56c.jpg",
    "icongray": "https://steamcdn-a.akamaihd.net/steamcommunity/public/images/apps/233720/456dec6b711f7beacdcef556d2e8d33912222afa.jpg"
  },
  {
    "name": "spc_prime_directive_hdn",
    "defaultvalue": 0,
    "displayName": "Screw The Prime Directive",
    "hidden": 1,
    "icon": "https://steamcdn-a.akamaihd.net/steamcommunity/public/images/apps/233720/adeed0db8ae2b3e63490fbbb9061e1af120a3aaf.jpg",
    "icongray": "https://steamcdn-a.akamaihd.net/steamcommunity/public/images/apps/233720/848d86a311ab9e1205f9e9052306736e0fdd2343.jpg"
  },
  {
    "name": "spc_i_have_no_idea",
    "defaultvalue": 0,
    "displayName": "I Have No Idea What I'm Doing",
    "hidden": 0,
    "description": "Smash all canisters within 10 seconds.",
    "icon": "https://steamcdn-a.akamaihd.net/steamcommunity/public/images/apps/233720/dc9d1307e6b2a950fed9759449e3559ae7e3eb59.jpg",
    "icongray": "https://steamcdn-a.akamaihd.net/steamcommunity/public/images/apps/233720/376941b25cca80a91f9c9746f826af073205be17.jpg"
  },
  {
    "name": "spc_best_in_the_universe",
    "defaultvalue": 0,
    "displayName": "Best Surgeon In The Universe",
    "hidden": 0,
    "description": "Complete all 6 secret transplants. ",
    "icon": "https://steamcdn-a.akamaihd.net/steamcommunity/public/images/apps/233720/189356b94fab66ab41b1ea35f783d7f9b8f51792.jpg",
    "icongray": "https://steamcdn-a.akamaihd.net/steamcommunity/public/images/apps/233720/708113d25762d9a1189cdd761776c289115e1cad.jpg"
  },
  {
    "name": "eye_transplant_1",
    "defaultvalue": 0,
    "displayName": "Eye've No Idea What I'm Doing",
    "hidden": 0,
    "description": "Perform an eye transplant.",
    "icon": "https://steamcdn-a.akamaihd.net/steamcommunity/public/images/apps/233720/fe42b9011958d32015c99bf796e759f0f6e0187a.jpg",
    "icongray": "https://steamcdn-a.akamaihd.net/steamcommunity/public/images/apps/233720/1fffac0a519becfd76a94bc9aa8850dd1ce1cdd3.jpg"
  },
  {
    "name": "eye_transplant_2",
    "defaultvalue": 0,
    "displayName": "Blink And You'll Miss It",
    "hidden": 0,
    "description": "Perform an eye transplant in under 2 minutes.",
    "icon": "https://steamcdn-a.akamaihd.net/steamcommunity/public/images/apps/233720/a2da6daa93655b3b1a8b1e09168d72d1a8435104.jpg",
    "icongray": "https://steamcdn-a.akamaihd.net/steamcommunity/public/images/apps/233720/1b74dde6add3e0e0246dfe2fe59515841fc57bc9.jpg"
  },
  {
    "name": "eye_transplant_3",
    "defaultvalue": 0,
    "displayName": "No More Worse Than Shampoo",
    "hidden": 0,
    "description": "Perform an eye transplant losing less than 600ml of blood.",
    "icon": "https://steamcdn-a.akamaihd.net/steamcommunity/public/images/apps/233720/5005d3429e1f883df5af7993e4cc664d7936556b.jpg",
    "icongray": "https://steamcdn-a.akamaihd.net/steamcommunity/public/images/apps/233720/2a365635144eb1d38811e2dbde08012a34e65605.jpg"
  },
  {
    "name": "teeth_transplant_1",
    "defaultvalue": 0,
    "displayName": "Trust Me, I'm Not A Dentist",
    "hidden": 0,
    "description": "Perform a teeth transplant.",
    "icon": "https://steamcdn-a.akamaihd.net/steamcommunity/public/images/apps/233720/4929e5ad9004cc7ef9b5e7a6ac1f08e4daa56495.jpg",
    "icongray": "https://steamcdn-a.akamaihd.net/steamcommunity/public/images/apps/233720/0e9a19e4519407a5d4e44650f649e5e70d2e83e1.jpg"
  },
  {
    "name": "teeth_transplant_2",
    "defaultvalue": 0,
    "displayName": "You May Feel A Light Tapping",
    "hidden": 0,
    "description": "Perform a teeth transplant in under 2 minutes.",
    "icon": "https://steamcdn-a.akamaihd.net/steamcommunity/public/images/apps/233720/37208a86f7daeb218b68ac1e2aec52b668f72da7.jpg",
    "icongray": "https://steamcdn-a.akamaihd.net/steamcommunity/public/images/apps/233720/e9510ec9ade103b2313bbbfd3b04d79863dc0249.jpg"
  },
  {
    "name": "teeth_transplant_3",
    "defaultvalue": 0,
    "displayName": "Those Are Some Healthy Gums",
    "hidden": 0,
    "description": "Perform a teeth transplant losing less than 500ml of blood.",
    "icon": "https://steamcdn-a.akamaihd.net/steamcommunity/public/images/apps/233720/9685ab7052530333be29fb63a793a0714521b886.jpg",
    "icongray": "https://steamcdn-a.akamaihd.net/steamcommunity/public/images/apps/233720/f0e4ac4cda8e94a34a1263fb0e1c3f17a39d18c4.jpg"
  },
  {
    "name": "heart_corridor_1",
    "defaultvalue": 0,
    "displayName": "Like a hotdog down a hallway.",
    "hidden": 0,
    "description": "Perform a corridor heart transplant.",
    "icon": "https://steamcdn-a.akamaihd.net/steamcommunity/public/images/apps/233720/47aac871e502676e2dc05c9481e75ac657b7a188.jpg",
    "icongray": "https://steamcdn-a.akamaihd.net/steamcommunity/public/images/apps/233720/895b512fbc5842b08169d4a819cd8b6757421be7.jpg"
  },
  {
    "name": "heart_corridor_2",
    "defaultvalue": 0,
    "displayName": "I Can't Work Under These Conditions!",
    "hidden": 0,
    "description": "Perform a corridor heart transplant in under 2 minutes and 30 seconds.",
    "icon": "https://steamcdn-a.akamaihd.net/steamcommunity/public/images/apps/233720/d6d123ebcf2f4754ff7bca14c74c382e45f590d3.jpg",
    "icongray": "https://steamcdn-a.akamaihd.net/steamcommunity/public/images/apps/233720/cc408e5c14755fd5b5531a663cefcd56ba9e3b38.jpg"
  },
  {
    "name": "heart_corridor_3",
    "defaultvalue": 0,
    "displayName": "Don't Even Need A Bucket",
    "hidden": 0,
    "description": "Perform a corridor heart transplant losing less than 1000ml of blood",
    "icon": "https://steamcdn-a.akamaihd.net/steamcommunity/public/images/apps/233720/803430fd048fca7ad693487c005e3bca5d430bcb.jpg",
    "icongray": "https://steamcdn-a.akamaihd.net/steamcommunity/public/images/apps/233720/9e1ed9a503851125f15a115ccf58daa028411442.jpg"
  },
  {
    "name": "kidney_corridor_1",
    "defaultvalue": 0,
    "displayName": "Delivery Coming Through",
    "hidden": 0,
    "description": "Perform a corridor double kidney transplant.",
    "icon": "https://steamcdn-a.akamaihd.net/steamcommunity/public/images/apps/233720/03d4c0802a25bb14322ea9032a6343a9c475c605.jpg",
    "icongray": "https://steamcdn-a.akamaihd.net/steamcommunity/public/images/apps/233720/bab2b9432bd5415068432a4481145fb33295a618.jpg"
  },
  {
    "name": "kidney_corridor_2",
    "defaultvalue": 0,
    "displayName": "Right Tools At The Right Time",
    "hidden": 0,
    "description": "Perform a corridor double kidney transplant in under 2 minutes and 40 seconds.",
    "icon": "https://steamcdn-a.akamaihd.net/steamcommunity/public/images/apps/233720/b452d12bde8a87059ee46bb5be219695f3f02641.jpg",
    "icongray": "https://steamcdn-a.akamaihd.net/steamcommunity/public/images/apps/233720/0db23a35054d68dc732fd3a67731a1dcd4f4280c.jpg"
  },
  {
    "name": "kidney_corridor_3",
    "defaultvalue": 0,
    "displayName": "Tunnel Vision",
    "hidden": 0,
    "description": "Perform a corridor double kidney transplant losing less than 600ml of blood",
    "icon": "https://steamcdn-a.akamaihd.net/steamcommunity/public/images/apps/233720/b0a31955749b422c4b9339eaede10571853cb91d.jpg",
    "icongray": "https://steamcdn-a.akamaihd.net/steamcommunity/public/images/apps/233720/8a8d2163aec6757d24b67050c898adfb2e617c51.jpg"
  },
  {
    "name": "brain_corridor_1",
    "defaultvalue": 0,
    "displayName": "We're Going Bowling!",
    "hidden": 0,
    "description": "Perform a corridor brain transplant.",
    "icon": "https://steamcdn-a.akamaihd.net/steamcommunity/public/images/apps/233720/e44c0987a2fb984dc3e2d9afd3c3f822039d3a69.jpg",
    "icongray": "https://steamcdn-a.akamaihd.net/steamcommunity/public/images/apps/233720/f1566208545288c55e76ab6a0abdfcae570d59ee.jpg"
  },
  {
    "name": "brain_corridor_2",
    "defaultvalue": 0,
    "displayName": "The Speed Of A Neuron",
    "hidden": 0,
    "description": "Perform a corridor brain transplant in under 1 minute 30 seconds.",
    "icon": "https://steamcdn-a.akamaihd.net/steamcommunity/public/images/apps/233720/fab3b368342fda04f549c46d077aa825f0c86980.jpg",
    "icongray": "https://steamcdn-a.akamaihd.net/steamcommunity/public/images/apps/233720/c9ded912dfe3d11e50bd280f5d4f296bcab12a1f.jpg"
  },
  {
    "name": "brain_corridor_3",
    "defaultvalue": 0,
    "displayName": "The Brains Of The Operation",
    "hidden": 0,
    "description": "Perform a corridor brain transplant losing less than 750ml of blood.",
    "icon": "https://steamcdn-a.akamaihd.net/steamcommunity/public/images/apps/233720/467c7ebb4200cca8032a54e0484d98b670fe9628.jpg",
    "icongray": "https://steamcdn-a.akamaihd.net/steamcommunity/public/images/apps/233720/88d289bae2de7f360e7e2f4fae97935ce391669d.jpg"
  },
  {
    "name": "eye_corridor_1",
    "defaultvalue": 0,
    "displayName": "Don't Run With Scalpels",
    "hidden": 0,
    "description": "Perform a corridor eye transplant.",
    "icon": "https://steamcdn-a.akamaihd.net/steamcommunity/public/images/apps/233720/9a9f134ec11ad20b4247fa2d380ad40464c9669d.jpg",
    "icongray": "https://steamcdn-a.akamaihd.net/steamcommunity/public/images/apps/233720/b9cb2d083a81c348b8733ba9ea3a8ee16748eb81.jpg"
  },
  {
    "name": "eye_corridor_2",
    "defaultvalue": 0,
    "displayName": "Blinding Speed Surgery",
    "hidden": 0,
    "description": "Perform a corridor eye transplant in under 2 minutes and 30 seconds.",
    "icon": "https://steamcdn-a.akamaihd.net/steamcommunity/public/images/apps/233720/6a5b9b06541953ca0c5c764253ed520958dd07b4.jpg",
    "icongray": "https://steamcdn-a.akamaihd.net/steamcommunity/public/images/apps/233720/cb287d3b9f6f5824a1f1a2d1091a47ecf130fd36.jpg"
  },
  {
    "name": "eye_corridor_3",
    "defaultvalue": 0,
    "displayName": "Won't Even Need Glasses!",
    "hidden": 0,
    "description": "Perform a corridor eye transplant losing less than 1000ml of blood",
    "icon": "https://steamcdn-a.akamaihd.net/steamcommunity/public/images/apps/233720/187e01c368b6fb6fa13faee18d2f091b60ad36c3.jpg",
    "icongray": "https://steamcdn-a.akamaihd.net/steamcommunity/public/images/apps/233720/5a32b77e6f85f9760bdd2e5014b86ba2f3123850.jpg"
  },
  {
    "name": "teeth_corridor_1",
    "defaultvalue": 0,
    "displayName": "Mobile Dentistry",
    "hidden": 0,
    "description": "Perform a corridor teeth transplant.",
    "icon": "https://steamcdn-a.akamaihd.net/steamcommunity/public/images/apps/233720/b0ef02ce76f20174641a0e908dfd057095ad1ee2.jpg",
    "icongray": "https://steamcdn-a.akamaihd.net/steamcommunity/public/images/apps/233720/65067c120b1249fe1baa1527d20184cce1999631.jpg"
  },
  {
    "name": "teeth_corridor_2",
    "defaultvalue": 0,
    "displayName": "Keep Fidgeting To A Minimum",
    "hidden": 0,
    "description": "Perform a corridor teeth transplant in under 2 minutes and 20 seconds.",
    "icon": "https://steamcdn-a.akamaihd.net/steamcommunity/public/images/apps/233720/d40f728da43b0b6aefc1af79d53814b2f3aed645.jpg",
    "icongray": "https://steamcdn-a.akamaihd.net/steamcommunity/public/images/apps/233720/b035104e41e9414e7adee36684befa700eacea1b.jpg"
  },
  {
    "name": "teeth_corridor_3",
    "defaultvalue": 0,
    "displayName": "Open Really Wide",
    "hidden": 0,
    "description": "Perform a corridor teeth transplant losing less than 600ml of blood",
    "icon": "https://steamcdn-a.akamaihd.net/steamcommunity/public/images/apps/233720/3915644f949d0db46127b4140c748f24e16350f0.jpg",
    "icongray": "https://steamcdn-a.akamaihd.net/steamcommunity/public/images/apps/233720/5fac438f5092336d1baaad5d89af04c7954862be.jpg"
  },
  {
    "name": "eye_ambulance_1",
    "defaultvalue": 0,
    "displayName": "Keep Your Eyes On The Road",
    "hidden": 0,
    "description": "Perform an eye transplant in an ambulance.",
    "icon": "https://steamcdn-a.akamaihd.net/steamcommunity/public/images/apps/233720/f698a3b072bb0d68a2a68295105af76a355eb77b.jpg",
    "icongray": "https://steamcdn-a.akamaihd.net/steamcommunity/public/images/apps/233720/265feb20fbfb9042514f9e0d9eca8a6cbddc6e23.jpg"
  },
  {
    "name": "eye_ambulance_2",
    "defaultvalue": 0,
    "displayName": "I Can See For Miles... Per Hour",
    "hidden": 0,
    "description": "Perform an eye transplant in an ambulance in under 1 minute and 40 seconds.",
    "icon": "https://steamcdn-a.akamaihd.net/steamcommunity/public/images/apps/233720/1a62a9854d461267e1518638107968a5d05177ec.jpg",
    "icongray": "https://steamcdn-a.akamaihd.net/steamcommunity/public/images/apps/233720/877d00acb841fa2abd3640dce526bd299d595550.jpg"
  },
  {
    "name": "eye_ambulance_3",
    "defaultvalue": 0,
    "displayName": "At Worst, You're Now Colourblind",
    "hidden": 0,
    "description": "Perform an eye transplant in an ambulance losing less than 700ml of blood.",
    "icon": "https://steamcdn-a.akamaihd.net/steamcommunity/public/images/apps/233720/4d145183cf86c787b162094eaeb53bed0621fa37.jpg",
    "icongray": "https://steamcdn-a.akamaihd.net/steamcommunity/public/images/apps/233720/78f8f8c921e6ee69faca10629ad05961ed88ed86.jpg"
  },
  {
    "name": "teeth_ambulance_1",
    "defaultvalue": 0,
    "displayName": "Brace For Surgery",
    "hidden": 0,
    "description": "Perform a teeth transplant in an ambulance.",
    "icon": "https://steamcdn-a.akamaihd.net/steamcommunity/public/images/apps/233720/e25d05b223f9a0dfe41d1956b8f2af2b76de98f6.jpg",
    "icongray": "https://steamcdn-a.akamaihd.net/steamcommunity/public/images/apps/233720/5eba970b13f7cc1e28b4dd530bd20f8c0022661c.jpg"
  },
  {
    "name": "teeth_ambulance_2",
    "defaultvalue": 0,
    "displayName": "Not The Time Or Place For Precision",
    "hidden": 0,
    "description": "Perform a teeth transplant in an ambulance in under 2 minutes and 15 seconds.",
    "icon": "https://steamcdn-a.akamaihd.net/steamcommunity/public/images/apps/233720/2711f6fa2835b475eb5aa10fd314b7d7ea84e99d.jpg",
    "icongray": "https://steamcdn-a.akamaihd.net/steamcommunity/public/images/apps/233720/7f660606dca2b60d96e34cf1cb9c628199d4961b.jpg"
  },
  {
    "name": "teeth_ambulance_3",
    "defaultvalue": 0,
    "displayName": "No Need To Curb Stomp Him",
    "hidden": 0,
    "description": "Perform a teeth transplant in an ambulance losing less than 600ml of blood.",
    "icon": "https://steamcdn-a.akamaihd.net/steamcommunity/public/images/apps/233720/613351ea9039256705ad321f7c43491d12a81fab.jpg",
    "icongray": "https://steamcdn-a.akamaihd.net/steamcommunity/public/images/apps/233720/23d6005989d0d912709f59fd36d5375956cfe4dc.jpg"
  },
  {
    "name": "spc_eye_space_1",
    "defaultvalue": 0,
    "displayName": "My Eyesight Means A Lot To Me",
    "hidden": 0,
    "description": "Perform an eye transplant in space.",
    "icon": "https://steamcdn-a.akamaihd.net/steamcommunity/public/images/apps/233720/387e7e9af0dda42ea61b901d0bde0c75c3f2c71b.jpg",
    "icongray": "https://steamcdn-a.akamaihd.net/steamcommunity/public/images/apps/233720/2945ee7444c69fd2f13f01b159f172225a8d4e4b.jpg"
  },
  {
    "name": "spc_eye_space_2",
    "defaultvalue": 0,
    "displayName": "Eye Of The Space Storm",
    "hidden": 0,
    "description": "Perform an eye transplant in space in under 2 minutes 20 seconds.",
    "icon": "https://steamcdn-a.akamaihd.net/steamcommunity/public/images/apps/233720/a10472f87fbccb59a2b286c68e0450a25dd72296.jpg",
    "icongray": "https://steamcdn-a.akamaihd.net/steamcommunity/public/images/apps/233720/5c3a1898f4b574e29414a9e5c4ae8478717d79d7.jpg"
  },
  {
    "name": "spc_eye_space_3",
    "defaultvalue": 0,
    "displayName": "Expert Space Stalker",
    "hidden": 0,
    "description": "Perform an eye transplant in space losing less than 700ml of blood.",
    "icon": "https://steamcdn-a.akamaihd.net/steamcommunity/public/images/apps/233720/01275b47f03e42987fa70033f2cd61b961ef0391.jpg",
    "icongray": "https://steamcdn-a.akamaihd.net/steamcommunity/public/images/apps/233720/9891eb4bbcd446765e44ded97998dcb7ac66dd3b.jpg"
  },
  {
    "name": "spc_teeth_space_1",
    "defaultvalue": 0,
    "displayName": "Orbital Dentist",
    "hidden": 0,
    "description": "Perform a teeth transplant in space.",
    "icon": "https://steamcdn-a.akamaihd.net/steamcommunity/public/images/apps/233720/09ec77f6ea466d570972443c8ceb8c0fced3ec01.jpg",
    "icongray": "https://steamcdn-a.akamaihd.net/steamcommunity/public/images/apps/233720/37eb6d3a49dac82ee3a121959c42c9bdea3d35a5.jpg"
  },
  {
    "name": "spc_teeth_space_2",
    "defaultvalue": 0,
    "displayName": "The Tooth Is Out There",
    "hidden": 0,
    "description": "Perform a teeth transplant in space in under 2 minutes.",
    "icon": "https://steamcdn-a.akamaihd.net/steamcommunity/public/images/apps/233720/62ee64518e1eabfd7de34ae67be50fbbc46b3532.jpg",
    "icongray": "https://steamcdn-a.akamaihd.net/steamcommunity/public/images/apps/233720/79f03a7893a53670202c487614013c9698f7a540.jpg"
  },
  {
    "name": "spc_teeth_space_3",
    "defaultvalue": 0,
    "displayName": "Maintained Healthy Gums At Least",
    "hidden": 0,
    "description": "Perform a teeth transplant in space losing less than 500ml of blood.",
    "icon": "https://steamcdn-a.akamaihd.net/steamcommunity/public/images/apps/233720/16de63783f8588f010db107026c506e1981316de.jpg",
    "icongray": "https://steamcdn-a.akamaihd.net/steamcommunity/public/images/apps/233720/4e9c9b913d4eb759418f8f01b037a20c880f5017.jpg"
  },
  {
    "name": "load_of_bull",
    "defaultvalue": 0,
    "displayName": "What A Load Of Bull",
    "hidden": 0,
    "description": "Listen to the surgeon rap.",
    "icon": "https://steamcdn-a.akamaihd.net/steamcommunity/public/images/apps/233720/086d58b3bb015741a7c3ce024fb9140d9860d6a9.jpg",
    "icongray": "https://steamcdn-a.akamaihd.net/steamcommunity/public/images/apps/233720/c9218b137298d2588b296e9067a4149b6e63f531.jpg"
  },
  {
    "name": "hammerhead_shark",
    "defaultvalue": 0,
    "displayName": "I Am A Genius!",
    "hidden": 0,
    "description": "Create a Hammerhead shark.",
    "icon": "https://steamcdn-a.akamaihd.net/steamcommunity/public/images/apps/233720/732a73d4ca7a504234d0e918f07d7f57007b8baf.jpg",
    "icongray": "https://steamcdn-a.akamaihd.net/steamcommunity/public/images/apps/233720/70aa8774fededb61c5f908bf2a2cf66117e6e274.jpg"
  },
  {
    "name": "grin_bear_it",
    "defaultvalue": 0,
    "displayName": "Grin And Bear It",
    "hidden": 0,
    "description": "Remove all teeth during the teeth transplant surgery.",
    "icon": "https://steamcdn-a.akamaihd.net/steamcommunity/public/images/apps/233720/6b17f491f0d8ae4fe35e28e142c661ead60a16cc.jpg",
    "icongray": "https://steamcdn-a.akamaihd.net/steamcommunity/public/images/apps/233720/9f09f4dc134a2798283afedeac1beb43168eb807.jpg"
  },
  {
    "name": "goggles_do_nothing",
    "defaultvalue": 0,
    "displayName": "The Goggles Do Nothing",
    "hidden": 0,
    "description": "Completely smash up the goggles.",
    "icon": "https://steamcdn-a.akamaihd.net/steamcommunity/public/images/apps/233720/6b9a654425b32cea0913260fd7ca10ecca602437.jpg",
    "icongray": "https://steamcdn-a.akamaihd.net/steamcommunity/public/images/apps/233720/c670410b20f8ee63405684e807cb7de5dd97262c.jpg"
  },
  {
    "name": "lumberjack",
    "defaultvalue": 0,
    "displayName": "Lumberjack",
    "hidden": 0,
    "description": "Cut out the eyes using the surgical axe.",
    "icon": "https://steamcdn-a.akamaihd.net/steamcommunity/public/images/apps/233720/da474e2fefa31475a60747d0f6f9f51e12a18196.jpg",
    "icongray": "https://steamcdn-a.akamaihd.net/steamcommunity/public/images/apps/233720/98da74746aaf02428b6158cc1fa0becc5d848d13.jpg"
  },
  {
    "name": "heterochromia",
    "defaultvalue": 0,
    "displayName": "Heterochromia",
    "hidden": 0,
    "description": "Give the patient heterochromia.",
    "icon": "https://steamcdn-a.akamaihd.net/steamcommunity/public/images/apps/233720/c5da8304ccf9318087f527af37e59bf07b007cfb.jpg",
    "icongray": "https://steamcdn-a.akamaihd.net/steamcommunity/public/images/apps/233720/f957b9e6535a75a51d1edc7f03de13ff0856423f.jpg"
  },
  {
    "name": "handle_the_tooth",
    "defaultvalue": 0,
    "displayName": "You Can't Handle The Tooth!",
    "hidden": 0,
    "description": "Complete the tooth transplant only removing the rotten teeth.",
    "icon": "https://steamcdn-a.akamaihd.net/steamcommunity/public/images/apps/233720/ca7757d9dfa2757bdc874960057d250a930507e9.jpg",
    "icongray": "https://steamcdn-a.akamaihd.net/steamcommunity/public/images/apps/233720/3cf820b4594406141b359500c04b40dafc1b0b1b.jpg"
  },
  {
    "name": "spc_first_success",
    "defaultvalue": 0,
    "displayName": "First Success",
    "hidden": 0,
    "description": "Complete an alien organ transplant.",
    "icon": "https://steamcdn-a.akamaihd.net/steamcommunity/public/images/apps/233720/6673b26796d1d2636668d4003c6c721f00a75284.jpg",
    "icongray": "https://steamcdn-a.akamaihd.net/steamcommunity/public/images/apps/233720/5a1d793a3cf643ae320d8c244de17afa334ab946.jpg"
  },
  {
    "name": "spc_gobbleshaft",
    "defaultvalue": 0,
    "displayName": "You're Free Now",
    "hidden": 0,
    "description": "Set the Gobbleshaft free.",
    "icon": "https://steamcdn-a.akamaihd.net/steamcommunity/public/images/apps/233720/9cc4a832c007ecc286b81d27892ba3a809317b54.jpg",
    "icongray": "https://steamcdn-a.akamaihd.net/steamcommunity/public/images/apps/233720/cf4ee503f5af115a864e5c600c3248c05340af25.jpg"
  },
  {
    "name": "_achMoooo",
    "defaultvalue": 0,
    "displayName": "Moooooo",
    "hidden": 0,
    "description": "Heart of a Cow.",
    "icon": "https://steamcdn-a.akamaihd.net/steamcommunity/public/images/apps/233720/186fb7e97065ed9ad1da7328d450f0fc0cffbb4f.jpg",
    "icongray": "https://steamcdn-a.akamaihd.net/steamcommunity/public/images/apps/233720/467cf42c903d9a5ee88bddf07ac21773022a216c.jpg"
  },
  {
    "name": "_achTplant",
    "defaultvalue": 0,
    "displayName": "Trumsplant",
    "hidden": 0,
    "description": "Tower + Steak + Vodka in main cavity.",
    "icon": "https://steamcdn-a.akamaihd.net/steamcommunity/public/images/apps/233720/cbea1dae8066344f18f4cd326c8296c2420abe1a.jpg",
    "icongray": "https://steamcdn-a.akamaihd.net/steamcommunity/public/images/apps/233720/a9c1e6b438f6fc21a36955e31b166cf570135ecb.jpg"
  },
  {
    "name": "_achLittleWilly",
    "defaultvalue": 0,
    "displayName": "Little Wet Willy",
    "hidden": 0,
    "description": "Wet Willy with little pinky.",
    "icon": "https://steamcdn-a.akamaihd.net/steamcommunity/public/images/apps/233720/450e6426b665f2f75737145c9519f7f0010a2f5e.jpg",
    "icongray": "https://steamcdn-a.akamaihd.net/steamcommunity/public/images/apps/233720/cbe059605bae14577d5e1e29f60081961c34b101.jpg"
  },
  {
    "name": "_achPinkEye",
    "defaultvalue": 0,
    "displayName": "Pink Eye",
    "hidden": 0,
    "description": "Vodka to the eye.",
    "icon": "https://steamcdn-a.akamaihd.net/steamcommunity/public/images/apps/233720/3e0abf4d2db20199610842312276a83e3d18562a.jpg",
    "icongray": "https://steamcdn-a.akamaihd.net/steamcommunity/public/images/apps/233720/4871f656c809b06ccda8f887578d5833a2577a9f.jpg"
  },
  {
    "name": "_achNowICanReach",
    "defaultvalue": 0,
    "displayName": "Now I Can Reach",
    "hidden": 0,
    "description": "Pick the nose (either nostril) with little fingers.",
    "icon": "https://steamcdn-a.akamaihd.net/steamcommunity/public/images/apps/233720/52b88ca395bf72051b4658a9fc9f3bc5913b418c.jpg",
    "icongray": "https://steamcdn-a.akamaihd.net/steamcommunity/public/images/apps/233720/51fb58402300b8e260fe185839efe4523e47792d.jpg"
  },
  {
    "name": "_achIsItReal",
    "defaultvalue": 0,
    "displayName": "Is it Real?",
    "hidden": 0,
    "description": "Pull his hair for 3 seconds or more.",
    "icon": "https://steamcdn-a.akamaihd.net/steamcommunity/public/images/apps/233720/0df186428cbeec5599ff4469418ccd1fba573251.jpg",
    "icongray": "https://steamcdn-a.akamaihd.net/steamcommunity/public/images/apps/233720/1791076a4f995be5611727a2111599c56860163e.jpg"
  },
  {
    "name": "_achNewHeart",
    "defaultvalue": 0,
    "displayName": "A New Heart",
    "hidden": 0,
    "description": "Complete with either Gold or Stone Heart.",
    "icon": "https://steamcdn-a.akamaihd.net/steamcommunity/public/images/apps/233720/1e66a01d4f7b4e7c4cc6275af12d146dc2b05eb4.jpg",
    "icongray": "https://steamcdn-a.akamaihd.net/steamcommunity/public/images/apps/233720/519d6ceff8e96643149b3fc0225a8271d64d81e2.jpg"
  },
  {
    "name": "_achTrumperific",
    "defaultvalue": 0,
    "displayName": "A++ is Trumperific",
    "hidden": 0,
    "description": "Get A++ rating with either Gold or Stone Heart.",
    "icon": "https://steamcdn-a.akamaihd.net/steamcommunity/public/images/apps/233720/5d36d628a1e63f2d00b0c7934f1dbc23b037fe0e.jpg",
    "icongray": "https://steamcdn-a.akamaihd.net/steamcommunity/public/images/apps/233720/c16753e0d6141bea2b111d6d9bfde28ba04409ee.jpg"
  },
  {
    "name": "_achSoMuchMoney",
    "defaultvalue": 0,
    "displayName": "A Small Loan From My Father",
    "hidden": 0,
    "description": "Complete a successful operation that costs more than $1,000,000.00.",
    "icon": "https://steamcdn-a.akamaihd.net/steamcommunity/public/images/apps/233720/5efe5312d7a9066b280e3fea9bae948eeab0cedb.jpg",
    "icongray": "https://steamcdn-a.akamaihd.net/steamcommunity/public/images/apps/233720/c4942b50586b5ef28abaf9b44868c4ccbcf3c8c9.jpg"
  }
]