﻿{
  "Dlcs": {
    "469810": {
      "Name": "NOT A HERO - ME, MYSELF & BUNNYLORD",
      "ImageUrl": "https://steamcdn-a.akamaihd.net/steam/apps/469810/header.jpg?t=1468858924"
    }
  },
  "Name": "NOT A HERO",
  "AppId": "274270",
  "ImageUrl": "https://steamcdn-a.akamaihd.net/steam/apps/274270/header.jpg?t=1568664661",
  "Languages": [
    "english",
    "french",
    "italian",
    "german",
    "spanish"
  ],
  "Platforms": {
    "windows": true,
    "mac": true,
    "linux": true
  }
}