﻿[
  {
    "name": "ACH_NADI_1",
    "defaultvalue": 0,
    "displayName": "The NADI Project",
    "hidden": 0,
    "description": "Welcome to The NADI Project !",
    "icon": "https://steamcdn-a.akamaihd.net/steamcommunity/public/images/apps/474010/a2b11db25009961074f1c2823a0a9379fb6c0072.jpg",
    "icongray": "https://steamcdn-a.akamaihd.net/steamcommunity/public/images/apps/474010/a2b11db25009961074f1c2823a0a9379fb6c0072.jpg"
  },
  {
    "name": "ACH_NADI_2",
    "defaultvalue": 0,
    "displayName": "The Plane",
    "hidden": 0,
    "description": "What's happening to your plane ?",
    "icon": "https://steamcdn-a.akamaihd.net/steamcommunity/public/images/apps/474010/27db8718c09a67215ca0a3602b0e12fdd151805c.jpg",
    "icongray": "https://steamcdn-a.akamaihd.net/steamcommunity/public/images/apps/474010/fbbb7bc9e4c037742cd94f8a67d90e54a4678c8a.jpg"
  },
  {
    "name": "ACH_NADI_3",
    "defaultvalue": 0,
    "displayName": "A Ruby",
    "hidden": 0,
    "description": "A ruby on a desert island ?",
    "icon": "https://steamcdn-a.akamaihd.net/steamcommunity/public/images/apps/474010/f7a9986b0044cd03f8be67d97c4186109aba40cc.jpg",
    "icongray": "https://steamcdn-a.akamaihd.net/steamcommunity/public/images/apps/474010/c6716b45db992b64dfcb15bd57418de96c7398d0.jpg"
  },
  {
    "name": "ACH_NADI_4",
    "defaultvalue": 0,
    "displayName": "Radio Tower",
    "hidden": 0,
    "description": "It's not a mobile tower.",
    "icon": "https://steamcdn-a.akamaihd.net/steamcommunity/public/images/apps/474010/760a635e8d658a876d8023d730f78988b2c33a55.jpg",
    "icongray": "https://steamcdn-a.akamaihd.net/steamcommunity/public/images/apps/474010/4cec90619d193f6c1223f8134086ef3a2ccd9547.jpg"
  },
  {
    "name": "ACH_NADI_5",
    "defaultvalue": 0,
    "displayName": "The Cave",
    "hidden": 0,
    "description": "Hey, it' dark here.",
    "icon": "https://steamcdn-a.akamaihd.net/steamcommunity/public/images/apps/474010/337966609a8b7fbf622c0e9aa6473fde84ac10f2.jpg",
    "icongray": "https://steamcdn-a.akamaihd.net/steamcommunity/public/images/apps/474010/337966609a8b7fbf622c0e9aa6473fde84ac10f2.jpg"
  },
  {
    "name": "ACH_NADI_6",
    "defaultvalue": 0,
    "displayName": "The Lighthouse",
    "hidden": 0,
    "description": "An old lighthouse.",
    "icon": "https://steamcdn-a.akamaihd.net/steamcommunity/public/images/apps/474010/483dcf36e4d5bad161578729004fafa17c92fd52.jpg",
    "icongray": "https://steamcdn-a.akamaihd.net/steamcommunity/public/images/apps/474010/351779cbd951b3feebfe5e735840a629b7700e04.jpg"
  },
  {
    "name": "ACH_NADI_7",
    "defaultvalue": 0,
    "displayName": "Her House",
    "hidden": 0,
    "description": "Anna, her story, her house.",
    "icon": "https://steamcdn-a.akamaihd.net/steamcommunity/public/images/apps/474010/2798dcd9a575802e9a5493180e9e6bfeb87e4e50.jpg",
    "icongray": "https://steamcdn-a.akamaihd.net/steamcommunity/public/images/apps/474010/c1dafe31b97064f7f67467b473495ce447da9ecd.jpg"
  },
  {
    "name": "ACH_NADI_8",
    "defaultvalue": 0,
    "displayName": "The End ?",
    "hidden": 0,
    "description": "The End ?",
    "icon": "https://steamcdn-a.akamaihd.net/steamcommunity/public/images/apps/474010/223bd95d2a9633287c9889bfb5d1f5fdfaaa8655.jpg",
    "icongray": "https://steamcdn-a.akamaihd.net/steamcommunity/public/images/apps/474010/a5f216a5dcf18b8ed63127240d5a58328b1eb106.jpg"
  },
  {
    "name": "ACH_NADI_9",
    "defaultvalue": 0,
    "displayName": "Her Story",
    "hidden": 0,
    "description": "The complete story of Anna",
    "icon": "https://steamcdn-a.akamaihd.net/steamcommunity/public/images/apps/474010/9bc9c38d68775eab87e83894dc9e40dec81c535a.jpg",
    "icongray": "https://steamcdn-a.akamaihd.net/steamcommunity/public/images/apps/474010/ddd81200a1e9b80a31fa0fe59cea1cbb780d107e.jpg"
  }
]