﻿[
  {
    "name": "win_first_time",
    "defaultvalue": 0,
    "displayName": "Winner",
    "hidden": 0,
    "description": "Win the game for the first time",
    "icon": "https://steamcdn-a.akamaihd.net/steamcommunity/public/images/apps/822700/17deb20d0d151dd01f77d7c24977fded3bbf7ca0.jpg",
    "icongray": "https://steamcdn-a.akamaihd.net/steamcommunity/public/images/apps/822700/57b33847533ef26bf6b6dc0bbaf1fcf1631e8103.jpg"
  },
  {
    "name": "ten_throws",
    "defaultvalue": 0,
    "displayName": "Good Aim",
    "hidden": 0,
    "description": "Win with less than 10 throws",
    "icon": "https://steamcdn-a.akamaihd.net/steamcommunity/public/images/apps/822700/926c741e801981d23dd4f99e20f54769e94177da.jpg",
    "icongray": "https://steamcdn-a.akamaihd.net/steamcommunity/public/images/apps/822700/57b33847533ef26bf6b6dc0bbaf1fcf1631e8103.jpg"
  },
  {
    "name": "bad_aim",
    "defaultvalue": 0,
    "displayName": "You suck",
    "hidden": 1,
    "icon": "https://steamcdn-a.akamaihd.net/steamcommunity/public/images/apps/822700/bdc2a7c0c3901a3adf96a0c3f458a45f3b6c0495.jpg",
    "icongray": "https://steamcdn-a.akamaihd.net/steamcommunity/public/images/apps/822700/57b33847533ef26bf6b6dc0bbaf1fcf1631e8103.jpg"
  },
  {
    "name": "cheater",
    "defaultvalue": 0,
    "displayName": "Cheater",
    "hidden": 1,
    "icon": "https://steamcdn-a.akamaihd.net/steamcommunity/public/images/apps/822700/22eeb46d19d816dc6560780936fe6a6412eaaf78.jpg",
    "icongray": "https://steamcdn-a.akamaihd.net/steamcommunity/public/images/apps/822700/57b33847533ef26bf6b6dc0bbaf1fcf1631e8103.jpg"
  }
]