﻿{
  "Dlcs": {},
  "Name": "The Last Hope",
  "AppId": "522570",
  "ImageUrl": "https://steamcdn-a.akamaihd.net/steam/apps/522570/header.jpg?t=1587040266",
  "Languages": [
    "english"
  ],
  "Platforms": {
    "windows": true,
    "mac": false,
    "linux": false
  }
}