﻿[
  {
    "name": "ach.first",
    "defaultvalue": 0,
    "displayName": "The First Distraint",
    "hidden": 0,
    "description": "Take over the property of Mrs. Goodwin.",
    "icon": "https://steamcdn-a.akamaihd.net/steamcommunity/public/images/apps/395170/1628d56ff3e31cd41c1f97c38a10292cdc6d63a8.jpg",
    "icongray": "https://steamcdn-a.akamaihd.net/steamcommunity/public/images/apps/395170/9fa4fa6bcbec8d2b22385fe7ae7e35ec77a16c0a.jpg"
  },
  {
    "name": "ach.second",
    "defaultvalue": 0,
    "displayName": "Coffee, Please!",
    "hidden": 1,
    "icon": "https://steamcdn-a.akamaihd.net/steamcommunity/public/images/apps/395170/a35e3ffa86b6bc0d06d1d23fa47be9eeb59559ca.jpg",
    "icongray": "https://steamcdn-a.akamaihd.net/steamcommunity/public/images/apps/395170/9fa4fa6bcbec8d2b22385fe7ae7e35ec77a16c0a.jpg"
  },
  {
    "name": "ach.third",
    "defaultvalue": 0,
    "displayName": "The Second Distraint",
    "hidden": 0,
    "description": "Take over the property of Mr. Tailor.",
    "icon": "https://steamcdn-a.akamaihd.net/steamcommunity/public/images/apps/395170/d03630af3c04f82c14af6f75ac4dc4fb9e2dca17.jpg",
    "icongray": "https://steamcdn-a.akamaihd.net/steamcommunity/public/images/apps/395170/9fa4fa6bcbec8d2b22385fe7ae7e35ec77a16c0a.jpg"
  },
  {
    "name": "ach.fourth",
    "defaultvalue": 0,
    "displayName": "The Electrician",
    "hidden": 1,
    "icon": "https://steamcdn-a.akamaihd.net/steamcommunity/public/images/apps/395170/36f2c67c2050bf61f76b92458fa5ee963e21ec59.jpg",
    "icongray": "https://steamcdn-a.akamaihd.net/steamcommunity/public/images/apps/395170/9fa4fa6bcbec8d2b22385fe7ae7e35ec77a16c0a.jpg"
  },
  {
    "name": "ach.fifth",
    "defaultvalue": 0,
    "displayName": "The Fire Maker",
    "hidden": 1,
    "icon": "https://steamcdn-a.akamaihd.net/steamcommunity/public/images/apps/395170/e58345fa7f07171594058e9f854599e00ca24b09.jpg",
    "icongray": "https://steamcdn-a.akamaihd.net/steamcommunity/public/images/apps/395170/9fa4fa6bcbec8d2b22385fe7ae7e35ec77a16c0a.jpg"
  },
  {
    "name": "ach.sixth",
    "defaultvalue": 0,
    "displayName": "The Third Distraint",
    "hidden": 0,
    "description": "Take over the property of Mr. Jones.",
    "icon": "https://steamcdn-a.akamaihd.net/steamcommunity/public/images/apps/395170/daa5e39a40ddb5d15c703328350dfd228da3f73d.jpg",
    "icongray": "https://steamcdn-a.akamaihd.net/steamcommunity/public/images/apps/395170/9fa4fa6bcbec8d2b22385fe7ae7e35ec77a16c0a.jpg"
  },
  {
    "name": "ach.seventh",
    "defaultvalue": 0,
    "displayName": "The End",
    "hidden": 0,
    "description": "Complete the game.",
    "icon": "https://steamcdn-a.akamaihd.net/steamcommunity/public/images/apps/395170/8b80aac65fb0d17dfac6e759651881528ddeb5dd.jpg",
    "icongray": "https://steamcdn-a.akamaihd.net/steamcommunity/public/images/apps/395170/9fa4fa6bcbec8d2b22385fe7ae7e35ec77a16c0a.jpg"
  },
  {
    "name": "ach.secret.one",
    "defaultvalue": 0,
    "displayName": "The Long Walk",
    "hidden": 1,
    "icon": "https://steamcdn-a.akamaihd.net/steamcommunity/public/images/apps/395170/9d6fe714e8ee9890f48d65e866f4a6f3ee6db687.jpg",
    "icongray": "https://steamcdn-a.akamaihd.net/steamcommunity/public/images/apps/395170/9fa4fa6bcbec8d2b22385fe7ae7e35ec77a16c0a.jpg"
  },
  {
    "name": "ach.secret.two",
    "defaultvalue": 0,
    "displayName": "Where Is Your Dignity?",
    "hidden": 1,
    "icon": "https://steamcdn-a.akamaihd.net/steamcommunity/public/images/apps/395170/bbb9e8f69d979db8c5282c9a4637672bcff20c2b.jpg",
    "icongray": "https://steamcdn-a.akamaihd.net/steamcommunity/public/images/apps/395170/9fa4fa6bcbec8d2b22385fe7ae7e35ec77a16c0a.jpg"
  },
  {
    "name": "ach.secret.three",
    "defaultvalue": 0,
    "displayName": "Cheer Up, Mate!",
    "hidden": 1,
    "icon": "https://steamcdn-a.akamaihd.net/steamcommunity/public/images/apps/395170/96841b4832b0c26e3bee55a8fa65058ceb61b5d5.jpg",
    "icongray": "https://steamcdn-a.akamaihd.net/steamcommunity/public/images/apps/395170/9fa4fa6bcbec8d2b22385fe7ae7e35ec77a16c0a.jpg"
  },
  {
    "name": "ach.secret.four",
    "defaultvalue": 0,
    "displayName": "Sniff This!",
    "hidden": 1,
    "icon": "https://steamcdn-a.akamaihd.net/steamcommunity/public/images/apps/395170/d60941c7c1d1377da46ad1a65f49f2d395de071c.jpg",
    "icongray": "https://steamcdn-a.akamaihd.net/steamcommunity/public/images/apps/395170/9fa4fa6bcbec8d2b22385fe7ae7e35ec77a16c0a.jpg"
  },
  {
    "name": "ach.secret.five",
    "defaultvalue": 0,
    "displayName": "The Whistle",
    "hidden": 1,
    "icon": "https://steamcdn-a.akamaihd.net/steamcommunity/public/images/apps/395170/34abfcf2221056302e108c5f2a90bb9c6ad2217a.jpg",
    "icongray": "https://steamcdn-a.akamaihd.net/steamcommunity/public/images/apps/395170/9fa4fa6bcbec8d2b22385fe7ae7e35ec77a16c0a.jpg"
  },
  {
    "name": "ach.secret.six",
    "defaultvalue": 0,
    "displayName": "Jackpot",
    "hidden": 1,
    "icon": "https://steamcdn-a.akamaihd.net/steamcommunity/public/images/apps/395170/f87b62df4e281528cd2e18dff8e9eb5742112efe.jpg",
    "icongray": "https://steamcdn-a.akamaihd.net/steamcommunity/public/images/apps/395170/9fa4fa6bcbec8d2b22385fe7ae7e35ec77a16c0a.jpg"
  },
  {
    "name": "ach.secret.seven",
    "defaultvalue": 0,
    "displayName": "A Flower To You, Beautiful!",
    "hidden": 1,
    "icon": "https://steamcdn-a.akamaihd.net/steamcommunity/public/images/apps/395170/a563e151118b81971f40b3761fadebd9974cfd51.jpg",
    "icongray": "https://steamcdn-a.akamaihd.net/steamcommunity/public/images/apps/395170/9fa4fa6bcbec8d2b22385fe7ae7e35ec77a16c0a.jpg"
  },
  {
    "name": "ach.secret.eight",
    "defaultvalue": 0,
    "displayName": "Hah, Hah, Hah",
    "hidden": 1,
    "icon": "https://steamcdn-a.akamaihd.net/steamcommunity/public/images/apps/395170/e91f846eec28803aa96967f374d04422a7d414c2.jpg",
    "icongray": "https://steamcdn-a.akamaihd.net/steamcommunity/public/images/apps/395170/9fa4fa6bcbec8d2b22385fe7ae7e35ec77a16c0a.jpg"
  },
  {
    "name": "ach.secret.nine",
    "defaultvalue": 0,
    "displayName": "The Light",
    "hidden": 1,
    "icon": "https://steamcdn-a.akamaihd.net/steamcommunity/public/images/apps/395170/de54d49bd4390c23bb5a3c6a2699413b40a9851e.jpg",
    "icongray": "https://steamcdn-a.akamaihd.net/steamcommunity/public/images/apps/395170/9fa4fa6bcbec8d2b22385fe7ae7e35ec77a16c0a.jpg"
  }
]