﻿{
  "Dlcs": {
    "907880": {
      "Name": "LET IT DIE -Special Pack-",
      "ImageUrl": "https://steamcdn-a.akamaihd.net/steam/apps/907880/header.jpg?t=1580356356"
    },
    "907881": {
      "Name": "LET IT DIE -Platinum Pack-",
      "ImageUrl": "https://steamcdn-a.akamaihd.net/steam/apps/907881/header.jpg?t=1580356196"
    },
    "1034290": {
      "Name": "LET IT DIE -(Special)10 Death Metals- 004",
      "ImageUrl": "https://steamcdn-a.akamaihd.net/steam/apps/1034290/header.jpg?t=1580354876"
    },
    "1034291": {
      "Name": "LET IT DIE -(Special)50 Death Metals- 001",
      "ImageUrl": "https://steamcdn-a.akamaihd.net/steam/apps/1034291/header.jpg?t=1580355865"
    },
    "1034292": {
      "Name": "LET IT DIE -(Special)Express Pass- 001",
      "ImageUrl": "https://steamcdn-a.akamaihd.net/steam/apps/1034292/header.jpg?t=1580521218"
    },
    "1048930": {
      "Name": "LET IT DIE -(Special)10 Death Metals- 005",
      "ImageUrl": "https://steamcdn-a.akamaihd.net/steam/apps/1048930/header.jpg?t=1580354982"
    },
    "1048931": {
      "Name": "LET IT DIE -(Special)50 Death Metals- 002",
      "ImageUrl": "https://steamcdn-a.akamaihd.net/steam/apps/1048931/header.jpg?t=1580355963"
    },
    "1063780": {
      "Name": "LET IT DIE -(Special)10 Death Metals- 006",
      "ImageUrl": "https://steamcdn-a.akamaihd.net/steam/apps/1063780/header.jpg?t=1580355045"
    },
    "1063781": {
      "Name": "LET IT DIE -(Special)50 Death Metals- 003",
      "ImageUrl": "https://steamcdn-a.akamaihd.net/steam/apps/1063781/header.jpg?t=1580356485"
    },
    "1082660": {
      "Name": "LET IT DIE -(Special)10 Death Metals- 007",
      "ImageUrl": "https://steamcdn-a.akamaihd.net/steam/apps/1082660/header.jpg?t=1580355148"
    },
    "1082661": {
      "Name": "LET IT DIE -(Special)50 Death Metals- 004",
      "ImageUrl": "https://steamcdn-a.akamaihd.net/steam/apps/1082661/header.jpg?t=1580356580"
    },
    "1082662": {
      "Name": "LET IT DIE -(Special)Express Pass- 002",
      "ImageUrl": "https://steamcdn-a.akamaihd.net/steam/apps/1082662/header.jpg?t=1580521340"
    },
    "1102320": {
      "Name": "LET IT DIE -(Special)10 Death Metals- 008",
      "ImageUrl": "https://steamcdn-a.akamaihd.net/steam/apps/1102320/header.jpg?t=1580355226"
    },
    "1102321": {
      "Name": "LET IT DIE -(Special)50 Death Metals- 005",
      "ImageUrl": "https://steamcdn-a.akamaihd.net/steam/apps/1102321/header.jpg?t=1580356668"
    },
    "1102322": {
      "Name": "LET IT DIE -(5 Mil Downloads)500 Death Metals-",
      "ImageUrl": "https://steamcdn-a.akamaihd.net/steam/apps/1102322/header.jpg?t=1580349756"
    },
    "1102323": {
      "Name": "LET IT DIE -(5 Mil Downloads)Special pack-",
      "ImageUrl": "https://steamcdn-a.akamaihd.net/steam/apps/1102323/header.jpg?t=1580349885"
    },
    "1120710": {
      "Name": "LET IT DIE -(Special)10 Death Metals- 009",
      "ImageUrl": "https://steamcdn-a.akamaihd.net/steam/apps/1120710/header.jpg?t=1580355310"
    },
    "1120711": {
      "Name": "LET IT DIE -(Special)50 Death Metals- 006",
      "ImageUrl": "https://steamcdn-a.akamaihd.net/steam/apps/1120711/header.jpg?t=1580356767"
    },
    "1120720": {
      "Name": "LET IT DIE -(Special)10 Death Metals- 010",
      "ImageUrl": "https://steamcdn-a.akamaihd.net/steam/apps/1120720/header.jpg?t=1580355368"
    },
    "1135720": {
      "Name": "LET IT DIE -(Special)50 Death Metals- 007",
      "ImageUrl": "https://steamcdn-a.akamaihd.net/steam/apps/1135720/header.jpg?t=1580356892"
    },
    "1135721": {
      "Name": "LET IT DIE -(Special)Express Pass- 003",
      "ImageUrl": "https://steamcdn-a.akamaihd.net/steam/apps/1135721/header.jpg?t=1580521424"
    },
    "1157160": {
      "Name": "LET IT DIE -(Special)10 Death Metals- 011",
      "ImageUrl": "https://steamcdn-a.akamaihd.net/steam/apps/1157160/header.jpg?t=1580355438"
    },
    "1157161": {
      "Name": "LET IT DIE -(Special)50 Death Metals- 008",
      "ImageUrl": "https://steamcdn-a.akamaihd.net/steam/apps/1157161/header.jpg?t=1580356979"
    },
    "1157162": {
      "Name": "LET IT DIE -(1st Anniv. on Steam) Anti-44ce pack1-",
      "ImageUrl": "https://steamcdn-a.akamaihd.net/steam/apps/1157162/header.jpg?t=1580348011"
    },
    "1157163": {
      "Name": "LET IT DIE -(1st Anniv. on Steam) Anti-44ce pack2-",
      "ImageUrl": "https://steamcdn-a.akamaihd.net/steam/apps/1157163/header.jpg?t=1580348193"
    },
    "1174310": {
      "Name": "LET IT DIE -(Special)10 Death Metals- 012",
      "ImageUrl": "https://steamcdn-a.akamaihd.net/steam/apps/1174310/header.jpg?t=1580355527"
    },
    "1174311": {
      "Name": "LET IT DIE -(Special)50 Death Metals- 009",
      "ImageUrl": "https://steamcdn-a.akamaihd.net/steam/apps/1174311/header.jpg?t=1580357226"
    },
    "1174312": {
      "Name": "LET IT DIE -(Black Friday 2019) 50 Death Metals-",
      "ImageUrl": "https://steamcdn-a.akamaihd.net/steam/apps/1174312/header.jpg?t=1574409434"
    },
    "1174313": {
      "Name": "LET IT DIE -(Black Friday 2019) Special pack-",
      "ImageUrl": "https://steamcdn-a.akamaihd.net/steam/apps/1174313/header.jpg?t=1580350142"
    },
    "1193610": {
      "Name": "LET IT DIE -(Special)10 Death Metals- 013",
      "ImageUrl": "https://steamcdn-a.akamaihd.net/steam/apps/1193610/header.jpg?t=1580355596"
    },
    "1193611": {
      "Name": "LET IT DIE -(Special)50 Death Metals- 010",
      "ImageUrl": "https://steamcdn-a.akamaihd.net/steam/apps/1193611/header.jpg?t=1580357370"
    },
    "1193612": {
      "Name": "LET IT DIE -(Special)Express Pass- 004",
      "ImageUrl": "https://steamcdn-a.akamaihd.net/steam/apps/1193612/header.jpg?t=1580521523"
    },
    "1193613": {
      "Name": "LET IT DIE -(Year 3 Anniversary) 300 Death Metals-",
      "ImageUrl": "https://steamcdn-a.akamaihd.net/steam/apps/1193613/header.jpg?t=1580522079"
    },
    "1206540": {
      "Name": "LET IT DIE -(Special)10 Death Metals- 014",
      "ImageUrl": "https://steamcdn-a.akamaihd.net/steam/apps/1206540/header.jpg?t=1580355707"
    },
    "1206541": {
      "Name": "LET IT DIE -(Special)50 Death Metals- 011",
      "ImageUrl": "https://steamcdn-a.akamaihd.net/steam/apps/1206541/header.jpg?t=1580520946"
    },
    "1222100": {
      "Name": "LET IT DIE -(Special)10 Death Metals- 015",
      "ImageUrl": "https://steamcdn-a.akamaihd.net/steam/apps/1222100/header.jpg?t=1580352348"
    },
    "1222101": {
      "Name": "LET IT DIE -(Special)50 Death Metals- 012",
      "ImageUrl": "https://steamcdn-a.akamaihd.net/steam/apps/1222101/header.jpg?t=1580521062"
    },
    "1241350": {
      "Name": "LET IT DIE -(Special)10 Death Metals- 016",
      "ImageUrl": "https://steamcdn-a.akamaihd.net/steam/apps/1241350/header.jpg?t=1582771549"
    },
    "1241351": {
      "Name": "LET IT DIE -(Special)50 Death Metals- 013",
      "ImageUrl": "https://steamcdn-a.akamaihd.net/steam/apps/1241351/header.jpg?t=1582771634"
    },
    "1241352": {
      "Name": "LET IT DIE -(Special)Express Pass- 005",
      "ImageUrl": "https://steamcdn-a.akamaihd.net/steam/apps/1241352/header.jpg?t=1582771701"
    },
    "1266500": {
      "Name": "LET IT DIE -(6 Mil Downloads)100 Death Metals-",
      "ImageUrl": "https://steamcdn-a.akamaihd.net/steam/apps/1266500/header.jpg?t=1585561642"
    },
    "1266501": {
      "Name": "LET IT DIE -(6 Mil Downloads)Special pack-",
      "ImageUrl": "https://steamcdn-a.akamaihd.net/steam/apps/1266501/header.jpg?t=1585561715"
    },
    "1266502": {
      "Name": "LET IT DIE -(Special)10 Death Metals- 017",
      "ImageUrl": "https://steamcdn-a.akamaihd.net/steam/apps/1266502/header.jpg?t=1585561794"
    },
    "1266503": {
      "Name": "LET IT DIE -(Special)50 Death Metals- 014",
      "ImageUrl": "https://steamcdn-a.akamaihd.net/steam/apps/1266503/header.jpg?t=1585566173"
    },
    "1291780": {
      "Name": "LET IT DIE -(Special)10 Death Metals- 018",
      "ImageUrl": "https://steamcdn-a.akamaihd.net/steam/apps/1291780/header.jpg?t=1588214560"
    },
    "1291781": {
      "Name": "LET IT DIE -(Special)50 Death Metals- 015",
      "ImageUrl": "https://steamcdn-a.akamaihd.net/steam/apps/1291781/header.jpg?t=1588214642"
    },
    "1314060": {
      "Name": "LET IT DIE -(Special)10 Death Metals- 019",
      "ImageUrl": "https://steamcdn-a.akamaihd.net/steam/apps/1314060/header.jpg?t=1590631625"
    },
    "1314061": {
      "Name": "LET IT DIE -(Special)50 Death Metals- 016",
      "ImageUrl": "https://steamcdn-a.akamaihd.net/steam/apps/1314061/header.jpg?t=1590631702"
    },
    "1314062": {
      "Name": "LET IT DIE -(Special)Express Pass- 006",
      "ImageUrl": "https://steamcdn-a.akamaihd.net/steam/apps/1314062/header.jpg?t=1590631799"
    },
    "1340350": {
      "Name": "LET IT DIE -(Special)10 Death Metals- 020",
      "ImageUrl": "https://steamcdn-a.akamaihd.net/steam/apps/1340350/header.jpg?t=1593421843"
    },
    "1340351": {
      "Name": "LET IT DIE -(Special)50 Death Metals- 017",
      "ImageUrl": "https://steamcdn-a.akamaihd.net/steam/apps/1340351/header.jpg?t=1593421943"
    },
    "1343160": {
      "Name": "LET IT DIE -(Special)10 Death Metals- 021",
      "ImageUrl": "https://steamcdn-a.akamaihd.net/steam/apps/1343160/header.jpg?t=1596073981"
    },
    "1343161": {
      "Name": "LET IT DIE -(Special)50 Death Metals- 018",
      "ImageUrl": "https://steamcdn-a.akamaihd.net/steam/apps/1343161/header.jpg?t=1596074129"
    }
  },
  "Name": "LET IT DIE",
  "AppId": "794600",
  "ImageUrl": "https://steamcdn-a.akamaihd.net/steam/apps/794600/header.jpg?t=1594747472",
  "Languages": [
    "english",
    "french",
    "italian",
    "german",
    "spanish",
    "portuguese",
    "tchinese",
    "japanese",
    "korean",
    "schinese"
  ],
  "Platforms": {
    "windows": true,
    "mac": false,
    "linux": false
  }
}