﻿[
  {
    "name": "TM_MAZE_RUNNER",
    "defaultvalue": 0,
    "displayName": "Maze Runner",
    "hidden": 0,
    "description": "Complete the Arcade Mode",
    "icon": "https://steamcdn-a.akamaihd.net/steamcommunity/public/images/apps/412540/c43fa830ca286da15f7915eb01bf257a8baa28f0.jpg",
    "icongray": "https://steamcdn-a.akamaihd.net/steamcommunity/public/images/apps/412540/2475b3ed2acf1b3c864241f43d59bf54b20ae535.jpg"
  },
  {
    "name": "TM_CHALLENGE_BEATER",
    "defaultvalue": 0,
    "displayName": "Challenge beater",
    "hidden": 0,
    "description": "Beat all the challenges",
    "icon": "https://steamcdn-a.akamaihd.net/steamcommunity/public/images/apps/412540/32262b0e655251b4fe46be7ff45bfee14dc8e782.jpg",
    "icongray": "https://steamcdn-a.akamaihd.net/steamcommunity/public/images/apps/412540/0805afbd0c7e570455788ca4ac43afc383663a86.jpg"
  },
  {
    "name": "TM_TIME_CANT_BEAT_ME",
    "defaultvalue": 0,
    "displayName": "Time can't beat me",
    "hidden": 0,
    "description": "Complete the Time Attack mode",
    "icon": "https://steamcdn-a.akamaihd.net/steamcommunity/public/images/apps/412540/abcb497f7a5f440806c9f59b3f960a478014c3cb.jpg",
    "icongray": "https://steamcdn-a.akamaihd.net/steamcommunity/public/images/apps/412540/fa9832b8ea4c1e4ccf19737c629b093d0f9e7e5a.jpg"
  },
  {
    "name": "TM_I_DONT_HAVE_TIME",
    "defaultvalue": 0,
    "displayName": "I don't have time",
    "hidden": 1,
    "icon": "https://steamcdn-a.akamaihd.net/steamcommunity/public/images/apps/412540/ef2e24fe7e8bead6805455c1972eb5a3e06c3303.jpg",
    "icongray": "https://steamcdn-a.akamaihd.net/steamcommunity/public/images/apps/412540/6ea51259bf58e4cc677d487c982e82a6e50b47d5.jpg"
  },
  {
    "name": "TM_WORLD_BUILDER",
    "defaultvalue": 0,
    "displayName": "World builder",
    "hidden": 0,
    "description": "Share 5 maps with the community",
    "icon": "https://steamcdn-a.akamaihd.net/steamcommunity/public/images/apps/412540/ce1fd696f53f486f3ac7d5f22355f38725c6911e.jpg",
    "icongray": "https://steamcdn-a.akamaihd.net/steamcommunity/public/images/apps/412540/1c5ff52d8786c414e20a8fb7d15b5523bf0aff22.jpg"
  },
  {
    "name": "TM_NO_MORE_FRIENDS",
    "defaultvalue": 0,
    "displayName": "No more friends",
    "hidden": 1,
    "icon": "https://steamcdn-a.akamaihd.net/steamcommunity/public/images/apps/412540/e228f818044215b8e13ada1b31dbd0eb2b2a63d1.jpg",
    "icongray": "https://steamcdn-a.akamaihd.net/steamcommunity/public/images/apps/412540/ffa25fd2967edab37fb8b36a445cfef1dc255a42.jpg"
  },
  {
    "name": "TM_THE_MAN_WHO_NEED_HELP",
    "defaultvalue": 0,
    "displayName": "The man who need help",
    "hidden": 0,
    "description": "Beat Arcade game in cooperative",
    "icon": "https://steamcdn-a.akamaihd.net/steamcommunity/public/images/apps/412540/fc426888b37cc3445e34b359167e0a1a0d9830eb.jpg",
    "icongray": "https://steamcdn-a.akamaihd.net/steamcommunity/public/images/apps/412540/d73d0a5ab750e0efcc5b8a83dd347bf073aaff08.jpg"
  },
  {
    "name": "TM_GUAF_GUAF",
    "defaultvalue": 0,
    "displayName": "Guaf Guaf!",
    "hidden": 1,
    "icon": "https://steamcdn-a.akamaihd.net/steamcommunity/public/images/apps/412540/49285c69ffa8c00ddcec0e1a49044389a7c1812f.jpg",
    "icongray": "https://steamcdn-a.akamaihd.net/steamcommunity/public/images/apps/412540/602f3c74be324cdf52776f3edcfa4123d77e5c8f.jpg"
  },
  {
    "name": "TM_NO_EGGS_ALLOWED",
    "defaultvalue": 0,
    "displayName": "No eggs allowed",
    "hidden": 1,
    "icon": "https://steamcdn-a.akamaihd.net/steamcommunity/public/images/apps/412540/32bb67a36e85af6115bfac0aeffd5471fd8875e2.jpg",
    "icongray": "https://steamcdn-a.akamaihd.net/steamcommunity/public/images/apps/412540/c6fda567cb781096d84ae4fffdfa92f8349be705.jpg"
  },
  {
    "name": "TM_SERIAL_KILLER",
    "defaultvalue": 0,
    "displayName": "Serial Killer",
    "hidden": 0,
    "description": "Kill 300 minotaurs ",
    "icon": "https://steamcdn-a.akamaihd.net/steamcommunity/public/images/apps/412540/7e5290c1959420aed03d0faefd7a0a9716109639.jpg",
    "icongray": "https://steamcdn-a.akamaihd.net/steamcommunity/public/images/apps/412540/77967264dc508b7071eb76b62dcf58880a0d5c4a.jpg"
  },
  {
    "name": "TM_THE_MINOTAURS_NIGHTMARE",
    "defaultvalue": 0,
    "displayName": "The minotaurs nightmare",
    "hidden": 0,
    "description": "Kill 9000 minotaurs",
    "icon": "https://steamcdn-a.akamaihd.net/steamcommunity/public/images/apps/412540/eea7d4bbee1900ba0c2005955422349837b0ced8.jpg",
    "icongray": "https://steamcdn-a.akamaihd.net/steamcommunity/public/images/apps/412540/49c6862900d86d6f6041d2f0cd431efbfe1188d0.jpg"
  },
  {
    "name": "TM_THE_PERFECT_HUMAN",
    "defaultvalue": 0,
    "displayName": "The perfect human",
    "hidden": 1,
    "icon": "https://steamcdn-a.akamaihd.net/steamcommunity/public/images/apps/412540/5dbe5a2bd00c58532cdded4bd83a3a08a1c105f0.jpg",
    "icongray": "https://steamcdn-a.akamaihd.net/steamcommunity/public/images/apps/412540/b52bd6650f75a24d18bd30963f60ea29fec68091.jpg"
  },
  {
    "name": "TM_NO_TIME_NO_LIFE",
    "defaultvalue": 0,
    "displayName": "No time no life",
    "hidden": 0,
    "description": "Beat Time Attack mode without receive damage",
    "icon": "https://steamcdn-a.akamaihd.net/steamcommunity/public/images/apps/412540/fd19c2a48c70dc3d74a23deb09430ec4c8aec956.jpg",
    "icongray": "https://steamcdn-a.akamaihd.net/steamcommunity/public/images/apps/412540/b8d80d4d2612fcdf533255668477686f3bcc99a5.jpg"
  },
  {
    "name": "TM_RUDE_MAN",
    "defaultvalue": 0,
    "displayName": "Rude man",
    "hidden": 1,
    "icon": "https://steamcdn-a.akamaihd.net/steamcommunity/public/images/apps/412540/95d6970b10f8263f404376b396edff03a2776ef4.jpg",
    "icongray": "https://steamcdn-a.akamaihd.net/steamcommunity/public/images/apps/412540/8937d32652dfa4c6b17e02486d2f1192159f7825.jpg"
  }
]