﻿[
  {
    "name": "TotalMedals",
    "defaultvalue": 0,
    "displayName": "Alltime Medals"
  },
  {
    "name": "TotalRaces",
    "defaultvalue": 0,
    "displayName": "Total Races"
  },
  {
    "name": "TotalDailyWins",
    "defaultvalue": 0,
    "displayName": "Total Daily Wins"
  },
  {
    "name": "TotalLaps",
    "defaultvalue": 0,
    "displayName": "Total Laps"
  }
]