﻿[
  {
    "name": "nbDeaths",
    "defaultvalue": 0,
    "displayName": "Number of deaths"
  },
  {
    "name": "Abby_PlayTime",
    "defaultvalue": 0,
    "displayName": "Abby - Play Time"
  },
  {
    "name": "Jack_PlayTime",
    "defaultvalue": 0,
    "displayName": "Jack - Play Time"
  },
  {
    "name": "Kenji_PlayTime",
    "defaultvalue": 0,
    "displayName": "Kenji - Play Time"
  },
  {
    "name": "nbDeathByClassic1",
    "defaultvalue": 0,
    "displayName": "Deaths by zombies LVL 1"
  },
  {
    "name": "nbDeathByClassic2",
    "defaultvalue": 0,
    "displayName": "Deaths by zombies LVL 2"
  },
  {
    "name": "nbDeathByClassic3",
    "defaultvalue": 0,
    "displayName": "Deaths by zombies LVL 3"
  },
  {
    "name": "nbDeathByBomber",
    "defaultvalue": 0,
    "displayName": "Deaths by Bomber"
  },
  {
    "name": "nbDeathByTall",
    "defaultvalue": 0,
    "displayName": "Deaths by tall zombies"
  },
  {
    "name": "nbDeathByGiant",
    "defaultvalue": 0,
    "displayName": "Deaths by Giant"
  },
  {
    "name": "nbDeathByStalker",
    "defaultvalue": 0,
    "displayName": "Deaths by Stalker"
  },
  {
    "name": "nbDeathByNandou",
    "defaultvalue": 0,
    "displayName": "Deaths by Ostrich"
  },
  {
    "name": "nbDeathByDeer",
    "defaultvalue": 0,
    "displayName": "Deaths by Deer"
  },
  {
    "name": "nbDeathByCrab",
    "defaultvalue": 0,
    "displayName": "Deaths by Crab"
  },
  {
    "name": "nbDeathByPiranha",
    "defaultvalue": 0,
    "displayName": "Deaths by Piranhas"
  },
  {
    "name": "nbDeathByTapir",
    "defaultvalue": 0,
    "displayName": "Deaths by Tapirs"
  },
  {
    "name": "nbBuffsCrafted",
    "defaultvalue": 0,
    "displayName": "Number of crafted potions"
  },
  {
    "name": "nbBuffsUsed",
    "defaultvalue": 0,
    "displayName": "Number of used potions"
  },
  {
    "name": "Island_01_nbKills",
    "defaultvalue": 0,
    "displayName": "Number of zombies killed on Island_01"
  },
  {
    "name": "Island_02_nbKills",
    "defaultvalue": 0,
    "displayName": "Number of zombies killed on Island_02"
  },
  {
    "name": "Island_03_nbKills",
    "defaultvalue": 0,
    "displayName": "Number of zombies killed on Island_03"
  },
  {
    "name": "Island_04_nbKills",
    "defaultvalue": 0,
    "displayName": "Number of zombies killed on Island_04"
  },
  {
    "name": "nbFinishMove_Normal",
    "defaultvalue": 0,
    "displayName": "Number of finish moves - Normal"
  },
  {
    "name": "nbFinishMove_IronMan",
    "defaultvalue": 0,
    "displayName": "Number of finish moves - Iron Man"
  },
  {
    "name": "nbHeadShot_Normal",
    "defaultvalue": 0,
    "displayName": "Number of headshots - Normal"
  },
  {
    "name": "nbHeadShot_IronMan",
    "defaultvalue": 0,
    "displayName": "Number of headshots - Iron Man"
  },
  {
    "name": "nbNormalKill_Normal",
    "defaultvalue": 0,
    "displayName": "Number of normal kills - Normal"
  },
  {
    "name": "nbNormalKill_IronMan",
    "defaultvalue": 0,
    "displayName": "Number of normal kills - Iron Man"
  },
  {
    "name": "nbTotalKill",
    "defaultvalue": 0,
    "displayName": "Number of kills"
  },
  {
    "name": "nbKills_Zombie",
    "defaultvalue": 0,
    "displayName": "Number of Zombies killed"
  },
  {
    "name": "nbKills_Crab",
    "defaultvalue": 0,
    "displayName": "Number of Crabs killed"
  },
  {
    "name": "nbKills_Stalker",
    "defaultvalue": 0,
    "displayName": "Number of Stalker killed"
  },
  {
    "name": "nbKills_Bomber",
    "defaultvalue": 0,
    "displayName": "Number of Bomber killed"
  },
  {
    "name": "nbKills_Giant",
    "defaultvalue": 0,
    "displayName": "Number of Giant killed"
  },
  {
    "name": "nbKills_Tapir",
    "defaultvalue": 0,
    "displayName": "Number of Tapir killed"
  },
  {
    "name": "nbKills_NPC",
    "defaultvalue": 0,
    "displayName": "Number of NPC killed"
  },
  {
    "name": "nbInstantKills",
    "defaultvalue": 0,
    "displayName": "Number of InstantKill"
  },
  {
    "name": "nbKills_Zombie_By_Deer",
    "defaultvalue": 0,
    "displayName": "Number of Zombies killed by a deer"
  },
  {
    "name": "nbDeathByPlayer",
    "defaultvalue": 0,
    "displayName": "Number of deaths by sel or other player"
  },
  {
    "name": "nbDeathByUnknown",
    "defaultvalue": 0,
    "displayName": "Number of death by an unknown source of damages"
  },
  {
    "name": "version",
    "defaultvalue": 0,
    "displayName": ""
  },
  {
    "name": "nbDeathByCrocodile",
    "defaultvalue": 0,
    "displayName": "Deaths by Crocodile"
  },
  {
    "name": "nbDeathByZombieCrocodile",
    "defaultvalue": 0,
    "displayName": "Deaths by Zombie Crocodile"
  },
  {
    "name": "nbDeathByBear",
    "defaultvalue": 0,
    "displayName": "Deaths by Bear"
  },
  {
    "name": "nbDeathByZombieBear",
    "defaultvalue": 0,
    "displayName": "Deaths by Zombie Bear"
  },
  {
    "name": "nbFinishMove_KovacsWay",
    "defaultvalue": 0,
    "displayName": "Number of finish moves - Kovac's Way"
  },
  {
    "name": "nbHeadShot_KovacsWay",
    "defaultvalue": 0,
    "displayName": "Number of headshots - Kovac's Way"
  },
  {
    "name": "nbKills_Animals_Hunt",
    "defaultvalue": 0,
    "displayName": "Number of animal killed"
  },
  {
    "name": "achievement_FirstInstantKill",
    "defaultvalue": 0,
    "displayName": "Infliger votre première mort instantanée à un zombie."
  },
  {
    "name": "achievement_UnlockFirstSkill",
    "defaultvalue": 0,
    "displayName": "Déverrouiller votre première compétence"
  },
  {
    "name": "achievement_Discover_Island_01",
    "defaultvalue": 0,
    "displayName": "Visiter l'île de La Vendida"
  },
  {
    "name": "achievement_Discover_Island_02",
    "defaultvalue": 0,
    "displayName": "Visiter l'île de La Sonada"
  },
  {
    "name": "achievement_Discover_Island_05",
    "defaultvalue": 0,
    "displayName": "Visiter l'île de Santa Barbara"
  },
  {
    "name": "achievement_FinishStory_Normal",
    "defaultvalue": 0,
    "displayName": "Terminer le mode histoire en mode de difficulté \"Normal\"."
  },
  {
    "name": "achievement_FinishStory_Hard",
    "defaultvalue": 0,
    "displayName": "Terminer le mode histoire en mode \"Iron man\"."
  },
  {
    "name": "achievement_Finish_All_Monk_Quests",
    "defaultvalue": 0,
    "displayName": "Terminer les 12 quêtes secondaires des singes de Kovac."
  },
  {
    "name": "achievement_FindAllHerbarium",
    "defaultvalue": 0,
    "displayName": "Trouver les 20 plantes spéciales de l'herbier."
  },
  {
    "name": "achievement_FinishChallenge_S_Rank",
    "defaultvalue": 0,
    "displayName": "Complétez un défi avec le rang \"S\""
  },
  {
    "name": "achievement_Gain_Title_Tag_20",
    "defaultvalue": 0,
    "displayName": "Atteindre le rang \"Amateur de survie\" (Mode Défi)"
  },
  {
    "name": "storyProgression_Kenji",
    "defaultvalue": 0,
    "displayName": ""
  },
  {
    "name": "storyProgression_Abby",
    "defaultvalue": 0,
    "displayName": ""
  },
  {
    "name": "storyProgression_Jack",
    "defaultvalue": 0,
    "displayName": ""
  },
  {
    "name": "storyProgression_Nina",
    "defaultvalue": 0,
    "displayName": ""
  },
  {
    "name": "currentLevel",
    "defaultvalue": 0,
    "displayName": ""
  },
  {
    "name": "currentCharacter",
    "defaultvalue": 0,
    "displayName": ""
  },
  {
    "name": "currentDifficulty",
    "defaultvalue": 0,
    "displayName": ""
  },
  {
    "name": "currentStoryCompletion",
    "defaultvalue": 0,
    "displayName": ""
  },
  {
    "name": "currentMode",
    "defaultvalue": 0,
    "displayName": ""
  },
  {
    "name": "currentRogueLikeIsland",
    "defaultvalue": 0,
    "displayName": ""
  },
  {
    "name": "currentTowerDefenseBestScore",
    "defaultvalue": 0,
    "displayName": ""
  },
  {
    "name": "achievement",
    "defaultvalue": 0,
    "displayName": ""
  },
  {
    "name": "version_master",
    "defaultvalue": 0,
    "displayName": ""
  },
  {
    "name": "achievement_Challenge_WithoutHeal_Normal",
    "defaultvalue": 0,
    "displayName": "Compléter un défi en mode de difficulté \"Normal\" sans utiliser de plantes médicinales ni de trousses de secours."
  },
  {
    "name": "achievement_Challenge_WithoutHeal_IronMan",
    "defaultvalue": 0,
    "displayName": "Compléter un défi en mode de difficulté \"Iron man\" sans utiliser de plantes médicinales ni de trousses de secours."
  },
  {
    "name": "achievement_Challenge_WithoutHit_Normal",
    "defaultvalue": 0,
    "displayName": "Compléter un défi en mode de difficulté \"Normal\" sans perdre de santé."
  },
  {
    "name": "achievement_Challenge_WithoutHit_IronMan",
    "defaultvalue": 0,
    "displayName": "Compléter un défi en mode de difficulté \"Iron man\" sans perdre de santé."
  },
  {
    "name": "achievement_Kill_5_zombies_5_seconds",
    "defaultvalue": 0,
    "displayName": "Tuer 5 zombies en moins de 5 secondes."
  },
  {
    "name": "achievement_Kill_10_zombies_5_seconds",
    "defaultvalue": 0,
    "displayName": "Tuer 10 zombies en moins de 5 secondes."
  },
  {
    "name": "achievement_1_bullet_5_kills",
    "defaultvalue": 0,
    "displayName": "Tuer 5 monstres d'un coup avec une balle ou une flèche."
  },
  {
    "name": "achievement_Kill_20_zombies_5_seconds",
    "defaultvalue": 0,
    "displayName": "Tuer 20 zombies en moins de 5 secondes."
  },
  {
    "name": "achievement_5_instantkills_15_seconds",
    "defaultvalue": 0,
    "displayName": "Effectuer 5 morts instantanées en moins de 15 secondes."
  },
  {
    "name": "system_Processor_x64",
    "defaultvalue": 0,
    "displayName": ""
  },
  {
    "name": "system_Processor_ARM",
    "defaultvalue": 0,
    "displayName": ""
  },
  {
    "name": "system_Processor_IA64",
    "defaultvalue": 0,
    "displayName": ""
  },
  {
    "name": "system_Processor_x86",
    "defaultvalue": 0,
    "displayName": ""
  },
  {
    "name": "system_Processor_Unknown",
    "defaultvalue": 0,
    "displayName": ""
  },
  {
    "name": "system_OS_Windows_5_0",
    "defaultvalue": 0,
    "displayName": "Windows 2000"
  },
  {
    "name": "system_OS_Windows_5_1",
    "defaultvalue": 0,
    "displayName": "Windows XP"
  },
  {
    "name": "system_OS_Windows_5_2",
    "defaultvalue": 0,
    "displayName": "Windows XP 64-Bit Edition / Windows Server 2003 / Windows Server 2003 R2"
  },
  {
    "name": "system_OS_Windows_6_0",
    "defaultvalue": 0,
    "displayName": "Windows Vista / Windows Server 2008"
  },
  {
    "name": "system_OS_Windows_6_1",
    "defaultvalue": 0,
    "displayName": "Windows 7 / Windows Server 2008 R2"
  },
  {
    "name": "system_OS_Windows_6_2",
    "defaultvalue": 0,
    "displayName": "Windows 8 / Windows Server 2012"
  },
  {
    "name": "system_OS_Windows_6_3",
    "defaultvalue": 0,
    "displayName": "Windows 8.1 / Windows Server 2012 R2"
  },
  {
    "name": "system_OS_Windows_Unknown",
    "defaultvalue": 0,
    "displayName": ""
  },
  {
    "name": "system_RAM_1",
    "defaultvalue": 0,
    "displayName": ""
  },
  {
    "name": "system_RAM_2",
    "defaultvalue": 0,
    "displayName": ""
  },
  {
    "name": "system_RAM_4",
    "defaultvalue": 0,
    "displayName": ""
  },
  {
    "name": "system_RAM_8",
    "defaultvalue": 0,
    "displayName": ""
  },
  {
    "name": "system_RAM_16",
    "defaultvalue": 0,
    "displayName": ""
  },
  {
    "name": "system_RAM_32",
    "defaultvalue": 0,
    "displayName": ""
  },
  {
    "name": "system_RAM_More",
    "defaultvalue": 0,
    "displayName": ""
  },
  {
    "name": "system_RAM_Unknown",
    "defaultvalue": 0,
    "displayName": ""
  },
  {
    "name": "achievement_RogueLike_Easy",
    "defaultvalue": 0,
    "displayName": ""
  },
  {
    "name": "achievement_RogueLike_Normal",
    "defaultvalue": 0,
    "displayName": ""
  },
  {
    "name": "achievement_RogueLike_Hard",
    "defaultvalue": 0,
    "displayName": ""
  },
  {
    "name": "unused_TPS",
    "defaultvalue": 0,
    "displayName": ""
  }
]