﻿[
  {
    "name": "SA_BREAKING_4TH_WALL",
    "defaultvalue": 0,
    "displayName": "Breaking the 4th Wall",
    "hidden": 0,
    "description": "Blow up the 4th wall in a level with a rocket launcher.",
    "icon": "https://steamcdn-a.akamaihd.net/steamcommunity/public/images/apps/98200/4e483007fbf719ba2aa0b0cf815fbe3469e32259.jpg",
    "icongray": "https://steamcdn-a.akamaihd.net/steamcommunity/public/images/apps/98200/85cbce737e8ebd9b6bd19b5a45a538a8c5f2d185.jpg"
  },
  {
    "name": "SA_TENTH_CIRCLE",
    "defaultvalue": 0,
    "displayName": "The 10th Circle",
    "hidden": 0,
    "description": "Get to Level 10.",
    "icon": "https://steamcdn-a.akamaihd.net/steamcommunity/public/images/apps/98200/1cafe28e2638b6a35fb354329bbfa6f53b4dc971.jpg",
    "icongray": "https://steamcdn-a.akamaihd.net/steamcommunity/public/images/apps/98200/85cbce737e8ebd9b6bd19b5a45a538a8c5f2d185.jpg"
  },
  {
    "name": "SA_IGNORE",
    "defaultvalue": 0,
    "displayName": "True Focus Means Ignoring That Which is Irrelevant",
    "hidden": 0,
    "description": "Ignore an enemy.",
    "icon": "https://steamcdn-a.akamaihd.net/steamcommunity/public/images/apps/98200/2720c22dddf72c4110c520d46287925afa2511c7.jpg",
    "icongray": "https://steamcdn-a.akamaihd.net/steamcommunity/public/images/apps/98200/85cbce737e8ebd9b6bd19b5a45a538a8c5f2d185.jpg"
  },
  {
    "name": "SA_OLD_STANCHER",
    "defaultvalue": 0,
    "displayName": "Old Stancher",
    "hidden": 0,
    "description": "Complete the Single Player Campaign.",
    "icon": "https://steamcdn-a.akamaihd.net/steamcommunity/public/images/apps/98200/6ed13dd5e4d920d28eb1db784ad0a7f15e144535.jpg",
    "icongray": "https://steamcdn-a.akamaihd.net/steamcommunity/public/images/apps/98200/85cbce737e8ebd9b6bd19b5a45a538a8c5f2d185.jpg"
  },
  {
    "name": "SA_MASTER_CLICKING",
    "defaultvalue": 0,
    "displayName": "Master of Clicking on Stuff",
    "hidden": 0,
    "description": "Finish the tutorial.",
    "icon": "https://steamcdn-a.akamaihd.net/steamcommunity/public/images/apps/98200/3209aa0846ae534918b777ac515023e9727c917c.jpg",
    "icongray": "https://steamcdn-a.akamaihd.net/steamcommunity/public/images/apps/98200/85cbce737e8ebd9b6bd19b5a45a538a8c5f2d185.jpg"
  },
  {
    "name": "SA_DONT_SUCCEED",
    "defaultvalue": 0,
    "displayName": "If at First You Don't Succeed, You Have Failed",
    "hidden": 0,
    "description": "Lose your first single-player mission.",
    "icon": "https://steamcdn-a.akamaihd.net/steamcommunity/public/images/apps/98200/e735d26d365820a2fb1ae5e3b0ac9500eb15c86e.jpg",
    "icongray": "https://steamcdn-a.akamaihd.net/steamcommunity/public/images/apps/98200/85cbce737e8ebd9b6bd19b5a45a538a8c5f2d185.jpg"
  },
  {
    "name": "SA_DIE_IN_FIRE",
    "defaultvalue": 0,
    "displayName": "Die in a Fire",
    "hidden": 0,
    "description": "Lose a unit to a rocket.",
    "icon": "https://steamcdn-a.akamaihd.net/steamcommunity/public/images/apps/98200/8d75a559d9ab4e72076130f1d0a3a4cf7c1b63ae.jpg",
    "icongray": "https://steamcdn-a.akamaihd.net/steamcommunity/public/images/apps/98200/85cbce737e8ebd9b6bd19b5a45a538a8c5f2d185.jpg"
  },
  {
    "name": "SA_BETTER_BEARD",
    "defaultvalue": 0,
    "displayName": "He Has a Better Beard Than You, Though",
    "hidden": 0,
    "description": "Defeat 'Bin' in multiplayer.",
    "icon": "https://steamcdn-a.akamaihd.net/steamcommunity/public/images/apps/98200/bba943dbe20fb24723914381ee1acae81352563b.jpg",
    "icongray": "https://steamcdn-a.akamaihd.net/steamcommunity/public/images/apps/98200/85cbce737e8ebd9b6bd19b5a45a538a8c5f2d185.jpg"
  },
  {
    "name": "SA_EXTERMINATOR",
    "defaultvalue": 0,
    "displayName": "Exterminator!",
    "hidden": 0,
    "description": "Win a game of Extermination.",
    "icon": "https://steamcdn-a.akamaihd.net/steamcommunity/public/images/apps/98200/2a13fac91b388a15a1ba4edd97d2bbbcb2a64173.jpg",
    "icongray": "https://steamcdn-a.akamaihd.net/steamcommunity/public/images/apps/98200/85cbce737e8ebd9b6bd19b5a45a538a8c5f2d185.jpg"
  },
  {
    "name": "SA_CHARGER",
    "defaultvalue": 0,
    "displayName": "Charger!",
    "hidden": 0,
    "description": "Win a game of Charge.",
    "icon": "https://steamcdn-a.akamaihd.net/steamcommunity/public/images/apps/98200/67e87a4d0efafe457a408dd7bc128c5ebdd0ff96.jpg",
    "icongray": "https://steamcdn-a.akamaihd.net/steamcommunity/public/images/apps/98200/85cbce737e8ebd9b6bd19b5a45a538a8c5f2d185.jpg"
  },
  {
    "name": "SA_DISPUTER",
    "defaultvalue": 0,
    "displayName": "Disput....er!",
    "hidden": 0,
    "description": "Win a game of Disputed.",
    "icon": "https://steamcdn-a.akamaihd.net/steamcommunity/public/images/apps/98200/f0af0796b9f7927843d3abe2a21f2781247d99d2.jpg",
    "icongray": "https://steamcdn-a.akamaihd.net/steamcommunity/public/images/apps/98200/85cbce737e8ebd9b6bd19b5a45a538a8c5f2d185.jpg"
  },
  {
    "name": "SA_HOSTAGE",
    "defaultvalue": 0,
    "displayName": "Hostage Situationalist!",
    "hidden": 0,
    "description": "Win a game of Hostage.",
    "icon": "https://steamcdn-a.akamaihd.net/steamcommunity/public/images/apps/98200/ca3123e963d60d55108e931fb1a1cc9321fc6a1f.jpg",
    "icongray": "https://steamcdn-a.akamaihd.net/steamcommunity/public/images/apps/98200/85cbce737e8ebd9b6bd19b5a45a538a8c5f2d185.jpg"
  },
  {
    "name": "SA_LEVEL_100",
    "defaultvalue": 0,
    "displayName": "SO MANY LEVELINGS!!",
    "hidden": 0,
    "description": "Get to level 100.",
    "icon": "https://steamcdn-a.akamaihd.net/steamcommunity/public/images/apps/98200/01b0035f060d2042eba0b315d9046b0011347ae9.jpg",
    "icongray": "https://steamcdn-a.akamaihd.net/steamcommunity/public/images/apps/98200/85cbce737e8ebd9b6bd19b5a45a538a8c5f2d185.jpg"
  },
  {
    "name": "SA_NOOBS_LAMENT",
    "defaultvalue": 0,
    "displayName": "The Lament of the Noob",
    "hidden": 0,
    "description": "Lose your first multiplayer game.",
    "icon": "https://steamcdn-a.akamaihd.net/steamcommunity/public/images/apps/98200/f0a1c17cf26d8688eb97b495d4f6e2e6528ac6ff.jpg",
    "icongray": "https://steamcdn-a.akamaihd.net/steamcommunity/public/images/apps/98200/85cbce737e8ebd9b6bd19b5a45a538a8c5f2d185.jpg"
  },
  {
    "name": "SA_TINKERINGS",
    "defaultvalue": 0,
    "displayName": "Tinkerings",
    "hidden": 0,
    "description": "Change the map generation settings.",
    "icon": "https://steamcdn-a.akamaihd.net/steamcommunity/public/images/apps/98200/62693bfecc210d180d1885036a6f45412ff712fd.jpg",
    "icongray": "https://steamcdn-a.akamaihd.net/steamcommunity/public/images/apps/98200/85cbce737e8ebd9b6bd19b5a45a538a8c5f2d185.jpg"
  },
  {
    "name": "SA_CHRISTMAS",
    "defaultvalue": 0,
    "displayName": "Now I Have A Machine Gun. Ho Ho Ho.",
    "hidden": 0,
    "description": "Play an Instant Skirmish and win with only your machine gunner left alive.",
    "icon": "https://steamcdn-a.akamaihd.net/steamcommunity/public/images/apps/98200/7b18355206e5fa86ef29cbd5b5fe64fcb3484962.jpg",
    "icongray": "https://steamcdn-a.akamaihd.net/steamcommunity/public/images/apps/98200/067ecf247be163cee967039030d378d0a90e370c.jpg"
  }
]