﻿{
  "Dlcs": {},
  "Name": "b",
  "AppId": "660880",
  "ImageUrl": "https://steamcdn-a.akamaihd.net/steam/apps/660880/header.jpg?t=1596901548",
  "Languages": [
    "english"
  ],
  "Platforms": {
    "windows": true,
    "mac": false,
    "linux": false
  }
}