﻿{
  "Dlcs": {
    "1158730": {
      "Name": "RESIDENT EVIL 3 - Classic Costume Pack",
      "ImageUrl": "https://steamcdn-a.akamaihd.net/steam/apps/1158730/header.jpg?t=1588903749"
    },
    "1295160": {
      "Name": "",
      "ImageUrl": ""
    },
    "1348140": {
      "Name": "Resident Evil 3 - All In-game Rewards Unlock",
      "ImageUrl": "https://steamcdn-a.akamaihd.net/steam/apps/1348140/header.jpg?t=1596675670"
    },
    "1108280": {
      "Name": "",
      "ImageUrl": ""
    },
    "1295350": {
      "Name": "",
      "ImageUrl": ""
    }
  },
  "Name": "Resident Evil 3",
  "AppId": "952060",
  "ImageUrl": "https://steamcdn-a.akamaihd.net/steam/apps/952060/header.jpg?t=1596857291",
  "Languages": [
    "english",
    "french",
    "italian",
    "german",
    "spanish",
    "portuguese",
    "polish",
    "russian",
    "schinese",
    "tchinese",
    "japanese",
    "korean"
  ],
  "Platforms": {
    "windows": true,
    "mac": false,
    "linux": false
  }
}