﻿{
  "Dlcs": {
    "464330": {
      "Name": "Spellweaver - Vampire Overlord Deck",
      "ImageUrl": "https://steamcdn-a.akamaihd.net/steam/apps/464330/header.jpg?t=1477378187"
    },
    "465230": {
      "Name": "Spellweaver - Soldier Reverence Deck",
      "ImageUrl": "https://steamcdn-a.akamaihd.net/steam/apps/465230/header.jpg?t=1479821520"
    },
    "545140": {
      "Name": "Spellweaver - Duke's Zombies Deck",
      "ImageUrl": "https://steamcdn-a.akamaihd.net/steam/apps/545140/header.jpg?t=1491850199"
    },
    "615130": {
      "Name": "Spellweaver Chronicles - The Holy Child",
      "ImageUrl": "https://steamcdn-a.akamaihd.net/steam/apps/615130/header.jpg?t=1491849913"
    }
  },
  "Name": "Spellweaver",
  "AppId": "429680",
  "ImageUrl": "https://steamcdn-a.akamaihd.net/steam/apps/429680/header.jpg?t=1491850127",
  "Languages": [
    "english",
    "french",
    "german",
    "spanish",
    "czech",
    "dutch",
    "polish",
    "portuguese",
    "russian",
    "schinese"
  ],
  "Platforms": {
    "windows": true,
    "mac": false,
    "linux": false
  }
}