﻿[
  {
    "name": "OnePunch",
    "defaultvalue": 0,
    "displayName": "One Punch Robot",
    "hidden": 0,
    "description": "Kill 3 players on multiplayer with one single punch.",
    "icon": "https://steamcdn-a.akamaihd.net/steamcommunity/public/images/apps/413500/c05ee35161779aeb5ac51b71510fbdfe94aebbfd.jpg",
    "icongray": "https://steamcdn-a.akamaihd.net/steamcommunity/public/images/apps/413500/6283c0d9d5dc56fa77b4595b4370b479fc0b59a6.jpg"
  },
  {
    "name": "Intercepted",
    "defaultvalue": 0,
    "displayName": "Intercepted",
    "hidden": 0,
    "description": "Parry an enemy fist with your own fist 20 times.",
    "icon": "https://steamcdn-a.akamaihd.net/steamcommunity/public/images/apps/413500/afe352e0a2d5110e6da0f6e81ec23d4660bb3cd7.jpg",
    "icongray": "https://steamcdn-a.akamaihd.net/steamcommunity/public/images/apps/413500/6283c0d9d5dc56fa77b4595b4370b479fc0b59a6.jpg"
  },
  {
    "name": "PinballMagician",
    "defaultvalue": 0,
    "displayName": "Pinball Magician",
    "hidden": 0,
    "description": "50 bounceshots.",
    "icon": "https://steamcdn-a.akamaihd.net/steamcommunity/public/images/apps/413500/8a59630fbbd1b3371b72391369ca355ab208ff8c.jpg",
    "icongray": "https://steamcdn-a.akamaihd.net/steamcommunity/public/images/apps/413500/6283c0d9d5dc56fa77b4595b4370b479fc0b59a6.jpg"
  },
  {
    "name": "ShouldntHave",
    "defaultvalue": 0,
    "displayName": "You shouldn`t have...",
    "hidden": 0,
    "description": "Destroy 10 cannons with its own bomb.",
    "icon": "https://steamcdn-a.akamaihd.net/steamcommunity/public/images/apps/413500/974f265f44b3f5d3a43eb756602eaa5bcaccd23f.jpg",
    "icongray": "https://steamcdn-a.akamaihd.net/steamcommunity/public/images/apps/413500/6283c0d9d5dc56fa77b4595b4370b479fc0b59a6.jpg"
  },
  {
    "name": "Demolitions",
    "defaultvalue": 0,
    "displayName": "Demolitions Expert",
    "hidden": 0,
    "description": "Destroy 25 enemies with bombs.",
    "icon": "https://steamcdn-a.akamaihd.net/steamcommunity/public/images/apps/413500/1aad094fd30cd2e69667de7d0f0378dae0da6875.jpg",
    "icongray": "https://steamcdn-a.akamaihd.net/steamcommunity/public/images/apps/413500/6283c0d9d5dc56fa77b4595b4370b479fc0b59a6.jpg"
  },
  {
    "name": "Defense",
    "defaultvalue": 0,
    "displayName": "Rocketanium Defense",
    "hidden": 0,
    "description": "Block 10 incoming fists with the shield powerup on multiplayer",
    "icon": "https://steamcdn-a.akamaihd.net/steamcommunity/public/images/apps/413500/5d264986727f23bc43440a0f7cf56ddedc41fe6a.jpg",
    "icongray": "https://steamcdn-a.akamaihd.net/steamcommunity/public/images/apps/413500/6283c0d9d5dc56fa77b4595b4370b479fc0b59a6.jpg"
  },
  {
    "name": "CanOnlyBeOne",
    "defaultvalue": 0,
    "displayName": "There can only be one",
    "hidden": 0,
    "description": "Win a deathmatch against three opponents without dying once (invincible title)",
    "icon": "https://steamcdn-a.akamaihd.net/steamcommunity/public/images/apps/413500/c76f3e8afc83616b941e6d3312ddedc64559fa90.jpg",
    "icongray": "https://steamcdn-a.akamaihd.net/steamcommunity/public/images/apps/413500/6283c0d9d5dc56fa77b4595b4370b479fc0b59a6.jpg"
  },
  {
    "name": "NeedEasyMode",
    "defaultvalue": 0,
    "displayName": "Where is the easy mode?",
    "hidden": 0,
    "description": "Complete 5 multiplayer matches without destroying any robot (pacifist title)",
    "icon": "https://steamcdn-a.akamaihd.net/steamcommunity/public/images/apps/413500/494bb57ca5d9258cc7a563187cc9b21a47fa33e1.jpg",
    "icongray": "https://steamcdn-a.akamaihd.net/steamcommunity/public/images/apps/413500/6283c0d9d5dc56fa77b4595b4370b479fc0b59a6.jpg"
  },
  {
    "name": "GiantWarrior",
    "defaultvalue": 0,
    "displayName": "Giant Warrior Rocketleon",
    "hidden": 0,
    "description": "Smash at least 2 robots with one dash while using the Big power up on multiplayer",
    "icon": "https://steamcdn-a.akamaihd.net/steamcommunity/public/images/apps/413500/d06ef114863ea9d68657090a009174e5f2de94e2.jpg",
    "icongray": "https://steamcdn-a.akamaihd.net/steamcommunity/public/images/apps/413500/6283c0d9d5dc56fa77b4595b4370b479fc0b59a6.jpg"
  },
  {
    "name": "AntRobot",
    "defaultvalue": 0,
    "displayName": "Ant Robot",
    "hidden": 0,
    "description": "Destroy 15 enemies while using the Shrink power up on multiplayer.",
    "icon": "https://steamcdn-a.akamaihd.net/steamcommunity/public/images/apps/413500/3310a8ad196c142aec7bf4387a6f97f23cade749.jpg",
    "icongray": "https://steamcdn-a.akamaihd.net/steamcommunity/public/images/apps/413500/6283c0d9d5dc56fa77b4595b4370b479fc0b59a6.jpg"
  },
  {
    "name": "RocketNorris",
    "defaultvalue": 0,
    "displayName": "Rocket Norris",
    "hidden": 0,
    "description": "Beat a non-tutorial sector without dying. (Normal difficulty or higher)",
    "icon": "https://steamcdn-a.akamaihd.net/steamcommunity/public/images/apps/413500/439b195f1c2f3c39bf87328dc48946db1600e710.jpg",
    "icongray": "https://steamcdn-a.akamaihd.net/steamcommunity/public/images/apps/413500/6283c0d9d5dc56fa77b4595b4370b479fc0b59a6.jpg"
  },
  {
    "name": "NotFair",
    "defaultvalue": 0,
    "displayName": "That`s not fair",
    "hidden": 0,
    "description": "In a Survival match, have the highest number of kills and still lose the match.",
    "icon": "https://steamcdn-a.akamaihd.net/steamcommunity/public/images/apps/413500/4b65563e7a4d21cb96e3e94c22d67367930707e2.jpg",
    "icongray": "https://steamcdn-a.akamaihd.net/steamcommunity/public/images/apps/413500/6283c0d9d5dc56fa77b4595b4370b479fc0b59a6.jpg"
  },
  {
    "name": "DoubleKills",
    "defaultvalue": 0,
    "displayName": "Two Robots, one fist",
    "hidden": 0,
    "description": "Have 30 Double Kills",
    "icon": "https://steamcdn-a.akamaihd.net/steamcommunity/public/images/apps/413500/bc0f6981696c91052f55c046901129f501771d28.jpg",
    "icongray": "https://steamcdn-a.akamaihd.net/steamcommunity/public/images/apps/413500/6283c0d9d5dc56fa77b4595b4370b479fc0b59a6.jpg"
  },
  {
    "name": "DroppedThat",
    "defaultvalue": 0,
    "displayName": "I think you've dropped that",
    "hidden": 0,
    "description": "Have 50 Stunsteals",
    "icon": "https://steamcdn-a.akamaihd.net/steamcommunity/public/images/apps/413500/8c5d25784de56c61749f82722010a464c6df5ee0.jpg",
    "icongray": "https://steamcdn-a.akamaihd.net/steamcommunity/public/images/apps/413500/6283c0d9d5dc56fa77b4595b4370b479fc0b59a6.jpg"
  },
  {
    "name": "StopThat",
    "defaultvalue": 0,
    "displayName": "Hey, stop that!",
    "hidden": 0,
    "description": "Stun the same enemy 10 times.",
    "icon": "https://steamcdn-a.akamaihd.net/steamcommunity/public/images/apps/413500/a6e142a603e15e9593d5231d16e70eecb8562a18.jpg",
    "icongray": "https://steamcdn-a.akamaihd.net/steamcommunity/public/images/apps/413500/6283c0d9d5dc56fa77b4595b4370b479fc0b59a6.jpg"
  },
  {
    "name": "Miscalculated",
    "defaultvalue": 0,
    "displayName": "Miscalculated distance",
    "hidden": 1,
    "icon": "https://steamcdn-a.akamaihd.net/steamcommunity/public/images/apps/413500/89563755daa81938a84bdfe032b97c1031fec6b3.jpg",
    "icongray": "https://steamcdn-a.akamaihd.net/steamcommunity/public/images/apps/413500/6283c0d9d5dc56fa77b4595b4370b479fc0b59a6.jpg"
  },
  {
    "name": "ZeroNotCool",
    "defaultvalue": 0,
    "displayName": "Zero is not Cool",
    "hidden": 1,
    "icon": "https://steamcdn-a.akamaihd.net/steamcommunity/public/images/apps/413500/aeaee76795c7de1762dbf0543dfda075aeda54ed.jpg",
    "icongray": "https://steamcdn-a.akamaihd.net/steamcommunity/public/images/apps/413500/6283c0d9d5dc56fa77b4595b4370b479fc0b59a6.jpg"
  },
  {
    "name": "GottaCatch",
    "defaultvalue": 0,
    "displayName": "Gotta catch them all",
    "hidden": 0,
    "description": "Catch 20 incoming fists.",
    "icon": "https://steamcdn-a.akamaihd.net/steamcommunity/public/images/apps/413500/6d40d59af7a5b4a0379797ec1584521552aaedb0.jpg",
    "icongray": "https://steamcdn-a.akamaihd.net/steamcommunity/public/images/apps/413500/6283c0d9d5dc56fa77b4595b4370b479fc0b59a6.jpg"
  },
  {
    "name": "Complete_0",
    "defaultvalue": 0,
    "displayName": "Tin Saint",
    "hidden": 0,
    "description": "Complete the Tutorial",
    "icon": "https://steamcdn-a.akamaihd.net/steamcommunity/public/images/apps/413500/82262d8490d87c016f984bb6265c5d9952fddd8f.jpg",
    "icongray": "https://steamcdn-a.akamaihd.net/steamcommunity/public/images/apps/413500/6283c0d9d5dc56fa77b4595b4370b479fc0b59a6.jpg"
  },
  {
    "name": "Complete_1",
    "defaultvalue": 0,
    "displayName": "This is just the beginning",
    "hidden": 0,
    "description": "Complete Sector 1",
    "icon": "https://steamcdn-a.akamaihd.net/steamcommunity/public/images/apps/413500/a45733390ccd6050c4d1abd613640a2c07442832.jpg",
    "icongray": "https://steamcdn-a.akamaihd.net/steamcommunity/public/images/apps/413500/6283c0d9d5dc56fa77b4595b4370b479fc0b59a6.jpg"
  },
  {
    "name": "Complete_2",
    "defaultvalue": 0,
    "displayName": "Pythagorized",
    "hidden": 0,
    "description": "Complete Sector 2",
    "icon": "https://steamcdn-a.akamaihd.net/steamcommunity/public/images/apps/413500/bde8521c03ed678f511a7eb3f3fbb4564e8de2dd.jpg",
    "icongray": "https://steamcdn-a.akamaihd.net/steamcommunity/public/images/apps/413500/6283c0d9d5dc56fa77b4595b4370b479fc0b59a6.jpg"
  },
  {
    "name": "Complete_3",
    "defaultvalue": 0,
    "displayName": "Why Spiders?",
    "hidden": 0,
    "description": "Complete Sector 3",
    "icon": "https://steamcdn-a.akamaihd.net/steamcommunity/public/images/apps/413500/532ad79d0570c9dd01da98c86943a472022ce9ca.jpg",
    "icongray": "https://steamcdn-a.akamaihd.net/steamcommunity/public/images/apps/413500/6283c0d9d5dc56fa77b4595b4370b479fc0b59a6.jpg"
  },
  {
    "name": "Complete_4",
    "defaultvalue": 0,
    "displayName": "Bomber Robot Down",
    "hidden": 0,
    "description": "Complete Sector 4",
    "icon": "https://steamcdn-a.akamaihd.net/steamcommunity/public/images/apps/413500/55eb3ed31ac8ffc2c550c8ffdb17ad8991218352.jpg",
    "icongray": "https://steamcdn-a.akamaihd.net/steamcommunity/public/images/apps/413500/6283c0d9d5dc56fa77b4595b4370b479fc0b59a6.jpg"
  },
  {
    "name": "Complete_5",
    "defaultvalue": 0,
    "displayName": "Uncovered Knuckle",
    "hidden": 0,
    "description": "Complete Sector 5",
    "icon": "https://steamcdn-a.akamaihd.net/steamcommunity/public/images/apps/413500/057b06b039ab75cff3bcf5877f48bc64e1fce4fb.jpg",
    "icongray": "https://steamcdn-a.akamaihd.net/steamcommunity/public/images/apps/413500/6283c0d9d5dc56fa77b4595b4370b479fc0b59a6.jpg"
  },
  {
    "name": "Close Calls",
    "defaultvalue": 0,
    "displayName": "Laughing in the face of danger",
    "hidden": 0,
    "description": "Have 10 Close calls, with only one life left.",
    "icon": "https://steamcdn-a.akamaihd.net/steamcommunity/public/images/apps/413500/93d2537cd8531129f25babcd0f906958a6556338.jpg",
    "icongray": "https://steamcdn-a.akamaihd.net/steamcommunity/public/images/apps/413500/6283c0d9d5dc56fa77b4595b4370b479fc0b59a6.jpg"
  },
  {
    "name": "Deathmatched",
    "defaultvalue": 0,
    "displayName": "Deathmatched",
    "hidden": 0,
    "description": "Play 50 Deathmatches",
    "icon": "https://steamcdn-a.akamaihd.net/steamcommunity/public/images/apps/413500/494434b2cb5e80994c10f788157ef57217d1ab11.jpg",
    "icongray": "https://steamcdn-a.akamaihd.net/steamcommunity/public/images/apps/413500/6283c0d9d5dc56fa77b4595b4370b479fc0b59a6.jpg"
  },
  {
    "name": "Survived",
    "defaultvalue": 0,
    "displayName": "Survived (or not)",
    "hidden": 0,
    "description": "Play 50 Survival matches",
    "icon": "https://steamcdn-a.akamaihd.net/steamcommunity/public/images/apps/413500/c99147f3538dbb760d1ddd56e7b2680c11447708.jpg",
    "icongray": "https://steamcdn-a.akamaihd.net/steamcommunity/public/images/apps/413500/6283c0d9d5dc56fa77b4595b4370b479fc0b59a6.jpg"
  },
  {
    "name": "WasntTrying",
    "defaultvalue": 0,
    "displayName": "I wasn't even trying",
    "hidden": 0,
    "description": "Have 25 Indirect Kills",
    "icon": "https://steamcdn-a.akamaihd.net/steamcommunity/public/images/apps/413500/b78eb1ecaf98f4011123f5a720c80f15e96d06b1.jpg",
    "icongray": "https://steamcdn-a.akamaihd.net/steamcommunity/public/images/apps/413500/6283c0d9d5dc56fa77b4595b4370b479fc0b59a6.jpg"
  },
  {
    "name": "Sight",
    "defaultvalue": 0,
    "displayName": "A sight beyond sight",
    "hidden": 0,
    "description": "Hit 3 Longshots in the same multiplayer match",
    "icon": "https://steamcdn-a.akamaihd.net/steamcommunity/public/images/apps/413500/7411df6f5364c8a788ad98aa1a6f6c1d3fb4fe4a.jpg",
    "icongray": "https://steamcdn-a.akamaihd.net/steamcommunity/public/images/apps/413500/6283c0d9d5dc56fa77b4595b4370b479fc0b59a6.jpg"
  },
  {
    "name": "Deadshot",
    "defaultvalue": 0,
    "displayName": "Deadshot",
    "hidden": 0,
    "description": "Get an after death kill.",
    "icon": "https://steamcdn-a.akamaihd.net/steamcommunity/public/images/apps/413500/c6602518a78ed5dddaa5e740632c7dd7fae69268.jpg",
    "icongray": "https://steamcdn-a.akamaihd.net/steamcommunity/public/images/apps/413500/6283c0d9d5dc56fa77b4595b4370b479fc0b59a6.jpg"
  }
]