﻿{
  "Dlcs": {},
  "Name": "Robot King Part I: Rebooted and Ready",
  "AppId": "660340",
  "ImageUrl": "https://steamcdn-a.akamaihd.net/steam/apps/660340/header.jpg?t=1547752069",
  "Languages": [
    "english"
  ],
  "Platforms": {
    "windows": true,
    "mac": false,
    "linux": false
  }
}