﻿{
  "Dlcs": {},
  "Name": "Mystica: The Ninth Society",
  "AppId": "448150",
  "ImageUrl": "https://steamcdn-a.akamaihd.net/steam/apps/448150/header.jpg?t=1580352098",
  "Languages": [
    "english"
  ],
  "Platforms": {
    "windows": true,
    "mac": false,
    "linux": false
  }
}