﻿{
  "Dlcs": {},
  "Name": "Elves Adventure",
  "AppId": "504980",
  "ImageUrl": "https://steamcdn-a.akamaihd.net/steam/apps/504980/header.jpg?t=1472674792",
  "Languages": [
    "english"
  ],
  "Platforms": {
    "windows": true,
    "mac": false,
    "linux": false
  }
}