﻿[
  {
    "name": "MAX_BATTLE_LEVEL",
    "defaultvalue": 0,
    "displayName": "Fight Along",
    "hidden": 0,
    "description": "Reach Level 90",
    "icon": "https://steamcdn-a.akamaihd.net/steamcommunity/public/images/apps/840260/a8432740f58dd928a6117fb834531aa7291ebbda.jpg",
    "icongray": "https://steamcdn-a.akamaihd.net/steamcommunity/public/images/apps/840260/0cc6ccc29fbdbe7691bc4bd21120469561c3a357.jpg"
  },
  {
    "name": "ENCOUNTER_SUCCESS",
    "defaultvalue": 0,
    "displayName": "Encounter",
    "hidden": 0,
    "description": "Win 10 Encounter battles",
    "icon": "https://steamcdn-a.akamaihd.net/steamcommunity/public/images/apps/840260/c7d4c9999bfb9236e12edcadf8a9fc8e549fd332.jpg",
    "icongray": "https://steamcdn-a.akamaihd.net/steamcommunity/public/images/apps/840260/5aaa722ebbb76cc9a0f3f862f3903ce727d4eeba.jpg"
  },
  {
    "name": "OWN_MERCENARY",
    "defaultvalue": 0,
    "displayName": "Like-minded",
    "hidden": 0,
    "description": "Recruit 10 Mercenaries",
    "icon": "https://steamcdn-a.akamaihd.net/steamcommunity/public/images/apps/840260/8ef2be285a7f1e6a8d95b2b00fa2724690659b24.jpg",
    "icongray": "https://steamcdn-a.akamaihd.net/steamcommunity/public/images/apps/840260/859d491d22ce59d6a98cb4d56103cb4d24a4aa08.jpg"
  },
  {
    "name": "MERCENARY_STAR_UP",
    "defaultvalue": 0,
    "displayName": "Mercenary Evolve",
    "hidden": 0,
    "description": "Evolve mercenaries for 3 times",
    "icon": "https://steamcdn-a.akamaihd.net/steamcommunity/public/images/apps/840260/09a59a611c4e0f84545b3a8528a4757a1564792c.jpg",
    "icongray": "https://steamcdn-a.akamaihd.net/steamcommunity/public/images/apps/840260/2ba9d9178840be5660635bb73e9c4f9b0106c1b1.jpg"
  },
  {
    "name": "HEAD_IN_ARENA_COUNT",
    "defaultvalue": 0,
    "displayName": "Unstoppable ",
    "hidden": 0,
    "description": "End with the top 20 ranking in a Sprint for 1 times",
    "icon": "https://steamcdn-a.akamaihd.net/steamcommunity/public/images/apps/840260/5c1992e427e0937b99d6c6f4eb185236b01f7ebd.jpg",
    "icongray": "https://steamcdn-a.akamaihd.net/steamcommunity/public/images/apps/840260/470795d6e2edaede9204b3623412dd448caf290f.jpg"
  },
  {
    "name": "TREASUREBOX_CHALLENGE",
    "defaultvalue": 0,
    "displayName": "Golden Treasures",
    "hidden": 0,
    "description": "Defeat 20 Mimics",
    "icon": "https://steamcdn-a.akamaihd.net/steamcommunity/public/images/apps/840260/c6bc5d3ad34267a60113b81e8c10a0a6443fced0.jpg",
    "icongray": "https://steamcdn-a.akamaihd.net/steamcommunity/public/images/apps/840260/d72c62eb0f26e741288f79dbe10cb916550e6b3f.jpg"
  },
  {
    "name": "DRINK_COUNT",
    "defaultvalue": 0,
    "displayName": "Lucky Day",
    "hidden": 0,
    "description": "Make 10 purchase in Taverna",
    "icon": "https://steamcdn-a.akamaihd.net/steamcommunity/public/images/apps/840260/028a93597e220c50b63a1ac684a07b495679a5bb.jpg",
    "icongray": "https://steamcdn-a.akamaihd.net/steamcommunity/public/images/apps/840260/eac5086438ade92984d38f20cf8d3ce30a5854fe.jpg"
  },
  {
    "name": "ARTIFACT_COUNT",
    "defaultvalue": 0,
    "displayName": "Ancient Artifact",
    "hidden": 0,
    "description": "Collect Artifact form - Gaea's Shield",
    "icon": "https://steamcdn-a.akamaihd.net/steamcommunity/public/images/apps/840260/830f919b6f2abc070e521270dfe2856d76954530.jpg",
    "icongray": "https://steamcdn-a.akamaihd.net/steamcommunity/public/images/apps/840260/2fb467e57748c6d42e90a7469d443d3893e0eb83.jpg"
  },
  {
    "name": "TIMEHOURGLASS_LEVEL",
    "defaultvalue": 0,
    "displayName": "Lunar Power",
    "hidden": 0,
    "description": "Upgrade Lunar Power to Lvl 10",
    "icon": "https://steamcdn-a.akamaihd.net/steamcommunity/public/images/apps/840260/77b704a70245e3aa4f340972dfeb914fa87439fd.jpg",
    "icongray": "https://steamcdn-a.akamaihd.net/steamcommunity/public/images/apps/840260/d34b3db4e943468be251b4df575a69cb57fdfef0.jpg"
  }
]