﻿{
  "Dlcs": {
    "303730": {
      "Name": "Eador. Masters of the Broken World - Allied Forces",
      "ImageUrl": "https://steamcdn-a.akamaihd.net/steam/apps/303730/header.jpg?t=1571149324"
    }
  },
  "Name": "Eador. Masters of the Broken World",
  "AppId": "232050",
  "ImageUrl": "https://steamcdn-a.akamaihd.net/steam/apps/232050/header.jpg?t=1571149287",
  "Languages": [
    "english",
    "russian",
    "german",
    "polish",
    "spanish",
    "italian",
    "french"
  ],
  "Platforms": {
    "windows": true,
    "mac": false,
    "linux": false
  }
}