﻿[
  {
    "name": "ACH_BADHOST_LOCAL",
    "defaultvalue": 0,
    "displayName": "Bad Host (Local)",
    "hidden": 0,
    "description": "Shoot the The Stranger 5x in Local Play",
    "icon": "https://steamcdn-a.akamaihd.net/steamcommunity/public/images/apps/472690/2cdfb5a387d771d76409445e6cba851211353294.jpg",
    "icongray": "https://steamcdn-a.akamaihd.net/steamcommunity/public/images/apps/472690/dea74e4eb31978c52b72f343b1ff8a77c4b27271.jpg"
  },
  {
    "name": "ACH_BADHOST_ONLINE",
    "defaultvalue": 0,
    "displayName": "Bad Host (Online)",
    "hidden": 0,
    "description": "Shoot the The Stranger 5x in Online Play",
    "icon": "https://steamcdn-a.akamaihd.net/steamcommunity/public/images/apps/472690/4c5d4e9b48985a5470472691126a16898ef8685c.jpg",
    "icongray": "https://steamcdn-a.akamaihd.net/steamcommunity/public/images/apps/472690/d3f42aa9363f91ef30d233671ca30c156ceb2d44.jpg"
  },
  {
    "name": "ACH_EASYWAY_LOCAL",
    "defaultvalue": 0,
    "displayName": "Easy Way (Local)",
    "hidden": 1,
    "icon": "https://steamcdn-a.akamaihd.net/steamcommunity/public/images/apps/472690/57dcaa3b44dfbe648426c646b7e995cf26669504.jpg",
    "icongray": "https://steamcdn-a.akamaihd.net/steamcommunity/public/images/apps/472690/67ef72077b13284c97db9de4b6e3ee933ed2ba75.jpg"
  },
  {
    "name": "ACH_EASYWAY_ONLINE",
    "defaultvalue": 0,
    "displayName": "Easy Way (Online)",
    "hidden": 1,
    "icon": "https://steamcdn-a.akamaihd.net/steamcommunity/public/images/apps/472690/3536f95dcb4f2fbb6f71211a5f06680d61972416.jpg",
    "icongray": "https://steamcdn-a.akamaihd.net/steamcommunity/public/images/apps/472690/67ef72077b13284c97db9de4b6e3ee933ed2ba75.jpg"
  },
  {
    "name": "ACH_FIRSTRODEO",
    "defaultvalue": 0,
    "displayName": "First Rodeo",
    "hidden": 1,
    "icon": "https://steamcdn-a.akamaihd.net/steamcommunity/public/images/apps/472690/e38616ba0508f33862128ac0fb05527653711ecd.jpg",
    "icongray": "https://steamcdn-a.akamaihd.net/steamcommunity/public/images/apps/472690/67ef72077b13284c97db9de4b6e3ee933ed2ba75.jpg"
  },
  {
    "name": "ACH_CHEESEMELT_LOCAL",
    "defaultvalue": 0,
    "displayName": "Cheese Melt (Local)",
    "hidden": 0,
    "description": "Melt Cheese Wedge with an Explosion in Local Play",
    "icon": "https://steamcdn-a.akamaihd.net/steamcommunity/public/images/apps/472690/f3eb7dea83d98bf77cd00712f201b1489a07af7e.jpg",
    "icongray": "https://steamcdn-a.akamaihd.net/steamcommunity/public/images/apps/472690/4a10873fff1c072d3b31e413f1b1d2f004f1bc68.jpg"
  },
  {
    "name": "ACH_CHEESEMELT_ONLINE",
    "defaultvalue": 0,
    "displayName": "Cheese Melt (Online)",
    "hidden": 0,
    "description": "Melt Cheese Wedge with an Explosion in Online Play",
    "icon": "https://steamcdn-a.akamaihd.net/steamcommunity/public/images/apps/472690/5e873346bddb2a36b9ef4a8fd6f8812b92f08d70.jpg",
    "icongray": "https://steamcdn-a.akamaihd.net/steamcommunity/public/images/apps/472690/9cf4f7cbeace9236c7a10223e2c23924e44670c2.jpg"
  },
  {
    "name": "ACH_CHEESEBOARD_LOCAL",
    "defaultvalue": 0,
    "displayName": "Cheese Board (Local)",
    "hidden": 0,
    "description": "Slice Cheese Wedge with an Axe or Knives in Local Play",
    "icon": "https://steamcdn-a.akamaihd.net/steamcommunity/public/images/apps/472690/a12a42bfedd307de919bb1dab9c126f2b13c3ad2.jpg",
    "icongray": "https://steamcdn-a.akamaihd.net/steamcommunity/public/images/apps/472690/7dd1945beba49686073863c11935632e9e8096d4.jpg"
  },
  {
    "name": "ACH_CHEESEBOARD_ONLINE",
    "defaultvalue": 0,
    "displayName": "Cheese Board (Online)",
    "hidden": 0,
    "description": "Slice Cheese Wedge with an Axe or Knives in Online Play",
    "icon": "https://steamcdn-a.akamaihd.net/steamcommunity/public/images/apps/472690/b0029b92918931e304375b2c337ac061030e9802.jpg",
    "icongray": "https://steamcdn-a.akamaihd.net/steamcommunity/public/images/apps/472690/2a5a6130a9b8673871e55b5515c9d3a8525ef05e.jpg"
  },
  {
    "name": "ACH_SHORTFLIGHT_LOCAL",
    "defaultvalue": 0,
    "displayName": "A Short Unhappy Flight (Local)",
    "hidden": 1,
    "icon": "https://steamcdn-a.akamaihd.net/steamcommunity/public/images/apps/472690/2c82d8372b205ccbf68cecbef50944c3bf7773a2.jpg",
    "icongray": "https://steamcdn-a.akamaihd.net/steamcommunity/public/images/apps/472690/67ef72077b13284c97db9de4b6e3ee933ed2ba75.jpg"
  },
  {
    "name": "ACH_SHORTFLIGHT_ONLINE",
    "defaultvalue": 0,
    "displayName": "A Short Unhappy Flight (Online)",
    "hidden": 1,
    "icon": "https://steamcdn-a.akamaihd.net/steamcommunity/public/images/apps/472690/46a5cab179efb293de37c44e58707dc4340cd86f.jpg",
    "icongray": "https://steamcdn-a.akamaihd.net/steamcommunity/public/images/apps/472690/67ef72077b13284c97db9de4b6e3ee933ed2ba75.jpg"
  },
  {
    "name": "ACH_NOSUFFER_LOCAL",
    "defaultvalue": 0,
    "displayName": "At Least You Didn’t Suffer (Local)",
    "hidden": 1,
    "icon": "https://steamcdn-a.akamaihd.net/steamcommunity/public/images/apps/472690/59728ea16f1aebf47e1d25683f2d308c0d3c9e09.jpg",
    "icongray": "https://steamcdn-a.akamaihd.net/steamcommunity/public/images/apps/472690/67ef72077b13284c97db9de4b6e3ee933ed2ba75.jpg"
  },
  {
    "name": "ACH_NOSUFFER_ONLINE",
    "defaultvalue": 0,
    "displayName": "At Least You Didn’t Suffer (Online)",
    "hidden": 1,
    "icon": "https://steamcdn-a.akamaihd.net/steamcommunity/public/images/apps/472690/36ff1625db5e26506234cde6a33facace4fe7d6d.jpg",
    "icongray": "https://steamcdn-a.akamaihd.net/steamcommunity/public/images/apps/472690/67ef72077b13284c97db9de4b6e3ee933ed2ba75.jpg"
  },
  {
    "name": "ACH_AOD_LOCAL",
    "defaultvalue": 0,
    "displayName": "Angel of Death (Local)",
    "hidden": 0,
    "description": "Win a Deathmatch in under 30 seconds in Local Play",
    "icon": "https://steamcdn-a.akamaihd.net/steamcommunity/public/images/apps/472690/b8c8a90b887fd366b9c65ca16f161e34b1a9fa3d.jpg",
    "icongray": "https://steamcdn-a.akamaihd.net/steamcommunity/public/images/apps/472690/bd0b6b9c7a73c9159d043decc94cf933e7e37249.jpg"
  },
  {
    "name": "ACH_MALLOWSURPRISE_LOCAL",
    "defaultvalue": 0,
    "displayName": "Sticky Marshmallow Surprise (Local)",
    "hidden": 0,
    "description": "Hit Meatslayer with a Stickybomb 5x in Local Play",
    "icon": "https://steamcdn-a.akamaihd.net/steamcommunity/public/images/apps/472690/9126e8a36b18342215fde7ee48546a169304339c.jpg",
    "icongray": "https://steamcdn-a.akamaihd.net/steamcommunity/public/images/apps/472690/8db4babc96ed8ac5374ed04f686d4d5ce9736c7d.jpg"
  },
  {
    "name": "ACH_MALLOWSURPRISE_ONLINE",
    "defaultvalue": 0,
    "displayName": "Sticky Marshmallow Surprise (Online)",
    "hidden": 0,
    "description": "Hit Meatslayer with a Stickybomb 5x in Online Play",
    "icon": "https://steamcdn-a.akamaihd.net/steamcommunity/public/images/apps/472690/0b5e28cded955183df46226467481cfd753f7f76.jpg",
    "icongray": "https://steamcdn-a.akamaihd.net/steamcommunity/public/images/apps/472690/6110ce23db8a37d38fd69492dc42a8a638fbee24.jpg"
  },
  {
    "name": "ACH_LASTCALL",
    "defaultvalue": 0,
    "displayName": "Last Call",
    "hidden": 0,
    "description": "Shoot another Player in the last 3 seconds",
    "icon": "https://steamcdn-a.akamaihd.net/steamcommunity/public/images/apps/472690/1c4d441fba869d0b22d6eab08ce729c4a6218f58.jpg",
    "icongray": "https://steamcdn-a.akamaihd.net/steamcommunity/public/images/apps/472690/66629616ec87c6d3ccb1527cbda2735d8361b497.jpg"
  },
  {
    "name": "ACH_SHOTSHERIFF",
    "defaultvalue": 0,
    "displayName": "I Shot the Sheriff",
    "hidden": 0,
    "description": "Shoot Sheriff Padre 20x",
    "icon": "https://steamcdn-a.akamaihd.net/steamcommunity/public/images/apps/472690/2cea7d50132e0aafb1b88f83096a346df82bd55f.jpg",
    "icongray": "https://steamcdn-a.akamaihd.net/steamcommunity/public/images/apps/472690/0dd8dbedd91839d47d288b818aca0b8793a34e2c.jpg"
  },
  {
    "name": "ACH_FISTFULDOLLARS",
    "defaultvalue": 0,
    "displayName": "A Fistful of Dollars",
    "hidden": 0,
    "description": "Earn over $20,000 in a single Round of Loot",
    "icon": "https://steamcdn-a.akamaihd.net/steamcommunity/public/images/apps/472690/6befc8aa92070dccd69ea82b141a5f69ad8bf468.jpg",
    "icongray": "https://steamcdn-a.akamaihd.net/steamcommunity/public/images/apps/472690/932d50cc0a1756cef337b7ac6e87f01b281755c9.jpg"
  },
  {
    "name": "ACH_MANAROUND",
    "defaultvalue": 0,
    "displayName": "The Man Comes Around",
    "hidden": 0,
    "description": "Hit another Player with the Boomerang 10x",
    "icon": "https://steamcdn-a.akamaihd.net/steamcommunity/public/images/apps/472690/124867e00ce4eb03e89f7dbec5a968edd13b2fd8.jpg",
    "icongray": "https://steamcdn-a.akamaihd.net/steamcommunity/public/images/apps/472690/b73b40dceb371dfedb725401e796283ad6b4507b.jpg"
  },
  {
    "name": "ACH_LASTREQUEST",
    "defaultvalue": 0,
    "displayName": "A Cowboy's Last Request",
    "hidden": 1,
    "icon": "https://steamcdn-a.akamaihd.net/steamcommunity/public/images/apps/472690/32a21e86751ea235e5da8938f8805403c21997a1.jpg",
    "icongray": "https://steamcdn-a.akamaihd.net/steamcommunity/public/images/apps/472690/67ef72077b13284c97db9de4b6e3ee933ed2ba75.jpg"
  },
  {
    "name": "ACH_RINGMYBELL",
    "defaultvalue": 0,
    "displayName": "Ring My Bells",
    "hidden": 1,
    "icon": "https://steamcdn-a.akamaihd.net/steamcommunity/public/images/apps/472690/6be6b9302d025d6cea7f9df2fba1ab5682fd892c.jpg",
    "icongray": "https://steamcdn-a.akamaihd.net/steamcommunity/public/images/apps/472690/67ef72077b13284c97db9de4b6e3ee933ed2ba75.jpg"
  },
  {
    "name": "ACH_TWOSISTERS",
    "defaultvalue": 0,
    "displayName": "A Tale of Two-ish Sisters",
    "hidden": 1,
    "icon": "https://steamcdn-a.akamaihd.net/steamcommunity/public/images/apps/472690/bce2fd282790a3444ba1093d0403e344e993c99d.jpg",
    "icongray": "https://steamcdn-a.akamaihd.net/steamcommunity/public/images/apps/472690/67ef72077b13284c97db9de4b6e3ee933ed2ba75.jpg"
  },
  {
    "name": "ACH_REAPER",
    "defaultvalue": 0,
    "displayName": "Fear the Reaper",
    "hidden": 1,
    "icon": "https://steamcdn-a.akamaihd.net/steamcommunity/public/images/apps/472690/622808d3b8805bce1115a5825278072e7e666df7.jpg",
    "icongray": "https://steamcdn-a.akamaihd.net/steamcommunity/public/images/apps/472690/67ef72077b13284c97db9de4b6e3ee933ed2ba75.jpg"
  },
  {
    "name": "ACH_CANNONBALL",
    "defaultvalue": 0,
    "displayName": "Cannonball Run",
    "hidden": 1,
    "icon": "https://steamcdn-a.akamaihd.net/steamcommunity/public/images/apps/472690/73deb35580fbadf7f954279d30dc7b2ab83c8349.jpg",
    "icongray": "https://steamcdn-a.akamaihd.net/steamcommunity/public/images/apps/472690/67ef72077b13284c97db9de4b6e3ee933ed2ba75.jpg"
  },
  {
    "name": "ACH_NOREAPER",
    "defaultvalue": 0,
    "displayName": "Don't Fear the Reaper",
    "hidden": 1,
    "icon": "https://steamcdn-a.akamaihd.net/steamcommunity/public/images/apps/472690/7280de3ef12e5ab21ff697dc206ead88c0e92156.jpg",
    "icongray": "https://steamcdn-a.akamaihd.net/steamcommunity/public/images/apps/472690/67ef72077b13284c97db9de4b6e3ee933ed2ba75.jpg"
  },
  {
    "name": "ACH_DEATHAFTERLIFE",
    "defaultvalue": 0,
    "displayName": "Death after Life",
    "hidden": 0,
    "description": "Coming Soon!",
    "icon": "https://steamcdn-a.akamaihd.net/steamcommunity/public/images/apps/472690/80a4e4fa272e6313bd0dfad74cf6bb6c8e80abb0.jpg",
    "icongray": "https://steamcdn-a.akamaihd.net/steamcommunity/public/images/apps/472690/170397f57abc53fcbb91028ef846b6cf7e5f7d45.jpg"
  },
  {
    "name": "ACH_BOOMSTICK",
    "defaultvalue": 0,
    "displayName": "Trusty Boomstick",
    "hidden": 1,
    "icon": "https://steamcdn-a.akamaihd.net/steamcommunity/public/images/apps/472690/3c6dad5d3ca77d4dc6e71ae7bacfc82dcd981f16.jpg",
    "icongray": "https://steamcdn-a.akamaihd.net/steamcommunity/public/images/apps/472690/67ef72077b13284c97db9de4b6e3ee933ed2ba75.jpg"
  },
  {
    "name": "ACH_HOTPOTATO",
    "defaultvalue": 0,
    "displayName": "Hot Potato",
    "hidden": 0,
    "description": "Coming Soon",
    "icon": "https://steamcdn-a.akamaihd.net/steamcommunity/public/images/apps/472690/b094460ed64d679febe23db03e4c38f315895689.jpg",
    "icongray": "https://steamcdn-a.akamaihd.net/steamcommunity/public/images/apps/472690/23ef2768bf1e65e8886d5119d3ebf22011a1fe54.jpg"
  },
  {
    "name": "ACH_TRICKSHOT",
    "defaultvalue": 0,
    "displayName": "Trick Shot",
    "hidden": 1,
    "icon": "https://steamcdn-a.akamaihd.net/steamcommunity/public/images/apps/472690/5856bd664ad86b1eda85d67b56962d2e0bff91ef.jpg",
    "icongray": "https://steamcdn-a.akamaihd.net/steamcommunity/public/images/apps/472690/67ef72077b13284c97db9de4b6e3ee933ed2ba75.jpg"
  },
  {
    "name": "ACH_SPACECOWBOY",
    "defaultvalue": 0,
    "displayName": "Space Cowboy",
    "hidden": 1,
    "icon": "https://steamcdn-a.akamaihd.net/steamcommunity/public/images/apps/472690/e2417ae2f647446a2b378aa49dc6075ec8e9c817.jpg",
    "icongray": "https://steamcdn-a.akamaihd.net/steamcommunity/public/images/apps/472690/f13bae3c817bdc1dd21d3957228fefd1e55b7317.jpg"
  },
  {
    "name": "ACH_EXPLOSIVO",
    "defaultvalue": 0,
    "displayName": "Explosivo",
    "hidden": 1,
    "icon": "https://steamcdn-a.akamaihd.net/steamcommunity/public/images/apps/472690/7bbb106ecd3f026dc1ff284da494310a2c913997.jpg",
    "icongray": "https://steamcdn-a.akamaihd.net/steamcommunity/public/images/apps/472690/f13bae3c817bdc1dd21d3957228fefd1e55b7317.jpg"
  },
  {
    "name": "ACH_JIMENEZ",
    "defaultvalue": 0,
    "displayName": "The Flying Jimenez",
    "hidden": 1,
    "icon": "https://steamcdn-a.akamaihd.net/steamcommunity/public/images/apps/472690/c40114f4f2e582df8f886319733a7b5d5d7d0d95.jpg",
    "icongray": "https://steamcdn-a.akamaihd.net/steamcommunity/public/images/apps/472690/f13bae3c817bdc1dd21d3957228fefd1e55b7317.jpg"
  },
  {
    "name": "ACH_MISTRESSREVENGE_LOCAL",
    "defaultvalue": 0,
    "displayName": "Sweet Mistress Revenge (Local)",
    "hidden": 0,
    "description": "Coming Soon!",
    "icon": "https://steamcdn-a.akamaihd.net/steamcommunity/public/images/apps/472690/4f2fe103435a9764926d8d0446990c48c07ca748.jpg",
    "icongray": "https://steamcdn-a.akamaihd.net/steamcommunity/public/images/apps/472690/ada8e7667e4329949c6e6db1802804da028719e9.jpg"
  },
  {
    "name": "ACH_MISTRESSREVENGE_ONLINE",
    "defaultvalue": 0,
    "displayName": "Sweet Mistress Revenge (Online)",
    "hidden": 0,
    "description": "Coming Soon!",
    "icon": "https://steamcdn-a.akamaihd.net/steamcommunity/public/images/apps/472690/a3522006cf7db907bfe2ce835bbf08c4b5490093.jpg",
    "icongray": "https://steamcdn-a.akamaihd.net/steamcommunity/public/images/apps/472690/ada8e7667e4329949c6e6db1802804da028719e9.jpg"
  },
  {
    "name": "ACH_HUCKLEBERRY",
    "defaultvalue": 0,
    "displayName": "I'm Your Huckleberry",
    "hidden": 1,
    "icon": "https://steamcdn-a.akamaihd.net/steamcommunity/public/images/apps/472690/6248a255ff022ba2a07861bb18fdc7e6c5cd989b.jpg",
    "icongray": "https://steamcdn-a.akamaihd.net/steamcommunity/public/images/apps/472690/67ef72077b13284c97db9de4b6e3ee933ed2ba75.jpg"
  },
  {
    "name": "ACH_EXPLOSIVOMAX",
    "defaultvalue": 0,
    "displayName": "Explosivo Maximo",
    "hidden": 1,
    "icon": "https://steamcdn-a.akamaihd.net/steamcommunity/public/images/apps/472690/3625a2b44dd10b4cc24ac9832fcc9d15f396ca10.jpg",
    "icongray": "https://steamcdn-a.akamaihd.net/steamcommunity/public/images/apps/472690/67ef72077b13284c97db9de4b6e3ee933ed2ba75.jpg"
  },
  {
    "name": "ACH_LAWWON_LOCAL",
    "defaultvalue": 0,
    "displayName": "The Law Won (Local)",
    "hidden": 0,
    "description": "Coming Soon!",
    "icon": "https://steamcdn-a.akamaihd.net/steamcommunity/public/images/apps/472690/ed03ecf737eb8540ce40b728e83d65dbd4a64251.jpg",
    "icongray": "https://steamcdn-a.akamaihd.net/steamcommunity/public/images/apps/472690/2147bb7044390f4a9239dd0972a25ebc6a7ff2d8.jpg"
  },
  {
    "name": "ACH_LAWWON_ONLINE",
    "defaultvalue": 0,
    "displayName": "The Law Won (Online)",
    "hidden": 0,
    "description": "Coming Soon!",
    "icon": "https://steamcdn-a.akamaihd.net/steamcommunity/public/images/apps/472690/94bbbb8cd975d3d749b6b111bc88a82fd0265630.jpg",
    "icongray": "https://steamcdn-a.akamaihd.net/steamcommunity/public/images/apps/472690/2147bb7044390f4a9239dd0972a25ebc6a7ff2d8.jpg"
  },
  {
    "name": "ACH_EXPLOSIVOMAXULTRA",
    "defaultvalue": 0,
    "displayName": "Explosivo Maximo Ultra",
    "hidden": 1,
    "icon": "https://steamcdn-a.akamaihd.net/steamcommunity/public/images/apps/472690/f993ce5bd59dae2cc953fc88b6017154ca54d54b.jpg",
    "icongray": "https://steamcdn-a.akamaihd.net/steamcommunity/public/images/apps/472690/67ef72077b13284c97db9de4b6e3ee933ed2ba75.jpg"
  },
  {
    "name": "ACH_100BULLETS",
    "defaultvalue": 0,
    "displayName": "100 Bullets",
    "hidden": 1,
    "icon": "https://steamcdn-a.akamaihd.net/steamcommunity/public/images/apps/472690/ca57d67401bbca6689a0932455de037c965c1da8.jpg",
    "icongray": "https://steamcdn-a.akamaihd.net/steamcommunity/public/images/apps/472690/67ef72077b13284c97db9de4b6e3ee933ed2ba75.jpg"
  },
  {
    "name": "ACH_500BULLETS",
    "defaultvalue": 0,
    "displayName": "500 Bullets",
    "hidden": 1,
    "icon": "https://steamcdn-a.akamaihd.net/steamcommunity/public/images/apps/472690/367f7becafec9865bb9152cb8ea4c116863e52ab.jpg",
    "icongray": "https://steamcdn-a.akamaihd.net/steamcommunity/public/images/apps/472690/67ef72077b13284c97db9de4b6e3ee933ed2ba75.jpg"
  }
]