﻿[
  {
    "name": "CompletedAreaOneSPStat",
    "defaultvalue": 0,
    "displayName": "Area One Completed Stat (SP)"
  },
  {
    "name": "TimePlayedStat",
    "defaultvalue": 0,
    "displayName": "Time Played"
  },
  {
    "name": "CompletedAreaOneMPStat",
    "defaultvalue": 0,
    "displayName": "Area One Completed Stat (MP)"
  },
  {
    "name": "CompletedAreaOneStat",
    "defaultvalue": 0,
    "displayName": "For Backward Compatibility - Don't Use"
  }
]