﻿[
  {
    "name": "Level_Targets1",
    "defaultvalue": 0,
    "displayName": "Level Plays - Targets 1"
  },
  {
    "name": "Level_WTell",
    "defaultvalue": 0,
    "displayName": "Level Plays - WTell"
  },
  {
    "name": "Level_Berserker",
    "defaultvalue": 0,
    "displayName": "Level Plays - Berserker"
  },
  {
    "name": "Level_Warband",
    "defaultvalue": 0,
    "displayName": "Level Plays - Warband"
  },
  {
    "name": "Level_Hangman",
    "defaultvalue": 0,
    "displayName": "Level Plays - Hangman"
  },
  {
    "name": "Level_Space",
    "defaultvalue": 0,
    "displayName": "Level Plays - Space"
  },
  {
    "name": "MPMatch_Deathmatch",
    "defaultvalue": 0,
    "displayName": "MP Matches - Deathmatch"
  },
  {
    "name": "MPMatch_Horde",
    "defaultvalue": 0,
    "displayName": "MP Matches - Horde"
  },
  {
    "name": "MPMatch_Zoccer",
    "defaultvalue": 0,
    "displayName": "MP Matches - Zoccer"
  },
  {
    "name": "MPWon_Deathmatch",
    "defaultvalue": 0,
    "displayName": "MP Wins - Deathmatch"
  },
  {
    "name": "MPWon_Horde",
    "defaultvalue": 0,
    "displayName": "MP Wins - Horde"
  },
  {
    "name": "MPWon_Zoccer",
    "defaultvalue": 0,
    "displayName": "MP Wins - Zoccer"
  },
  {
    "name": "MPLost_Deathmatch",
    "defaultvalue": 0,
    "displayName": "MP Loses - Deathmatch"
  },
  {
    "name": "MPLost_Horde",
    "defaultvalue": 0,
    "displayName": "MP Loses - Horde"
  },
  {
    "name": "MPLost_Zoccer",
    "defaultvalue": 0,
    "displayName": "MP Loses - Zoccer"
  },
  {
    "name": "Level_Targets2",
    "defaultvalue": 0,
    "displayName": "Level Plays - Targets 2"
  },
  {
    "name": "LevelWon_Targets1",
    "defaultvalue": 0,
    "displayName": "Level Wins - Targets 1"
  },
  {
    "name": "LevelWon_Targets2",
    "defaultvalue": 0,
    "displayName": "Level Wins - Targets 2"
  },
  {
    "name": "LevelWon_WTell",
    "defaultvalue": 0,
    "displayName": "Level Wins - WTell"
  },
  {
    "name": "LevelWon_Berserker",
    "defaultvalue": 0,
    "displayName": "Level Wins - Berserker"
  },
  {
    "name": "LevelWon_Warband",
    "defaultvalue": 0,
    "displayName": "Level Wins - Warband"
  },
  {
    "name": "LevelWon_Hangman",
    "defaultvalue": 0,
    "displayName": "Level Wins - Hangman"
  },
  {
    "name": "LevelWon_Space",
    "defaultvalue": 0,
    "displayName": ""
  },
  {
    "name": "Level_BreakStuff",
    "defaultvalue": 0,
    "displayName": ""
  },
  {
    "name": "LevelWon_BreakStuff",
    "defaultvalue": 0,
    "displayName": ""
  },
  {
    "name": "LevelLost_WTell",
    "defaultvalue": 0,
    "displayName": ""
  },
  {
    "name": "LevelLost_Berserker",
    "defaultvalue": 0,
    "displayName": ""
  },
  {
    "name": "LevelLost_Warband",
    "defaultvalue": 0,
    "displayName": ""
  },
  {
    "name": "LevelLost_Hangman",
    "defaultvalue": 0,
    "displayName": ""
  },
  {
    "name": "LevelLost_Space",
    "defaultvalue": 0,
    "displayName": ""
  },
  {
    "name": "LevelLost_BreakStuff",
    "defaultvalue": 0,
    "displayName": ""
  },
  {
    "name": "TargetHit_0",
    "defaultvalue": 0,
    "displayName": ""
  },
  {
    "name": "TargetHit_1",
    "defaultvalue": 0,
    "displayName": ""
  },
  {
    "name": "TargetHit_2",
    "defaultvalue": 0,
    "displayName": ""
  },
  {
    "name": "TargetHit_3",
    "defaultvalue": 0,
    "displayName": ""
  },
  {
    "name": "TargetHit_4",
    "defaultvalue": 0,
    "displayName": ""
  },
  {
    "name": "Start_PC",
    "defaultvalue": 0,
    "displayName": ""
  },
  {
    "name": "Start_Linux",
    "defaultvalue": 0,
    "displayName": ""
  },
  {
    "name": "Start_OSX",
    "defaultvalue": 0,
    "displayName": ""
  },
  {
    "name": "Device_Rift",
    "defaultvalue": 0,
    "displayName": ""
  },
  {
    "name": "Device_Hydra",
    "defaultvalue": 0,
    "displayName": ""
  },
  {
    "name": "GP_SP_Kills_AH",
    "defaultvalue": 0,
    "displayName": ""
  },
  {
    "name": "GP_SP_Kills_E",
    "defaultvalue": 0,
    "displayName": ""
  },
  {
    "name": "GP_SP_Kills_P",
    "defaultvalue": 0,
    "displayName": ""
  },
  {
    "name": "GP_SP_Break_Plate",
    "defaultvalue": 0,
    "displayName": ""
  },
  {
    "name": "GP_SP_Break_Bowl",
    "defaultvalue": 0,
    "displayName": ""
  },
  {
    "name": "GP_SP_Break_Mug",
    "defaultvalue": 0,
    "displayName": ""
  },
  {
    "name": "GP_SP_Break_Glass",
    "defaultvalue": 0,
    "displayName": ""
  },
  {
    "name": "GP_SP_Break_Kettle",
    "defaultvalue": 0,
    "displayName": ""
  },
  {
    "name": "GP_SP_Break_Bottle",
    "defaultvalue": 0,
    "displayName": ""
  },
  {
    "name": "GP_SP_DamageCost",
    "defaultvalue": 0,
    "displayName": ""
  },
  {
    "name": "GP_MP_Kills_Zoccer_Bat",
    "defaultvalue": 0,
    "displayName": ""
  },
  {
    "name": "GP_MP_Kills_Zoccer_Gun",
    "defaultvalue": 0,
    "displayName": ""
  },
  {
    "name": "GP_MP_Kills_AH",
    "defaultvalue": 0,
    "displayName": ""
  },
  {
    "name": "GP_MP_Kills_E",
    "defaultvalue": 0,
    "displayName": ""
  },
  {
    "name": "GP_MP_Kills_P",
    "defaultvalue": 0,
    "displayName": ""
  },
  {
    "name": "GP_MP_Kills",
    "defaultvalue": 0,
    "displayName": "Other players killed in multiplayer"
  },
  {
    "name": "GP_MP_Deaths",
    "defaultvalue": 0,
    "displayName": ""
  },
  {
    "name": "GP_NumArrows",
    "defaultvalue": 0,
    "displayName": "Number of arrows fired"
  },
  {
    "name": "GP_Total_ArrowDistance",
    "defaultvalue": 0,
    "displayName": "Cumulative arrow distance"
  },
  {
    "name": "GP_NumHeatseekers",
    "defaultvalue": 0,
    "displayName": ""
  },
  {
    "name": "GP_NumExplodingArrows",
    "defaultvalue": 0,
    "displayName": ""
  },
  {
    "name": "GP_Zoccer_GoalsScored",
    "defaultvalue": 0,
    "displayName": "Goals scored in Zoccer"
  },
  {
    "name": "GP_Zoccer_MetresRan",
    "defaultvalue": 0,
    "displayName": ""
  },
  {
    "name": "GP_Zoccer_ZombiesKilled",
    "defaultvalue": 0,
    "displayName": "Zombies killed in Zoccer"
  },
  {
    "name": "GP_Zoccer_ZombieDeaths",
    "defaultvalue": 0,
    "displayName": ""
  },
  {
    "name": "GP_Zoccer_BallMetres",
    "defaultvalue": 0,
    "displayName": ""
  },
  {
    "name": "GP_Zoccer_Kills_Total",
    "defaultvalue": 0,
    "displayName": "Total player kills in Zoccer"
  },
  {
    "name": "Device_Gamepad",
    "defaultvalue": 0,
    "displayName": ""
  },
  {
    "name": "GP_MP_Kills_AHS",
    "defaultvalue": 0,
    "displayName": ""
  },
  {
    "name": "GP_SP_Kills_AHS",
    "defaultvalue": 0,
    "displayName": ""
  },
  {
    "name": "GP_Zoccer_ZombiesBatted",
    "defaultvalue": 0,
    "displayName": ""
  },
  {
    "name": "GP_Zoccer_ZombiesShot",
    "defaultvalue": 0,
    "displayName": ""
  },
  {
    "name": "GP_SP_Kills_BAH",
    "defaultvalue": 0,
    "displayName": ""
  },
  {
    "name": "GP_SP_Kills_BAHS",
    "defaultvalue": 0,
    "displayName": ""
  },
  {
    "name": "GP_MP_Kills_BAH",
    "defaultvalue": 0,
    "displayName": ""
  },
  {
    "name": "GP_MP_Kills_BAHS",
    "defaultvalue": 0,
    "displayName": ""
  }
]