﻿{
  "Dlcs": {},
  "Name": "Kitten Squad",
  "AppId": "547820",
  "ImageUrl": "https://steamcdn-a.akamaihd.net/steam/apps/547820/header.jpg?t=1483600798",
  "Languages": [
    "english",
    "german"
  ],
  "Platforms": {
    "windows": true,
    "mac": false,
    "linux": false
  }
}