﻿[
  {
    "name": "11",
    "defaultvalue": 0,
    "displayName": "1st place \"Easy Level\"",
    "hidden": 0,
    "description": "Get 100000 score on Easy Level",
    "icon": "https://steamcdn-a.akamaihd.net/steamcommunity/public/images/apps/710550/ff19e03ebe2de35f68d01b9a74e79b476c5146df.jpg",
    "icongray": "https://steamcdn-a.akamaihd.net/steamcommunity/public/images/apps/710550/3b2cdcc1dddce3eb8dce24c65566a358cadb1c8c.jpg"
  },
  {
    "name": "1-2",
    "defaultvalue": 0,
    "displayName": "2nd place \"Easy Level\"",
    "hidden": 0,
    "description": "Get 10000 score on Easy Level",
    "icon": "https://steamcdn-a.akamaihd.net/steamcommunity/public/images/apps/710550/4a5e2b98ae589d51efcf726a0a37e88934895f60.jpg",
    "icongray": "https://steamcdn-a.akamaihd.net/steamcommunity/public/images/apps/710550/28a36d98848fdf22e2b8b856e88f975010e7cd79.jpg"
  },
  {
    "name": "1-3",
    "defaultvalue": 0,
    "displayName": "3rd place \"Easy Level\"",
    "hidden": 0,
    "description": "Get 1000 score on Easy Level",
    "icon": "https://steamcdn-a.akamaihd.net/steamcommunity/public/images/apps/710550/fcb6b07dd56e8b0f7a9032251b1e9afa4d2b0e79.jpg",
    "icongray": "https://steamcdn-a.akamaihd.net/steamcommunity/public/images/apps/710550/739c9268c153571956836a901ea34bbe7b022af0.jpg"
  },
  {
    "name": "2-1",
    "defaultvalue": 0,
    "displayName": "1st place \"Medium Level\"",
    "hidden": 0,
    "description": "Get 100000 score on Medium Level",
    "icon": "https://steamcdn-a.akamaihd.net/steamcommunity/public/images/apps/710550/346ef8ae746c61f3494cea26faba83d20fd2c45b.jpg",
    "icongray": "https://steamcdn-a.akamaihd.net/steamcommunity/public/images/apps/710550/3b2cdcc1dddce3eb8dce24c65566a358cadb1c8c.jpg"
  },
  {
    "name": "2-2",
    "defaultvalue": 0,
    "displayName": "2nd place \"Medium Level\"",
    "hidden": 0,
    "description": "Get 10000 score on Medium Level",
    "icon": "https://steamcdn-a.akamaihd.net/steamcommunity/public/images/apps/710550/da8c58f9cdde4f3cd6744667a8640250c5bdaf1c.jpg",
    "icongray": "https://steamcdn-a.akamaihd.net/steamcommunity/public/images/apps/710550/28a36d98848fdf22e2b8b856e88f975010e7cd79.jpg"
  },
  {
    "name": "2-3",
    "defaultvalue": 0,
    "displayName": "3rd place \"Medium Level\"",
    "hidden": 0,
    "description": "Get 1000 score on Medium Level",
    "icon": "https://steamcdn-a.akamaihd.net/steamcommunity/public/images/apps/710550/82fd89db69ee6bb460ebcd04ceeb28d19c2d6845.jpg",
    "icongray": "https://steamcdn-a.akamaihd.net/steamcommunity/public/images/apps/710550/739c9268c153571956836a901ea34bbe7b022af0.jpg"
  },
  {
    "name": "3-1",
    "defaultvalue": 0,
    "displayName": "1st place \"Hard Level\"",
    "hidden": 0,
    "description": "Get 100000 score on Hard Level",
    "icon": "https://steamcdn-a.akamaihd.net/steamcommunity/public/images/apps/710550/76fb6aa56c2490d4b58ba36627bb3b0b16566f88.jpg",
    "icongray": "https://steamcdn-a.akamaihd.net/steamcommunity/public/images/apps/710550/3b2cdcc1dddce3eb8dce24c65566a358cadb1c8c.jpg"
  },
  {
    "name": "3-2",
    "defaultvalue": 0,
    "displayName": "2nd place \"Hard  Level\"",
    "hidden": 0,
    "description": "Get 10000 score on Hard Level",
    "icon": "https://steamcdn-a.akamaihd.net/steamcommunity/public/images/apps/710550/95f029e04aab90302d5af8dcb7cd827f2f0f11bf.jpg",
    "icongray": "https://steamcdn-a.akamaihd.net/steamcommunity/public/images/apps/710550/28a36d98848fdf22e2b8b856e88f975010e7cd79.jpg"
  },
  {
    "name": "3-3",
    "defaultvalue": 0,
    "displayName": "3rd place \"Hard Level\"",
    "hidden": 0,
    "description": "Get 1000 score on Hard Level",
    "icon": "https://steamcdn-a.akamaihd.net/steamcommunity/public/images/apps/710550/fb258ce7fa8e527535a6623e9f7766cef97e0c07.jpg",
    "icongray": "https://steamcdn-a.akamaihd.net/steamcommunity/public/images/apps/710550/0c6f68f8dd6e433a5e66a169b8f417b017440e8d.jpg"
  }
]