﻿{
  "Dlcs": {},
  "Name": "Worms Clan Wars",
  "AppId": "233840",
  "ImageUrl": "https://steamcdn-a.akamaihd.net/steam/apps/233840/header.jpg?t=1596810211",
  "Languages": [
    "english",
    "french",
    "italian",
    "german",
    "spanish",
    "czech",
    "polish"
  ],
  "Platforms": {
    "windows": true,
    "mac": true,
    "linux": true
  }
}