﻿{
  "Dlcs": {},
  "Name": "Palace of Cards",
  "AppId": "347950",
  "ImageUrl": "https://steamcdn-a.akamaihd.net/steam/apps/347950/header.jpg?t=1546969988",
  "Languages": [
    "english",
    "german"
  ],
  "Platforms": {
    "windows": true,
    "mac": true,
    "linux": false
  }
}