﻿{
  "Dlcs": {},
  "Name": "The Bears And The Bees",
  "AppId": "709080",
  "ImageUrl": "https://steamcdn-a.akamaihd.net/steam/apps/709080/header.jpg?t=1516698985",
  "Languages": [
    "english"
  ],
  "Platforms": {
    "windows": true,
    "mac": false,
    "linux": false
  }
}