﻿{
  "Dlcs": {},
  "Name": "Nemesis Perspective",
  "AppId": "537140",
  "ImageUrl": "https://steamcdn-a.akamaihd.net/steam/apps/537140/header.jpg?t=1515609688",
  "Languages": [
    "english"
  ],
  "Platforms": {
    "windows": true,
    "mac": false,
    "linux": false
  }
}