﻿{
  "Dlcs": {},
  "Name": "Micron",
  "AppId": "290380",
  "ImageUrl": "https://steamcdn-a.akamaihd.net/steam/apps/290380/header.jpg?t=1567981723",
  "Languages": [
    "english"
  ],
  "Platforms": {
    "windows": true,
    "mac": true,
    "linux": true
  }
}