﻿{
  "Dlcs": {},
  "Name": "GAIN",
  "AppId": "458450",
  "ImageUrl": "https://steamcdn-a.akamaihd.net/steam/apps/458450/header.jpg?t=1465896844",
  "Languages": [
    "english"
  ],
  "Platforms": {
    "windows": true,
    "mac": false,
    "linux": false
  }
}