﻿[
  {
    "name": "a_1",
    "defaultvalue": 0,
    "displayName": "Beginning",
    "hidden": 0,
    "description": "Clear the first 3 levels.",
    "icon": "https://steamcdn-a.akamaihd.net/steamcommunity/public/images/apps/212030/059b86ef48d2a528d6401f76ff799895eaf12e48.jpg",
    "icongray": "https://steamcdn-a.akamaihd.net/steamcommunity/public/images/apps/212030/9586c4ad1c63af86ace39b9ba00c61107ab6fd4b.jpg"
  },
  {
    "name": "a_2",
    "defaultvalue": 0,
    "displayName": "Duo",
    "hidden": 0,
    "description": "Clear 1 level in Co-op Campaign.",
    "icon": "https://steamcdn-a.akamaihd.net/steamcommunity/public/images/apps/212030/3a791819d8f3ea821c47f71b3da66c406f3eb289.jpg",
    "icongray": "https://steamcdn-a.akamaihd.net/steamcommunity/public/images/apps/212030/47d29a8892cf547e7a1feec2b6397e066685d9fe.jpg"
  },
  {
    "name": "a_3",
    "defaultvalue": 0,
    "displayName": "New Journey",
    "hidden": 0,
    "description": "Clear all Campaign levels.",
    "icon": "https://steamcdn-a.akamaihd.net/steamcommunity/public/images/apps/212030/032f14d97c8915ad1f5296172934dd4ffb4af37b.jpg",
    "icongray": "https://steamcdn-a.akamaihd.net/steamcommunity/public/images/apps/212030/05056b4f33518347ddb595ac13f91bea2b77be2e.jpg"
  },
  {
    "name": "a_4",
    "defaultvalue": 0,
    "displayName": "Enhancement",
    "hidden": 0,
    "description": "Equip an item in the Item Store",
    "icon": "https://steamcdn-a.akamaihd.net/steamcommunity/public/images/apps/212030/fa1c86841adfd7f0c9cd89fdbd3ce4a46c0f7905.jpg",
    "icongray": "https://steamcdn-a.akamaihd.net/steamcommunity/public/images/apps/212030/6adc6094c39a6da209a13a29b5aff564bb3ecd66.jpg"
  },
  {
    "name": "a_5",
    "defaultvalue": 0,
    "displayName": "Shopper",
    "hidden": 0,
    "description": "Spend a total of 20,000 Gold on items and moves.",
    "icon": "https://steamcdn-a.akamaihd.net/steamcommunity/public/images/apps/212030/7b0e893d585e5dfdc78aec00a4180ca5e38e29e2.jpg",
    "icongray": "https://steamcdn-a.akamaihd.net/steamcommunity/public/images/apps/212030/822357a146c28032964ed4fe4070ddb4cd601081.jpg"
  },
  {
    "name": "a_6",
    "defaultvalue": 0,
    "displayName": "Breaker",
    "hidden": 0,
    "description": "Perform 50 “Critical Hits” in any mode.",
    "icon": "https://steamcdn-a.akamaihd.net/steamcommunity/public/images/apps/212030/1b33bf7ffdc20a7bfffe2d7587c46c3ac0fd1c99.jpg",
    "icongray": "https://steamcdn-a.akamaihd.net/steamcommunity/public/images/apps/212030/936d8b9156982501f76379900d1eb1c8bf867f95.jpg"
  },
  {
    "name": "a_7",
    "defaultvalue": 0,
    "displayName": "Skill Exchanging",
    "hidden": 0,
    "description": "Play V.S. mode once.",
    "icon": "https://steamcdn-a.akamaihd.net/steamcommunity/public/images/apps/212030/18e63659509affe97c219cf73fac5c852047e518.jpg",
    "icongray": "https://steamcdn-a.akamaihd.net/steamcommunity/public/images/apps/212030/6ed4c41528a9302b912d51593c5e787c069c7d71.jpg"
  },
  {
    "name": "a_8",
    "defaultvalue": 0,
    "displayName": "Ranker",
    "hidden": 0,
    "description": "Get 3 “S” Ranks.",
    "icon": "https://steamcdn-a.akamaihd.net/steamcommunity/public/images/apps/212030/3b5e701d59da2f042716b4e6672d480763f582d1.jpg",
    "icongray": "https://steamcdn-a.akamaihd.net/steamcommunity/public/images/apps/212030/86de87302891c65e731f5945e8e5d4f2dc31bf3a.jpg"
  },
  {
    "name": "a_9",
    "defaultvalue": 0,
    "displayName": "Challenge",
    "hidden": 0,
    "description": "Clear 8 levels in Co-op Campaign.",
    "icon": "https://steamcdn-a.akamaihd.net/steamcommunity/public/images/apps/212030/0e68e6e2c7ff1139433dffea2718deb2a355ebd8.jpg",
    "icongray": "https://steamcdn-a.akamaihd.net/steamcommunity/public/images/apps/212030/d90c7e4acae7e4d0e848dde8d9175c71cc5b9437.jpg"
  },
  {
    "name": "a_10",
    "defaultvalue": 0,
    "displayName": "Air-dancer",
    "hidden": 0,
    "description": "Use a Chi Move in mid-air.",
    "icon": "https://steamcdn-a.akamaihd.net/steamcommunity/public/images/apps/212030/313eedf98e086727fd68d2e7355d5cb6bc65eeff.jpg",
    "icongray": "https://steamcdn-a.akamaihd.net/steamcommunity/public/images/apps/212030/0c124a3412bdc9c608cc51661536c399d780ff0c.jpg"
  },
  {
    "name": "a_11",
    "defaultvalue": 0,
    "displayName": "Ally",
    "hidden": 0,
    "description": "Summon Giant Guard once (you must first unlock Giant Guard in My Army).",
    "icon": "https://steamcdn-a.akamaihd.net/steamcommunity/public/images/apps/212030/b67d7912a27c52ac7480d03ae50438eb764f5a6f.jpg",
    "icongray": "https://steamcdn-a.akamaihd.net/steamcommunity/public/images/apps/212030/f7684012fcb9c4c1fc935a1956ab7ec506b14fa5.jpg"
  },
  {
    "name": "a_12",
    "defaultvalue": 0,
    "displayName": "Nirvana",
    "hidden": 0,
    "description": "Get 20 “S” ranks",
    "icon": "https://steamcdn-a.akamaihd.net/steamcommunity/public/images/apps/212030/52b897422dcee6fb57f9727e7351108e977c1cac.jpg",
    "icongray": "https://steamcdn-a.akamaihd.net/steamcommunity/public/images/apps/212030/8d9bdfbe72e6cd4dfffa734138c9ffee95c813ef.jpg"
  }
]