﻿{
  "Dlcs": {},
  "Name": "Hacker News Reader",
  "AppId": "834410",
  "ImageUrl": "https://steamcdn-a.akamaihd.net/steam/apps/834410/header.jpg?t=1527176848",
  "Languages": [
    "english"
  ],
  "Platforms": {
    "windows": true,
    "mac": false,
    "linux": false
  }
}