﻿{
  "Dlcs": {
    "460420": {
      "Name": "Star Ruler 2 - Wake of the Heralds",
      "ImageUrl": "https://steamcdn-a.akamaihd.net/steam/apps/460420/header.jpg?t=1461514653"
    }
  },
  "Name": "Star Ruler 2",
  "AppId": "282590",
  "ImageUrl": "https://steamcdn-a.akamaihd.net/steam/apps/282590/header.jpg?t=1462039153",
  "Languages": [
    "english"
  ],
  "Platforms": {
    "windows": true,
    "mac": false,
    "linux": true
  }
}