﻿{
  "Dlcs": {
    "340661": {
      "Name": "Initiation Soundtrack",
      "ImageUrl": "https://steamcdn-a.akamaihd.net/steam/apps/340661/header.jpg?t=1447366620"
    }
  },
  "Name": "Data Hacker: Initiation",
  "AppId": "311860",
  "ImageUrl": "https://steamcdn-a.akamaihd.net/steam/apps/311860/header.jpg?t=1512241614",
  "Languages": [
    "english"
  ],
  "Platforms": {
    "windows": true,
    "mac": false,
    "linux": false
  }
}