{
  "Releases": [
    "Windows"
  ],
  "Name": "3 out of 10, EP 1: \"Welcome To Shovelworks\"",
  "AppId": "Flounder",
  "Namespace": "d9090f3f39f64d5bb827c6e44b95cff0",
  "ItemId": "8b349f0ac14b4adcada58adea62bddf7",
  "ImageUrl": "https://cdn1.epicgames.com/d9090f3f39f64d5bb827c6e44b95cff0/item/EGS_3outof10EP1WelcomeToShovelworks_TerriblePostureGamesInc_S1-2560x1440-82ce419df8719fc5a3ddc7c5ea166f38.jpg",
  "Dlcs": {}
}