﻿{
  "Dlcs": {},
  "Name": "Amnesia: A Machine for Pigs",
  "AppId": "239200",
  "ImageUrl": "https://steamcdn-a.akamaihd.net/steam/apps/239200/header.jpg?t=1591001982",
  "Languages": [
    "english",
    "french",
    "italian",
    "german",
    "spanish",
    "czech",
    "hungarian",
    "polish",
    "portuguese",
    "russian"
  ],
  "Platforms": {
    "windows": true,
    "mac": true,
    "linux": true
  }
}