﻿[
  {
    "name": "TheTeeth",
    "defaultvalue": 0,
    "displayName": "The Teeth",
    "hidden": 1,
    "icon": "https://steamcdn-a.akamaihd.net/steamcommunity/public/images/apps/239200/4e4de16b5640142559d3555abfa3c50b48fc9454.jpg",
    "icongray": "https://steamcdn-a.akamaihd.net/steamcommunity/public/images/apps/239200/bea1540827fef0c0fe36174bf4cd658516c0898b.jpg"
  },
  {
    "name": "TheThroat",
    "defaultvalue": 0,
    "displayName": "The Throat",
    "hidden": 1,
    "icon": "https://steamcdn-a.akamaihd.net/steamcommunity/public/images/apps/239200/6e7c7c57bc17eeee9354c1525f8d6e6be9a5c25d.jpg",
    "icongray": "https://steamcdn-a.akamaihd.net/steamcommunity/public/images/apps/239200/bf2d05b8c7c23d2d5164a77c7d4970e0d8722ed8.jpg"
  },
  {
    "name": "TheGut",
    "defaultvalue": 0,
    "displayName": "The Gut",
    "hidden": 1,
    "icon": "https://steamcdn-a.akamaihd.net/steamcommunity/public/images/apps/239200/4deaa470ac0888107cf0f982f9a1e22528df74aa.jpg",
    "icongray": "https://steamcdn-a.akamaihd.net/steamcommunity/public/images/apps/239200/4e88272e61273ce0b996043fed639685a4f701a3.jpg"
  },
  {
    "name": "TheEntrails",
    "defaultvalue": 0,
    "displayName": "The Entrails",
    "hidden": 1,
    "icon": "https://steamcdn-a.akamaihd.net/steamcommunity/public/images/apps/239200/0585c016ebdaf57bbd3c3bdbf2dd66acefa26d18.jpg",
    "icongray": "https://steamcdn-a.akamaihd.net/steamcommunity/public/images/apps/239200/1c0f11a732f65769a0f918d8d31a388e48152928.jpg"
  },
  {
    "name": "TheHeart",
    "defaultvalue": 0,
    "displayName": "The Heart",
    "hidden": 1,
    "icon": "https://steamcdn-a.akamaihd.net/steamcommunity/public/images/apps/239200/a7f974be9e4fa57adc465f55b8799cf579c6b487.jpg",
    "icongray": "https://steamcdn-a.akamaihd.net/steamcommunity/public/images/apps/239200/7a5e9dab01f2005171940255876709e20b6c3c82.jpg"
  },
  {
    "name": "MasterArchivist",
    "defaultvalue": 0,
    "displayName": "Master Archivist",
    "hidden": 1,
    "icon": "https://steamcdn-a.akamaihd.net/steamcommunity/public/images/apps/239200/7d9c1bc7bd6e23aca7f484b49a5cc278327b23a9.jpg",
    "icongray": "https://steamcdn-a.akamaihd.net/steamcommunity/public/images/apps/239200/631e28ea571c342db186c18f09498381cddffa1a.jpg"
  },
  {
    "name": "Insanity",
    "defaultvalue": 0,
    "displayName": "Insanity",
    "hidden": 1,
    "icon": "https://steamcdn-a.akamaihd.net/steamcommunity/public/images/apps/239200/7f14a8a03f8b6d9bae85167db006cd126ccc5faf.jpg",
    "icongray": "https://steamcdn-a.akamaihd.net/steamcommunity/public/images/apps/239200/78899e2119ce3143a4dbd4fa402d229acbaa4d1c.jpg"
  }
]