﻿{
  "Dlcs": {},
  "Name": "Orcs Must Die! Unchained",
  "AppId": "427270",
  "ImageUrl": "https://steamcdn-a.akamaihd.net/steam/apps/427270/header.jpg?t=1546887982",
  "Languages": [
    "english",
    "french",
    "german",
    "spanish",
    "russian"
  ],
  "Platforms": {
    "windows": true,
    "mac": false,
    "linux": false
  }
}