﻿[
  {
    "name": "LEARNING_TO_TRUST",
    "defaultvalue": 0,
    "displayName": "Learning to Trust",
    "hidden": 0,
    "description": "Complete the Tutorial",
    "icon": "https://steamcdn-a.akamaihd.net/steamcommunity/public/images/apps/468560/4f5c9201c9c854eb7d31a44d9f7527d3d42dde04.jpg",
    "icongray": "https://steamcdn-a.akamaihd.net/steamcommunity/public/images/apps/468560/0474582b596ee8caf668ebad5f8e8eaf5500be5b.jpg"
  },
  {
    "name": "CALLING_THE_BLIND",
    "defaultvalue": 0,
    "displayName": "Calling the Blind",
    "hidden": 0,
    "description": "Place your second beacon",
    "icon": "https://steamcdn-a.akamaihd.net/steamcommunity/public/images/apps/468560/4f5c9201c9c854eb7d31a44d9f7527d3d42dde04.jpg",
    "icongray": "https://steamcdn-a.akamaihd.net/steamcommunity/public/images/apps/468560/0474582b596ee8caf668ebad5f8e8eaf5500be5b.jpg"
  },
  {
    "name": "SPEED_RUNNER",
    "defaultvalue": 0,
    "displayName": "Speed Runner",
    "hidden": 0,
    "description": "Finish the game in 20 beacons",
    "icon": "https://steamcdn-a.akamaihd.net/steamcommunity/public/images/apps/468560/4f5c9201c9c854eb7d31a44d9f7527d3d42dde04.jpg",
    "icongray": "https://steamcdn-a.akamaihd.net/steamcommunity/public/images/apps/468560/0474582b596ee8caf668ebad5f8e8eaf5500be5b.jpg"
  },
  {
    "name": "ORACLE_OF_TRUST",
    "defaultvalue": 0,
    "displayName": "The Oracle of Trust",
    "hidden": 0,
    "description": "Complete the game as Oracle",
    "icon": "https://steamcdn-a.akamaihd.net/steamcommunity/public/images/apps/468560/4f5c9201c9c854eb7d31a44d9f7527d3d42dde04.jpg",
    "icongray": "https://steamcdn-a.akamaihd.net/steamcommunity/public/images/apps/468560/0474582b596ee8caf668ebad5f8e8eaf5500be5b.jpg"
  },
  {
    "name": "SOLDIER_OF_TRUST",
    "defaultvalue": 0,
    "displayName": "The Soldier of Trust",
    "hidden": 0,
    "description": "Complete the game as Soldier",
    "icon": "https://steamcdn-a.akamaihd.net/steamcommunity/public/images/apps/468560/4f5c9201c9c854eb7d31a44d9f7527d3d42dde04.jpg",
    "icongray": "https://steamcdn-a.akamaihd.net/steamcommunity/public/images/apps/468560/0474582b596ee8caf668ebad5f8e8eaf5500be5b.jpg"
  },
  {
    "name": "DEEP_AND_DARK",
    "defaultvalue": 0,
    "displayName": "Deep and Dark",
    "hidden": 0,
    "description": "Explore the caves",
    "icon": "https://steamcdn-a.akamaihd.net/steamcommunity/public/images/apps/468560/4f5c9201c9c854eb7d31a44d9f7527d3d42dde04.jpg",
    "icongray": "https://steamcdn-a.akamaihd.net/steamcommunity/public/images/apps/468560/0474582b596ee8caf668ebad5f8e8eaf5500be5b.jpg"
  },
  {
    "name": "THE_KEYMASTER",
    "defaultvalue": 0,
    "displayName": "The Keymaster",
    "hidden": 1,
    "icon": "https://steamcdn-a.akamaihd.net/steamcommunity/public/images/apps/468560/4f5c9201c9c854eb7d31a44d9f7527d3d42dde04.jpg",
    "icongray": "https://steamcdn-a.akamaihd.net/steamcommunity/public/images/apps/468560/0474582b596ee8caf668ebad5f8e8eaf5500be5b.jpg"
  },
  {
    "name": "NO_RELOADING",
    "defaultvalue": 0,
    "displayName": "Not reloading my wand",
    "hidden": 0,
    "description": "Finish the game without running out of mana",
    "icon": "https://steamcdn-a.akamaihd.net/steamcommunity/public/images/apps/468560/4f5c9201c9c854eb7d31a44d9f7527d3d42dde04.jpg",
    "icongray": "https://steamcdn-a.akamaihd.net/steamcommunity/public/images/apps/468560/0474582b596ee8caf668ebad5f8e8eaf5500be5b.jpg"
  },
  {
    "name": "LOOT_GAME",
    "defaultvalue": 0,
    "displayName": "Loot? In this Game?",
    "hidden": 0,
    "description": "Collect 10 pick ups as soldier",
    "icon": "https://steamcdn-a.akamaihd.net/steamcommunity/public/images/apps/468560/4f5c9201c9c854eb7d31a44d9f7527d3d42dde04.jpg",
    "icongray": "https://steamcdn-a.akamaihd.net/steamcommunity/public/images/apps/468560/0474582b596ee8caf668ebad5f8e8eaf5500be5b.jpg"
  },
  {
    "name": "TRUSTFALL",
    "defaultvalue": 0,
    "displayName": "Trustfall",
    "hidden": 0,
    "description": "Complete the game",
    "icon": "https://steamcdn-a.akamaihd.net/steamcommunity/public/images/apps/468560/4f5c9201c9c854eb7d31a44d9f7527d3d42dde04.jpg",
    "icongray": "https://steamcdn-a.akamaihd.net/steamcommunity/public/images/apps/468560/0474582b596ee8caf668ebad5f8e8eaf5500be5b.jpg"
  },
  {
    "name": "THE_BIGGER",
    "defaultvalue": 0,
    "displayName": "The bigger they are..",
    "hidden": 1,
    "icon": "https://steamcdn-a.akamaihd.net/steamcommunity/public/images/apps/468560/4f5c9201c9c854eb7d31a44d9f7527d3d42dde04.jpg",
    "icongray": "https://steamcdn-a.akamaihd.net/steamcommunity/public/images/apps/468560/0474582b596ee8caf668ebad5f8e8eaf5500be5b.jpg"
  },
  {
    "name": "PUZZLE_OUT",
    "defaultvalue": 0,
    "displayName": "Puzzle out",
    "hidden": 1,
    "icon": "https://steamcdn-a.akamaihd.net/steamcommunity/public/images/apps/468560/4f5c9201c9c854eb7d31a44d9f7527d3d42dde04.jpg",
    "icongray": "https://steamcdn-a.akamaihd.net/steamcommunity/public/images/apps/468560/0474582b596ee8caf668ebad5f8e8eaf5500be5b.jpg"
  }
]