﻿{
  "Dlcs": {},
  "Name": "Strong Bad's Cool Game for Attractive People: Season 1",
  "AppId": "8340",
  "ImageUrl": "https://steamcdn-a.akamaihd.net/steam/apps/8340/header.jpg?t=1581458900",
  "Languages": [
    "english"
  ],
  "Platforms": {
    "windows": true,
    "mac": true,
    "linux": false
  }
}