﻿[
  {
    "name": "Achievement_1",
    "defaultvalue": 0,
    "displayName": "Born Again",
    "hidden": 0,
    "description": "Finish the game",
    "icon": "https://steamcdn-a.akamaihd.net/steamcommunity/public/images/apps/414700/417a6605ea5a9df004218939f4a67ae559a224be.jpg",
    "icongray": "https://steamcdn-a.akamaihd.net/steamcommunity/public/images/apps/414700/406f573431ab313577c85407da7e56d6a59348c0.jpg"
  },
  {
    "name": "Achievement_2",
    "defaultvalue": 0,
    "displayName": "Sanctified",
    "hidden": 0,
    "description": "Finish the game in Hard Mode",
    "icon": "https://steamcdn-a.akamaihd.net/steamcommunity/public/images/apps/414700/4e334348c6b1a74743ea52808d6e58ac6039a550.jpg",
    "icongray": "https://steamcdn-a.akamaihd.net/steamcommunity/public/images/apps/414700/88cdd52474cbf4d1cc59405593f16325ffb75d27.jpg"
  },
  {
    "name": "Achievement_3",
    "defaultvalue": 0,
    "displayName": "Preacher",
    "hidden": 0,
    "description": "Finish the game in Nightmare Mode",
    "icon": "https://steamcdn-a.akamaihd.net/steamcommunity/public/images/apps/414700/ba3da0fa8246be9d0d2b8f1068246c4032531352.jpg",
    "icongray": "https://steamcdn-a.akamaihd.net/steamcommunity/public/images/apps/414700/7ecdf02a29b249c2af4c52b921707dcf8df6a10c.jpg"
  },
  {
    "name": "Achievement_4",
    "defaultvalue": 0,
    "displayName": "Saint",
    "hidden": 0,
    "description": "Finish the game in Insane Mode",
    "icon": "https://steamcdn-a.akamaihd.net/steamcommunity/public/images/apps/414700/458b1048e8b69c5e21bd29e719f357c77ba695c7.jpg",
    "icongray": "https://steamcdn-a.akamaihd.net/steamcommunity/public/images/apps/414700/c428b0708958ed2da3e65e3ec058f47032f6f2d1.jpg"
  },
  {
    "name": "Achievement_5",
    "defaultvalue": 0,
    "displayName": "Prophet",
    "hidden": 0,
    "description": "Finish the game without hiding in a barrel or closet",
    "icon": "https://steamcdn-a.akamaihd.net/steamcommunity/public/images/apps/414700/aca9e67d07c0601f9d47cb4d9564a5ba6d5b7316.jpg",
    "icongray": "https://steamcdn-a.akamaihd.net/steamcommunity/public/images/apps/414700/fae1832a6936a7d8f4e8b24bb8bdb823d10cdba2.jpg"
  },
  {
    "name": "Achievement_6",
    "defaultvalue": 0,
    "displayName": "Messiah",
    "hidden": 0,
    "description": "Finish the game in Insane Mode without reloading the camera battery",
    "icon": "https://steamcdn-a.akamaihd.net/steamcommunity/public/images/apps/414700/b4af9e55bcaedc31f1ce2ab9bf52d3beb2a16453.jpg",
    "icongray": "https://steamcdn-a.akamaihd.net/steamcommunity/public/images/apps/414700/4cdd52004c1d727d71ecd15968a24100c7b6906f.jpg"
  },
  {
    "name": "Achievement_7",
    "defaultvalue": 0,
    "displayName": "Asahel",
    "hidden": 0,
    "description": "Finish the game in under 4 hours",
    "icon": "https://steamcdn-a.akamaihd.net/steamcommunity/public/images/apps/414700/9eb8be5e01f10d5fee3d7fa1bd7747203372171b.jpg",
    "icongray": "https://steamcdn-a.akamaihd.net/steamcommunity/public/images/apps/414700/1d270c405bc544d4174331a5b9e80ebbffe727e0.jpg"
  },
  {
    "name": "Achievement_8",
    "defaultvalue": 0,
    "displayName": "What God Has Joined",
    "hidden": 1,
    "icon": "https://steamcdn-a.akamaihd.net/steamcommunity/public/images/apps/414700/494fa91b20bf691f912a4c100e9e5d99979b3122.jpg",
    "icongray": "https://steamcdn-a.akamaihd.net/steamcommunity/public/images/apps/414700/57e78e5287ac42e8980256187e5b558385fd0359.jpg"
  },
  {
    "name": "Achievement_9",
    "defaultvalue": 0,
    "displayName": "Babylon",
    "hidden": 1,
    "icon": "https://steamcdn-a.akamaihd.net/steamcommunity/public/images/apps/414700/da62e6cc126fdb517c48df2f8053a51f2ffc23c6.jpg",
    "icongray": "https://steamcdn-a.akamaihd.net/steamcommunity/public/images/apps/414700/57e78e5287ac42e8980256187e5b558385fd0359.jpg"
  },
  {
    "name": "Achievement_10",
    "defaultvalue": 0,
    "displayName": "Hang in there, Baby",
    "hidden": 1,
    "icon": "https://steamcdn-a.akamaihd.net/steamcommunity/public/images/apps/414700/6504ef22161d6d2af84f8a7ecbc838b6e0ab3af8.jpg",
    "icongray": "https://steamcdn-a.akamaihd.net/steamcommunity/public/images/apps/414700/57e78e5287ac42e8980256187e5b558385fd0359.jpg"
  },
  {
    "name": "Achievement_11",
    "defaultvalue": 0,
    "displayName": "Be Thou Clean",
    "hidden": 1,
    "icon": "https://steamcdn-a.akamaihd.net/steamcommunity/public/images/apps/414700/715a25c610b7d7786a3a72cf6024bac0217aee7e.jpg",
    "icongray": "https://steamcdn-a.akamaihd.net/steamcommunity/public/images/apps/414700/57e78e5287ac42e8980256187e5b558385fd0359.jpg"
  },
  {
    "name": "Achievement_12",
    "defaultvalue": 0,
    "displayName": "Golgotha",
    "hidden": 1,
    "icon": "https://steamcdn-a.akamaihd.net/steamcommunity/public/images/apps/414700/f24aba705c95f7b9f5728c2fa429f5fe150b8756.jpg",
    "icongray": "https://steamcdn-a.akamaihd.net/steamcommunity/public/images/apps/414700/57e78e5287ac42e8980256187e5b558385fd0359.jpg"
  },
  {
    "name": "Achievement_13",
    "defaultvalue": 0,
    "displayName": "Sancti Sepulchri",
    "hidden": 1,
    "icon": "https://steamcdn-a.akamaihd.net/steamcommunity/public/images/apps/414700/0c46fba4bb97d1cf234554ef279dc46f928f22c1.jpg",
    "icongray": "https://steamcdn-a.akamaihd.net/steamcommunity/public/images/apps/414700/57e78e5287ac42e8980256187e5b558385fd0359.jpg"
  },
  {
    "name": "Achievement_14",
    "defaultvalue": 0,
    "displayName": "Let No Man Put Asunder",
    "hidden": 1,
    "icon": "https://steamcdn-a.akamaihd.net/steamcommunity/public/images/apps/414700/ab105c0507ce5175767b1cbbbfd04b17743db9da.jpg",
    "icongray": "https://steamcdn-a.akamaihd.net/steamcommunity/public/images/apps/414700/57e78e5287ac42e8980256187e5b558385fd0359.jpg"
  },
  {
    "name": "Achievement_15",
    "defaultvalue": 0,
    "displayName": "Revelations",
    "hidden": 1,
    "icon": "https://steamcdn-a.akamaihd.net/steamcommunity/public/images/apps/414700/50134c64f1f28fba4d0a8be954730709f5455687.jpg",
    "icongray": "https://steamcdn-a.akamaihd.net/steamcommunity/public/images/apps/414700/57e78e5287ac42e8980256187e5b558385fd0359.jpg"
  },
  {
    "name": "Achievement_16",
    "defaultvalue": 0,
    "displayName": "Bible Study",
    "hidden": 0,
    "description": "Collect 40 documents",
    "icon": "https://steamcdn-a.akamaihd.net/steamcommunity/public/images/apps/414700/393ea61dd693f30a56715be98ecdd686118168b3.jpg",
    "icongray": "https://steamcdn-a.akamaihd.net/steamcommunity/public/images/apps/414700/6800dc6d644fa045e5cdcaa9cd94832624bf9265.jpg"
  },
  {
    "name": "Achievement_17",
    "defaultvalue": 0,
    "displayName": "Ordination",
    "hidden": 0,
    "description": "Collect all documents ",
    "icon": "https://steamcdn-a.akamaihd.net/steamcommunity/public/images/apps/414700/0292bc1ba9b1b6747d4db899ac6058c2a07d0827.jpg",
    "icongray": "https://steamcdn-a.akamaihd.net/steamcommunity/public/images/apps/414700/fb7f836dcddf64599dbb6254025a3a5e4f693780.jpg"
  },
  {
    "name": "Achievement_18",
    "defaultvalue": 0,
    "displayName": "The Road to Damascus",
    "hidden": 0,
    "description": "Complete 30 recordings",
    "icon": "https://steamcdn-a.akamaihd.net/steamcommunity/public/images/apps/414700/7e454775d7615aaac79ac2999469f11b45cc6006.jpg",
    "icongray": "https://steamcdn-a.akamaihd.net/steamcommunity/public/images/apps/414700/bf19e6b3835c6a294b28908a7027acd1a0053e56.jpg"
  },
  {
    "name": "Achievement_19",
    "defaultvalue": 0,
    "displayName": "The Apostle Paul",
    "hidden": 0,
    "description": "Complete all recordings",
    "icon": "https://steamcdn-a.akamaihd.net/steamcommunity/public/images/apps/414700/18323e1cf5ec51038c896f19c230f03c14965a0c.jpg",
    "icongray": "https://steamcdn-a.akamaihd.net/steamcommunity/public/images/apps/414700/693774fe5bd3782a0222ccb1ebb51801fc61a610.jpg"
  },
  {
    "name": "Achievement_20",
    "defaultvalue": 0,
    "displayName": "Heal the Sick",
    "hidden": 1,
    "icon": "https://steamcdn-a.akamaihd.net/steamcommunity/public/images/apps/414700/e53c132df7541d371e17ba4f00237dc8f989e41f.jpg",
    "icongray": "https://steamcdn-a.akamaihd.net/steamcommunity/public/images/apps/414700/57e78e5287ac42e8980256187e5b558385fd0359.jpg"
  },
  {
    "name": "Achievement_21",
    "defaultvalue": 0,
    "displayName": "Thoroughly Baptized",
    "hidden": 1,
    "icon": "https://steamcdn-a.akamaihd.net/steamcommunity/public/images/apps/414700/e82a4da06f1d1e55eb1d8e2a23198665e443cad9.jpg",
    "icongray": "https://steamcdn-a.akamaihd.net/steamcommunity/public/images/apps/414700/57e78e5287ac42e8980256187e5b558385fd0359.jpg"
  },
  {
    "name": "Achievement_22",
    "defaultvalue": 0,
    "displayName": "Them That Hath Ears",
    "hidden": 1,
    "icon": "https://steamcdn-a.akamaihd.net/steamcommunity/public/images/apps/414700/6923f655e75eb2dde5059f92b6fe33e138ccaa48.jpg",
    "icongray": "https://steamcdn-a.akamaihd.net/steamcommunity/public/images/apps/414700/57e78e5287ac42e8980256187e5b558385fd0359.jpg"
  },
  {
    "name": "Achievement_23",
    "defaultvalue": 0,
    "displayName": "Slip and Slide",
    "hidden": 1,
    "icon": "https://steamcdn-a.akamaihd.net/steamcommunity/public/images/apps/414700/34ee1c76e76b653a83d7f3d9d734091f2e20a234.jpg",
    "icongray": "https://steamcdn-a.akamaihd.net/steamcommunity/public/images/apps/414700/57e78e5287ac42e8980256187e5b558385fd0359.jpg"
  },
  {
    "name": "Achievement_24",
    "defaultvalue": 0,
    "displayName": "Proper Penance",
    "hidden": 1,
    "icon": "https://steamcdn-a.akamaihd.net/steamcommunity/public/images/apps/414700/c09671856c266b7d09c14f14777944e782f15448.jpg",
    "icongray": "https://steamcdn-a.akamaihd.net/steamcommunity/public/images/apps/414700/57e78e5287ac42e8980256187e5b558385fd0359.jpg"
  }
]