﻿{
  "Dlcs": {},
  "Name": "oO",
  "AppId": "367570",
  "ImageUrl": "https://steamcdn-a.akamaihd.net/steam/apps/367570/header.jpg?t=1572540053",
  "Languages": [
    "english"
  ],
  "Platforms": {
    "windows": true,
    "mac": true,
    "linux": true
  }
}