﻿{
  "Dlcs": {},
  "Name": "The Emptiness Deluxe Edition",
  "AppId": "356160",
  "ImageUrl": "https://steamcdn-a.akamaihd.net/steam/apps/356160/header.jpg?t=1447370747",
  "Languages": [
    "english"
  ],
  "Platforms": {
    "windows": true,
    "mac": false,
    "linux": false
  }
}