﻿[
  {
    "name": "first_blood",
    "defaultvalue": 0,
    "displayName": "First Blood",
    "hidden": 0,
    "description": "Kill your first doll.",
    "icon": "https://steamcdn-a.akamaihd.net/steamcommunity/public/images/apps/530830/d45b3d6554549fb16bde6a2a100e2afa37377ecb.jpg",
    "icongray": "https://steamcdn-a.akamaihd.net/steamcommunity/public/images/apps/530830/142809291c0bcfe05fe8041012def5c58da4dcbb.jpg"
  },
  {
    "name": "doll_sweeper",
    "defaultvalue": 0,
    "displayName": "Doll Sweeper",
    "hidden": 0,
    "description": "Kill 750 dolls.",
    "icon": "https://steamcdn-a.akamaihd.net/steamcommunity/public/images/apps/530830/f49c811f693b3cf75f57973d83d139c337b26d48.jpg",
    "icongray": "https://steamcdn-a.akamaihd.net/steamcommunity/public/images/apps/530830/51cdd8f132c7480a92fe4cf9df11a8233e82c218.jpg"
  },
  {
    "name": "doll_destroyer",
    "defaultvalue": 0,
    "displayName": "Doll Destroyer",
    "hidden": 0,
    "description": "Kill 5,000 dolls.",
    "icon": "https://steamcdn-a.akamaihd.net/steamcommunity/public/images/apps/530830/09579d3352ae4f2fee14692041c4181e0a4d1944.jpg",
    "icongray": "https://steamcdn-a.akamaihd.net/steamcommunity/public/images/apps/530830/2672e8fe1cd6dff5ad8f60f76554400ba4975aeb.jpg"
  },
  {
    "name": "porcelain_hater",
    "defaultvalue": 0,
    "displayName": "Porcelain Hater",
    "hidden": 0,
    "description": "Kill 500 porcelain dolls.",
    "icon": "https://steamcdn-a.akamaihd.net/steamcommunity/public/images/apps/530830/a6c021869a718b89f8763f5af8f492d474a7f0ff.jpg",
    "icongray": "https://steamcdn-a.akamaihd.net/steamcommunity/public/images/apps/530830/05bef9df32ad6e7e60e3e81f01c95067cc3eebfd.jpg"
  },
  {
    "name": "rag_hater",
    "defaultvalue": 0,
    "displayName": "Rag Hater",
    "hidden": 0,
    "description": "Kill 500 rag dolls.",
    "icon": "https://steamcdn-a.akamaihd.net/steamcommunity/public/images/apps/530830/78a535ce85fa6618efe6441619023404e7577227.jpg",
    "icongray": "https://steamcdn-a.akamaihd.net/steamcommunity/public/images/apps/530830/2a088eb74e720ec4ab1f970f982fc79229b15571.jpg"
  },
  {
    "name": "stick_hater",
    "defaultvalue": 0,
    "displayName": "Wooden Hater",
    "hidden": 0,
    "description": "Kill 500 wooden dolls.",
    "icon": "https://steamcdn-a.akamaihd.net/steamcommunity/public/images/apps/530830/b11b4e5148d5c1163e2fd2104cd83c458bfa71b5.jpg",
    "icongray": "https://steamcdn-a.akamaihd.net/steamcommunity/public/images/apps/530830/f9c41c24aadeeaca5758e81a9affb9a225c0ea79.jpg"
  },
  {
    "name": "its_raining_doll_heads",
    "defaultvalue": 0,
    "displayName": "It's raining doll heads!",
    "hidden": 0,
    "description": "Kill 1,000 dolls with headshots.",
    "icon": "https://steamcdn-a.akamaihd.net/steamcommunity/public/images/apps/530830/b9c8138f36b3ffb0dbc93f4aa27af02c9251df08.jpg",
    "icongray": "https://steamcdn-a.akamaihd.net/steamcommunity/public/images/apps/530830/32ef209a4a4cf8b9e6b29d60d4935ef5bb892dbd.jpg"
  },
  {
    "name": "sophies_guardian_early",
    "defaultvalue": 0,
    "displayName": "Guardian before his time",
    "hidden": 0,
    "description": "Complete the \"Tutorial\"",
    "icon": "https://steamcdn-a.akamaihd.net/steamcommunity/public/images/apps/530830/8bda09a72de6e6470a9574911419ea4bc3098e05.jpg",
    "icongray": "https://steamcdn-a.akamaihd.net/steamcommunity/public/images/apps/530830/4274146cd0927e40177790cd67fc9fba5c87949b.jpg"
  },
  {
    "name": "bad_dreams",
    "defaultvalue": 0,
    "displayName": "Bad dreams",
    "hidden": 0,
    "description": "Survive 3:00 minutes in Gunslinger Mode.",
    "icon": "https://steamcdn-a.akamaihd.net/steamcommunity/public/images/apps/530830/4a6fc8369b308546865a05bc3e77996307a61f5e.jpg",
    "icongray": "https://steamcdn-a.akamaihd.net/steamcommunity/public/images/apps/530830/ab0f79a0b08f4f9215cf8aac497f77f5ca6a002c.jpg"
  },
  {
    "name": "nightmare",
    "defaultvalue": 0,
    "displayName": "Nightmare",
    "hidden": 0,
    "description": "Survive 5:00 minutes in Gunslinger Mode.",
    "icon": "https://steamcdn-a.akamaihd.net/steamcommunity/public/images/apps/530830/51f030a23c5182834b278da2131a25f54f4725d4.jpg",
    "icongray": "https://steamcdn-a.akamaihd.net/steamcommunity/public/images/apps/530830/a389f583ffcea21917491fec57d304954424403d.jpg"
  },
  {
    "name": "insomnia",
    "defaultvalue": 0,
    "displayName": "Insomnia",
    "hidden": 0,
    "description": "Survive 7:00 minutes in Gunslinger Mode.",
    "icon": "https://steamcdn-a.akamaihd.net/steamcommunity/public/images/apps/530830/36e387af25f27f5ede2af421b447a9ba32adac85.jpg",
    "icongray": "https://steamcdn-a.akamaihd.net/steamcommunity/public/images/apps/530830/4e717d0f42127a624cf2aceabe7996308db9edb5.jpg"
  },
  {
    "name": "master_puppeteer",
    "defaultvalue": 0,
    "displayName": "Master Puppeteer",
    "hidden": 0,
    "description": "Place 1000 dolls in Puppeteer Mode.",
    "icon": "https://steamcdn-a.akamaihd.net/steamcommunity/public/images/apps/530830/8c1a7c531cacc7f78d362c1e58614e9916a44315.jpg",
    "icongray": "https://steamcdn-a.akamaihd.net/steamcommunity/public/images/apps/530830/3e502287119a39428210f2ab0b2e0703b6afd6ed.jpg"
  },
  {
    "name": "bear_worst_enemies",
    "defaultvalue": 0,
    "displayName": "Bear worst enemies",
    "hidden": 1,
    "icon": "https://steamcdn-a.akamaihd.net/steamcommunity/public/images/apps/530830/0b2ac7d5cf6795e89bf4c51b707e77947aeeba9c.jpg",
    "icongray": "https://steamcdn-a.akamaihd.net/steamcommunity/public/images/apps/530830/557280323984eb1dfe418e0ecfa593de94cd3a98.jpg"
  },
  {
    "name": "its_high_noon",
    "defaultvalue": 0,
    "displayName": "It's high noon",
    "hidden": 1,
    "icon": "https://steamcdn-a.akamaihd.net/steamcommunity/public/images/apps/530830/bc3e389deecbe3d9f2c5f10d79bec8d75f3fa791.jpg",
    "icongray": "https://steamcdn-a.akamaihd.net/steamcommunity/public/images/apps/530830/d9a342bea540f8c0c6b3e0dceff8c6ce23e6ff6a.jpg"
  },
  {
    "name": "griff_rebirth",
    "defaultvalue": 0,
    "displayName": "Griff Rebirth",
    "hidden": 0,
    "description": "Die 50 times.",
    "icon": "https://steamcdn-a.akamaihd.net/steamcommunity/public/images/apps/530830/65043cb2829b5b0f84400ec7e9f012c4b441d3ff.jpg",
    "icongray": "https://steamcdn-a.akamaihd.net/steamcommunity/public/images/apps/530830/8b3ee248c1a99efe689ea54b7e69220f4d6166c1.jpg"
  },
  {
    "name": "club_hater",
    "defaultvalue": 0,
    "displayName": "I'm the Juggernaut!",
    "hidden": 0,
    "description": "Kill 500 club dolls",
    "icon": "https://steamcdn-a.akamaihd.net/steamcommunity/public/images/apps/530830/5cc6da79846d8b9ecff9e380722327f7020a5eec.jpg",
    "icongray": "https://steamcdn-a.akamaihd.net/steamcommunity/public/images/apps/530830/53d859c44be325e5471bd4e162ef4bd6b8bcd9c4.jpg"
  },
  {
    "name": "balloon_annihilator",
    "defaultvalue": 0,
    "displayName": "Balloon Annihilator",
    "hidden": 0,
    "description": "Burst 300 balloons",
    "icon": "https://steamcdn-a.akamaihd.net/steamcommunity/public/images/apps/530830/391a66ca26bcbc8e46c8ae09fe55d9aacf065757.jpg",
    "icongray": "https://steamcdn-a.akamaihd.net/steamcommunity/public/images/apps/530830/59d013c7dd4b96af9cab598cc8724228f1e5406d.jpg"
  },
  {
    "name": "poker_face",
    "defaultvalue": 0,
    "displayName": "Poker Face",
    "hidden": 0,
    "description": "Burst 4 different balloons in a single match",
    "icon": "https://steamcdn-a.akamaihd.net/steamcommunity/public/images/apps/530830/3cb68390d7bfec7668da5d13916fc74b2e9171b1.jpg",
    "icongray": "https://steamcdn-a.akamaihd.net/steamcommunity/public/images/apps/530830/1477ccab4eff4ccc2f66b7c339cbdc7de21bfd1a.jpg"
  },
  {
    "name": "i_have_the_power",
    "defaultvalue": 0,
    "displayName": "I HAVE THE POWER!",
    "hidden": 0,
    "description": "Kill 1000 dolls with power-ups",
    "icon": "https://steamcdn-a.akamaihd.net/steamcommunity/public/images/apps/530830/bea609b19561976b4d62f0d6593f43d35afdd644.jpg",
    "icongray": "https://steamcdn-a.akamaihd.net/steamcommunity/public/images/apps/530830/c2a1068a94a61c336a4a7a27b3f1ef5f7a79e910.jpg"
  }
]