﻿[
  {
    "name": "ACH_MURDER_JUNKIE",
    "defaultvalue": 0,
    "displayName": "Murder Junkie",
    "hidden": 0,
    "description": "Murder 5 deserving NPCs",
    "icon": "https://steamcdn-a.akamaihd.net/steamcommunity/public/images/apps/263820/7bb83de2c8947aba87bf14f31d733e6562f93faa.jpg",
    "icongray": "https://steamcdn-a.akamaihd.net/steamcommunity/public/images/apps/263820/87c680ce7f2947454717c52a13bfd133050e916b.jpg"
  },
  {
    "name": "ACH_EARTH_SEAL",
    "defaultvalue": 0,
    "displayName": "Heart of Stone",
    "hidden": 1,
    "icon": "https://steamcdn-a.akamaihd.net/steamcommunity/public/images/apps/263820/f941c52ecd09111f81fa7979a30019f148881fcd.jpg",
    "icongray": "https://steamcdn-a.akamaihd.net/steamcommunity/public/images/apps/263820/d5bcbae4263225f1fd1bcdb610e31d325dfa6d7d.jpg"
  },
  {
    "name": "ACH_ICE_SEAL",
    "defaultvalue": 0,
    "displayName": "Icy Hand of Death",
    "hidden": 1,
    "icon": "https://steamcdn-a.akamaihd.net/steamcommunity/public/images/apps/263820/ff6fce3112c54fac3068c29587bb1556eae10a2f.jpg",
    "icongray": "https://steamcdn-a.akamaihd.net/steamcommunity/public/images/apps/263820/6150e9e3c5d5f28e20174ef306308cd564dc9238.jpg"
  },
  {
    "name": "ACH_FIRE_SEAL",
    "defaultvalue": 0,
    "displayName": "Hellfire and Brimstone",
    "hidden": 1,
    "icon": "https://steamcdn-a.akamaihd.net/steamcommunity/public/images/apps/263820/91c78d54f2ae65cb011b17404f9d93389af114ae.jpg",
    "icongray": "https://steamcdn-a.akamaihd.net/steamcommunity/public/images/apps/263820/bb5bc0b3343409f1a449fc8b08d0d4693e33a2f8.jpg"
  },
  {
    "name": "ACH_LIT_SEAL",
    "defaultvalue": 0,
    "displayName": "Ride The Lightning",
    "hidden": 1,
    "icon": "https://steamcdn-a.akamaihd.net/steamcommunity/public/images/apps/263820/803411806908ba2cffddcd5e905dff9218e447eb.jpg",
    "icongray": "https://steamcdn-a.akamaihd.net/steamcommunity/public/images/apps/263820/083ddc53add7daf2449cda57befd7b9b7bfb8efc.jpg"
  },
  {
    "name": "ACH_KILL_KING",
    "defaultvalue": 0,
    "displayName": "Kingslayer",
    "hidden": 1,
    "icon": "https://steamcdn-a.akamaihd.net/steamcommunity/public/images/apps/263820/57217353c907aa04d0a0ce6e03d4bf83069fe609.jpg",
    "icongray": "https://steamcdn-a.akamaihd.net/steamcommunity/public/images/apps/263820/982b29aa5ff57ae74955a122107c453bb090d02d.jpg"
  },
  {
    "name": "ACH_BEAT_GAME",
    "defaultvalue": 0,
    "displayName": "Mildly Malevolent",
    "hidden": 0,
    "description": "Beat the game on Normal",
    "icon": "https://steamcdn-a.akamaihd.net/steamcommunity/public/images/apps/263820/73d2fb4d4355511785668b84c69df2dfe2652f16.jpg",
    "icongray": "https://steamcdn-a.akamaihd.net/steamcommunity/public/images/apps/263820/538416e01467971ce0dbd406ee308f56c14011af.jpg"
  },
  {
    "name": "ACH_BEAT_GAME_HARD",
    "defaultvalue": 0,
    "displayName": "Ultimate Archvillain",
    "hidden": 0,
    "description": "Beat the game on Difficult",
    "icon": "https://steamcdn-a.akamaihd.net/steamcommunity/public/images/apps/263820/71d8459538d82b5096fce55075de4d9e483fd1d2.jpg",
    "icongray": "https://steamcdn-a.akamaihd.net/steamcommunity/public/images/apps/263820/a8a849c8b65cd1dbd0510c065f7c76b3bf8a6401.jpg"
  },
  {
    "name": "ACH_PORTRAIT",
    "defaultvalue": 0,
    "displayName": "Rampant Narcissism",
    "hidden": 0,
    "description": "Obtain a portrait of Galvis",
    "icon": "https://steamcdn-a.akamaihd.net/steamcommunity/public/images/apps/263820/e23e6beeb91a7048e16563a31532b1bdaa86f392.jpg",
    "icongray": "https://steamcdn-a.akamaihd.net/steamcommunity/public/images/apps/263820/60cb58e17f7d24345c9fa1f8e7e2949b9ac77563.jpg"
  },
  {
    "name": "ACH_FIRE2",
    "defaultvalue": 0,
    "displayName": "Demonic Arsonist",
    "hidden": 0,
    "description": "Kill 50 enemies with Fire2",
    "icon": "https://steamcdn-a.akamaihd.net/steamcommunity/public/images/apps/263820/7e5b9654fdba6149042804d4a97f88c7ac5e2311.jpg",
    "icongray": "https://steamcdn-a.akamaihd.net/steamcommunity/public/images/apps/263820/38171be949ae535453683912751d6a3cfa48f744.jpg"
  },
  {
    "name": "ACH_LIT2",
    "defaultvalue": 0,
    "displayName": "Electrocutioner",
    "hidden": 0,
    "description": "Kill 5 enemies at one time with Lit2",
    "icon": "https://steamcdn-a.akamaihd.net/steamcommunity/public/images/apps/263820/81e1ccdc51ddfd25954ba0527ad06ce57cf4b4b8.jpg",
    "icongray": "https://steamcdn-a.akamaihd.net/steamcommunity/public/images/apps/263820/d9d828bf254e30a1b608e19bd75af023e6068e42.jpg"
  },
  {
    "name": "ACH_ICE2",
    "defaultvalue": 0,
    "displayName": "Hypothermic Homicide",
    "hidden": 0,
    "description": "Freeze 30 enemies with Ice",
    "icon": "https://steamcdn-a.akamaihd.net/steamcommunity/public/images/apps/263820/c7f195b037735b50ea919385c60c80b457968b0d.jpg",
    "icongray": "https://steamcdn-a.akamaihd.net/steamcommunity/public/images/apps/263820/73868b141bd33b43d6cae1fb921d07930976a003.jpg"
  },
  {
    "name": "ACH_EARTH2",
    "defaultvalue": 0,
    "displayName": "Geocidal Maniac",
    "hidden": 0,
    "description": "Kill 4 enemies at one time with Earth2",
    "icon": "https://steamcdn-a.akamaihd.net/steamcommunity/public/images/apps/263820/2137ca291f00a873d789b4ca29598676b46915a6.jpg",
    "icongray": "https://steamcdn-a.akamaihd.net/steamcommunity/public/images/apps/263820/fab525a1d36f1a56fb15216521e9160037905004.jpg"
  },
  {
    "name": "ACH_SHADOW2",
    "defaultvalue": 0,
    "displayName": "Fury Of The Abyss",
    "hidden": 0,
    "description": "Kill 8 enemies at one time with Shadow2",
    "icon": "https://steamcdn-a.akamaihd.net/steamcommunity/public/images/apps/263820/23b7655466e749e72704973d402226c05d4a49e5.jpg",
    "icongray": "https://steamcdn-a.akamaihd.net/steamcommunity/public/images/apps/263820/6b916707830a31b7bf999a68cd591d839c7f122c.jpg"
  },
  {
    "name": "ACH_DRAGON_GEAR",
    "defaultvalue": 0,
    "displayName": "Reptilian Brain",
    "hidden": 0,
    "description": "Equip all Dragon Gear",
    "icon": "https://steamcdn-a.akamaihd.net/steamcommunity/public/images/apps/263820/fe793529dffcd7e8fd20aaa8d56b71b56fc26229.jpg",
    "icongray": "https://steamcdn-a.akamaihd.net/steamcommunity/public/images/apps/263820/f96e5740f174f8d0c7e395c9e039533d17db2efb.jpg"
  },
  {
    "name": "ACH_KILL_500",
    "defaultvalue": 0,
    "displayName": "Widowmaker",
    "hidden": 0,
    "description": "Kill 750 enemies",
    "icon": "https://steamcdn-a.akamaihd.net/steamcommunity/public/images/apps/263820/cedf7dd13357e5f2c6004aee2aab6346c003cb9b.jpg",
    "icongray": "https://steamcdn-a.akamaihd.net/steamcommunity/public/images/apps/263820/55734c949273e238789b1c581ad3ab190f589127.jpg"
  },
  {
    "name": "ACH_KILL_1000",
    "defaultvalue": 0,
    "displayName": "Bloodbather",
    "hidden": 0,
    "description": "Kill 1500 enemies",
    "icon": "https://steamcdn-a.akamaihd.net/steamcommunity/public/images/apps/263820/465adf67397e5ba624d2200be7c64c830ba41c06.jpg",
    "icongray": "https://steamcdn-a.akamaihd.net/steamcommunity/public/images/apps/263820/826f7de1861a06b65ed7347271741f4493210b5b.jpg"
  },
  {
    "name": "ACH_KILL_DRAGONS",
    "defaultvalue": 0,
    "displayName": "Dragonlord",
    "hidden": 0,
    "description": "Kill 100 Dragons",
    "icon": "https://steamcdn-a.akamaihd.net/steamcommunity/public/images/apps/263820/621936959a3112469d5d11a65994314b429d51ad.jpg",
    "icongray": "https://steamcdn-a.akamaihd.net/steamcommunity/public/images/apps/263820/c9684a1c4fde8a500a7f939a156a25795467357d.jpg"
  },
  {
    "name": "ACH_EAT_MEAT",
    "defaultvalue": 0,
    "displayName": "Carnivore",
    "hidden": 0,
    "description": "Eat 10 Hams and 10 Steaks",
    "icon": "https://steamcdn-a.akamaihd.net/steamcommunity/public/images/apps/263820/ac2c2273c3a748d3c36f36bbefa7f03efea397b7.jpg",
    "icongray": "https://steamcdn-a.akamaihd.net/steamcommunity/public/images/apps/263820/2c0bf64e8092088166c83997252a09c4f70adc61.jpg"
  },
  {
    "name": "ACH_EAT_APPLES",
    "defaultvalue": 0,
    "displayName": "Glutton",
    "hidden": 0,
    "description": "Eat 75 Pieces of Food",
    "icon": "https://steamcdn-a.akamaihd.net/steamcommunity/public/images/apps/263820/e91a1a803f93d1d4025ddd9d4ed27c7ae20e27fd.jpg",
    "icongray": "https://steamcdn-a.akamaihd.net/steamcommunity/public/images/apps/263820/7eed6239a6d391aa59a879125691b16f79e1d5a7.jpg"
  },
  {
    "name": "ACH_EAT_CHICKEN",
    "defaultvalue": 0,
    "displayName": "Fowl Obsession",
    "hidden": 0,
    "description": "Eat 3 Whole Chickens",
    "icon": "https://steamcdn-a.akamaihd.net/steamcommunity/public/images/apps/263820/378d644cad0b1b79a4c917a37f1d0924e587af76.jpg",
    "icongray": "https://steamcdn-a.akamaihd.net/steamcommunity/public/images/apps/263820/76f8e1b57b9e840df42860f40f6fe44928a22433.jpg"
  },
  {
    "name": "ACH_KILL_OLD_MAN",
    "defaultvalue": 0,
    "displayName": "Cold Hearted Bastard",
    "hidden": 1,
    "icon": "https://steamcdn-a.akamaihd.net/steamcommunity/public/images/apps/263820/0e2a9532afac426334cc6dbbe6648ea371c23fe3.jpg",
    "icongray": "https://steamcdn-a.akamaihd.net/steamcommunity/public/images/apps/263820/2d0c54f16247232bb57c0c444470c9096aee5a79.jpg"
  },
  {
    "name": "ACH_KILL_BOOSH",
    "defaultvalue": 0,
    "displayName": "Booshwacker",
    "hidden": 1,
    "icon": "https://steamcdn-a.akamaihd.net/steamcommunity/public/images/apps/263820/5fa9e43080c958d011fca5d2160fb6a63fc8301f.jpg",
    "icongray": "https://steamcdn-a.akamaihd.net/steamcommunity/public/images/apps/263820/e71222ef8cc07bd6e1347375594efa338a207d93.jpg"
  },
  {
    "name": "ACH_TOUGHNESS",
    "defaultvalue": 0,
    "displayName": "Unstoppable Force",
    "hidden": 0,
    "description": "Reach a Toughness level of 35",
    "icon": "https://steamcdn-a.akamaihd.net/steamcommunity/public/images/apps/263820/517c572591f063bf3acf00de8632bd03e1ce4dfa.jpg",
    "icongray": "https://steamcdn-a.akamaihd.net/steamcommunity/public/images/apps/263820/161d6561c9168dc2863dd7e2fe9cca30a1e96287.jpg"
  },
  {
    "name": "ACH_STRENGTH",
    "defaultvalue": 0,
    "displayName": "Ruthless Agression",
    "hidden": 0,
    "description": "Reach a Strength level of 35",
    "icon": "https://steamcdn-a.akamaihd.net/steamcommunity/public/images/apps/263820/44adc4d4eb4866299b6b21b2933bb585dafc17b6.jpg",
    "icongray": "https://steamcdn-a.akamaihd.net/steamcommunity/public/images/apps/263820/a264bd538b744259717f745c6b6d88e6a7fd60db.jpg"
  },
  {
    "name": "ACH_VITALITY",
    "defaultvalue": 0,
    "displayName": "Immortal Blood",
    "hidden": 0,
    "description": "Reach a Vitality level of 35",
    "icon": "https://steamcdn-a.akamaihd.net/steamcommunity/public/images/apps/263820/6bc3d0c6993d9023495c8316ac22cd7bfeb29e23.jpg",
    "icongray": "https://steamcdn-a.akamaihd.net/steamcommunity/public/images/apps/263820/1edfe34a8bdf05c68bba4356b892e9994f674981.jpg"
  },
  {
    "name": "ACH_INTELLIGENCE",
    "defaultvalue": 0,
    "displayName": "Left-Hand Path",
    "hidden": 0,
    "description": "Reach an Intelligence level of 35",
    "icon": "https://steamcdn-a.akamaihd.net/steamcommunity/public/images/apps/263820/ca58794ddf4c8f8254150ea08ad6dc245435205a.jpg",
    "icongray": "https://steamcdn-a.akamaihd.net/steamcommunity/public/images/apps/263820/7673d17ee4b60c1e829e23367395a532e98daad4.jpg"
  },
  {
    "name": "ACH_CHAOS_GEAR",
    "defaultvalue": 0,
    "displayName": "Lord of All Evil",
    "hidden": 0,
    "description": "Equip all Chaos Gear",
    "icon": "https://steamcdn-a.akamaihd.net/steamcommunity/public/images/apps/263820/87a9c20b3fba30d19f24c7ef8971311194eb0412.jpg",
    "icongray": "https://steamcdn-a.akamaihd.net/steamcommunity/public/images/apps/263820/4617eb05a97b04c2bddc464d561b5f3ccdaa73a0.jpg"
  },
  {
    "name": "ACH_DANCER",
    "defaultvalue": 0,
    "displayName": "Succubus Worship",
    "hidden": 0,
    "description": "Give 1000 GP to a dancer",
    "icon": "https://steamcdn-a.akamaihd.net/steamcommunity/public/images/apps/263820/31a43b75e12b3f21fa6e259911b78f1f9bc4826c.jpg",
    "icongray": "https://steamcdn-a.akamaihd.net/steamcommunity/public/images/apps/263820/37ba75e983db15cf6643fdeef4f0bee8b42e8174.jpg"
  },
  {
    "name": "ACH_INVISIBILITY",
    "defaultvalue": 0,
    "displayName": "Ethereal Spirit",
    "hidden": 0,
    "description": "Equip The Invisibility Cloak",
    "icon": "https://steamcdn-a.akamaihd.net/steamcommunity/public/images/apps/263820/a06567b436467147cfeb98628fd1e299b4102956.jpg",
    "icongray": "https://steamcdn-a.akamaihd.net/steamcommunity/public/images/apps/263820/7980e9551cfc51c19894c6105a5223ee0276316d.jpg"
  },
  {
    "name": "ACH_MAGIC_AMULET",
    "defaultvalue": 0,
    "displayName": "Magus Malignus",
    "hidden": 0,
    "description": "Equip The Amulet of Magic",
    "icon": "https://steamcdn-a.akamaihd.net/steamcommunity/public/images/apps/263820/5bd4be4f3de119a1284251a63fd55c3047859bb6.jpg",
    "icongray": "https://steamcdn-a.akamaihd.net/steamcommunity/public/images/apps/263820/672729c7326a9b0dd90ee23bf8517862cc6ccade.jpg"
  }
]