﻿{
  "Dlcs": {},
  "Name": "R.A.T.S. (Regulatory Astro-Topographical Stabilizer)",
  "AppId": "553440",
  "ImageUrl": "https://steamcdn-a.akamaihd.net/steam/apps/553440/header.jpg?t=1487196357",
  "Languages": [
    "english"
  ],
  "Platforms": {
    "windows": true,
    "mac": false,
    "linux": false
  }
}