﻿[
  {
    "name": "ACH_ONE_WEAPON_MAX",
    "defaultvalue": 0,
    "displayName": "Playin' Favorites",
    "hidden": 0,
    "description": "Fully upgrade one of your ship's weapons",
    "icon": "https://steamcdn-a.akamaihd.net/steamcommunity/public/images/apps/553440/0e847a5b057c23f1c5b78f47785cb4cf2d63d433.jpg",
    "icongray": "https://steamcdn-a.akamaihd.net/steamcommunity/public/images/apps/553440/c0a410b130190ce49b9a9c1f8d022da662efeae9.jpg"
  },
  {
    "name": "ACH_BEAT_BOSS_ONE",
    "defaultvalue": 0,
    "displayName": "This STAR ain't big enough for the two of us...",
    "hidden": 0,
    "description": "Defeat the first boss",
    "icon": "https://steamcdn-a.akamaihd.net/steamcommunity/public/images/apps/553440/8ed689001e09243eb9476d336ab0a2b78f2ca6e2.jpg",
    "icongray": "https://steamcdn-a.akamaihd.net/steamcommunity/public/images/apps/553440/930967f87a2cb11d0c3c783a7c30eba244a0dd4a.jpg"
  },
  {
    "name": "ACH_BEAT_ALL_LEVELS",
    "defaultvalue": 0,
    "displayName": "Guardian of the Galaxy",
    "hidden": 0,
    "description": "Defeat the final boss",
    "icon": "https://steamcdn-a.akamaihd.net/steamcommunity/public/images/apps/553440/11629d64f3d209cdb4ed1b221209947091584228.jpg",
    "icongray": "https://steamcdn-a.akamaihd.net/steamcommunity/public/images/apps/553440/2da166b0fe5029307ccdc529997e4adfbd03ed80.jpg"
  },
  {
    "name": "ACH_ACE_ALL_LEVELS",
    "defaultvalue": 0,
    "displayName": "Completionist",
    "hidden": 0,
    "description": "Earn all stars on all levels",
    "icon": "https://steamcdn-a.akamaihd.net/steamcommunity/public/images/apps/553440/a106005c0c6836829c86f7395ff7a0e9327a50b7.jpg",
    "icongray": "https://steamcdn-a.akamaihd.net/steamcommunity/public/images/apps/553440/5a299115e2bdb54d5159d1c322402873c148fe2e.jpg"
  },
  {
    "name": "ACH_DIE_FIRST_LEVEL",
    "defaultvalue": 0,
    "displayName": "This is going to take a while...",
    "hidden": 1,
    "icon": "https://steamcdn-a.akamaihd.net/steamcommunity/public/images/apps/553440/64567d3e960f4c58253fcf7a294d00e7c377975a.jpg",
    "icongray": "https://steamcdn-a.akamaihd.net/steamcommunity/public/images/apps/553440/b478ad9c4a69ed0f9be18886e7385b1baa32d05d.jpg"
  },
  {
    "name": "ACH_USE_DEM_HAZARDS",
    "defaultvalue": 0,
    "displayName": "Master of the Elements",
    "hidden": 0,
    "description": "Have 150 enemies die to environmental hazards",
    "icon": "https://steamcdn-a.akamaihd.net/steamcommunity/public/images/apps/553440/3e57f8ded8850bbb7e837c5d20f1f567de281634.jpg",
    "icongray": "https://steamcdn-a.akamaihd.net/steamcommunity/public/images/apps/553440/74033e73529ae6da90fb66756c64fcfb88d0f400.jpg"
  },
  {
    "name": "ACH_SPREADSHOT_BOMBER",
    "defaultvalue": 0,
    "displayName": "Spray N' Pray",
    "hidden": 0,
    "description": "Kill 250 Bomber enemies using the Spread-Shot gun",
    "icon": "https://steamcdn-a.akamaihd.net/steamcommunity/public/images/apps/553440/a3bb4a80ec512997f31d546dce09e9fc9674b41b.jpg",
    "icongray": "https://steamcdn-a.akamaihd.net/steamcommunity/public/images/apps/553440/050274756e89ada8b3370d4d74290bcb3ec72795.jpg"
  },
  {
    "name": "ACH_HOMINGMISSILE_40",
    "defaultvalue": 0,
    "displayName": "Dodge this!",
    "hidden": 0,
    "description": "Kill 150 Dodger enemies using the Homing Missiles",
    "icon": "https://steamcdn-a.akamaihd.net/steamcommunity/public/images/apps/553440/a3b4627c7ecf2a8195e487ba00d2ca850b788c83.jpg",
    "icongray": "https://steamcdn-a.akamaihd.net/steamcommunity/public/images/apps/553440/5eb0f95f00308fb4be562bcc66b891b7b6e0491a.jpg"
  },
  {
    "name": "ACH_WHIP_100",
    "defaultvalue": 0,
    "displayName": "Whip it good",
    "hidden": 0,
    "description": "Destroy 200 mines with the Lazer-Whip gun before they hit you",
    "icon": "https://steamcdn-a.akamaihd.net/steamcommunity/public/images/apps/553440/150c17233158b567dc34db9127c7d2670d104773.jpg",
    "icongray": "https://steamcdn-a.akamaihd.net/steamcommunity/public/images/apps/553440/ac5534d3880b83b8702450b6939a246c68e6ed73.jpg"
  }
]