﻿{
  "Dlcs": {},
  "Name": "Dialing",
  "AppId": "775730",
  "ImageUrl": "https://steamcdn-a.akamaihd.net/steam/apps/775730/header.jpg?t=1564765690",
  "Languages": [
    "english"
  ],
  "Platforms": {
    "windows": true,
    "mac": true,
    "linux": true
  }
}