﻿{
  "Dlcs": {},
  "Name": "Sniper Art of Victory",
  "AppId": "271500",
  "ImageUrl": "https://steamcdn-a.akamaihd.net/steam/apps/271500/header.jpg?t=1587034368",
  "Languages": [
    "english"
  ],
  "Platforms": {
    "windows": true,
    "mac": false,
    "linux": false
  }
}