﻿{
  "Dlcs": {},
  "Name": "Sad City 42",
  "AppId": "771130",
  "ImageUrl": "https://steamcdn-a.akamaihd.net/steam/apps/771130/header.jpg?t=1514451579",
  "Languages": [
    "english"
  ],
  "Platforms": {
    "windows": true,
    "mac": false,
    "linux": false
  }
}