﻿{
  "Dlcs": {
    "491290": {
      "Name": "",
      "ImageUrl": ""
    },
    "571850": {
      "Name": "Investigator - New Year DLC",
      "ImageUrl": "https://steamcdn-a.akamaihd.net/steam/apps/571850/header.jpg?t=1482186641"
    },
    "740640": {
      "Name": "Investigator - Survivor Update",
      "ImageUrl": "https://steamcdn-a.akamaihd.net/steam/apps/740640/header.jpg?t=1557677592"
    }
  },
  "Name": "Investigator",
  "AppId": "482300",
  "ImageUrl": "https://steamcdn-a.akamaihd.net/steam/apps/482300/header.jpg?t=1591077746",
  "Languages": [
    "english",
    "russian"
  ],
  "Platforms": {
    "windows": true,
    "mac": false,
    "linux": false
  }
}