﻿[
  {
    "appid": "375950",
    "itemdefid": "1",
    "Timestamp": "2015-07-31T17:23:02.2340192Z",
    "modified": "20150731T172301Z",
    "type": "item",
    "display_type": "",
    "name": "Aeonium",
    "price": "1;USD19",
    "quantity": 0,
    "description": "",
    "background_color": "111111",
    "icon_url": "http://i.imgur.com/d109IF5.png",
    "name_color": "FFFFFF",
    "tradable": true,
    "marketable": false,
    "commodity": true,
    "drop_interval": 0,
    "workshopid": "0",
    "item_name": "#AEONIUM",
    "item_quality": "1",
    "market_hash_name": "Aeonium",
    "market_name": "Aeonium"
  },
  {
    "appid": "375950",
    "itemdefid": "2",
    "Timestamp": "2015-08-24T21:49:13.3848484Z",
    "modified": "20150824T214912Z",
    "type": "item",
    "display_type": "",
    "name": "Echeveria glauca",
    "price": "1;USD9",
    "quantity": 0,
    "description": "",
    "background_color": "111111",
    "icon_url": "http://i.imgur.com/8PvN7pY.png",
    "name_color": "FFFFFF",
    "tradable": true,
    "marketable": false,
    "commodity": true,
    "drop_interval": 0,
    "workshopid": "0",
    "item_name": "#ECHEVERIA_GLAUCA",
    "item_quality": "1",
    "market_hash_name": "Echeveria glauca",
    "market_name": "Echeveria glauca"
  },
  {
    "appid": "375950",
    "itemdefid": "3",
    "Timestamp": "2015-08-24T21:49:13.5138582Z",
    "modified": "20150824T214913Z",
    "type": "item",
    "display_type": "",
    "name": "Pachyphytum fittkaui",
    "price": "1;USD9",
    "quantity": 0,
    "description": "",
    "background_color": "111111",
    "icon_url": "http://i.imgur.com/t40wCQg.png",
    "name_color": "FFFFFF",
    "tradable": true,
    "marketable": false,
    "commodity": true,
    "drop_interval": 0,
    "workshopid": "0",
    "item_name": "#PACHYPHYTUM_FITTKAUI",
    "item_quality": "1",
    "market_hash_name": "Pachyphytum fittkaui",
    "market_name": "Pachyphytum fittkaui"
  },
  {
    "appid": "375950",
    "itemdefid": "4",
    "Timestamp": "2015-08-24T21:49:13.6408781Z",
    "modified": "20150824T214913Z",
    "type": "item",
    "display_type": "",
    "name": "Aloe vera",
    "price": "1;USD29",
    "quantity": 0,
    "description": "",
    "background_color": "111111",
    "icon_url": "http://i.imgur.com/4vAMZRX.png",
    "name_color": "FFFFFF",
    "tradable": true,
    "marketable": false,
    "commodity": true,
    "drop_interval": 0,
    "workshopid": "0",
    "item_name": "#ALOE_VERA",
    "item_quality": "1",
    "market_hash_name": "Aloe vera",
    "market_name": "Aloe vera"
  },
  {
    "appid": "375950",
    "itemdefid": "5",
    "Timestamp": "2015-08-24T21:49:13.7548926Z",
    "modified": "20150824T214913Z",
    "type": "item",
    "display_type": "",
    "name": "Pachyphytum glutinicaule",
    "price": "1;USD19",
    "quantity": 0,
    "description": "",
    "background_color": "111111",
    "icon_url": "http://i.imgur.com/Ocb7WBW.png",
    "name_color": "FFFFFF",
    "tradable": true,
    "marketable": false,
    "commodity": true,
    "drop_interval": 0,
    "workshopid": "0",
    "item_name": "#PACHYPHYTUM_GLUTINICAULE",
    "item_quality": "1",
    "market_hash_name": "Pachyphytum glutinicaule",
    "market_name": "Pachyphytum glutinicaule"
  },
  {
    "appid": "375950",
    "itemdefid": "6",
    "Timestamp": "2015-08-24T21:49:13.8529025Z",
    "modified": "20150824T214913Z",
    "type": "item",
    "display_type": "",
    "name": "Pachyphytum hookeri",
    "price": "1;USD9",
    "quantity": 0,
    "description": "",
    "background_color": "111111",
    "icon_url": "http://i.imgur.com/C4FxyaV.png",
    "name_color": "FFFFFF",
    "tradable": true,
    "marketable": false,
    "commodity": true,
    "drop_interval": 0,
    "workshopid": "0",
    "item_name": "#PACHYPHYTUM_HOOKERI",
    "item_quality": "1",
    "market_hash_name": "Pachyphytum hookeri",
    "market_name": "Pachyphytum hookeri"
  },
  {
    "appid": "375950",
    "itemdefid": "7",
    "Timestamp": "2015-07-31T17:23:59.6486174Z",
    "modified": "20150731T172359Z",
    "type": "item",
    "display_type": "",
    "name": "Sempervivum",
    "price": "1;USD9",
    "quantity": 0,
    "description": "",
    "background_color": "111111",
    "icon_url": "http://i.imgur.com/Hs9fLke.png",
    "name_color": "FFFFFF",
    "tradable": true,
    "marketable": false,
    "commodity": true,
    "drop_interval": 0,
    "workshopid": "0",
    "item_name": "#SEMPERVIVUM",
    "item_quality": "1",
    "market_hash_name": "Sempervivum",
    "market_name": "Sempervivum"
  },
  {
    "appid": "375950",
    "itemdefid": "8",
    "Timestamp": "2015-08-24T21:49:14.0159222Z",
    "modified": "20150824T214913Z",
    "type": "item",
    "display_type": "",
    "name": "Aloe 'Blue Elf'",
    "price": "1;USD29",
    "quantity": 0,
    "description": "",
    "background_color": "111111",
    "icon_url": "http://i.imgur.com/jh6EmtQ.png",
    "name_color": "FFFFFF",
    "tradable": true,
    "marketable": false,
    "commodity": true,
    "drop_interval": 0,
    "workshopid": "0",
    "item_name": "#ALOE_BLUE_ELF",
    "item_quality": "1",
    "market_hash_name": "Aloe 'Blue Elf'",
    "market_name": "Aloe 'Blue Elf'"
  },
  {
    "appid": "375950",
    "itemdefid": "9",
    "Timestamp": "2015-08-24T21:49:14.1089336Z",
    "modified": "20150824T214913Z",
    "type": "item",
    "display_type": "",
    "name": "Kalanchoe rotundifolia",
    "price": "1;USD19",
    "quantity": 0,
    "description": "",
    "background_color": "111111",
    "icon_url": "http://i.imgur.com/Ja18SAV.png",
    "name_color": "FFFFFF",
    "tradable": true,
    "marketable": false,
    "commodity": true,
    "drop_interval": 0,
    "workshopid": "0",
    "item_name": "#KALANCHOE_ROTUNDIFOLIA",
    "item_quality": "1",
    "market_hash_name": "Kalanchoe rotundifolia",
    "market_name": "Kalanchoe rotundifolia"
  },
  {
    "appid": "375950",
    "itemdefid": "10",
    "Timestamp": "2015-08-24T21:49:14.2019472Z",
    "modified": "20150824T214913Z",
    "type": "item",
    "display_type": "",
    "name": "Echeveria 'Lola'",
    "price": "1;USD9",
    "quantity": 0,
    "description": "",
    "background_color": "111111",
    "icon_url": "http://i.imgur.com/pvIkic2.png",
    "name_color": "FFFFFF",
    "tradable": true,
    "marketable": false,
    "commodity": true,
    "drop_interval": 0,
    "workshopid": "0",
    "item_name": "#ECHEVERIA_LOLA",
    "item_quality": "1",
    "market_hash_name": "Echeveria 'Lola'",
    "market_name": "Echeveria 'Lola'"
  },
  {
    "appid": "375950",
    "itemdefid": "11",
    "Timestamp": "2015-08-24T21:49:14.3249624Z",
    "modified": "20150824T214913Z",
    "type": "item",
    "display_type": "",
    "name": "Sedum pachyphyllum",
    "price": "1;USD9",
    "quantity": 0,
    "description": "",
    "background_color": "111111",
    "icon_url": "http://i.imgur.com/nNKUodi.png",
    "name_color": "FFFFFF",
    "tradable": true,
    "marketable": false,
    "commodity": true,
    "drop_interval": 0,
    "workshopid": "0",
    "item_name": "#SEDUM_PACHYPHYLLUM",
    "item_quality": "1",
    "market_hash_name": "Sedum pachyphyllum",
    "market_name": "Sedum pachyphyllum"
  },
  {
    "appid": "375950",
    "itemdefid": "12",
    "Timestamp": "2015-08-24T21:49:14.4959866Z",
    "modified": "20150824T214914Z",
    "type": "item",
    "display_type": "",
    "name": "Agave 'Blue Glow'",
    "price": "1;USD29",
    "quantity": 0,
    "description": "",
    "background_color": "111111",
    "icon_url": "http://i.imgur.com/fB1UVwz.png",
    "name_color": "FFFFFF",
    "tradable": true,
    "marketable": false,
    "commodity": true,
    "drop_interval": 0,
    "workshopid": "0",
    "item_name": "#AGAVE_BLUE_GLOW",
    "item_quality": "1",
    "market_hash_name": "Agave 'Blue Glow'",
    "market_name": "Agave 'Blue Glow'"
  },
  {
    "appid": "375950",
    "itemdefid": "13",
    "Timestamp": "2015-08-24T21:49:14.6009977Z",
    "modified": "20150824T214914Z",
    "type": "item",
    "display_type": "",
    "name": "Kalanchoe thrysiflora",
    "price": "1;USD19",
    "quantity": 0,
    "description": "",
    "background_color": "111111",
    "icon_url": "http://i.imgur.com/HINoD4s.png",
    "name_color": "FFFFFF",
    "tradable": true,
    "marketable": false,
    "commodity": true,
    "drop_interval": 0,
    "workshopid": "0",
    "item_name": "#KALANCHOE_THRYSIFLORA",
    "item_quality": "1",
    "market_hash_name": "Kalanchoe thrysiflora",
    "market_name": "Kalanchoe thrysiflora"
  },
  {
    "appid": "375950",
    "itemdefid": "14",
    "Timestamp": "2015-10-01T18:07:18.2281604Z",
    "modified": "20151001T180717Z",
    "type": "item",
    "display_type": "",
    "name": "Echeveria runyonii",
    "price": "1;USD9",
    "quantity": 0,
    "description": "",
    "background_color": "111111",
    "icon_url": "http://i.imgur.com/KhwNALe.png",
    "name_color": "FFFFFF",
    "tradable": true,
    "marketable": false,
    "commodity": true,
    "drop_interval": 0,
    "workshopid": "0",
    "item_name": "#ECHEVERIA_RUNYONII",
    "item_quality": "1",
    "market_hash_name": "Echeveria runyonii",
    "market_name": "Echeveria runyonii"
  },
  {
    "appid": "375950",
    "itemdefid": "15",
    "Timestamp": "2015-08-24T21:49:14.835026Z",
    "modified": "20150824T214914Z",
    "type": "item",
    "display_type": "",
    "name": "Cheiridopsis denticulata",
    "price": "1;USD9",
    "quantity": 0,
    "description": "",
    "background_color": "111111",
    "icon_url": "http://i.imgur.com/qiZ7oMZ.png",
    "name_color": "FFFFFF",
    "tradable": true,
    "marketable": false,
    "commodity": true,
    "drop_interval": 0,
    "workshopid": "0",
    "item_name": "#CHEIRIDOPSIS_DENTICULATA",
    "item_quality": "1",
    "market_hash_name": "Cheiridopsis denticulata",
    "market_name": "Cheiridopsis denticulata"
  },
  {
    "appid": "375950",
    "itemdefid": "16",
    "Timestamp": "2015-08-24T21:49:14.9250377Z",
    "modified": "20150824T214914Z",
    "type": "item",
    "display_type": "",
    "name": "Haworthia attenuata",
    "price": "1;USD9",
    "quantity": 0,
    "description": "",
    "background_color": "111111",
    "icon_url": "http://i.imgur.com/uFFxDEe.png",
    "name_color": "FFFFFF",
    "tradable": true,
    "marketable": false,
    "commodity": true,
    "drop_interval": 0,
    "workshopid": "0",
    "item_name": "#HAWORTHIA_ATTENUATA",
    "item_quality": "1",
    "market_hash_name": "Haworthia attenuata",
    "market_name": "Haworthia attenuata"
  },
  {
    "appid": "375950",
    "itemdefid": "17",
    "Timestamp": "2015-08-24T21:49:15.0160474Z",
    "modified": "20150824T214914Z",
    "type": "item",
    "display_type": "",
    "name": "Senecio serpens",
    "price": "1;USD19",
    "quantity": 0,
    "description": "",
    "background_color": "111111",
    "icon_url": "http://i.imgur.com/ERnInVC.png",
    "name_color": "FFFFFF",
    "tradable": true,
    "marketable": false,
    "commodity": true,
    "drop_interval": 0,
    "workshopid": "0",
    "item_name": "#SENECIO_SERPENS",
    "item_quality": "1",
    "market_hash_name": "Senecio serpens",
    "market_name": "Senecio serpens"
  },
  {
    "appid": "375950",
    "itemdefid": "18",
    "Timestamp": "2015-08-24T21:49:15.1100607Z",
    "modified": "20150824T214914Z",
    "type": "item",
    "display_type": "",
    "name": "Agave macroacantha",
    "price": "1;USD29",
    "quantity": 0,
    "description": "",
    "background_color": "111111",
    "icon_url": "http://i.imgur.com/I3qvOF6.png",
    "name_color": "FFFFFF",
    "tradable": true,
    "marketable": false,
    "commodity": true,
    "drop_interval": 0,
    "workshopid": "0",
    "item_name": "#AGAVE_MACROACANTHA",
    "item_quality": "1",
    "market_hash_name": "Agave macroacantha",
    "market_name": "Agave macroacantha"
  },
  {
    "appid": "375950",
    "itemdefid": "19",
    "Timestamp": "2015-08-24T21:49:15.2070741Z",
    "modified": "20150824T214914Z",
    "type": "item",
    "display_type": "",
    "name": "Fenestraria aurantiaca",
    "price": "1;USD9",
    "quantity": 0,
    "description": "",
    "background_color": "111111",
    "icon_url": "http://i.imgur.com/ytagfwe.png",
    "name_color": "FFFFFF",
    "tradable": true,
    "marketable": false,
    "commodity": true,
    "drop_interval": 0,
    "workshopid": "0",
    "item_name": "#FENESTRARIA_AURANTIACA",
    "item_quality": "1",
    "market_hash_name": "Fenestraria aurantiaca",
    "market_name": "Fenestraria aurantiaca"
  },
  {
    "appid": "375950",
    "itemdefid": "20",
    "Timestamp": "2015-08-24T21:49:15.3430901Z",
    "modified": "20150824T214914Z",
    "type": "item",
    "display_type": "",
    "name": "Sedum morganianum",
    "price": "1;USD39",
    "quantity": 0,
    "description": "",
    "background_color": "111111",
    "icon_url": "http://i.imgur.com/Y9Otp7x.png",
    "name_color": "FFFFFF",
    "tradable": true,
    "marketable": false,
    "commodity": true,
    "drop_interval": 0,
    "workshopid": "0",
    "item_name": "#SEDUM_MORGANIANUM",
    "item_quality": "1",
    "market_hash_name": "Sedum morganianum",
    "market_name": "Sedum morganianum"
  },
  {
    "appid": "375950",
    "itemdefid": "21",
    "Timestamp": "2015-08-24T21:49:15.4471034Z",
    "modified": "20150824T214915Z",
    "type": "item",
    "display_type": "",
    "name": "Pachyphytum oviferum",
    "price": "1;USD19",
    "quantity": 0,
    "description": "",
    "background_color": "111111",
    "icon_url": "http://i.imgur.com/6ECB4XM.png",
    "name_color": "FFFFFF",
    "tradable": true,
    "marketable": false,
    "commodity": true,
    "drop_interval": 0,
    "workshopid": "0",
    "item_name": "PACHYPHYTUM_OVIFERUM",
    "item_quality": "1",
    "market_hash_name": "Pachyphytum oviferum",
    "market_name": "Pachyphytum oviferum"
  },
  {
    "appid": "375950",
    "itemdefid": "22",
    "Timestamp": "2015-08-24T21:49:15.5501164Z",
    "modified": "20150824T214915Z",
    "type": "item",
    "display_type": "",
    "name": "Senecio rowleyanus",
    "price": "1;USD39",
    "quantity": 0,
    "description": "",
    "background_color": "111111",
    "icon_url": "http://i.imgur.com/8eQlUjc.png",
    "name_color": "FFFFFF",
    "tradable": true,
    "marketable": false,
    "commodity": true,
    "drop_interval": 0,
    "workshopid": "0",
    "item_name": "#SENECIO_ROWLEYANUS",
    "item_quality": "1",
    "market_hash_name": "Senecio rowleyanus",
    "market_name": "Senecio rowleyanus"
  },
  {
    "appid": "375950",
    "itemdefid": "23",
    "Timestamp": "2015-10-01T18:07:19.0432719Z",
    "modified": "20151001T180718Z",
    "type": "item",
    "display_type": "",
    "name": "Lithops optica 'Rubra'",
    "price": "1;USD9",
    "quantity": 0,
    "description": "",
    "background_color": "111111",
    "icon_url": "http://i.imgur.com/lU7bLQk.png",
    "name_color": "FFFFFF",
    "tradable": true,
    "marketable": false,
    "commodity": true,
    "drop_interval": 0,
    "workshopid": "0",
    "item_name": "#LITHOPS_OPTICA_RUBRA",
    "item_quality": "1",
    "market_hash_name": "Lithops optica 'Rubra'",
    "market_name": "Lithops optica 'Rubra'"
  },
  {
    "appid": "375950",
    "itemdefid": "1000",
    "Timestamp": "2015-08-02T07:07:17.5961519Z",
    "modified": "20150802T070717Z",
    "type": "item",
    "display_type": "",
    "name": "Map to the Grove",
    "price": "1;USD499",
    "quantity": 0,
    "description": "",
    "background_color": "22302b",
    "icon_url": "http://i.imgur.com/TTqNoxL.png",
    "name_color": "FFFFFF",
    "promo": "owns:286140",
    "tradable": true,
    "marketable": false,
    "commodity": true,
    "drop_interval": 0,
    "workshopid": "0",
    "item_name": "#GROVEMAP",
    "item_quality": "1",
    "market_hash_name": "Map to the Grove",
    "market_name": "Map to the Grove"
  },
  {
    "appid": "375950",
    "itemdefid": "1001",
    "Timestamp": "2015-10-05T15:57:03.0346505Z",
    "modified": "20151005T155702Z",
    "type": "item",
    "display_type": "",
    "name": "Fish Skellie to the Cat House",
    "price": "1;USD299",
    "quantity": 0,
    "description": "",
    "background_color": "22302b",
    "icon_url": "http://i.imgur.com/uughsmL.png",
    "name_color": "FFFFFF",
    "tradable": true,
    "marketable": false,
    "commodity": true,
    "drop_interval": 0,
    "workshopid": "0",
    "item_name": "#CATHOUSE",
    "item_quality": "1",
    "market_hash_name": "Fish Skellie to the Cat House",
    "market_name": "Fish Skellie to the Cat House"
  },
  {
    "appid": "375950",
    "itemdefid": "1002",
    "Timestamp": "2016-06-14T21:10:13.0542043Z",
    "modified": "20160614T211013Z",
    "type": "item",
    "display_type": "",
    "name": "Key to the Apartment",
    "price": "1;USD499",
    "quantity": 0,
    "description": "",
    "background_color": "22302b",
    "icon_url": "http://i.imgur.com/XetKZsK.png",
    "name_color": "FFFFFF",
    "tradable": true,
    "marketable": false,
    "commodity": true,
    "drop_interval": 0,
    "workshopid": "0",
    "item_name": "#APARTMENT",
    "item_quality": "1"
  }
]