﻿{
  "Dlcs": {},
  "Name": "DIVE: Starpath",
  "AppId": "475070",
  "ImageUrl": "https://steamcdn-a.akamaihd.net/steam/apps/475070/header.jpg?t=1528847427",
  "Languages": [
    "english"
  ],
  "Platforms": {
    "windows": true,
    "mac": false,
    "linux": false
  }
}