﻿[
  {
    "name": "ACH_PASS_ICO",
    "defaultvalue": 0,
    "displayName": "ICO",
    "hidden": 0,
    "description": "Cleared Planet Ico",
    "icon": "https://steamcdn-a.akamaihd.net/steamcommunity/public/images/apps/475070/76ba155feb689d198db82d1fec8306a3961357a9.jpg",
    "icongray": "https://steamcdn-a.akamaihd.net/steamcommunity/public/images/apps/475070/ef5e6aa91d7624975739d68889bf089ec98a8ffd.jpg"
  },
  {
    "name": "ACH_PASS_AMASIA",
    "defaultvalue": 0,
    "displayName": "AMASIA",
    "hidden": 0,
    "description": "Cleared Planet Amasia",
    "icon": "https://steamcdn-a.akamaihd.net/steamcommunity/public/images/apps/475070/7d1537451ecef2907ba41af3371385fe9b0d64ab.jpg",
    "icongray": "https://steamcdn-a.akamaihd.net/steamcommunity/public/images/apps/475070/d1f0d330c878bfe77e9562950509439294d93722.jpg"
  },
  {
    "name": "ACH_PASS_ZURA",
    "defaultvalue": 0,
    "displayName": "ZURA",
    "hidden": 0,
    "description": "Cleared Planet Zura",
    "icon": "https://steamcdn-a.akamaihd.net/steamcommunity/public/images/apps/475070/d5cddaef925491e2e39bd49ad8d060c5507a9f0d.jpg",
    "icongray": "https://steamcdn-a.akamaihd.net/steamcommunity/public/images/apps/475070/c57eade47add37b44361cf2a6b9a4e6f2d8f1ca3.jpg"
  },
  {
    "name": "ACH_PASS_AITESSE",
    "defaultvalue": 0,
    "displayName": "AITESSE",
    "hidden": 0,
    "description": "Cleared Planet Aitesse",
    "icon": "https://steamcdn-a.akamaihd.net/steamcommunity/public/images/apps/475070/be1609f56c05b3ef103f7eb626aaefbea4f66dbd.jpg",
    "icongray": "https://steamcdn-a.akamaihd.net/steamcommunity/public/images/apps/475070/852beed6a7c0ea2b01b2e29894e08e10f6e7bac6.jpg"
  },
  {
    "name": "ACH_PASS_MEDEINA",
    "defaultvalue": 0,
    "displayName": "MEDEINA",
    "hidden": 0,
    "description": "Cleared Planet Medeina",
    "icon": "https://steamcdn-a.akamaihd.net/steamcommunity/public/images/apps/475070/78851a5c26d84d612b4e49fe8070362b3f81d914.jpg",
    "icongray": "https://steamcdn-a.akamaihd.net/steamcommunity/public/images/apps/475070/68a43161acad0bc62fca29f3a9adbb4581b48bfb.jpg"
  },
  {
    "name": "ACH_POST_CREDITS",
    "defaultvalue": 0,
    "displayName": "NAVIGATOR",
    "hidden": 0,
    "description": "Cleared the end credits",
    "icon": "https://steamcdn-a.akamaihd.net/steamcommunity/public/images/apps/475070/981eedef3a4623c5ec3c3088f36abf8f6322e3fb.jpg",
    "icongray": "https://steamcdn-a.akamaihd.net/steamcommunity/public/images/apps/475070/0c740412f9b17be2b700b33becc2dfdd0813a226.jpg"
  },
  {
    "name": "ACH_CREDITS_CHECK",
    "defaultvalue": 0,
    "displayName": "EXPLORER",
    "hidden": 1,
    "icon": "https://steamcdn-a.akamaihd.net/steamcommunity/public/images/apps/475070/92bddcedd39babd794cd99c572ae27d2df48cdd5.jpg",
    "icongray": "https://steamcdn-a.akamaihd.net/steamcommunity/public/images/apps/475070/722f9412b9f8ab5fc52c2f1ab7d76a1df1f240cd.jpg"
  },
  {
    "name": "ACH_ACE_ICO",
    "defaultvalue": 0,
    "displayName": "ICO ACE",
    "hidden": 0,
    "description": "Cleared Ico in one shot",
    "icon": "https://steamcdn-a.akamaihd.net/steamcommunity/public/images/apps/475070/b48388317e6077f58d92565312899d9416cb6b44.jpg",
    "icongray": "https://steamcdn-a.akamaihd.net/steamcommunity/public/images/apps/475070/25e0ed40a070a6f73a8c574a36680e6aa4ed1455.jpg"
  },
  {
    "name": "ACH_ACE_AMASIA",
    "defaultvalue": 0,
    "displayName": "AMASIA ACE",
    "hidden": 0,
    "description": "Cleared Amasia in one shot",
    "icon": "https://steamcdn-a.akamaihd.net/steamcommunity/public/images/apps/475070/4f3297e9760231424c8f1bf10984d92b8f2ec5e1.jpg",
    "icongray": "https://steamcdn-a.akamaihd.net/steamcommunity/public/images/apps/475070/0c2b9df9c3f9a566f24c57fbe6101e24c2512ef0.jpg"
  },
  {
    "name": "ACH_ACE_ZURA",
    "defaultvalue": 0,
    "displayName": "ZURA ACE",
    "hidden": 0,
    "description": "Cleared Zura in one shot",
    "icon": "https://steamcdn-a.akamaihd.net/steamcommunity/public/images/apps/475070/f823f71bcd001f0cb45a521fcf21d88c8d9bcea6.jpg",
    "icongray": "https://steamcdn-a.akamaihd.net/steamcommunity/public/images/apps/475070/ff803a9409b3ecc5e43fb24e095476671773eb36.jpg"
  },
  {
    "name": "ACH_ACE_AITESSE",
    "defaultvalue": 0,
    "displayName": "AITESSE ACE",
    "hidden": 0,
    "description": "Cleared Aitesse in one shot",
    "icon": "https://steamcdn-a.akamaihd.net/steamcommunity/public/images/apps/475070/5064f23d17334c854e497d1a1d67223f2a4e834e.jpg",
    "icongray": "https://steamcdn-a.akamaihd.net/steamcommunity/public/images/apps/475070/d8c02ec30c039b14a0fd4fc28b424df2eeb9e109.jpg"
  },
  {
    "name": "ACH_ACE_MEDEINA",
    "defaultvalue": 0,
    "displayName": "MEDEINA ACE",
    "hidden": 0,
    "description": "Cleared Medeina in one shot",
    "icon": "https://steamcdn-a.akamaihd.net/steamcommunity/public/images/apps/475070/ce1aa51359ab87fb75d8233cd47b6c9967320515.jpg",
    "icongray": "https://steamcdn-a.akamaihd.net/steamcommunity/public/images/apps/475070/186f66558ee0851139b72d23be2edf8dad1e6f53.jpg"
  }
]