﻿{
  "Dlcs": {},
  "Name": "God Test",
  "AppId": "797660",
  "ImageUrl": "https://steamcdn-a.akamaihd.net/steam/apps/797660/header.jpg?t=1548026610",
  "Languages": [
    "tchinese",
    "english",
    "schinese"
  ],
  "Platforms": {
    "windows": true,
    "mac": false,
    "linux": false
  }
}