﻿{
  "Dlcs": {},
  "Name": "Eye of the Owl - Bosch VR",
  "AppId": "420020",
  "ImageUrl": "https://steamcdn-a.akamaihd.net/steam/apps/420020/header.jpg?t=1563483048",
  "Languages": [
    "english"
  ],
  "Platforms": {
    "windows": true,
    "mac": false,
    "linux": false
  }
}