﻿{
  "Dlcs": {},
  "Name": "A Wolf in Autumn",
  "AppId": "395270",
  "ImageUrl": "https://steamcdn-a.akamaihd.net/steam/apps/395270/header.jpg?t=1568862046",
  "Languages": [
    "english"
  ],
  "Platforms": {
    "windows": true,
    "mac": false,
    "linux": false
  }
}