﻿{
  "Dlcs": {
    "353000": {
      "Name": "Invisible Apartment - Soundtrack & artwork",
      "ImageUrl": "https://steamcdn-a.akamaihd.net/steam/apps/353000/header.jpg?t=1476985098"
    },
    "532060": {
      "Name": "Invisible Apartment 3",
      "ImageUrl": "https://steamcdn-a.akamaihd.net/steam/apps/532060/header.jpg?t=1482352085"
    },
    "543220": {
      "Name": "Invisible Apartment 2",
      "ImageUrl": "https://steamcdn-a.akamaihd.net/steam/apps/543220/header.jpg?t=1484598675"
    },
    "543230": {
      "Name": "Invisible Apartment Zero",
      "ImageUrl": "https://steamcdn-a.akamaihd.net/steam/apps/543230/header.jpg?t=1476727782"
    }
  },
  "Name": "Invisible Apartment",
  "AppId": "351790",
  "ImageUrl": "https://steamcdn-a.akamaihd.net/steam/apps/351790/header.jpg?t=1506359783",
  "Languages": [
    "english"
  ],
  "Platforms": {
    "windows": true,
    "mac": true,
    "linux": true
  }
}