﻿{
  "Dlcs": {},
  "Name": "Eron",
  "AppId": "356880",
  "ImageUrl": "https://steamcdn-a.akamaihd.net/steam/apps/356880/header.jpg?t=1529066012",
  "Languages": [
    "english"
  ],
  "Platforms": {
    "windows": true,
    "mac": false,
    "linux": true
  }
}