﻿[
  {
    "name": "10 new moves",
    "defaultvalue": 0,
    "displayName": "Viking Slayer",
    "hidden": 0,
    "description": "Master a total of 8 new moves",
    "icon": "https://steamcdn-a.akamaihd.net/steamcommunity/public/images/apps/211160/bc7b3d0f172abbb2c43f35031235d13f0497dfe5.jpg",
    "icongray": "https://steamcdn-a.akamaihd.net/steamcommunity/public/images/apps/211160/b02c729fccfc93b3893056d3ccc581bb5610bef9.jpg"
  },
  {
    "name": "15 new moves",
    "defaultvalue": 0,
    "displayName": "Viking Warrior",
    "hidden": 0,
    "description": "Master a total of 12 new moves",
    "icon": "https://steamcdn-a.akamaihd.net/steamcommunity/public/images/apps/211160/bc7b3d0f172abbb2c43f35031235d13f0497dfe5.jpg",
    "icongray": "https://steamcdn-a.akamaihd.net/steamcommunity/public/images/apps/211160/b02c729fccfc93b3893056d3ccc581bb5610bef9.jpg"
  },
  {
    "name": "1st new move",
    "defaultvalue": 0,
    "displayName": "Viking Butcher",
    "hidden": 0,
    "description": "Master the first new move at the Battle Arena",
    "icon": "https://steamcdn-a.akamaihd.net/steamcommunity/public/images/apps/211160/bc7b3d0f172abbb2c43f35031235d13f0497dfe5.jpg",
    "icongray": "https://steamcdn-a.akamaihd.net/steamcommunity/public/images/apps/211160/b02c729fccfc93b3893056d3ccc581bb5610bef9.jpg"
  },
  {
    "name": "20 champion kills",
    "defaultvalue": 0,
    "displayName": "Killer of Champions",
    "hidden": 0,
    "description": "Kill 10 Champions",
    "icon": "https://steamcdn-a.akamaihd.net/steamcommunity/public/images/apps/211160/01b0354ca33f1645094aeab331c059412d7572d0.jpg",
    "icongray": "https://steamcdn-a.akamaihd.net/steamcommunity/public/images/apps/211160/e1726f9bace0bd7cd9a7103aee8b1b00427fadb6.jpg"
  },
  {
    "name": "20 giant kills",
    "defaultvalue": 0,
    "displayName": "Killer of Giants",
    "hidden": 0,
    "description": "Kill 5 Giants",
    "icon": "https://steamcdn-a.akamaihd.net/steamcommunity/public/images/apps/211160/01b0354ca33f1645094aeab331c059412d7572d0.jpg",
    "icongray": "https://steamcdn-a.akamaihd.net/steamcommunity/public/images/apps/211160/e1726f9bace0bd7cd9a7103aee8b1b00427fadb6.jpg"
  },
  {
    "name": "5 new moves",
    "defaultvalue": 0,
    "displayName": "Viking Slaughterer",
    "hidden": 0,
    "description": "Learn a total of 4 new moves",
    "icon": "https://steamcdn-a.akamaihd.net/steamcommunity/public/images/apps/211160/bc7b3d0f172abbb2c43f35031235d13f0497dfe5.jpg",
    "icongray": "https://steamcdn-a.akamaihd.net/steamcommunity/public/images/apps/211160/b02c729fccfc93b3893056d3ccc581bb5610bef9.jpg"
  },
  {
    "name": "all new moves",
    "defaultvalue": 0,
    "displayName": "Viking Blademaster",
    "hidden": 0,
    "description": "Learn all the moves in the game",
    "icon": "https://steamcdn-a.akamaihd.net/steamcommunity/public/images/apps/211160/bc7b3d0f172abbb2c43f35031235d13f0497dfe5.jpg",
    "icongray": "https://steamcdn-a.akamaihd.net/steamcommunity/public/images/apps/211160/b02c729fccfc93b3893056d3ccc581bb5610bef9.jpg"
  },
  {
    "name": "axe throwing",
    "defaultvalue": 0,
    "displayName": "Deadly Axe Juggler",
    "hidden": 0,
    "description": "Kill 5 Legion just using Throwing axes",
    "icon": "https://steamcdn-a.akamaihd.net/steamcommunity/public/images/apps/211160/bc7b3d0f172abbb2c43f35031235d13f0497dfe5.jpg",
    "icongray": "https://steamcdn-a.akamaihd.net/steamcommunity/public/images/apps/211160/b02c729fccfc93b3893056d3ccc581bb5610bef9.jpg"
  },
  {
    "name": "battle hels fortress perfect",
    "defaultvalue": 0,
    "displayName": "No Need For Immortality",
    "hidden": 0,
    "description": "Lead your army to victory at Hel's Fortress without need for immortality",
    "icon": "https://steamcdn-a.akamaihd.net/steamcommunity/public/images/apps/211160/01b0354ca33f1645094aeab331c059412d7572d0.jpg",
    "icongray": "https://steamcdn-a.akamaihd.net/steamcommunity/public/images/apps/211160/e1726f9bace0bd7cd9a7103aee8b1b00427fadb6.jpg"
  },
  {
    "name": "battle kill 100 legion",
    "defaultvalue": 0,
    "displayName": "Lust For Blood",
    "hidden": 0,
    "description": "Kill 100 Legion soldiers",
    "icon": "https://steamcdn-a.akamaihd.net/steamcommunity/public/images/apps/211160/01b0354ca33f1645094aeab331c059412d7572d0.jpg",
    "icongray": "https://steamcdn-a.akamaihd.net/steamcommunity/public/images/apps/211160/e1726f9bace0bd7cd9a7103aee8b1b00427fadb6.jpg"
  },
  {
    "name": "battle kill 200 legion",
    "defaultvalue": 0,
    "displayName": "Berzerker",
    "hidden": 0,
    "description": "Kill 200 Legion soldiers",
    "icon": "https://steamcdn-a.akamaihd.net/steamcommunity/public/images/apps/211160/bc7b3d0f172abbb2c43f35031235d13f0497dfe5.jpg",
    "icongray": "https://steamcdn-a.akamaihd.net/steamcommunity/public/images/apps/211160/b02c729fccfc93b3893056d3ccc581bb5610bef9.jpg"
  },
  {
    "name": "battle kill 50 legion",
    "defaultvalue": 0,
    "displayName": "Thirst For Blood",
    "hidden": 0,
    "description": "Kill 50 Legion soldiers",
    "icon": "https://steamcdn-a.akamaihd.net/steamcommunity/public/images/apps/211160/01b0354ca33f1645094aeab331c059412d7572d0.jpg",
    "icongray": "https://steamcdn-a.akamaihd.net/steamcommunity/public/images/apps/211160/e1726f9bace0bd7cd9a7103aee8b1b00427fadb6.jpg"
  },
  {
    "name": "battle kill 500 legion",
    "defaultvalue": 0,
    "displayName": "Slaughter Master",
    "hidden": 0,
    "description": "Kill 500 Legion soldiers",
    "icon": "https://steamcdn-a.akamaihd.net/steamcommunity/public/images/apps/211160/bc7b3d0f172abbb2c43f35031235d13f0497dfe5.jpg",
    "icongray": "https://steamcdn-a.akamaihd.net/steamcommunity/public/images/apps/211160/b02c729fccfc93b3893056d3ccc581bb5610bef9.jpg"
  },
  {
    "name": "battle of caldberg",
    "defaultvalue": 0,
    "displayName": "Hero Of Caldberg",
    "hidden": 0,
    "description": "Lead your army to victory at the battle for Caldberg",
    "icon": "https://steamcdn-a.akamaihd.net/steamcommunity/public/images/apps/211160/325d9109c320e33391352c01d570569144a34c95.jpg",
    "icongray": "https://steamcdn-a.akamaihd.net/steamcommunity/public/images/apps/211160/be3525a2f70c4d14606154849d25e43c9e4dfed3.jpg"
  },
  {
    "name": "battle of darkwater",
    "defaultvalue": 0,
    "displayName": "Hero Of Darkwater",
    "hidden": 0,
    "description": "Lead your army to victory at the battle for Darkwater",
    "icon": "https://steamcdn-a.akamaihd.net/steamcommunity/public/images/apps/211160/325d9109c320e33391352c01d570569144a34c95.jpg",
    "icongray": "https://steamcdn-a.akamaihd.net/steamcommunity/public/images/apps/211160/be3525a2f70c4d14606154849d25e43c9e4dfed3.jpg"
  },
  {
    "name": "battle of hels fortress",
    "defaultvalue": 0,
    "displayName": "Hero Of Midgard",
    "hidden": 0,
    "description": "Lead your army to victory at the final battle for all Midgard",
    "icon": "https://steamcdn-a.akamaihd.net/steamcommunity/public/images/apps/211160/325d9109c320e33391352c01d570569144a34c95.jpg",
    "icongray": "https://steamcdn-a.akamaihd.net/steamcommunity/public/images/apps/211160/be3525a2f70c4d14606154849d25e43c9e4dfed3.jpg"
  },
  {
    "name": "battle of holdenfort",
    "defaultvalue": 0,
    "displayName": "Hero Of Holdenfort",
    "hidden": 0,
    "description": "Lead your army to victory at the battle for Holdenfort",
    "icon": "https://steamcdn-a.akamaihd.net/steamcommunity/public/images/apps/211160/325d9109c320e33391352c01d570569144a34c95.jpg",
    "icongray": "https://steamcdn-a.akamaihd.net/steamcommunity/public/images/apps/211160/be3525a2f70c4d14606154849d25e43c9e4dfed3.jpg"
  },
  {
    "name": "battle of thornvik",
    "defaultvalue": 0,
    "displayName": "Hero Of Thornvik",
    "hidden": 0,
    "description": "Lead your army to victory at the battle for Thornvik",
    "icon": "https://steamcdn-a.akamaihd.net/steamcommunity/public/images/apps/211160/325d9109c320e33391352c01d570569144a34c95.jpg",
    "icongray": "https://steamcdn-a.akamaihd.net/steamcommunity/public/images/apps/211160/be3525a2f70c4d14606154849d25e43c9e4dfed3.jpg"
  },
  {
    "name": "buff 500 plus allies",
    "defaultvalue": 0,
    "displayName": "Friend Of The People",
    "hidden": 0,
    "description": "Power-up over 500 Vikings in your armies with runic magic",
    "icon": "https://steamcdn-a.akamaihd.net/steamcommunity/public/images/apps/211160/bc7b3d0f172abbb2c43f35031235d13f0497dfe5.jpg",
    "icongray": "https://steamcdn-a.akamaihd.net/steamcommunity/public/images/apps/211160/b02c729fccfc93b3893056d3ccc581bb5610bef9.jpg"
  },
  {
    "name": "champion perfect kill",
    "defaultvalue": 0,
    "displayName": "The Perfect Killer",
    "hidden": 0,
    "description": "Kill a Legion Champion without being hit",
    "icon": "https://steamcdn-a.akamaihd.net/steamcommunity/public/images/apps/211160/01b0354ca33f1645094aeab331c059412d7572d0.jpg",
    "icongray": "https://steamcdn-a.akamaihd.net/steamcommunity/public/images/apps/211160/e1726f9bace0bd7cd9a7103aee8b1b00427fadb6.jpg"
  },
  {
    "name": "cliff kills",
    "defaultvalue": 0,
    "displayName": "Euthanasia Euphoria",
    "hidden": 0,
    "description": "Use your defensive bash to knock your Legion foes to their doom!",
    "icon": "https://steamcdn-a.akamaihd.net/steamcommunity/public/images/apps/211160/bc7b3d0f172abbb2c43f35031235d13f0497dfe5.jpg",
    "icongray": "https://steamcdn-a.akamaihd.net/steamcommunity/public/images/apps/211160/b02c729fccfc93b3893056d3ccc581bb5610bef9.jpg"
  },
  {
    "name": "complete game easy level",
    "defaultvalue": 0,
    "displayName": "Viking Conqueror Normal",
    "hidden": 0,
    "description": "Reach the end of the game on normal difficulty",
    "icon": "https://steamcdn-a.akamaihd.net/steamcommunity/public/images/apps/211160/203bb0d1f37dfafde90291a623a61122b48ee3b5.jpg",
    "icongray": "https://steamcdn-a.akamaihd.net/steamcommunity/public/images/apps/211160/8c566fc07405ec467f5fb3f4326f11e3a07ffd9c.jpg"
  },
  {
    "name": "complete game hard level",
    "defaultvalue": 0,
    "displayName": "Viking Conqueror Hard",
    "hidden": 0,
    "description": "Reach the end of the game on hard difficulty",
    "icon": "https://steamcdn-a.akamaihd.net/steamcommunity/public/images/apps/211160/203bb0d1f37dfafde90291a623a61122b48ee3b5.jpg",
    "icongray": "https://steamcdn-a.akamaihd.net/steamcommunity/public/images/apps/211160/8c566fc07405ec467f5fb3f4326f11e3a07ffd9c.jpg"
  },
  {
    "name": "flame pot killer",
    "defaultvalue": 0,
    "displayName": "The Flames of Freya",
    "hidden": 0,
    "description": "Buy flamepots and incinerate 10 Legion soldiers with them",
    "icon": "https://steamcdn-a.akamaihd.net/steamcommunity/public/images/apps/211160/01b0354ca33f1645094aeab331c059412d7572d0.jpg",
    "icongray": "https://steamcdn-a.akamaihd.net/steamcommunity/public/images/apps/211160/e1726f9bace0bd7cd9a7103aee8b1b00427fadb6.jpg"
  },
  {
    "name": "infiltrate darkwater",
    "defaultvalue": 0,
    "displayName": "Secretive Rogue",
    "hidden": 0,
    "description": "Complete the quest to sneak into Darkwater",
    "icon": "https://steamcdn-a.akamaihd.net/steamcommunity/public/images/apps/211160/bbd74c08b7ec229584854c7715debdf0f69de684.jpg",
    "icongray": "https://steamcdn-a.akamaihd.net/steamcommunity/public/images/apps/211160/2560608985447f14c4d43ad74531a32eae88c0a9.jpg"
  },
  {
    "name": "kill an assassin",
    "defaultvalue": 0,
    "displayName": "Assassin of Assassins",
    "hidden": 0,
    "description": "Locate and kill a Legion Assassin",
    "icon": "https://steamcdn-a.akamaihd.net/steamcommunity/public/images/apps/211160/01b0354ca33f1645094aeab331c059412d7572d0.jpg",
    "icongray": "https://steamcdn-a.akamaihd.net/steamcommunity/public/images/apps/211160/e1726f9bace0bd7cd9a7103aee8b1b00427fadb6.jpg"
  },
  {
    "name": "kill champion",
    "defaultvalue": 0,
    "displayName": "Champion of Champions",
    "hidden": 0,
    "description": "Find and defeat a Legion Champion",
    "icon": "https://steamcdn-a.akamaihd.net/steamcommunity/public/images/apps/211160/01b0354ca33f1645094aeab331c059412d7572d0.jpg",
    "icongray": "https://steamcdn-a.akamaihd.net/steamcommunity/public/images/apps/211160/e1726f9bace0bd7cd9a7103aee8b1b00427fadb6.jpg"
  },
  {
    "name": "kill giant",
    "defaultvalue": 0,
    "displayName": "Giant Killer",
    "hidden": 0,
    "description": "Find and slaughter a Legion Giant ",
    "icon": "https://steamcdn-a.akamaihd.net/steamcommunity/public/images/apps/211160/01b0354ca33f1645094aeab331c059412d7572d0.jpg",
    "icongray": "https://steamcdn-a.akamaihd.net/steamcommunity/public/images/apps/211160/e1726f9bace0bd7cd9a7103aee8b1b00427fadb6.jpg"
  },
  {
    "name": "level 1 complete easy",
    "defaultvalue": 0,
    "displayName": "Savior of Niflberg Normal",
    "hidden": 0,
    "description": "Liberate Niflberg completely on the normal difficulty level",
    "icon": "https://steamcdn-a.akamaihd.net/steamcommunity/public/images/apps/211160/203bb0d1f37dfafde90291a623a61122b48ee3b5.jpg",
    "icongray": "https://steamcdn-a.akamaihd.net/steamcommunity/public/images/apps/211160/8c566fc07405ec467f5fb3f4326f11e3a07ffd9c.jpg"
  },
  {
    "name": "level 1 complete hard",
    "defaultvalue": 0,
    "displayName": "Savior of Niflberg Hard",
    "hidden": 0,
    "description": "Liberate Niflberg completely on the hard difficulty level",
    "icon": "https://steamcdn-a.akamaihd.net/steamcommunity/public/images/apps/211160/203bb0d1f37dfafde90291a623a61122b48ee3b5.jpg",
    "icongray": "https://steamcdn-a.akamaihd.net/steamcommunity/public/images/apps/211160/8c566fc07405ec467f5fb3f4326f11e3a07ffd9c.jpg"
  },
  {
    "name": "level 1 dragon",
    "defaultvalue": 0,
    "displayName": "Dragon Summoner",
    "hidden": 0,
    "description": "Find and charge the dragon gem Hugin and dragon amulet, and summon a dragon",
    "icon": "https://steamcdn-a.akamaihd.net/steamcommunity/public/images/apps/211160/bc7b3d0f172abbb2c43f35031235d13f0497dfe5.jpg",
    "icongray": "https://steamcdn-a.akamaihd.net/steamcommunity/public/images/apps/211160/b02c729fccfc93b3893056d3ccc581bb5610bef9.jpg"
  },
  {
    "name": "level 1 hidden packages",
    "defaultvalue": 0,
    "displayName": "Skullbagger 1",
    "hidden": 0,
    "description": "Collect the 6 skulls in Darkwater",
    "icon": "https://steamcdn-a.akamaihd.net/steamcommunity/public/images/apps/211160/31aedf136305f7e51fc5049a2ee50c18f6461334.jpg",
    "icongray": "https://steamcdn-a.akamaihd.net/steamcommunity/public/images/apps/211160/b7b6e69e5a5085745b67fc477b53722a582660c1.jpg"
  },
  {
    "name": "level 1 suppliers freed",
    "defaultvalue": 0,
    "displayName": "Niflberg Supplies Freed",
    "hidden": 0,
    "description": "Liberate the farm and the quarry in Niflberg",
    "icon": "https://steamcdn-a.akamaihd.net/steamcommunity/public/images/apps/211160/bbd74c08b7ec229584854c7715debdf0f69de684.jpg",
    "icongray": "https://steamcdn-a.akamaihd.net/steamcommunity/public/images/apps/211160/2560608985447f14c4d43ad74531a32eae88c0a9.jpg"
  },
  {
    "name": "level 2 complete easy",
    "defaultvalue": 0,
    "displayName": "Redeemer Of Galcliff Normal",
    "hidden": 0,
    "description": "Liberate Galcliff completely on the normal difficulty level",
    "icon": "https://steamcdn-a.akamaihd.net/steamcommunity/public/images/apps/211160/203bb0d1f37dfafde90291a623a61122b48ee3b5.jpg",
    "icongray": "https://steamcdn-a.akamaihd.net/steamcommunity/public/images/apps/211160/8c566fc07405ec467f5fb3f4326f11e3a07ffd9c.jpg"
  },
  {
    "name": "level 2 complete hard",
    "defaultvalue": 0,
    "displayName": "Redeemer of Galcliff Hard",
    "hidden": 0,
    "description": "Liberate Galcliff completely on the hard difficulty level",
    "icon": "https://steamcdn-a.akamaihd.net/steamcommunity/public/images/apps/211160/203bb0d1f37dfafde90291a623a61122b48ee3b5.jpg",
    "icongray": "https://steamcdn-a.akamaihd.net/steamcommunity/public/images/apps/211160/8c566fc07405ec467f5fb3f4326f11e3a07ffd9c.jpg"
  },
  {
    "name": "level 2 dragon",
    "defaultvalue": 0,
    "displayName": "Dragon Master",
    "hidden": 0,
    "description": "Complete the second dragon gem, and summon a dragon",
    "icon": "https://steamcdn-a.akamaihd.net/steamcommunity/public/images/apps/211160/bc7b3d0f172abbb2c43f35031235d13f0497dfe5.jpg",
    "icongray": "https://steamcdn-a.akamaihd.net/steamcommunity/public/images/apps/211160/b02c729fccfc93b3893056d3ccc581bb5610bef9.jpg"
  },
  {
    "name": "level 2 hidden packages",
    "defaultvalue": 0,
    "displayName": "Skullbagger 2",
    "hidden": 0,
    "description": "Collect the 6 skulls in Holdenfort and the 6 skulls in Caldberg",
    "icon": "https://steamcdn-a.akamaihd.net/steamcommunity/public/images/apps/211160/31aedf136305f7e51fc5049a2ee50c18f6461334.jpg",
    "icongray": "https://steamcdn-a.akamaihd.net/steamcommunity/public/images/apps/211160/b7b6e69e5a5085745b67fc477b53722a582660c1.jpg"
  },
  {
    "name": "level 2 kill harbinger",
    "defaultvalue": 0,
    "displayName": "Demon's Nemesis",
    "hidden": 0,
    "description": "Kill Hel's Harbinger Drakan",
    "icon": "https://steamcdn-a.akamaihd.net/steamcommunity/public/images/apps/211160/bbd74c08b7ec229584854c7715debdf0f69de684.jpg",
    "icongray": "https://steamcdn-a.akamaihd.net/steamcommunity/public/images/apps/211160/2560608985447f14c4d43ad74531a32eae88c0a9.jpg"
  },
  {
    "name": "level 2 suppliers freed",
    "defaultvalue": 0,
    "displayName": "Galcliff Supplies Freed",
    "hidden": 0,
    "description": "Liberate the farm, still, lumber mill, and the quarry in Galcliff",
    "icon": "https://steamcdn-a.akamaihd.net/steamcommunity/public/images/apps/211160/bbd74c08b7ec229584854c7715debdf0f69de684.jpg",
    "icongray": "https://steamcdn-a.akamaihd.net/steamcommunity/public/images/apps/211160/2560608985447f14c4d43ad74531a32eae88c0a9.jpg"
  },
  {
    "name": "level 3 assassination",
    "defaultvalue": 0,
    "displayName": "Death King",
    "hidden": 0,
    "description": "Finish off 150 Legion with fatality moves",
    "icon": "https://steamcdn-a.akamaihd.net/steamcommunity/public/images/apps/211160/01b0354ca33f1645094aeab331c059412d7572d0.jpg",
    "icongray": "https://steamcdn-a.akamaihd.net/steamcommunity/public/images/apps/211160/e1726f9bace0bd7cd9a7103aee8b1b00427fadb6.jpg"
  },
  {
    "name": "level 3 dragon",
    "defaultvalue": 0,
    "displayName": "Dragon Overlord",
    "hidden": 0,
    "description": "Recover the final dragon gem, and summon a dragon",
    "icon": "https://steamcdn-a.akamaihd.net/steamcommunity/public/images/apps/211160/bc7b3d0f172abbb2c43f35031235d13f0497dfe5.jpg",
    "icongray": "https://steamcdn-a.akamaihd.net/steamcommunity/public/images/apps/211160/b02c729fccfc93b3893056d3ccc581bb5610bef9.jpg"
  },
  {
    "name": "level 3 hidden packages",
    "defaultvalue": 0,
    "displayName": "Skullbagger 3",
    "hidden": 0,
    "description": "Collect all the 4 skulls in Thornvik",
    "icon": "https://steamcdn-a.akamaihd.net/steamcommunity/public/images/apps/211160/31aedf136305f7e51fc5049a2ee50c18f6461334.jpg",
    "icongray": "https://steamcdn-a.akamaihd.net/steamcommunity/public/images/apps/211160/b7b6e69e5a5085745b67fc477b53722a582660c1.jpg"
  },
  {
    "name": "level 3 suppliers freed",
    "defaultvalue": 0,
    "displayName": "Isaholm Supplies Freed",
    "hidden": 0,
    "description": "Liberate the farm, still, lumber mill, and the quarry in Isaholm",
    "icon": "https://steamcdn-a.akamaihd.net/steamcommunity/public/images/apps/211160/bbd74c08b7ec229584854c7715debdf0f69de684.jpg",
    "icongray": "https://steamcdn-a.akamaihd.net/steamcommunity/public/images/apps/211160/2560608985447f14c4d43ad74531a32eae88c0a9.jpg"
  },
  {
    "name": "no health potions awarded",
    "defaultvalue": 0,
    "displayName": "Blinded To Fear",
    "hidden": 0,
    "description": "Kill 50 Legion without using a health potion",
    "icon": "https://steamcdn-a.akamaihd.net/steamcommunity/public/images/apps/211160/bc7b3d0f172abbb2c43f35031235d13f0497dfe5.jpg",
    "icongray": "https://steamcdn-a.akamaihd.net/steamcommunity/public/images/apps/211160/b02c729fccfc93b3893056d3ccc581bb5610bef9.jpg"
  },
  {
    "name": "perform 100 fatalities",
    "defaultvalue": 0,
    "displayName": "Demon Eviscerator",
    "hidden": 0,
    "description": "Finish off 100 Legion with fatality moves",
    "icon": "https://steamcdn-a.akamaihd.net/steamcommunity/public/images/apps/211160/01b0354ca33f1645094aeab331c059412d7572d0.jpg",
    "icongray": "https://steamcdn-a.akamaihd.net/steamcommunity/public/images/apps/211160/e1726f9bace0bd7cd9a7103aee8b1b00427fadb6.jpg"
  },
  {
    "name": "perform 100 sneak kills",
    "defaultvalue": 0,
    "displayName": "They Never Saw Me Coming",
    "hidden": 0,
    "description": "Execute 100 sneaky kills",
    "icon": "https://steamcdn-a.akamaihd.net/steamcommunity/public/images/apps/211160/bc7b3d0f172abbb2c43f35031235d13f0497dfe5.jpg",
    "icongray": "https://steamcdn-a.akamaihd.net/steamcommunity/public/images/apps/211160/b02c729fccfc93b3893056d3ccc581bb5610bef9.jpg"
  },
  {
    "name": "perform 25 fatalities",
    "defaultvalue": 0,
    "displayName": "Demon Hacker",
    "hidden": 0,
    "description": "Finish off 25 Legion with fatality moves",
    "icon": "https://steamcdn-a.akamaihd.net/steamcommunity/public/images/apps/211160/01b0354ca33f1645094aeab331c059412d7572d0.jpg",
    "icongray": "https://steamcdn-a.akamaihd.net/steamcommunity/public/images/apps/211160/e1726f9bace0bd7cd9a7103aee8b1b00427fadb6.jpg"
  },
  {
    "name": "use fire ultimate",
    "defaultvalue": 0,
    "displayName": "Odin's Doomsinger",
    "hidden": 0,
    "description": "Use the ultimate fire attack to kill a Legion",
    "icon": "https://steamcdn-a.akamaihd.net/steamcommunity/public/images/apps/211160/01b0354ca33f1645094aeab331c059412d7572d0.jpg",
    "icongray": "https://steamcdn-a.akamaihd.net/steamcommunity/public/images/apps/211160/e1726f9bace0bd7cd9a7103aee8b1b00427fadb6.jpg"
  },
  {
    "name": "use ice ultimate",
    "defaultvalue": 0,
    "displayName": "Heimdall's Enforcer",
    "hidden": 0,
    "description": "Glacially wipe out a Legion using the ultimate ice attack",
    "icon": "https://steamcdn-a.akamaihd.net/steamcommunity/public/images/apps/211160/01b0354ca33f1645094aeab331c059412d7572d0.jpg",
    "icongray": "https://steamcdn-a.akamaihd.net/steamcommunity/public/images/apps/211160/e1726f9bace0bd7cd9a7103aee8b1b00427fadb6.jpg"
  },
  {
    "name": "use lighting ultimate",
    "defaultvalue": 0,
    "displayName": "Thor's Mortal Lightning Rod",
    "hidden": 0,
    "description": "Send a Legion back to the underworld in the most lightning-tastic way imaginable",
    "icon": "https://steamcdn-a.akamaihd.net/steamcommunity/public/images/apps/211160/01b0354ca33f1645094aeab331c059412d7572d0.jpg",
    "icongray": "https://steamcdn-a.akamaihd.net/steamcommunity/public/images/apps/211160/e1726f9bace0bd7cd9a7103aee8b1b00427fadb6.jpg"
  }
]