﻿{
  "Dlcs": {},
  "Name": "Legend of Ares",
  "AppId": "536950",
  "ImageUrl": "https://steamcdn-a.akamaihd.net/steam/apps/536950/header.jpg?t=1496288149",
  "Languages": [
    "english"
  ],
  "Platforms": {
    "windows": true,
    "mac": false,
    "linux": false
  }
}