﻿{
  "Dlcs": {},
  "Name": "Mark of the Ninja",
  "AppId": "214560",
  "ImageUrl": "https://steamcdn-a.akamaihd.net/steam/apps/214560/header.jpg?t=1572634119",
  "Languages": [
    "english",
    "german",
    "french",
    "italian",
    "spanish",
    "japanese"
  ],
  "Platforms": {
    "windows": true,
    "mac": true,
    "linux": true
  }
}