﻿{
  "Dlcs": {},
  "Name": "Counter-Strike: Source",
  "AppId": "240",
  "ImageUrl": "https://steamcdn-a.akamaihd.net/steam/apps/240/header.jpg?t=1580852525",
  "Languages": [
    "english",
    "french",
    "german",
    "italian",
    "japanese",
    "korean",
    "spanish",
    "russian",
    "schinese",
    "tchinese",
    "thai",
    "turkish"
  ],
  "Platforms": {
    "windows": true,
    "mac": true,
    "linux": true
  }
}