﻿{
  "Dlcs": {},
  "Name": "Jagged Alliance 2 - Wildfire",
  "AppId": "215930",
  "ImageUrl": "https://steamcdn-a.akamaihd.net/steam/apps/215930/header.jpg?t=1597837647",
  "Languages": [
    "english",
    "german",
    "french",
    "polish",
    "russian"
  ],
  "Platforms": {
    "windows": true,
    "mac": true,
    "linux": true
  }
}