﻿[
  {
    "name": "EwwEewEew",
    "defaultvalue": 0,
    "displayName": "Eww! Eew! Eew!",
    "hidden": 0,
    "description": "Obtain Squid Oil.",
    "icon": "https://steamcdn-a.akamaihd.net/steamcommunity/public/images/apps/345820/2bb1a8e375359dd4a35cf37e1eff9b01aff8ab67.jpg",
    "icongray": "https://steamcdn-a.akamaihd.net/steamcommunity/public/images/apps/345820/18ad7741f61921acc08fc53d57ed9a0ab4d09eb2.jpg"
  },
  {
    "name": "SmellsLikeVictory",
    "defaultvalue": 0,
    "displayName": "Smells like victory!",
    "hidden": 0,
    "description": "Release the Ham Stink.",
    "icon": "https://steamcdn-a.akamaihd.net/steamcommunity/public/images/apps/345820/ab24fc9bed6b90a137c2068bcac7b3114d4e6f30.jpg",
    "icongray": "https://steamcdn-a.akamaihd.net/steamcommunity/public/images/apps/345820/3b32063c8f26ab4219069695defef0153655f9f5.jpg"
  },
  {
    "name": "AvoidedACurse",
    "defaultvalue": 0,
    "displayName": "Avoided a Curse…",
    "hidden": 0,
    "description": "Obtain all three Mummy Sketches.",
    "icon": "https://steamcdn-a.akamaihd.net/steamcommunity/public/images/apps/345820/fdcbe4eed7c0f1235f383f7e0492862d64c3e55f.jpg",
    "icongray": "https://steamcdn-a.akamaihd.net/steamcommunity/public/images/apps/345820/dc13d9e11fbcab36874ed97146c4dea2713986c1.jpg"
  },
  {
    "name": "TheFunPart",
    "defaultvalue": 0,
    "displayName": "The fun part!",
    "hidden": 0,
    "description": "Obtain the Golden Pickaxe.",
    "icon": "https://steamcdn-a.akamaihd.net/steamcommunity/public/images/apps/345820/685d873e2c65149bea22aca044bcc4edd8bcfc88.jpg",
    "icongray": "https://steamcdn-a.akamaihd.net/steamcommunity/public/images/apps/345820/43fc50db8ee4cd67c0ea86156f9707396ce60fd5.jpg"
  },
  {
    "name": "ItBelongsInAMuseum",
    "defaultvalue": 0,
    "displayName": "It belongs in a museum!",
    "hidden": 0,
    "description": "Obtain the Fossil.",
    "icon": "https://steamcdn-a.akamaihd.net/steamcommunity/public/images/apps/345820/b08feb92a948d54910b93902c75fa47ff0e44825.jpg",
    "icongray": "https://steamcdn-a.akamaihd.net/steamcommunity/public/images/apps/345820/6761eab3fbba1317108117025471f82f11f774da.jpg"
  },
  {
    "name": "IGainedTheAdvantage",
    "defaultvalue": 0,
    "displayName": "I GAINED THE ADVANTAGE!",
    "hidden": 0,
    "description": "Collect the Enchanted Blade.",
    "icon": "https://steamcdn-a.akamaihd.net/steamcommunity/public/images/apps/345820/3d0d9162f4f9305afacf694500329bc49a422a56.jpg",
    "icongray": "https://steamcdn-a.akamaihd.net/steamcommunity/public/images/apps/345820/8386b2f967e3a74ee103a06ae9c56a0fab802d94.jpg"
  },
  {
    "name": "MutantBuffalo",
    "defaultvalue": 0,
    "displayName": "Mutant Buffalo",
    "hidden": 0,
    "description": "Obtain Manly Musk.",
    "icon": "https://steamcdn-a.akamaihd.net/steamcommunity/public/images/apps/345820/cc10edaf427e2f4e2848d0e75be74c0bb2fabcfd.jpg",
    "icongray": "https://steamcdn-a.akamaihd.net/steamcommunity/public/images/apps/345820/1a53f2f39555d4964d40616d04847afe7715fb2d.jpg"
  },
  {
    "name": "ComfortAndConvenience",
    "defaultvalue": 0,
    "displayName": "Comfort and Convenience",
    "hidden": 0,
    "description": "Obtain the Spirit from Abner.",
    "icon": "https://steamcdn-a.akamaihd.net/steamcommunity/public/images/apps/345820/4f628057acc0a2dfee5d52d66484dac3716e8a5a.jpg",
    "icongray": "https://steamcdn-a.akamaihd.net/steamcommunity/public/images/apps/345820/7ae47455c5381b0d89bbb5f25ef02231fc5cbadd.jpg"
  },
  {
    "name": "FoolMeOnce",
    "defaultvalue": 0,
    "displayName": "Fool me once…",
    "hidden": 1,
    "icon": "https://steamcdn-a.akamaihd.net/steamcommunity/public/images/apps/345820/a700e9813698a1c3f3ff701bb5a14487a94a9df0.jpg",
    "icongray": "https://steamcdn-a.akamaihd.net/steamcommunity/public/images/apps/345820/85f4ee8caca8e07a4194d3c241bc3ab53049e6d8.jpg"
  },
  {
    "name": "ItAin'tNotGonnaMiss",
    "defaultvalue": 0,
    "displayName": "It ain't not gonna miss. ",
    "hidden": 0,
    "description": "Help Ammo Baron fire the Palace Disruptor Cannon.",
    "icon": "https://steamcdn-a.akamaihd.net/steamcommunity/public/images/apps/345820/8c7d5d30d905fc130bd0699193913c5508c63ecb.jpg",
    "icongray": "https://steamcdn-a.akamaihd.net/steamcommunity/public/images/apps/345820/24a566b5c393f1ba5242f59687d257361f0bc10a.jpg"
  },
  {
    "name": "Ret2Go",
    "defaultvalue": 0,
    "displayName": "Ret-2-go!",
    "hidden": 0,
    "description": "Defeated the Ammo Baron.",
    "icon": "https://steamcdn-a.akamaihd.net/steamcommunity/public/images/apps/345820/bbe6f991d2ed8593acbae09292acf4f8faa87220.jpg",
    "icongray": "https://steamcdn-a.akamaihd.net/steamcommunity/public/images/apps/345820/6c90c45f537782aad2fe104ddb8fe18d5dfdb118.jpg"
  },
  {
    "name": "FromMyHairToHisDerriere",
    "defaultvalue": 0,
    "displayName": "From my hair to his derriere!",
    "hidden": 1,
    "icon": "https://steamcdn-a.akamaihd.net/steamcommunity/public/images/apps/345820/7cc07ecde3ba239aee01ac2b18e2823aafb0dc2d.jpg",
    "icongray": "https://steamcdn-a.akamaihd.net/steamcommunity/public/images/apps/345820/918e3007266512bda1077666a2db8891ba125e29.jpg"
  },
  {
    "name": "GreenThumb",
    "defaultvalue": 0,
    "displayName": "Green Thumb",
    "hidden": 1,
    "icon": "https://steamcdn-a.akamaihd.net/steamcommunity/public/images/apps/345820/47545711a3ec4dfd8f67a3ad1fb4ac3e8df386f9.jpg",
    "icongray": "https://steamcdn-a.akamaihd.net/steamcommunity/public/images/apps/345820/42ad283f62d239f4cbba9e0d9cde914ba193ffd4.jpg"
  },
  {
    "name": "MasterGardener",
    "defaultvalue": 0,
    "displayName": "Master Gardener",
    "hidden": 1,
    "icon": "https://steamcdn-a.akamaihd.net/steamcommunity/public/images/apps/345820/4bd87e2510fd0dd305532b1979cab6fae85deff0.jpg",
    "icongray": "https://steamcdn-a.akamaihd.net/steamcommunity/public/images/apps/345820/02498a327e406c92ae5195411dc6a0a5f9ef63c2.jpg"
  },
  {
    "name": "Arachnophobia",
    "defaultvalue": 0,
    "displayName": "Arachnophobia",
    "hidden": 1,
    "icon": "https://steamcdn-a.akamaihd.net/steamcommunity/public/images/apps/345820/ad9312b163e2d6ec866d60af6910755b709a8514.jpg",
    "icongray": "https://steamcdn-a.akamaihd.net/steamcommunity/public/images/apps/345820/fdd5fdf5e059c4d42999ef496bf7a46f494d7c8a.jpg"
  },
  {
    "name": "SquashedSpider",
    "defaultvalue": 0,
    "displayName": "Squashed Spider",
    "hidden": 1,
    "icon": "https://steamcdn-a.akamaihd.net/steamcommunity/public/images/apps/345820/f65e2acd5f4f96d6bfbc785bead767085ef2cc9a.jpg",
    "icongray": "https://steamcdn-a.akamaihd.net/steamcommunity/public/images/apps/345820/da805ef15e3a4bf6a8e81932a289aacb482833e7.jpg"
  },
  {
    "name": "TenTickles",
    "defaultvalue": 0,
    "displayName": "Ten-tickles",
    "hidden": 1,
    "icon": "https://steamcdn-a.akamaihd.net/steamcommunity/public/images/apps/345820/8ebc2c96f7743981be85a09586a1a2e30ef3f8bb.jpg",
    "icongray": "https://steamcdn-a.akamaihd.net/steamcommunity/public/images/apps/345820/d5cccda56d409fbf9173723c9e5c8ec20ec7feb3.jpg"
  },
  {
    "name": "CalamariConnoisseur",
    "defaultvalue": 0,
    "displayName": "Calamari Connoisseur",
    "hidden": 1,
    "icon": "https://steamcdn-a.akamaihd.net/steamcommunity/public/images/apps/345820/31dffcba7bceaf6c740d7bb21e603e886e2aa4a5.jpg",
    "icongray": "https://steamcdn-a.akamaihd.net/steamcommunity/public/images/apps/345820/d5b0517b7b56f4c478743d6e8e515d7c2a376190.jpg"
  },
  {
    "name": "GraetJobb",
    "defaultvalue": 0,
    "displayName": "Graet Jobb",
    "hidden": 1,
    "icon": "https://steamcdn-a.akamaihd.net/steamcommunity/public/images/apps/345820/1ff12e1a345ba7f67287d6cc604d438ea0045972.jpg",
    "icongray": "https://steamcdn-a.akamaihd.net/steamcommunity/public/images/apps/345820/128142a703e3069ffbb1d3ce9c63941bcc5dc0b4.jpg"
  },
  {
    "name": "Prefectionist",
    "defaultvalue": 0,
    "displayName": "Prefectionist",
    "hidden": 1,
    "icon": "https://steamcdn-a.akamaihd.net/steamcommunity/public/images/apps/345820/a377113de4e647518ea236eea6fb88a938faf4e0.jpg",
    "icongray": "https://steamcdn-a.akamaihd.net/steamcommunity/public/images/apps/345820/ce665e50a33e6dcb6c8a5b2f7f5971b09a9b765c.jpg"
  },
  {
    "name": "HunkOfJunk",
    "defaultvalue": 0,
    "displayName": "Hunk of Junk",
    "hidden": 1,
    "icon": "https://steamcdn-a.akamaihd.net/steamcommunity/public/images/apps/345820/aabe6cb16cc1b7c41e4196b8b03a08194b95c35c.jpg",
    "icongray": "https://steamcdn-a.akamaihd.net/steamcommunity/public/images/apps/345820/04c31ef3e82fcfac8646811dfe0532fd59c6ad2f.jpg"
  },
  {
    "name": "ScrapMetal",
    "defaultvalue": 0,
    "displayName": "Scrap Metal",
    "hidden": 1,
    "icon": "https://steamcdn-a.akamaihd.net/steamcommunity/public/images/apps/345820/692202d857d8c829c7c21845809bfde156a05a45.jpg",
    "icongray": "https://steamcdn-a.akamaihd.net/steamcommunity/public/images/apps/345820/d61331704d088ffe27d70372c1f2b3a051d6f97c.jpg"
  },
  {
    "name": "VanishedIntoTheEternalAbyss",
    "defaultvalue": 0,
    "displayName": "Vanished into the eternal abyss…",
    "hidden": 1,
    "icon": "https://steamcdn-a.akamaihd.net/steamcommunity/public/images/apps/345820/4e93b54d071a899505fe21a7ba31af1fda37dca7.jpg",
    "icongray": "https://steamcdn-a.akamaihd.net/steamcommunity/public/images/apps/345820/0bd45ae81d682deb29ea91e064a08ec15257f7d0.jpg"
  },
  {
    "name": "NothingButAShade",
    "defaultvalue": 0,
    "displayName": "Nothing but a shade…",
    "hidden": 1,
    "icon": "https://steamcdn-a.akamaihd.net/steamcommunity/public/images/apps/345820/aceda7f3eb848eaf31052a301f499629dd87376a.jpg",
    "icongray": "https://steamcdn-a.akamaihd.net/steamcommunity/public/images/apps/345820/be558d47fc5733981ea813a2b908dce4df99169e.jpg"
  },
  {
    "name": "SpeedRunner",
    "defaultvalue": 0,
    "displayName": "Speed Runner",
    "hidden": 1,
    "icon": "https://steamcdn-a.akamaihd.net/steamcommunity/public/images/apps/345820/217777caf944d9058bbadfbf37349a600858635e.jpg",
    "icongray": "https://steamcdn-a.akamaihd.net/steamcommunity/public/images/apps/345820/d0468b095759ab63877df9b4a1372ee5111ed051.jpg"
  },
  {
    "name": "GuardianGenie",
    "defaultvalue": 0,
    "displayName": "Guardian Genie",
    "hidden": 1,
    "icon": "https://steamcdn-a.akamaihd.net/steamcommunity/public/images/apps/345820/06994d10a93617eff6bf0e70b0217545c670a621.jpg",
    "icongray": "https://steamcdn-a.akamaihd.net/steamcommunity/public/images/apps/345820/52e92aed81eb1eca6c31460ed996934aebe31ea4.jpg"
  },
  {
    "name": "PurpleHairedWarriorMaiden",
    "defaultvalue": 0,
    "displayName": "Purple Haired Warrior Maiden",
    "hidden": 1,
    "icon": "https://steamcdn-a.akamaihd.net/steamcommunity/public/images/apps/345820/292fa763ea4946e09eaf75501956210cfb9a117e.jpg",
    "icongray": "https://steamcdn-a.akamaihd.net/steamcommunity/public/images/apps/345820/b0a02d8f64889ed21b5298457fd17e91cd7a9539.jpg"
  },
  {
    "name": "HalfGenieHero",
    "defaultvalue": 0,
    "displayName": "Half-Genie Hero",
    "hidden": 1,
    "icon": "https://steamcdn-a.akamaihd.net/steamcommunity/public/images/apps/345820/b30d80c7d99ca502a98365316da9a28f4a254efe.jpg",
    "icongray": "https://steamcdn-a.akamaihd.net/steamcommunity/public/images/apps/345820/183fd91389f96c2560a26ecaaa6ed751815aa21d.jpg"
  },
  {
    "name": "SpecialWeaponry",
    "defaultvalue": 0,
    "displayName": "Special Weaponry",
    "hidden": 0,
    "description": "Defeat 250 enemies using Shantae's Monster Whipper!",
    "icon": "https://steamcdn-a.akamaihd.net/steamcommunity/public/images/apps/345820/4751fad61f34781fb975409f048e7625ddaae6e3.jpg",
    "icongray": "https://steamcdn-a.akamaihd.net/steamcommunity/public/images/apps/345820/df4af7bdbe10196d700db24a599f62a23de1b02c.jpg"
  },
  {
    "name": "ReadyForAnything",
    "defaultvalue": 0,
    "displayName": "Ready for anything!",
    "hidden": 0,
    "description": "Defeat 50 enemies using Pirate Weapons.",
    "icon": "https://steamcdn-a.akamaihd.net/steamcommunity/public/images/apps/345820/c263be07b87ed8fd4c5c736339682d153553ec05.jpg",
    "icongray": "https://steamcdn-a.akamaihd.net/steamcommunity/public/images/apps/345820/83ca04e61d119cfb5b55c1ac09f2a2de537c3d0a.jpg"
  },
  {
    "name": "SquidSavior",
    "defaultvalue": 0,
    "displayName": "Squid Savior",
    "hidden": 0,
    "description": "Complete the game without any Health upgrades and all Heart Squids collected.",
    "icon": "https://steamcdn-a.akamaihd.net/steamcommunity/public/images/apps/345820/4809e8786d715d21c9ea1d1413174e9a94feb9f2.jpg",
    "icongray": "https://steamcdn-a.akamaihd.net/steamcommunity/public/images/apps/345820/e799d58be2e7f8ef53ce3680354ffaa38a2e5da6.jpg"
  },
  {
    "name": "GottaGetEmAll",
    "defaultvalue": 0,
    "displayName": "Gotta Get 'Em All",
    "hidden": 0,
    "description": "Collect 50% of the Heart Squids.",
    "icon": "https://steamcdn-a.akamaihd.net/steamcommunity/public/images/apps/345820/119174dab896da71ec5d6826f56312fe248d0610.jpg",
    "icongray": "https://steamcdn-a.akamaihd.net/steamcommunity/public/images/apps/345820/94b04d03d9e14acc3368916a60c6d61043d70222.jpg"
  },
  {
    "name": "MeltThemDown",
    "defaultvalue": 0,
    "displayName": "MELT! THEM!! DOWN!!!",
    "hidden": 0,
    "description": "Collect all Heart Squids.",
    "icon": "https://steamcdn-a.akamaihd.net/steamcommunity/public/images/apps/345820/99ab0a7b166ce79fbb7f4b9931d8d8413c62e301.jpg",
    "icongray": "https://steamcdn-a.akamaihd.net/steamcommunity/public/images/apps/345820/75a7ac514c2adff2f723bd61f25be436b8caba9b.jpg"
  },
  {
    "name": "DestroyingTheDarkMagic",
    "defaultvalue": 0,
    "displayName": "Destroying the Dark Magic",
    "hidden": 0,
    "description": "Collect 50% of the Dark Magic.",
    "icon": "https://steamcdn-a.akamaihd.net/steamcommunity/public/images/apps/345820/e1090264e308c3a6e52c5a63a900d2dfb4baa9bb.jpg",
    "icongray": "https://steamcdn-a.akamaihd.net/steamcommunity/public/images/apps/345820/be9f2eeb72ed1db26986987563846313ddb0eded.jpg"
  },
  {
    "name": "PreparedForBattle",
    "defaultvalue": 0,
    "displayName": "Prepared for Battle",
    "hidden": 0,
    "description": "Collect all of the Dark Magic.",
    "icon": "https://steamcdn-a.akamaihd.net/steamcommunity/public/images/apps/345820/161cf7edb218c22bc40d3c5e07d5cb80223e9702.jpg",
    "icongray": "https://steamcdn-a.akamaihd.net/steamcommunity/public/images/apps/345820/98f286ccd14ee723a914ad70f86fef24c0f9a51c.jpg"
  },
  {
    "name": "ZombieSurvivalGuide",
    "defaultvalue": 0,
    "displayName": "Zombie Survival Guide",
    "hidden": 0,
    "description": "Get Rottytops to Abner Tree without making any mistakes in a single attempt.",
    "icon": "https://steamcdn-a.akamaihd.net/steamcommunity/public/images/apps/345820/6bafab4e427432c635da86e47918b71adf9eb88a.jpg",
    "icongray": "https://steamcdn-a.akamaihd.net/steamcommunity/public/images/apps/345820/c6c253bab3c00035ffad82f27827377e0926716c.jpg"
  },
  {
    "name": "NostalgiaTrip",
    "defaultvalue": 0,
    "displayName": "Nostalgia Trip",
    "hidden": 0,
    "description": "Discover the secret Labyrinth.",
    "icon": "https://steamcdn-a.akamaihd.net/steamcommunity/public/images/apps/345820/e91b41f1e3437b15d62258ef28aa8b8c7f6f1235.jpg",
    "icongray": "https://steamcdn-a.akamaihd.net/steamcommunity/public/images/apps/345820/af0377627064eaa5fa36e325611b5f94ab7af0e0.jpg"
  },
  {
    "name": "SkilledSurvivor",
    "defaultvalue": 0,
    "displayName": "Skilled Survivor",
    "hidden": 0,
    "description": "Complete the hidden training room.",
    "icon": "https://steamcdn-a.akamaihd.net/steamcommunity/public/images/apps/345820/2ed9a6bc4c1c7a9e944dd34523be060d19472c07.jpg",
    "icongray": "https://steamcdn-a.akamaihd.net/steamcommunity/public/images/apps/345820/4e680e1ca5b1af49f20cad843386957b338bf267.jpg"
  },
  {
    "name": "XNeverMarksTheSpot",
    "defaultvalue": 0,
    "displayName": "On the map!",
    "hidden": 0,
    "description": "Collect all Labyrinth maps.",
    "icon": "https://steamcdn-a.akamaihd.net/steamcommunity/public/images/apps/345820/97985f5e6a9d2ae36549b2620139712838b52512.jpg",
    "icongray": "https://steamcdn-a.akamaihd.net/steamcommunity/public/images/apps/345820/b83ea0a764b9c74d0c7276dd0857e9f76926a57b.jpg"
  },
  {
    "name": "BrokenBones",
    "defaultvalue": 0,
    "displayName": "Broken Bones",
    "hidden": 0,
    "description": "Destroy 20 bones with the Bubble Shield.",
    "icon": "https://steamcdn-a.akamaihd.net/steamcommunity/public/images/apps/345820/1cd3b0c0324565e07a5842fe8079a5af31d2fa6c.jpg",
    "icongray": "https://steamcdn-a.akamaihd.net/steamcommunity/public/images/apps/345820/96925e06d33c65351c3d9fcf6d2961d463323090.jpg"
  },
  {
    "name": "RiskysBusiness",
    "defaultvalue": 0,
    "displayName": "Risky's Business",
    "hidden": 0,
    "description": "Use a Pirate Flare to return to Risky's ship.",
    "icon": "https://steamcdn-a.akamaihd.net/steamcommunity/public/images/apps/345820/03f1fc3d27c6aa445688ad3ee212e59176534dad.jpg",
    "icongray": "https://steamcdn-a.akamaihd.net/steamcommunity/public/images/apps/345820/4753b6af2f79d6d49f4d7e88957bcb200a24c2f8.jpg"
  },
  {
    "name": "WhatAnEyesore",
    "defaultvalue": 0,
    "displayName": "What an eyesore...",
    "hidden": 0,
    "description": "Defeated the Cyclops Plant using only Pike Balls.",
    "icon": "https://steamcdn-a.akamaihd.net/steamcommunity/public/images/apps/345820/c1bbf50d0814ff974ef7cb2f527f0483eb6f891d.jpg",
    "icongray": "https://steamcdn-a.akamaihd.net/steamcommunity/public/images/apps/345820/c7846aa35a4ed41518a2e131b86eabbe0d67b2ab.jpg"
  },
  {
    "name": "PestControl",
    "defaultvalue": 0,
    "displayName": "Pest Control",
    "hidden": 0,
    "description": "Destroy 10 Spider Eggs before they hatch.",
    "icon": "https://steamcdn-a.akamaihd.net/steamcommunity/public/images/apps/345820/867025dfa3bd9f9a976002d92301443e3375d4a7.jpg",
    "icongray": "https://steamcdn-a.akamaihd.net/steamcommunity/public/images/apps/345820/67bd6e8fab90bf6722a6b0c1aeaf7b9585ea1be2.jpg"
  },
  {
    "name": "TastyTreats",
    "defaultvalue": 0,
    "displayName": "Tasty Treats",
    "hidden": 0,
    "description": "Sample the entire menu!",
    "icon": "https://steamcdn-a.akamaihd.net/steamcommunity/public/images/apps/345820/baabd318fff836e316ecad9669e94bc0cf575b55.jpg",
    "icongray": "https://steamcdn-a.akamaihd.net/steamcommunity/public/images/apps/345820/881d71c892441c57e73b5ac80a68eb2eb62e36d8.jpg"
  }
]