﻿[
  {
    "name": "nog",
    "defaultvalue": 0,
    "displayName": "The chimney keeps spinning",
    "hidden": 0,
    "description": "Finish all levels featuring nog with dizzy santa",
    "icon": "https://steamcdn-a.akamaihd.net/steamcommunity/public/images/apps/500690/40cc5767a13a1a2775799581410047c5661a9156.jpg",
    "icongray": "https://steamcdn-a.akamaihd.net/steamcommunity/public/images/apps/500690/962f859d5990ec06ed1eb25f3ffa6377a7454b8e.jpg"
  },
  {
    "name": "all_cookies",
    "defaultvalue": 0,
    "displayName": "My diet starts next year",
    "hidden": 0,
    "description": "finish the Nice and Naughty list with all milk and cookies collected.",
    "icon": "https://steamcdn-a.akamaihd.net/steamcommunity/public/images/apps/500690/5ad2bc98c64bb18cdb2da9ddd2f94bbb66fbf45d.jpg",
    "icongray": "https://steamcdn-a.akamaihd.net/steamcommunity/public/images/apps/500690/9304d81cd957a38425e3400cfa0ae43e24a4c248.jpg"
  },
  {
    "name": "nice_list",
    "defaultvalue": 0,
    "displayName": "You've been good this year.",
    "hidden": 0,
    "description": "Finish the Nice list",
    "icon": "https://steamcdn-a.akamaihd.net/steamcommunity/public/images/apps/500690/b46f0fa60c381b9f4cca3fd83cf6a619c5c25de4.jpg",
    "icongray": "https://steamcdn-a.akamaihd.net/steamcommunity/public/images/apps/500690/3e2c36b2f5432d2be83ad0986f604b8761a8d01d.jpg"
  },
  {
    "name": "naughty_list",
    "defaultvalue": 0,
    "displayName": "You've been a naughty little child this year.",
    "hidden": 0,
    "description": "Complete the Naughty list.",
    "icon": "https://steamcdn-a.akamaihd.net/steamcommunity/public/images/apps/500690/ad8377a44514385bc808de856eb498281a7a6e27.jpg",
    "icongray": "https://steamcdn-a.akamaihd.net/steamcommunity/public/images/apps/500690/4b9f4f57fd52c870a97e6ba57e495a32f3e36962.jpg"
  },
  {
    "name": "krampus_list",
    "defaultvalue": 0,
    "displayName": "I wouldn't want to be you, child.",
    "hidden": 0,
    "description": "Complete the Krampus list",
    "icon": "https://steamcdn-a.akamaihd.net/steamcommunity/public/images/apps/500690/df84527f1b545e97966ff2b959b7833dbe766639.jpg",
    "icongray": "https://steamcdn-a.akamaihd.net/steamcommunity/public/images/apps/500690/c372e7a962ca5323984d262b6ae2498ff6a444f6.jpg"
  },
  {
    "name": "mars_list",
    "defaultvalue": 0,
    "displayName": "Santa gifted the space martians",
    "hidden": 0,
    "description": "Complete the mars list",
    "icon": "https://steamcdn-a.akamaihd.net/steamcommunity/public/images/apps/500690/8a904cc30c355dfef1251cac40f03e7cc305ea0c.jpg",
    "icongray": "https://steamcdn-a.akamaihd.net/steamcommunity/public/images/apps/500690/3597d8a52b6c30f1fb4942552445cca2a770737f.jpg"
  },
  {
    "name": "krampus_mode",
    "defaultvalue": 0,
    "displayName": "He's coming for you, child.",
    "hidden": 0,
    "description": "Complete Krampus mode",
    "icon": "https://steamcdn-a.akamaihd.net/steamcommunity/public/images/apps/500690/b964a9974ccc370a6c9b7c5b84871f3ae929b4d0.jpg",
    "icongray": "https://steamcdn-a.akamaihd.net/steamcommunity/public/images/apps/500690/3668ba32786541143b76cb286da5d41941e027f2.jpg"
  },
  {
    "name": "menorah",
    "defaultvalue": 0,
    "displayName": "Why not both?",
    "hidden": 0,
    "description": "Light all hidden menorahs in the nice, naughty, krampus, and mars list.",
    "icon": "https://steamcdn-a.akamaihd.net/steamcommunity/public/images/apps/500690/fffc227fb3b5b0118f5f33c649dd30889f134aad.jpg",
    "icongray": "https://steamcdn-a.akamaihd.net/steamcommunity/public/images/apps/500690/65190e2fd3895d57e21b08d49278235292d8076e.jpg"
  },
  {
    "name": "happy_halloween",
    "defaultvalue": 0,
    "displayName": "Happy Halloween",
    "hidden": 0,
    "description": "Finish the Halloween list",
    "icon": "https://steamcdn-a.akamaihd.net/steamcommunity/public/images/apps/500690/aa0abb4c2a753007b06109d56f70d5a11349d776.jpg",
    "icongray": "https://steamcdn-a.akamaihd.net/steamcommunity/public/images/apps/500690/eb98a969aa7119ce2c1f4d0c0ca891a23ff8f294.jpg"
  }
]