﻿{
  "Dlcs": {},
  "Name": "3 Coins At School",
  "AppId": "462110",
  "ImageUrl": "https://steamcdn-a.akamaihd.net/steam/apps/462110/header.jpg?t=1461464764",
  "Languages": [
    "english"
  ],
  "Platforms": {
    "windows": true,
    "mac": false,
    "linux": false
  }
}