{
  "Releases": [
    "Windows",
    "Win32"
  ],
  "Name": "Overcooked",
  "AppId": "Sage",
  "Namespace": "4561b40e52584ac2bcf34bbd5c401480",
  "ItemId": "7e97838fff4e48e79f892f1e64d42cb0",
  "ImageUrl": "https://cdn1.epicgames.com/4561b40e52584ac2bcf34bbd5c401480/item/PDPPromo-2560x1440-2560x1440-71b09e2be137632b45871b92f6e13ed9.jpg",
  "Dlcs": {}
}