﻿{
  "Dlcs": {},
  "Name": "ICY: Frostbite Edition",
  "AppId": "680480",
  "ImageUrl": "https://steamcdn-a.akamaihd.net/steam/apps/680480/header.jpg?t=1531257093",
  "Languages": [
    "english",
    "italian",
    "russian"
  ],
  "Platforms": {
    "windows": true,
    "mac": true,
    "linux": true
  }
}