﻿[
  {
    "name": "STAT_GATE",
    "defaultvalue": 0,
    "displayName": "ACH_GATE"
  },
  {
    "name": "STAT_SURTR",
    "defaultvalue": 0,
    "displayName": "ACH_SURTR"
  },
  {
    "name": "STAT_VALRAVN",
    "defaultvalue": 0,
    "displayName": "ACH_VALRAVN"
  },
  {
    "name": "STAT_MEETING_HELA",
    "defaultvalue": 0,
    "displayName": "ACH_MEETING_HELA"
  },
  {
    "name": "STAT_BLINDNESS",
    "defaultvalue": 0,
    "displayName": "ACH_BLINDNESS"
  },
  {
    "name": "STAT_TOWER",
    "defaultvalue": 0,
    "displayName": "ACH_TOWER"
  },
  {
    "name": "STAT_SWAMP",
    "defaultvalue": 0,
    "displayName": "ACH_SWAMP"
  },
  {
    "name": "STAT_LABYRINTH",
    "defaultvalue": 0,
    "displayName": "ACH_LABYRINTH"
  },
  {
    "name": "STAT_GRAM",
    "defaultvalue": 0,
    "displayName": "ACH_GRAM"
  },
  {
    "name": "STAT_SEAOFCORPSES",
    "defaultvalue": 0,
    "displayName": "ACH_SEAOFCORPSES"
  },
  {
    "name": "STAT_HELHEIM",
    "defaultvalue": 0,
    "displayName": "ACH_HELHEIM"
  },
  {
    "name": "STAT_FENRIR",
    "defaultvalue": 0,
    "displayName": "ACH_FENRIR"
  },
  {
    "name": "STAT_FINAL_HELA",
    "defaultvalue": 0,
    "displayName": "ACH_FINAL_HELA"
  },
  {
    "name": "STAT_LORESTONES",
    "defaultvalue": 0,
    "displayName": "ACH_LORESTONES"
  }
]