﻿{
  "Dlcs": {},
  "Name": "Blocks by Google",
  "AppId": "533970",
  "ImageUrl": "https://steamcdn-a.akamaihd.net/steam/apps/533970/header.jpg?t=1507251190",
  "Languages": [
    "english"
  ],
  "Platforms": {
    "windows": true,
    "mac": false,
    "linux": false
  }
}