﻿[
  {
    "name": "ACH_WELCOME",
    "defaultvalue": 0,
    "displayName": "New visitor",
    "hidden": 0,
    "description": "Welcome to the International Times Exhibition!",
    "icon": "https://steamcdn-a.akamaihd.net/steamcommunity/public/images/apps/511470/562f50ebf8418637716e719b91a2ab43da651759.jpg",
    "icongray": "https://steamcdn-a.akamaihd.net/steamcommunity/public/images/apps/511470/b3632994f8aeb23e65c4bf9c3faa547efc1aba27.jpg"
  },
  {
    "name": "ACH_SWEDEN",
    "defaultvalue": 0,
    "displayName": "Sweden",
    "hidden": 0,
    "description": "",
    "icon": "https://steamcdn-a.akamaihd.net/steamcommunity/public/images/apps/511470/fc7a6aba64052846918a42372564d03f93487915.jpg",
    "icongray": "https://steamcdn-a.akamaihd.net/steamcommunity/public/images/apps/511470/3e0e644bdf2eac5ec0fbc709313a645d86c87ca9.jpg"
  },
  {
    "name": "ACH_GREENLAND",
    "defaultvalue": 0,
    "displayName": "Greenland",
    "hidden": 0,
    "description": "",
    "icon": "https://steamcdn-a.akamaihd.net/steamcommunity/public/images/apps/511470/4bcf87cbc82d780a6daa532c86d84d6095ff0d53.jpg",
    "icongray": "https://steamcdn-a.akamaihd.net/steamcommunity/public/images/apps/511470/61697e78a47715801603cc2d1ae654169a86b7bb.jpg"
  },
  {
    "name": "ACH_BRITAIN",
    "defaultvalue": 0,
    "displayName": "Britain",
    "hidden": 0,
    "description": "",
    "icon": "https://steamcdn-a.akamaihd.net/steamcommunity/public/images/apps/511470/0c52dd38f1efbeb77927c223ec81626adf8a5634.jpg",
    "icongray": "https://steamcdn-a.akamaihd.net/steamcommunity/public/images/apps/511470/ca6b97bc680a5b40396121555270e8658d0ede4f.jpg"
  },
  {
    "name": "ACH_CANADA",
    "defaultvalue": 0,
    "displayName": "Canada",
    "hidden": 0,
    "description": "",
    "icon": "https://steamcdn-a.akamaihd.net/steamcommunity/public/images/apps/511470/cfb4ed0de99c207fa7add980a9a10af759ffd5c2.jpg",
    "icongray": "https://steamcdn-a.akamaihd.net/steamcommunity/public/images/apps/511470/6bdde5d328cb3b0f1615c2f6d3d787a0ef30c8d2.jpg"
  },
  {
    "name": "ACH_BRAZIL",
    "defaultvalue": 0,
    "displayName": "Brazil",
    "hidden": 0,
    "description": "",
    "icon": "https://steamcdn-a.akamaihd.net/steamcommunity/public/images/apps/511470/aa2c176fafb17568c02500a68c77da4ec80bcac3.jpg",
    "icongray": "https://steamcdn-a.akamaihd.net/steamcommunity/public/images/apps/511470/390fa3b3a3e6dddafddb50a74a3eaaef011d7573.jpg"
  },
  {
    "name": "ACH_AUSTRALIA",
    "defaultvalue": 0,
    "displayName": "Australia",
    "hidden": 0,
    "description": "",
    "icon": "https://steamcdn-a.akamaihd.net/steamcommunity/public/images/apps/511470/d0e470d0de68b551044d26b95c71ae4e1b7b399f.jpg",
    "icongray": "https://steamcdn-a.akamaihd.net/steamcommunity/public/images/apps/511470/04c7f925c61ce5798b44404806940e3b42e347e0.jpg"
  },
  {
    "name": "ACH_CHINA",
    "defaultvalue": 0,
    "displayName": "China",
    "hidden": 0,
    "description": "",
    "icon": "https://steamcdn-a.akamaihd.net/steamcommunity/public/images/apps/511470/a6423e55a270ec484aa47f0b6e86954afd33e3e5.jpg",
    "icongray": "https://steamcdn-a.akamaihd.net/steamcommunity/public/images/apps/511470/42b00578e367c6b486d901e4709c26e6cad44326.jpg"
  },
  {
    "name": "ACH_EGYPT",
    "defaultvalue": 0,
    "displayName": "Egypt",
    "hidden": 0,
    "description": "",
    "icon": "https://steamcdn-a.akamaihd.net/steamcommunity/public/images/apps/511470/c766ef3d2c7b5d324ba101da3e34b3b0d5a67819.jpg",
    "icongray": "https://steamcdn-a.akamaihd.net/steamcommunity/public/images/apps/511470/6aee2ed552a77572dc471fc73fcf1ebc35cc19ec.jpg"
  },
  {
    "name": "ACH_FRANCE",
    "defaultvalue": 0,
    "displayName": "France",
    "hidden": 0,
    "description": "",
    "icon": "https://steamcdn-a.akamaihd.net/steamcommunity/public/images/apps/511470/886a62f16ffce8da47c39bfb15b5da32ae98577b.jpg",
    "icongray": "https://steamcdn-a.akamaihd.net/steamcommunity/public/images/apps/511470/e3c1639c9331de20b517862b637816dd3fe28045.jpg"
  },
  {
    "name": "ACH_GERMANY",
    "defaultvalue": 0,
    "displayName": "Germany",
    "hidden": 0,
    "description": "",
    "icon": "https://steamcdn-a.akamaihd.net/steamcommunity/public/images/apps/511470/6ef88e2a15f6215d1bb6881a2d1a684f0006c290.jpg",
    "icongray": "https://steamcdn-a.akamaihd.net/steamcommunity/public/images/apps/511470/2074545a322bd5f3620f8308c225129188f1ca6b.jpg"
  },
  {
    "name": "ACH_GREECE",
    "defaultvalue": 0,
    "displayName": "Greece",
    "hidden": 0,
    "description": "",
    "icon": "https://steamcdn-a.akamaihd.net/steamcommunity/public/images/apps/511470/25ef4f87afb4d0d5432bfecf4243fa5a31287d5d.jpg",
    "icongray": "https://steamcdn-a.akamaihd.net/steamcommunity/public/images/apps/511470/58653b71c780296b89926906fb8433ce1305ce17.jpg"
  },
  {
    "name": "ACH_ARGENTINA",
    "defaultvalue": 0,
    "displayName": "Argentina",
    "hidden": 0,
    "description": "",
    "icon": "https://steamcdn-a.akamaihd.net/steamcommunity/public/images/apps/511470/2bc42cf0afeb43c6ee548e43436640edb950fb87.jpg",
    "icongray": "https://steamcdn-a.akamaihd.net/steamcommunity/public/images/apps/511470/9aa2428c220a9b31d3d7a9d076332e0efc03d078.jpg"
  },
  {
    "name": "ACH_ICELAND",
    "defaultvalue": 0,
    "displayName": "Iceland",
    "hidden": 0,
    "description": "",
    "icon": "https://steamcdn-a.akamaihd.net/steamcommunity/public/images/apps/511470/3452918995764ea8fdeda0424d22f445898b13da.jpg",
    "icongray": "https://steamcdn-a.akamaihd.net/steamcommunity/public/images/apps/511470/04b89492545c7b8a9d153196b91f72aa924e743f.jpg"
  },
  {
    "name": "ACH_INDIA",
    "defaultvalue": 0,
    "displayName": "India",
    "hidden": 0,
    "description": "",
    "icon": "https://steamcdn-a.akamaihd.net/steamcommunity/public/images/apps/511470/4e02b5aa0473f3529591c937abf524797c87c217.jpg",
    "icongray": "https://steamcdn-a.akamaihd.net/steamcommunity/public/images/apps/511470/1249a74a70980eb13ecea907c74ac2a572014403.jpg"
  },
  {
    "name": "ACH_INDONESIA",
    "defaultvalue": 0,
    "displayName": "Indonesia",
    "hidden": 0,
    "description": "",
    "icon": "https://steamcdn-a.akamaihd.net/steamcommunity/public/images/apps/511470/3a02549e0b2a3a1f15db39f052bfd2fb6ecaedb9.jpg",
    "icongray": "https://steamcdn-a.akamaihd.net/steamcommunity/public/images/apps/511470/3ccd7c9f850a30572e2988b799c5675e37a89232.jpg"
  },
  {
    "name": "ACH_IRAN",
    "defaultvalue": 0,
    "displayName": "Iran",
    "hidden": 0,
    "description": "",
    "icon": "https://steamcdn-a.akamaihd.net/steamcommunity/public/images/apps/511470/bf458dfabedc2a0a77f9e94ba83bdf4b945b977e.jpg",
    "icongray": "https://steamcdn-a.akamaihd.net/steamcommunity/public/images/apps/511470/d774876b42bd1112d6c1dee2fceab5506a5c9ea2.jpg"
  },
  {
    "name": "ACH_ITALY",
    "defaultvalue": 0,
    "displayName": "Italy",
    "hidden": 0,
    "description": "",
    "icon": "https://steamcdn-a.akamaihd.net/steamcommunity/public/images/apps/511470/3576550b1898704f893c7f19a8470f1ebeab00d7.jpg",
    "icongray": "https://steamcdn-a.akamaihd.net/steamcommunity/public/images/apps/511470/2a101c4e2c7a283a2adc3576c275384bdcd9c549.jpg"
  },
  {
    "name": "ACH_JAPAN",
    "defaultvalue": 0,
    "displayName": "Japan",
    "hidden": 0,
    "description": "",
    "icon": "https://steamcdn-a.akamaihd.net/steamcommunity/public/images/apps/511470/623784a381091fa2166ea7b7671f1a4f2e9137eb.jpg",
    "icongray": "https://steamcdn-a.akamaihd.net/steamcommunity/public/images/apps/511470/9c0eb8a4b9929e2e88ae2e4521a86ccd38aee361.jpg"
  },
  {
    "name": "ACH_MADAGASCAR",
    "defaultvalue": 0,
    "displayName": "Madagascar",
    "hidden": 0,
    "description": "",
    "icon": "https://steamcdn-a.akamaihd.net/steamcommunity/public/images/apps/511470/3b21f31069048ca58a5ae34120993f0c23b4c282.jpg",
    "icongray": "https://steamcdn-a.akamaihd.net/steamcommunity/public/images/apps/511470/aa70cf55ba99f4ffb6f6397c2e0723346d389691.jpg"
  },
  {
    "name": "ACH_MEXICO",
    "defaultvalue": 0,
    "displayName": "Mexico",
    "hidden": 0,
    "description": "",
    "icon": "https://steamcdn-a.akamaihd.net/steamcommunity/public/images/apps/511470/c67d6077acf1d8b5a28c18df94d460cbc78fc67f.jpg",
    "icongray": "https://steamcdn-a.akamaihd.net/steamcommunity/public/images/apps/511470/25afe7c36a61036e45c2b14552c45352556e7759.jpg"
  },
  {
    "name": "ACH_MONGOLIA",
    "defaultvalue": 0,
    "displayName": "Mongolia",
    "hidden": 0,
    "description": "",
    "icon": "https://steamcdn-a.akamaihd.net/steamcommunity/public/images/apps/511470/4244b19a402adf752b6982c45f9959c6d3022a58.jpg",
    "icongray": "https://steamcdn-a.akamaihd.net/steamcommunity/public/images/apps/511470/0a3601ccb428fabc1fd11d0ad382aff60dae0868.jpg"
  },
  {
    "name": "ACH_PORTUGAL",
    "defaultvalue": 0,
    "displayName": "Portugal",
    "hidden": 0,
    "description": "",
    "icon": "https://steamcdn-a.akamaihd.net/steamcommunity/public/images/apps/511470/194c90943a6c85ff6be9deffc4a25dc72fb5cbff.jpg",
    "icongray": "https://steamcdn-a.akamaihd.net/steamcommunity/public/images/apps/511470/f1843b3ad918c75e8c78e8c1ddff77d3cc6685e0.jpg"
  },
  {
    "name": "ACH_RUSSIA",
    "defaultvalue": 0,
    "displayName": "Russia",
    "hidden": 0,
    "description": "",
    "icon": "https://steamcdn-a.akamaihd.net/steamcommunity/public/images/apps/511470/56f3033e38a476cc683dd673ef7c56ca3a2a4a4f.jpg",
    "icongray": "https://steamcdn-a.akamaihd.net/steamcommunity/public/images/apps/511470/f10450918e6ee41553d0f6ed3a57b5115262d112.jpg"
  },
  {
    "name": "ACH_TANZANIA",
    "defaultvalue": 0,
    "displayName": "Tanzania",
    "hidden": 0,
    "description": "",
    "icon": "https://steamcdn-a.akamaihd.net/steamcommunity/public/images/apps/511470/161d532c6820c5d7eb63601cf173295ca4142915.jpg",
    "icongray": "https://steamcdn-a.akamaihd.net/steamcommunity/public/images/apps/511470/b6e449592d3a7dd3d54c528e8fe81df29e0955e8.jpg"
  },
  {
    "name": "ACH_USA",
    "defaultvalue": 0,
    "displayName": "United States",
    "hidden": 0,
    "description": "",
    "icon": "https://steamcdn-a.akamaihd.net/steamcommunity/public/images/apps/511470/fc46d9a4629e985790532c22d666b12ab96ee7f0.jpg",
    "icongray": "https://steamcdn-a.akamaihd.net/steamcommunity/public/images/apps/511470/10578d25d870a430108d815ce820d28b521f2c07.jpg"
  },
  {
    "name": "ACH_FAREWELL",
    "defaultvalue": 0,
    "displayName": "Appreciated visitor",
    "hidden": 0,
    "description": "Thanks for visiting the International Times Exhibition!",
    "icon": "https://steamcdn-a.akamaihd.net/steamcommunity/public/images/apps/511470/13afc24bce19340f5a355467d58d95dd5217dc65.jpg",
    "icongray": "https://steamcdn-a.akamaihd.net/steamcommunity/public/images/apps/511470/dabc0e63358c1f4bd487701098be110f723e518a.jpg"
  },
  {
    "name": "ACH_CHINA2",
    "defaultvalue": 0,
    "displayName": "Taster of Lunar Year",
    "hidden": 0,
    "description": "",
    "icon": "https://steamcdn-a.akamaihd.net/steamcommunity/public/images/apps/511470/73ac04289cc233b87bd908755d7b6859ef417959.jpg",
    "icongray": "https://steamcdn-a.akamaihd.net/steamcommunity/public/images/apps/511470/88c4c3b722da992ff4edececf85513e36c571e3a.jpg"
  },
  {
    "name": "ACH_KOREA",
    "defaultvalue": 0,
    "displayName": "Taster of Inceptions",
    "hidden": 0,
    "description": "",
    "icon": "https://steamcdn-a.akamaihd.net/steamcommunity/public/images/apps/511470/8ca82cbc88f85e928ae7137ac0ad2efed445bbfa.jpg",
    "icongray": "https://steamcdn-a.akamaihd.net/steamcommunity/public/images/apps/511470/96d318520003f639e277caf6a687998aedb377ca.jpg"
  },
  {
    "name": "ACH_IRELAND",
    "defaultvalue": 0,
    "displayName": "Taster of Halloween",
    "hidden": 0,
    "description": "",
    "icon": "https://steamcdn-a.akamaihd.net/steamcommunity/public/images/apps/511470/29d4cea958cf24870c79e2efea9b173cc845dc6c.jpg",
    "icongray": "https://steamcdn-a.akamaihd.net/steamcommunity/public/images/apps/511470/224a105bafdc2cb3056625b79f2f9482d8e2889a.jpg"
  },
  {
    "name": "ACH_USA3",
    "defaultvalue": 0,
    "displayName": "Taster of Christmas",
    "hidden": 0,
    "description": "",
    "icon": "https://steamcdn-a.akamaihd.net/steamcommunity/public/images/apps/511470/06d84debf1a89f6079530e399d813788abcd5471.jpg",
    "icongray": "https://steamcdn-a.akamaihd.net/steamcommunity/public/images/apps/511470/a590eac4b1271adbb84d135cc269b77dbbedc68a.jpg"
  },
  {
    "name": "ACH_TURKEY",
    "defaultvalue": 0,
    "displayName": "Taster of Heritages",
    "hidden": 0,
    "description": "",
    "icon": "https://steamcdn-a.akamaihd.net/steamcommunity/public/images/apps/511470/a5c82e4ec27de03d7ae4f3ae805d00f67fee04d4.jpg",
    "icongray": "https://steamcdn-a.akamaihd.net/steamcommunity/public/images/apps/511470/352b23f4c2693aecc09842c2a65b6310c7e3f88f.jpg"
  }
]