﻿[
  {
    "name": "1",
    "defaultvalue": 0,
    "displayName": "Open level 1",
    "hidden": 0,
    "description": "Open level 1",
    "icon": "https://steamcdn-a.akamaihd.net/steamcommunity/public/images/apps/679660/3334a095f6425d0151c93f856cdf1e2789e7b39d.jpg",
    "icongray": "https://steamcdn-a.akamaihd.net/steamcommunity/public/images/apps/679660/1c0302e06dfdad854bb150af5638a9188319b8db.jpg"
  },
  {
    "name": "2",
    "defaultvalue": 0,
    "displayName": "Open Level 2",
    "hidden": 0,
    "description": "Open Level 2",
    "icon": "https://steamcdn-a.akamaihd.net/steamcommunity/public/images/apps/679660/a3ff207fe8c6e2ed3e3c268503bd6c4418d43151.jpg",
    "icongray": "https://steamcdn-a.akamaihd.net/steamcommunity/public/images/apps/679660/56d1c3b44839f35e847df51d7f45d8a5be36b5a7.jpg"
  },
  {
    "name": "3",
    "defaultvalue": 0,
    "displayName": "Open Level 3",
    "hidden": 0,
    "description": "Open Level 3",
    "icon": "https://steamcdn-a.akamaihd.net/steamcommunity/public/images/apps/679660/488a3992c61625abac1d514604650c8aaacce78e.jpg",
    "icongray": "https://steamcdn-a.akamaihd.net/steamcommunity/public/images/apps/679660/33d27e330ed67e7a19c61c3989defd39ad98c4fe.jpg"
  },
  {
    "name": "4",
    "defaultvalue": 0,
    "displayName": "Open Level 4",
    "hidden": 0,
    "description": "Open Level 4",
    "icon": "https://steamcdn-a.akamaihd.net/steamcommunity/public/images/apps/679660/e633baff7fdd0bcd7ef2823682feb157eb9ebc86.jpg",
    "icongray": "https://steamcdn-a.akamaihd.net/steamcommunity/public/images/apps/679660/618a670aab15b42c85069d6bfca6d0fe2ce4b196.jpg"
  },
  {
    "name": "5",
    "defaultvalue": 0,
    "displayName": "Open Level 5",
    "hidden": 0,
    "description": "Open Level 5",
    "icon": "https://steamcdn-a.akamaihd.net/steamcommunity/public/images/apps/679660/503be48c242fe4f2ce740eb7bb82addf2ff66962.jpg",
    "icongray": "https://steamcdn-a.akamaihd.net/steamcommunity/public/images/apps/679660/46d2bee0f96b7cebc5ad17567cce6513f45fc0c4.jpg"
  },
  {
    "name": "6",
    "defaultvalue": 0,
    "displayName": "Open Level 6",
    "hidden": 0,
    "description": "Open Level 6",
    "icon": "https://steamcdn-a.akamaihd.net/steamcommunity/public/images/apps/679660/d51d005f4ca13ecfdf089eb83515fcf2e8f4a5ff.jpg",
    "icongray": "https://steamcdn-a.akamaihd.net/steamcommunity/public/images/apps/679660/54d636ca82e8393f8b5b479eb36007bc1d6f0f2b.jpg"
  },
  {
    "name": "7",
    "defaultvalue": 0,
    "displayName": "Open Level 7",
    "hidden": 0,
    "description": "Open Level 7",
    "icon": "https://steamcdn-a.akamaihd.net/steamcommunity/public/images/apps/679660/0e39e7659116c4ce32e511a832c944805dc36225.jpg",
    "icongray": "https://steamcdn-a.akamaihd.net/steamcommunity/public/images/apps/679660/256a826c8d07612adbddbaff38eecbf1accc7093.jpg"
  },
  {
    "name": "8",
    "defaultvalue": 0,
    "displayName": "Open Level 8",
    "hidden": 0,
    "description": "Open Level 8",
    "icon": "https://steamcdn-a.akamaihd.net/steamcommunity/public/images/apps/679660/906f44d199b0946706aab211182ab46790241d9d.jpg",
    "icongray": "https://steamcdn-a.akamaihd.net/steamcommunity/public/images/apps/679660/d9b194d70db99ec325bbcff19c44067e1aede57c.jpg"
  },
  {
    "name": "9",
    "defaultvalue": 0,
    "displayName": "Open Level 9",
    "hidden": 0,
    "description": "Open Level 9",
    "icon": "https://steamcdn-a.akamaihd.net/steamcommunity/public/images/apps/679660/6a09ad2e8476f0bf758bf2c0d27c1c3128ef227c.jpg",
    "icongray": "https://steamcdn-a.akamaihd.net/steamcommunity/public/images/apps/679660/db50c08968385d6ad5b700b104cb4b186b9a26d0.jpg"
  },
  {
    "name": "10",
    "defaultvalue": 0,
    "displayName": "Open Level 10",
    "hidden": 0,
    "description": "Open Level 10",
    "icon": "https://steamcdn-a.akamaihd.net/steamcommunity/public/images/apps/679660/a2aa11ab1d803203f9228d6caa3a0a54d47a2925.jpg",
    "icongray": "https://steamcdn-a.akamaihd.net/steamcommunity/public/images/apps/679660/ffdc90720976d478a7b3339a63ee7b0fcca77fb0.jpg"
  },
  {
    "name": "11",
    "defaultvalue": 0,
    "displayName": "Open Level 11",
    "hidden": 0,
    "description": "Open Level 11",
    "icon": "https://steamcdn-a.akamaihd.net/steamcommunity/public/images/apps/679660/4382c9368938ead621d07025c8875661b6599bac.jpg",
    "icongray": "https://steamcdn-a.akamaihd.net/steamcommunity/public/images/apps/679660/229ec531b1022bb8b59d6454bff8ff53233c3cc2.jpg"
  },
  {
    "name": "12",
    "defaultvalue": 0,
    "displayName": "Open Level 12",
    "hidden": 0,
    "description": "Open Level 12",
    "icon": "https://steamcdn-a.akamaihd.net/steamcommunity/public/images/apps/679660/eaf4160cf1be55bbba1692c3dbee82706e85bc70.jpg",
    "icongray": "https://steamcdn-a.akamaihd.net/steamcommunity/public/images/apps/679660/f6c9ea52f52bd2cb8d012a6d6712be1fb250e950.jpg"
  },
  {
    "name": "13",
    "defaultvalue": 0,
    "displayName": "Open Level 13",
    "hidden": 0,
    "description": "Open Level 13",
    "icon": "https://steamcdn-a.akamaihd.net/steamcommunity/public/images/apps/679660/404ee6d9777c1f217e1dda333865b0e46fddb76b.jpg",
    "icongray": "https://steamcdn-a.akamaihd.net/steamcommunity/public/images/apps/679660/a9cfe76cfb999c0166a38c84e4c94e269f34cced.jpg"
  },
  {
    "name": "14",
    "defaultvalue": 0,
    "displayName": "Open Level 14",
    "hidden": 0,
    "description": "Open Level 14",
    "icon": "https://steamcdn-a.akamaihd.net/steamcommunity/public/images/apps/679660/974d4b8f4b0ce8cc7f20d96bf237ff146f34fe90.jpg",
    "icongray": "https://steamcdn-a.akamaihd.net/steamcommunity/public/images/apps/679660/6309e24b85b9bcd0272a96df79e18d029e0ba3b4.jpg"
  },
  {
    "name": "15",
    "defaultvalue": 0,
    "displayName": "Open Level 15",
    "hidden": 0,
    "description": "Open Level 15",
    "icon": "https://steamcdn-a.akamaihd.net/steamcommunity/public/images/apps/679660/eaf5eb2e71be63079b5d6706353a2d75cb5f9a63.jpg",
    "icongray": "https://steamcdn-a.akamaihd.net/steamcommunity/public/images/apps/679660/945635afd60d221914300610b406b12d678c6fd0.jpg"
  },
  {
    "name": "16",
    "defaultvalue": 0,
    "displayName": "Open Level 16",
    "hidden": 0,
    "description": "Open Level 16",
    "icon": "https://steamcdn-a.akamaihd.net/steamcommunity/public/images/apps/679660/9cb19f440f8e8f0d56fe68b75a24b776f69563bf.jpg",
    "icongray": "https://steamcdn-a.akamaihd.net/steamcommunity/public/images/apps/679660/f3ca69cda7467683837500b176f3a75a3bbc08b0.jpg"
  },
  {
    "name": "17",
    "defaultvalue": 0,
    "displayName": "Open Level 17",
    "hidden": 0,
    "description": "Open Level 17",
    "icon": "https://steamcdn-a.akamaihd.net/steamcommunity/public/images/apps/679660/4fddfb0062d937080053ff5063de44eb8fe856b2.jpg",
    "icongray": "https://steamcdn-a.akamaihd.net/steamcommunity/public/images/apps/679660/bd4752f39f6e8b1eef036903a60e2754fbc08a57.jpg"
  },
  {
    "name": "18",
    "defaultvalue": 0,
    "displayName": "Open Level 18",
    "hidden": 0,
    "description": "Open Level 18",
    "icon": "https://steamcdn-a.akamaihd.net/steamcommunity/public/images/apps/679660/b42be12a491022d1039d05ec53172a2c7662f61e.jpg",
    "icongray": "https://steamcdn-a.akamaihd.net/steamcommunity/public/images/apps/679660/5b3ff2035379abe7b7571beebb4e6633161a1398.jpg"
  },
  {
    "name": "19",
    "defaultvalue": 0,
    "displayName": "Open Level 19",
    "hidden": 0,
    "description": "Open Level 19",
    "icon": "https://steamcdn-a.akamaihd.net/steamcommunity/public/images/apps/679660/f30e357384f36b995c2238ad8b3f67d95152ee3f.jpg",
    "icongray": "https://steamcdn-a.akamaihd.net/steamcommunity/public/images/apps/679660/fad815229deb2085be224ea946635cc89367d863.jpg"
  },
  {
    "name": "20",
    "defaultvalue": 0,
    "displayName": "Open Level 20",
    "hidden": 0,
    "description": "Open Level 20",
    "icon": "https://steamcdn-a.akamaihd.net/steamcommunity/public/images/apps/679660/75fc55c5dbf6a831db572b3c8644eb3586aa7b53.jpg",
    "icongray": "https://steamcdn-a.akamaihd.net/steamcommunity/public/images/apps/679660/3e110568f3618b59f624085038156b3f0c394075.jpg"
  },
  {
    "name": "21",
    "defaultvalue": 0,
    "displayName": "A1",
    "hidden": 0,
    "description": "A1",
    "icon": "https://steamcdn-a.akamaihd.net/steamcommunity/public/images/apps/679660/a9bce5062ad6ea879b69c7896a8bed5b867a9988.jpg",
    "icongray": "https://steamcdn-a.akamaihd.net/steamcommunity/public/images/apps/679660/f7c4ce331e3a064ee6ad10614bb55620940a86b6.jpg"
  },
  {
    "name": "22",
    "defaultvalue": 0,
    "displayName": "B1",
    "hidden": 0,
    "description": "B1",
    "icon": "https://steamcdn-a.akamaihd.net/steamcommunity/public/images/apps/679660/46bcbb6d4aa33588ee1d74071b79ed84e42c1a29.jpg",
    "icongray": "https://steamcdn-a.akamaihd.net/steamcommunity/public/images/apps/679660/efcc3137ebecfe109c93d09071af4e3035985392.jpg"
  },
  {
    "name": "23",
    "defaultvalue": 0,
    "displayName": "C1",
    "hidden": 0,
    "description": "C1",
    "icon": "https://steamcdn-a.akamaihd.net/steamcommunity/public/images/apps/679660/606e5f208e11efcfecdd9f4ad9c5b9f67beee981.jpg",
    "icongray": "https://steamcdn-a.akamaihd.net/steamcommunity/public/images/apps/679660/920943bf536d19304f9794f44cc6b1414ccc1e0c.jpg"
  },
  {
    "name": "24",
    "defaultvalue": 0,
    "displayName": "D1",
    "hidden": 0,
    "description": "D1",
    "icon": "https://steamcdn-a.akamaihd.net/steamcommunity/public/images/apps/679660/aee8317937f19a6c6d1c7ff1ee052e40d1b9bea5.jpg",
    "icongray": "https://steamcdn-a.akamaihd.net/steamcommunity/public/images/apps/679660/66a03d8a754f8ef417b9892d2cc9a8be099d136f.jpg"
  },
  {
    "name": "25",
    "defaultvalue": 0,
    "displayName": "E1",
    "hidden": 0,
    "description": "E1",
    "icon": "https://steamcdn-a.akamaihd.net/steamcommunity/public/images/apps/679660/613c247a41eabe007f3f5e23d7498e3556aa8ddd.jpg",
    "icongray": "https://steamcdn-a.akamaihd.net/steamcommunity/public/images/apps/679660/bfa4bca6b9b2649505c873d7313c7642d47a2a4d.jpg"
  },
  {
    "name": "26",
    "defaultvalue": 0,
    "displayName": "F1",
    "hidden": 0,
    "description": "F1",
    "icon": "https://steamcdn-a.akamaihd.net/steamcommunity/public/images/apps/679660/9b03790459018910f8bad2ebe29d6634130c6e7f.jpg",
    "icongray": "https://steamcdn-a.akamaihd.net/steamcommunity/public/images/apps/679660/f8444adcb77e9669b51f196c3fe4614597286228.jpg"
  },
  {
    "name": "27",
    "defaultvalue": 0,
    "displayName": "G1",
    "hidden": 0,
    "description": "G1",
    "icon": "https://steamcdn-a.akamaihd.net/steamcommunity/public/images/apps/679660/cddf57c776c0341f3da2197641fe907caf36a4dc.jpg",
    "icongray": "https://steamcdn-a.akamaihd.net/steamcommunity/public/images/apps/679660/919e197574eab596341ce99f743f85448041a485.jpg"
  },
  {
    "name": "28",
    "defaultvalue": 0,
    "displayName": "H1",
    "hidden": 0,
    "description": "H1",
    "icon": "https://steamcdn-a.akamaihd.net/steamcommunity/public/images/apps/679660/35a655239e03b3e939322d0bc0528930b376bd0b.jpg",
    "icongray": "https://steamcdn-a.akamaihd.net/steamcommunity/public/images/apps/679660/c8be4be530084854a179ae5209c55caf15326742.jpg"
  },
  {
    "name": "29",
    "defaultvalue": 0,
    "displayName": "I1",
    "hidden": 0,
    "description": "I1",
    "icon": "https://steamcdn-a.akamaihd.net/steamcommunity/public/images/apps/679660/e2cb1c8f1da88846a502bef1c15f789e26b02d36.jpg",
    "icongray": "https://steamcdn-a.akamaihd.net/steamcommunity/public/images/apps/679660/c3ff51637c46e741f60fcbac6f39df349d01bf1d.jpg"
  },
  {
    "name": "30",
    "defaultvalue": 0,
    "displayName": "J1",
    "hidden": 0,
    "description": "J1",
    "icon": "https://steamcdn-a.akamaihd.net/steamcommunity/public/images/apps/679660/fed81af68efc1b1d16796a5a9c0578006cfd46d1.jpg",
    "icongray": "https://steamcdn-a.akamaihd.net/steamcommunity/public/images/apps/679660/0a080d0c04c9248ed98bbf90b12fc4b85f6b785b.jpg"
  },
  {
    "name": "31",
    "defaultvalue": 0,
    "displayName": "K1",
    "hidden": 0,
    "description": "K1",
    "icon": "https://steamcdn-a.akamaihd.net/steamcommunity/public/images/apps/679660/e81dd223f386dfab31323eccf8f75e746105ce2d.jpg",
    "icongray": "https://steamcdn-a.akamaihd.net/steamcommunity/public/images/apps/679660/75dc4e52efa4ac764f589d9bac711626cf8ff01b.jpg"
  },
  {
    "name": "32",
    "defaultvalue": 0,
    "displayName": "L1",
    "hidden": 0,
    "description": "L1",
    "icon": "https://steamcdn-a.akamaihd.net/steamcommunity/public/images/apps/679660/4b81f905f8339236038a63e203f78e1d7802df9a.jpg",
    "icongray": "https://steamcdn-a.akamaihd.net/steamcommunity/public/images/apps/679660/4949f6a7d7646a00366e3e50ca2f05415da3e377.jpg"
  },
  {
    "name": "33",
    "defaultvalue": 0,
    "displayName": "M1",
    "hidden": 0,
    "description": "M1",
    "icon": "https://steamcdn-a.akamaihd.net/steamcommunity/public/images/apps/679660/e9c73e88979cebd0d8249c2553c015bab434a4bb.jpg",
    "icongray": "https://steamcdn-a.akamaihd.net/steamcommunity/public/images/apps/679660/b878a79b2cd15abeea861d77de6d3acac408c767.jpg"
  },
  {
    "name": "34",
    "defaultvalue": 0,
    "displayName": "N1",
    "hidden": 0,
    "description": "N1",
    "icon": "https://steamcdn-a.akamaihd.net/steamcommunity/public/images/apps/679660/ee4a97f3e7208d7bcbb485693c491901bdd93b21.jpg",
    "icongray": "https://steamcdn-a.akamaihd.net/steamcommunity/public/images/apps/679660/1ab18df8ed003c460fa0bb89d33de97fec9b956e.jpg"
  },
  {
    "name": "35",
    "defaultvalue": 0,
    "displayName": "O1",
    "hidden": 0,
    "description": "O1",
    "icon": "https://steamcdn-a.akamaihd.net/steamcommunity/public/images/apps/679660/58051502aa4bd2b8b7bb39b2d14115ef8a2125c4.jpg",
    "icongray": "https://steamcdn-a.akamaihd.net/steamcommunity/public/images/apps/679660/367a1493bec8931b98a10004b6ce16306905882b.jpg"
  },
  {
    "name": "36",
    "defaultvalue": 0,
    "displayName": "P1",
    "hidden": 0,
    "description": "P1",
    "icon": "https://steamcdn-a.akamaihd.net/steamcommunity/public/images/apps/679660/811ad07c67fd3f8927358ac11daa4e763854272b.jpg",
    "icongray": "https://steamcdn-a.akamaihd.net/steamcommunity/public/images/apps/679660/e284213c140473f60ea5ec9411e8cc0db4ffcdd5.jpg"
  },
  {
    "name": "37",
    "defaultvalue": 0,
    "displayName": "Q1",
    "hidden": 0,
    "description": "Q1",
    "icon": "https://steamcdn-a.akamaihd.net/steamcommunity/public/images/apps/679660/6791670c6631faf0105a3517b9062ad204e48167.jpg",
    "icongray": "https://steamcdn-a.akamaihd.net/steamcommunity/public/images/apps/679660/02299d8368c778ec61b71cf8484c6ab43a744e77.jpg"
  },
  {
    "name": "38",
    "defaultvalue": 0,
    "displayName": "R1",
    "hidden": 0,
    "description": "R1",
    "icon": "https://steamcdn-a.akamaihd.net/steamcommunity/public/images/apps/679660/d12907090cf616acac8719596402c0ffe1cc2165.jpg",
    "icongray": "https://steamcdn-a.akamaihd.net/steamcommunity/public/images/apps/679660/68d877233437e8fb34a3044b563b13dfa599e8ce.jpg"
  },
  {
    "name": "39",
    "defaultvalue": 0,
    "displayName": "S1",
    "hidden": 0,
    "description": "S1",
    "icon": "https://steamcdn-a.akamaihd.net/steamcommunity/public/images/apps/679660/3d9fa8ae21fc6771f3bba5db0d25c8cb67d5467f.jpg",
    "icongray": "https://steamcdn-a.akamaihd.net/steamcommunity/public/images/apps/679660/745f6a43d4e3620cb43ef280fe58fade9981a1d2.jpg"
  },
  {
    "name": "40",
    "defaultvalue": 0,
    "displayName": "T1",
    "hidden": 0,
    "description": "T1",
    "icon": "https://steamcdn-a.akamaihd.net/steamcommunity/public/images/apps/679660/b53d3422d793614bbceb6647f031dde37886d24f.jpg",
    "icongray": "https://steamcdn-a.akamaihd.net/steamcommunity/public/images/apps/679660/c7564d0a36f0f7cb87c3b6b150de8f95a031f563.jpg"
  },
  {
    "name": "41",
    "defaultvalue": 0,
    "displayName": "U1",
    "hidden": 0,
    "description": "U1",
    "icon": "https://steamcdn-a.akamaihd.net/steamcommunity/public/images/apps/679660/e788fc6d109e202484236ec84fe2f7b245909e90.jpg",
    "icongray": "https://steamcdn-a.akamaihd.net/steamcommunity/public/images/apps/679660/1693531e48e4fffd6b1c18fd091e7475bd197f4a.jpg"
  },
  {
    "name": "42",
    "defaultvalue": 0,
    "displayName": "V1",
    "hidden": 0,
    "description": "V1",
    "icon": "https://steamcdn-a.akamaihd.net/steamcommunity/public/images/apps/679660/4ddf1e1868539c3147b385b252d06e704dbca2bd.jpg",
    "icongray": "https://steamcdn-a.akamaihd.net/steamcommunity/public/images/apps/679660/2a5bbef9b322fae8f569ac0f8e2d76baffa8b630.jpg"
  },
  {
    "name": "43",
    "defaultvalue": 0,
    "displayName": "W1",
    "hidden": 0,
    "description": "W1",
    "icon": "https://steamcdn-a.akamaihd.net/steamcommunity/public/images/apps/679660/97cef06d47e0a53ad0e9af8ee9513aa2b22e30fd.jpg",
    "icongray": "https://steamcdn-a.akamaihd.net/steamcommunity/public/images/apps/679660/c633f08d12d3aa82e238b8b9adc0e048e1448a9e.jpg"
  },
  {
    "name": "44",
    "defaultvalue": 0,
    "displayName": "X1",
    "hidden": 0,
    "description": "X1",
    "icon": "https://steamcdn-a.akamaihd.net/steamcommunity/public/images/apps/679660/d2f3a91dd3ac95e869f8b4d8d9626179a095279b.jpg",
    "icongray": "https://steamcdn-a.akamaihd.net/steamcommunity/public/images/apps/679660/e0ae06b7f0ebd6780523959b384d6937a64d7f9f.jpg"
  },
  {
    "name": "45",
    "defaultvalue": 0,
    "displayName": "Y1",
    "hidden": 0,
    "description": "Y1",
    "icon": "https://steamcdn-a.akamaihd.net/steamcommunity/public/images/apps/679660/be872641e7d38211764e4fc1d311545b51e225e7.jpg",
    "icongray": "https://steamcdn-a.akamaihd.net/steamcommunity/public/images/apps/679660/0c95a34522dc48738f62d29bc2e1e85e30a1622b.jpg"
  },
  {
    "name": "46",
    "defaultvalue": 0,
    "displayName": "Z1",
    "hidden": 0,
    "description": "Z1",
    "icon": "https://steamcdn-a.akamaihd.net/steamcommunity/public/images/apps/679660/cf23d5462d41f9c8b6f8ed989fceeee11bd8f6ab.jpg",
    "icongray": "https://steamcdn-a.akamaihd.net/steamcommunity/public/images/apps/679660/15083179a37b7d52cee2c1e21015ddc00bc1651e.jpg"
  },
  {
    "name": "47",
    "defaultvalue": 0,
    "displayName": "A2",
    "hidden": 0,
    "description": "A2",
    "icon": "https://steamcdn-a.akamaihd.net/steamcommunity/public/images/apps/679660/8abf973f947bb6e6491375d5b1f529f8b9c8ed22.jpg",
    "icongray": "https://steamcdn-a.akamaihd.net/steamcommunity/public/images/apps/679660/f7c4ce331e3a064ee6ad10614bb55620940a86b6.jpg"
  },
  {
    "name": "48",
    "defaultvalue": 0,
    "displayName": "B2",
    "hidden": 0,
    "description": "B2",
    "icon": "https://steamcdn-a.akamaihd.net/steamcommunity/public/images/apps/679660/89eb2b7b38c9af2b718a16dc4580187a38085606.jpg",
    "icongray": "https://steamcdn-a.akamaihd.net/steamcommunity/public/images/apps/679660/efcc3137ebecfe109c93d09071af4e3035985392.jpg"
  },
  {
    "name": "49",
    "defaultvalue": 0,
    "displayName": "C2",
    "hidden": 0,
    "description": "C2",
    "icon": "https://steamcdn-a.akamaihd.net/steamcommunity/public/images/apps/679660/cf178b2f6b899dc4de741a0b978188b5d2a42d18.jpg",
    "icongray": "https://steamcdn-a.akamaihd.net/steamcommunity/public/images/apps/679660/920943bf536d19304f9794f44cc6b1414ccc1e0c.jpg"
  },
  {
    "name": "50",
    "defaultvalue": 0,
    "displayName": "D2",
    "hidden": 0,
    "description": "D2",
    "icon": "https://steamcdn-a.akamaihd.net/steamcommunity/public/images/apps/679660/016c5f3635f42aa2a146b2d9ec7bcd02c288c075.jpg",
    "icongray": "https://steamcdn-a.akamaihd.net/steamcommunity/public/images/apps/679660/66a03d8a754f8ef417b9892d2cc9a8be099d136f.jpg"
  },
  {
    "name": "51",
    "defaultvalue": 0,
    "displayName": "E2",
    "hidden": 0,
    "description": "E2",
    "icon": "https://steamcdn-a.akamaihd.net/steamcommunity/public/images/apps/679660/2b2b9e242254cd9eafe9cc81a60fd6f2eeb42241.jpg",
    "icongray": "https://steamcdn-a.akamaihd.net/steamcommunity/public/images/apps/679660/bfa4bca6b9b2649505c873d7313c7642d47a2a4d.jpg"
  },
  {
    "name": "52",
    "defaultvalue": 0,
    "displayName": "F2",
    "hidden": 0,
    "description": "F2",
    "icon": "https://steamcdn-a.akamaihd.net/steamcommunity/public/images/apps/679660/395688fcb908f53ab703ace2ae2a37aca524ced8.jpg",
    "icongray": "https://steamcdn-a.akamaihd.net/steamcommunity/public/images/apps/679660/f8444adcb77e9669b51f196c3fe4614597286228.jpg"
  },
  {
    "name": "53",
    "defaultvalue": 0,
    "displayName": "G2",
    "hidden": 0,
    "description": "G2",
    "icon": "https://steamcdn-a.akamaihd.net/steamcommunity/public/images/apps/679660/f72ed500dcaddab049f1b9b30b8328f93c74f326.jpg",
    "icongray": "https://steamcdn-a.akamaihd.net/steamcommunity/public/images/apps/679660/919e197574eab596341ce99f743f85448041a485.jpg"
  },
  {
    "name": "54",
    "defaultvalue": 0,
    "displayName": "H2",
    "hidden": 0,
    "description": "H2",
    "icon": "https://steamcdn-a.akamaihd.net/steamcommunity/public/images/apps/679660/fcec84a8334a26b749487dcb5cd33174f55e7da5.jpg",
    "icongray": "https://steamcdn-a.akamaihd.net/steamcommunity/public/images/apps/679660/c8be4be530084854a179ae5209c55caf15326742.jpg"
  },
  {
    "name": "55",
    "defaultvalue": 0,
    "displayName": "I2",
    "hidden": 0,
    "description": "I2",
    "icon": "https://steamcdn-a.akamaihd.net/steamcommunity/public/images/apps/679660/df26ae3143a13635420d0187be3ff9403df6b806.jpg",
    "icongray": "https://steamcdn-a.akamaihd.net/steamcommunity/public/images/apps/679660/c3ff51637c46e741f60fcbac6f39df349d01bf1d.jpg"
  },
  {
    "name": "56",
    "defaultvalue": 0,
    "displayName": "J2",
    "hidden": 0,
    "description": "J2",
    "icon": "https://steamcdn-a.akamaihd.net/steamcommunity/public/images/apps/679660/11f3ae0256074f472428db9658984fae498079be.jpg",
    "icongray": "https://steamcdn-a.akamaihd.net/steamcommunity/public/images/apps/679660/0a080d0c04c9248ed98bbf90b12fc4b85f6b785b.jpg"
  },
  {
    "name": "57",
    "defaultvalue": 0,
    "displayName": "K2",
    "hidden": 0,
    "description": "K2",
    "icon": "https://steamcdn-a.akamaihd.net/steamcommunity/public/images/apps/679660/e33de689e2d6e518b1260757dace7758eeb86f00.jpg",
    "icongray": "https://steamcdn-a.akamaihd.net/steamcommunity/public/images/apps/679660/75dc4e52efa4ac764f589d9bac711626cf8ff01b.jpg"
  },
  {
    "name": "58",
    "defaultvalue": 0,
    "displayName": "L2",
    "hidden": 0,
    "description": "L2",
    "icon": "https://steamcdn-a.akamaihd.net/steamcommunity/public/images/apps/679660/b49a7b0745328fcfb25c87fa2d2fa7a89139fab8.jpg",
    "icongray": "https://steamcdn-a.akamaihd.net/steamcommunity/public/images/apps/679660/4949f6a7d7646a00366e3e50ca2f05415da3e377.jpg"
  },
  {
    "name": "59",
    "defaultvalue": 0,
    "displayName": "M2",
    "hidden": 0,
    "description": "M2",
    "icon": "https://steamcdn-a.akamaihd.net/steamcommunity/public/images/apps/679660/c39cb8234283e64bb2c50798a9218c544f7600bb.jpg",
    "icongray": "https://steamcdn-a.akamaihd.net/steamcommunity/public/images/apps/679660/b878a79b2cd15abeea861d77de6d3acac408c767.jpg"
  },
  {
    "name": "60",
    "defaultvalue": 0,
    "displayName": "N2",
    "hidden": 0,
    "description": "N2",
    "icon": "https://steamcdn-a.akamaihd.net/steamcommunity/public/images/apps/679660/e02be6914d94715074e9257c0072dfa9d58e8229.jpg",
    "icongray": "https://steamcdn-a.akamaihd.net/steamcommunity/public/images/apps/679660/1ab18df8ed003c460fa0bb89d33de97fec9b956e.jpg"
  },
  {
    "name": "61",
    "defaultvalue": 0,
    "displayName": "On The level 1",
    "hidden": 0,
    "description": "On The level 1",
    "icon": "https://steamcdn-a.akamaihd.net/steamcommunity/public/images/apps/679660/2167c315d890adc7e1dd5efe1c12b68a4e858f6d.jpg",
    "icongray": "https://steamcdn-a.akamaihd.net/steamcommunity/public/images/apps/679660/1c0302e06dfdad854bb150af5638a9188319b8db.jpg"
  },
  {
    "name": "62",
    "defaultvalue": 0,
    "displayName": "On The level 2",
    "hidden": 0,
    "description": "On The level 2",
    "icon": "https://steamcdn-a.akamaihd.net/steamcommunity/public/images/apps/679660/45423bcd2a1ed55331358bbd47550bcc80ced8a9.jpg",
    "icongray": "https://steamcdn-a.akamaihd.net/steamcommunity/public/images/apps/679660/56d1c3b44839f35e847df51d7f45d8a5be36b5a7.jpg"
  },
  {
    "name": "63",
    "defaultvalue": 0,
    "displayName": "On The level 3",
    "hidden": 0,
    "description": "On The level 3",
    "icon": "https://steamcdn-a.akamaihd.net/steamcommunity/public/images/apps/679660/106afcd2f2d2fd53fea77f7050d541a7202d6396.jpg",
    "icongray": "https://steamcdn-a.akamaihd.net/steamcommunity/public/images/apps/679660/33d27e330ed67e7a19c61c3989defd39ad98c4fe.jpg"
  },
  {
    "name": "64",
    "defaultvalue": 0,
    "displayName": "On The level 4",
    "hidden": 0,
    "description": "On The level 4",
    "icon": "https://steamcdn-a.akamaihd.net/steamcommunity/public/images/apps/679660/cd963f308e4ab2699fbb404120a688cd1f9d1110.jpg",
    "icongray": "https://steamcdn-a.akamaihd.net/steamcommunity/public/images/apps/679660/618a670aab15b42c85069d6bfca6d0fe2ce4b196.jpg"
  },
  {
    "name": "65",
    "defaultvalue": 0,
    "displayName": "On The level 5",
    "hidden": 0,
    "description": "On The level 5",
    "icon": "https://steamcdn-a.akamaihd.net/steamcommunity/public/images/apps/679660/fd6f0b5248d5dc968fef8c65a11b861d2c62cf74.jpg",
    "icongray": "https://steamcdn-a.akamaihd.net/steamcommunity/public/images/apps/679660/46d2bee0f96b7cebc5ad17567cce6513f45fc0c4.jpg"
  },
  {
    "name": "66",
    "defaultvalue": 0,
    "displayName": "On The level 6",
    "hidden": 0,
    "description": "On The level 6",
    "icon": "https://steamcdn-a.akamaihd.net/steamcommunity/public/images/apps/679660/3feee43e0afb9c41c7f3b7b2e746b177bdc12f47.jpg",
    "icongray": "https://steamcdn-a.akamaihd.net/steamcommunity/public/images/apps/679660/54d636ca82e8393f8b5b479eb36007bc1d6f0f2b.jpg"
  },
  {
    "name": "67",
    "defaultvalue": 0,
    "displayName": "On The level 7",
    "hidden": 0,
    "description": "On The level 7",
    "icon": "https://steamcdn-a.akamaihd.net/steamcommunity/public/images/apps/679660/1be5afc22c457f89b1e0db668f14c134a59337c2.jpg",
    "icongray": "https://steamcdn-a.akamaihd.net/steamcommunity/public/images/apps/679660/256a826c8d07612adbddbaff38eecbf1accc7093.jpg"
  },
  {
    "name": "68",
    "defaultvalue": 0,
    "displayName": "On The level 8",
    "hidden": 0,
    "description": "On The level 8",
    "icon": "https://steamcdn-a.akamaihd.net/steamcommunity/public/images/apps/679660/be6808832e16d260a1004a24a247d87e8e892fb7.jpg",
    "icongray": "https://steamcdn-a.akamaihd.net/steamcommunity/public/images/apps/679660/d9b194d70db99ec325bbcff19c44067e1aede57c.jpg"
  },
  {
    "name": "69",
    "defaultvalue": 0,
    "displayName": "On The level 9",
    "hidden": 0,
    "description": "On The level 9",
    "icon": "https://steamcdn-a.akamaihd.net/steamcommunity/public/images/apps/679660/0da4035f374391a107488ff140e718d4717511ba.jpg",
    "icongray": "https://steamcdn-a.akamaihd.net/steamcommunity/public/images/apps/679660/db50c08968385d6ad5b700b104cb4b186b9a26d0.jpg"
  },
  {
    "name": "70",
    "defaultvalue": 0,
    "displayName": "On The level 10",
    "hidden": 0,
    "description": "On The level 10",
    "icon": "https://steamcdn-a.akamaihd.net/steamcommunity/public/images/apps/679660/51c6560b8822d74df6394dac6b4f8783916d998c.jpg",
    "icongray": "https://steamcdn-a.akamaihd.net/steamcommunity/public/images/apps/679660/ffdc90720976d478a7b3339a63ee7b0fcca77fb0.jpg"
  },
  {
    "name": "71",
    "defaultvalue": 0,
    "displayName": "On The level 11",
    "hidden": 0,
    "description": "On The level 11",
    "icon": "https://steamcdn-a.akamaihd.net/steamcommunity/public/images/apps/679660/ca1992e5a21733814c353859a7b44d80859a5b23.jpg",
    "icongray": "https://steamcdn-a.akamaihd.net/steamcommunity/public/images/apps/679660/229ec531b1022bb8b59d6454bff8ff53233c3cc2.jpg"
  },
  {
    "name": "72",
    "defaultvalue": 0,
    "displayName": "On The level 12",
    "hidden": 0,
    "description": "On The level 12",
    "icon": "https://steamcdn-a.akamaihd.net/steamcommunity/public/images/apps/679660/f90cbff804df5d6282abc363d51ee63a2974a0d8.jpg",
    "icongray": "https://steamcdn-a.akamaihd.net/steamcommunity/public/images/apps/679660/f6c9ea52f52bd2cb8d012a6d6712be1fb250e950.jpg"
  },
  {
    "name": "73",
    "defaultvalue": 0,
    "displayName": "On The level 13",
    "hidden": 0,
    "description": "On The level 13",
    "icon": "https://steamcdn-a.akamaihd.net/steamcommunity/public/images/apps/679660/272651d8734e8bd4898cb4b8ce6c4108c285a497.jpg",
    "icongray": "https://steamcdn-a.akamaihd.net/steamcommunity/public/images/apps/679660/a9cfe76cfb999c0166a38c84e4c94e269f34cced.jpg"
  },
  {
    "name": "74",
    "defaultvalue": 0,
    "displayName": "On The level 14",
    "hidden": 0,
    "description": "On The level 14",
    "icon": "https://steamcdn-a.akamaihd.net/steamcommunity/public/images/apps/679660/3bd340eb2beb6efa210c5f6e985917491d5c244d.jpg",
    "icongray": "https://steamcdn-a.akamaihd.net/steamcommunity/public/images/apps/679660/6309e24b85b9bcd0272a96df79e18d029e0ba3b4.jpg"
  },
  {
    "name": "75",
    "defaultvalue": 0,
    "displayName": "On The level 15",
    "hidden": 0,
    "description": "On The level 15",
    "icon": "https://steamcdn-a.akamaihd.net/steamcommunity/public/images/apps/679660/b2d59201499bc0c7da397e9a779382c0100185f6.jpg",
    "icongray": "https://steamcdn-a.akamaihd.net/steamcommunity/public/images/apps/679660/945635afd60d221914300610b406b12d678c6fd0.jpg"
  },
  {
    "name": "76",
    "defaultvalue": 0,
    "displayName": "On The level 16",
    "hidden": 0,
    "description": "On The level 16",
    "icon": "https://steamcdn-a.akamaihd.net/steamcommunity/public/images/apps/679660/6cdbe6af39d557a9e395f9a6ff16017dce4e81c4.jpg",
    "icongray": "https://steamcdn-a.akamaihd.net/steamcommunity/public/images/apps/679660/f3ca69cda7467683837500b176f3a75a3bbc08b0.jpg"
  },
  {
    "name": "77",
    "defaultvalue": 0,
    "displayName": "On The level 17",
    "hidden": 0,
    "description": "On The level 17",
    "icon": "https://steamcdn-a.akamaihd.net/steamcommunity/public/images/apps/679660/4077a412d23800183f21a06f81ce6471c61e7c80.jpg",
    "icongray": "https://steamcdn-a.akamaihd.net/steamcommunity/public/images/apps/679660/bd4752f39f6e8b1eef036903a60e2754fbc08a57.jpg"
  },
  {
    "name": "78",
    "defaultvalue": 0,
    "displayName": "On The level 18",
    "hidden": 0,
    "description": "On The level 18",
    "icon": "https://steamcdn-a.akamaihd.net/steamcommunity/public/images/apps/679660/2825c5986b71f4dd76de2f4f3a34dc917935f6ee.jpg",
    "icongray": "https://steamcdn-a.akamaihd.net/steamcommunity/public/images/apps/679660/5b3ff2035379abe7b7571beebb4e6633161a1398.jpg"
  },
  {
    "name": "79",
    "defaultvalue": 0,
    "displayName": "On The level 19",
    "hidden": 0,
    "description": "On The level 19",
    "icon": "https://steamcdn-a.akamaihd.net/steamcommunity/public/images/apps/679660/d76aba51fc2f155a3194a66056434d9a523a550f.jpg",
    "icongray": "https://steamcdn-a.akamaihd.net/steamcommunity/public/images/apps/679660/fad815229deb2085be224ea946635cc89367d863.jpg"
  },
  {
    "name": "80",
    "defaultvalue": 0,
    "displayName": "On The level 20",
    "hidden": 0,
    "description": "On The level 20",
    "icon": "https://steamcdn-a.akamaihd.net/steamcommunity/public/images/apps/679660/508e11a6ae8b15e9df678d395358da46c658adb5.jpg",
    "icongray": "https://steamcdn-a.akamaihd.net/steamcommunity/public/images/apps/679660/3e110568f3618b59f624085038156b3f0c394075.jpg"
  },
  {
    "name": "81",
    "defaultvalue": 0,
    "displayName": "O2",
    "hidden": 0,
    "description": "O2",
    "icon": "https://steamcdn-a.akamaihd.net/steamcommunity/public/images/apps/679660/19830e4a7993d38fb9d7e9617604ac22cc4b20a4.jpg",
    "icongray": "https://steamcdn-a.akamaihd.net/steamcommunity/public/images/apps/679660/367a1493bec8931b98a10004b6ce16306905882b.jpg"
  },
  {
    "name": "82",
    "defaultvalue": 0,
    "displayName": "P2",
    "hidden": 0,
    "description": "P2",
    "icon": "https://steamcdn-a.akamaihd.net/steamcommunity/public/images/apps/679660/aed697a3cc3aeae048b2e16e65fb5d9ce00bf237.jpg",
    "icongray": "https://steamcdn-a.akamaihd.net/steamcommunity/public/images/apps/679660/e284213c140473f60ea5ec9411e8cc0db4ffcdd5.jpg"
  },
  {
    "name": "83",
    "defaultvalue": 0,
    "displayName": "Q2",
    "hidden": 0,
    "description": "Q2",
    "icon": "https://steamcdn-a.akamaihd.net/steamcommunity/public/images/apps/679660/56dd13e991176ba873efa07c8a466d7d406713b4.jpg",
    "icongray": "https://steamcdn-a.akamaihd.net/steamcommunity/public/images/apps/679660/02299d8368c778ec61b71cf8484c6ab43a744e77.jpg"
  },
  {
    "name": "84",
    "defaultvalue": 0,
    "displayName": "R2",
    "hidden": 0,
    "description": "R2",
    "icon": "https://steamcdn-a.akamaihd.net/steamcommunity/public/images/apps/679660/867f54f39b6a484c9fbb8b8fa9c4a66c9f7c1738.jpg",
    "icongray": "https://steamcdn-a.akamaihd.net/steamcommunity/public/images/apps/679660/68d877233437e8fb34a3044b563b13dfa599e8ce.jpg"
  },
  {
    "name": "85",
    "defaultvalue": 0,
    "displayName": "S2",
    "hidden": 0,
    "description": "S2",
    "icon": "https://steamcdn-a.akamaihd.net/steamcommunity/public/images/apps/679660/26d756642b7b914cf5e5b7cbe9f0d810735816b8.jpg",
    "icongray": "https://steamcdn-a.akamaihd.net/steamcommunity/public/images/apps/679660/745f6a43d4e3620cb43ef280fe58fade9981a1d2.jpg"
  },
  {
    "name": "86",
    "defaultvalue": 0,
    "displayName": "T2",
    "hidden": 0,
    "description": "T2",
    "icon": "https://steamcdn-a.akamaihd.net/steamcommunity/public/images/apps/679660/0eaf40b0545f19b36b82c4fda60b4033c926de1a.jpg",
    "icongray": "https://steamcdn-a.akamaihd.net/steamcommunity/public/images/apps/679660/c7564d0a36f0f7cb87c3b6b150de8f95a031f563.jpg"
  },
  {
    "name": "87",
    "defaultvalue": 0,
    "displayName": "U2",
    "hidden": 0,
    "description": "U2",
    "icon": "https://steamcdn-a.akamaihd.net/steamcommunity/public/images/apps/679660/934c71aa7dbcbbe15a65c66ca2c8b1734dd1e539.jpg",
    "icongray": "https://steamcdn-a.akamaihd.net/steamcommunity/public/images/apps/679660/1693531e48e4fffd6b1c18fd091e7475bd197f4a.jpg"
  },
  {
    "name": "88",
    "defaultvalue": 0,
    "displayName": "V2",
    "hidden": 0,
    "description": "V2",
    "icon": "https://steamcdn-a.akamaihd.net/steamcommunity/public/images/apps/679660/cab56e501c876a38fc205b236783c4494c7fffe1.jpg",
    "icongray": "https://steamcdn-a.akamaihd.net/steamcommunity/public/images/apps/679660/2a5bbef9b322fae8f569ac0f8e2d76baffa8b630.jpg"
  },
  {
    "name": "89",
    "defaultvalue": 0,
    "displayName": "W2",
    "hidden": 0,
    "description": "W2",
    "icon": "https://steamcdn-a.akamaihd.net/steamcommunity/public/images/apps/679660/0e84be46bf06c84858c18f8bbca4788c7629e987.jpg",
    "icongray": "https://steamcdn-a.akamaihd.net/steamcommunity/public/images/apps/679660/c633f08d12d3aa82e238b8b9adc0e048e1448a9e.jpg"
  },
  {
    "name": "90",
    "defaultvalue": 0,
    "displayName": "X2",
    "hidden": 0,
    "description": "X2",
    "icon": "https://steamcdn-a.akamaihd.net/steamcommunity/public/images/apps/679660/080612f3d627882334379d246d94982df8ccd2cb.jpg",
    "icongray": "https://steamcdn-a.akamaihd.net/steamcommunity/public/images/apps/679660/e0ae06b7f0ebd6780523959b384d6937a64d7f9f.jpg"
  },
  {
    "name": "91",
    "defaultvalue": 0,
    "displayName": "Y2",
    "hidden": 0,
    "description": "Y2",
    "icon": "https://steamcdn-a.akamaihd.net/steamcommunity/public/images/apps/679660/3bb4ac443d6728f086284afff457dc788733209f.jpg",
    "icongray": "https://steamcdn-a.akamaihd.net/steamcommunity/public/images/apps/679660/0c95a34522dc48738f62d29bc2e1e85e30a1622b.jpg"
  },
  {
    "name": "92",
    "defaultvalue": 0,
    "displayName": "Z2",
    "hidden": 0,
    "description": "Z2",
    "icon": "https://steamcdn-a.akamaihd.net/steamcommunity/public/images/apps/679660/d525d807ba3eddd5f656d4c5d4cc5b30743c5864.jpg",
    "icongray": "https://steamcdn-a.akamaihd.net/steamcommunity/public/images/apps/679660/15083179a37b7d52cee2c1e21015ddc00bc1651e.jpg"
  },
  {
    "name": "93",
    "defaultvalue": 0,
    "displayName": "A3",
    "hidden": 0,
    "description": "A3",
    "icon": "https://steamcdn-a.akamaihd.net/steamcommunity/public/images/apps/679660/47a561b9a0e2af8034fdb1f156b91720469abcdc.jpg",
    "icongray": "https://steamcdn-a.akamaihd.net/steamcommunity/public/images/apps/679660/f7c4ce331e3a064ee6ad10614bb55620940a86b6.jpg"
  },
  {
    "name": "94",
    "defaultvalue": 0,
    "displayName": "B3",
    "hidden": 0,
    "description": "B3",
    "icon": "https://steamcdn-a.akamaihd.net/steamcommunity/public/images/apps/679660/832ee9ebadacad9c8fa906cff0749063daaa1529.jpg",
    "icongray": "https://steamcdn-a.akamaihd.net/steamcommunity/public/images/apps/679660/efcc3137ebecfe109c93d09071af4e3035985392.jpg"
  },
  {
    "name": "95",
    "defaultvalue": 0,
    "displayName": "C3",
    "hidden": 0,
    "description": "C3",
    "icon": "https://steamcdn-a.akamaihd.net/steamcommunity/public/images/apps/679660/b948e4601d0f3accaa87e970603d825e53794e4c.jpg",
    "icongray": "https://steamcdn-a.akamaihd.net/steamcommunity/public/images/apps/679660/920943bf536d19304f9794f44cc6b1414ccc1e0c.jpg"
  },
  {
    "name": "96",
    "defaultvalue": 0,
    "displayName": "D3",
    "hidden": 0,
    "description": "D3",
    "icon": "https://steamcdn-a.akamaihd.net/steamcommunity/public/images/apps/679660/2b84cd6251ce5ff930fa4cef832caaf307dfef7c.jpg",
    "icongray": "https://steamcdn-a.akamaihd.net/steamcommunity/public/images/apps/679660/66a03d8a754f8ef417b9892d2cc9a8be099d136f.jpg"
  },
  {
    "name": "97",
    "defaultvalue": 0,
    "displayName": "E3",
    "hidden": 0,
    "description": "E3",
    "icon": "https://steamcdn-a.akamaihd.net/steamcommunity/public/images/apps/679660/ac24305ba052153f9cd23645478af894f40719c9.jpg",
    "icongray": "https://steamcdn-a.akamaihd.net/steamcommunity/public/images/apps/679660/bfa4bca6b9b2649505c873d7313c7642d47a2a4d.jpg"
  },
  {
    "name": "98",
    "defaultvalue": 0,
    "displayName": "F3",
    "hidden": 0,
    "description": "F3",
    "icon": "https://steamcdn-a.akamaihd.net/steamcommunity/public/images/apps/679660/ef8da3ad99a6c8d2c92c07387324b5fcae668ea6.jpg",
    "icongray": "https://steamcdn-a.akamaihd.net/steamcommunity/public/images/apps/679660/f8444adcb77e9669b51f196c3fe4614597286228.jpg"
  },
  {
    "name": "99",
    "defaultvalue": 0,
    "displayName": "G3",
    "hidden": 0,
    "description": "G3",
    "icon": "https://steamcdn-a.akamaihd.net/steamcommunity/public/images/apps/679660/d9cc6897be47bf51c807b9c5ac69ce404fb0cfa9.jpg",
    "icongray": "https://steamcdn-a.akamaihd.net/steamcommunity/public/images/apps/679660/919e197574eab596341ce99f743f85448041a485.jpg"
  },
  {
    "name": "100",
    "defaultvalue": 0,
    "displayName": "H3",
    "hidden": 0,
    "description": "H3",
    "icon": "https://steamcdn-a.akamaihd.net/steamcommunity/public/images/apps/679660/e67c40c1de7cf5805c4c1f577fdf46a7a1ddbddc.jpg",
    "icongray": "https://steamcdn-a.akamaihd.net/steamcommunity/public/images/apps/679660/c8be4be530084854a179ae5209c55caf15326742.jpg"
  },
  {
    "name": "101",
    "defaultvalue": 0,
    "displayName": "I3",
    "hidden": 0,
    "description": "I3",
    "icon": "https://steamcdn-a.akamaihd.net/steamcommunity/public/images/apps/679660/70ab3693bac93fa6f3fe78737927b363cfec5ee9.jpg",
    "icongray": "https://steamcdn-a.akamaihd.net/steamcommunity/public/images/apps/679660/c3ff51637c46e741f60fcbac6f39df349d01bf1d.jpg"
  },
  {
    "name": "102",
    "defaultvalue": 0,
    "displayName": "J3",
    "hidden": 0,
    "description": "J3",
    "icon": "https://steamcdn-a.akamaihd.net/steamcommunity/public/images/apps/679660/9eca2382b1ad0c3ad597f7327d2c6e0c452559ff.jpg",
    "icongray": "https://steamcdn-a.akamaihd.net/steamcommunity/public/images/apps/679660/0a080d0c04c9248ed98bbf90b12fc4b85f6b785b.jpg"
  },
  {
    "name": "103",
    "defaultvalue": 0,
    "displayName": "K3",
    "hidden": 0,
    "description": "K3",
    "icon": "https://steamcdn-a.akamaihd.net/steamcommunity/public/images/apps/679660/7ca2dc03cd7a61ce6c5f28c45b9f22625fbe8f3c.jpg",
    "icongray": "https://steamcdn-a.akamaihd.net/steamcommunity/public/images/apps/679660/75dc4e52efa4ac764f589d9bac711626cf8ff01b.jpg"
  },
  {
    "name": "104",
    "defaultvalue": 0,
    "displayName": "L3",
    "hidden": 0,
    "description": "L3",
    "icon": "https://steamcdn-a.akamaihd.net/steamcommunity/public/images/apps/679660/e0cdde453b8accfffe2e45a200137f2e18428c7f.jpg",
    "icongray": "https://steamcdn-a.akamaihd.net/steamcommunity/public/images/apps/679660/4949f6a7d7646a00366e3e50ca2f05415da3e377.jpg"
  },
  {
    "name": "105",
    "defaultvalue": 0,
    "displayName": "M3",
    "hidden": 0,
    "description": "M3",
    "icon": "https://steamcdn-a.akamaihd.net/steamcommunity/public/images/apps/679660/15f5b6312f68e8ca3c2a1de19dea0d1a16792e24.jpg",
    "icongray": "https://steamcdn-a.akamaihd.net/steamcommunity/public/images/apps/679660/b878a79b2cd15abeea861d77de6d3acac408c767.jpg"
  },
  {
    "name": "106",
    "defaultvalue": 0,
    "displayName": "N3",
    "hidden": 0,
    "description": "N3",
    "icon": "https://steamcdn-a.akamaihd.net/steamcommunity/public/images/apps/679660/f4748162876b667261d2b4e1a62c6cae154b3542.jpg",
    "icongray": "https://steamcdn-a.akamaihd.net/steamcommunity/public/images/apps/679660/1ab18df8ed003c460fa0bb89d33de97fec9b956e.jpg"
  },
  {
    "name": "107",
    "defaultvalue": 0,
    "displayName": "O3",
    "hidden": 0,
    "description": "O3",
    "icon": "https://steamcdn-a.akamaihd.net/steamcommunity/public/images/apps/679660/57733b8719b71016495e14a70123a076ad65a754.jpg",
    "icongray": "https://steamcdn-a.akamaihd.net/steamcommunity/public/images/apps/679660/367a1493bec8931b98a10004b6ce16306905882b.jpg"
  },
  {
    "name": "108",
    "defaultvalue": 0,
    "displayName": "P3",
    "hidden": 0,
    "description": "P3",
    "icon": "https://steamcdn-a.akamaihd.net/steamcommunity/public/images/apps/679660/3077085b35551abf2bf99f1737345dcbb00d5fa3.jpg",
    "icongray": "https://steamcdn-a.akamaihd.net/steamcommunity/public/images/apps/679660/e284213c140473f60ea5ec9411e8cc0db4ffcdd5.jpg"
  },
  {
    "name": "109",
    "defaultvalue": 0,
    "displayName": "Q3",
    "hidden": 0,
    "description": "Q3",
    "icon": "https://steamcdn-a.akamaihd.net/steamcommunity/public/images/apps/679660/1c304438d823b9dd77b8bb8491dc2ab6a568d7d4.jpg",
    "icongray": "https://steamcdn-a.akamaihd.net/steamcommunity/public/images/apps/679660/02299d8368c778ec61b71cf8484c6ab43a744e77.jpg"
  },
  {
    "name": "110",
    "defaultvalue": 0,
    "displayName": "R3",
    "hidden": 0,
    "description": "R3",
    "icon": "https://steamcdn-a.akamaihd.net/steamcommunity/public/images/apps/679660/6b335dd5a191de70fce5e62d2a4818dd9a8fd0eb.jpg",
    "icongray": "https://steamcdn-a.akamaihd.net/steamcommunity/public/images/apps/679660/68d877233437e8fb34a3044b563b13dfa599e8ce.jpg"
  },
  {
    "name": "111",
    "defaultvalue": 0,
    "displayName": "S3",
    "hidden": 0,
    "description": "S3",
    "icon": "https://steamcdn-a.akamaihd.net/steamcommunity/public/images/apps/679660/cddb5acd79842b7e54a70505459ac74cd0675579.jpg",
    "icongray": "https://steamcdn-a.akamaihd.net/steamcommunity/public/images/apps/679660/745f6a43d4e3620cb43ef280fe58fade9981a1d2.jpg"
  },
  {
    "name": "112",
    "defaultvalue": 0,
    "displayName": "T3",
    "hidden": 0,
    "description": "T3",
    "icon": "https://steamcdn-a.akamaihd.net/steamcommunity/public/images/apps/679660/dca349fdb25c4bdb901b49e68bcec2eff798ae57.jpg",
    "icongray": "https://steamcdn-a.akamaihd.net/steamcommunity/public/images/apps/679660/c7564d0a36f0f7cb87c3b6b150de8f95a031f563.jpg"
  },
  {
    "name": "113",
    "defaultvalue": 0,
    "displayName": "U3",
    "hidden": 0,
    "description": "U3",
    "icon": "https://steamcdn-a.akamaihd.net/steamcommunity/public/images/apps/679660/11dbd0a32d71b28bd4c1a7f6f36913eeaa3fb810.jpg",
    "icongray": "https://steamcdn-a.akamaihd.net/steamcommunity/public/images/apps/679660/1693531e48e4fffd6b1c18fd091e7475bd197f4a.jpg"
  },
  {
    "name": "114",
    "defaultvalue": 0,
    "displayName": "V3",
    "hidden": 0,
    "description": "V3",
    "icon": "https://steamcdn-a.akamaihd.net/steamcommunity/public/images/apps/679660/780e2b76be079b5555d263ff90f51a002f4953b4.jpg",
    "icongray": "https://steamcdn-a.akamaihd.net/steamcommunity/public/images/apps/679660/2a5bbef9b322fae8f569ac0f8e2d76baffa8b630.jpg"
  },
  {
    "name": "115",
    "defaultvalue": 0,
    "displayName": "W3",
    "hidden": 0,
    "description": "W3",
    "icon": "https://steamcdn-a.akamaihd.net/steamcommunity/public/images/apps/679660/34d54924237ae0182222fcb9c842c4da2b206b04.jpg",
    "icongray": "https://steamcdn-a.akamaihd.net/steamcommunity/public/images/apps/679660/c633f08d12d3aa82e238b8b9adc0e048e1448a9e.jpg"
  },
  {
    "name": "116",
    "defaultvalue": 0,
    "displayName": "X3",
    "hidden": 0,
    "description": "X3",
    "icon": "https://steamcdn-a.akamaihd.net/steamcommunity/public/images/apps/679660/91467e1b2125d06c1fbbbae2126c90e8bd85b61a.jpg",
    "icongray": "https://steamcdn-a.akamaihd.net/steamcommunity/public/images/apps/679660/e0ae06b7f0ebd6780523959b384d6937a64d7f9f.jpg"
  },
  {
    "name": "117",
    "defaultvalue": 0,
    "displayName": "Y3",
    "hidden": 0,
    "description": "Y3",
    "icon": "https://steamcdn-a.akamaihd.net/steamcommunity/public/images/apps/679660/0502a2bc33bb9e5982762ae17e176a7a12209a9d.jpg",
    "icongray": "https://steamcdn-a.akamaihd.net/steamcommunity/public/images/apps/679660/0c95a34522dc48738f62d29bc2e1e85e30a1622b.jpg"
  },
  {
    "name": "118",
    "defaultvalue": 0,
    "displayName": "Z3",
    "hidden": 0,
    "description": "Z3",
    "icon": "https://steamcdn-a.akamaihd.net/steamcommunity/public/images/apps/679660/041feb885ca964365049aebc3856d20bc3ebdea3.jpg",
    "icongray": "https://steamcdn-a.akamaihd.net/steamcommunity/public/images/apps/679660/15083179a37b7d52cee2c1e21015ddc00bc1651e.jpg"
  },
  {
    "name": "119",
    "defaultvalue": 0,
    "displayName": ":1",
    "hidden": 0,
    "description": ":1",
    "icon": "https://steamcdn-a.akamaihd.net/steamcommunity/public/images/apps/679660/1a8ea8cca02d2403e6417db5fb7c43e2413c5f80.jpg",
    "icongray": "https://steamcdn-a.akamaihd.net/steamcommunity/public/images/apps/679660/75b63188f28605474568f204a8113251b3ba62dc.jpg"
  },
  {
    "name": "120",
    "defaultvalue": 0,
    "displayName": ":2",
    "hidden": 0,
    "description": ":2",
    "icon": "https://steamcdn-a.akamaihd.net/steamcommunity/public/images/apps/679660/5486e2ee2b0ccff34febc543f32aff87447a9b38.jpg",
    "icongray": "https://steamcdn-a.akamaihd.net/steamcommunity/public/images/apps/679660/75b63188f28605474568f204a8113251b3ba62dc.jpg"
  },
  {
    "name": "121",
    "defaultvalue": 0,
    "displayName": "Finish level 1",
    "hidden": 0,
    "description": "Finish level 1",
    "icon": "https://steamcdn-a.akamaihd.net/steamcommunity/public/images/apps/679660/76aa848e60c19790e5e94f029a45f89ea6a84b53.jpg",
    "icongray": "https://steamcdn-a.akamaihd.net/steamcommunity/public/images/apps/679660/1c0302e06dfdad854bb150af5638a9188319b8db.jpg"
  },
  {
    "name": "122",
    "defaultvalue": 0,
    "displayName": ":3",
    "hidden": 0,
    "description": ":3",
    "icon": "https://steamcdn-a.akamaihd.net/steamcommunity/public/images/apps/679660/397eb83de5f658b1ebcd114a68cb9ac246d4fef0.jpg",
    "icongray": "https://steamcdn-a.akamaihd.net/steamcommunity/public/images/apps/679660/75b63188f28605474568f204a8113251b3ba62dc.jpg"
  },
  {
    "name": "123",
    "defaultvalue": 0,
    "displayName": "(1",
    "hidden": 0,
    "description": "(1",
    "icon": "https://steamcdn-a.akamaihd.net/steamcommunity/public/images/apps/679660/0584b7892aaf617915764519550586cce1f638f0.jpg",
    "icongray": "https://steamcdn-a.akamaihd.net/steamcommunity/public/images/apps/679660/4180b8c47272d635b71d07fbf365ef8cc2246f09.jpg"
  },
  {
    "name": "124",
    "defaultvalue": 0,
    "displayName": "Finish level 2",
    "hidden": 0,
    "description": "Finish level 2",
    "icon": "https://steamcdn-a.akamaihd.net/steamcommunity/public/images/apps/679660/f22320b9fe12fb7176bdef83f92e54f6c8ee821e.jpg",
    "icongray": "https://steamcdn-a.akamaihd.net/steamcommunity/public/images/apps/679660/56d1c3b44839f35e847df51d7f45d8a5be36b5a7.jpg"
  },
  {
    "name": "125",
    "defaultvalue": 0,
    "displayName": "(2",
    "hidden": 0,
    "description": "(2",
    "icon": "https://steamcdn-a.akamaihd.net/steamcommunity/public/images/apps/679660/6948300b5a377200f163275609fc617e56b074ea.jpg",
    "icongray": "https://steamcdn-a.akamaihd.net/steamcommunity/public/images/apps/679660/4180b8c47272d635b71d07fbf365ef8cc2246f09.jpg"
  },
  {
    "name": "126",
    "defaultvalue": 0,
    "displayName": "(3",
    "hidden": 0,
    "description": "(3",
    "icon": "https://steamcdn-a.akamaihd.net/steamcommunity/public/images/apps/679660/1809738ed98cdfcc3f95aaa1c5482ce74b170924.jpg",
    "icongray": "https://steamcdn-a.akamaihd.net/steamcommunity/public/images/apps/679660/4180b8c47272d635b71d07fbf365ef8cc2246f09.jpg"
  },
  {
    "name": "127",
    "defaultvalue": 0,
    "displayName": "Finish level 3",
    "hidden": 0,
    "description": "Finish level 3",
    "icon": "https://steamcdn-a.akamaihd.net/steamcommunity/public/images/apps/679660/90dd7017224742e84efc9080829c478fcf57e2b9.jpg",
    "icongray": "https://steamcdn-a.akamaihd.net/steamcommunity/public/images/apps/679660/90dd7017224742e84efc9080829c478fcf57e2b9.jpg"
  },
  {
    "name": "128",
    "defaultvalue": 0,
    "displayName": ")1",
    "hidden": 0,
    "description": ")1",
    "icon": "https://steamcdn-a.akamaihd.net/steamcommunity/public/images/apps/679660/3e38170bebd42d58ceeaee9051e868be882157e3.jpg",
    "icongray": "https://steamcdn-a.akamaihd.net/steamcommunity/public/images/apps/679660/1818781a8caea5c0324466510fa260d4d4c4fba6.jpg"
  },
  {
    "name": "129",
    "defaultvalue": 0,
    "displayName": ")2",
    "hidden": 0,
    "description": ")2",
    "icon": "https://steamcdn-a.akamaihd.net/steamcommunity/public/images/apps/679660/c1e149808ea55f205f54e944275fc966345b631e.jpg",
    "icongray": "https://steamcdn-a.akamaihd.net/steamcommunity/public/images/apps/679660/1818781a8caea5c0324466510fa260d4d4c4fba6.jpg"
  },
  {
    "name": "130",
    "defaultvalue": 0,
    "displayName": "Finish level 4",
    "hidden": 0,
    "description": "Finish level 4",
    "icon": "https://steamcdn-a.akamaihd.net/steamcommunity/public/images/apps/679660/bd27131e3803cbd5d1819aa43a2c1f8f1e16a380.jpg",
    "icongray": "https://steamcdn-a.akamaihd.net/steamcommunity/public/images/apps/679660/618a670aab15b42c85069d6bfca6d0fe2ce4b196.jpg"
  },
  {
    "name": "131",
    "defaultvalue": 0,
    "displayName": ")3",
    "hidden": 0,
    "description": ")3",
    "icon": "https://steamcdn-a.akamaihd.net/steamcommunity/public/images/apps/679660/3822886ea05cd14431a2562404a5400a1b562ec3.jpg",
    "icongray": "https://steamcdn-a.akamaihd.net/steamcommunity/public/images/apps/679660/1818781a8caea5c0324466510fa260d4d4c4fba6.jpg"
  },
  {
    "name": "132",
    "defaultvalue": 0,
    "displayName": ">1",
    "hidden": 0,
    "description": ">1",
    "icon": "https://steamcdn-a.akamaihd.net/steamcommunity/public/images/apps/679660/e0eff155a661e519c7dd6396ae6bdc7360f40638.jpg",
    "icongray": "https://steamcdn-a.akamaihd.net/steamcommunity/public/images/apps/679660/7fca5d5a21452feead23cac23d0c9e1355c9efb0.jpg"
  },
  {
    "name": "133",
    "defaultvalue": 0,
    "displayName": "Finish level 5",
    "hidden": 0,
    "description": "Finish level 5",
    "icon": "https://steamcdn-a.akamaihd.net/steamcommunity/public/images/apps/679660/8d15abb5f9b547c6dd5aa311d70b18a9d4bd3ab6.jpg",
    "icongray": "https://steamcdn-a.akamaihd.net/steamcommunity/public/images/apps/679660/46d2bee0f96b7cebc5ad17567cce6513f45fc0c4.jpg"
  },
  {
    "name": "134",
    "defaultvalue": 0,
    "displayName": ">2",
    "hidden": 0,
    "description": ">2",
    "icon": "https://steamcdn-a.akamaihd.net/steamcommunity/public/images/apps/679660/812d135201e49c278443bd349e3079b0b78852fd.jpg",
    "icongray": "https://steamcdn-a.akamaihd.net/steamcommunity/public/images/apps/679660/7fca5d5a21452feead23cac23d0c9e1355c9efb0.jpg"
  },
  {
    "name": "135",
    "defaultvalue": 0,
    "displayName": ">3",
    "hidden": 0,
    "description": ">3",
    "icon": "https://steamcdn-a.akamaihd.net/steamcommunity/public/images/apps/679660/5e717becdf19944fd90c934bb0e225a31b878faf.jpg",
    "icongray": "https://steamcdn-a.akamaihd.net/steamcommunity/public/images/apps/679660/7fca5d5a21452feead23cac23d0c9e1355c9efb0.jpg"
  },
  {
    "name": "136",
    "defaultvalue": 0,
    "displayName": "Finish level 6",
    "hidden": 0,
    "description": "Finish level 6",
    "icon": "https://steamcdn-a.akamaihd.net/steamcommunity/public/images/apps/679660/77cc9b7c392725ceef6c893ed44e6d365b66c313.jpg",
    "icongray": "https://steamcdn-a.akamaihd.net/steamcommunity/public/images/apps/679660/54d636ca82e8393f8b5b479eb36007bc1d6f0f2b.jpg"
  },
  {
    "name": "137",
    "defaultvalue": 0,
    "displayName": "<1",
    "hidden": 0,
    "description": "<1",
    "icon": "https://steamcdn-a.akamaihd.net/steamcommunity/public/images/apps/679660/3274d2e00f31970f6f42f8d36da0ae9151e36783.jpg",
    "icongray": "https://steamcdn-a.akamaihd.net/steamcommunity/public/images/apps/679660/ba2ca823b3a58e54f417df813c45d5256a9d3ec0.jpg"
  },
  {
    "name": "138",
    "defaultvalue": 0,
    "displayName": "<2",
    "hidden": 0,
    "description": "<2",
    "icon": "https://steamcdn-a.akamaihd.net/steamcommunity/public/images/apps/679660/05598f78798caa980d1ca35e49470517586cb7b1.jpg",
    "icongray": "https://steamcdn-a.akamaihd.net/steamcommunity/public/images/apps/679660/ba2ca823b3a58e54f417df813c45d5256a9d3ec0.jpg"
  },
  {
    "name": "139",
    "defaultvalue": 0,
    "displayName": "Finish level 7",
    "hidden": 0,
    "description": "Finish level 7",
    "icon": "https://steamcdn-a.akamaihd.net/steamcommunity/public/images/apps/679660/3daa5e35a808aa61bb35dd3f6fb4af8f431773a5.jpg",
    "icongray": "https://steamcdn-a.akamaihd.net/steamcommunity/public/images/apps/679660/256a826c8d07612adbddbaff38eecbf1accc7093.jpg"
  },
  {
    "name": "140",
    "defaultvalue": 0,
    "displayName": "<3",
    "hidden": 0,
    "description": "<3",
    "icon": "https://steamcdn-a.akamaihd.net/steamcommunity/public/images/apps/679660/11b7934d9e8f3d28dcf261d02392ef50f4ee79f4.jpg",
    "icongray": "https://steamcdn-a.akamaihd.net/steamcommunity/public/images/apps/679660/ba2ca823b3a58e54f417df813c45d5256a9d3ec0.jpg"
  },
  {
    "name": "141",
    "defaultvalue": 0,
    "displayName": "~1",
    "hidden": 0,
    "description": "~1",
    "icon": "https://steamcdn-a.akamaihd.net/steamcommunity/public/images/apps/679660/169394fa1af3afff10537b7a648bc80e6c7830fb.jpg",
    "icongray": "https://steamcdn-a.akamaihd.net/steamcommunity/public/images/apps/679660/ee79bea2c118fe23d9bdbc4bead0484186ca812d.jpg"
  },
  {
    "name": "142",
    "defaultvalue": 0,
    "displayName": "Finish level 8",
    "hidden": 0,
    "description": "Finish level 8",
    "icon": "https://steamcdn-a.akamaihd.net/steamcommunity/public/images/apps/679660/eb9d6b2171e92f5e3c107c18b1e89bd2250a9b67.jpg",
    "icongray": "https://steamcdn-a.akamaihd.net/steamcommunity/public/images/apps/679660/d9b194d70db99ec325bbcff19c44067e1aede57c.jpg"
  },
  {
    "name": "143",
    "defaultvalue": 0,
    "displayName": "~2",
    "hidden": 0,
    "description": "~2",
    "icon": "https://steamcdn-a.akamaihd.net/steamcommunity/public/images/apps/679660/2bc2b668975c1aab3904759e47661afebbd72584.jpg",
    "icongray": "https://steamcdn-a.akamaihd.net/steamcommunity/public/images/apps/679660/ee79bea2c118fe23d9bdbc4bead0484186ca812d.jpg"
  },
  {
    "name": "144",
    "defaultvalue": 0,
    "displayName": "~3",
    "hidden": 0,
    "description": "~3",
    "icon": "https://steamcdn-a.akamaihd.net/steamcommunity/public/images/apps/679660/55e8be824ab8c5d7e8e34598ffe0f6a3b16fd777.jpg",
    "icongray": "https://steamcdn-a.akamaihd.net/steamcommunity/public/images/apps/679660/ee79bea2c118fe23d9bdbc4bead0484186ca812d.jpg"
  },
  {
    "name": "145",
    "defaultvalue": 0,
    "displayName": "Finish level 9",
    "hidden": 0,
    "description": "Finish level 9",
    "icon": "https://steamcdn-a.akamaihd.net/steamcommunity/public/images/apps/679660/ba6b38f2080472b6e14abf5c7e02af362ec66d3b.jpg",
    "icongray": "https://steamcdn-a.akamaihd.net/steamcommunity/public/images/apps/679660/db50c08968385d6ad5b700b104cb4b186b9a26d0.jpg"
  },
  {
    "name": "146",
    "defaultvalue": 0,
    "displayName": "TM1",
    "hidden": 0,
    "description": "TM1",
    "icon": "https://steamcdn-a.akamaihd.net/steamcommunity/public/images/apps/679660/f564b5c35fe277d5c4ff9a1dd1943c2d820535cb.jpg",
    "icongray": "https://steamcdn-a.akamaihd.net/steamcommunity/public/images/apps/679660/e3f0a5731e2c6f552802b201088cc9eaa1c02b79.jpg"
  },
  {
    "name": "147",
    "defaultvalue": 0,
    "displayName": "TM2",
    "hidden": 0,
    "description": "TM2",
    "icon": "https://steamcdn-a.akamaihd.net/steamcommunity/public/images/apps/679660/864d4b5299ff130d080b5f024f0bfddfd5eefb36.jpg",
    "icongray": "https://steamcdn-a.akamaihd.net/steamcommunity/public/images/apps/679660/e3f0a5731e2c6f552802b201088cc9eaa1c02b79.jpg"
  },
  {
    "name": "148",
    "defaultvalue": 0,
    "displayName": "Finish level 10",
    "hidden": 0,
    "description": "Finish level 10",
    "icon": "https://steamcdn-a.akamaihd.net/steamcommunity/public/images/apps/679660/449b1a1ec944f77864171f95dda824902578b181.jpg",
    "icongray": "https://steamcdn-a.akamaihd.net/steamcommunity/public/images/apps/679660/ffdc90720976d478a7b3339a63ee7b0fcca77fb0.jpg"
  },
  {
    "name": "149",
    "defaultvalue": 0,
    "displayName": "TM3",
    "hidden": 0,
    "description": "TM3",
    "icon": "https://steamcdn-a.akamaihd.net/steamcommunity/public/images/apps/679660/b23edb81c7d09edcfe7da8b946db8b0e2523ae1f.jpg",
    "icongray": "https://steamcdn-a.akamaihd.net/steamcommunity/public/images/apps/679660/e3f0a5731e2c6f552802b201088cc9eaa1c02b79.jpg"
  },
  {
    "name": "150",
    "defaultvalue": 0,
    "displayName": "$1",
    "hidden": 0,
    "description": "$1",
    "icon": "https://steamcdn-a.akamaihd.net/steamcommunity/public/images/apps/679660/c1e4e28a75c1ff6f01b40f69bc99dec68d942d9e.jpg",
    "icongray": "https://steamcdn-a.akamaihd.net/steamcommunity/public/images/apps/679660/a0e6f59915baa28795e0200875357946be724ef8.jpg"
  },
  {
    "name": "151",
    "defaultvalue": 0,
    "displayName": "Finish level 1",
    "hidden": 0,
    "description": "Finish level 1",
    "icon": "https://steamcdn-a.akamaihd.net/steamcommunity/public/images/apps/679660/98e72a4e699f363a53ba336690980fe6f3bd379a.jpg",
    "icongray": "https://steamcdn-a.akamaihd.net/steamcommunity/public/images/apps/679660/229ec531b1022bb8b59d6454bff8ff53233c3cc2.jpg"
  },
  {
    "name": "152",
    "defaultvalue": 0,
    "displayName": "$2",
    "hidden": 0,
    "description": "$2",
    "icon": "https://steamcdn-a.akamaihd.net/steamcommunity/public/images/apps/679660/d65d793d2bc498097913091a1e3e16153c029929.jpg",
    "icongray": "https://steamcdn-a.akamaihd.net/steamcommunity/public/images/apps/679660/a0e6f59915baa28795e0200875357946be724ef8.jpg"
  },
  {
    "name": "153",
    "defaultvalue": 0,
    "displayName": "$3",
    "hidden": 0,
    "description": "$3",
    "icon": "https://steamcdn-a.akamaihd.net/steamcommunity/public/images/apps/679660/fe67a3b868caa699cc7a37a2775bbb0379f70ae9.jpg",
    "icongray": "https://steamcdn-a.akamaihd.net/steamcommunity/public/images/apps/679660/a0e6f59915baa28795e0200875357946be724ef8.jpg"
  },
  {
    "name": "154",
    "defaultvalue": 0,
    "displayName": "Finish level 12",
    "hidden": 0,
    "description": "Finish level 12",
    "icon": "https://steamcdn-a.akamaihd.net/steamcommunity/public/images/apps/679660/acee37a5ffa4f867b97bd1b9e41aac67ae013bee.jpg",
    "icongray": "https://steamcdn-a.akamaihd.net/steamcommunity/public/images/apps/679660/f6c9ea52f52bd2cb8d012a6d6712be1fb250e950.jpg"
  },
  {
    "name": "155",
    "defaultvalue": 0,
    "displayName": "©1",
    "hidden": 0,
    "description": "©1",
    "icon": "https://steamcdn-a.akamaihd.net/steamcommunity/public/images/apps/679660/efa2e7ec2f76f416ea10f0ca4d2772b275858e0c.jpg",
    "icongray": "https://steamcdn-a.akamaihd.net/steamcommunity/public/images/apps/679660/3ed907b58eda4a3cbdf8063f25924c93373edf5c.jpg"
  },
  {
    "name": "156",
    "defaultvalue": 0,
    "displayName": "©2",
    "hidden": 0,
    "description": "©2",
    "icon": "https://steamcdn-a.akamaihd.net/steamcommunity/public/images/apps/679660/711194b4b265a3500f7f626c2544ce27d241c122.jpg",
    "icongray": "https://steamcdn-a.akamaihd.net/steamcommunity/public/images/apps/679660/3ed907b58eda4a3cbdf8063f25924c93373edf5c.jpg"
  },
  {
    "name": "157",
    "defaultvalue": 0,
    "displayName": "Finish level 13",
    "hidden": 0,
    "description": "Finish level 13",
    "icon": "https://steamcdn-a.akamaihd.net/steamcommunity/public/images/apps/679660/c046ef8b5e6e5a60979bd7d02d265ccb7b181840.jpg",
    "icongray": "https://steamcdn-a.akamaihd.net/steamcommunity/public/images/apps/679660/a9cfe76cfb999c0166a38c84e4c94e269f34cced.jpg"
  },
  {
    "name": "158",
    "defaultvalue": 0,
    "displayName": "©3",
    "hidden": 0,
    "description": "©3",
    "icon": "https://steamcdn-a.akamaihd.net/steamcommunity/public/images/apps/679660/71f57ddf5462485490df1a96e0dcf7f6b9e3df12.jpg",
    "icongray": "https://steamcdn-a.akamaihd.net/steamcommunity/public/images/apps/679660/3ed907b58eda4a3cbdf8063f25924c93373edf5c.jpg"
  },
  {
    "name": "159",
    "defaultvalue": 0,
    "displayName": "@1",
    "hidden": 0,
    "description": "@1",
    "icon": "https://steamcdn-a.akamaihd.net/steamcommunity/public/images/apps/679660/00a8a614df3dccb65fbdbf7f4182a84770f36067.jpg",
    "icongray": "https://steamcdn-a.akamaihd.net/steamcommunity/public/images/apps/679660/33e4b616f0844d44d6fd00a78fcc530aee2419fb.jpg"
  },
  {
    "name": "160",
    "defaultvalue": 0,
    "displayName": "Finish level 14",
    "hidden": 0,
    "description": "Finish level 14",
    "icon": "https://steamcdn-a.akamaihd.net/steamcommunity/public/images/apps/679660/480e92daffb003809339aafd39fd55d189caea93.jpg",
    "icongray": "https://steamcdn-a.akamaihd.net/steamcommunity/public/images/apps/679660/6309e24b85b9bcd0272a96df79e18d029e0ba3b4.jpg"
  },
  {
    "name": "161",
    "defaultvalue": 0,
    "displayName": "@2",
    "hidden": 0,
    "description": "@2",
    "icon": "https://steamcdn-a.akamaihd.net/steamcommunity/public/images/apps/679660/c80d16578cd3eba0bb675782d024414013fc0906.jpg",
    "icongray": "https://steamcdn-a.akamaihd.net/steamcommunity/public/images/apps/679660/33e4b616f0844d44d6fd00a78fcc530aee2419fb.jpg"
  },
  {
    "name": "162",
    "defaultvalue": 0,
    "displayName": "@3",
    "hidden": 0,
    "description": "@3",
    "icon": "https://steamcdn-a.akamaihd.net/steamcommunity/public/images/apps/679660/d3814ef9afa61d68b43803fa040fb658cc64d676.jpg",
    "icongray": "https://steamcdn-a.akamaihd.net/steamcommunity/public/images/apps/679660/33e4b616f0844d44d6fd00a78fcc530aee2419fb.jpg"
  },
  {
    "name": "163",
    "defaultvalue": 0,
    "displayName": "Finish level 15",
    "hidden": 0,
    "description": "Finish level 15",
    "icon": "https://steamcdn-a.akamaihd.net/steamcommunity/public/images/apps/679660/cddd2d1bd14ef726ae0d6a43274d10f0767f1e7e.jpg",
    "icongray": "https://steamcdn-a.akamaihd.net/steamcommunity/public/images/apps/679660/945635afd60d221914300610b406b12d678c6fd0.jpg"
  },
  {
    "name": "164",
    "defaultvalue": 0,
    "displayName": "l1",
    "hidden": 0,
    "description": "l1",
    "icon": "https://steamcdn-a.akamaihd.net/steamcommunity/public/images/apps/679660/5c4a365cf471a32a16513fde14c66343f92e32f8.jpg",
    "icongray": "https://steamcdn-a.akamaihd.net/steamcommunity/public/images/apps/679660/621beff9cc9da0458ecab822632d228a7d265650.jpg"
  },
  {
    "name": "165",
    "defaultvalue": 0,
    "displayName": "l2",
    "hidden": 0,
    "description": "l2",
    "icon": "https://steamcdn-a.akamaihd.net/steamcommunity/public/images/apps/679660/0860b92adb2cddcb927a6bec85573bf131ad1f74.jpg",
    "icongray": "https://steamcdn-a.akamaihd.net/steamcommunity/public/images/apps/679660/621beff9cc9da0458ecab822632d228a7d265650.jpg"
  },
  {
    "name": "166",
    "defaultvalue": 0,
    "displayName": "Finish level 16",
    "hidden": 0,
    "description": "Finish level 16",
    "icon": "https://steamcdn-a.akamaihd.net/steamcommunity/public/images/apps/679660/e756a4a1d97361b79686038ffd32964a0735a7ee.jpg",
    "icongray": "https://steamcdn-a.akamaihd.net/steamcommunity/public/images/apps/679660/f3ca69cda7467683837500b176f3a75a3bbc08b0.jpg"
  },
  {
    "name": "167",
    "defaultvalue": 0,
    "displayName": "l3",
    "hidden": 0,
    "description": "l3",
    "icon": "https://steamcdn-a.akamaihd.net/steamcommunity/public/images/apps/679660/7e36b44f74dd738c6ae7b3facbd24583ad2f46c1.jpg",
    "icongray": "https://steamcdn-a.akamaihd.net/steamcommunity/public/images/apps/679660/621beff9cc9da0458ecab822632d228a7d265650.jpg"
  },
  {
    "name": "168",
    "defaultvalue": 0,
    "displayName": "?1",
    "hidden": 0,
    "description": "?1",
    "icon": "https://steamcdn-a.akamaihd.net/steamcommunity/public/images/apps/679660/3a7c7b764a16ed04ca4ac26fe97d4845bfb6524d.jpg",
    "icongray": "https://steamcdn-a.akamaihd.net/steamcommunity/public/images/apps/679660/a145d6193c220892460494c7e5c5fe52cd97bd01.jpg"
  },
  {
    "name": "169",
    "defaultvalue": 0,
    "displayName": "Finish level 17",
    "hidden": 0,
    "description": "Finish level 17",
    "icon": "https://steamcdn-a.akamaihd.net/steamcommunity/public/images/apps/679660/cb9a2e3fac149bd6ee452f5f3acb52ef0d71f257.jpg",
    "icongray": "https://steamcdn-a.akamaihd.net/steamcommunity/public/images/apps/679660/bd4752f39f6e8b1eef036903a60e2754fbc08a57.jpg"
  },
  {
    "name": "170",
    "defaultvalue": 0,
    "displayName": "?2",
    "hidden": 0,
    "description": "?2",
    "icon": "https://steamcdn-a.akamaihd.net/steamcommunity/public/images/apps/679660/2a8bacf2eb369d1042d7fe77e67b373efe09f554.jpg",
    "icongray": "https://steamcdn-a.akamaihd.net/steamcommunity/public/images/apps/679660/a145d6193c220892460494c7e5c5fe52cd97bd01.jpg"
  },
  {
    "name": "171",
    "defaultvalue": 0,
    "displayName": "?3",
    "hidden": 0,
    "description": "?3",
    "icon": "https://steamcdn-a.akamaihd.net/steamcommunity/public/images/apps/679660/2d0e12a1b609fd6dca9af0abf94045877ba15649.jpg",
    "icongray": "https://steamcdn-a.akamaihd.net/steamcommunity/public/images/apps/679660/a145d6193c220892460494c7e5c5fe52cd97bd01.jpg"
  },
  {
    "name": "172",
    "defaultvalue": 0,
    "displayName": "Finish level 18",
    "hidden": 0,
    "description": "Finish level 18",
    "icon": "https://steamcdn-a.akamaihd.net/steamcommunity/public/images/apps/679660/6b9622285c3d7b359b3b5b81e6f1db827bacd03e.jpg",
    "icongray": "https://steamcdn-a.akamaihd.net/steamcommunity/public/images/apps/679660/5b3ff2035379abe7b7571beebb4e6633161a1398.jpg"
  },
  {
    "name": "173",
    "defaultvalue": 0,
    "displayName": "-1",
    "hidden": 0,
    "description": "-1",
    "icon": "https://steamcdn-a.akamaihd.net/steamcommunity/public/images/apps/679660/521dca68f1c1ed9eddcc0eec3a79bb644fa29563.jpg",
    "icongray": "https://steamcdn-a.akamaihd.net/steamcommunity/public/images/apps/679660/0bfc800d55c702b42e20117d7bf53968fd08ac9c.jpg"
  },
  {
    "name": "174",
    "defaultvalue": 0,
    "displayName": "-2",
    "hidden": 0,
    "description": "-2",
    "icon": "https://steamcdn-a.akamaihd.net/steamcommunity/public/images/apps/679660/84744518d6bd9fe2c4c5f8680609350828f5a3e5.jpg",
    "icongray": "https://steamcdn-a.akamaihd.net/steamcommunity/public/images/apps/679660/0bfc800d55c702b42e20117d7bf53968fd08ac9c.jpg"
  },
  {
    "name": "175",
    "defaultvalue": 0,
    "displayName": "Finish level 19",
    "hidden": 0,
    "description": "Finish level 19",
    "icon": "https://steamcdn-a.akamaihd.net/steamcommunity/public/images/apps/679660/dc7963afc2be6094be1dba99754b3ee3ed539141.jpg",
    "icongray": "https://steamcdn-a.akamaihd.net/steamcommunity/public/images/apps/679660/fad815229deb2085be224ea946635cc89367d863.jpg"
  },
  {
    "name": "176",
    "defaultvalue": 0,
    "displayName": "-3",
    "hidden": 0,
    "description": "-3",
    "icon": "https://steamcdn-a.akamaihd.net/steamcommunity/public/images/apps/679660/a1fef86c66815196137d1faaee7d4b4e88b5fbb0.jpg",
    "icongray": "https://steamcdn-a.akamaihd.net/steamcommunity/public/images/apps/679660/0bfc800d55c702b42e20117d7bf53968fd08ac9c.jpg"
  },
  {
    "name": "177",
    "defaultvalue": 0,
    "displayName": "%1",
    "hidden": 0,
    "description": "%1",
    "icon": "https://steamcdn-a.akamaihd.net/steamcommunity/public/images/apps/679660/f8d4d4c6135447548ad0c646e91a38b6d63ecaab.jpg",
    "icongray": "https://steamcdn-a.akamaihd.net/steamcommunity/public/images/apps/679660/b6d1c529fd3b4b73b03255e9130cd67333f0bf61.jpg"
  },
  {
    "name": "178",
    "defaultvalue": 0,
    "displayName": "Finish level 20",
    "hidden": 0,
    "description": "Finish level 20",
    "icon": "https://steamcdn-a.akamaihd.net/steamcommunity/public/images/apps/679660/8ed51ede9d90c1e51c3dab6e2d0689dddedbaa0e.jpg",
    "icongray": "https://steamcdn-a.akamaihd.net/steamcommunity/public/images/apps/679660/3e110568f3618b59f624085038156b3f0c394075.jpg"
  },
  {
    "name": "179",
    "defaultvalue": 0,
    "displayName": "%2",
    "hidden": 0,
    "description": "%2",
    "icon": "https://steamcdn-a.akamaihd.net/steamcommunity/public/images/apps/679660/007b107f7c33ae4a81bbb7d99de472a64347f702.jpg",
    "icongray": "https://steamcdn-a.akamaihd.net/steamcommunity/public/images/apps/679660/b6d1c529fd3b4b73b03255e9130cd67333f0bf61.jpg"
  },
  {
    "name": "180",
    "defaultvalue": 0,
    "displayName": "%3",
    "hidden": 0,
    "description": "%3",
    "icon": "https://steamcdn-a.akamaihd.net/steamcommunity/public/images/apps/679660/78d984ec0c79c53b62f8edd9aed7fd16b3d906c8.jpg",
    "icongray": "https://steamcdn-a.akamaihd.net/steamcommunity/public/images/apps/679660/b6d1c529fd3b4b73b03255e9130cd67333f0bf61.jpg"
  },
  {
    "name": "181",
    "defaultvalue": 0,
    "displayName": "Start1",
    "hidden": 0,
    "description": "Start1",
    "icon": "https://steamcdn-a.akamaihd.net/steamcommunity/public/images/apps/679660/ace16ec590702b4b7bfe154e4eb2365d10f4b9ea.jpg",
    "icongray": "https://steamcdn-a.akamaihd.net/steamcommunity/public/images/apps/679660/a576e50d23f118ad35fca7480d750a0300d298db.jpg"
  },
  {
    "name": "182",
    "defaultvalue": 0,
    "displayName": "Start2",
    "hidden": 0,
    "description": "Start2",
    "icon": "https://steamcdn-a.akamaihd.net/steamcommunity/public/images/apps/679660/a14a2a9496317fac59f6631546ff7aa87e44a6e3.jpg",
    "icongray": "https://steamcdn-a.akamaihd.net/steamcommunity/public/images/apps/679660/a576e50d23f118ad35fca7480d750a0300d298db.jpg"
  },
  {
    "name": "183",
    "defaultvalue": 0,
    "displayName": "Start3",
    "hidden": 0,
    "description": "Start3",
    "icon": "https://steamcdn-a.akamaihd.net/steamcommunity/public/images/apps/679660/c70a446cc66e24d88d6ce74b34657f0da390fdc9.jpg",
    "icongray": "https://steamcdn-a.akamaihd.net/steamcommunity/public/images/apps/679660/a576e50d23f118ad35fca7480d750a0300d298db.jpg"
  },
  {
    "name": "184",
    "defaultvalue": 0,
    "displayName": "Click Sigma1",
    "hidden": 0,
    "description": "Click Sigma",
    "icon": "https://steamcdn-a.akamaihd.net/steamcommunity/public/images/apps/679660/6d129ddd82d3774f69a9fc94724696365420dc78.jpg",
    "icongray": "https://steamcdn-a.akamaihd.net/steamcommunity/public/images/apps/679660/a4c9e17b816a3dceaa7670f077d06a16845606b3.jpg"
  },
  {
    "name": "185",
    "defaultvalue": 0,
    "displayName": "Click Sigma2",
    "hidden": 0,
    "description": "Click Sigma",
    "icon": "https://steamcdn-a.akamaihd.net/steamcommunity/public/images/apps/679660/6344a430f2cf50435ecae5fa63e66a86250ce62f.jpg",
    "icongray": "https://steamcdn-a.akamaihd.net/steamcommunity/public/images/apps/679660/a4c9e17b816a3dceaa7670f077d06a16845606b3.jpg"
  },
  {
    "name": "186",
    "defaultvalue": 0,
    "displayName": "Click Sigma3",
    "hidden": 0,
    "description": "Click Sigma",
    "icon": "https://steamcdn-a.akamaihd.net/steamcommunity/public/images/apps/679660/c8d83a677b20da7432c348d176df64a007f049ac.jpg",
    "icongray": "https://steamcdn-a.akamaihd.net/steamcommunity/public/images/apps/679660/a4c9e17b816a3dceaa7670f077d06a16845606b3.jpg"
  },
  {
    "name": "187",
    "defaultvalue": 0,
    "displayName": "Click Triangular1",
    "hidden": 0,
    "description": "Click Triangular",
    "icon": "https://steamcdn-a.akamaihd.net/steamcommunity/public/images/apps/679660/b57c715aac8960833c67fbeb830ed7e8801712a8.jpg",
    "icongray": "https://steamcdn-a.akamaihd.net/steamcommunity/public/images/apps/679660/c50e7d274e51ff904acf87bb46eaf51034b9b7d4.jpg"
  },
  {
    "name": "188",
    "defaultvalue": 0,
    "displayName": "Click Triangular2",
    "hidden": 0,
    "description": "Click Triangular",
    "icon": "https://steamcdn-a.akamaihd.net/steamcommunity/public/images/apps/679660/23052c28f8911d6ffbde84c43206d7ef942c9f37.jpg",
    "icongray": "https://steamcdn-a.akamaihd.net/steamcommunity/public/images/apps/679660/c50e7d274e51ff904acf87bb46eaf51034b9b7d4.jpg"
  },
  {
    "name": "189",
    "defaultvalue": 0,
    "displayName": "Click Triangular3",
    "hidden": 0,
    "description": "Click Triangular",
    "icon": "https://steamcdn-a.akamaihd.net/steamcommunity/public/images/apps/679660/b688861d0f7cf24f32a3248237479bc8ad72758f.jpg",
    "icongray": "https://steamcdn-a.akamaihd.net/steamcommunity/public/images/apps/679660/c50e7d274e51ff904acf87bb46eaf51034b9b7d4.jpg"
  },
  {
    "name": "190",
    "defaultvalue": 0,
    "displayName": "Click Rectangular1",
    "hidden": 0,
    "description": "Click Rectangular",
    "icon": "https://steamcdn-a.akamaihd.net/steamcommunity/public/images/apps/679660/952f3147a55ed0c6b2af1f4efeac1d2a4f4f4bc3.jpg",
    "icongray": "https://steamcdn-a.akamaihd.net/steamcommunity/public/images/apps/679660/7633b1edbce78642f49ef3d78355d51ff91603d2.jpg"
  },
  {
    "name": "191",
    "defaultvalue": 0,
    "displayName": "Click Rectangular2",
    "hidden": 0,
    "description": "Click Rectangular",
    "icon": "https://steamcdn-a.akamaihd.net/steamcommunity/public/images/apps/679660/e431bd86bad897901e17a86accc73b77f73cc12b.jpg",
    "icongray": "https://steamcdn-a.akamaihd.net/steamcommunity/public/images/apps/679660/7633b1edbce78642f49ef3d78355d51ff91603d2.jpg"
  },
  {
    "name": "192",
    "defaultvalue": 0,
    "displayName": "Click Rectangular3",
    "hidden": 0,
    "description": "Click Rectangular",
    "icon": "https://steamcdn-a.akamaihd.net/steamcommunity/public/images/apps/679660/519ea1a98f2f722c16a34d5602bf633a9f35b6a2.jpg",
    "icongray": "https://steamcdn-a.akamaihd.net/steamcommunity/public/images/apps/679660/7633b1edbce78642f49ef3d78355d51ff91603d2.jpg"
  }
]