﻿[
  {
    "name": "ACHIEVEMENT_ID_WALK_THE_PLANK",
    "defaultvalue": 0,
    "displayName": "Walk the Plank",
    "hidden": 0,
    "description": "Feed the fish in Chapter 1",
    "icon": "https://steamcdn-a.akamaihd.net/steamcommunity/public/images/apps/447290/0d31d1b4b129a055251d126b24d5150d4f953f88.jpg",
    "icongray": "https://steamcdn-a.akamaihd.net/steamcommunity/public/images/apps/447290/ba1a9dd3b55e7b00721d115b29e6bbc111697498.jpg"
  },
  {
    "name": "ACHIEVEMENT_ID_ENTER_THE_DRAGON",
    "defaultvalue": 0,
    "displayName": "Enter the Dragon",
    "hidden": 0,
    "description": "Do it the oldschool way in Chapter 2",
    "icon": "https://steamcdn-a.akamaihd.net/steamcommunity/public/images/apps/447290/5883f94f411ed65a6e5912bffcb982cedcc4dc5a.jpg",
    "icongray": "https://steamcdn-a.akamaihd.net/steamcommunity/public/images/apps/447290/8058e74f70d38c4ab5c51f8ff2fecca6b6e8923c.jpg"
  },
  {
    "name": "ACHIEVEMENT_ID_WHOS_THERE",
    "defaultvalue": 0,
    "displayName": "Knock-Knock",
    "hidden": 0,
    "description": "Who's there? Chapter 3",
    "icon": "https://steamcdn-a.akamaihd.net/steamcommunity/public/images/apps/447290/a8028cd4def437d78177f3f3b24af381c0f221e5.jpg",
    "icongray": "https://steamcdn-a.akamaihd.net/steamcommunity/public/images/apps/447290/b83b6f46726e300ad363c02265cc9e055a979d23.jpg"
  },
  {
    "name": "ACHIEVEMENT_ID_TURN_THE_RUIN_INTO_CRYPT",
    "defaultvalue": 0,
    "displayName": "Sepulchre",
    "hidden": 0,
    "description": "Turn the ruins into a crypt in Chapter 4",
    "icon": "https://steamcdn-a.akamaihd.net/steamcommunity/public/images/apps/447290/c662d951776d976555559201c2306ddcea892c28.jpg",
    "icongray": "https://steamcdn-a.akamaihd.net/steamcommunity/public/images/apps/447290/7ca2032fd1fcc477f8a0af7bec53317e453c48a3.jpg"
  },
  {
    "name": "ACHIEVEMENT_ID_CLEANSING_FIRE",
    "defaultvalue": 0,
    "displayName": "Cleansing Fire",
    "hidden": 0,
    "description": "Cook some kebabs in Chapter 5",
    "icon": "https://steamcdn-a.akamaihd.net/steamcommunity/public/images/apps/447290/4ccaece430da79fb00827c0a6ce33457362ec0c8.jpg",
    "icongray": "https://steamcdn-a.akamaihd.net/steamcommunity/public/images/apps/447290/c8c9e66f5c14e23225cf6e57863b183d3d130aba.jpg"
  },
  {
    "name": "ACHIEVEMENT_ID_WIN_A_DUEL",
    "defaultvalue": 0,
    "displayName": "One-on-one",
    "hidden": 0,
    "description": "Win the duel against an old firend.",
    "icon": "https://steamcdn-a.akamaihd.net/steamcommunity/public/images/apps/447290/60d02c978bb7d37f320f4c0bd232c218e9c3d92e.jpg",
    "icongray": "https://steamcdn-a.akamaihd.net/steamcommunity/public/images/apps/447290/bf6a8c43b250894c3203d1e906e4b533a5cfe19c.jpg"
  },
  {
    "name": "ACHIEVEMENT_ID_NEEDLES_ARE_BAD",
    "defaultvalue": 0,
    "displayName": "They're Not All That Bad",
    "hidden": 0,
    "description": "Add a bit of pacifism to this bloodbath. Chapter 6",
    "icon": "https://steamcdn-a.akamaihd.net/steamcommunity/public/images/apps/447290/b2ac36d55ea08e74121b6ae54433f5191a56d832.jpg",
    "icongray": "https://steamcdn-a.akamaihd.net/steamcommunity/public/images/apps/447290/98640c353d887c68658abb58ac382e638e990911.jpg"
  },
  {
    "name": "ACHIEVEMENT_ID_NO_HANDS",
    "defaultvalue": 0,
    "displayName": "No Hands",
    "hidden": 0,
    "description": "Let the others do your work in Chapter 7",
    "icon": "https://steamcdn-a.akamaihd.net/steamcommunity/public/images/apps/447290/09aa9b86ded57a486b40b38bb02e4495c3fb1eb6.jpg",
    "icongray": "https://steamcdn-a.akamaihd.net/steamcommunity/public/images/apps/447290/89735e3b274625985f7061e3d86ad8090f75f852.jpg"
  },
  {
    "name": "ACHIEVEMENT_ID_WELCOME_TO_JUNGLE",
    "defaultvalue": 0,
    "displayName": "Welcome to the Jungle",
    "hidden": 0,
    "description": "Clean out the greenhouse in Chapter 8",
    "icon": "https://steamcdn-a.akamaihd.net/steamcommunity/public/images/apps/447290/ca734c1cab9c0afcd673f8a43c75b33769702b5f.jpg",
    "icongray": "https://steamcdn-a.akamaihd.net/steamcommunity/public/images/apps/447290/c3b4332828c5b091a6f860fcdac380a48cdd576b.jpg"
  },
  {
    "name": "ACHIEVEMENT_ID_UNTOUCHABLE",
    "defaultvalue": 0,
    "displayName": "Touch Me Not",
    "hidden": 0,
    "description": "Be quicker than the big guys in Chapter 9",
    "icon": "https://steamcdn-a.akamaihd.net/steamcommunity/public/images/apps/447290/5f570e10592dab263f1903a02bb21b539c754169.jpg",
    "icongray": "https://steamcdn-a.akamaihd.net/steamcommunity/public/images/apps/447290/3207a79120e20d98c4b07c06cb531eef6478396a.jpg"
  },
  {
    "name": "ACHIEVEMENT_ID_SHOULDNT_THROW_STONES",
    "defaultvalue": 0,
    "displayName": "Fragile",
    "hidden": 0,
    "description": "Be careful with the glass in Chapter 10",
    "icon": "https://steamcdn-a.akamaihd.net/steamcommunity/public/images/apps/447290/c71a92102409b67f3cd759cc77e101ef72bc2e84.jpg",
    "icongray": "https://steamcdn-a.akamaihd.net/steamcommunity/public/images/apps/447290/1a41c2c2dfaf5cd54a0d95d8d9d4e55c060eaaed.jpg"
  },
  {
    "name": "ACHIEVEMENT_ID_WHO_RUN_BARTERTOWN",
    "defaultvalue": 0,
    "displayName": "Who Run Bartertown",
    "hidden": 0,
    "description": "Defeat the guardians.",
    "icon": "https://steamcdn-a.akamaihd.net/steamcommunity/public/images/apps/447290/68e9ba7429ab89fb4104c0a1d8b46e64ee49bc2b.jpg",
    "icongray": "https://steamcdn-a.akamaihd.net/steamcommunity/public/images/apps/447290/ec78d2bd8b7ac590ce17907f82cc17bc2d5d19da.jpg"
  },
  {
    "name": "ACHIEVEMENT_ID_HIT_THE_FAN",
    "defaultvalue": 0,
    "displayName": "Hit the Fan",
    "hidden": 0,
    "description": "Mince some meat in Chapter 11",
    "icon": "https://steamcdn-a.akamaihd.net/steamcommunity/public/images/apps/447290/1cbd00227f871d9968dc1cce0484a59cecc2a727.jpg",
    "icongray": "https://steamcdn-a.akamaihd.net/steamcommunity/public/images/apps/447290/4a26f39d8f4359a4df6ae2fe1b95d9a7d114f8fa.jpg"
  },
  {
    "name": "ACHIEVEMENT_ID_REPTILE",
    "defaultvalue": 0,
    "displayName": "Reptile",
    "hidden": 0,
    "description": "Forward, Forward, High Punch. Chapter 12",
    "icon": "https://steamcdn-a.akamaihd.net/steamcommunity/public/images/apps/447290/24a164ea02e80e4d7914c1c3b266e18321364c1d.jpg",
    "icongray": "https://steamcdn-a.akamaihd.net/steamcommunity/public/images/apps/447290/adc5fdb9d017e08f0588246e4a7880aafc9cd901.jpg"
  },
  {
    "name": "ACHIEVEMENT_ID_RECYCLING",
    "defaultvalue": 0,
    "displayName": "Recycling",
    "hidden": 0,
    "description": "This is a zero-waste production facility. Chapter 13",
    "icon": "https://steamcdn-a.akamaihd.net/steamcommunity/public/images/apps/447290/466ec0f9285d4115cb39b96567b549068ab77994.jpg",
    "icongray": "https://steamcdn-a.akamaihd.net/steamcommunity/public/images/apps/447290/b325c1ec15b1350840a8c92370b20ca9bd77e715.jpg"
  },
  {
    "name": "ACHIEVEMENT_ID_TRUMPET_OF_JERICO",
    "defaultvalue": 0,
    "displayName": "Trumpet of Jericho",
    "hidden": 0,
    "description": "Destroy more than 50% of the walls in Chapter 14",
    "icon": "https://steamcdn-a.akamaihd.net/steamcommunity/public/images/apps/447290/336039a5fdc9c4167a150b975b19fc232add3a08.jpg",
    "icongray": "https://steamcdn-a.akamaihd.net/steamcommunity/public/images/apps/447290/454354c922dd29f0994393b7184b91e3d0c44bc4.jpg"
  },
  {
    "name": "ACHIEVEMENT_ID_THIS_IS_THE_END",
    "defaultvalue": 0,
    "displayName": "There Can Be Only One",
    "hidden": 0,
    "description": "End the rivalry once and for all",
    "icon": "https://steamcdn-a.akamaihd.net/steamcommunity/public/images/apps/447290/b4efcbcd8f35d00d7bb51b671a4afb0f3cf16b56.jpg",
    "icongray": "https://steamcdn-a.akamaihd.net/steamcommunity/public/images/apps/447290/880b1ced0044ccbce359495fc647c5da1f675867.jpg"
  },
  {
    "name": "ACHIEVEMENT_SHUT_DOWN_THE_ENGINES",
    "defaultvalue": 0,
    "displayName": "No Fly Zone",
    "hidden": 0,
    "description": "Shut down the engines in Chapter 15",
    "icon": "https://steamcdn-a.akamaihd.net/steamcommunity/public/images/apps/447290/80ce7a36085654bd5ba6bc856dddb4648a003e9e.jpg",
    "icongray": "https://steamcdn-a.akamaihd.net/steamcommunity/public/images/apps/447290/b8cb5ddaf2cf1e31904b0bb2496f91d3da1f2b2e.jpg"
  },
  {
    "name": "ACHIEVEMENT_ID_COMPLETE_GAME",
    "defaultvalue": 0,
    "displayName": "Champion",
    "hidden": 0,
    "description": "Complete the game",
    "icon": "https://steamcdn-a.akamaihd.net/steamcommunity/public/images/apps/447290/6f19b52a5574bbf2a57711c282b2a113ce853a60.jpg",
    "icongray": "https://steamcdn-a.akamaihd.net/steamcommunity/public/images/apps/447290/b10bfc435eff55a5e99858fdf9b4c45238113772.jpg"
  },
  {
    "name": "ACHIEVEMENT_ID_COMPLETE_GAME_HARDCORE",
    "defaultvalue": 0,
    "displayName": "Bodhi",
    "hidden": 0,
    "description": "Complete the game on hardcore mode",
    "icon": "https://steamcdn-a.akamaihd.net/steamcommunity/public/images/apps/447290/d78a471bb546b3fa58c8caa103c6b71671402368.jpg",
    "icongray": "https://steamcdn-a.akamaihd.net/steamcommunity/public/images/apps/447290/db11a5f37b0892ba5a5d462d2de98d89e58fc60c.jpg"
  },
  {
    "name": "ACHIEVEMENT_ID_DOUBLE_KILL",
    "defaultvalue": 0,
    "displayName": "Double Kill!",
    "hidden": 0,
    "description": "Kill two enemies simultaneously",
    "icon": "https://steamcdn-a.akamaihd.net/steamcommunity/public/images/apps/447290/98173db2bcfab361f91078316e1150797be231a0.jpg",
    "icongray": "https://steamcdn-a.akamaihd.net/steamcommunity/public/images/apps/447290/4c49c7462cebe634a6efcba62e528a16da48dccf.jpg"
  },
  {
    "name": "ACHIEVEMENT_ID_TRIPLE_KILL",
    "defaultvalue": 0,
    "displayName": "Triple Kill!",
    "hidden": 0,
    "description": "Kill three enemies simultaneously",
    "icon": "https://steamcdn-a.akamaihd.net/steamcommunity/public/images/apps/447290/eb7a05b482d1cc5a169361ab0b829db4ed9ded3e.jpg",
    "icongray": "https://steamcdn-a.akamaihd.net/steamcommunity/public/images/apps/447290/5261e11313dd4fe82205e0139db6ed961538c1b4.jpg"
  },
  {
    "name": "ACHIEVEMENT_ID_RAMPAGE",
    "defaultvalue": 0,
    "displayName": "Rampage!",
    "hidden": 0,
    "description": "Kill five enemies simultaneously",
    "icon": "https://steamcdn-a.akamaihd.net/steamcommunity/public/images/apps/447290/22171cd5f90427eec0e0ebb7f8effd51a7884485.jpg",
    "icongray": "https://steamcdn-a.akamaihd.net/steamcommunity/public/images/apps/447290/39295a4ebf11995ba8e218af6e5090df75585590.jpg"
  },
  {
    "name": "ACHIEVEMENT_ID_KILL_10_USING_ENV",
    "defaultvalue": 0,
    "displayName": "Bad Day",
    "hidden": 0,
    "description": "Kill 25 enemies using the environment",
    "icon": "https://steamcdn-a.akamaihd.net/steamcommunity/public/images/apps/447290/2e5fbff78febf2a8f7b93f15a2910b0957494f26.jpg",
    "icongray": "https://steamcdn-a.akamaihd.net/steamcommunity/public/images/apps/447290/a20c7401af546394f48d5e7bc8d03d0100024403.jpg"
  },
  {
    "name": "ACHIEVEMENT_ID_KILL_50_USING_ENV",
    "defaultvalue": 0,
    "displayName": "Renovations",
    "hidden": 0,
    "description": "Kill 75 enemies using the environment",
    "icon": "https://steamcdn-a.akamaihd.net/steamcommunity/public/images/apps/447290/941803516e1f8431db926aeab58b8098152fdff4.jpg",
    "icongray": "https://steamcdn-a.akamaihd.net/steamcommunity/public/images/apps/447290/ca29b8a8dd6b5e3a16f1db7afbca5651fc99c875.jpg"
  },
  {
    "name": "ACHIEVEMENT_ID_KILL_100_USING_ENV",
    "defaultvalue": 0,
    "displayName": "Feng Shui",
    "hidden": 0,
    "description": "Kill 150 enemies using the environment",
    "icon": "https://steamcdn-a.akamaihd.net/steamcommunity/public/images/apps/447290/7314749ecde121054ad58a1c9e877cff08d8fd6d.jpg",
    "icongray": "https://steamcdn-a.akamaihd.net/steamcommunity/public/images/apps/447290/f240159ee955957a144964666502318b4e10a2b6.jpg"
  },
  {
    "name": "ACHIEVEMENT_ID_BREAK_100_WEAPONS",
    "defaultvalue": 0,
    "displayName": "Glass Weapons",
    "hidden": 0,
    "description": "Break 100 weapons",
    "icon": "https://steamcdn-a.akamaihd.net/steamcommunity/public/images/apps/447290/48ab5a20d017969fdffd5bf30f27b75de972f1c2.jpg",
    "icongray": "https://steamcdn-a.akamaihd.net/steamcommunity/public/images/apps/447290/fd3f6e4e3177e6ef9aa41dc4b0a2d231a6ea0c28.jpg"
  },
  {
    "name": "ACHIEVEMENT_ID_EXECUTE_10_ENEMIES",
    "defaultvalue": 0,
    "displayName": "Butcher",
    "hidden": 0,
    "description": "Execute 30 enemies.",
    "icon": "https://steamcdn-a.akamaihd.net/steamcommunity/public/images/apps/447290/c4a4550f575a67791869ffddb63454878521628c.jpg",
    "icongray": "https://steamcdn-a.akamaihd.net/steamcommunity/public/images/apps/447290/f33faab220a3782e90a60325b653a8e77ab44f25.jpg"
  },
  {
    "name": "ACHIEVEMENT_ID_EXECUTE_100_ENEMIES",
    "defaultvalue": 0,
    "displayName": "I Am Death",
    "hidden": 0,
    "description": "Execute 300 enemies.",
    "icon": "https://steamcdn-a.akamaihd.net/steamcommunity/public/images/apps/447290/36a559cb59751c32bd01c71939a05ae5d9fefee3.jpg",
    "icongray": "https://steamcdn-a.akamaihd.net/steamcommunity/public/images/apps/447290/91f084bb9954bf440036f1dd66036c66f5268b38.jpg"
  },
  {
    "name": "ACHIEVEMENT_ID_RESTORE_1000",
    "defaultvalue": 0,
    "displayName": "Rejuvenation",
    "hidden": 0,
    "description": "Restore 1000% of health",
    "icon": "https://steamcdn-a.akamaihd.net/steamcommunity/public/images/apps/447290/5e779c6c96da9db7f6f8909bbbaf299af780c4b8.jpg",
    "icongray": "https://steamcdn-a.akamaihd.net/steamcommunity/public/images/apps/447290/287315b389ba63afbfaa36834127dfd0c99e847b.jpg"
  },
  {
    "name": "ACHIEVEMENT_ID_RESTORE_FROM_LOW_TO_FULL",
    "defaultvalue": 0,
    "displayName": "Troll",
    "hidden": 0,
    "description": "Restore health from near death to full",
    "icon": "https://steamcdn-a.akamaihd.net/steamcommunity/public/images/apps/447290/7041c13def92c1c5234a59c4d9cb43933bac34a8.jpg",
    "icongray": "https://steamcdn-a.akamaihd.net/steamcommunity/public/images/apps/447290/8130734b46dcb0e1f4b43281f06edf7d635d6319.jpg"
  },
  {
    "name": "ACHIEVEMENT_ID_KILL_3_IN_NEAR_DEATH_STATE",
    "defaultvalue": 0,
    "displayName": "Raging Bull",
    "hidden": 0,
    "description": "Kill 3 enemies while Vasily is near death",
    "icon": "https://steamcdn-a.akamaihd.net/steamcommunity/public/images/apps/447290/e9a46ccfc27b72dfd213c7a53976e363842d2549.jpg",
    "icongray": "https://steamcdn-a.akamaihd.net/steamcommunity/public/images/apps/447290/89e5881e83e6183e0515e559b1d935126d29f9f9.jpg"
  },
  {
    "name": "ACHIEVEMENT_ID_PERFORM_10_PARRIES",
    "defaultvalue": 0,
    "displayName": "Oily Hands",
    "hidden": 0,
    "description": "Parry 50 times",
    "icon": "https://steamcdn-a.akamaihd.net/steamcommunity/public/images/apps/447290/dcbce4e58536867f6a6cb378f5f8126c77b852f2.jpg",
    "icongray": "https://steamcdn-a.akamaihd.net/steamcommunity/public/images/apps/447290/7221d8f8bc7360e03290fe549719bda5b7db52ba.jpg"
  },
  {
    "name": "ACHIEVEMENT_ID_SHOOT_20_ENEMIES",
    "defaultvalue": 0,
    "displayName": "Target Practice",
    "hidden": 0,
    "description": "Shoot 50 enemies",
    "icon": "https://steamcdn-a.akamaihd.net/steamcommunity/public/images/apps/447290/0af2eb08077144ba5e2d49e5646b99c4b5141e68.jpg",
    "icongray": "https://steamcdn-a.akamaihd.net/steamcommunity/public/images/apps/447290/4ce9720b3b2c4a6acd28c212fb6e8c55b939eae8.jpg"
  },
  {
    "name": "ACHIEVEMENT_ID_SHOOT_100_ENEMIES",
    "defaultvalue": 0,
    "displayName": "Lead Poisoning",
    "hidden": 0,
    "description": "Shoot 500 enemies.",
    "icon": "https://steamcdn-a.akamaihd.net/steamcommunity/public/images/apps/447290/c5ec8c16408988e949038c72b54ba7cea459f12d.jpg",
    "icongray": "https://steamcdn-a.akamaihd.net/steamcommunity/public/images/apps/447290/cc490779a3b55338ed8aa6f3d0aeb21c9e307b3a.jpg"
  },
  {
    "name": "ACHIEVEMENT_ID_PERFORM_10_STEALTH_KILLS",
    "defaultvalue": 0,
    "displayName": "Crouching Tiger",
    "hidden": 0,
    "description": "Perform 40 stealth kills.",
    "icon": "https://steamcdn-a.akamaihd.net/steamcommunity/public/images/apps/447290/db27fb9b868036490acc4ccc263dda9bc7b0c242.jpg",
    "icongray": "https://steamcdn-a.akamaihd.net/steamcommunity/public/images/apps/447290/f913959aef5a8ada4b5a90fb7d7ba86fab3d3032.jpg"
  },
  {
    "name": "ACHIEVEMENT_ID_PERFORM_30_STEALTH_KILLS",
    "defaultvalue": 0,
    "displayName": "Hidden Dragon",
    "hidden": 0,
    "description": "Perform 100 stealth kills.",
    "icon": "https://steamcdn-a.akamaihd.net/steamcommunity/public/images/apps/447290/b69aab19335027b5094d31cc436419d4c11097ed.jpg",
    "icongray": "https://steamcdn-a.akamaihd.net/steamcommunity/public/images/apps/447290/48eab7533737a0c2e73b3b76f2df895fdc23034c.jpg"
  },
  {
    "name": "ACHIEVEMENT_ID_COMPLETE_ALL_CHAPTERS_WITHOUT_DEATHS",
    "defaultvalue": 0,
    "displayName": "Invincible",
    "hidden": 0,
    "description": "Complete every chapter with 0 deaths.",
    "icon": "https://steamcdn-a.akamaihd.net/steamcommunity/public/images/apps/447290/e448136be3d6abd3fd9e3a6b50963ea43c159b17.jpg",
    "icongray": "https://steamcdn-a.akamaihd.net/steamcommunity/public/images/apps/447290/370cc72afca4a4c84cf8ac4bcfcad09795a24f66.jpg"
  },
  {
    "name": "ACHIEVEMENT_ID_BEAT_ALL_ARENAS",
    "defaultvalue": 0,
    "displayName": "Are You Not Entertained?",
    "hidden": 0,
    "description": "Beat all Arena levels.",
    "icon": "https://steamcdn-a.akamaihd.net/steamcommunity/public/images/apps/447290/efaf8be9b4a9f2fb3ba033310bd5581d23018e07.jpg",
    "icongray": "https://steamcdn-a.akamaihd.net/steamcommunity/public/images/apps/447290/d7ef543244536046eec4218bfa6fb8bb3839f260.jpg"
  },
  {
    "name": "ACHIEVEMENT_ID_PERFORM_30_PARRIES",
    "defaultvalue": 0,
    "displayName": "Miyagi",
    "hidden": 0,
    "description": "Perform 300 parries.",
    "icon": "https://steamcdn-a.akamaihd.net/steamcommunity/public/images/apps/447290/8b8398f84a56e311019351450474e177f15649e7.jpg",
    "icongray": "https://steamcdn-a.akamaihd.net/steamcommunity/public/images/apps/447290/efd4a6fb83942f13058c725f76e598eb92a3312b.jpg"
  }
]