﻿{
  "Dlcs": {},
  "Name": "Destiny Warriors RPG",
  "AppId": "399790",
  "ImageUrl": "https://steamcdn-a.akamaihd.net/steam/apps/399790/header.jpg?t=1574484115",
  "Languages": [
    "english"
  ],
  "Platforms": {
    "windows": true,
    "mac": false,
    "linux": false
  }
}