﻿{
  "Dlcs": {},
  "Name": "Valdis Story: Abyssal City",
  "AppId": "252030",
  "ImageUrl": "https://steamcdn-a.akamaihd.net/steam/apps/252030/header.jpg?t=1544621869",
  "Languages": [
    "english"
  ],
  "Platforms": {
    "windows": true,
    "mac": true,
    "linux": false
  }
}