﻿[
  {
    "name": "traveler",
    "defaultvalue": 0,
    "displayName": "Traveler",
    "hidden": 0,
    "description": "Complete the map",
    "icon": "https://steamcdn-a.akamaihd.net/steamcommunity/public/images/apps/414730/26129825d89120a78b4758c0858c3145d6d8a433.jpg",
    "icongray": "https://steamcdn-a.akamaihd.net/steamcommunity/public/images/apps/414730/5947e4b9dde6efc7e24ea42572c4b4764bd2520d.jpg"
  },
  {
    "name": "team",
    "defaultvalue": 0,
    "displayName": "All for one",
    "hidden": 0,
    "description": "Complete the  multiplayer location",
    "icon": "https://steamcdn-a.akamaihd.net/steamcommunity/public/images/apps/414730/af7a4376cb64a8999067259dba0f3accb2c99998.jpg",
    "icongray": "https://steamcdn-a.akamaihd.net/steamcommunity/public/images/apps/414730/a6d1974aff45abbc93e66d3cd9b24ce4f949cf0b.jpg"
  },
  {
    "name": "beginner",
    "defaultvalue": 0,
    "displayName": "The beginner",
    "hidden": 0,
    "description": "Complete the first location",
    "icon": "https://steamcdn-a.akamaihd.net/steamcommunity/public/images/apps/414730/4fb83c6654843e0cddb7d3b1254f59a5fd6144b3.jpg",
    "icongray": "https://steamcdn-a.akamaihd.net/steamcommunity/public/images/apps/414730/2acb70e0e04641fd87e5e05e3266259161348dd7.jpg"
  },
  {
    "name": "key",
    "defaultvalue": 0,
    "displayName": "Steward",
    "hidden": 0,
    "description": "Open all closed locations",
    "icon": "https://steamcdn-a.akamaihd.net/steamcommunity/public/images/apps/414730/3531136dc49336f575023fdbad0fc1b4d8d92830.jpg",
    "icongray": "https://steamcdn-a.akamaihd.net/steamcommunity/public/images/apps/414730/7fd183788f6a19b7a8122d1c8fde96d010e7093d.jpg"
  },
  {
    "name": "burglar",
    "defaultvalue": 0,
    "displayName": "Burglar",
    "hidden": 0,
    "description": "Open the locked location",
    "icon": "https://steamcdn-a.akamaihd.net/steamcommunity/public/images/apps/414730/4eb6cf4886e72539bec47fd13a179f1f98f01a1a.jpg",
    "icongray": "https://steamcdn-a.akamaihd.net/steamcommunity/public/images/apps/414730/36982cdc76bc15cdfa68c4fcc994d7b04d8d993c.jpg"
  },
  {
    "name": "credits",
    "defaultvalue": 0,
    "displayName": "Who are they",
    "hidden": 0,
    "description": "Read information about authors",
    "icon": "https://steamcdn-a.akamaihd.net/steamcommunity/public/images/apps/414730/251ac408754dcd8fe52cb65a432e2c53e0ae94d8.jpg",
    "icongray": "https://steamcdn-a.akamaihd.net/steamcommunity/public/images/apps/414730/a5ee51b6d717a0c9766d66d4dae60a4dbbbfd760.jpg"
  },
  {
    "name": "potion",
    "defaultvalue": 0,
    "displayName": "Alchemist",
    "hidden": 0,
    "description": "Use healing potion",
    "icon": "https://steamcdn-a.akamaihd.net/steamcommunity/public/images/apps/414730/b726249a77583d1823699dc53886118f19cd8ff8.jpg",
    "icongray": "https://steamcdn-a.akamaihd.net/steamcommunity/public/images/apps/414730/3257076b62c80397e74c7bf6c1fbc3dfcc5d0d31.jpg"
  },
  {
    "name": "pet",
    "defaultvalue": 0,
    "displayName": "Animal trainer",
    "hidden": 0,
    "description": "Buy pet",
    "icon": "https://steamcdn-a.akamaihd.net/steamcommunity/public/images/apps/414730/47533a0f63eb44ace51be0b5a84c523ceea9eae1.jpg",
    "icongray": "https://steamcdn-a.akamaihd.net/steamcommunity/public/images/apps/414730/aec3e3cc647f55bc6c4026c4cbbc1046113714fb.jpg"
  },
  {
    "name": "smith",
    "defaultvalue": 0,
    "displayName": "Smith",
    "hidden": 0,
    "description": "Reach 20th level of weapon",
    "icon": "https://steamcdn-a.akamaihd.net/steamcommunity/public/images/apps/414730/97af025dfebeae665feb1bf77b6f05cf81649517.jpg",
    "icongray": "https://steamcdn-a.akamaihd.net/steamcommunity/public/images/apps/414730/6c5a4d837ed088b7c835b4166b5c1d121a8fc599.jpg"
  },
  {
    "name": "armorer",
    "defaultvalue": 0,
    "displayName": "Armorer",
    "hidden": 0,
    "description": "Reach 20th level of armor",
    "icon": "https://steamcdn-a.akamaihd.net/steamcommunity/public/images/apps/414730/7926fa620ef5e88f565120657928bbf8af6f0765.jpg",
    "icongray": "https://steamcdn-a.akamaihd.net/steamcommunity/public/images/apps/414730/39e99a93a937bee10d8ffc9dd647fcb395cd3b26.jpg"
  },
  {
    "name": "tank",
    "defaultvalue": 0,
    "displayName": "Tank",
    "hidden": 0,
    "description": "Reach 20th level of shield",
    "icon": "https://steamcdn-a.akamaihd.net/steamcommunity/public/images/apps/414730/02048b6e2ca22696d2cb017b29ede04be5ffe548.jpg",
    "icongray": "https://steamcdn-a.akamaihd.net/steamcommunity/public/images/apps/414730/c842b4d30402e24443835b371e487851940383da.jpg"
  },
  {
    "name": "killer",
    "defaultvalue": 0,
    "displayName": "Killer",
    "hidden": 0,
    "description": "Kill The Dragon",
    "icon": "https://steamcdn-a.akamaihd.net/steamcommunity/public/images/apps/414730/8c3c24a0af50cf10b76e9788c950a482536611d0.jpg",
    "icongray": "https://steamcdn-a.akamaihd.net/steamcommunity/public/images/apps/414730/8af56df35e5f36fe06e1ad85b7c1f364c7a27d89.jpg"
  },
  {
    "name": "clicker2",
    "defaultvalue": 0,
    "displayName": "Crazy clicker",
    "hidden": 0,
    "description": "100.000 clicks",
    "icon": "https://steamcdn-a.akamaihd.net/steamcommunity/public/images/apps/414730/1d761e1eac4c9622c9cc13f2f18e11e0d91fa1e7.jpg",
    "icongray": "https://steamcdn-a.akamaihd.net/steamcommunity/public/images/apps/414730/d8f6c2ea229b9b861c9dca27b075cae4dd7c5bbf.jpg"
  },
  {
    "name": "clicker1",
    "defaultvalue": 0,
    "displayName": "Average",
    "hidden": 0,
    "description": "1.000 clicks",
    "icon": "https://steamcdn-a.akamaihd.net/steamcommunity/public/images/apps/414730/afe603a87336e831485dd22d69e0f672208d5249.jpg",
    "icongray": "https://steamcdn-a.akamaihd.net/steamcommunity/public/images/apps/414730/abfdddef21344eb74efb6c78c7b232626db62db0.jpg"
  },
  {
    "name": "monsterkiller",
    "defaultvalue": 0,
    "displayName": "Monster killer",
    "hidden": 0,
    "description": "Kill 200 enemies",
    "icon": "https://steamcdn-a.akamaihd.net/steamcommunity/public/images/apps/414730/1df95ba7dc5c7ae2c47d333db0be0cce06e0d962.jpg",
    "icongray": "https://steamcdn-a.akamaihd.net/steamcommunity/public/images/apps/414730/cc691d39292a1912c80b147ed131d3df465bc9b4.jpg"
  },
  {
    "name": "dmg",
    "defaultvalue": 0,
    "displayName": "Power fist",
    "hidden": 0,
    "description": "Deal 1 million damage",
    "icon": "https://steamcdn-a.akamaihd.net/steamcommunity/public/images/apps/414730/17fd6afda1f4635d10143f7469927eb8446dee2d.jpg",
    "icongray": "https://steamcdn-a.akamaihd.net/steamcommunity/public/images/apps/414730/30e5b4f36ac60ef282c110fa5105c7c090b57d52.jpg"
  },
  {
    "name": "chicken",
    "defaultvalue": 0,
    "displayName": "Chicken",
    "hidden": 0,
    "description": "Escape from battle",
    "icon": "https://steamcdn-a.akamaihd.net/steamcommunity/public/images/apps/414730/bae1e7ce7905e0abed934f5ad12f8b625a55138e.jpg",
    "icongray": "https://steamcdn-a.akamaihd.net/steamcommunity/public/images/apps/414730/2a7a8caf74d8f4a1a65839cb0b49b4f7777cae6b.jpg"
  },
  {
    "name": "toughplayer",
    "defaultvalue": 0,
    "displayName": "Tough player",
    "hidden": 0,
    "description": "Complete the map twice",
    "icon": "https://steamcdn-a.akamaihd.net/steamcommunity/public/images/apps/414730/72bf5e43ba71b002950376733575857a6ee10138.jpg",
    "icongray": "https://steamcdn-a.akamaihd.net/steamcommunity/public/images/apps/414730/22dac610d244bdcc61f7e6d4dcd65dc950757037.jpg"
  },
  {
    "name": "berserker",
    "defaultvalue": 0,
    "displayName": "Berserker",
    "hidden": 0,
    "description": "Complete the map three times",
    "icon": "https://steamcdn-a.akamaihd.net/steamcommunity/public/images/apps/414730/5e052e775a506ad00fb4b64a9af3531be57a2f9f.jpg",
    "icongray": "https://steamcdn-a.akamaihd.net/steamcommunity/public/images/apps/414730/1ef0c10b6b882c33f3ad150ee9d6819b8bb89beb.jpg"
  },
  {
    "name": "achievement20",
    "defaultvalue": 0,
    "displayName": "Va banque",
    "hidden": 0,
    "description": "Win gold using #LetsPlayAGame item",
    "icon": "https://steamcdn-a.akamaihd.net/steamcommunity/public/images/apps/414730/b991ea558fec92c286016fc7c2868faa3d6b84dc.jpg",
    "icongray": "https://steamcdn-a.akamaihd.net/steamcommunity/public/images/apps/414730/00acddcd14def7988a09572f1c1ddad732dbd7f7.jpg"
  },
  {
    "name": "achievement21",
    "defaultvalue": 0,
    "displayName": "Best Friends Forever!",
    "hidden": 0,
    "description": "Use #BeMyBFF item",
    "icon": "https://steamcdn-a.akamaihd.net/steamcommunity/public/images/apps/414730/562400222df05a0fe1ac7344b69a965a1b831fcf.jpg",
    "icongray": "https://steamcdn-a.akamaihd.net/steamcommunity/public/images/apps/414730/203fc6bb52420ccd196853eba6687c17a85af9ee.jpg"
  },
  {
    "name": "achievement22",
    "defaultvalue": 0,
    "displayName": "So dark and wet",
    "hidden": 0,
    "description": "Enter the dungeon",
    "icon": "https://steamcdn-a.akamaihd.net/steamcommunity/public/images/apps/414730/545178c34ab676e1e6c2824ac601f58c785ae5f8.jpg",
    "icongray": "https://steamcdn-a.akamaihd.net/steamcommunity/public/images/apps/414730/5fce5e2de9fface52abf3b2e159f9158e8ceffb8.jpg"
  },
  {
    "name": "achievement23",
    "defaultvalue": 0,
    "displayName": "Boozed",
    "hidden": 0,
    "description": "Drink water from fountain in dungeon",
    "icon": "https://steamcdn-a.akamaihd.net/steamcommunity/public/images/apps/414730/c50538c6474371b07250a07f5de670a4b64e19e8.jpg",
    "icongray": "https://steamcdn-a.akamaihd.net/steamcommunity/public/images/apps/414730/951543f09fe470456009844cf09833e129c812be.jpg"
  },
  {
    "name": "achievement24",
    "defaultvalue": 0,
    "displayName": "Grandmothers jam isn't here",
    "hidden": 0,
    "description": "Reach level 10 of Dungeon on first map level",
    "icon": "https://steamcdn-a.akamaihd.net/steamcommunity/public/images/apps/414730/2d82cddb60e57bf819eafddcb307969d5bd5799c.jpg",
    "icongray": "https://steamcdn-a.akamaihd.net/steamcommunity/public/images/apps/414730/ddc9f5ade06115a8d0b6ba3aff7562d2a51657c6.jpg"
  },
  {
    "name": "achievement25",
    "defaultvalue": 0,
    "displayName": "Is this really a good idea?",
    "hidden": 0,
    "description": "Reach level 25 of Dungeon on first map level",
    "icon": "https://steamcdn-a.akamaihd.net/steamcommunity/public/images/apps/414730/8b99f652453df4f3f9b17593451c9af7623002d3.jpg",
    "icongray": "https://steamcdn-a.akamaihd.net/steamcommunity/public/images/apps/414730/cb3fb7af3d96c603436df0e25c0985543b1e2c0a.jpg"
  },
  {
    "name": "achievement26",
    "defaultvalue": 0,
    "displayName": "You like it don't you?",
    "hidden": 0,
    "description": "Reach level 50 of Dungeon on first map level",
    "icon": "https://steamcdn-a.akamaihd.net/steamcommunity/public/images/apps/414730/712a135aad8b0ceb537ab23e145465cbd2447b61.jpg",
    "icongray": "https://steamcdn-a.akamaihd.net/steamcommunity/public/images/apps/414730/4b7d190954da5ef9b4779c8ab953c241a79aa31b.jpg"
  },
  {
    "name": "achievement27",
    "defaultvalue": 0,
    "displayName": "You are too good for it",
    "hidden": 0,
    "description": "Reach level 100 of Dungeon on first map level",
    "icon": "https://steamcdn-a.akamaihd.net/steamcommunity/public/images/apps/414730/630553ef6514bff78f1e076074c9311276960b80.jpg",
    "icongray": "https://steamcdn-a.akamaihd.net/steamcommunity/public/images/apps/414730/1cf74613f34dc3c4cc737ad3dcb6d754a4d9d45c.jpg"
  },
  {
    "name": "achievement28",
    "defaultvalue": 0,
    "displayName": "You are determined",
    "hidden": 0,
    "description": "Reach level 7 of Dungeon on second map level",
    "icon": "https://steamcdn-a.akamaihd.net/steamcommunity/public/images/apps/414730/65c88d69ac42a6463c1c83e21c4080a16588eef8.jpg",
    "icongray": "https://steamcdn-a.akamaihd.net/steamcommunity/public/images/apps/414730/902b17a9366702d15993aa168c29303fa7149d42.jpg"
  },
  {
    "name": "achievement29",
    "defaultvalue": 0,
    "displayName": "Isn't it too dangerous?",
    "hidden": 0,
    "description": "Reach level 13 of Dungeon on second map level",
    "icon": "https://steamcdn-a.akamaihd.net/steamcommunity/public/images/apps/414730/7d7082499beabe34af43b0328f25d4ec34244072.jpg",
    "icongray": "https://steamcdn-a.akamaihd.net/steamcommunity/public/images/apps/414730/c4ad1abe6ae98d97b4c8edfe73bfd5aea1f3799f.jpg"
  },
  {
    "name": "achievement30",
    "defaultvalue": 0,
    "displayName": "Happy dungeoner",
    "hidden": 0,
    "description": "Reach level 21 of Dungeon on second map level",
    "icon": "https://steamcdn-a.akamaihd.net/steamcommunity/public/images/apps/414730/9ae017ba465826a70afc6f37cf12a0b9e3b93ecb.jpg",
    "icongray": "https://steamcdn-a.akamaihd.net/steamcommunity/public/images/apps/414730/e3af45e4a1009f3a2cc51b0a6dd377551fb1b743.jpg"
  },
  {
    "name": "achievement31",
    "defaultvalue": 0,
    "displayName": "Biggie",
    "hidden": 0,
    "description": "Reach level 69 of Dungeon on second map level",
    "icon": "https://steamcdn-a.akamaihd.net/steamcommunity/public/images/apps/414730/8d66d3df4c4d82ac16750bf2d966bb94d82fa30f.jpg",
    "icongray": "https://steamcdn-a.akamaihd.net/steamcommunity/public/images/apps/414730/ef8802b643f441efebbc46c3048e76809c75b046.jpg"
  },
  {
    "name": "achievement32",
    "defaultvalue": 0,
    "displayName": "This is the passion",
    "hidden": 0,
    "description": "Reach level 5 of Dungeon on third map level",
    "icon": "https://steamcdn-a.akamaihd.net/steamcommunity/public/images/apps/414730/47a5b1b0d9d55509c4a3c1a7bd04ebb7d2085f6c.jpg",
    "icongray": "https://steamcdn-a.akamaihd.net/steamcommunity/public/images/apps/414730/26a6ac7c7f35614fe4763da7304dd1c7cd010f52.jpg"
  },
  {
    "name": "achievement33",
    "defaultvalue": 0,
    "displayName": "You dice with death",
    "hidden": 0,
    "description": "Reach level 15 of Dungeon on third map level",
    "icon": "https://steamcdn-a.akamaihd.net/steamcommunity/public/images/apps/414730/d9753b61ff18a886e128e6669315c4dd37f688e7.jpg",
    "icongray": "https://steamcdn-a.akamaihd.net/steamcommunity/public/images/apps/414730/cfb08df66eda2d9f28b5448ac0cdb318e79dcd5d.jpg"
  },
  {
    "name": "achievement34",
    "defaultvalue": 0,
    "displayName": "Are you still alive!?",
    "hidden": 0,
    "description": "Reach level 30 of Dungeon on third map level",
    "icon": "https://steamcdn-a.akamaihd.net/steamcommunity/public/images/apps/414730/f3d580bc0dca298425043142c530e0257401c7fc.jpg",
    "icongray": "https://steamcdn-a.akamaihd.net/steamcommunity/public/images/apps/414730/7bb5d0ac85c641911b113879643d2286f9e2048c.jpg"
  },
  {
    "name": "achievement35",
    "defaultvalue": 0,
    "displayName": "Respect",
    "hidden": 0,
    "description": "Reach level 50 of Dungeon on third map level",
    "icon": "https://steamcdn-a.akamaihd.net/steamcommunity/public/images/apps/414730/27654791785c2cf672fb13da09e31af625aefa9d.jpg",
    "icongray": "https://steamcdn-a.akamaihd.net/steamcommunity/public/images/apps/414730/41f319f485f4b9bb9158b2c0ed1788518eb3af1c.jpg"
  },
  {
    "name": "achievement36",
    "defaultvalue": 0,
    "displayName": "Casual gamer",
    "hidden": 0,
    "description": "Reach player level 10",
    "icon": "https://steamcdn-a.akamaihd.net/steamcommunity/public/images/apps/414730/737bb80d074daf330e0d0a1bee071a2048acca5c.jpg",
    "icongray": "https://steamcdn-a.akamaihd.net/steamcommunity/public/images/apps/414730/f4c96b9534b272db18e553044e3458ccf431392e.jpg"
  },
  {
    "name": "achievement37",
    "defaultvalue": 0,
    "displayName": "Haters goal",
    "hidden": 0,
    "description": "Reach player level 25",
    "icon": "https://steamcdn-a.akamaihd.net/steamcommunity/public/images/apps/414730/1a4a0949f419403a3a0be7f60d38ffc056805272.jpg",
    "icongray": "https://steamcdn-a.akamaihd.net/steamcommunity/public/images/apps/414730/1c64a544c822ad68307a485c15edc79bf2e45a5b.jpg"
  },
  {
    "name": "achievement38",
    "defaultvalue": 0,
    "displayName": "Like a sir",
    "hidden": 0,
    "description": "Reach player level 50",
    "icon": "https://steamcdn-a.akamaihd.net/steamcommunity/public/images/apps/414730/fe2d7b19957f91b0256775349576f1019e79b2d3.jpg",
    "icongray": "https://steamcdn-a.akamaihd.net/steamcommunity/public/images/apps/414730/d4c1d7a2756ffa19c1bc78534b6a73d57d9b30fd.jpg"
  },
  {
    "name": "achievement39",
    "defaultvalue": 0,
    "displayName": "I'm the boss",
    "hidden": 0,
    "description": "Reach player level 100",
    "icon": "https://steamcdn-a.akamaihd.net/steamcommunity/public/images/apps/414730/d5ff6f99337a84f591ef758ab9a0c3b63a085d13.jpg",
    "icongray": "https://steamcdn-a.akamaihd.net/steamcommunity/public/images/apps/414730/9eb3a8edc8469875a566d5120c2d3730d92ade85.jpg"
  },
  {
    "name": "achievement40",
    "defaultvalue": 0,
    "displayName": "Give me my remote",
    "hidden": 0,
    "description": "Loot #MuchTvWow item",
    "icon": "https://steamcdn-a.akamaihd.net/steamcommunity/public/images/apps/414730/ad7314ac4089dfce488a837be3eb121cfdf49a2d.jpg",
    "icongray": "https://steamcdn-a.akamaihd.net/steamcommunity/public/images/apps/414730/89437e15951e7af1c33ca5ae854431cfb8786953.jpg"
  }
]