﻿{
  "Dlcs": {},
  "Name": "Fear of Clowns",
  "AppId": "619490",
  "ImageUrl": "https://steamcdn-a.akamaihd.net/steam/apps/619490/header.jpg?t=1576593714",
  "Languages": [
    "english",
    "russian"
  ],
  "Platforms": {
    "windows": true,
    "mac": false,
    "linux": false
  }
}