﻿{
  "Dlcs": {},
  "Name": "ArcaniA: Fall of Setarrif",
  "AppId": "65610",
  "ImageUrl": "https://steamcdn-a.akamaihd.net/steam/apps/65610/header.jpg?t=1563176078",
  "Languages": [
    "english",
    "french",
    "german",
    "italian",
    "spanish",
    "hungarian",
    "polish",
    "russian"
  ],
  "Platforms": {
    "windows": true,
    "mac": false,
    "linux": false
  }
}