﻿{
  "Dlcs": {},
  "Name": "Blink the Bulb",
  "AppId": "534190",
  "ImageUrl": "https://steamcdn-a.akamaihd.net/steam/apps/534190/header.jpg?t=1484236395",
  "Languages": [
    "english"
  ],
  "Platforms": {
    "windows": true,
    "mac": false,
    "linux": false
  }
}