﻿{
  "Dlcs": {
    "788400": {
      "Name": "",
      "ImageUrl": ""
    }
  },
  "Name": "Rex: Another Island",
  "AppId": "699150",
  "ImageUrl": "https://steamcdn-a.akamaihd.net/steam/apps/699150/header.jpg?t=1588696034",
  "Languages": [
    "english",
    "french",
    "italian",
    "german",
    "spanish"
  ],
  "Platforms": {
    "windows": true,
    "mac": true,
    "linux": false
  }
}