﻿[
  {
    "name": "hohoho",
    "defaultvalue": 0,
    "displayName": "HoHoHo",
    "hidden": 0,
    "description": "Beat story mode lvl 1",
    "icon": "https://steamcdn-a.akamaihd.net/steamcommunity/public/images/apps/382260/d6e7d2b7ff4db0097eb98dbf04a0d9b2d16f60db.jpg",
    "icongray": "https://steamcdn-a.akamaihd.net/steamcommunity/public/images/apps/382260/78a02ad7c6b8401098fa951bb4a25eb1f4cdd948.jpg"
  },
  {
    "name": "myhorse",
    "defaultvalue": 0,
    "displayName": "Look At My Horse",
    "hidden": 0,
    "description": "Kill Schwinghammer",
    "icon": "https://steamcdn-a.akamaihd.net/steamcommunity/public/images/apps/382260/ac63d4b1e1a2b54b7964b08f1105daf5b7c10bd6.jpg",
    "icongray": "https://steamcdn-a.akamaihd.net/steamcommunity/public/images/apps/382260/9b65042cfb2bcdde7e1b8e2c90258346b3955872.jpg"
  },
  {
    "name": "serious",
    "defaultvalue": 0,
    "displayName": "Why So Serious?",
    "hidden": 0,
    "description": "Crush the clown",
    "icon": "https://steamcdn-a.akamaihd.net/steamcommunity/public/images/apps/382260/087ef323111e1f9e9a4beafbaf4a43c64365c0a8.jpg",
    "icongray": "https://steamcdn-a.akamaihd.net/steamcommunity/public/images/apps/382260/85b1a327cb966e77a9ef44529b79752d7c746187.jpg"
  },
  {
    "name": "asset",
    "defaultvalue": 0,
    "displayName": "Asset The Dog",
    "hidden": 0,
    "description": "Drown the dog",
    "icon": "https://steamcdn-a.akamaihd.net/steamcommunity/public/images/apps/382260/09c6aa8fbcafd85806ae6fded3431d76dbd45d81.jpg",
    "icongray": "https://steamcdn-a.akamaihd.net/steamcommunity/public/images/apps/382260/e6f6cf1b57032fa30081ece2f0a59d197e04ea36.jpg"
  },
  {
    "name": "spikelover",
    "defaultvalue": 0,
    "displayName": "Spike Lover",
    "hidden": 1,
    "icon": "https://steamcdn-a.akamaihd.net/steamcommunity/public/images/apps/382260/63da124aaf8e45b6ef5cd30803cbbf9c35cf5b67.jpg",
    "icongray": "https://steamcdn-a.akamaihd.net/steamcommunity/public/images/apps/382260/be50a6cdadccd3a12f713ff550e64c5f33eee999.jpg"
  },
  {
    "name": "theflash",
    "defaultvalue": 0,
    "displayName": "The Flash",
    "hidden": 0,
    "description": "Speedrun a gold time",
    "icon": "https://steamcdn-a.akamaihd.net/steamcommunity/public/images/apps/382260/c2fe5e32760c1e926542821d3ff9c88ebed73776.jpg",
    "icongray": "https://steamcdn-a.akamaihd.net/steamcommunity/public/images/apps/382260/61208b55546d2d4e0eac806bd5a4ee8a78c596fc.jpg"
  },
  {
    "name": "fiestaking",
    "defaultvalue": 0,
    "displayName": "Fiesta King",
    "hidden": 0,
    "description": "Finish 10 tournaments",
    "icon": "https://steamcdn-a.akamaihd.net/steamcommunity/public/images/apps/382260/0a2710f0761e063c4a0061cf3a04a6dfff60f246.jpg",
    "icongray": "https://steamcdn-a.akamaihd.net/steamcommunity/public/images/apps/382260/aa6c7755f5c845c6ebbbbee9dc55e0ab38197c4a.jpg"
  },
  {
    "name": "rescue",
    "defaultvalue": 0,
    "displayName": "The Collector",
    "hidden": 0,
    "description": "Unlock 3 new characters.",
    "icon": "https://steamcdn-a.akamaihd.net/steamcommunity/public/images/apps/382260/fd270ff5eab4a2aecc95065c384a5964d651dc50.jpg",
    "icongray": "https://steamcdn-a.akamaihd.net/steamcommunity/public/images/apps/382260/15057d8448b8ca8b66a3785d7843ae62af3032e3.jpg"
  },
  {
    "name": "rambo",
    "defaultvalue": 0,
    "displayName": "Rambo Mode",
    "hidden": 0,
    "description": "Beat the first boss in no death run",
    "icon": "https://steamcdn-a.akamaihd.net/steamcommunity/public/images/apps/382260/f4aa4fa887301c9d3b1a792373c8cad3b15de1e2.jpg",
    "icongray": "https://steamcdn-a.akamaihd.net/steamcommunity/public/images/apps/382260/3002e6c7863f1071047ecea16ba58584003c0b9f.jpg"
  },
  {
    "name": "beer",
    "defaultvalue": 0,
    "displayName": "Beer God",
    "hidden": 0,
    "description": "Oh beer god what happened?",
    "icon": "https://steamcdn-a.akamaihd.net/steamcommunity/public/images/apps/382260/9405a6b318c265daeb306e2482ab893889491dfd.jpg",
    "icongray": "https://steamcdn-a.akamaihd.net/steamcommunity/public/images/apps/382260/1b08638200d27bf596d83765939a525707eeaa31.jpg"
  },
  {
    "name": "pilot",
    "defaultvalue": 0,
    "displayName": "I'm Flying Jack!",
    "hidden": 1,
    "icon": "https://steamcdn-a.akamaihd.net/steamcommunity/public/images/apps/382260/b6cc81e17d870cd25442603df72aaa6d0aa2a0ce.jpg",
    "icongray": "https://steamcdn-a.akamaihd.net/steamcommunity/public/images/apps/382260/cf54fda428b148af9dd447bb830af7fc2cbd0baa.jpg"
  },
  {
    "name": "almost",
    "defaultvalue": 0,
    "displayName": "Almost Impossible",
    "hidden": 0,
    "description": "Beat world 2 in no death run",
    "icon": "https://steamcdn-a.akamaihd.net/steamcommunity/public/images/apps/382260/18f8358cc59f5897d822a9973033a10de73c9a4b.jpg",
    "icongray": "https://steamcdn-a.akamaihd.net/steamcommunity/public/images/apps/382260/54af94016b27f424b2906bec4d6027d32df9de64.jpg"
  },
  {
    "name": "impossible",
    "defaultvalue": 0,
    "displayName": "Totally Impossible",
    "hidden": 0,
    "description": "Beat all levels in no death run",
    "icon": "https://steamcdn-a.akamaihd.net/steamcommunity/public/images/apps/382260/84a4eb0030edde8f29aa403698b0e98c01116a11.jpg",
    "icongray": "https://steamcdn-a.akamaihd.net/steamcommunity/public/images/apps/382260/8effb6b83cfe6d37038ea2ba3cff62cd47167163.jpg"
  },
  {
    "name": "gotall",
    "defaultvalue": 0,
    "displayName": "Got Any More?",
    "hidden": 0,
    "description": "Unlock all characters",
    "icon": "https://steamcdn-a.akamaihd.net/steamcommunity/public/images/apps/382260/724ecd6147df20a18fa572e577ca4b88dcb078d8.jpg",
    "icongray": "https://steamcdn-a.akamaihd.net/steamcommunity/public/images/apps/382260/509bc4f1c26aaa8f6f10f412b5366672c5deb64e.jpg"
  },
  {
    "name": "holy",
    "defaultvalue": 0,
    "displayName": "Holy Shit!",
    "hidden": 0,
    "description": "Beat Jesus in wolly bomb",
    "icon": "https://steamcdn-a.akamaihd.net/steamcommunity/public/images/apps/382260/d3ab5b6b5ea2a60cd1d406a01297eef84a51ad2d.jpg",
    "icongray": "https://steamcdn-a.akamaihd.net/steamcommunity/public/images/apps/382260/8d32e9d52eccec05a694ce0e7a0ad51239d6e9c5.jpg"
  },
  {
    "name": "shitler",
    "defaultvalue": 0,
    "displayName": "Goodbye Adulf",
    "hidden": 0,
    "description": "Kill the dictator",
    "icon": "https://steamcdn-a.akamaihd.net/steamcommunity/public/images/apps/382260/a5d10a45b2ca26ea9aaa905786e3af19aa8e6571.jpg",
    "icongray": "https://steamcdn-a.akamaihd.net/steamcommunity/public/images/apps/382260/9747412283d58ef1e189cd982ef3743a943c8028.jpg"
  }
]