﻿[
  {
    "name": "statnewCars",
    "defaultvalue": 0,
    "displayName": "New Cars Bought"
  },
  {
    "name": "statgarageUpgrades",
    "defaultvalue": 0,
    "displayName": "Garage Upgrades"
  },
  {
    "name": "statgearShiftCount",
    "defaultvalue": 0,
    "displayName": "Gearbox Shift"
  },
  {
    "name": "statmarketCars",
    "defaultvalue": 0,
    "displayName": "Marketplace Car"
  },
  {
    "name": "statoneTimeDrift",
    "defaultvalue": 0,
    "displayName": "One time drift distance"
  },
  {
    "name": "statmarketMoney",
    "defaultvalue": 0,
    "displayName": "Marketplace Earnings"
  },
  {
    "name": "statracesWin",
    "defaultvalue": 0,
    "displayName": "Races Won"
  },
  {
    "name": "statbonusPoints",
    "defaultvalue": 0,
    "displayName": "Bonus Points Earned"
  },
  {
    "name": "statvinylsCreated",
    "defaultvalue": 0,
    "displayName": "Vinyl Wraps Created"
  },
  {
    "name": "statracesFinished",
    "defaultvalue": 0,
    "displayName": "Races Finished"
  },
  {
    "name": "statsponsorContracts",
    "defaultvalue": 0,
    "displayName": "Sponsor Contracts Finished"
  },
  {
    "name": "statdistance",
    "defaultvalue": 0,
    "displayName": "Distance Travelled"
  },
  {
    "name": "statlapsCount",
    "defaultvalue": 0,
    "displayName": "Laps Driven"
  },
  {
    "name": "statbumperFrontCount",
    "defaultvalue": 0,
    "displayName": "Front Bumpers Bought"
  },
  {
    "name": "statbumperBackCount",
    "defaultvalue": 0,
    "displayName": "Rear Bumpers Bought"
  },
  {
    "name": "statspoilerCount",
    "defaultvalue": 0,
    "displayName": "Spoilers Bought"
  },
  {
    "name": "statperfectDrift",
    "defaultvalue": 0,
    "displayName": "Perfect Drift Badges"
  },
  {
    "name": "statallTimeDrift",
    "defaultvalue": 0,
    "displayName": "Drift distance in total"
  }
]