﻿{
  "Dlcs": {},
  "Name": "Manyland",
  "AppId": "342280",
  "ImageUrl": "https://steamcdn-a.akamaihd.net/steam/apps/342280/header.jpg?t=1576761272",
  "Languages": [
    "english"
  ],
  "Platforms": {
    "windows": true,
    "mac": false,
    "linux": false
  }
}