﻿{
  "Dlcs": {},
  "Name": "Indiana Jones® and the Last Crusade™",
  "AppId": "32310",
  "ImageUrl": "https://steamcdn-a.akamaihd.net/steam/apps/32310/header.jpg?t=1571778024",
  "Languages": [
    "english"
  ],
  "Platforms": {
    "windows": true,
    "mac": true,
    "linux": false
  }
}