﻿[
  {
    "name": "Boss1",
    "defaultvalue": 0,
    "displayName": "Defeat the first boss",
    "hidden": 1,
    "icon": "https://steamcdn-a.akamaihd.net/steamcommunity/public/images/apps/652330/3eb3a0754d7739102a1326ad1bf8cc143cd1d644.jpg",
    "icongray": "https://steamcdn-a.akamaihd.net/steamcommunity/public/images/apps/652330/c8702a7b18d93b7aeb848423781e46cc0cfc83a1.jpg"
  }
]