﻿{
  "Dlcs": {},
  "Name": "Bonbon",
  "AppId": "734120",
  "ImageUrl": "https://steamcdn-a.akamaihd.net/steam/apps/734120/header.jpg?t=1588695865",
  "Languages": [
    "english"
  ],
  "Platforms": {
    "windows": true,
    "mac": false,
    "linux": false
  }
}