﻿[
  {
    "name": "ACH_BEATTHEGAME",
    "defaultvalue": 0,
    "displayName": "Finish the story",
    "hidden": 0,
    "description": "Learn to love your new best friend.",
    "icon": "https://steamcdn-a.akamaihd.net/steamcommunity/public/images/apps/734120/0b4a385f4af677241d6350dae012e9484fe286bb.jpg",
    "icongray": "https://steamcdn-a.akamaihd.net/steamcommunity/public/images/apps/734120/b92f171dc9c55a2e764cda13366e5774c6af63a6.jpg"
  },
  {
    "name": "ACH_CHATTERBOX",
    "defaultvalue": 0,
    "displayName": "Little Chatterbox",
    "hidden": 1,
    "icon": "https://steamcdn-a.akamaihd.net/steamcommunity/public/images/apps/734120/dd2f3bae77ff9dd6c67a21543cda48eae8900fca.jpg",
    "icongray": "https://steamcdn-a.akamaihd.net/steamcommunity/public/images/apps/734120/40606162314589f44f00b668cfe6b327efcf1db2.jpg"
  },
  {
    "name": "ACH_FEARLESS",
    "defaultvalue": 0,
    "displayName": "Fearless",
    "hidden": 1,
    "icon": "https://steamcdn-a.akamaihd.net/steamcommunity/public/images/apps/734120/9bcd6946357c8c46af74c7434c51986a73dbf4e0.jpg",
    "icongray": "https://steamcdn-a.akamaihd.net/steamcommunity/public/images/apps/734120/1b805b51bc368ab16fbfea0e9c5d331810998225.jpg"
  },
  {
    "name": "ACH_COUCHPOTATO",
    "defaultvalue": 0,
    "displayName": "Couch Potato",
    "hidden": 1,
    "icon": "https://steamcdn-a.akamaihd.net/steamcommunity/public/images/apps/734120/21aa08a6519e8225f40dd43ab793c2230fed6b39.jpg",
    "icongray": "https://steamcdn-a.akamaihd.net/steamcommunity/public/images/apps/734120/38f94708ec38063666091cf9e1518ce80c89d459.jpg"
  },
  {
    "name": "ACH_ITSALIE",
    "defaultvalue": 0,
    "displayName": "It's a Lie",
    "hidden": 1,
    "icon": "https://steamcdn-a.akamaihd.net/steamcommunity/public/images/apps/734120/d95f3b6556ffcd5994608b029dd64bb3f8ad384c.jpg",
    "icongray": "https://steamcdn-a.akamaihd.net/steamcommunity/public/images/apps/734120/5c43822565dd8cda191a3fde03d8c42416ad01fb.jpg"
  },
  {
    "name": "ACH_JOHNNY5",
    "defaultvalue": 0,
    "displayName": "Johnny 5",
    "hidden": 1,
    "icon": "https://steamcdn-a.akamaihd.net/steamcommunity/public/images/apps/734120/47907919cc9393f15c373be36c80ed1c3bb760c0.jpg",
    "icongray": "https://steamcdn-a.akamaihd.net/steamcommunity/public/images/apps/734120/f593b49206cdc53e48b15e8ca618c2d1e8b3a802.jpg"
  }
]