﻿{
  "Dlcs": {},
  "Name": "Pills4Skills",
  "AppId": "427770",
  "ImageUrl": "https://steamcdn-a.akamaihd.net/steam/apps/427770/header.jpg?t=1454498109",
  "Languages": [
    "english"
  ],
  "Platforms": {
    "windows": true,
    "mac": true,
    "linux": true
  }
}