﻿{
  "Dlcs": {},
  "Name": "Contract",
  "AppId": "409170",
  "ImageUrl": "https://steamcdn-a.akamaihd.net/steam/apps/409170/header.jpg?t=1452028963",
  "Languages": [
    "english"
  ],
  "Platforms": {
    "windows": true,
    "mac": false,
    "linux": false
  }
}