﻿[
  {
    "name": "MARS_ORBIT_CROSS",
    "defaultvalue": 0,
    "displayName": "Mars Orbit Cross"
  },
  {
    "name": "REAL_TIME_IN_CAR",
    "defaultvalue": 0,
    "displayName": "Time playing without FFW"
  }
]