﻿[
  {
    "name": "ericjazz_ending",
    "defaultvalue": 0,
    "displayName": "Brotherly Love",
    "hidden": 0,
    "description": "Unlock Eric Super End",
    "icon": "https://steamcdn-a.akamaihd.net/steamcommunity/public/images/apps/568300/e464a8c17853588e1e8af08e1e62bbca268c0bd9.jpg",
    "icongray": "https://steamcdn-a.akamaihd.net/steamcommunity/public/images/apps/568300/e61c49f05b6e50fa4368a3a0f4d1953c263771cb.jpg"
  },
  {
    "name": "jazzty_romance",
    "defaultvalue": 0,
    "displayName": "Something More",
    "hidden": 0,
    "description": "Unlock Tyler's Romance Ending",
    "icon": "https://steamcdn-a.akamaihd.net/steamcommunity/public/images/apps/568300/011e7201897241f051d893b0be18c8d0e6a3a6d1.jpg",
    "icongray": "https://steamcdn-a.akamaihd.net/steamcommunity/public/images/apps/568300/45c74bae658ab10acc2a393791b13208b0ee4ca2.jpg"
  },
  {
    "name": "tjty_ending",
    "defaultvalue": 0,
    "displayName": "Brotherly Love",
    "hidden": 0,
    "description": "Unlock Tyler Super End",
    "icon": "https://steamcdn-a.akamaihd.net/steamcommunity/public/images/apps/568300/70e8376a3174f222565fc2cff0c4c2236ecacecc.jpg",
    "icongray": "https://steamcdn-a.akamaihd.net/steamcommunity/public/images/apps/568300/d73d53de94a253d4ae97c7a4475ddf0f3fa9a4d4.jpg"
  },
  {
    "name": "tjeric_romance",
    "defaultvalue": 0,
    "displayName": "D&D Queen",
    "hidden": 0,
    "description": "Unlock Eric Romance End",
    "icon": "https://steamcdn-a.akamaihd.net/steamcommunity/public/images/apps/568300/8e8ecc25dccb020b4dd9f6370b5b6e76729608da.jpg",
    "icongray": "https://steamcdn-a.akamaihd.net/steamcommunity/public/images/apps/568300/709f464a06ae8562fe3913235ac797762a25b0df.jpg"
  },
  {
    "name": "jazzjohno_romance",
    "defaultvalue": 0,
    "displayName": "Unlikely Pairing",
    "hidden": 0,
    "description": "Unlock Johnno's Romance End",
    "icon": "https://steamcdn-a.akamaihd.net/steamcommunity/public/images/apps/568300/c06dab7ae4c98d3a3e6ba849c8f33d3c80399c56.jpg",
    "icongray": "https://steamcdn-a.akamaihd.net/steamcommunity/public/images/apps/568300/d09c01c4630425c61ed741bf0d66b19dcfc32608.jpg"
  },
  {
    "name": "tjjohno_romance",
    "defaultvalue": 0,
    "displayName": "Skaters Forever",
    "hidden": 0,
    "description": "Unlock Johnno's Romance End",
    "icon": "https://steamcdn-a.akamaihd.net/steamcommunity/public/images/apps/568300/a6663a1ab5c36d553da48c1fb048a617929c4dc1.jpg",
    "icongray": "https://steamcdn-a.akamaihd.net/steamcommunity/public/images/apps/568300/a51c04c8f336c8802944b9b5c3195c260c466b2d.jpg"
  },
  {
    "name": "tjdiscoverend",
    "defaultvalue": 0,
    "displayName": "Smarts!",
    "hidden": 0,
    "description": "Unlock Truth",
    "icon": "https://steamcdn-a.akamaihd.net/steamcommunity/public/images/apps/568300/eb09e6be5c57d52e5f2d34c82a520f503a1b8fdf.jpg",
    "icongray": "https://steamcdn-a.akamaihd.net/steamcommunity/public/images/apps/568300/c292efabc0793c5c6a9d2a6eac09636c1fd42474.jpg"
  },
  {
    "name": "jazzdiscoverend",
    "defaultvalue": 0,
    "displayName": "Smarts!",
    "hidden": 0,
    "description": "Unlock Truth",
    "icon": "https://steamcdn-a.akamaihd.net/steamcommunity/public/images/apps/568300/bde0238c737b3bdeb8311bf2ba2be9c93b8868b2.jpg",
    "icongray": "https://steamcdn-a.akamaihd.net/steamcommunity/public/images/apps/568300/c292efabc0793c5c6a9d2a6eac09636c1fd42474.jpg"
  }
]