﻿[
  {
    "name": "Kills10",
    "defaultvalue": 0,
    "displayName": "Kills - Bronze",
    "hidden": 0,
    "description": "Kill 10 enemies.",
    "icon": "https://steamcdn-a.akamaihd.net/steamcommunity/public/images/apps/1200/65aad8d31a5d3851234d11487b65294f12798946.jpg",
    "icongray": "https://steamcdn-a.akamaihd.net/steamcommunity/public/images/apps/1200/0b08f1a1679dc88727480780fb672ca7f731d4b3.jpg"
  },
  {
    "name": "Kills50",
    "defaultvalue": 0,
    "displayName": "Kills - Silver",
    "hidden": 0,
    "description": "Kill 50 enemies.",
    "icon": "https://steamcdn-a.akamaihd.net/steamcommunity/public/images/apps/1200/c644abb7c5504a0e753dbcf07eda31a6c240a3d2.jpg",
    "icongray": "https://steamcdn-a.akamaihd.net/steamcommunity/public/images/apps/1200/972a9eb3b57b9258dfd8c6a84634bbc28ed82a11.jpg"
  },
  {
    "name": "Kills100",
    "defaultvalue": 0,
    "displayName": "Kills - Gold",
    "hidden": 0,
    "description": "Kill 100 enemies.",
    "icon": "https://steamcdn-a.akamaihd.net/steamcommunity/public/images/apps/1200/85823f71b5ed6476c30a233224371fdd09f2aa45.jpg",
    "icongray": "https://steamcdn-a.akamaihd.net/steamcommunity/public/images/apps/1200/2395be2ce2e90c4a43c29825efaef6e5fe7e3ee4.jpg"
  },
  {
    "name": "WinAllMapsGerman",
    "defaultvalue": 0,
    "displayName": "Knight’s Cross",
    "hidden": 0,
    "description": "Win a match on every Offical map as a German Soldier.",
    "icon": "https://steamcdn-a.akamaihd.net/steamcommunity/public/images/apps/1200/414304f6016e8af99a6b0a7955c40b6875794830.jpg",
    "icongray": "https://steamcdn-a.akamaihd.net/steamcommunity/public/images/apps/1200/ad2da432a8cb7753f0e1a142eaf72762ee1664b3.jpg"
  },
  {
    "name": "WinAllMapsRussian",
    "defaultvalue": 0,
    "displayName": "Hero of the Soviet Union",
    "hidden": 0,
    "description": "Win a match on every Official map as a Russian Soldier.",
    "icon": "https://steamcdn-a.akamaihd.net/steamcommunity/public/images/apps/1200/d2385e7060fa46b5045f82851f0fefdad24e5b2a.jpg",
    "icongray": "https://steamcdn-a.akamaihd.net/steamcommunity/public/images/apps/1200/44059e29b5bdf30652bb29a0b72a6ead03607e7c.jpg"
  },
  {
    "name": "Kill1TankCommander",
    "defaultvalue": 0,
    "displayName": "Whack-a-Mole - Bronze",
    "hidden": 0,
    "description": "Kill 1 Tank Commander while he has his head out of the turret hatch.",
    "icon": "https://steamcdn-a.akamaihd.net/steamcommunity/public/images/apps/1200/b62a6b9a04f216069bd6a2da712398ab1f310696.jpg",
    "icongray": "https://steamcdn-a.akamaihd.net/steamcommunity/public/images/apps/1200/9921cd8ab0ebd6ea2f200f7797ef054899ac2d94.jpg"
  },
  {
    "name": "Kill10TankCommanders",
    "defaultvalue": 0,
    "displayName": "Whack-a-Mole - Silver",
    "hidden": 0,
    "description": "Kill 10 Tank Commanders while they have their heads out of the turret hatch.",
    "icon": "https://steamcdn-a.akamaihd.net/steamcommunity/public/images/apps/1200/ecccb8c6ab8d502d92be6b6166857edeb1f9239e.jpg",
    "icongray": "https://steamcdn-a.akamaihd.net/steamcommunity/public/images/apps/1200/9921cd8ab0ebd6ea2f200f7797ef054899ac2d94.jpg"
  },
  {
    "name": "Kill25TankCommanders",
    "defaultvalue": 0,
    "displayName": "Whack-a-Mole - Gold",
    "hidden": 0,
    "description": "Kill 25 Tank Commanders while they have their heads out of the turret hatch.",
    "icon": "https://steamcdn-a.akamaihd.net/steamcommunity/public/images/apps/1200/bdbdc3f8bd6736b873d902f5e5e70c077c3e52f6.jpg",
    "icongray": "https://steamcdn-a.akamaihd.net/steamcommunity/public/images/apps/1200/9921cd8ab0ebd6ea2f200f7797ef054899ac2d94.jpg"
  },
  {
    "name": "KillFrom100MetersWithBolt",
    "defaultvalue": 0,
    "displayName": "Excellent Marksman – Bronze",
    "hidden": 0,
    "description": "Get a kill at 100 meters with a bolt action rifle.",
    "icon": "https://steamcdn-a.akamaihd.net/steamcommunity/public/images/apps/1200/5604d43c754816dfb4e9016aa84316a391d6a3a7.jpg",
    "icongray": "https://steamcdn-a.akamaihd.net/steamcommunity/public/images/apps/1200/ddac1988b6641a29879f6f10e6e9f01bf3b2c340.jpg"
  },
  {
    "name": "KillFrom200MetersWithBolt",
    "defaultvalue": 0,
    "displayName": "Excellent Marksman – Silver",
    "hidden": 0,
    "description": "Get a kill at 200 meters with a bolt action rifle.",
    "icon": "https://steamcdn-a.akamaihd.net/steamcommunity/public/images/apps/1200/81bf72e3319f216ed50b86d71d0ce8130159e150.jpg",
    "icongray": "https://steamcdn-a.akamaihd.net/steamcommunity/public/images/apps/1200/9970d52ffdd0d901b5e9b342aa8466f7407e4df8.jpg"
  },
  {
    "name": "KillFrom400MetersWithBolt",
    "defaultvalue": 0,
    "displayName": "Excellent Marksman – Gold",
    "hidden": 0,
    "description": "Get a kill at 400 meters with a bolt action rifle.",
    "icon": "https://steamcdn-a.akamaihd.net/steamcommunity/public/images/apps/1200/05aa8dbceb6af6414470447bce214c2fd0920311.jpg",
    "icongray": "https://steamcdn-a.akamaihd.net/steamcommunity/public/images/apps/1200/99e7e67e25fec84f42d53fd2a619728aa7f215ed.jpg"
  },
  {
    "name": "DestroyTankFrom1000Meters",
    "defaultvalue": 0,
    "displayName": "Excellent Tank Gunner – Bronze",
    "hidden": 0,
    "description": "Destroy an enemy tank at 1000m with your tank’s main gun.",
    "icon": "https://steamcdn-a.akamaihd.net/steamcommunity/public/images/apps/1200/b8e4a74f6f3ecfa0a9075c2c51dc043827baf8e7.jpg",
    "icongray": "https://steamcdn-a.akamaihd.net/steamcommunity/public/images/apps/1200/ebeb289519098220ffff64c977e16a1098266868.jpg"
  },
  {
    "name": "DestroyTankFrom1500Meters",
    "defaultvalue": 0,
    "displayName": "Excellent Tank Gunner – Silver",
    "hidden": 0,
    "description": "Destroy an enemy tank at 1500m with your tank’s main gun.",
    "icon": "https://steamcdn-a.akamaihd.net/steamcommunity/public/images/apps/1200/99f52dcf3b9c44640edc0bfb90fb3ecb89f60ba4.jpg",
    "icongray": "https://steamcdn-a.akamaihd.net/steamcommunity/public/images/apps/1200/6b2a9f25f92477df2b5a57ce8a4e3229781700f7.jpg"
  },
  {
    "name": "DestroyTankFrom2000Meters",
    "defaultvalue": 0,
    "displayName": "Excellent Tank Gunner – Gold",
    "hidden": 0,
    "description": "Destroy an enemy tank at 2000m with your tank’s main gun.",
    "icon": "https://steamcdn-a.akamaihd.net/steamcommunity/public/images/apps/1200/f2ffd6caf66dbf657e564754ef3ab722609ff758.jpg",
    "icongray": "https://steamcdn-a.akamaihd.net/steamcommunity/public/images/apps/1200/22dae0d654ed9c826ecaf4d4b5c35211ce77e9a7.jpg"
  },
  {
    "name": "KnockOff1TanksTracks",
    "defaultvalue": 0,
    "displayName": "Off the Tracks - Bronze",
    "hidden": 0,
    "description": "Knock out the tracks on 1 enemy tank.",
    "icon": "https://steamcdn-a.akamaihd.net/steamcommunity/public/images/apps/1200/e29d4284be7335c6d9b99d9189cefa0f8dbb7f18.jpg",
    "icongray": "https://steamcdn-a.akamaihd.net/steamcommunity/public/images/apps/1200/72cf65ca7a51b07dbd352980c3eaa0767546f82a.jpg"
  },
  {
    "name": "KnockOff10TanksTracks",
    "defaultvalue": 0,
    "displayName": "Off the Tracks - Silver",
    "hidden": 0,
    "description": "Knock out the tracks on 10 enemy tanks.",
    "icon": "https://steamcdn-a.akamaihd.net/steamcommunity/public/images/apps/1200/dae97459d2f1b38160adfe2848d14a98c5d1e53f.jpg",
    "icongray": "https://steamcdn-a.akamaihd.net/steamcommunity/public/images/apps/1200/9ba16b91c523fecac0177cb29ef2657b2f00cb0b.jpg"
  },
  {
    "name": "KnockOff20TanksTracks",
    "defaultvalue": 0,
    "displayName": "Off the Tracks - Gold",
    "hidden": 0,
    "description": "Knock out the tracks on 20 enemy tanks.",
    "icon": "https://steamcdn-a.akamaihd.net/steamcommunity/public/images/apps/1200/2b0a1ad48eba29acf1e4220136827026c03cef8e.jpg",
    "icongray": "https://steamcdn-a.akamaihd.net/steamcommunity/public/images/apps/1200/6f1f762bd1882ebea8cde48690951b1ee8fdd18d.jpg"
  },
  {
    "name": "Destroy3TanksWithPanzerfausts",
    "defaultvalue": 0,
    "displayName": "Achtung Faust!",
    "hidden": 0,
    "description": "Destroy 3 enemy tanks as a German Pak-Soldat with panzerfausts, without dying.",
    "icon": "https://steamcdn-a.akamaihd.net/steamcommunity/public/images/apps/1200/1cafa5ecc8481daf2edfc532715b30d2ca6edea9.jpg",
    "icongray": "https://steamcdn-a.akamaihd.net/steamcommunity/public/images/apps/1200/fd18c96f8db8ad5fd438005509e88e572fc40d17.jpg"
  },
  {
    "name": "Destroy3TanksWithPTRD",
    "defaultvalue": 0,
    "displayName": "Tankista",
    "hidden": 0,
    "description": "Destroy 3 enemy tanks as a Russian PT-Soldat with the PTRD, without dying.",
    "icon": "https://steamcdn-a.akamaihd.net/steamcommunity/public/images/apps/1200/88679e911bfd1290917ba2cba11508fe6e450019.jpg",
    "icongray": "https://steamcdn-a.akamaihd.net/steamcommunity/public/images/apps/1200/c65cd6ff3f87c350dae052387a8952fe3fbdc290.jpg"
  },
  {
    "name": "Kill200EnemiesWithLMG",
    "defaultvalue": 0,
    "displayName": "Buzz-saw - Bronze",
    "hidden": 0,
    "description": "Kill 200 enemies with the light machine-gun.",
    "icon": "https://steamcdn-a.akamaihd.net/steamcommunity/public/images/apps/1200/e7e8c623c5c1385e7eeb4625368acae9abe69fd8.jpg",
    "icongray": "https://steamcdn-a.akamaihd.net/steamcommunity/public/images/apps/1200/94b1b4847cc72dbaad4be2973bc4d30eedbb87ee.jpg"
  },
  {
    "name": "Kill500EnemiesWithLMG",
    "defaultvalue": 0,
    "displayName": "Buzz-saw - Silver",
    "hidden": 0,
    "description": "Kill 500 enemies with the light machine-gun.",
    "icon": "https://steamcdn-a.akamaihd.net/steamcommunity/public/images/apps/1200/a0fc28bef2f06918f946f68ef251a66ff04d30ba.jpg",
    "icongray": "https://steamcdn-a.akamaihd.net/steamcommunity/public/images/apps/1200/8c93f1f2beadc20dffaccdd5705e30c33ec0d9c9.jpg"
  },
  {
    "name": "Kill1000EnemiesWithLMG",
    "defaultvalue": 0,
    "displayName": "Buzz-saw - Gold",
    "hidden": 0,
    "description": "Kill 1000 enemies with the light machine-gun.",
    "icon": "https://steamcdn-a.akamaihd.net/steamcommunity/public/images/apps/1200/3e2cfb1f409f7e210c1a14a2db7a0d4470843673.jpg",
    "icongray": "https://steamcdn-a.akamaihd.net/steamcommunity/public/images/apps/1200/1d29285fbc8e42dcb8e29f0ca3c0e00143794282.jpg"
  },
  {
    "name": "DestroyTigerTankWithT3476",
    "defaultvalue": 0,
    "displayName": "Tiger Tamer",
    "hidden": 0,
    "description": "Kill a German Tiger tank from a T-34 76.",
    "icon": "https://steamcdn-a.akamaihd.net/steamcommunity/public/images/apps/1200/143efe21076a1514d176bc3a625cc8e2de2f32c2.jpg",
    "icongray": "https://steamcdn-a.akamaihd.net/steamcommunity/public/images/apps/1200/59f28f7b624daecf89c68761d1a438d408b33859.jpg"
  },
  {
    "name": "Destroy25TanksInOneMatch",
    "defaultvalue": 0,
    "displayName": "Turkey Shoot",
    "hidden": 0,
    "description": "Rack up 25 enemy tank kills from your own tank in a single match.",
    "icon": "https://steamcdn-a.akamaihd.net/steamcommunity/public/images/apps/1200/2c2fe6c4b34388aa92176c4706a6adf569a7848d.jpg",
    "icongray": "https://steamcdn-a.akamaihd.net/steamcommunity/public/images/apps/1200/054b2ccda71247f1796f0e4222021722b5f2befd.jpg"
  },
  {
    "name": "MeleeKill25Enemies",
    "defaultvalue": 0,
    "displayName": "Up Close and Personal – Bronze",
    "hidden": 0,
    "description": "Kill a total of 25 enemies in melee combat.",
    "icon": "https://steamcdn-a.akamaihd.net/steamcommunity/public/images/apps/1200/8640d9a0800c316a7ecbdef86b54ff320a74ad71.jpg",
    "icongray": "https://steamcdn-a.akamaihd.net/steamcommunity/public/images/apps/1200/b19fb2111f515835242705a09f013b5cb4e3de19.jpg"
  },
  {
    "name": "MeleeKill100Enemies",
    "defaultvalue": 0,
    "displayName": "Up Close and Personal – Silver",
    "hidden": 0,
    "description": "Kill a total of 100 enemies in melee combat.",
    "icon": "https://steamcdn-a.akamaihd.net/steamcommunity/public/images/apps/1200/1f2ac446a3a28a04e8e901dc1fbe254d987babae.jpg",
    "icongray": "https://steamcdn-a.akamaihd.net/steamcommunity/public/images/apps/1200/eb92ee90bc2e92ff6a695f7db4b493838e9dae1e.jpg"
  },
  {
    "name": "MeleeKill500Enemies",
    "defaultvalue": 0,
    "displayName": "Up Close and Personal – Gold",
    "hidden": 0,
    "description": "Kill a total of 500 enemies in melee combat.",
    "icon": "https://steamcdn-a.akamaihd.net/steamcommunity/public/images/apps/1200/e0c24c1bb26900d483d7861cf0e7a0ce041b2a21.jpg",
    "icongray": "https://steamcdn-a.akamaihd.net/steamcommunity/public/images/apps/1200/2c01d6a1a615d876262193768626823dadb6f953.jpg"
  },
  {
    "name": "Kill10InfantryWithTankShells",
    "defaultvalue": 0,
    "displayName": "It's Raining Men",
    "hidden": 0,
    "description": "Obliterate 10 enemy infantry using only tank shells, without dying.",
    "icon": "https://steamcdn-a.akamaihd.net/steamcommunity/public/images/apps/1200/4a79ebaf7538b7cb40fe961298cab8d2e9b14323.jpg",
    "icongray": "https://steamcdn-a.akamaihd.net/steamcommunity/public/images/apps/1200/71dacd29afcdc961226d6b1b128d21d4e05fdea8.jpg"
  },
  {
    "name": "Resupply10MGers",
    "defaultvalue": 0,
    "displayName": "Johnny on the Spot - Bronze",
    "hidden": 0,
    "description": "Resupply machine gunners with ammo 10 times.",
    "icon": "https://steamcdn-a.akamaihd.net/steamcommunity/public/images/apps/1200/b97d77209a8119803c8a0297352b893dc6135f20.jpg",
    "icongray": "https://steamcdn-a.akamaihd.net/steamcommunity/public/images/apps/1200/e9c417f353ef3350e349ba813dfba416b883fd42.jpg"
  },
  {
    "name": "Resupply100MGers",
    "defaultvalue": 0,
    "displayName": "Johnny on the Spot - Silver",
    "hidden": 0,
    "description": "Resupply machine gunners with ammo 100 times.",
    "icon": "https://steamcdn-a.akamaihd.net/steamcommunity/public/images/apps/1200/994aa9a0927f60dbc85aa75650303ad28e7f775b.jpg",
    "icongray": "https://steamcdn-a.akamaihd.net/steamcommunity/public/images/apps/1200/d0d3d9a941ec246b51f503328c84cd1c3b271f25.jpg"
  },
  {
    "name": "Resupply250MGers",
    "defaultvalue": 0,
    "displayName": "Johnny on the Spot - Gold",
    "hidden": 0,
    "description": "Resupply machine gunners with ammo 250 times.",
    "icon": "https://steamcdn-a.akamaihd.net/steamcommunity/public/images/apps/1200/b97d77209a8119803c8a0297352b893dc6135f20.jpg",
    "icongray": "https://steamcdn-a.akamaihd.net/steamcommunity/public/images/apps/1200/66497f6de6ba0c002ece0a34ee458e1930089f98.jpg"
  },
  {
    "name": "Destroy5VehiclesWithTiger",
    "defaultvalue": 0,
    "displayName": "Bronze Tiger",
    "hidden": 0,
    "description": "Destroy 5 enemy vehicles in one life from the German Tiger tank.",
    "icon": "https://steamcdn-a.akamaihd.net/steamcommunity/public/images/apps/1200/e41e1dd7b08ae2e8bc445f621afa6aacbe7cedaf.jpg",
    "icongray": "https://steamcdn-a.akamaihd.net/steamcommunity/public/images/apps/1200/9e5038377c816d3e8ddb3e0b428a0b30a4297185.jpg"
  },
  {
    "name": "Destroy10VehiclesWithTiger",
    "defaultvalue": 0,
    "displayName": "Silver Tiger",
    "hidden": 0,
    "description": "Destroy 10 enemy vehicles in one life from the German Tiger tank.",
    "icon": "https://steamcdn-a.akamaihd.net/steamcommunity/public/images/apps/1200/31c24b337e2a2037766ecdaaa4b3a76e150ab886.jpg",
    "icongray": "https://steamcdn-a.akamaihd.net/steamcommunity/public/images/apps/1200/7c27ac6bbbbe4d24aab0eda2cc597b4c0dc1640b.jpg"
  },
  {
    "name": "Destroy20VehiclesWithTiger",
    "defaultvalue": 0,
    "displayName": "Gold Tiger",
    "hidden": 0,
    "description": "Destroy 20 enemy vehicles in one life from the German Tiger tank.",
    "icon": "https://steamcdn-a.akamaihd.net/steamcommunity/public/images/apps/1200/a98ea7adfae4ec123a330b8a9dd6300c3b03370f.jpg",
    "icongray": "https://steamcdn-a.akamaihd.net/steamcommunity/public/images/apps/1200/f03977dc4fc3b10026949a5b00d91d69b1bdcd13.jpg"
  },
  {
    "name": "Kill50EnemiesWithSniperRifle",
    "defaultvalue": 0,
    "displayName": "Excellent Sniper in Bronze",
    "hidden": 0,
    "description": "Kill a total of 50 enemies with a sniper rifle.",
    "icon": "https://steamcdn-a.akamaihd.net/steamcommunity/public/images/apps/1200/9f1d402524911c61daf287a0e619aa9ed94dcda1.jpg",
    "icongray": "https://steamcdn-a.akamaihd.net/steamcommunity/public/images/apps/1200/56813d667283c6144f330711d3bd60759ce25f0f.jpg"
  },
  {
    "name": "Kill200EnemiesWithSniperRifle",
    "defaultvalue": 0,
    "displayName": "Excellent Sniper in Silver",
    "hidden": 0,
    "description": "Kill a total of 200 enemies with a sniper rifle.",
    "icon": "https://steamcdn-a.akamaihd.net/steamcommunity/public/images/apps/1200/e48e7f37a41c1ded1c73044f8bb0fd7ff9e0cf9e.jpg",
    "icongray": "https://steamcdn-a.akamaihd.net/steamcommunity/public/images/apps/1200/b60e093d223b2c689799af11abc16cd7ddcb93e4.jpg"
  },
  {
    "name": "Kill500EnemiesWithSniperRifle",
    "defaultvalue": 0,
    "displayName": "Excellent Sniper in Gold",
    "hidden": 0,
    "description": "Kill a total of 500 enemies with a sniper rifle.",
    "icon": "https://steamcdn-a.akamaihd.net/steamcommunity/public/images/apps/1200/b74eb4c5385871cb57dfae41e5c670b4401994de.jpg",
    "icongray": "https://steamcdn-a.akamaihd.net/steamcommunity/public/images/apps/1200/310f54b81ae3e070aca728cbad65b87855c25da2.jpg"
  },
  {
    "name": "KillSniperAsSniper",
    "defaultvalue": 0,
    "displayName": "Countersniper",
    "hidden": 0,
    "description": "While playing as a sniper, kill an enemy sniper.",
    "icon": "https://steamcdn-a.akamaihd.net/steamcommunity/public/images/apps/1200/f0b5b15a518d07dca17e423a11a77d9464c0d3a1.jpg",
    "icongray": "https://steamcdn-a.akamaihd.net/steamcommunity/public/images/apps/1200/94e25223523437847c41dd41102c3457acd81315.jpg"
  },
  {
    "name": "Kill10EnemiesAsAssaultClass",
    "defaultvalue": 0,
    "displayName": "Blood Rage",
    "hidden": 0,
    "description": "Kill 10 enemies as an assault class, without dying.",
    "icon": "https://steamcdn-a.akamaihd.net/steamcommunity/public/images/apps/1200/b9dc8101ddad567322f9ff1775dfbcb39b369f52.jpg",
    "icongray": "https://steamcdn-a.akamaihd.net/steamcommunity/public/images/apps/1200/a80ed7fbb8291587b06235a5cec1684ff2857d1d.jpg"
  },
  {
    "name": "Kill10EnemiesInOneArtillery",
    "defaultvalue": 0,
    "displayName": "Divine Wrath",
    "hidden": 0,
    "description": "Kill 10 enemy players in one Artillery barrage, meaning without changing the Artillery location.",
    "icon": "https://steamcdn-a.akamaihd.net/steamcommunity/public/images/apps/1200/2778f0db92167dbf6a4be0eba09fb99482f24645.jpg",
    "icongray": "https://steamcdn-a.akamaihd.net/steamcommunity/public/images/apps/1200/aed2b19a630e8c73033d336a6c894247a776cb5a.jpg"
  },
  {
    "name": "CapAllObjectivesWithoutDying",
    "defaultvalue": 0,
    "displayName": "The Ultimate Hero",
    "hidden": 0,
    "description": "Survive a whole round, without dying even once, while capping all the objectives!",
    "icon": "https://steamcdn-a.akamaihd.net/steamcommunity/public/images/apps/1200/e73a94bdd1f66824e6efed8c4e7f0df2533f3f30.jpg",
    "icongray": "https://steamcdn-a.akamaihd.net/steamcommunity/public/images/apps/1200/5663f0f4600f173d3b566460924e10d15c050491.jpg"
  },
  {
    "name": "RussianSLCapAllObjectives",
    "defaultvalue": 0,
    "displayName": "Glorious Leader",
    "hidden": 0,
    "description": "As Soviet Squad Leader, win the map, ensuring that you are in every objective capped.",
    "icon": "https://steamcdn-a.akamaihd.net/steamcommunity/public/images/apps/1200/5c5a2ed75e7e5ee2aee3bf9749d6c9d63a2a513a.jpg",
    "icongray": "https://steamcdn-a.akamaihd.net/steamcommunity/public/images/apps/1200/443fb8f9c6b94a16e52fd744a1ca5aca52ed822a.jpg"
  },
  {
    "name": "NonSniperKill10WithEnemySniperRifle",
    "defaultvalue": 0,
    "displayName": "Vasily Lives!",
    "hidden": 0,
    "description": "As a normal soldier, pick up an ENEMY sniper rifle and get 10 kills before dying.",
    "icon": "https://steamcdn-a.akamaihd.net/steamcommunity/public/images/apps/1200/083aae1482298c53912304be972e59d15e2b9dbd.jpg",
    "icongray": "https://steamcdn-a.akamaihd.net/steamcommunity/public/images/apps/1200/935a4ed02c62acd9308db3e3b5ac8068ea2032b6.jpg"
  },
  {
    "name": "DestroyFullyLoadedAPC",
    "defaultvalue": 0,
    "displayName": "Toaster",
    "hidden": 0,
    "description": "Destroy an enemy Universal Carrier or halftrack with a full load of passengers.",
    "icon": "https://steamcdn-a.akamaihd.net/steamcommunity/public/images/apps/1200/1922b0f7693225c8be92598f4d17043c9ff2c382.jpg",
    "icongray": "https://steamcdn-a.akamaihd.net/steamcommunity/public/images/apps/1200/1dd646f1365dcb72c653b6fafd50d336b0d38eab.jpg"
  }
]