﻿[
  {
    "appid": "447820",
    "itemdefid": "0",
    "Timestamp": "2017-03-27T13:15:09.6216835Z",
    "modified": "20170327T131509Z",
    "type": "",
    "display_type": "",
    "name": "",
    "quantity": 0,
    "description": "",
    "tradable": false,
    "marketable": false,
    "commodity": false,
    "drop_interval": 0,
    "drop_max_per_window": 0,
    "workshopid": "0"
  },
  {
    "appid": "447820",
    "itemdefid": "500",
    "Timestamp": "2017-05-18T19:58:48.2708861Z",
    "modified": "20170518T195847Z",
    "type": "bundle",
    "display_type": "Medal",
    "name": "Day Of Infamy Deluxe Bundle",
    "bundle": "1006;2010;3007",
    "quantity": 0,
    "description": "Day Of Infamy Deluxe Bundle",
    "icon_url": "https://s3.amazonaws.com/nwi-doi-stats-assets/Images/InventoryItems/deluxe_icon_200.png",
    "icon_url_large": "https://s3.amazonaws.com/nwi-doi-stats-assets/Images/InventoryItems/deluxe_icon.png",
    "promo": "owns:610400",
    "tradable": false,
    "marketable": false,
    "commodity": false,
    "store_hidden": true,
    "drop_interval": 0,
    "drop_max_per_window": 0,
    "workshopid": "0",
    "item_quality": "0"
  },
  {
    "appid": "447820",
    "itemdefid": "1001",
    "Timestamp": "2017-05-18T19:58:48.3569468Z",
    "modified": "20170518T195847Z",
    "type": "item",
    "display_type": "Infantry Unit",
    "name": "1st Infantry Division",
    "price_category": "1;VLV200",
    "quantity": 0,
    "description": "The 1st Infantry Division is a common unit within the U.S. Army faction and unlockable in-game at the bottom third ranks. Items included with this unit are: arm patch and helmet stencil. Features the voice of Matthew. Playable on the maps Crete, Sicily, Ortona, Comacchio, Salerno, Dog Red, Saint Lo, Bastogne, Foy, and Reichswald.",
    "icon_url": "https://s3.amazonaws.com/nwi-doi-stats-assets/Images/InventoryItems/unit_american_1stinfantry_200.png",
    "icon_url_large": "https://s3.amazonaws.com/nwi-doi-stats-assets/Images/InventoryItems/unit_american_1stinfantry.png",
    "store_tags": "unit",
    "tradable": true,
    "marketable": true,
    "commodity": false,
    "drop_interval": 0,
    "drop_max_per_window": 0,
    "workshopid": "0",
    "item_quality": "1"
  },
  {
    "appid": "447820",
    "itemdefid": "1002",
    "Timestamp": "2017-05-18T19:58:49.2645919Z",
    "modified": "20170518T195847Z",
    "type": "item",
    "display_type": "Infantry Unit",
    "name": "2nd Ranger Battalion",
    "price_category": "1;VLV800",
    "quantity": 0,
    "description": "The 2nd Ranger Battalion is a rare unit within the U.S. Army faction and unlockable in-game at the upper third ranks. Items included with this unit are: arm patch and helmet stencil. Features the voice of Roger. Playable on the maps Dog Red and Saint Lo.",
    "icon_url": "https://s3.amazonaws.com/nwi-doi-stats-assets/Images/InventoryItems/unit_american_2ndrangers_200.png",
    "icon_url_large": "https://s3.amazonaws.com/nwi-doi-stats-assets/Images/InventoryItems/unit_american_2ndrangers.png",
    "store_tags": "unit",
    "tradable": true,
    "marketable": true,
    "commodity": false,
    "drop_interval": 0,
    "drop_max_per_window": 0,
    "workshopid": "0",
    "item_quality": "3"
  },
  {
    "appid": "447820",
    "itemdefid": "1003",
    "Timestamp": "2017-05-18T19:58:50.1542249Z",
    "modified": "20170518T195849Z",
    "type": "item",
    "display_type": "Infantry Unit",
    "name": "1st Ranger Battalion",
    "quantity": 0,
    "description": "The 1st Ranger Battalion is an exclusive unit within the U.S. Army faction only available to Early Access players. Features the voice of Roger. Playable on the maps Crete, Sicily, Ortona, Comacchio, Salerno, Dog Red, Saint Lo, Bastogne, Foy, and Reichswald.",
    "icon_url": "https://s3.amazonaws.com/nwi-doi-stats-assets/Images/InventoryItems/unit_american_ranger_200.png",
    "icon_url_large": "https://s3.amazonaws.com/nwi-doi-stats-assets/Images/InventoryItems/unit_american_ranger.png",
    "store_tags": "unit",
    "tradable": true,
    "marketable": true,
    "commodity": false,
    "store_hidden": true,
    "drop_interval": 0,
    "drop_max_per_window": 0,
    "workshopid": "0",
    "item_quality": "5"
  },
  {
    "appid": "447820",
    "itemdefid": "1005",
    "Timestamp": "2017-05-18T19:58:50.286321Z",
    "modified": "20170518T195849Z",
    "type": "item",
    "display_type": "Infantry Unit",
    "name": "92nd Infantry Division",
    "price_category": "1;VLV800",
    "quantity": 0,
    "description": "The 92nd 'Buffalo Soldiers' Infantry Division is a rare unit within the U.S. Army faction and unlockable at the upper third ranks. Items included with this unit are: arm patch and helmet stencil. Features the voice of James. Playable on the maps Crete, Sicily, Ortona, Comacchio, Salerno, Dog Red, Saint Lo, Bastogne, Foy, and Reichswald.",
    "icon_url": "https://s3.amazonaws.com/nwi-doi-stats-assets/Images/InventoryItems/unit_american_92ndinfantry_200.png",
    "icon_url_large": "https://s3.amazonaws.com/nwi-doi-stats-assets/Images/InventoryItems/unit_american_92ndinfantry.png",
    "store_tags": "unit",
    "tradable": true,
    "marketable": true,
    "commodity": false,
    "drop_interval": 0,
    "drop_max_per_window": 0,
    "workshopid": "0",
    "item_quality": "3"
  },
  {
    "appid": "447820",
    "itemdefid": "1006",
    "Timestamp": "2017-05-18T19:58:50.3743815Z",
    "modified": "20170518T195849Z",
    "type": "item",
    "display_type": "Airborne Unit",
    "name": "101st Airborne Division",
    "price_category": "1;VLV400",
    "quantity": 0,
    "description": "The 101st Airborne Division is an uncommon unit within the U.S. Army faction and unlockable at the middle third ranks. Items included with this unit are: paratrooper uniform (khaki), arm patch, and helmet stencil. Features the voice of Roger. Playable on the maps Saint Lo, Bastogne, Foy, and Reichswald.",
    "icon_url": "https://s3.amazonaws.com/nwi-doi-stats-assets/Images/InventoryItems/unit_american_101stairborne_200.png",
    "icon_url_large": "https://s3.amazonaws.com/nwi-doi-stats-assets/Images/InventoryItems/unit_american_101stairborne.png",
    "store_tags": "unit",
    "tradable": true,
    "marketable": true,
    "commodity": false,
    "drop_interval": 0,
    "drop_max_per_window": 0,
    "workshopid": "0",
    "item_quality": "2"
  },
  {
    "appid": "447820",
    "itemdefid": "1007",
    "Timestamp": "2017-05-18T19:58:50.4784559Z",
    "modified": "20170518T195849Z",
    "type": "item",
    "display_type": "Infantry Unit",
    "name": "29th Infantry Division",
    "price_category": "1;VLV200",
    "quantity": 0,
    "description": "The 29th Infantry Division is a common unit within the U.S. Army faction and unlockable in-game at the bottom third ranks. Items included with this unit are: arm patch, helmet stencil, and gas mask bag. Features the voice of Matthew. Playable on Dog Red and Saint Lo.",
    "icon_url": "https://s3.amazonaws.com/nwi-doi-stats-assets/Images/InventoryItems/unit_american_29thinfantry_200.png",
    "icon_url_large": "https://s3.amazonaws.com/nwi-doi-stats-assets/Images/InventoryItems/unit_american_29thinfantry.png",
    "store_tags": "unit",
    "tradable": true,
    "marketable": true,
    "commodity": false,
    "drop_interval": 0,
    "drop_max_per_window": 0,
    "workshopid": "0",
    "item_quality": "1"
  },
  {
    "appid": "447820",
    "itemdefid": "1008",
    "Timestamp": "2017-05-18T19:58:50.556511Z",
    "modified": "20170518T195850Z",
    "type": "item",
    "display_type": "Infantry Unit",
    "name": "3rd Infantry Division",
    "price_category": "1;VLV200",
    "quantity": 0,
    "description": "The 3rd Infantry Division is a common unit within the U.S. Army faction and unlockable in-game at the bottom third ranks. Items included with this unit are: arm patch and helmet stencil. Features the voice of Matthew. Playable on the maps Crete, Sicily, Ortona, Comacchio, and Salerno.",
    "icon_url": "https://s3.amazonaws.com/nwi-doi-stats-assets/Images/InventoryItems/unit_american_3rddivision_200.png",
    "icon_url_large": "https://s3.amazonaws.com/nwi-doi-stats-assets/Images/InventoryItems/unit_american_3rddivision.png",
    "store_tags": "unit",
    "tradable": true,
    "marketable": true,
    "commodity": false,
    "drop_interval": 0,
    "drop_max_per_window": 0,
    "workshopid": "0",
    "item_quality": "1"
  },
  {
    "appid": "447820",
    "itemdefid": "1009",
    "Timestamp": "2017-05-18T19:58:50.6425722Z",
    "modified": "20170518T195850Z",
    "type": "item",
    "display_type": "Infantry Unit",
    "name": "28th Infantry Division",
    "price_category": "1;VLV400",
    "quantity": 0,
    "description": "The 28th Infantry Division is an uncommon unit within the U.S. Army faction and unlockable at the middle third ranks. Items included with this unit are: arm patch, winter helmet cover, and helmet stencil. Features the voice of Matthew. Playable on the maps Bastogne, Foy, and Reichswald.",
    "icon_url": "https://s3.amazonaws.com/nwi-doi-stats-assets/Images/InventoryItems/unit_american_28thdivision_200.png",
    "icon_url_large": "https://s3.amazonaws.com/nwi-doi-stats-assets/Images/InventoryItems/unit_american_28thdivision.png",
    "store_tags": "unit",
    "tradable": true,
    "marketable": true,
    "commodity": false,
    "drop_interval": 0,
    "drop_max_per_window": 0,
    "workshopid": "0",
    "item_quality": "2"
  },
  {
    "appid": "447820",
    "itemdefid": "1010",
    "Timestamp": "2017-05-18T19:58:50.726632Z",
    "modified": "20170518T195850Z",
    "type": "item",
    "display_type": "Airborne Unit",
    "name": "82nd Airborne, 505th PIR",
    "price_category": "1;VLV400",
    "quantity": 0,
    "description": "The 82nd Airborne Division is an uncommon unit within the U.S. Army faction and unlockable at the middle third ranks. Items included with this unit are: paratrooper uniform (green), arm patch, and helmet stencil. Features the voice of Roger. Playable on the maps Crete, Sicily, Ortona, Comacchio, Salerno, Saint Lo, Bastogne, Reichswald.",
    "icon_url": "https://s3.amazonaws.com/nwi-doi-stats-assets/Images/InventoryItems/unit_american_82ndairborne_200.png",
    "icon_url_large": "https://s3.amazonaws.com/nwi-doi-stats-assets/Images/InventoryItems/unit_american_82ndairborne.png",
    "store_tags": "unit",
    "tradable": true,
    "marketable": true,
    "commodity": false,
    "drop_interval": 0,
    "drop_max_per_window": 0,
    "workshopid": "0",
    "item_quality": "2"
  },
  {
    "appid": "447820",
    "itemdefid": "1011",
    "Timestamp": "2017-05-18T19:58:50.8387117Z",
    "modified": "20170518T195850Z",
    "type": "item",
    "display_type": "Munitions Unit",
    "name": "761st 'Black Panthers' Tank Battalion",
    "price_category": "1;VLV800",
    "quantity": 0,
    "description": "761st Tank Batallion",
    "icon_url": "https://s3.amazonaws.com/nwi-doi-stats-assets/Images/InventoryItems/unit_american_761blackpanther_200.png",
    "icon_url_large": "https://s3.amazonaws.com/nwi-doi-stats-assets/Images/InventoryItems/unit_american_761blackpanther.png",
    "store_tags": "unit",
    "tradable": true,
    "marketable": true,
    "commodity": false,
    "drop_interval": 0,
    "drop_max_per_window": 0,
    "workshopid": "0",
    "item_quality": "3"
  },
  {
    "appid": "447820",
    "itemdefid": "2005",
    "Timestamp": "2017-05-18T19:58:50.9237743Z",
    "modified": "20170518T195850Z",
    "type": "item",
    "display_type": "Infantry Unit",
    "name": "The Argyll and Sutherland Highlanders of Canada",
    "price_category": "1;VLV400",
    "quantity": 0,
    "description": "The Argyll and Sutherland Highlanders of Canada are an uncommon unit within the Commonwealth faction and unlockable at the middle third ranks. Items included with this unit are: arm patches, Glengarry hat for Officer, cap badge, and Mk III helmet. Features the voice of Albert. Playable on the maps Dog Red, Saint Lo, Bastogne, Foy, and Reichswald.",
    "icon_url": "https://s3.amazonaws.com/nwi-doi-stats-assets/Images/InventoryItems/unit_commonwealth_argyll_200.png",
    "icon_url_large": "https://s3.amazonaws.com/nwi-doi-stats-assets/Images/InventoryItems/unit_commonwealth_argyll.png",
    "store_tags": "unit",
    "tradable": true,
    "marketable": true,
    "commodity": false,
    "drop_interval": 0,
    "drop_max_per_window": 0,
    "workshopid": "0",
    "item_quality": "2"
  },
  {
    "appid": "447820",
    "itemdefid": "2006",
    "Timestamp": "2017-05-18T19:58:51.0978964Z",
    "modified": "20170518T195850Z",
    "type": "item",
    "display_type": "Infantry Unit",
    "name": "Gordon Highlanders",
    "quantity": 0,
    "description": "The Gordon Highlanders is an exclusive unit within the Commonwealth faction only available to Early Access players. Features the voice of Donald. Playable on the maps Crete, Sicily, Ortona, Comacchio, Dog Red, Saint Lo, Bastogne, Foy, Reichswald.",
    "icon_url": "https://s3.amazonaws.com/nwi-doi-stats-assets/Images/InventoryItems/unit_commonwealth_highlander_200.png",
    "icon_url_large": "https://s3.amazonaws.com/nwi-doi-stats-assets/Images/InventoryItems/unit_commonwealth_highlander.png",
    "store_tags": "unit",
    "tradable": true,
    "marketable": true,
    "commodity": false,
    "store_hidden": true,
    "drop_interval": 0,
    "drop_max_per_window": 0,
    "workshopid": "0",
    "item_quality": "5"
  },
  {
    "appid": "447820",
    "itemdefid": "2007",
    "Timestamp": "2017-05-18T19:58:51.2049721Z",
    "modified": "20170518T195850Z",
    "type": "item",
    "display_type": "Infantry Unit",
    "name": "Princess Patricia's Canadian Light Infantry",
    "price_category": "1;VLV200",
    "quantity": 0,
    "description": "The Princess Patricia's Canadian Light Infantry is a common unit within the Commonwealth faction and unlockable at the bottom third ranks. Items included with this unit are: arm patches, Beret for Officer, cap badge, Mk III helmet, and helmet stencil. Features the voice of Albert. Playable on the maps Sicily, Ortona, Comacchio, and Salerno.",
    "icon_url": "https://s3.amazonaws.com/nwi-doi-stats-assets/Images/InventoryItems/unit_commonwealth_princess_patricia_200.png",
    "icon_url_large": "https://s3.amazonaws.com/nwi-doi-stats-assets/Images/InventoryItems/unit_commonwealth_princess_patricia.png",
    "store_tags": "unit",
    "tradable": true,
    "marketable": true,
    "commodity": false,
    "drop_interval": 0,
    "drop_max_per_window": 0,
    "workshopid": "0",
    "item_quality": "1"
  },
  {
    "appid": "447820",
    "itemdefid": "2008",
    "Timestamp": "2017-05-18T19:58:51.2730201Z",
    "modified": "20170518T195850Z",
    "type": "item",
    "display_type": "Infantry Unit",
    "name": "Royal Fusiliers",
    "price_category": "1;VLV200",
    "quantity": 0,
    "description": "The Royal Fusiliers is a common unit within the Commonwealth faction and unlockable at the middle third ranks. Items included with this unit are: arm patches, Cap for Officer, and cap badge. Features the voice of George. Playable on the maps Crete, Sicily, Ortona, Comachio, and Salerno.",
    "icon_url": "https://s3.amazonaws.com/nwi-doi-stats-assets/Images/InventoryItems/unit_commonwealth_fusilier_200.png",
    "icon_url_large": "https://s3.amazonaws.com/nwi-doi-stats-assets/Images/InventoryItems/unit_commonwealth_fusilier.png",
    "store_tags": "unit",
    "tradable": true,
    "marketable": true,
    "commodity": false,
    "drop_interval": 0,
    "drop_max_per_window": 0,
    "workshopid": "0",
    "item_quality": "1"
  },
  {
    "appid": "447820",
    "itemdefid": "2009",
    "Timestamp": "2017-05-18T19:58:51.3690888Z",
    "modified": "20170518T195850Z",
    "type": "item",
    "display_type": "Infantry Unit",
    "name": "Grenadier Guards",
    "price_category": "1;VLV200",
    "quantity": 0,
    "description": "The Grenadier Guards is a common unit within the Commonwealth faction and unlockable at the bottom third ranks. Items included with this unit are: arm patches, Cap for Officer, and cap badge. Features the voice of George. Playable on the maps Salerno, Dog Red, Saint Lo, Bastogne, Foy, and Reichswald.",
    "icon_url": "https://s3.amazonaws.com/nwi-doi-stats-assets/Images/InventoryItems/unit_commonwealth_grenadier_200.png",
    "icon_url_large": "https://s3.amazonaws.com/nwi-doi-stats-assets/Images/InventoryItems/unit_commonwealth_grenadier.png",
    "store_tags": "unit",
    "tradable": true,
    "marketable": true,
    "commodity": false,
    "drop_interval": 0,
    "drop_max_per_window": 0,
    "workshopid": "0",
    "item_quality": "1"
  },
  {
    "appid": "447820",
    "itemdefid": "2010",
    "Timestamp": "2017-05-18T19:58:51.4661574Z",
    "modified": "20170518T195850Z",
    "type": "item",
    "display_type": "Infantry Unit",
    "name": "Seaforth Highlanders of Canada",
    "price_category": "1;VLV400",
    "quantity": 0,
    "description": "The Seaforth Highlanders of Canada is an uncommon unit within the Commonwealth faction and unlockable at the middle third ranks. Items included with this unit are: arm patches, Balmoral hat for Officer, cap badge, and Mk III helmet. Features the voice of Albert. Playable on the maps Sicily, Ortona, Comacchio, and Salerno.",
    "icon_url": "https://s3.amazonaws.com/nwi-doi-stats-assets/Images/InventoryItems/unit_commonwealth_seaforth_200.png",
    "icon_url_large": "https://s3.amazonaws.com/nwi-doi-stats-assets/Images/InventoryItems/unit_commonwealth_seaforth.png",
    "store_tags": "unit",
    "tradable": true,
    "marketable": true,
    "commodity": false,
    "drop_interval": 0,
    "drop_max_per_window": 0,
    "workshopid": "0",
    "item_quality": "2"
  },
  {
    "appid": "447820",
    "itemdefid": "2011",
    "Timestamp": "2017-05-18T19:58:51.5512196Z",
    "modified": "20170518T195851Z",
    "type": "item",
    "display_type": "Infantry Unit",
    "name": "Royal Hamilton Light Infantry",
    "price_category": "1;VLV400",
    "quantity": 0,
    "description": "The Royal Hamilton Light Infantry is an uncommon unit within the Commonwealth faction and unlockable at the middle third ranks. Items included with this unit are: arm patches, Beret for Officer, and cap badge. Features the voice of Albert. Playable on the maps Dog Red, Saint Lo, Bastogne, Foy, and Reichswald.",
    "icon_url": "https://s3.amazonaws.com/nwi-doi-stats-assets/Images/InventoryItems/unit_commonwealth_royal_hamilton_200.png",
    "icon_url_large": "https://s3.amazonaws.com/nwi-doi-stats-assets/Images/InventoryItems/unit_commonwealth_royal_hamilton.png",
    "store_tags": "unit",
    "tradable": true,
    "marketable": true,
    "commodity": false,
    "drop_interval": 0,
    "drop_max_per_window": 0,
    "workshopid": "0",
    "item_quality": "2"
  },
  {
    "appid": "447820",
    "itemdefid": "2012",
    "Timestamp": "2017-05-18T19:58:51.639281Z",
    "modified": "20170518T195851Z",
    "type": "item",
    "display_type": "Specialized Unit",
    "name": "No. 2 Commando",
    "price_category": "1;VLV800",
    "quantity": 0,
    "description": "The No. 2 Commando is a rare unit within the Commonwealth faction and unlockable at the upper third ranks. Items included with this unit are: arm patches, Beret for Officer, cap badge, and Wool Hat. Features the voice of Donald. Playable on the maps Crete, Sicily, Ortona, Comacchio, and Salerno.",
    "icon_url": "https://s3.amazonaws.com/nwi-doi-stats-assets/Images/InventoryItems/unit_commonwealth_no2commando_200.png",
    "icon_url_large": "https://s3.amazonaws.com/nwi-doi-stats-assets/Images/InventoryItems/unit_commonwealth_no2commando.png",
    "store_tags": "unit",
    "tradable": true,
    "marketable": true,
    "commodity": false,
    "drop_interval": 0,
    "drop_max_per_window": 0,
    "workshopid": "0",
    "item_quality": "3"
  },
  {
    "appid": "447820",
    "itemdefid": "2013",
    "Timestamp": "2017-05-18T19:58:51.7413535Z",
    "modified": "20170518T195851Z",
    "type": "item",
    "display_type": "Infantry Unit",
    "name": "12th Frontier Force Regiment",
    "price_category": "1;VLV800",
    "quantity": 0,
    "description": "The 12th Frontier Force Regiment is a rare unit within the Commonwealth faction and unlockable at the upper third ranks. Items included with this unit are: arm patches, Turban for Officer, Sniper and Rifleman, and cap badge. Features the voice of Surjit. Playable on the maps Crete, Sicily, Ortona, Comacchio, and Salerno.",
    "icon_url": "https://s3.amazonaws.com/nwi-doi-stats-assets/Images/InventoryItems/unit_commonwealth_12thfrontier_200.png",
    "icon_url_large": "https://s3.amazonaws.com/nwi-doi-stats-assets/Images/InventoryItems/unit_commonwealth_12thfrontier.png",
    "store_tags": "unit",
    "tradable": true,
    "marketable": true,
    "commodity": false,
    "drop_interval": 0,
    "drop_max_per_window": 0,
    "workshopid": "0",
    "item_quality": "3"
  },
  {
    "appid": "447820",
    "itemdefid": "2014",
    "Timestamp": "2017-05-18T19:58:51.8944628Z",
    "modified": "20170518T195851Z",
    "type": "item",
    "display_type": "Infantry Unit",
    "name": "2/17th Battalion",
    "price_category": "1;VLV400",
    "quantity": 0,
    "description": "2/17th Battalion",
    "icon_url": "https://s3.amazonaws.com/nwi-doi-stats-assets/Images/InventoryItems/unit_commonwealth_17thbattalion_200.png",
    "icon_url_large": "https://s3.amazonaws.com/nwi-doi-stats-assets/Images/InventoryItems/unit_commonwealth_17thbattalion.png",
    "store_tags": "unit",
    "tradable": true,
    "marketable": true,
    "commodity": false,
    "drop_interval": 0,
    "drop_max_per_window": 0,
    "workshopid": "0",
    "item_quality": "2"
  },
  {
    "appid": "447820",
    "itemdefid": "2015",
    "Timestamp": "2017-05-18T19:58:51.9765212Z",
    "modified": "20170518T195851Z",
    "type": "item",
    "display_type": "Infantry Unit",
    "name": "The Black Watch",
    "price_category": "1;VLV200",
    "quantity": 0,
    "description": "Black Watch, 3rd Battalion, Royal Regiment of Scotland",
    "icon_url": "https://s3.amazonaws.com/nwi-doi-stats-assets/Images/InventoryItems/unit_commonwealth_blackwatch_200.png",
    "icon_url_large": "https://s3.amazonaws.com/nwi-doi-stats-assets/Images/InventoryItems/unit_commonwealth_blackwatch.png",
    "store_tags": "unit",
    "tradable": true,
    "marketable": true,
    "commodity": false,
    "drop_interval": 0,
    "drop_max_per_window": 0,
    "workshopid": "0",
    "item_quality": "1"
  },
  {
    "appid": "447820",
    "itemdefid": "3001",
    "Timestamp": "2017-05-18T19:58:52.0705877Z",
    "modified": "20170518T195851Z",
    "type": "item",
    "display_type": "Infantry Unit",
    "name": "1. Infanterie-Division",
    "quantity": 0,
    "description": "The 1. Infanterie-Division is an exclusive unit within the Wehrmacht faction only available to Early Access players. Features the voice of Otto. Playable on the maps Crete, Sicily, Ortona, Comacchio, Salerno, Dog Red, Saint Lo, Bastogne, Foy, and Reichswald.",
    "icon_url": "https://s3.amazonaws.com/nwi-doi-stats-assets/Images/InventoryItems/unit_german_1stinfantry_200.png",
    "icon_url_large": "https://s3.amazonaws.com/nwi-doi-stats-assets/Images/InventoryItems/unit_german_1stinfantry.png",
    "store_tags": "unit",
    "tradable": true,
    "marketable": true,
    "commodity": false,
    "store_hidden": true,
    "drop_interval": 0,
    "drop_max_per_window": 0,
    "workshopid": "0",
    "item_quality": "5"
  },
  {
    "appid": "447820",
    "itemdefid": "3002",
    "Timestamp": "2017-05-18T19:58:52.175662Z",
    "modified": "20170518T195851Z",
    "type": "item",
    "display_type": "Munitions Unit",
    "name": "3rd Panzergrenadier Division",
    "price_category": "1;VLV200",
    "quantity": 0,
    "description": "The 3rd Panzergrenadier Division is a common unit within the Wehrmacht faction and unlockable in-game at the bottom third ranks. Items included with this unit are: special camouflage uniform, chest badge and fabric camouflage helmet. Features the voice of Erich. Playable on the maps Bastogne, Foy, and Reichswald.",
    "icon_url": "https://s3.amazonaws.com/nwi-doi-stats-assets/Images/InventoryItems/unit_german_3rdpanzer_200.png",
    "icon_url_large": "https://s3.amazonaws.com/nwi-doi-stats-assets/Images/InventoryItems/unit_german_3rdpanzer.png",
    "store_tags": "unit",
    "tradable": true,
    "marketable": true,
    "commodity": false,
    "drop_interval": 0,
    "drop_max_per_window": 0,
    "workshopid": "0",
    "item_quality": "1"
  },
  {
    "appid": "447820",
    "itemdefid": "3003",
    "Timestamp": "2017-05-18T19:58:52.2867409Z",
    "modified": "20170518T195851Z",
    "type": "item",
    "display_type": "Munitions Unit",
    "name": "15th Panzergrenadier Division",
    "price_category": "1;VLV200",
    "quantity": 0,
    "description": "The 15th Panzergrenadier Division is a common unit within the Wehrmacht faction and unlockable in-game at the bottom third ranks. Items included with this unit are: special camouflage uniform, chest badge and fabric camouflage helmet. Features the voice of Erich. Playable on the maps Sicily, Ortona, Comacchio, Salerno, Dog Red, Saint Lo, Bastogne, Foy, and Reichswald.",
    "icon_url": "https://s3.amazonaws.com/nwi-doi-stats-assets/Images/InventoryItems/unit_german_15thpanzer_200.png",
    "icon_url_large": "https://s3.amazonaws.com/nwi-doi-stats-assets/Images/InventoryItems/unit_german_15thpanzer.png",
    "store_tags": "unit",
    "tradable": true,
    "marketable": true,
    "commodity": false,
    "drop_interval": 0,
    "drop_max_per_window": 0,
    "workshopid": "0",
    "item_quality": "1"
  },
  {
    "appid": "447820",
    "itemdefid": "3004",
    "Timestamp": "2017-05-18T19:58:52.4318446Z",
    "modified": "20170518T195851Z",
    "type": "item",
    "display_type": "Munitions Unit",
    "name": "29th Panzergrenadier Division",
    "price_category": "1;VLV200",
    "quantity": 0,
    "description": "The 29th Panzergrenadier Division is a common unit within the Wehrmacht faction and unlockable in-game at the bottom third ranks. Items included with this unit are: special khaki uniform, khaki painted helmet and chest badge. Features the voice of Erich. Playable on the maps Crete, Sicily, Ortona, Comacchio, and Salerno.",
    "icon_url": "https://s3.amazonaws.com/nwi-doi-stats-assets/Images/InventoryItems/unit_german_29thpanzer_200.png",
    "icon_url_large": "https://s3.amazonaws.com/nwi-doi-stats-assets/Images/InventoryItems/unit_german_29thpanzer.png",
    "store_tags": "unit",
    "tradable": true,
    "marketable": true,
    "commodity": false,
    "drop_interval": 0,
    "drop_max_per_window": 0,
    "workshopid": "0",
    "item_quality": "1"
  },
  {
    "appid": "447820",
    "itemdefid": "3005",
    "Timestamp": "2017-05-18T19:58:52.5239096Z",
    "modified": "20170518T195852Z",
    "type": "item",
    "display_type": "Specialized Unit",
    "name": "1st Panzer Division",
    "price_category": "1;VLV400",
    "quantity": 0,
    "description": "The 1st Panzergrenadier Division is an uncommon unit within the Wehrmacht faction and unlockable in-game at the mid third ranks. Items included with this unit are: special camouflage uniform, chest badge and fabric camouflage helmet. Features the voice of Erich. Playable on the maps Bastogne, Foy, and Reichswald.",
    "icon_url": "https://s3.amazonaws.com/nwi-doi-stats-assets/Images/InventoryItems/unit_german_panzerss_200.png",
    "icon_url_large": "https://s3.amazonaws.com/nwi-doi-stats-assets/Images/InventoryItems/unit_german_panzerss.png",
    "store_tags": "unit",
    "tradable": true,
    "marketable": true,
    "commodity": false,
    "drop_interval": 0,
    "drop_max_per_window": 0,
    "workshopid": "0",
    "item_quality": "2"
  },
  {
    "appid": "447820",
    "itemdefid": "3006",
    "Timestamp": "2017-05-18T19:58:52.6149752Z",
    "modified": "20170518T195852Z",
    "type": "item",
    "display_type": "Infantry Unit",
    "name": "352. Infanterie-Division",
    "price_category": "1;VLV400",
    "quantity": 0,
    "description": "The 352. Infanterie-Division is an uncommon unit within the Wehrmacht faction and unlockable in-game at the mid third ranks. Items included with this unit are: green uniform, painted helmet, chest badge and collar badge. Features the voice of Otto. Playable on the maps Crete, Sicily, Dog Red, Saint Lo, and Reichswald.",
    "icon_url": "https://s3.amazonaws.com/nwi-doi-stats-assets/Images/InventoryItems/unit_german_352infanterie_200.png",
    "icon_url_large": "https://s3.amazonaws.com/nwi-doi-stats-assets/Images/InventoryItems/unit_german_352infanterie.png",
    "store_tags": "unit",
    "tradable": true,
    "marketable": true,
    "commodity": false,
    "drop_interval": 0,
    "drop_max_per_window": 0,
    "workshopid": "0",
    "item_quality": "2"
  },
  {
    "appid": "447820",
    "itemdefid": "3007",
    "Timestamp": "2017-05-18T19:58:52.7030374Z",
    "modified": "20170518T195852Z",
    "type": "item",
    "display_type": "Airborne Unit",
    "name": "1. Fallschirmjager-Division",
    "price_category": "1;VLV400",
    "quantity": 0,
    "description": "The 1. Fallschirmjager-Division is an uncommon unit within the Wehrmacht faction and unlockable in-game at the mid third ranks. Items included with this unit are: paratrooper uniform, arm patch and chest badge. Features the voice of Otto. Playable on the maps Crete, Sicily, Ortona, Comacchio, and Salerno.",
    "icon_url": "https://s3.amazonaws.com/nwi-doi-stats-assets/Images/InventoryItems/unit_german_fallschirmjager_200.png",
    "icon_url_large": "https://s3.amazonaws.com/nwi-doi-stats-assets/Images/InventoryItems/unit_german_fallschirmjager.png",
    "store_tags": "unit",
    "tradable": true,
    "marketable": true,
    "commodity": false,
    "drop_interval": 0,
    "drop_max_per_window": 0,
    "workshopid": "0",
    "item_quality": "2"
  },
  {
    "appid": "447820",
    "itemdefid": "3008",
    "Timestamp": "2017-05-18T19:58:52.9712281Z",
    "modified": "20170518T195852Z",
    "type": "item",
    "display_type": "Airborne Unit",
    "name": "3.  Fallschirmjager Division",
    "price_category": "1;VLV800",
    "quantity": 0,
    "description": "The 3rd Fallschirmjager Division is a rare unit within the Wehrmacht faction and unlockable in-game at the top third ranks. Items included with this unit are: camouflage paratrooper uniform and chest patch. Features the voice of Otto. Playable on the maps Crete, Ortona, Comacchio, Salerno, Dog Red, Saint Lo, Bastogne, Foy, and Reichswald.",
    "icon_url": "https://s3.amazonaws.com/nwi-doi-stats-assets/Images/InventoryItems/unit_german_3rdfallschirmjager_200.png",
    "icon_url_large": "https://s3.amazonaws.com/nwi-doi-stats-assets/Images/InventoryItems/unit_german_3rdfallschirmjager.png",
    "store_tags": "unit",
    "tradable": true,
    "marketable": true,
    "commodity": false,
    "drop_interval": 0,
    "drop_max_per_window": 0,
    "workshopid": "0",
    "item_quality": "3"
  },
  {
    "appid": "447820",
    "itemdefid": "3009",
    "Timestamp": "2017-05-18T19:58:53.0632936Z",
    "modified": "20170518T195852Z",
    "type": "item",
    "display_type": "Munitions Unit",
    "name": "17th Panzer Division",
    "price_category": "1;VLV800",
    "quantity": 0,
    "description": "The 17th Panzer Division is a rare unit within the Wehrmacht faction and unlockable in-game at the top third ranks. Items included with this unit are: camouflage uniform, camouflage helmet, collar patch and chest patch. Features the voice of Erich. Playable on the maps Dog Red and Saint Lo.",
    "icon_url": "https://s3.amazonaws.com/nwi-doi-stats-assets/Images/InventoryItems/unit_german_17thpanzerss_500.png",
    "icon_url_large": "https://s3.amazonaws.com/nwi-doi-stats-assets/Images/InventoryItems/unit_german_17thpanzerss.png",
    "store_tags": "unit",
    "tradable": true,
    "marketable": true,
    "commodity": false,
    "drop_interval": 0,
    "drop_max_per_window": 0,
    "workshopid": "0",
    "item_quality": "3"
  },
  {
    "appid": "447820",
    "itemdefid": "3010",
    "Timestamp": "2017-05-18T19:58:53.3064665Z",
    "modified": "20170518T195852Z",
    "type": "item",
    "display_type": "Munitions Unit",
    "name": "272nd Volksgrenadier Division",
    "price_category": "1;VLV400",
    "quantity": 0,
    "description": "272nd Volksgrenadier Division",
    "icon_url": "https://s3.amazonaws.com/nwi-doi-stats-assets/Images/InventoryItems/unit_german_272grenadier_200.png",
    "icon_url_large": "https://s3.amazonaws.com/nwi-doi-stats-assets/Images/InventoryItems/unit_german_272grenadier.png",
    "store_tags": "unit",
    "tradable": true,
    "marketable": true,
    "commodity": false,
    "drop_interval": 0,
    "drop_max_per_window": 0,
    "workshopid": "0",
    "item_quality": "2"
  },
  {
    "appid": "447820",
    "itemdefid": "10001",
    "Timestamp": "2017-05-18T19:58:53.5086103Z",
    "modified": "20170518T195852Z",
    "type": "item",
    "display_type": "Weapon Wrap",
    "name": "Enfield Deadeye Medal",
    "quantity": 0,
    "description": "Enfield Deadeye Medal",
    "icon_url": "https://s3.amazonaws.com/nwi-doi-stats-assets/Images/InventoryItems/medal_enfield_deadeye_200.png",
    "icon_url_large": "https://s3.amazonaws.com/nwi-doi-stats-assets/Images/InventoryItems/medal_enfield_deadeye.png",
    "store_tags": "weaponwrap",
    "tradable": false,
    "marketable": false,
    "commodity": false,
    "store_hidden": true,
    "drop_interval": 0,
    "drop_max_per_window": 0,
    "workshopid": "0",
    "item_quality": "2"
  },
  {
    "appid": "447820",
    "itemdefid": "10002",
    "Timestamp": "2017-05-18T19:58:53.6947439Z",
    "modified": "20170518T195853Z",
    "type": "item",
    "display_type": "Weapon Wrap",
    "name": "Springfield Deadeye Medal",
    "quantity": 0,
    "description": "Springfield Deadeye Medal",
    "icon_url": "https://s3.amazonaws.com/nwi-doi-stats-assets/Images/InventoryItems/medal_springfield_deadeye_200.png",
    "icon_url_large": "https://s3.amazonaws.com/nwi-doi-stats-assets/Images/InventoryItems/medal_springfield_deadeye.png",
    "store_tags": "weaponwrap",
    "tradable": false,
    "marketable": false,
    "commodity": false,
    "store_hidden": true,
    "drop_interval": 0,
    "drop_max_per_window": 0,
    "workshopid": "0",
    "item_quality": "2"
  },
  {
    "appid": "447820",
    "itemdefid": "10003",
    "Timestamp": "2017-05-18T19:58:53.8938847Z",
    "modified": "20170518T195853Z",
    "type": "item",
    "display_type": "Weapon Wrap",
    "name": "K98 Deadeye Medal",
    "quantity": 0,
    "description": "K98 Deadeye Medal",
    "icon_url": "https://s3.amazonaws.com/nwi-doi-stats-assets/Images/InventoryItems/medal_k98_deadeye_200.png",
    "icon_url_large": "https://s3.amazonaws.com/nwi-doi-stats-assets/Images/InventoryItems/medal_k98_deadeye.png",
    "store_tags": "weaponwrap",
    "tradable": false,
    "marketable": false,
    "commodity": false,
    "store_hidden": true,
    "drop_interval": 0,
    "drop_max_per_window": 0,
    "workshopid": "0",
    "item_quality": "2"
  },
  {
    "appid": "447820",
    "itemdefid": "10004",
    "Timestamp": "2017-05-18T19:58:53.9969575Z",
    "modified": "20170518T195853Z",
    "type": "item",
    "display_type": "Weapon Wrap",
    "name": "Garand Deadeye Medal",
    "quantity": 0,
    "description": "Garand Deadeye Medal",
    "icon_url": "https://s3.amazonaws.com/nwi-doi-stats-assets/Images/InventoryItems/medal_garand_deadeye_200.png",
    "icon_url_large": "https://s3.amazonaws.com/nwi-doi-stats-assets/Images/InventoryItems/medal_garand_deadeye.png",
    "store_tags": "weaponwrap",
    "tradable": false,
    "marketable": false,
    "commodity": false,
    "store_hidden": true,
    "drop_interval": 0,
    "drop_max_per_window": 0,
    "workshopid": "0",
    "item_quality": "2"
  },
  {
    "appid": "447820",
    "itemdefid": "10005",
    "Timestamp": "2017-05-18T19:58:54.12705Z",
    "modified": "20170518T195853Z",
    "type": "item",
    "display_type": "Weapon Wrap",
    "name": "G43 Deadeye Medal",
    "quantity": 0,
    "description": "G43 Deadeye Medal",
    "icon_url": "https://s3.amazonaws.com/nwi-doi-stats-assets/Images/InventoryItems/medal_g43_deadeye_200.png",
    "icon_url_large": "https://s3.amazonaws.com/nwi-doi-stats-assets/Images/InventoryItems/medal_g43_deadeye.png",
    "store_tags": "weaponwrap",
    "tradable": false,
    "marketable": false,
    "commodity": false,
    "store_hidden": true,
    "drop_interval": 0,
    "drop_max_per_window": 0,
    "workshopid": "0",
    "item_quality": "2"
  },
  {
    "appid": "447820",
    "itemdefid": "11001",
    "Timestamp": "2017-05-18T19:58:54.238129Z",
    "modified": "20170518T195853Z",
    "type": "item",
    "display_type": "Veteran Skin",
    "name": "Enfield Veteran Medal",
    "quantity": 0,
    "description": "Enfield Veteran Medal",
    "icon_url": "https://s3.amazonaws.com/nwi-doi-stats-assets/Images/InventoryItems/medal_enfield_veteran_200.png",
    "icon_url_large": "https://s3.amazonaws.com/nwi-doi-stats-assets/Images/InventoryItems/medal_enfield_veteran.png",
    "store_tags": "veteranskin",
    "tradable": false,
    "marketable": false,
    "commodity": false,
    "store_hidden": true,
    "drop_interval": 0,
    "drop_max_per_window": 0,
    "workshopid": "0",
    "item_quality": "3"
  },
  {
    "appid": "447820",
    "itemdefid": "11002",
    "Timestamp": "2017-05-18T19:58:54.3702225Z",
    "modified": "20170518T195853Z",
    "type": "item",
    "display_type": "Veteran Skin",
    "name": "Springfield Veteran Medal",
    "quantity": 0,
    "description": "Springfield Veteran Medal",
    "icon_url": "https://s3.amazonaws.com/nwi-doi-stats-assets/Images/InventoryItems/medal_springfield_veteran_200.png",
    "icon_url_large": "https://s3.amazonaws.com/nwi-doi-stats-assets/Images/InventoryItems/medal_springfield_veteran.png",
    "store_tags": "veteranskin",
    "tradable": false,
    "marketable": false,
    "commodity": false,
    "store_hidden": true,
    "drop_interval": 0,
    "drop_max_per_window": 0,
    "workshopid": "0",
    "item_quality": "3"
  },
  {
    "appid": "447820",
    "itemdefid": "11003",
    "Timestamp": "2017-05-18T19:58:54.4953119Z",
    "modified": "20170518T195853Z",
    "type": "item",
    "display_type": "Veteran Skin",
    "name": "K98 Veteran Medal",
    "quantity": 0,
    "description": "K98 Veteran Medal",
    "icon_url": "https://s3.amazonaws.com/nwi-doi-stats-assets/Images/InventoryItems/medal_k98_veteran_200.png",
    "icon_url_large": "https://s3.amazonaws.com/nwi-doi-stats-assets/Images/InventoryItems/medal_k98_veteran.png",
    "store_tags": "veteranskin",
    "tradable": false,
    "marketable": false,
    "commodity": false,
    "store_hidden": true,
    "drop_interval": 0,
    "drop_max_per_window": 0,
    "workshopid": "0",
    "item_quality": "3"
  },
  {
    "appid": "447820",
    "itemdefid": "11004",
    "Timestamp": "2017-05-18T19:58:54.6434168Z",
    "modified": "20170518T195854Z",
    "type": "item",
    "display_type": "Veteran Skin",
    "name": "Garand Veteran Medal",
    "quantity": 0,
    "description": "Garand Veteran Medal",
    "icon_url": "https://s3.amazonaws.com/nwi-doi-stats-assets/Images/InventoryItems/medal_garand_veteran_200.png",
    "icon_url_large": "https://s3.amazonaws.com/nwi-doi-stats-assets/Images/InventoryItems/medal_garand_veteran.png",
    "store_tags": "veteranskin",
    "tradable": false,
    "marketable": false,
    "commodity": false,
    "store_hidden": true,
    "drop_interval": 0,
    "drop_max_per_window": 0,
    "workshopid": "0",
    "item_quality": "3"
  },
  {
    "appid": "447820",
    "itemdefid": "11005",
    "Timestamp": "2017-05-18T19:58:54.7605005Z",
    "modified": "20170518T195854Z",
    "type": "item",
    "display_type": "Veteran Skin",
    "name": "G43 Veteran Medal",
    "quantity": 0,
    "description": "G43 Veteran Medal",
    "icon_url": "https://s3.amazonaws.com/nwi-doi-stats-assets/Images/InventoryItems/medal_g43_veteran_200.png",
    "icon_url_large": "https://s3.amazonaws.com/nwi-doi-stats-assets/Images/InventoryItems/medal_g43_veteran.png",
    "store_tags": "veteranskin",
    "tradable": false,
    "marketable": false,
    "commodity": false,
    "store_hidden": true,
    "drop_interval": 0,
    "drop_max_per_window": 0,
    "workshopid": "0",
    "item_quality": "3"
  },
  {
    "appid": "447820",
    "itemdefid": "20001",
    "Timestamp": "2017-05-18T19:58:54.8605716Z",
    "modified": "20170518T195854Z",
    "type": "item",
    "display_type": "Weapon",
    "name": "Brass Knuckles",
    "quantity": 0,
    "description": "40 Kills with the American Shovel.",
    "icon_url": "https://s3.amazonaws.com/nwi-doi-stats-assets/Images/InventoryItems/medal_knuckle_200.png",
    "icon_url_large": "https://s3.amazonaws.com/nwi-doi-stats-assets/Images/InventoryItems/medal_knuckle.png",
    "store_tags": "weapon",
    "tradable": false,
    "marketable": false,
    "commodity": false,
    "store_hidden": true,
    "drop_interval": 0,
    "drop_max_per_window": 0,
    "workshopid": "0",
    "item_quality": "3"
  },
  {
    "appid": "447820",
    "itemdefid": "20002",
    "Timestamp": "2017-05-18T19:58:55.0336948Z",
    "modified": "20170518T195854Z",
    "type": "item",
    "display_type": "Weapon",
    "name": "Axis Entrenchment Tool",
    "quantity": 0,
    "description": "20 Kills with the knife melee weapon",
    "icon_url": "https://s3.amazonaws.com/nwi-doi-stats-assets/Images/InventoryItems/medal_shovel_axis_200.png",
    "icon_url_large": "https://s3.amazonaws.com/nwi-doi-stats-assets/Images/InventoryItems/medal_shovel_axis.png",
    "store_tags": "weapon",
    "tradable": false,
    "marketable": false,
    "commodity": false,
    "store_hidden": true,
    "drop_interval": 0,
    "drop_max_per_window": 0,
    "workshopid": "0",
    "item_quality": "2"
  },
  {
    "appid": "447820",
    "itemdefid": "20003",
    "Timestamp": "2017-05-18T19:58:55.1247591Z",
    "modified": "20170518T195854Z",
    "type": "item",
    "display_type": "Weapon",
    "name": "Commonwealth Entrenchment Tool",
    "quantity": 0,
    "description": "20 Kills with the knife melee",
    "icon_url": "https://s3.amazonaws.com/nwi-doi-stats-assets/Images/InventoryItems/medal_entrenchment_cw_200.png",
    "icon_url_large": "https://s3.amazonaws.com/nwi-doi-stats-assets/Images/InventoryItems/medal_entrenchment_cw.png",
    "store_tags": "weapon",
    "tradable": false,
    "marketable": false,
    "commodity": false,
    "store_hidden": true,
    "drop_interval": 0,
    "drop_max_per_window": 0,
    "workshopid": "0",
    "item_quality": "2"
  },
  {
    "appid": "447820",
    "itemdefid": "20004",
    "Timestamp": "2017-05-18T19:58:55.2108207Z",
    "modified": "20170518T195854Z",
    "type": "item",
    "display_type": "Weapon",
    "name": "American Entrenchment Tool",
    "quantity": 0,
    "description": "20 Kills with the knife melee",
    "icon_url": "https://s3.amazonaws.com/nwi-doi-stats-assets/Images/InventoryItems/medal_shovel_american_200.png",
    "icon_url_large": "https://s3.amazonaws.com/nwi-doi-stats-assets/Images/InventoryItems/medal_shovel_american.png",
    "store_tags": "weapon",
    "tradable": false,
    "marketable": false,
    "commodity": false,
    "store_hidden": true,
    "drop_interval": 0,
    "drop_max_per_window": 0,
    "workshopid": "0",
    "item_quality": "2"
  },
  {
    "appid": "447820",
    "itemdefid": "20005",
    "Timestamp": "2017-05-18T19:58:55.3349085Z",
    "modified": "20170518T195854Z",
    "type": "item",
    "display_type": "Weapon",
    "name": "Gravity Knife",
    "quantity": 0,
    "description": "40 Kills with the Entrenchment Tool",
    "icon_url": "https://s3.amazonaws.com/nwi-doi-stats-assets/Images/InventoryItems/medal_gravity_200.png",
    "icon_url_large": "https://s3.amazonaws.com/nwi-doi-stats-assets/Images/InventoryItems/medal_gravity.png",
    "store_tags": "weapon",
    "tradable": false,
    "marketable": false,
    "commodity": false,
    "store_hidden": true,
    "drop_interval": 0,
    "drop_max_per_window": 0,
    "workshopid": "0",
    "item_quality": "3"
  },
  {
    "appid": "447820",
    "itemdefid": "20006",
    "Timestamp": "2017-05-18T19:58:55.4259737Z",
    "modified": "20170518T195854Z",
    "type": "item",
    "display_type": "Weapon",
    "name": "Hatchet",
    "quantity": 0,
    "description": "40 Kills with the Entrenchment Tool",
    "icon_url": "https://s3.amazonaws.com/nwi-doi-stats-assets/Images/InventoryItems/medal_hatchet_cw_200.png",
    "icon_url_large": "https://s3.amazonaws.com/nwi-doi-stats-assets/Images/InventoryItems/medal_hatchet_cw.png",
    "store_tags": "weapon",
    "tradable": false,
    "marketable": false,
    "commodity": false,
    "store_hidden": true,
    "drop_interval": 0,
    "drop_max_per_window": 0,
    "workshopid": "0",
    "item_quality": "3"
  },
  {
    "appid": "447820",
    "itemdefid": "20007",
    "Timestamp": "2017-05-18T19:58:55.5280463Z",
    "modified": "20170518T195855Z",
    "type": "item",
    "display_type": "Weapon",
    "name": "Fairbairn Sykes Knife",
    "quantity": 0,
    "description": "80 Kills with the Hatchet",
    "icon_url": "https://s3.amazonaws.com/nwi-doi-stats-assets/Images/InventoryItems/medal_fairbairn_cw_200.png",
    "icon_url_large": "https://s3.amazonaws.com/nwi-doi-stats-assets/Images/InventoryItems/medal_fairbairn_cw.png",
    "store_tags": "weapon",
    "tradable": false,
    "marketable": false,
    "commodity": false,
    "store_hidden": true,
    "drop_interval": 0,
    "drop_max_per_window": 0,
    "workshopid": "0",
    "item_quality": "4"
  }
]