﻿{
  "Dlcs": {},
  "Name": "Grotoro",
  "AppId": "825580",
  "ImageUrl": "https://steamcdn-a.akamaihd.net/steam/apps/825580/header.jpg?t=1566321777",
  "Languages": [
    "english"
  ],
  "Platforms": {
    "windows": true,
    "mac": false,
    "linux": false
  }
}