﻿{
  "Dlcs": {},
  "Name": "Sometimes: Success Requires Sacrifice",
  "AppId": "351470",
  "ImageUrl": "https://steamcdn-a.akamaihd.net/steam/apps/351470/header.jpg?t=1447369439",
  "Languages": [
    "english"
  ],
  "Platforms": {
    "windows": true,
    "mac": false,
    "linux": false
  }
}