﻿[
  {
    "name": "ACH_CONCEPTION",
    "defaultvalue": 0,
    "displayName": "Conception",
    "hidden": 0,
    "description": "completed the first level",
    "icon": "https://steamcdn-a.akamaihd.net/steamcommunity/public/images/apps/511920/6657c2148f05531a704b54ab829b581ab8abf1d1.jpg",
    "icongray": "https://steamcdn-a.akamaihd.net/steamcommunity/public/images/apps/511920/25d21d78c90821795a19007f67ecfeb2d1b1f908.jpg"
  },
  {
    "name": "ACH_SPERMICIDE",
    "defaultvalue": 0,
    "displayName": "Spermicide",
    "hidden": 0,
    "description": "sperm killed by a rock",
    "icon": "https://steamcdn-a.akamaihd.net/steamcommunity/public/images/apps/511920/fe0b4b507681632e17a92d4b57efae8cfa9cc3d7.jpg",
    "icongray": "https://steamcdn-a.akamaihd.net/steamcommunity/public/images/apps/511920/ef11368d36c7709fdcb22d1e6b206d8b590185ad.jpg"
  },
  {
    "name": "ACH_FIRST_TRI",
    "defaultvalue": 0,
    "displayName": "First Trimester",
    "hidden": 0,
    "description": "completed 13 levels",
    "icon": "https://steamcdn-a.akamaihd.net/steamcommunity/public/images/apps/511920/2c452b757c68ffbbe14912b082e394552a09f276.jpg",
    "icongray": "https://steamcdn-a.akamaihd.net/steamcommunity/public/images/apps/511920/0c4b60a8d794b44cdb94cc07c5dbf091f1d3fa84.jpg"
  },
  {
    "name": "ACH_CONTRACEPTION",
    "defaultvalue": 0,
    "displayName": "Contraception",
    "hidden": 0,
    "description": "completed a level without using all available powers",
    "icon": "https://steamcdn-a.akamaihd.net/steamcommunity/public/images/apps/511920/eef32d4ec83f4c020a12a9c2a3bd3cbe6d9c4e7c.jpg",
    "icongray": "https://steamcdn-a.akamaihd.net/steamcommunity/public/images/apps/511920/850ab858fa5fa4d52da24966767337994c292666.jpg"
  },
  {
    "name": "ACH_SECOND_TRI",
    "defaultvalue": 0,
    "displayName": "Second Trimester",
    "hidden": 0,
    "description": "completed 26 levels",
    "icon": "https://steamcdn-a.akamaihd.net/steamcommunity/public/images/apps/511920/0acbb0126a742c76d759100790ed6d1196a92649.jpg",
    "icongray": "https://steamcdn-a.akamaihd.net/steamcommunity/public/images/apps/511920/f520885f169d5dd568d6c6ca9f7035465ec1892f.jpg"
  },
  {
    "name": "ACH_FERTILITY",
    "defaultvalue": 0,
    "displayName": "Fertility",
    "hidden": 0,
    "description": "two conceptions on one level",
    "icon": "https://steamcdn-a.akamaihd.net/steamcommunity/public/images/apps/511920/e8c4e79a34ece3130bb2a11a8633826f22335004.jpg",
    "icongray": "https://steamcdn-a.akamaihd.net/steamcommunity/public/images/apps/511920/7e2d007c82cb742046324609a0aca8bfb8e68b14.jpg"
  },
  {
    "name": "ACH_IN_VITRO",
    "defaultvalue": 0,
    "displayName": "In Vitro",
    "hidden": 0,
    "description": "made the sperm break the laws of physics",
    "icon": "https://steamcdn-a.akamaihd.net/steamcommunity/public/images/apps/511920/8addd5d46e9f03c508fecc041d6e371fc52e485c.jpg",
    "icongray": "https://steamcdn-a.akamaihd.net/steamcommunity/public/images/apps/511920/e554ba84b4f922eb26d554a79ec859ad618e6a39.jpg"
  },
  {
    "name": "ACH_STD",
    "defaultvalue": 0,
    "displayName": "STD",
    "hidden": 0,
    "description": "sperm killed by a virus",
    "icon": "https://steamcdn-a.akamaihd.net/steamcommunity/public/images/apps/511920/72e24d01e1034b720322c65327dfad6ede2fffa7.jpg",
    "icongray": "https://steamcdn-a.akamaihd.net/steamcommunity/public/images/apps/511920/b81a4957db51bb39121fe5b4a6e1cfc5eefd18be.jpg"
  },
  {
    "name": "ACH_FULL_TERM",
    "defaultvalue": 0,
    "displayName": "Full Term",
    "hidden": 0,
    "description": "completed all levels",
    "icon": "https://steamcdn-a.akamaihd.net/steamcommunity/public/images/apps/511920/7990bd7fb4852c8b0141717a8f170dcde224ea2c.jpg",
    "icongray": "https://steamcdn-a.akamaihd.net/steamcommunity/public/images/apps/511920/c66163c56c27a029b11de77443dcde802c016eb1.jpg"
  }
]