﻿{
  "Dlcs": {},
  "Name": "Please Love My Computer Game",
  "AppId": "796910",
  "ImageUrl": "https://steamcdn-a.akamaihd.net/steam/apps/796910/header.jpg?t=1531201674",
  "Languages": [
    "english"
  ],
  "Platforms": {
    "windows": true,
    "mac": false,
    "linux": false
  }
}