﻿{
  "Dlcs": {},
  "Name": "Zen of Sudoku",
  "AppId": "4900",
  "ImageUrl": "https://steamcdn-a.akamaihd.net/steam/apps/4900/header.jpg?t=1513414875",
  "Languages": [
    "english"
  ],
  "Platforms": {
    "windows": true,
    "mac": false,
    "linux": false
  }
}