﻿{
  "Dlcs": {
    "339080": {
      "Name": "Wrack - Soundtrack",
      "ImageUrl": "https://steamcdn-a.akamaihd.net/steam/apps/339080/header.jpg?t=1569236061"
    }
  },
  "Name": "Wrack",
  "AppId": "253610",
  "ImageUrl": "https://steamcdn-a.akamaihd.net/steam/apps/253610/header.jpg?t=1570472152",
  "Languages": [
    "english"
  ],
  "Platforms": {
    "windows": true,
    "mac": false,
    "linux": false
  }
}