﻿[
  {
    "name": "Bomber1K",
    "defaultvalue": 0,
    "displayName": "Bomb 1000",
    "hidden": 0,
    "description": "Used 1000 Bombs",
    "icon": "https://steamcdn-a.akamaihd.net/steamcommunity/public/images/apps/702700/4c01608d546285543db43f082d9cdf8f4160d827.jpg",
    "icongray": "https://steamcdn-a.akamaihd.net/steamcommunity/public/images/apps/702700/fd58b6e58a2d9bbd6503efbd4a42ac61d0268cfd.jpg"
  },
  {
    "name": "Bomber1M",
    "defaultvalue": 0,
    "displayName": "Bomb 1,000,000",
    "hidden": 0,
    "description": "Used 1,000,000 Bombs",
    "icon": "https://steamcdn-a.akamaihd.net/steamcommunity/public/images/apps/702700/6255f75d47697cba334b49e1883870f6dca6d5ad.jpg",
    "icongray": "https://steamcdn-a.akamaihd.net/steamcommunity/public/images/apps/702700/6832e9d6b2852a9542be8721a30572a4800377d4.jpg"
  },
  {
    "name": "Explosion5",
    "defaultvalue": 0,
    "displayName": "Combo 5",
    "hidden": 0,
    "description": "Over 5 Bombs Exploded as a Combo",
    "icon": "https://steamcdn-a.akamaihd.net/steamcommunity/public/images/apps/702700/54f1ae466f9edb7fb4fe8149a3cec167aa2815aa.jpg",
    "icongray": "https://steamcdn-a.akamaihd.net/steamcommunity/public/images/apps/702700/13869eb00b6d2ea25c34fe2520bca1c6377d0735.jpg"
  },
  {
    "name": "Explosion10",
    "defaultvalue": 0,
    "displayName": "Combo 10",
    "hidden": 0,
    "description": "Over 10 Bombs Exploded as a Combo",
    "icon": "https://steamcdn-a.akamaihd.net/steamcommunity/public/images/apps/702700/9d6358345d6b610e18cf4a9ed53edd50ebd09d12.jpg",
    "icongray": "https://steamcdn-a.akamaihd.net/steamcommunity/public/images/apps/702700/8f8196a9cde59f2892cbecd180af95c4e516904c.jpg"
  },
  {
    "name": "Breaker1K",
    "defaultvalue": 0,
    "displayName": "Destroyed 1000 Blocks",
    "hidden": 0,
    "description": "1000 Blocks Destroyed",
    "icon": "https://steamcdn-a.akamaihd.net/steamcommunity/public/images/apps/702700/09bd579947bcfb1f95ddb35fb61cf3aa69bb665b.jpg",
    "icongray": "https://steamcdn-a.akamaihd.net/steamcommunity/public/images/apps/702700/c5e1e38d226c2c7c12a1c41730a4fc8618711379.jpg"
  },
  {
    "name": "Breaker1M",
    "defaultvalue": 0,
    "displayName": "Destroyed 1,000,000 Blocks",
    "hidden": 0,
    "description": "1,000,000 Blocks Destroyed",
    "icon": "https://steamcdn-a.akamaihd.net/steamcommunity/public/images/apps/702700/0cbc63bef0eef7240a662379a47df4fac542da1d.jpg",
    "icongray": "https://steamcdn-a.akamaihd.net/steamcommunity/public/images/apps/702700/5d5f19777d036afc458648c7e6824e5be1c331ca.jpg"
  },
  {
    "name": "NormalPower",
    "defaultvalue": 0,
    "displayName": "Normal Power",
    "hidden": 0,
    "description": "Won without getting a panel",
    "icon": "https://steamcdn-a.akamaihd.net/steamcommunity/public/images/apps/702700/440c6189527f0ec5c05c387c8bc0bcb24a80b41e.jpg",
    "icongray": "https://steamcdn-a.akamaihd.net/steamcommunity/public/images/apps/702700/89b1d6735cf4a3d24b2f1cac0b5ac7daa3bd9d8f.jpg"
  },
  {
    "name": "FlameThrower",
    "defaultvalue": 0,
    "displayName": "Flamethrower",
    "hidden": 0,
    "description": "Maximized your blast radius",
    "icon": "https://steamcdn-a.akamaihd.net/steamcommunity/public/images/apps/702700/5b556f92564a71670956547c777f866a079f36ad.jpg",
    "icongray": "https://steamcdn-a.akamaihd.net/steamcommunity/public/images/apps/702700/381e0ae19a7c370ae5db16549df575842fe3575c.jpg"
  },
  {
    "name": "BombDeamon",
    "defaultvalue": 0,
    "displayName": "Bomber",
    "hidden": 0,
    "description": "Carried the MAX number of Bombs",
    "icon": "https://steamcdn-a.akamaihd.net/steamcommunity/public/images/apps/702700/5717297a3bba408b6dff6ad205ac037b382dc24d.jpg",
    "icongray": "https://steamcdn-a.akamaihd.net/steamcommunity/public/images/apps/702700/7c182e84d6e7a626cad83e2093a8e7859f2c13cc.jpg"
  },
  {
    "name": "SpeedKing",
    "defaultvalue": 0,
    "displayName": "Speed King",
    "hidden": 0,
    "description": "Maximized your movement speed",
    "icon": "https://steamcdn-a.akamaihd.net/steamcommunity/public/images/apps/702700/4c2cfa012fcc4665b4db81bc6352cadaf83f0d9d.jpg",
    "icongray": "https://steamcdn-a.akamaihd.net/steamcommunity/public/images/apps/702700/4a02ddc68ce92c7efbf2139a1424ed01053fac28.jpg"
  },
  {
    "name": "MisobonShock",
    "defaultvalue": 0,
    "displayName": "Revenge Cart Shock",
    "hidden": 0,
    "description": "Lost to a Revenge Cart",
    "icon": "https://steamcdn-a.akamaihd.net/steamcommunity/public/images/apps/702700/b32565fafb0f9ca99d9e69d893f18a3ec8217129.jpg",
    "icongray": "https://steamcdn-a.akamaihd.net/steamcommunity/public/images/apps/702700/412266261772ecf2a5781d3aeaffddf09ab187b3.jpg"
  },
  {
    "name": "MisobonWinner",
    "defaultvalue": 0,
    "displayName": "Revenge Cart Wins",
    "hidden": 0,
    "description": "Won with a Revenge Cart in a 4+ Player Multiplayer Battle",
    "icon": "https://steamcdn-a.akamaihd.net/steamcommunity/public/images/apps/702700/e957c5a4fdc70ce470192539b29f732e9380b34f.jpg",
    "icongray": "https://steamcdn-a.akamaihd.net/steamcommunity/public/images/apps/702700/39e16501c8ef60111518336a3a2f00fba27804a8.jpg"
  },
  {
    "name": "SelfKiller",
    "defaultvalue": 0,
    "displayName": "Self-destruct",
    "hidden": 0,
    "description": "Got defeated by your own bomb.",
    "icon": "https://steamcdn-a.akamaihd.net/steamcommunity/public/images/apps/702700/9ee2d464d9c7eb548f6b5f50ed82b598d8bdf66b.jpg",
    "icongray": "https://steamcdn-a.akamaihd.net/steamcommunity/public/images/apps/702700/878db56abfaf11d579fec9da1e7d96cd48253f89.jpg"
  },
  {
    "name": "TimeOut",
    "defaultvalue": 0,
    "displayName": "Time Up",
    "hidden": 0,
    "description": "Tied with a Time Up",
    "icon": "https://steamcdn-a.akamaihd.net/steamcommunity/public/images/apps/702700/fe81cd96a993126539891f808252c411ebe8951d.jpg",
    "icongray": "https://steamcdn-a.akamaihd.net/steamcommunity/public/images/apps/702700/9940ceace9c0242531d6ea8a67f499b678c1a241.jpg"
  },
  {
    "name": "LocalBattle100",
    "defaultvalue": 0,
    "displayName": "Local Battle 100",
    "hidden": 0,
    "description": "Played 100 Multiplayer Battles",
    "icon": "https://steamcdn-a.akamaihd.net/steamcommunity/public/images/apps/702700/78955ca7baa1a72523cf84045b861c68daaff747.jpg",
    "icongray": "https://steamcdn-a.akamaihd.net/steamcommunity/public/images/apps/702700/a41fbdcbca480e1592ff0a686c60dd406bbe772d.jpg"
  },
  {
    "name": "LocalBattle1K",
    "defaultvalue": 0,
    "displayName": "Local Battle 1,000",
    "hidden": 0,
    "description": "Played 1,000 Multiplayer Battles",
    "icon": "https://steamcdn-a.akamaihd.net/steamcommunity/public/images/apps/702700/90444adbebd682918f47ec40116b9c6024038936.jpg",
    "icongray": "https://steamcdn-a.akamaihd.net/steamcommunity/public/images/apps/702700/eed5109c8ca23134bdf76d6be0015c22c807d7e2.jpg"
  },
  {
    "name": "Winner4",
    "defaultvalue": 0,
    "displayName": "Won on 4 Player Multiplayer Battle",
    "hidden": 0,
    "description": "Won a 4 Player Multiplayer Battle",
    "icon": "https://steamcdn-a.akamaihd.net/steamcommunity/public/images/apps/702700/7a7a51d54675dcf6e1e8e8ea00231c3258538033.jpg",
    "icongray": "https://steamcdn-a.akamaihd.net/steamcommunity/public/images/apps/702700/23268d52c22bda05e56497787b6bfcadfd3e490f.jpg"
  },
  {
    "name": "Winner8",
    "defaultvalue": 0,
    "displayName": "Won on 8 Player Multiplayer Battle",
    "hidden": 0,
    "description": "Won a 8 Player Multiplayer Battle",
    "icon": "https://steamcdn-a.akamaihd.net/steamcommunity/public/images/apps/702700/bc0154bcc9ea056e07f7e8bd99e0a5d4876aceba.jpg",
    "icongray": "https://steamcdn-a.akamaihd.net/steamcommunity/public/images/apps/702700/fc661d68b86654dd836396be16c9a64e3fd24f7f.jpg"
  },
  {
    "name": "RoomCreater",
    "defaultvalue": 0,
    "displayName": "Room Creator",
    "hidden": 0,
    "description": "Created a Room and Battled",
    "icon": "https://steamcdn-a.akamaihd.net/steamcommunity/public/images/apps/702700/f8773f42afdcd599672cf0bdc2b731d23712ec7f.jpg",
    "icongray": "https://steamcdn-a.akamaihd.net/steamcommunity/public/images/apps/702700/49adec35bda551bcdcdbe1aa78d7659983818dd8.jpg"
  },
  {
    "name": "RoomMaster",
    "defaultvalue": 0,
    "displayName": "Room Master",
    "hidden": 0,
    "description": "Created a Room and Battled 10 times",
    "icon": "https://steamcdn-a.akamaihd.net/steamcommunity/public/images/apps/702700/35fbcf2a21f649bd35095736c72112e04a553b5b.jpg",
    "icongray": "https://steamcdn-a.akamaihd.net/steamcommunity/public/images/apps/702700/a91189339ec2694eeb2b62a8a508f54f948d50a0.jpg"
  },
  {
    "name": "RoomGreater",
    "defaultvalue": 0,
    "displayName": "Room Champ",
    "hidden": 0,
    "description": "Created a Room and Battled 100 times",
    "icon": "https://steamcdn-a.akamaihd.net/steamcommunity/public/images/apps/702700/d7e9c396540ba3f58b7a3712d190aa3dbdd352a1.jpg",
    "icongray": "https://steamcdn-a.akamaihd.net/steamcommunity/public/images/apps/702700/9cf6c21afbdbad9f629c6bb3ad88cc81343965c8.jpg"
  },
  {
    "name": "BeginnerClear",
    "defaultvalue": 0,
    "displayName": "Beat Beginner",
    "hidden": 0,
    "description": "Beat Beginner on Story Mode",
    "icon": "https://steamcdn-a.akamaihd.net/steamcommunity/public/images/apps/702700/2d81db9b3ad28259b968abba193cc66a3f4aa17a.jpg",
    "icongray": "https://steamcdn-a.akamaihd.net/steamcommunity/public/images/apps/702700/9f0b97e26b556953014ec44737774ead01528058.jpg"
  },
  {
    "name": "NormalClear",
    "defaultvalue": 0,
    "displayName": "Beat Veteran",
    "hidden": 0,
    "description": "Beat Veteran on Story Mode",
    "icon": "https://steamcdn-a.akamaihd.net/steamcommunity/public/images/apps/702700/d798bcbdfb1c30ad133b07939dbf242e652701f3.jpg",
    "icongray": "https://steamcdn-a.akamaihd.net/steamcommunity/public/images/apps/702700/7d9aef90ed2ad41e641dc2039fb53b0f94818189.jpg"
  },
  {
    "name": "ExpertClear",
    "defaultvalue": 0,
    "displayName": "Beat Expert",
    "hidden": 0,
    "description": "Beat Expert on Story Mode",
    "icon": "https://steamcdn-a.akamaihd.net/steamcommunity/public/images/apps/702700/2e199b83d795940607ea5d877a02cbbb271c92fa.jpg",
    "icongray": "https://steamcdn-a.akamaihd.net/steamcommunity/public/images/apps/702700/6085c9ff1c4802907e1a295361897d06a31cc1f4.jpg"
  },
  {
    "name": "Stage01Complete",
    "defaultvalue": 0,
    "displayName": "Beat Planet Technopolis",
    "hidden": 0,
    "description": "Beat Planet Technopolis on Story Mode",
    "icon": "https://steamcdn-a.akamaihd.net/steamcommunity/public/images/apps/702700/0f5f115831471c2a98500a0e9e4dd420f5600798.jpg",
    "icongray": "https://steamcdn-a.akamaihd.net/steamcommunity/public/images/apps/702700/4c0806799cd0ab9c30d064b714697fcf1126d021.jpg"
  },
  {
    "name": "Stage02Complete",
    "defaultvalue": 0,
    "displayName": "Beat Planet Timbertree",
    "hidden": 0,
    "description": "Beat Planet Timbertree on Story Mode",
    "icon": "https://steamcdn-a.akamaihd.net/steamcommunity/public/images/apps/702700/8d8f712f9fa360c60bd9b2695beff55ed24258cf.jpg",
    "icongray": "https://steamcdn-a.akamaihd.net/steamcommunity/public/images/apps/702700/8d5f3a931e413933e94a25cdd827487c0ad6263b.jpg"
  },
  {
    "name": "Stage03Complete",
    "defaultvalue": 0,
    "displayName": "Beat Planet Brainwave",
    "hidden": 0,
    "description": "Beat Planet Brainwave on Story Mode",
    "icon": "https://steamcdn-a.akamaihd.net/steamcommunity/public/images/apps/702700/73f0d0a957ad4410fdac6848c9d6be497335a006.jpg",
    "icongray": "https://steamcdn-a.akamaihd.net/steamcommunity/public/images/apps/702700/27cdfeb22deec84845d17c9c029f034f8f6b054d.jpg"
  },
  {
    "name": "Stage04Complete",
    "defaultvalue": 0,
    "displayName": "Beat Planet Lalaland",
    "hidden": 0,
    "description": "Beat Planet Lalaland on Story Mode",
    "icon": "https://steamcdn-a.akamaihd.net/steamcommunity/public/images/apps/702700/4f84cc5e252d31f38fab2ae9ad690cbcbb314c5c.jpg",
    "icongray": "https://steamcdn-a.akamaihd.net/steamcommunity/public/images/apps/702700/258881626a2188de1837a3e201b424bedba41a28.jpg"
  },
  {
    "name": "Stage05Complete",
    "defaultvalue": 0,
    "displayName": "Beat Planet Scrapheap",
    "hidden": 0,
    "description": "Beat Planet Scrapheap on Story Mode",
    "icon": "https://steamcdn-a.akamaihd.net/steamcommunity/public/images/apps/702700/4693323762e8ed8ad8d2189ace2dd876af7b632b.jpg",
    "icongray": "https://steamcdn-a.akamaihd.net/steamcommunity/public/images/apps/702700/7cae60ec1d23bc5e58b300e9f758b30cda335775.jpg"
  },
  {
    "name": "Stage06Complete",
    "defaultvalue": 0,
    "displayName": "Beat Black Hole",
    "hidden": 0,
    "description": "Beat Black Hole on Story Mode",
    "icon": "https://steamcdn-a.akamaihd.net/steamcommunity/public/images/apps/702700/131d0c1e9eb98aefdf5f342e530d9fcf00a11d10.jpg",
    "icongray": "https://steamcdn-a.akamaihd.net/steamcommunity/public/images/apps/702700/08e419cf8fec73964e77a0024535d4a00208f0d7.jpg"
  },
  {
    "name": "BombermanBrothers",
    "defaultvalue": 0,
    "displayName": "The Eight Bomberman Bros.",
    "hidden": 1,
    "icon": "https://steamcdn-a.akamaihd.net/steamcommunity/public/images/apps/702700/36d294bdf69f877d91e54e06ba00d6304b202d71.jpg",
    "icongray": "https://steamcdn-a.akamaihd.net/steamcommunity/public/images/apps/702700/09a70f8cd6ef75ef42cc020d8133d3af63cfe15e.jpg"
  },
  {
    "name": "BuglerFamily",
    "defaultvalue": 0,
    "displayName": "The Five Dastardly Bombers",
    "hidden": 1,
    "icon": "https://steamcdn-a.akamaihd.net/steamcommunity/public/images/apps/702700/2e40c6f6d165b382f115700045c542517ba400e8.jpg",
    "icongray": "https://steamcdn-a.akamaihd.net/steamcommunity/public/images/apps/702700/ade88209d9e244a66500f20f5ef6ad231cba50f8.jpg"
  }
]