﻿{
  "Dlcs": {},
  "Name": "Bear Haven Nights",
  "AppId": "434220",
  "ImageUrl": "https://steamcdn-a.akamaihd.net/steam/apps/434220/header.jpg?t=1490179031",
  "Languages": [
    "english",
    "russian",
    "korean",
    "czech",
    "japanese"
  ],
  "Platforms": {
    "windows": true,
    "mac": true,
    "linux": true
  }
}