﻿[
  {
    "name": "achy1",
    "defaultvalue": 0,
    "displayName": "Railgun fanatic",
    "hidden": 0,
    "description": "Finish a stage using only formation A",
    "icon": "https://steamcdn-a.akamaihd.net/steamcommunity/public/images/apps/387240/6cdeaf001b62ec0b94a00f823212c57e84f1b5db.jpg",
    "icongray": "https://steamcdn-a.akamaihd.net/steamcommunity/public/images/apps/387240/2e1cd4053794c9a8c0a6da138069c3339532d972.jpg"
  },
  {
    "name": "achy2",
    "defaultvalue": 0,
    "displayName": "Appreciable difference",
    "hidden": 0,
    "description": "Install first upgrade",
    "icon": "https://steamcdn-a.akamaihd.net/steamcommunity/public/images/apps/387240/3932fea70183d6ec210d0724ff62436d47d8730b.jpg",
    "icongray": "https://steamcdn-a.akamaihd.net/steamcommunity/public/images/apps/387240/818695fe63f9826661b77dcdb99a8657f89da0db.jpg"
  },
  {
    "name": "achy3",
    "defaultvalue": 0,
    "displayName": "Shopping queen",
    "hidden": 0,
    "description": "Install 10+ upgrades",
    "icon": "https://steamcdn-a.akamaihd.net/steamcommunity/public/images/apps/387240/5af8feb88d8951602ea03ac0215df44dd216ce3f.jpg",
    "icongray": "https://steamcdn-a.akamaihd.net/steamcommunity/public/images/apps/387240/4144198314cf0fc99098b5725dee90b4df83d907.jpg"
  },
  {
    "name": "achy4",
    "defaultvalue": 0,
    "displayName": "Little helper",
    "hidden": 0,
    "description": "Get a drone pet",
    "icon": "https://steamcdn-a.akamaihd.net/steamcommunity/public/images/apps/387240/f02e703dbab41dba0f239e6fc3b5d21199ca1c8a.jpg",
    "icongray": "https://steamcdn-a.akamaihd.net/steamcommunity/public/images/apps/387240/4654b990ec21e45bbb702d88d5dbe7f9dd2a5118.jpg"
  },
  {
    "name": "achy5",
    "defaultvalue": 0,
    "displayName": "Tourist",
    "hidden": 0,
    "description": "Visit all Hangar areas",
    "icon": "https://steamcdn-a.akamaihd.net/steamcommunity/public/images/apps/387240/d25236233c8f9e56042e096710ff5a81e773f95a.jpg",
    "icongray": "https://steamcdn-a.akamaihd.net/steamcommunity/public/images/apps/387240/350836d7746f058d3052fb9ca6dbbc3ba12f4a83.jpg"
  },
  {
    "name": "achy6",
    "defaultvalue": 0,
    "displayName": "Felt like 10",
    "hidden": 0,
    "description": "1000+ Kills",
    "icon": "https://steamcdn-a.akamaihd.net/steamcommunity/public/images/apps/387240/3dfd0779537085513de130a3c2c2b82ef589f0fc.jpg",
    "icongray": "https://steamcdn-a.akamaihd.net/steamcommunity/public/images/apps/387240/4f3814ecbcacd6bf5521c93bcc4f754c8fea03cd.jpg"
  },
  {
    "name": "achy7",
    "defaultvalue": 0,
    "displayName": "Felt like 100",
    "hidden": 0,
    "description": "10000+ Kills",
    "icon": "https://steamcdn-a.akamaihd.net/steamcommunity/public/images/apps/387240/577baec65b2215f08cbddbcef3d71c1a5a7cd926.jpg",
    "icongray": "https://steamcdn-a.akamaihd.net/steamcommunity/public/images/apps/387240/d9490f42c302990ceb62b6d12bd957017354b98e.jpg"
  },
  {
    "name": "achy8",
    "defaultvalue": 0,
    "displayName": "Millionaire",
    "hidden": 0,
    "description": "Hold your first million credits",
    "icon": "https://steamcdn-a.akamaihd.net/steamcommunity/public/images/apps/387240/fd9085ac80f14519e420699fc55d99eda2d159bf.jpg",
    "icongray": "https://steamcdn-a.akamaihd.net/steamcommunity/public/images/apps/387240/fe7fb1e4b66aac90e4d42adb917cd8e05c184ac3.jpg"
  },
  {
    "name": "achy9",
    "defaultvalue": 0,
    "displayName": "I feel stronger",
    "hidden": 0,
    "description": "First core level up",
    "icon": "https://steamcdn-a.akamaihd.net/steamcommunity/public/images/apps/387240/5782ae80238814ed222d1dbb30ca171405aff3b4.jpg",
    "icongray": "https://steamcdn-a.akamaihd.net/steamcommunity/public/images/apps/387240/52a63df3e9b899aadb97df57aec49067ef9846d1.jpg"
  },
  {
    "name": "achy10",
    "defaultvalue": 0,
    "displayName": "Time for upgrades",
    "hidden": 0,
    "description": "Reach core level 5+",
    "icon": "https://steamcdn-a.akamaihd.net/steamcommunity/public/images/apps/387240/3d643715a986ae69e1b90c4eb1b0aef2ec06ec4f.jpg",
    "icongray": "https://steamcdn-a.akamaihd.net/steamcommunity/public/images/apps/387240/d90329c6ce805beb704ed4943c67abbaac47aebf.jpg"
  },
  {
    "name": "achy11",
    "defaultvalue": 0,
    "displayName": "New league",
    "hidden": 0,
    "description": "Reach core level 10+",
    "icon": "https://steamcdn-a.akamaihd.net/steamcommunity/public/images/apps/387240/9b8671b84d33d0c0d1bb1dea9d5ca12c26baa68a.jpg",
    "icongray": "https://steamcdn-a.akamaihd.net/steamcommunity/public/images/apps/387240/762969a935be82b49c5b28606efc6edf807a85d6.jpg"
  },
  {
    "name": "achy12",
    "defaultvalue": 0,
    "displayName": "Gaea Prime",
    "hidden": 0,
    "description": "Complete all Missions on Planet 1",
    "icon": "https://steamcdn-a.akamaihd.net/steamcommunity/public/images/apps/387240/b06a91d41962c954718ef4a41f7dece1c0d4ba0b.jpg",
    "icongray": "https://steamcdn-a.akamaihd.net/steamcommunity/public/images/apps/387240/397c2d06603bf55df3e128e1733651fa6faacaf6.jpg"
  },
  {
    "name": "achy13",
    "defaultvalue": 0,
    "displayName": "Mondera III",
    "hidden": 0,
    "description": "Complete all Missions on Planet 2",
    "icon": "https://steamcdn-a.akamaihd.net/steamcommunity/public/images/apps/387240/f39ef30f93ea3696fb315465d2de9181a3de21a1.jpg",
    "icongray": "https://steamcdn-a.akamaihd.net/steamcommunity/public/images/apps/387240/38349dd2c3e7321e87dd186000187bb635a93495.jpg"
  },
  {
    "name": "achy14",
    "defaultvalue": 0,
    "displayName": "Glacus Prime",
    "hidden": 0,
    "description": "Complete all Missions on Planet 3",
    "icon": "https://steamcdn-a.akamaihd.net/steamcommunity/public/images/apps/387240/7890c36c7f2b7767c265af456ce3ea6ed328bbfd.jpg",
    "icongray": "https://steamcdn-a.akamaihd.net/steamcommunity/public/images/apps/387240/fcfafd4ad227e44e3c30c5d931645c17c45fab5c.jpg"
  },
  {
    "name": "achy15",
    "defaultvalue": 0,
    "displayName": "Zlyere V",
    "hidden": 0,
    "description": "Complete all Missions on Planet 4",
    "icon": "https://steamcdn-a.akamaihd.net/steamcommunity/public/images/apps/387240/afa421181cc6ed376e5ba7a1731afa715b2c6c92.jpg",
    "icongray": "https://steamcdn-a.akamaihd.net/steamcommunity/public/images/apps/387240/8bfc90580fa36cc3bac8f7396d52adf009f12bc0.jpg"
  },
  {
    "name": "achy16",
    "defaultvalue": 0,
    "displayName": "New Andaman",
    "hidden": 0,
    "description": "Complete all Missions on Planet 5",
    "icon": "https://steamcdn-a.akamaihd.net/steamcommunity/public/images/apps/387240/27e7ca442ace775de4feb501d22798f1b606edc5.jpg",
    "icongray": "https://steamcdn-a.akamaihd.net/steamcommunity/public/images/apps/387240/876b5996d2e7940d38361b1f25a90af1c04deef5.jpg"
  },
  {
    "name": "achy17",
    "defaultvalue": 0,
    "displayName": "Atavus Nex",
    "hidden": 0,
    "description": "Complete all Missions on Planet 6",
    "icon": "https://steamcdn-a.akamaihd.net/steamcommunity/public/images/apps/387240/3ebc6123dcb2f90fc71b5dae7cbc1593b4a4ac05.jpg",
    "icongray": "https://steamcdn-a.akamaihd.net/steamcommunity/public/images/apps/387240/a782b25fec3f7469bb00cf5e12fd1c9ffba5e442.jpg"
  },
  {
    "name": "achy18",
    "defaultvalue": 0,
    "displayName": "Xenox Prime",
    "hidden": 0,
    "description": "Complete all Missions on Planet 7",
    "icon": "https://steamcdn-a.akamaihd.net/steamcommunity/public/images/apps/387240/5ce390a5d3400fa3030c018cd6dffb3269b13554.jpg",
    "icongray": "https://steamcdn-a.akamaihd.net/steamcommunity/public/images/apps/387240/734c2154ea7f2fd186f0edd69bc7af06660277bc.jpg"
  },
  {
    "name": "achy19",
    "defaultvalue": 0,
    "displayName": "Steel Rain",
    "hidden": 0,
    "description": "Finish all Missions on all Planets",
    "icon": "https://steamcdn-a.akamaihd.net/steamcommunity/public/images/apps/387240/46108109c25d36bb46f5fb1e790791ca64d5d0a9.jpg",
    "icongray": "https://steamcdn-a.akamaihd.net/steamcommunity/public/images/apps/387240/7b29aa3c8a64dcd3e86b863d644e8cad014edfe7.jpg"
  },
  {
    "name": "achy20",
    "defaultvalue": 0,
    "displayName": "Bankier",
    "hidden": 0,
    "description": "Hold 100k + credits",
    "icon": "https://steamcdn-a.akamaihd.net/steamcommunity/public/images/apps/387240/4433863e997325d04ff6b333aa22889a13ae9bed.jpg",
    "icongray": "https://steamcdn-a.akamaihd.net/steamcommunity/public/images/apps/387240/f29b2a3dfb7a91754426fc93309d203df7183c18.jpg"
  },
  {
    "name": "achy21",
    "defaultvalue": 0,
    "displayName": "Big caliber",
    "hidden": 0,
    "description": "Finish a stage using only formation B",
    "icon": "https://steamcdn-a.akamaihd.net/steamcommunity/public/images/apps/387240/42b3cc39b13df40c870a9d96307247268fc36ea2.jpg",
    "icongray": "https://steamcdn-a.akamaihd.net/steamcommunity/public/images/apps/387240/c305fb9f657db885e466636093e7a4e8fb7c087d.jpg"
  },
  {
    "name": "achy22",
    "defaultvalue": 0,
    "displayName": "Laser power",
    "hidden": 0,
    "description": "Finish a stage using only formation C",
    "icon": "https://steamcdn-a.akamaihd.net/steamcommunity/public/images/apps/387240/11b0c11a7212c43e4fb13a4e800b1f73e3fdee93.jpg",
    "icongray": "https://steamcdn-a.akamaihd.net/steamcommunity/public/images/apps/387240/fb4aedb4a1f9340f5ac571dcbca3665580ddf00b.jpg"
  },
  {
    "name": "achy23",
    "defaultvalue": 0,
    "displayName": "Rank fighter",
    "hidden": 0,
    "description": "Visit the leaderboard area in the hangar",
    "icon": "https://steamcdn-a.akamaihd.net/steamcommunity/public/images/apps/387240/b6655b5401bf0f68376108afb594a49ad2d99e37.jpg",
    "icongray": "https://steamcdn-a.akamaihd.net/steamcommunity/public/images/apps/387240/5337bea15995f31a2a85b71f8062560d4734c969.jpg"
  },
  {
    "name": "achy24",
    "defaultvalue": 0,
    "displayName": "Swiss cheese",
    "hidden": 0,
    "description": "Shoot your main laser for 1minute overall time",
    "icon": "https://steamcdn-a.akamaihd.net/steamcommunity/public/images/apps/387240/210943a1c95b42382530d8a0cd6aef6a0ad62cbf.jpg",
    "icongray": "https://steamcdn-a.akamaihd.net/steamcommunity/public/images/apps/387240/966f7a55bde1303eed70f47d8d41e05336b35d66.jpg"
  },
  {
    "name": "achy25",
    "defaultvalue": 0,
    "displayName": "Real power",
    "hidden": 0,
    "description": "Reach core level 50",
    "icon": "https://steamcdn-a.akamaihd.net/steamcommunity/public/images/apps/387240/0caac1a1108df024f573d58b0c9afb9dcb61d767.jpg",
    "icongray": "https://steamcdn-a.akamaihd.net/steamcommunity/public/images/apps/387240/0363f4d8a98be27e09b2ceb65ece3a1cba9a27d2.jpg"
  },
  {
    "name": "achy26",
    "defaultvalue": 0,
    "displayName": "Settler",
    "hidden": 0,
    "description": "Colonize a planet",
    "icon": "https://steamcdn-a.akamaihd.net/steamcommunity/public/images/apps/387240/cf236d7b737c6b5bd28f438ebafb97024c460aa4.jpg",
    "icongray": "https://steamcdn-a.akamaihd.net/steamcommunity/public/images/apps/387240/30d253a922310c9d69cc2ac973aa7a13f9eb99e9.jpg"
  },
  {
    "name": "achy27",
    "defaultvalue": 0,
    "displayName": "Hammer & laser",
    "hidden": 0,
    "description": "Finish your first construction",
    "icon": "https://steamcdn-a.akamaihd.net/steamcommunity/public/images/apps/387240/f907c76fa0a6abfb8718a9cf0b6a6e8b467091c4.jpg",
    "icongray": "https://steamcdn-a.akamaihd.net/steamcommunity/public/images/apps/387240/1eb189d23e7bcc454bd9afa58cfd66c11f675b53.jpg"
  },
  {
    "name": "achy28",
    "defaultvalue": 0,
    "displayName": "Terraformer",
    "hidden": 0,
    "description": "Build 10 or more Habitats",
    "icon": "https://steamcdn-a.akamaihd.net/steamcommunity/public/images/apps/387240/cf162d5cf174c83f181f5955dda34181ea6fd79a.jpg",
    "icongray": "https://steamcdn-a.akamaihd.net/steamcommunity/public/images/apps/387240/53a2c4249bf12c6090ab97b0afa466ffa66a57df.jpg"
  },
  {
    "name": "achy29",
    "defaultvalue": 0,
    "displayName": "Business man",
    "hidden": 0,
    "description": "Build a harvester next to a trading hub",
    "icon": "https://steamcdn-a.akamaihd.net/steamcommunity/public/images/apps/387240/6f641d6624b12e203a057122a5570633bba0aedd.jpg",
    "icongray": "https://steamcdn-a.akamaihd.net/steamcommunity/public/images/apps/387240/c7686f9fd75c94363ebcbb0d2ab0b744dfb56633.jpg"
  },
  {
    "name": "achy30",
    "defaultvalue": 0,
    "displayName": "My Empire",
    "hidden": 0,
    "description": "Colonize all planets",
    "icon": "https://steamcdn-a.akamaihd.net/steamcommunity/public/images/apps/387240/307bee518a11e14bc6b96b4a02cc906efd57bbc6.jpg",
    "icongray": "https://steamcdn-a.akamaihd.net/steamcommunity/public/images/apps/387240/cb8faf9d2538e85ed13f4a45183d74d18cc535aa.jpg"
  },
  {
    "name": "achy31",
    "defaultvalue": 0,
    "displayName": "Content Hunter",
    "hidden": 0,
    "description": "Download a new stage from the workshop",
    "icon": "https://steamcdn-a.akamaihd.net/steamcommunity/public/images/apps/387240/89ac25ec232e68fa1b9e5b81e6f0592a928181ef.jpg",
    "icongray": "https://steamcdn-a.akamaihd.net/steamcommunity/public/images/apps/387240/3f2995e2346429dfa3569a9613262b2ec0024e77.jpg"
  },
  {
    "name": "achy32",
    "defaultvalue": 0,
    "displayName": "Creative Mind",
    "hidden": 0,
    "description": "Place 100+ editor objects",
    "icon": "https://steamcdn-a.akamaihd.net/steamcommunity/public/images/apps/387240/61c3336d2c3c58ec4bed0153d4f8214ef551ff59.jpg",
    "icongray": "https://steamcdn-a.akamaihd.net/steamcommunity/public/images/apps/387240/9a7ddcfaf24977dc3d568c981c2c33ffd4444ff2.jpg"
  },
  {
    "name": "achy33",
    "defaultvalue": 0,
    "displayName": "Try mine",
    "hidden": 0,
    "description": "Share a new created stage",
    "icon": "https://steamcdn-a.akamaihd.net/steamcommunity/public/images/apps/387240/d758d6820b4e6bc24e6a4173c89b10f05416d847.jpg",
    "icongray": "https://steamcdn-a.akamaihd.net/steamcommunity/public/images/apps/387240/16433ea6bea79a5e33a3e8ed868582298b48f29c.jpg"
  },
  {
    "name": "achy34",
    "defaultvalue": 0,
    "displayName": "Leveldesigner",
    "hidden": 0,
    "description": "Create and share 4+ stages",
    "icon": "https://steamcdn-a.akamaihd.net/steamcommunity/public/images/apps/387240/b5b8b1437e1ba1ef7986b6a9e6c591bcd9d316b2.jpg",
    "icongray": "https://steamcdn-a.akamaihd.net/steamcommunity/public/images/apps/387240/10dfd7a4ddeba54890180793427927f3c2807d1d.jpg"
  },
  {
    "name": "achy35",
    "defaultvalue": 0,
    "displayName": "Student",
    "hidden": 0,
    "description": "Research your first new Technologie",
    "icon": "https://steamcdn-a.akamaihd.net/steamcommunity/public/images/apps/387240/c521995d9a8d1c6c0c2380b80c230838400d990c.jpg",
    "icongray": "https://steamcdn-a.akamaihd.net/steamcommunity/public/images/apps/387240/b4740a21e38a01a01877d852c4d5c2bcc252731f.jpg"
  },
  {
    "name": "achy36",
    "defaultvalue": 0,
    "displayName": "Professor",
    "hidden": 0,
    "description": "Research 5+ Technologies",
    "icon": "https://steamcdn-a.akamaihd.net/steamcommunity/public/images/apps/387240/62205ebd9c5708f34b74a0cdf6ab5f1e24ccfed2.jpg",
    "icongray": "https://steamcdn-a.akamaihd.net/steamcommunity/public/images/apps/387240/0bf354c2198dd8dab3299cb4b3bb2e0fdfb4c3a8.jpg"
  },
  {
    "name": "achy37",
    "defaultvalue": 0,
    "displayName": "Mastermind",
    "hidden": 0,
    "description": "Research all Technologies",
    "icon": "https://steamcdn-a.akamaihd.net/steamcommunity/public/images/apps/387240/a80cbecba6a4775e27e87d305b65e3d168111f73.jpg",
    "icongray": "https://steamcdn-a.akamaihd.net/steamcommunity/public/images/apps/387240/8cde3830466006a8efa5f9e0854de433384a225f.jpg"
  },
  {
    "name": "achy38",
    "defaultvalue": 0,
    "displayName": "More please!",
    "hidden": 0,
    "description": "Learn your first firemode Skill",
    "icon": "https://steamcdn-a.akamaihd.net/steamcommunity/public/images/apps/387240/696e07e511d056e9e8aa93dc4feb605ed589c90e.jpg",
    "icongray": "https://steamcdn-a.akamaihd.net/steamcommunity/public/images/apps/387240/0fb7cdcb6af1651761b4bae6da7ee3725b744c76.jpg"
  },
  {
    "name": "achy39",
    "defaultvalue": 0,
    "displayName": "Multitalent",
    "hidden": 0,
    "description": "Learn at least 1 skill of each firemode color skills",
    "icon": "https://steamcdn-a.akamaihd.net/steamcommunity/public/images/apps/387240/baae0aff8a8e5ea721528903df4705ffed9b5421.jpg",
    "icongray": "https://steamcdn-a.akamaihd.net/steamcommunity/public/images/apps/387240/0dee5556c9b504857bee0644032f066306a3cd6c.jpg"
  },
  {
    "name": "achy40",
    "defaultvalue": 0,
    "displayName": "Reach the sun",
    "hidden": 0,
    "description": "Learn your first active max skill of any firemode",
    "icon": "https://steamcdn-a.akamaihd.net/steamcommunity/public/images/apps/387240/9aeaf13ba8ed08949554c2f005dc3218862d95e0.jpg",
    "icongray": "https://steamcdn-a.akamaihd.net/steamcommunity/public/images/apps/387240/41e9caea648173fc59db06d914532e68d1af12a8.jpg"
  },
  {
    "name": "achy41",
    "defaultvalue": 0,
    "displayName": "Skill Master",
    "hidden": 0,
    "description": "Learn all firemode skills",
    "icon": "https://steamcdn-a.akamaihd.net/steamcommunity/public/images/apps/387240/ca2add10ba4e32bd34220ba6083018dadebe1738.jpg",
    "icongray": "https://steamcdn-a.akamaihd.net/steamcommunity/public/images/apps/387240/a089a09d27af5fd8866dbea3cec717ee18fc7963.jpg"
  },
  {
    "name": "achy42",
    "defaultvalue": 0,
    "displayName": "Steel armor",
    "hidden": 0,
    "description": "Install all armor uprgades",
    "icon": "https://steamcdn-a.akamaihd.net/steamcommunity/public/images/apps/387240/963493ab8e752111b47256bb96ed8778be4bd6ce.jpg",
    "icongray": "https://steamcdn-a.akamaihd.net/steamcommunity/public/images/apps/387240/4d888e297996fb5e8217c28f4f149eabea6de01e.jpg"
  },
  {
    "name": "achy43",
    "defaultvalue": 0,
    "displayName": "Massive Damage",
    "hidden": 0,
    "description": "Install all Firemode upgrades",
    "icon": "https://steamcdn-a.akamaihd.net/steamcommunity/public/images/apps/387240/dc48396bac21a536635a8919fa49f3f042e41aa8.jpg",
    "icongray": "https://steamcdn-a.akamaihd.net/steamcommunity/public/images/apps/387240/532aedfa82a763deeaeab940a994f46113402061.jpg"
  },
  {
    "name": "achy44",
    "defaultvalue": 0,
    "displayName": "Minion Master",
    "hidden": 0,
    "description": "Purchase all Drones",
    "icon": "https://steamcdn-a.akamaihd.net/steamcommunity/public/images/apps/387240/6651d3917ccad286724b2572fce36cfda9410e2d.jpg",
    "icongray": "https://steamcdn-a.akamaihd.net/steamcommunity/public/images/apps/387240/83503562399073f643b9c568ed0d5dfa8a8a7b31.jpg"
  },
  {
    "name": "achy45",
    "defaultvalue": 0,
    "displayName": "One for each day",
    "hidden": 0,
    "description": "Purchase all Wings",
    "icon": "https://steamcdn-a.akamaihd.net/steamcommunity/public/images/apps/387240/7518c52cb6d730b6ce22ac1b112ebfab8769532f.jpg",
    "icongray": "https://steamcdn-a.akamaihd.net/steamcommunity/public/images/apps/387240/6e39dfab419249f54fc46bc53e9b32dce50196cd.jpg"
  },
  {
    "name": "achy46",
    "defaultvalue": 0,
    "displayName": "Armageddon",
    "hidden": 0,
    "description": "Install all bomb upgrades",
    "icon": "https://steamcdn-a.akamaihd.net/steamcommunity/public/images/apps/387240/d1be5636de747d65bf9cd3f8d1922b0fd56a6157.jpg",
    "icongray": "https://steamcdn-a.akamaihd.net/steamcommunity/public/images/apps/387240/0db82fb8cb3992b93e641443ed2e1b87c9f681d5.jpg"
  },
  {
    "name": "achy47",
    "defaultvalue": 0,
    "displayName": "Mode tester",
    "hidden": 0,
    "description": "Play all 6 firemodes in each of the 3 formations",
    "icon": "https://steamcdn-a.akamaihd.net/steamcommunity/public/images/apps/387240/bec2e20146ada53500d6f6efd473d95b0274d093.jpg",
    "icongray": "https://steamcdn-a.akamaihd.net/steamcommunity/public/images/apps/387240/900f871f476b3859cbc4ec59f7e2347dd4306109.jpg"
  },
  {
    "name": "achy48",
    "defaultvalue": 0,
    "displayName": "Never enough",
    "hidden": 0,
    "description": "Collect 100 powerups",
    "icon": "https://steamcdn-a.akamaihd.net/steamcommunity/public/images/apps/387240/032251c5ef2b1eb942f10feac5cdf1e98dc863f0.jpg",
    "icongray": "https://steamcdn-a.akamaihd.net/steamcommunity/public/images/apps/387240/024e6ad08e742129644afb77acee79d6fd6c80fd.jpg"
  },
  {
    "name": "achy49",
    "defaultvalue": 0,
    "displayName": "Too easy",
    "hidden": 0,
    "description": "Finish a stage in hardcore mode",
    "icon": "https://steamcdn-a.akamaihd.net/steamcommunity/public/images/apps/387240/887f7158a3fbf592d33ca31111295eb1e896d600.jpg",
    "icongray": "https://steamcdn-a.akamaihd.net/steamcommunity/public/images/apps/387240/4741dd1e8ea11ad6918d3fcb9e8f9745119e1150.jpg"
  },
  {
    "name": "achy50",
    "defaultvalue": 0,
    "displayName": "Ran-King",
    "hidden": 0,
    "description": "Reach S ranking",
    "icon": "https://steamcdn-a.akamaihd.net/steamcommunity/public/images/apps/387240/98fcbc7e47dd2ee682368d13b13d03f3e043ea94.jpg",
    "icongray": "https://steamcdn-a.akamaihd.net/steamcommunity/public/images/apps/387240/e6bb6d7a9f97decd6cb7657d41c380de08f1f313.jpg"
  },
  {
    "name": "achy51",
    "defaultvalue": 0,
    "displayName": "Bring it on",
    "hidden": 0,
    "description": "Finish Stage in max difficulty",
    "icon": "https://steamcdn-a.akamaihd.net/steamcommunity/public/images/apps/387240/ab79980f3bcc687061805609f4adbf8463e61cab.jpg",
    "icongray": "https://steamcdn-a.akamaihd.net/steamcommunity/public/images/apps/387240/66f1eb8b322a8b68ecb93de319c8d68fd46601ab.jpg"
  },
  {
    "name": "achy52",
    "defaultvalue": 0,
    "displayName": "Wholesale",
    "hidden": 0,
    "description": "Purchase all upgrades",
    "icon": "https://steamcdn-a.akamaihd.net/steamcommunity/public/images/apps/387240/5d7cce16bbfb86224435eb84c43386bceaf1f14b.jpg",
    "icongray": "https://steamcdn-a.akamaihd.net/steamcommunity/public/images/apps/387240/56eab93c845082abb442125f18fca80d778be218.jpg"
  },
  {
    "name": "achy53",
    "defaultvalue": 0,
    "displayName": "Masters Choice",
    "hidden": 0,
    "description": "Finish a stage without changing the firemode color",
    "icon": "https://steamcdn-a.akamaihd.net/steamcommunity/public/images/apps/387240/69dd011220198715b19756533196db33b4d68f7a.jpg",
    "icongray": "https://steamcdn-a.akamaihd.net/steamcommunity/public/images/apps/387240/ead50b78114bfef8c839294f33610b5d9dc3a45b.jpg"
  },
  {
    "name": "achy54",
    "defaultvalue": 0,
    "displayName": "Will of Steel",
    "hidden": 0,
    "description": "Finish all Planets in Max difficulty",
    "icon": "https://steamcdn-a.akamaihd.net/steamcommunity/public/images/apps/387240/48f7ecf6b0e73a41fda52f6bb8555318a80d689c.jpg",
    "icongray": "https://steamcdn-a.akamaihd.net/steamcommunity/public/images/apps/387240/805f0cf02f2ad7fbb3fe2d589cd36245d375a8e8.jpg"
  },
  {
    "name": "achy55",
    "defaultvalue": 0,
    "displayName": "Hardcore",
    "hidden": 0,
    "description": "Finish all planets in hardcore mode",
    "icon": "https://steamcdn-a.akamaihd.net/steamcommunity/public/images/apps/387240/caf45f424e9c7016cc9236176eff7f701b10505b.jpg",
    "icongray": "https://steamcdn-a.akamaihd.net/steamcommunity/public/images/apps/387240/aca3a00b5feedef181529ff342db662743177f0b.jpg"
  },
  {
    "name": "achy56",
    "defaultvalue": 0,
    "displayName": "Cheater",
    "hidden": 0,
    "description": "Finish all planets in hardcore mode and at max difficulty",
    "icon": "https://steamcdn-a.akamaihd.net/steamcommunity/public/images/apps/387240/9d15a5b4eee8797d9ae9323a6fdfb27fc411c406.jpg",
    "icongray": "https://steamcdn-a.akamaihd.net/steamcommunity/public/images/apps/387240/0581434612bed7e71eaedad7cca115ec123cf792.jpg"
  },
  {
    "name": "achy57",
    "defaultvalue": 0,
    "displayName": "Orbit Patrol",
    "hidden": 0,
    "description": "Finish Orbit Patrol Mission",
    "icon": "https://steamcdn-a.akamaihd.net/steamcommunity/public/images/apps/387240/f8a10c5f4a1a1aad1504131c31e51d682dfd386d.jpg",
    "icongray": "https://steamcdn-a.akamaihd.net/steamcommunity/public/images/apps/387240/71664ab6ea6e87d85ff8ec22f72588f7acdf7c15.jpg"
  },
  {
    "name": "achy58",
    "defaultvalue": 0,
    "displayName": "Evasion",
    "hidden": 0,
    "description": "Evade enemy lasers in open formation C, with one wing on the left and one wing on the right side of the laser.",
    "icon": "https://steamcdn-a.akamaihd.net/steamcommunity/public/images/apps/387240/5174b10ab6551d89dfdadbc1fcc628981c23a952.jpg",
    "icongray": "https://steamcdn-a.akamaihd.net/steamcommunity/public/images/apps/387240/e3b86b7537e94190d32db79cb4aefb1315f36d3b.jpg"
  },
  {
    "name": "achy59",
    "defaultvalue": 0,
    "displayName": "Knowledge is Power",
    "hidden": 0,
    "description": "Research all technologies in a category",
    "icon": "https://steamcdn-a.akamaihd.net/steamcommunity/public/images/apps/387240/ea0d0794837e79f14eef24afe0b98644d1bdb036.jpg",
    "icongray": "https://steamcdn-a.akamaihd.net/steamcommunity/public/images/apps/387240/d03746e19d1a40d85d7b648531ef9488ef24996e.jpg"
  },
  {
    "name": "achy60",
    "defaultvalue": 0,
    "displayName": "Steel Citadel",
    "hidden": 0,
    "description": "Research and build a steel citadel",
    "icon": "https://steamcdn-a.akamaihd.net/steamcommunity/public/images/apps/387240/5f588c0ef716f4014b09d573bbb7c30ceeb4f5d7.jpg",
    "icongray": "https://steamcdn-a.akamaihd.net/steamcommunity/public/images/apps/387240/f385e8334c764e67eac7199ad6ac4b8ae1702f02.jpg"
  },
  {
    "name": "achy61",
    "defaultvalue": 0,
    "displayName": "Missile overdose",
    "hidden": 0,
    "description": "Install all missile upgrades",
    "icon": "https://steamcdn-a.akamaihd.net/steamcommunity/public/images/apps/387240/263d3dbb6fabb32cb2d9df31cc18fe6c4f183166.jpg",
    "icongray": "https://steamcdn-a.akamaihd.net/steamcommunity/public/images/apps/387240/f31556e6630ea971b5e5915a39ac81772f93e355.jpg"
  },
  {
    "name": "achy62",
    "defaultvalue": 0,
    "displayName": "Flying Ace",
    "hidden": 0,
    "description": "Evade 10 enemy lasers in formation C on the same height",
    "icon": "https://steamcdn-a.akamaihd.net/steamcommunity/public/images/apps/387240/e0eafb46723822379cc3ef4a0dda87cce9b27af8.jpg",
    "icongray": "https://steamcdn-a.akamaihd.net/steamcommunity/public/images/apps/387240/67936aa5ee1a5bd84353ed82c024a9600e9a8496.jpg"
  },
  {
    "name": "achy63",
    "defaultvalue": 0,
    "displayName": "Steel Virgin",
    "hidden": 0,
    "description": "Finish Stage 1",
    "icon": "https://steamcdn-a.akamaihd.net/steamcommunity/public/images/apps/387240/49b212eeaec90a4ddf8b3f001d9a448db87a336d.jpg",
    "icongray": "https://steamcdn-a.akamaihd.net/steamcommunity/public/images/apps/387240/b37a97420f562899236399e4af0c221ffa4635eb.jpg"
  },
  {
    "name": "achy64",
    "defaultvalue": 0,
    "displayName": "Mechanic",
    "hidden": 0,
    "description": "Repair 100 hull points",
    "icon": "https://steamcdn-a.akamaihd.net/steamcommunity/public/images/apps/387240/c1b440ec191d4490011e9611aa5501056b1e9b32.jpg",
    "icongray": "https://steamcdn-a.akamaihd.net/steamcommunity/public/images/apps/387240/b26b01841b9931747ee6398ef964553fbc6b2206.jpg"
  },
  {
    "name": "achy65",
    "defaultvalue": 0,
    "displayName": "Nimble",
    "hidden": 0,
    "description": "Finish a stage without taking damage",
    "icon": "https://steamcdn-a.akamaihd.net/steamcommunity/public/images/apps/387240/88b4ac3c54c14a47d7eea112b0eade3fea65b7b9.jpg",
    "icongray": "https://steamcdn-a.akamaihd.net/steamcommunity/public/images/apps/387240/1ae227acb1cb1992151311f266bfc48358983091.jpg"
  },
  {
    "name": "achy66",
    "defaultvalue": 0,
    "displayName": "Ghost",
    "hidden": 0,
    "description": "Hide your core and wings for a stealth attack from below",
    "icon": "https://steamcdn-a.akamaihd.net/steamcommunity/public/images/apps/387240/0d0acc8701e736a4623b53bab480ee4c3fb0ccbe.jpg",
    "icongray": "https://steamcdn-a.akamaihd.net/steamcommunity/public/images/apps/387240/4729c68c5d5675c803b03394dc5b82844b9ca103.jpg"
  },
  {
    "name": "achy67",
    "defaultvalue": 0,
    "displayName": "Cash for Rep",
    "hidden": 0,
    "description": "Use the yellow firemode to convert credit drops into repair kits (Skill required)",
    "icon": "https://steamcdn-a.akamaihd.net/steamcommunity/public/images/apps/387240/ccbf7c9fdc0f30a5120fbeb5eb6976e8d291ab4f.jpg",
    "icongray": "https://steamcdn-a.akamaihd.net/steamcommunity/public/images/apps/387240/e481dd292e000d83ef913befb76de6da6a3a4e0f.jpg"
  },
  {
    "name": "achy68",
    "defaultvalue": 0,
    "displayName": "Combo Boost",
    "hidden": 0,
    "description": "Finish a 20+ combo",
    "icon": "https://steamcdn-a.akamaihd.net/steamcommunity/public/images/apps/387240/09ba1d029826645b1b3db74dac43f69d073f30e7.jpg",
    "icongray": "https://steamcdn-a.akamaihd.net/steamcommunity/public/images/apps/387240/2cc89d3270b634bdc9244991745a030afef33457.jpg"
  },
  {
    "name": "achy69",
    "defaultvalue": 0,
    "displayName": "Combo Master",
    "hidden": 0,
    "description": "Finish a 50+ combo",
    "icon": "https://steamcdn-a.akamaihd.net/steamcommunity/public/images/apps/387240/5e070f343345a70464e9473b478997aca79b1f3b.jpg",
    "icongray": "https://steamcdn-a.akamaihd.net/steamcommunity/public/images/apps/387240/6b2cd5ea64914f230e3842912db0d5a944f94c0c.jpg"
  },
  {
    "name": "achy70",
    "defaultvalue": 0,
    "displayName": "Steel Combo",
    "hidden": 0,
    "description": "Finish a 100+ combo",
    "icon": "https://steamcdn-a.akamaihd.net/steamcommunity/public/images/apps/387240/b80244aeb10a49b311609d19193969dfa0d0e62e.jpg",
    "icongray": "https://steamcdn-a.akamaihd.net/steamcommunity/public/images/apps/387240/362eb9e90698302d9a172c5c3e782f4540ca2870.jpg"
  },
  {
    "name": "achy71",
    "defaultvalue": 0,
    "displayName": "Defender",
    "hidden": 0,
    "description": "Defend a colony from attackers",
    "icon": "https://steamcdn-a.akamaihd.net/steamcommunity/public/images/apps/387240/5d4e1d64809af3a3421f331bd3980de5937049fd.jpg",
    "icongray": "https://steamcdn-a.akamaihd.net/steamcommunity/public/images/apps/387240/c20de202de70ce85eb2a5f2b33306939c71e98a5.jpg"
  },
  {
    "name": "achy72",
    "defaultvalue": 0,
    "displayName": "Mechacorn",
    "hidden": 0,
    "description": "Find and kill the hidden bonus boss",
    "icon": "https://steamcdn-a.akamaihd.net/steamcommunity/public/images/apps/387240/51019bc1626cb06ca4fcb45c73610a9818629790.jpg",
    "icongray": "https://steamcdn-a.akamaihd.net/steamcommunity/public/images/apps/387240/e574e19c8a0ea945fd602db37c63ca268b349e7a.jpg"
  },
  {
    "name": "achy73",
    "defaultvalue": 0,
    "displayName": "Boss Hunter",
    "hidden": 0,
    "description": "Unlock and finish the boss mode",
    "icon": "https://steamcdn-a.akamaihd.net/steamcommunity/public/images/apps/387240/1eb9c87af2f9b9b8f2b3bc16b23904121b550200.jpg",
    "icongray": "https://steamcdn-a.akamaihd.net/steamcommunity/public/images/apps/387240/6b71ad684d1c0f2f9c26fc53c0364a69d634160f.jpg"
  },
  {
    "name": "achy74",
    "defaultvalue": 0,
    "displayName": "Tamer",
    "hidden": 0,
    "description": "Finish the hidden boss encounter in hardcore mode and max difficulty",
    "icon": "https://steamcdn-a.akamaihd.net/steamcommunity/public/images/apps/387240/b06e94aa21c41e937b3c830c06548eb1bbf8ea07.jpg",
    "icongray": "https://steamcdn-a.akamaihd.net/steamcommunity/public/images/apps/387240/70c707f9fb952544a4eb3397042c85f749bcb1de.jpg"
  },
  {
    "name": "achy75",
    "defaultvalue": 0,
    "displayName": "Boss Master",
    "hidden": 0,
    "description": "Finish a boss run in hardcore mode and max difficulty",
    "icon": "https://steamcdn-a.akamaihd.net/steamcommunity/public/images/apps/387240/b4459f2bff964e72cc7d36a3375e074085ea5ff5.jpg",
    "icongray": "https://steamcdn-a.akamaihd.net/steamcommunity/public/images/apps/387240/2ca188ca872ed38cce34d488038dfe7ec413edf6.jpg"
  },
  {
    "name": "achy76",
    "defaultvalue": 0,
    "displayName": "Cleaner",
    "hidden": 0,
    "description": "Destroy 20+ enemy mines in formation C",
    "icon": "https://steamcdn-a.akamaihd.net/steamcommunity/public/images/apps/387240/b1b64b2a1ef8cea6bace856a69dbc77730fe8fb9.jpg",
    "icongray": "https://steamcdn-a.akamaihd.net/steamcommunity/public/images/apps/387240/9aa61095a0816b17918ce82c0c9da8b87bdc4dff.jpg"
  },
  {
    "name": "achy77",
    "defaultvalue": 0,
    "displayName": "Legendary",
    "hidden": 0,
    "description": "Complete 3+ stages in legendary mode",
    "icon": "https://steamcdn-a.akamaihd.net/steamcommunity/public/images/apps/387240/97f901259c0f79953ceb7b607c1449f303fee1aa.jpg",
    "icongray": "https://steamcdn-a.akamaihd.net/steamcommunity/public/images/apps/387240/1a9a81a299b7bc495cc2cd9c12e158c5b31a18d7.jpg"
  },
  {
    "name": "achy78",
    "defaultvalue": 0,
    "displayName": "Telaros Rift",
    "hidden": 0,
    "description": "Complete all missions on planet 8",
    "icon": "https://steamcdn-a.akamaihd.net/steamcommunity/public/images/apps/387240/49bc8eb323a2d5de10c883a5549f51c94fd581ea.jpg",
    "icongray": "https://steamcdn-a.akamaihd.net/steamcommunity/public/images/apps/387240/17012584548b70429a35b348df5c81e11a0316f9.jpg"
  },
  {
    "name": "achy79",
    "defaultvalue": 0,
    "displayName": "Elite Pilot",
    "hidden": 0,
    "description": "Max out one of the elite skills",
    "icon": "https://steamcdn-a.akamaihd.net/steamcommunity/public/images/apps/387240/ee41a43efe7259876ce6c6946ff3a4b5e1789b2c.jpg",
    "icongray": "https://steamcdn-a.akamaihd.net/steamcommunity/public/images/apps/387240/cf1581806a3b912effaa29023701eb6e660a0845.jpg"
  },
  {
    "name": "achy80",
    "defaultvalue": 0,
    "displayName": "Space Quest",
    "hidden": 0,
    "description": "Finish your first colony quest",
    "icon": "https://steamcdn-a.akamaihd.net/steamcommunity/public/images/apps/387240/2514cbb3c77f8de3d5e220d6d4450b29d67fc018.jpg",
    "icongray": "https://steamcdn-a.akamaihd.net/steamcommunity/public/images/apps/387240/9d3b43dfb468de989b13b6082b53b2f16879b674.jpg"
  },
  {
    "name": "achy81",
    "defaultvalue": 0,
    "displayName": "Epic Quest",
    "hidden": 0,
    "description": "Finish a S ranked colony quest",
    "icon": "https://steamcdn-a.akamaihd.net/steamcommunity/public/images/apps/387240/4663152c0ac9a1ad9c494f290b676696b7d35609.jpg",
    "icongray": "https://steamcdn-a.akamaihd.net/steamcommunity/public/images/apps/387240/e3adde8c7ef0e51bb2056e78cde8897b9b18b220.jpg"
  },
  {
    "name": "achy82",
    "defaultvalue": 0,
    "displayName": "Quest Master",
    "hidden": 0,
    "description": "Finish 10 Quests",
    "icon": "https://steamcdn-a.akamaihd.net/steamcommunity/public/images/apps/387240/e4afc0720ca8cf0e4ff2b8cd67d6081372ccd889.jpg",
    "icongray": "https://steamcdn-a.akamaihd.net/steamcommunity/public/images/apps/387240/8177aca5ed33c34c78b1b76c473445fa7aa58151.jpg"
  }
]