﻿[
  {
    "name": "kills",
    "defaultvalue": 0,
    "displayName": "Total Kills"
  },
  {
    "name": "crashed",
    "defaultvalue": 0,
    "displayName": "Crashes total"
  },
  {
    "name": "completed",
    "defaultvalue": 0,
    "displayName": "Missions completed"
  }
]