﻿{
  "Dlcs": {},
  "Name": "One Ping Only",
  "AppId": "828030",
  "ImageUrl": "https://steamcdn-a.akamaihd.net/steam/apps/828030/header.jpg?t=1524604956",
  "Languages": [
    "english"
  ],
  "Platforms": {
    "windows": true,
    "mac": false,
    "linux": false
  }
}