﻿{
  "Dlcs": {},
  "Name": "Kokoda VR",
  "AppId": "739960",
  "ImageUrl": "https://steamcdn-a.akamaihd.net/steam/apps/739960/header.jpg?t=1509487101",
  "Languages": [
    "english"
  ],
  "Platforms": {
    "windows": true,
    "mac": false,
    "linux": false
  }
}