﻿{
  "Dlcs": {
    "1054730": {
      "Name": "Faeria - Chronicles of Gagana DLC",
      "ImageUrl": "https://steamcdn-a.akamaihd.net/steam/apps/1054730/header.jpg?t=1587060265"
    },
    "880520": {
      "Name": "Faeria - Premium Edition DLC",
      "ImageUrl": "https://steamcdn-a.akamaihd.net/steam/apps/880520/header.jpg?t=1587060267"
    },
    "880521": {
      "Name": "Faeria - Fall of Everlife DLC",
      "ImageUrl": "https://steamcdn-a.akamaihd.net/steam/apps/880521/header.jpg?t=1587060263"
    },
    "939940": {
      "Name": "Faeria - Resurgence DLC",
      "ImageUrl": "https://steamcdn-a.akamaihd.net/steam/apps/939940/header.jpg?t=1587060269"
    },
    "947950": {
      "Name": "Faeria - Puzzle Pack Elements",
      "ImageUrl": "https://steamcdn-a.akamaihd.net/steam/apps/947950/header.jpg?t=1587060261"
    },
    "1083830": {
      "Name": "Faeria - All Avatars DLC",
      "ImageUrl": "https://steamcdn-a.akamaihd.net/steam/apps/1083830/header.jpg?t=1587060253"
    },
    "1083831": {
      "Name": "Faeria - All CardBacks DLC",
      "ImageUrl": "https://steamcdn-a.akamaihd.net/steam/apps/1083831/header.jpg?t=1587060255"
    },
    "1083832": {
      "Name": "Faeria - All Orbs DLC",
      "ImageUrl": "https://steamcdn-a.akamaihd.net/steam/apps/1083832/header.jpg?t=1587060256"
    },
    "1083833": {
      "Name": "Faeria - All Wells DLC",
      "ImageUrl": "https://steamcdn-a.akamaihd.net/steam/apps/1083833/header.jpg?t=1587060259"
    }
  },
  "Name": "Faeria",
  "AppId": "397060",
  "ImageUrl": "https://steamcdn-a.akamaihd.net/steam/apps/397060/header.jpg?t=1597335929",
  "Languages": [
    "english",
    "french",
    "german",
    "spanish",
    "portuguese",
    "russian",
    "portuguese",
    "italian",
    "japanese",
    "korean",
    "tchinese",
    "czech",
    "schinese"
  ],
  "Platforms": {
    "windows": true,
    "mac": true,
    "linux": true
  }
}