﻿[
  {
    "name": "GATE",
    "defaultvalue": 0,
    "displayName": "The Fight Begins",
    "hidden": 1,
    "icon": "https://steamcdn-a.akamaihd.net/steamcommunity/public/images/apps/747350/7ce7d1b5004aa18507d5bf27b82a65fe363f8f62.jpg",
    "icongray": "https://steamcdn-a.akamaihd.net/steamcommunity/public/images/apps/747350/ab5aab3e2248031f55dbcdd795cb3aa3f254fb4e.jpg"
  },
  {
    "name": "SURTR",
    "defaultvalue": 0,
    "displayName": "Extinguished",
    "hidden": 1,
    "icon": "https://steamcdn-a.akamaihd.net/steamcommunity/public/images/apps/747350/f9bdd601fea9cd249798bf62c869efb5a473b2b7.jpg",
    "icongray": "https://steamcdn-a.akamaihd.net/steamcommunity/public/images/apps/747350/b1ac50849247aac9f574786ea5201be7fc9e1e5f.jpg"
  },
  {
    "name": "VALRAVN",
    "defaultvalue": 0,
    "displayName": "Master of Illusion",
    "hidden": 1,
    "icon": "https://steamcdn-a.akamaihd.net/steamcommunity/public/images/apps/747350/2bc0a5a374bc08866e7803e824b7575948d7f45e.jpg",
    "icongray": "https://steamcdn-a.akamaihd.net/steamcommunity/public/images/apps/747350/c6c7cbb0d64168854303d3d14815c69565fc0a27.jpg"
  },
  {
    "name": "MEETING_HELA",
    "defaultvalue": 0,
    "displayName": "Source of the Darkness",
    "hidden": 1,
    "icon": "https://steamcdn-a.akamaihd.net/steamcommunity/public/images/apps/747350/1c04efae161bb75419c221503605bd53ef2302e5.jpg",
    "icongray": "https://steamcdn-a.akamaihd.net/steamcommunity/public/images/apps/747350/3f9edc2320c8a3c3ca19532796b83d3619a1faf8.jpg"
  },
  {
    "name": "BLINDNESS",
    "defaultvalue": 0,
    "displayName": "Trust Your Senses",
    "hidden": 1,
    "icon": "https://steamcdn-a.akamaihd.net/steamcommunity/public/images/apps/747350/28fdf44574179af6f68ac836dedaa575fc2f44ea.jpg",
    "icongray": "https://steamcdn-a.akamaihd.net/steamcommunity/public/images/apps/747350/d02591f7c8fd4fb34f8b3b3baa724c940ad3429c.jpg"
  },
  {
    "name": "TOWER",
    "defaultvalue": 0,
    "displayName": "Different Perspectives",
    "hidden": 1,
    "icon": "https://steamcdn-a.akamaihd.net/steamcommunity/public/images/apps/747350/e4fae79f2c322c1b4535b5f555d08f0d0e1b1ba3.jpg",
    "icongray": "https://steamcdn-a.akamaihd.net/steamcommunity/public/images/apps/747350/b9f591344bfeb91e33471fe1ccab9633717495ca.jpg"
  },
  {
    "name": "SWAMP",
    "defaultvalue": 0,
    "displayName": "Cure For The Plague",
    "hidden": 1,
    "icon": "https://steamcdn-a.akamaihd.net/steamcommunity/public/images/apps/747350/c29d720317c39c4e147fe780f6648f83aaecfd1a.jpg",
    "icongray": "https://steamcdn-a.akamaihd.net/steamcommunity/public/images/apps/747350/627abc887c734738abb23173c15752f74b9c2359.jpg"
  },
  {
    "name": "LABYRINTH",
    "defaultvalue": 0,
    "displayName": "Escaped",
    "hidden": 1,
    "icon": "https://steamcdn-a.akamaihd.net/steamcommunity/public/images/apps/747350/93fdbd3d26a0618221fbeae8e734e2bb79031dc2.jpg",
    "icongray": "https://steamcdn-a.akamaihd.net/steamcommunity/public/images/apps/747350/ea06b45cf585c0a0a611db2e4cbcb15b1d526101.jpg"
  },
  {
    "name": "GRAM",
    "defaultvalue": 0,
    "displayName": "Gram Released",
    "hidden": 1,
    "icon": "https://steamcdn-a.akamaihd.net/steamcommunity/public/images/apps/747350/711f05dce1e9c867add385a0120fe68dc082f354.jpg",
    "icongray": "https://steamcdn-a.akamaihd.net/steamcommunity/public/images/apps/747350/92e394584928cb0aab907b8027d9192354bedbc1.jpg"
  },
  {
    "name": "SEAOFCORPSES",
    "defaultvalue": 0,
    "displayName": "Warrior",
    "hidden": 1,
    "icon": "https://steamcdn-a.akamaihd.net/steamcommunity/public/images/apps/747350/071d2187b2f8b3647baa630a24e63690f1b90f32.jpg",
    "icongray": "https://steamcdn-a.akamaihd.net/steamcommunity/public/images/apps/747350/3042d2137b3eaa0dbd65d696529dc0327d342dff.jpg"
  },
  {
    "name": "HELHEIM",
    "defaultvalue": 0,
    "displayName": "Into the Mountain",
    "hidden": 1,
    "icon": "https://steamcdn-a.akamaihd.net/steamcommunity/public/images/apps/747350/da838bc35e08942e1302c0bdeb91144101dba3b0.jpg",
    "icongray": "https://steamcdn-a.akamaihd.net/steamcommunity/public/images/apps/747350/cd33e5cdf63dcd612745b52bd4023bfc01dd7474.jpg"
  },
  {
    "name": "FENRIR",
    "defaultvalue": 0,
    "displayName": "Tamed the Beast",
    "hidden": 1,
    "icon": "https://steamcdn-a.akamaihd.net/steamcommunity/public/images/apps/747350/5683198a629bdeed70d2855e4770b1b4e1e26c00.jpg",
    "icongray": "https://steamcdn-a.akamaihd.net/steamcommunity/public/images/apps/747350/05b3aa2b1a4ed7a8a22f62fc7d01bd5861b15f39.jpg"
  },
  {
    "name": "FINAL_HELA",
    "defaultvalue": 0,
    "displayName": "The Final Battle",
    "hidden": 1,
    "icon": "https://steamcdn-a.akamaihd.net/steamcommunity/public/images/apps/747350/eb8c6241d9edaacc5518a4c1d47d9eb2d3ee45e6.jpg",
    "icongray": "https://steamcdn-a.akamaihd.net/steamcommunity/public/images/apps/747350/83c0b37f5e781dd47e29872e3de60e1c2881d80a.jpg"
  },
  {
    "name": "LORESTONES",
    "defaultvalue": 0,
    "displayName": "Stories From the North",
    "hidden": 1,
    "icon": "https://steamcdn-a.akamaihd.net/steamcommunity/public/images/apps/747350/6dd1bfd2668660cee6f168494551d034dd029286.jpg",
    "icongray": "https://steamcdn-a.akamaihd.net/steamcommunity/public/images/apps/747350/9b85897c10219fb3a88082df9ae17ef5ab6d4dbb.jpg"
  }
]