﻿{
  "Dlcs": {},
  "Name": "Dracula 3: The Path of the Dragon",
  "AppId": "289840",
  "ImageUrl": "https://steamcdn-a.akamaihd.net/steam/apps/289840/header.jpg?t=1572543936",
  "Languages": [
    "english",
    "french",
    "italian",
    "german",
    "spanish",
    "russian"
  ],
  "Platforms": {
    "windows": true,
    "mac": true,
    "linux": false
  }
}