﻿{
  "Dlcs": {},
  "Name": "RETNE",
  "AppId": "622380",
  "ImageUrl": "https://steamcdn-a.akamaihd.net/steam/apps/622380/header.jpg?t=1502869180",
  "Languages": [
    "english"
  ],
  "Platforms": {
    "windows": true,
    "mac": false,
    "linux": false
  }
}