﻿[
  {
    "name": "THE_BRIDGE_ACH_0",
    "defaultvalue": 0,
    "displayName": "Thinker",
    "hidden": 0,
    "description": "Finish Chapter I.",
    "icon": "https://steamcdn-a.akamaihd.net/steamcommunity/public/images/apps/204240/3e74b571836cfb9259c0d0366d1c3ebcef639977.jpg",
    "icongray": "https://steamcdn-a.akamaihd.net/steamcommunity/public/images/apps/204240/8b97e2ebd302c24943ded8906fbbb8d4cc8833f9.jpg"
  },
  {
    "name": "THE_BRIDGE_ACH_1",
    "defaultvalue": 0,
    "displayName": "Academic",
    "hidden": 0,
    "description": "Finish Chapter II.",
    "icon": "https://steamcdn-a.akamaihd.net/steamcommunity/public/images/apps/204240/ab9cae16bbc19aa61e6bd94baee0fc7016c79147.jpg",
    "icongray": "https://steamcdn-a.akamaihd.net/steamcommunity/public/images/apps/204240/8e2b89257c9b533f43cef57225a683cea5b9dac3.jpg"
  },
  {
    "name": "THE_BRIDGE_ACH_2",
    "defaultvalue": 0,
    "displayName": "Scholar",
    "hidden": 0,
    "description": "Finish Chapter III.",
    "icon": "https://steamcdn-a.akamaihd.net/steamcommunity/public/images/apps/204240/a87128cdcb18e8dd83be2f4f1013db1ef69a1c48.jpg",
    "icongray": "https://steamcdn-a.akamaihd.net/steamcommunity/public/images/apps/204240/afbdaaa93f0bfea7b0c2e639160f5b639c37dc3f.jpg"
  },
  {
    "name": "THE_BRIDGE_ACH_3",
    "defaultvalue": 0,
    "displayName": "Challenger",
    "hidden": 0,
    "description": "Finish Chapter IV.",
    "icon": "https://steamcdn-a.akamaihd.net/steamcommunity/public/images/apps/204240/1d3af0033650678c40f64f051d52467a79c90016.jpg",
    "icongray": "https://steamcdn-a.akamaihd.net/steamcommunity/public/images/apps/204240/2731cc3292c27f07561ca1a9dbc45e70a017e408.jpg"
  },
  {
    "name": "THE_BRIDGE_ACH_4",
    "defaultvalue": 0,
    "displayName": "Bridgewalker",
    "hidden": 0,
    "description": "Cross The Bridge.",
    "icon": "https://steamcdn-a.akamaihd.net/steamcommunity/public/images/apps/204240/fdc5309c7d07ff98b7431ffe810499d41d0f00db.jpg",
    "icongray": "https://steamcdn-a.akamaihd.net/steamcommunity/public/images/apps/204240/ad78f9cf19d47071c20a9a173c32a3fac1615d81.jpg"
  },
  {
    "name": "THE_BRIDGE_ACH_5",
    "defaultvalue": 0,
    "displayName": "Whisperer",
    "hidden": 0,
    "description": "Complete The Library being no louder than a whisper.",
    "icon": "https://steamcdn-a.akamaihd.net/steamcommunity/public/images/apps/204240/be62c17f80e950163681b10d2e8da499c9ef76c5.jpg",
    "icongray": "https://steamcdn-a.akamaihd.net/steamcommunity/public/images/apps/204240/26cb1bf4a59b881a04af16568561cd508587050f.jpg"
  },
  {
    "name": "THE_BRIDGE_ACH_6",
    "defaultvalue": 0,
    "displayName": "Catcher",
    "hidden": 0,
    "description": "Catch the unchained key in The Mirrored Courtyard.",
    "icon": "https://steamcdn-a.akamaihd.net/steamcommunity/public/images/apps/204240/0b0a79ae94ee3b33db2eefedbcab6a23051ead0b.jpg",
    "icongray": "https://steamcdn-a.akamaihd.net/steamcommunity/public/images/apps/204240/a251b18dc7edb928e0403e6ee8917207f0204e49.jpg"
  },
  {
    "name": "THE_BRIDGE_ACH_7",
    "defaultvalue": 0,
    "displayName": "Runner",
    "hidden": 0,
    "description": "Complete The Timepiece in less than 1 minute.",
    "icon": "https://steamcdn-a.akamaihd.net/steamcommunity/public/images/apps/204240/2518ff2399cd4169dea6bee9b4ecf8124dea1be5.jpg",
    "icongray": "https://steamcdn-a.akamaihd.net/steamcommunity/public/images/apps/204240/22547b51081cee586cf9d915108a9b3f08ffd79c.jpg"
  },
  {
    "name": "THE_BRIDGE_ACH_8",
    "defaultvalue": 0,
    "displayName": "Aftermath-Inverter",
    "hidden": 0,
    "description": "Complete The Aftermath with 2 inversions.",
    "icon": "https://steamcdn-a.akamaihd.net/steamcommunity/public/images/apps/204240/b8bc151d00a7da9838d36b486990dfdf6831ec4e.jpg",
    "icongray": "https://steamcdn-a.akamaihd.net/steamcommunity/public/images/apps/204240/e53f9d49bc2cd920f066983eff50d493638b9212.jpg"
  },
  {
    "name": "THE_BRIDGE_ACH_9",
    "defaultvalue": 0,
    "displayName": "Corridor-Inverter",
    "hidden": 0,
    "description": "Complete The Corridor with 3 inversions.",
    "icon": "https://steamcdn-a.akamaihd.net/steamcommunity/public/images/apps/204240/da0ddc6f0e4a0a1fe2e0dbd43c86d2c531cb10b5.jpg",
    "icongray": "https://steamcdn-a.akamaihd.net/steamcommunity/public/images/apps/204240/8cf18ce2e16734b78a56166e15c7d806c4d184db.jpg"
  },
  {
    "name": "THE_BRIDGE_ACH_10",
    "defaultvalue": 0,
    "displayName": "Garden-Inverter",
    "hidden": 0,
    "description": "Complete The Mirrored Garden with 5 inversions.",
    "icon": "https://steamcdn-a.akamaihd.net/steamcommunity/public/images/apps/204240/9ee08ca48b01b79eaaa5d3bd16de0b0e0ea1654a.jpg",
    "icongray": "https://steamcdn-a.akamaihd.net/steamcommunity/public/images/apps/204240/cfac75f26f90ddb78a42148ab2c22a2539a27dba.jpg"
  },
  {
    "name": "THE_BRIDGE_ACH_11",
    "defaultvalue": 0,
    "displayName": "Plummeter",
    "hidden": 0,
    "description": "Fall for 30 seconds.",
    "icon": "https://steamcdn-a.akamaihd.net/steamcommunity/public/images/apps/204240/2f89fc3b618caf4156b0d5c92871c2efca523a6c.jpg",
    "icongray": "https://steamcdn-a.akamaihd.net/steamcommunity/public/images/apps/204240/8cd220ab51dcdfa7246c7a5f6f15684ac3fb69e1.jpg"
  },
  {
    "name": "THE_BRIDGE_ACH_12",
    "defaultvalue": 0,
    "displayName": "Refrainer",
    "hidden": 0,
    "description": "Complete The Precipice without rotating.",
    "icon": "https://steamcdn-a.akamaihd.net/steamcommunity/public/images/apps/204240/1bae79bbdf7094c963556e065c8eaeabdd74352d.jpg",
    "icongray": "https://steamcdn-a.akamaihd.net/steamcommunity/public/images/apps/204240/c621079d1e1b9ac3370e78d9202c8f0549cf0b23.jpg"
  },
  {
    "name": "THE_BRIDGE_ACH_13",
    "defaultvalue": 0,
    "displayName": "Slider",
    "hidden": 0,
    "description": "Complete The Intersection without walking.",
    "icon": "https://steamcdn-a.akamaihd.net/steamcommunity/public/images/apps/204240/0e467397b7cc364429f5c59233e473fb13279030.jpg",
    "icongray": "https://steamcdn-a.akamaihd.net/steamcommunity/public/images/apps/204240/4e2abc47b1498953f6c16d454fbe416455377aa4.jpg"
  },
  {
    "name": "THE_BRIDGE_ACH_14",
    "defaultvalue": 0,
    "displayName": "Visionary",
    "hidden": 0,
    "description": "Complete all mirrored worlds.",
    "icon": "https://steamcdn-a.akamaihd.net/steamcommunity/public/images/apps/204240/35119647adce5dae409764a3f03b02166b9d1a61.jpg",
    "icongray": "https://steamcdn-a.akamaihd.net/steamcommunity/public/images/apps/204240/46fc2f4d121b43c264b198716ae1f6cd5456b35d.jpg"
  },
  {
    "name": "THE_BRIDGE_ACH_15",
    "defaultvalue": 0,
    "displayName": "Collector",
    "hidden": 0,
    "description": "Collect all hidden wisps.",
    "icon": "https://steamcdn-a.akamaihd.net/steamcommunity/public/images/apps/204240/f65b4c693e6aa1f612869f56912fc5e53edd6337.jpg",
    "icongray": "https://steamcdn-a.akamaihd.net/steamcommunity/public/images/apps/204240/18be83f027ad8c2051726b8893368da495212564.jpg"
  },
  {
    "name": "THE_BRIDGE_ACH_16",
    "defaultvalue": 0,
    "displayName": "Heretic",
    "hidden": 0,
    "description": "Finish Mirrored Chapter I.",
    "icon": "https://steamcdn-a.akamaihd.net/steamcommunity/public/images/apps/204240/b40936e11c8aa9dda64bc0f0863f35819ca45e3a.jpg",
    "icongray": "https://steamcdn-a.akamaihd.net/steamcommunity/public/images/apps/204240/c9433ec4f0962649cce6784a65b80aefe2ead1e2.jpg"
  },
  {
    "name": "THE_BRIDGE_ACH_17",
    "defaultvalue": 0,
    "displayName": "Outcast",
    "hidden": 0,
    "description": "Finish Mirrored Chapter II.",
    "icon": "https://steamcdn-a.akamaihd.net/steamcommunity/public/images/apps/204240/8dfdef82cd3b5b126e7a8d6a5d476354691a4bdc.jpg",
    "icongray": "https://steamcdn-a.akamaihd.net/steamcommunity/public/images/apps/204240/aa3901c404880bfd5717f83dbd19c4c799e77cf7.jpg"
  },
  {
    "name": "THE_BRIDGE_ACH_18",
    "defaultvalue": 0,
    "displayName": "Hermit",
    "hidden": 0,
    "description": "Finish Mirrored Chapter III.",
    "icon": "https://steamcdn-a.akamaihd.net/steamcommunity/public/images/apps/204240/d84a69456d9621096d33d9e3f00fed1ff646425d.jpg",
    "icongray": "https://steamcdn-a.akamaihd.net/steamcommunity/public/images/apps/204240/8b6d1fc68b76f64184fb8026b4355ebcaf176595.jpg"
  },
  {
    "name": "THE_BRIDGE_ACH_19",
    "defaultvalue": 0,
    "displayName": "Genius",
    "hidden": 0,
    "description": "Finish Mirrored Chapter IV.",
    "icon": "https://steamcdn-a.akamaihd.net/steamcommunity/public/images/apps/204240/de1029fca7379041ba7c757c1a90d3f0774d972e.jpg",
    "icongray": "https://steamcdn-a.akamaihd.net/steamcommunity/public/images/apps/204240/99aa868d690d97afb5c40d4f918787a6e8865546.jpg"
  }
]