﻿[
  {
    "name": "Collect_Dungeon_Tutorial",
    "defaultvalue": 0,
    "displayName": "Collectables: Pumpkin Field"
  },
  {
    "name": "Collect_Dungeon_Wasserfall",
    "defaultvalue": 0,
    "displayName": "Collectables: Vashua Remains"
  },
  {
    "name": "Collect_Dungeon_Wasserfall_Optional",
    "defaultvalue": 0,
    "displayName": "Collectables: Vashua Foundation"
  }
]