﻿{
  "Dlcs": {},
  "Name": "Snake 3D Adventures",
  "AppId": "572240",
  "ImageUrl": "https://steamcdn-a.akamaihd.net/steam/apps/572240/header.jpg?t=1502262890",
  "Languages": [
    "english",
    "russian",
    "french",
    "german",
    "schinese",
    "korean",
    "portuguese",
    "japanese"
  ],
  "Platforms": {
    "windows": true,
    "mac": false,
    "linux": false
  }
}