﻿{
  "Dlcs": {},
  "Name": "Damned Nation Reborn",
  "AppId": "345710",
  "ImageUrl": "https://steamcdn-a.akamaihd.net/steam/apps/345710/header.jpg?t=1447367988",
  "Languages": [
    "english"
  ],
  "Platforms": {
    "windows": true,
    "mac": false,
    "linux": false
  }
}