﻿[
  {
    "name": "ach_fin_jeu_xpb",
    "defaultvalue": 0,
    "displayName": "end game",
    "hidden": 0,
    "description": "end game",
    "icon": "https://steamcdn-a.akamaihd.net/steamcommunity/public/images/apps/791370/5d56382b789a5d06c59504b69364f9776a60d931.jpg",
    "icongray": "https://steamcdn-a.akamaihd.net/steamcommunity/public/images/apps/791370/d9b490c6c25b34af8257a41459dae23c3dcdee58.jpg"
  },
  {
    "name": "ach_donjons_xpb",
    "defaultvalue": 0,
    "displayName": "Dungeons explored",
    "hidden": 0,
    "description": "Dungeons explored",
    "icon": "https://steamcdn-a.akamaihd.net/steamcommunity/public/images/apps/791370/d2313d0a67497eb773476b38140f1aaaa703af84.jpg",
    "icongray": "https://steamcdn-a.akamaihd.net/steamcommunity/public/images/apps/791370/ce4d37d3ed95c9856889d4313d4dfeb6c8e639fa.jpg"
  },
  {
    "name": "ach_caves_xpb",
    "defaultvalue": 0,
    "displayName": "Caves explored",
    "hidden": 0,
    "description": "Caves explored",
    "icon": "https://steamcdn-a.akamaihd.net/steamcommunity/public/images/apps/791370/f4c563af45b4b14ebd5b8eac39c9c8319d408cd8.jpg",
    "icongray": "https://steamcdn-a.akamaihd.net/steamcommunity/public/images/apps/791370/ffb128df32c1ca767d7bde02c38843cbe44ad8d9.jpg"
  },
  {
    "name": "ach_niveau_xpb",
    "defaultvalue": 0,
    "displayName": "Level 40",
    "hidden": 0,
    "description": "Level 40",
    "icon": "https://steamcdn-a.akamaihd.net/steamcommunity/public/images/apps/791370/f1716fefac883c8222d451c5220a4aa8fb10b5dc.jpg",
    "icongray": "https://steamcdn-a.akamaihd.net/steamcommunity/public/images/apps/791370/eab6abde0e8674467d93b97022d6f650bcb3fe9d.jpg"
  },
  {
    "name": "ach_exploration_xpb",
    "defaultvalue": 0,
    "displayName": "Map exploration",
    "hidden": 0,
    "description": "Map exploration",
    "icon": "https://steamcdn-a.akamaihd.net/steamcommunity/public/images/apps/791370/da4201e11b67c78ccabec498fcc4585a75b79130.jpg",
    "icongray": "https://steamcdn-a.akamaihd.net/steamcommunity/public/images/apps/791370/982cd4d3174b8bb6b27c148d71500271b5443d1b.jpg"
  },
  {
    "name": "ach_quetes_message_xpb",
    "defaultvalue": 0,
    "displayName": "Message quests",
    "hidden": 0,
    "description": "Message quests",
    "icon": "https://steamcdn-a.akamaihd.net/steamcommunity/public/images/apps/791370/28e4ec7e3d1ec0e32b54f5f8cfbfd9a553421087.jpg",
    "icongray": "https://steamcdn-a.akamaihd.net/steamcommunity/public/images/apps/791370/9f735bfd1570f24f3a5d0abf7004a275d9045c66.jpg"
  },
  {
    "name": "ach_quetes_combat_xpb",
    "defaultvalue": 0,
    "displayName": "Fight quests",
    "hidden": 0,
    "description": "Fight quests",
    "icon": "https://steamcdn-a.akamaihd.net/steamcommunity/public/images/apps/791370/7293eb45a5eefe729ace0d561006b79b71457e7e.jpg",
    "icongray": "https://steamcdn-a.akamaihd.net/steamcommunity/public/images/apps/791370/46977875cf3433d4499d8fa7d61943c516705a31.jpg"
  },
  {
    "name": "ach_anneau_bleu_xpb",
    "defaultvalue": 0,
    "displayName": "Blue ring",
    "hidden": 0,
    "description": "Blue ring",
    "icon": "https://steamcdn-a.akamaihd.net/steamcommunity/public/images/apps/791370/0cbf8b4b782cab62aca616392e23e9c19054cb1a.jpg",
    "icongray": "https://steamcdn-a.akamaihd.net/steamcommunity/public/images/apps/791370/4eb697f604d99028472fd19b66b4d32fdf69ce0b.jpg"
  },
  {
    "name": "ach_anneau_rouge_xpb",
    "defaultvalue": 0,
    "displayName": "Red ring",
    "hidden": 0,
    "description": "Red ring",
    "icon": "https://steamcdn-a.akamaihd.net/steamcommunity/public/images/apps/791370/e25486bfe88dafaad39ffc5fd37424ec8c6b77a9.jpg",
    "icongray": "https://steamcdn-a.akamaihd.net/steamcommunity/public/images/apps/791370/4bad0ad59a192afa86eeb0bb3f544d5190f49edc.jpg"
  },
  {
    "name": "ach_potions_xpb",
    "defaultvalue": 0,
    "displayName": "Alchemy",
    "hidden": 0,
    "description": "Alchemy",
    "icon": "https://steamcdn-a.akamaihd.net/steamcommunity/public/images/apps/791370/898c5d94654534c6d97f0072652f65f54988830f.jpg",
    "icongray": "https://steamcdn-a.akamaihd.net/steamcommunity/public/images/apps/791370/761dd477b39e2e2fff873cda17f4ffa88d9948a4.jpg"
  },
  {
    "name": "ach_recettes_xpb",
    "defaultvalue": 0,
    "displayName": "Recipes",
    "hidden": 0,
    "description": "Recipes",
    "icon": "https://steamcdn-a.akamaihd.net/steamcommunity/public/images/apps/791370/c9424219012f6f4f721a35ae21890f85215777a0.jpg",
    "icongray": "https://steamcdn-a.akamaihd.net/steamcommunity/public/images/apps/791370/91f46716ff9b0ccd51cdfb5805d4bdf45c50ccc4.jpg"
  },
  {
    "name": "ach_sorts_xpb",
    "defaultvalue": 0,
    "displayName": "Spells",
    "hidden": 0,
    "description": "Spells",
    "icon": "https://steamcdn-a.akamaihd.net/steamcommunity/public/images/apps/791370/3da6167e87874f4f9115ee7c1132ac243591b5ed.jpg",
    "icongray": "https://steamcdn-a.akamaihd.net/steamcommunity/public/images/apps/791370/b083d9359074762bc55015aedd5b0d4f8d94747f.jpg"
  },
  {
    "name": "ach_teleporteurs_xpb",
    "defaultvalue": 0,
    "displayName": "Teleporters",
    "hidden": 0,
    "description": "Teleporters",
    "icon": "https://steamcdn-a.akamaihd.net/steamcommunity/public/images/apps/791370/64ae2401ce9706fb8e6f314e2ee1acadc2b26089.jpg",
    "icongray": "https://steamcdn-a.akamaihd.net/steamcommunity/public/images/apps/791370/a398f968878670c6b82103f1f02db99b841ac7e9.jpg"
  },
  {
    "name": "ach_bateau_xpb",
    "defaultvalue": 0,
    "displayName": "Boat",
    "hidden": 0,
    "description": "Boat",
    "icon": "https://steamcdn-a.akamaihd.net/steamcommunity/public/images/apps/791370/65d96626fe5afcb5b010286fa9fa47bca17d1970.jpg",
    "icongray": "https://steamcdn-a.akamaihd.net/steamcommunity/public/images/apps/791370/67e0ac92d2fda54365eb2eb206e45e452968c8fd.jpg"
  },
  {
    "name": "ach_equipement_blanc_xpb",
    "defaultvalue": 0,
    "displayName": "White equipment",
    "hidden": 0,
    "description": "White equipment",
    "icon": "https://steamcdn-a.akamaihd.net/steamcommunity/public/images/apps/791370/1fe6b64c4ffaa3284b417d0e6b2c481029de4e5a.jpg",
    "icongray": "https://steamcdn-a.akamaihd.net/steamcommunity/public/images/apps/791370/9c4f8f07f38dda599f677605ce9f6d129d21b80e.jpg"
  }
]