﻿{
  "Dlcs": {},
  "Name": "Smash Party VR",
  "AppId": "568690",
  "ImageUrl": "https://steamcdn-a.akamaihd.net/steam/apps/568690/header.jpg?t=1486573585",
  "Languages": [
    "english"
  ],
  "Platforms": {
    "windows": true,
    "mac": false,
    "linux": false
  }
}