﻿[
  {
    "name": "LEVEL",
    "defaultvalue": 0,
    "displayName": "Level"
  },
  {
    "name": "CLINTZ",
    "defaultvalue": 0,
    "displayName": "Clintz"
  },
  {
    "name": "DAILYBOX",
    "defaultvalue": 0,
    "displayName": "Dailybox"
  },
  {
    "name": "RANK",
    "defaultvalue": 0,
    "displayName": "Rank"
  },
  {
    "name": "FIGHTS",
    "defaultvalue": 0,
    "displayName": "Fights"
  }
]