﻿[
  {
    "name": "succubus_ending",
    "defaultvalue": 0,
    "displayName": "Pull it out!",
    "hidden": 0,
    "description": "succubus ending",
    "icon": "https://steamcdn-a.akamaihd.net/steamcommunity/public/images/apps/879420/df62701ece6bb6af860c1a7e6656e4d98925d8a5.jpg",
    "icongray": "https://steamcdn-a.akamaihd.net/steamcommunity/public/images/apps/879420/d09f3cb65a6b9e8be9a54421757103bca02abaac.jpg"
  },
  {
    "name": "nimrod_ending",
    "defaultvalue": 0,
    "displayName": "I was born to rule!",
    "hidden": 0,
    "description": "Nimrod ending",
    "icon": "https://steamcdn-a.akamaihd.net/steamcommunity/public/images/apps/879420/816ec3932c14c2bcdbf6e8a8a879a10901831747.jpg",
    "icongray": "https://steamcdn-a.akamaihd.net/steamcommunity/public/images/apps/879420/b02fdcd5a402df2a0ad9233bc5047e7deaf143c0.jpg"
  },
  {
    "name": "good_and_evil",
    "defaultvalue": 0,
    "displayName": "Good and Evil",
    "hidden": 0,
    "description": "Good and Evil (Unlock Evil and Angel ending)",
    "icon": "https://steamcdn-a.akamaihd.net/steamcommunity/public/images/apps/879420/788d076662391e227f8e4c51e6d318c3462994a4.jpg",
    "icongray": "https://steamcdn-a.akamaihd.net/steamcommunity/public/images/apps/879420/163f3c65e35713cb72d8e13ff04b0a41f744b021.jpg"
  },
  {
    "name": "baphomet_ending",
    "defaultvalue": 0,
    "displayName": "Your soul is mine!",
    "hidden": 0,
    "description": "Baphomet ending",
    "icon": "https://steamcdn-a.akamaihd.net/steamcommunity/public/images/apps/879420/96343f2395e43d5ab56d0033fcd79d1f76825e48.jpg",
    "icongray": "https://steamcdn-a.akamaihd.net/steamcommunity/public/images/apps/879420/b1a95696a405f43118761f4c9de1d6ee295a062e.jpg"
  },
  {
    "name": "find_all_secret_rooms",
    "defaultvalue": 0,
    "displayName": "Lara would be proud!",
    "hidden": 0,
    "description": "Find all secret rooms",
    "icon": "https://steamcdn-a.akamaihd.net/steamcommunity/public/images/apps/879420/91bc9524bcd3379d4eaa1aad60b7850ad518206e.jpg",
    "icongray": "https://steamcdn-a.akamaihd.net/steamcommunity/public/images/apps/879420/20ee63f4edb808f1085547d5a7bdd9b2025eefdf.jpg"
  },
  {
    "name": "normal_ending",
    "defaultvalue": 0,
    "displayName": "The Scarlet Woman",
    "hidden": 0,
    "description": "Normal ending",
    "icon": "https://steamcdn-a.akamaihd.net/steamcommunity/public/images/apps/879420/47dfb98dda0a0f01d9bacf0b357dbb22703286b6.jpg",
    "icongray": "https://steamcdn-a.akamaihd.net/steamcommunity/public/images/apps/879420/c85d23c86424ea3d8869427eec7a5d46a8b86435.jpg"
  },
  {
    "name": "find_2_red_chambers",
    "defaultvalue": 0,
    "displayName": "She looks good in red",
    "hidden": 0,
    "description": "Find 2 red chambers ",
    "icon": "https://steamcdn-a.akamaihd.net/steamcommunity/public/images/apps/879420/39e8fcd314af39809ba153e38d915b30ca5e9ab1.jpg",
    "icongray": "https://steamcdn-a.akamaihd.net/steamcommunity/public/images/apps/879420/60aa0ea1afc76d2dc064d027228162a01c48c72a.jpg"
  },
  {
    "name": "find_2_gold_chambers",
    "defaultvalue": 0,
    "displayName": "The richest man in hell",
    "hidden": 0,
    "description": "Find 4 gold chambers ",
    "icon": "https://steamcdn-a.akamaihd.net/steamcommunity/public/images/apps/879420/aca9d7c86781658c493a49a23a1bca9737387155.jpg",
    "icongray": "https://steamcdn-a.akamaihd.net/steamcommunity/public/images/apps/879420/0098184fc351d9720e54144f770dd6508a24acab.jpg"
  },
  {
    "name": "max_out_every_skill",
    "defaultvalue": 0,
    "displayName": "I have a beautiful soul!",
    "hidden": 0,
    "description": "Max out every skill",
    "icon": "https://steamcdn-a.akamaihd.net/steamcommunity/public/images/apps/879420/2aa403b6d8e72c8686e76167e9d2f315ce429e8a.jpg",
    "icongray": "https://steamcdn-a.akamaihd.net/steamcommunity/public/images/apps/879420/f6546ace90c2ae54f8e0a7a82ce06588c96e5a95.jpg"
  },
  {
    "name": "unlock_all_letters_and_notes",
    "defaultvalue": 0,
    "displayName": "You looks just like your father",
    "hidden": 0,
    "description": "Unlock all letters and notes",
    "icon": "https://steamcdn-a.akamaihd.net/steamcommunity/public/images/apps/879420/4d11cfaecad66e99805830fd0c227a15dc49e56e.jpg",
    "icongray": "https://steamcdn-a.akamaihd.net/steamcommunity/public/images/apps/879420/c462043479096fd3bec839325b40855420ffc59d.jpg"
  },
  {
    "name": "unlock_all_paintings",
    "defaultvalue": 0,
    "displayName": "The great painter",
    "hidden": 0,
    "description": "Unlock all paintings",
    "icon": "https://steamcdn-a.akamaihd.net/steamcommunity/public/images/apps/879420/8c216534cd8ed2f0616bf0edf8446e2f0f299d98.jpg",
    "icongray": "https://steamcdn-a.akamaihd.net/steamcommunity/public/images/apps/879420/abc5f169680cf9056275eeef21cb9e497796d133.jpg"
  },
  {
    "name": "unlock_all_comic_pages",
    "defaultvalue": 0,
    "displayName": "What have I done?",
    "hidden": 0,
    "description": "Unlock all comic pages",
    "icon": "https://steamcdn-a.akamaihd.net/steamcommunity/public/images/apps/879420/608f3f0ced0917fca2b662de2ab3f35bf61e6726.jpg",
    "icongray": "https://steamcdn-a.akamaihd.net/steamcommunity/public/images/apps/879420/f91c989e32f3ca6d1df790a8d35e374ad6b95b44.jpg"
  },
  {
    "name": "unlock_all_characters_in_3d_viewer",
    "defaultvalue": 0,
    "displayName": "Let me see you",
    "hidden": 0,
    "description": "Unlock all characters in 3d viewer",
    "icon": "https://steamcdn-a.akamaihd.net/steamcommunity/public/images/apps/879420/ae581012ce2cda6cfc3f264a270ea54eb800c3d5.jpg",
    "icongray": "https://steamcdn-a.akamaihd.net/steamcommunity/public/images/apps/879420/de18a92ff7e731669620357ec3f4321525d1f7a9.jpg"
  },
  {
    "name": "unlock_madman_ending",
    "defaultvalue": 0,
    "displayName": "I found a job!",
    "hidden": 0,
    "description": "Unlock madman ending",
    "icon": "https://steamcdn-a.akamaihd.net/steamcommunity/public/images/apps/879420/d538a5782a6dac0abe304e0fd04f9dfc50ff7aef.jpg",
    "icongray": "https://steamcdn-a.akamaihd.net/steamcommunity/public/images/apps/879420/c2b20727487350a0969c9767f260d446ad4483d7.jpg"
  },
  {
    "name": "unlock_everything_in_gallery",
    "defaultvalue": 0,
    "displayName": "I am enlightened",
    "hidden": 0,
    "description": "Unlock everything in gallery",
    "icon": "https://steamcdn-a.akamaihd.net/steamcommunity/public/images/apps/879420/c45fd08693d724f7692bffec04932f5fdebe06b0.jpg",
    "icongray": "https://steamcdn-a.akamaihd.net/steamcommunity/public/images/apps/879420/7a7fbdb4ef299ae848ca5cf5b48b0c0c44954439.jpg"
  },
  {
    "name": "finish_1_level",
    "defaultvalue": 0,
    "displayName": "Wait for me my Goddess!",
    "hidden": 0,
    "description": "Finish 1 level",
    "icon": "https://steamcdn-a.akamaihd.net/steamcommunity/public/images/apps/879420/251ea77149ec31249f43f953046a381c6298c41f.jpg",
    "icongray": "https://steamcdn-a.akamaihd.net/steamcommunity/public/images/apps/879420/2b681a2cc910357caccee12d8f61333f13e09052.jpg"
  },
  {
    "name": "finish_2_level",
    "defaultvalue": 0,
    "displayName": "Pact with the devil",
    "hidden": 0,
    "description": "Finish 2 level",
    "icon": "https://steamcdn-a.akamaihd.net/steamcommunity/public/images/apps/879420/a18040a7db528cfba778f18cbec68f7fb46b4724.jpg",
    "icongray": "https://steamcdn-a.akamaihd.net/steamcommunity/public/images/apps/879420/03aea65793f544e96ee7fbb0a63f57ff2e77f43e.jpg"
  },
  {
    "name": "finish_3_level",
    "defaultvalue": 0,
    "displayName": "To the sunset!",
    "hidden": 0,
    "description": "Finish 3 level",
    "icon": "https://steamcdn-a.akamaihd.net/steamcommunity/public/images/apps/879420/f6cc0493fee9839140cb2500acf774b24e9fb6b6.jpg",
    "icongray": "https://steamcdn-a.akamaihd.net/steamcommunity/public/images/apps/879420/177d29f91e2626289980d6f5604d937348d86107.jpg"
  },
  {
    "name": "finish_4_level",
    "defaultvalue": 0,
    "displayName": "Never ending Agony",
    "hidden": 0,
    "description": "Finish 4 level",
    "icon": "https://steamcdn-a.akamaihd.net/steamcommunity/public/images/apps/879420/71459a6fd29b592738198bb33754e87d7c22a423.jpg",
    "icongray": "https://steamcdn-a.akamaihd.net/steamcommunity/public/images/apps/879420/01498e25c898172fe2cb352789b6b4bc90149d30.jpg"
  },
  {
    "name": "survive_a_level_in_agony_mode",
    "defaultvalue": 0,
    "displayName": "Survivor",
    "hidden": 0,
    "description": "Survive a level in Agony Mode",
    "icon": "https://steamcdn-a.akamaihd.net/steamcommunity/public/images/apps/879420/2c8e9b46a1da9d9ce06a3cf45bf562f5cbc8cfae.jpg",
    "icongray": "https://steamcdn-a.akamaihd.net/steamcommunity/public/images/apps/879420/b0a9d65c40a1edbd33a1f3a69f4d576221e0d717.jpg"
  },
  {
    "name": "possess_onoskelis",
    "defaultvalue": 0,
    "displayName": "Im thirsty!",
    "hidden": 0,
    "description": "Possess onoskelis",
    "icon": "https://steamcdn-a.akamaihd.net/steamcommunity/public/images/apps/879420/12ef63da8b056b38fc56fbe5bad2c0a550167b13.jpg",
    "icongray": "https://steamcdn-a.akamaihd.net/steamcommunity/public/images/apps/879420/2ba1ef1b8d9e27ab042b736b8a577c5d80d74af8.jpg"
  },
  {
    "name": "possess_chort",
    "defaultvalue": 0,
    "displayName": "The force is with me",
    "hidden": 0,
    "description": "Possess a chort",
    "icon": "https://steamcdn-a.akamaihd.net/steamcommunity/public/images/apps/879420/1428855758e7032abadca4b265b9c3cddcb3eec9.jpg",
    "icongray": "https://steamcdn-a.akamaihd.net/steamcommunity/public/images/apps/879420/330f65785c1537111ff521c266b870e6ecc489f5.jpg"
  },
  {
    "name": "possess_ifrit",
    "defaultvalue": 0,
    "displayName": "Im on fire! But i like it.",
    "hidden": 0,
    "description": "Possess an ifrit",
    "icon": "https://steamcdn-a.akamaihd.net/steamcommunity/public/images/apps/879420/14f2e88a3738a2f8eae8f5a7256dd2dc6d3df468.jpg",
    "icongray": "https://steamcdn-a.akamaihd.net/steamcommunity/public/images/apps/879420/3fd3d482541cb20107d6e408fc67237160905c72.jpg"
  },
  {
    "name": "find_peanut_in_the_frozen_caves",
    "defaultvalue": 0,
    "displayName": "Ice Age",
    "hidden": 1,
    "icon": "https://steamcdn-a.akamaihd.net/steamcommunity/public/images/apps/879420/3984b6f71c120121e9fbf6f6e776b50c6fcfd1f7.jpg",
    "icongray": "https://steamcdn-a.akamaihd.net/steamcommunity/public/images/apps/879420/3f2bb80911ad718d29a45b31f1585923e5312946.jpg"
  },
  {
    "name": "try_to_push_onoskelis_to_the_pit",
    "defaultvalue": 0,
    "displayName": "Nice try",
    "hidden": 0,
    "description": "Try to push an onoskelis to the pit",
    "icon": "https://steamcdn-a.akamaihd.net/steamcommunity/public/images/apps/879420/5ffa6622e543552fad9255a339bb8d6a3026030a.jpg",
    "icongray": "https://steamcdn-a.akamaihd.net/steamcommunity/public/images/apps/879420/1a0339603de81b22d063ba35f8f6eca9b9778a8e.jpg"
  },
  {
    "name": "push_and_kill_onoskelis",
    "defaultvalue": 0,
    "displayName": "Demon slayer",
    "hidden": 0,
    "description": "Push and kill an onoskelis",
    "icon": "https://steamcdn-a.akamaihd.net/steamcommunity/public/images/apps/879420/448ddedea650460bcbd9263ab2db848f403317e8.jpg",
    "icongray": "https://steamcdn-a.akamaihd.net/steamcommunity/public/images/apps/879420/1c58d1276456d0b7f5d49898476da91d255a473f.jpg"
  },
  {
    "name": "survive_kali_bossfight",
    "defaultvalue": 0,
    "displayName": "It's a secret",
    "hidden": 0,
    "description": "Find a secret room",
    "icon": "https://steamcdn-a.akamaihd.net/steamcommunity/public/images/apps/879420/20c22cbb471c794367ce357680b7a14599780495.jpg",
    "icongray": "https://steamcdn-a.akamaihd.net/steamcommunity/public/images/apps/879420/5447219bcf1f248c7f8b3ee0b772a5ae74bd5935.jpg"
  },
  {
    "name": "survive_baphomet_bossfight",
    "defaultvalue": 0,
    "displayName": "Did I just bore him?",
    "hidden": 0,
    "description": "Survive Baphomet bossfight",
    "icon": "https://steamcdn-a.akamaihd.net/steamcommunity/public/images/apps/879420/a22deb7fa4d696edfa0b0f2da0cd60fc5aac508c.jpg",
    "icongray": "https://steamcdn-a.akamaihd.net/steamcommunity/public/images/apps/879420/dea1dc0d317f2e975b91d68d6b8ce544380bae49.jpg"
  },
  {
    "name": "kill_enormous_chort",
    "defaultvalue": 0,
    "displayName": "There is always something bigger",
    "hidden": 0,
    "description": "Kill an enormous chort",
    "icon": "https://steamcdn-a.akamaihd.net/steamcommunity/public/images/apps/879420/e736cdaa394bdeee4db566526b2ab675d92290a4.jpg",
    "icongray": "https://steamcdn-a.akamaihd.net/steamcommunity/public/images/apps/879420/1c9e509499d7f209a7c4d1bd6b90a8a2778507ae.jpg"
  },
  {
    "name": "finish_1_level_as_succubus",
    "defaultvalue": 0,
    "displayName": "Where are you, pet?",
    "hidden": 0,
    "description": "Finish 1 level as a succubus",
    "icon": "https://steamcdn-a.akamaihd.net/steamcommunity/public/images/apps/879420/d1af02f215479d8c3b1cea426ebaae7df48700c6.jpg",
    "icongray": "https://steamcdn-a.akamaihd.net/steamcommunity/public/images/apps/879420/0dc943ebf69b2f733b4b397e12e761843f8734cc.jpg"
  },
  {
    "name": "finish_2_level_as_succubus",
    "defaultvalue": 0,
    "displayName": "This time, I will use elevator",
    "hidden": 0,
    "description": "Finish 2 level as a succubus",
    "icon": "https://steamcdn-a.akamaihd.net/steamcommunity/public/images/apps/879420/8bbb1ab6d81f8d0bac216d22d802a2eef46cea3e.jpg",
    "icongray": "https://steamcdn-a.akamaihd.net/steamcommunity/public/images/apps/879420/ff7ce1194a871d84481bef143af0fb40ebb3036f.jpg"
  },
  {
    "name": "finish_3_level_as_succubus",
    "defaultvalue": 0,
    "displayName": "Finally, a bath!",
    "hidden": 0,
    "description": "Finish 3 level as a succubus",
    "icon": "https://steamcdn-a.akamaihd.net/steamcommunity/public/images/apps/879420/6bf8c396e2222c911586a0cab2810ecf32df0152.jpg",
    "icongray": "https://steamcdn-a.akamaihd.net/steamcommunity/public/images/apps/879420/402451ef08ee82a2904892a91187fc14b7cdc0f1.jpg"
  },
  {
    "name": "finish_4_level_as_succubus",
    "defaultvalue": 0,
    "displayName": "What a beautiful taste!",
    "hidden": 0,
    "description": "Finish 4 level as a succubus",
    "icon": "https://steamcdn-a.akamaihd.net/steamcommunity/public/images/apps/879420/a7ee65d86408a3549ede024f7819a97e980ffc09.jpg",
    "icongray": "https://steamcdn-a.akamaihd.net/steamcommunity/public/images/apps/879420/82ca8fa0ca5ffa4487a989b39b5d6516877c3578.jpg"
  },
  {
    "name": "make_finisher_on_onoskelis_as_succubus",
    "defaultvalue": 0,
    "displayName": "Can I lick it?",
    "hidden": 0,
    "description": "Use a finisher on onoskelis as a succubus",
    "icon": "https://steamcdn-a.akamaihd.net/steamcommunity/public/images/apps/879420/55de919d94cf7032a57b24b54dc00ce1b3eca869.jpg",
    "icongray": "https://steamcdn-a.akamaihd.net/steamcommunity/public/images/apps/879420/60e7ceb007158f89e565d40e50b0eb45e7c0ba53.jpg"
  },
  {
    "name": "kill_chort_as_succubus",
    "defaultvalue": 0,
    "displayName": "Heart breaker",
    "hidden": 0,
    "description": "Kill a chort as a succubus",
    "icon": "https://steamcdn-a.akamaihd.net/steamcommunity/public/images/apps/879420/4324c3674990074434f756ed560e80ad2d6d01fa.jpg",
    "icongray": "https://steamcdn-a.akamaihd.net/steamcommunity/public/images/apps/879420/e95d477e8e2588100bd1487f0ccb252735a531e5.jpg"
  },
  {
    "name": "kill_30_babies",
    "defaultvalue": 0,
    "displayName": "Babysitter",
    "hidden": 0,
    "description": "Kill 30 infants",
    "icon": "https://steamcdn-a.akamaihd.net/steamcommunity/public/images/apps/879420/17cdb4083ad2259bf18b2ce891579e1ff6784b44.jpg",
    "icongray": "https://steamcdn-a.akamaihd.net/steamcommunity/public/images/apps/879420/f9a82ae6171140c3f09e09853689088440728dac.jpg"
  },
  {
    "name": "activate_survive_20_collapsingfloors",
    "defaultvalue": 0,
    "displayName": "The Jaws",
    "hidden": 0,
    "description": "Activate 30 collapsing floors and survive",
    "icon": "https://steamcdn-a.akamaihd.net/steamcommunity/public/images/apps/879420/b0cd71036df4a2261a903b8c0f5662e2e2155659.jpg",
    "icongray": "https://steamcdn-a.akamaihd.net/steamcommunity/public/images/apps/879420/46453e27d14d22ccfe9cf7fe83793e40aff9a57b.jpg"
  },
  {
    "name": "do_abortions_5_times",
    "defaultvalue": 0,
    "displayName": "Painkiller",
    "hidden": 0,
    "description": "Abort 5 pregnancies",
    "icon": "https://steamcdn-a.akamaihd.net/steamcommunity/public/images/apps/879420/512b93114bccb0073bd4bba4d27f16e98f0f7f86.jpg",
    "icongray": "https://steamcdn-a.akamaihd.net/steamcommunity/public/images/apps/879420/a182b37ebbf249ab64c34b7a8083d858dc617c70.jpg"
  },
  {
    "name": "kill_15_spiders",
    "defaultvalue": 0,
    "displayName": "Spiderman",
    "hidden": 0,
    "description": "Kill 15 spiders",
    "icon": "https://steamcdn-a.akamaihd.net/steamcommunity/public/images/apps/879420/16a13ef171ca49f03fe5ca8852bccf344359cbfc.jpg",
    "icongray": "https://steamcdn-a.akamaihd.net/steamcommunity/public/images/apps/879420/8488710d1ee01372b052733aabf2974cb5f75b92.jpg"
  },
  {
    "name": "hold_breath_666",
    "defaultvalue": 0,
    "displayName": "What a smell...",
    "hidden": 0,
    "description": "Hold your breath for 666 seconds",
    "icon": "https://steamcdn-a.akamaihd.net/steamcommunity/public/images/apps/879420/7a55f3b36c077b0f4f181ea4ed52e0eace3009e5.jpg",
    "icongray": "https://steamcdn-a.akamaihd.net/steamcommunity/public/images/apps/879420/1deb7c673a8e4aa498f88433af965bc4a5b21d05.jpg"
  },
  {
    "name": "make_5_baby_sacrifices",
    "defaultvalue": 0,
    "displayName": "They're now in the better place",
    "hidden": 0,
    "description": "Sacrifice 5 children at the altar",
    "icon": "https://steamcdn-a.akamaihd.net/steamcommunity/public/images/apps/879420/f018a352edab6bf642170f54674a7501336c15a4.jpg",
    "icongray": "https://steamcdn-a.akamaihd.net/steamcommunity/public/images/apps/879420/f9a82ae6171140c3f09e09853689088440728dac.jpg"
  },
  {
    "name": "succubus_ending_2",
    "defaultvalue": 0,
    "displayName": "I believe I can fly",
    "hidden": 0,
    "description": "Finish the game for a second time as a succubus and kill 30 children",
    "icon": "https://steamcdn-a.akamaihd.net/steamcommunity/public/images/apps/879420/fea41a49e2f181b87a4323e863c53082506eab08.jpg",
    "icongray": "https://steamcdn-a.akamaihd.net/steamcommunity/public/images/apps/879420/a1a11cd97e4559fd3b1babc9c06cf76dc3a8eb2c.jpg"
  },
  {
    "name": "torch_hit_demon_20",
    "defaultvalue": 0,
    "displayName": "You're so Hot right now",
    "hidden": 0,
    "description": "Hit a demon with a torch 20 times",
    "icon": "https://steamcdn-a.akamaihd.net/steamcommunity/public/images/apps/879420/d9e237acb057f06536b045f38fe340b4815a6ee9.jpg",
    "icongray": "https://steamcdn-a.akamaihd.net/steamcommunity/public/images/apps/879420/478bf5082bbeefc9318b46cef96be0acf59fe0d7.jpg"
  }
]