﻿[
  {
    "name": "Bottle",
    "defaultvalue": 0,
    "displayName": "Bottle",
    "hidden": 0,
    "description": "Start the game",
    "icon": "https://steamcdn-a.akamaihd.net/steamcommunity/public/images/apps/786670/22abaccf53481eecb316ac5af9872301d82bef35.jpg",
    "icongray": "https://steamcdn-a.akamaihd.net/steamcommunity/public/images/apps/786670/a3bcd9d20eeab342a6f032291d7a792bfc7eefff.jpg"
  },
  {
    "name": "20!8",
    "defaultvalue": 0,
    "displayName": "20!8",
    "hidden": 0,
    "description": "Start the game",
    "icon": "https://steamcdn-a.akamaihd.net/steamcommunity/public/images/apps/786670/b4f77f29b2bf47f63bbbd5dd6bc8272c0d08bc88.jpg",
    "icongray": "https://steamcdn-a.akamaihd.net/steamcommunity/public/images/apps/786670/a3bcd9d20eeab342a6f032291d7a792bfc7eefff.jpg"
  },
  {
    "name": "Knife",
    "defaultvalue": 0,
    "displayName": "Knife",
    "hidden": 0,
    "description": "Open first box",
    "icon": "https://steamcdn-a.akamaihd.net/steamcommunity/public/images/apps/786670/895587613f55984cc39078391b949d9125c3dc34.jpg",
    "icongray": "https://steamcdn-a.akamaihd.net/steamcommunity/public/images/apps/786670/a3bcd9d20eeab342a6f032291d7a792bfc7eefff.jpg"
  },
  {
    "name": "Green box",
    "defaultvalue": 0,
    "displayName": "Green box",
    "hidden": 0,
    "description": "Click on green box",
    "icon": "https://steamcdn-a.akamaihd.net/steamcommunity/public/images/apps/786670/3cdb82db1b2dcebb7b71996f705c989a2d3601f7.jpg",
    "icongray": "https://steamcdn-a.akamaihd.net/steamcommunity/public/images/apps/786670/a3bcd9d20eeab342a6f032291d7a792bfc7eefff.jpg"
  },
  {
    "name": "Red box",
    "defaultvalue": 0,
    "displayName": "Red box",
    "hidden": 0,
    "description": "Buy red box",
    "icon": "https://steamcdn-a.akamaihd.net/steamcommunity/public/images/apps/786670/b59c7521d02734f6b83353016608a5d7a3a8120a.jpg",
    "icongray": "https://steamcdn-a.akamaihd.net/steamcommunity/public/images/apps/786670/a3bcd9d20eeab342a6f032291d7a792bfc7eefff.jpg"
  },
  {
    "name": "Just box",
    "defaultvalue": 0,
    "displayName": "Just box",
    "hidden": 0,
    "description": "Buy just box",
    "icon": "https://steamcdn-a.akamaihd.net/steamcommunity/public/images/apps/786670/d6849071acd3451fa397b616577bea9f5af79145.jpg",
    "icongray": "https://steamcdn-a.akamaihd.net/steamcommunity/public/images/apps/786670/a3bcd9d20eeab342a6f032291d7a792bfc7eefff.jpg"
  },
  {
    "name": "Strange box",
    "defaultvalue": 0,
    "displayName": "Strange box",
    "hidden": 0,
    "description": "Buy strange box",
    "icon": "https://steamcdn-a.akamaihd.net/steamcommunity/public/images/apps/786670/ea254fab77631987751835e75a32455151ea0aca.jpg",
    "icongray": "https://steamcdn-a.akamaihd.net/steamcommunity/public/images/apps/786670/a3bcd9d20eeab342a6f032291d7a792bfc7eefff.jpg"
  },
  {
    "name": "Russian box",
    "defaultvalue": 0,
    "displayName": "Russian box",
    "hidden": 0,
    "description": "Buy Russian box",
    "icon": "https://steamcdn-a.akamaihd.net/steamcommunity/public/images/apps/786670/96e9a62aa6b8e588f402d744773df80abcca3b0d.jpg",
    "icongray": "https://steamcdn-a.akamaihd.net/steamcommunity/public/images/apps/786670/a3bcd9d20eeab342a6f032291d7a792bfc7eefff.jpg"
  }
]