﻿{
  "Dlcs": {},
  "Name": "Dinosaurs A Prehistoric Adventure",
  "AppId": "751590",
  "ImageUrl": "https://steamcdn-a.akamaihd.net/steam/apps/751590/header.jpg?t=1545218193",
  "Languages": [
    "english"
  ],
  "Platforms": {
    "windows": true,
    "mac": false,
    "linux": false
  }
}