﻿[
  {
    "name": "stat_examined_objects",
    "defaultvalue": 0,
    "displayName": "Examined Objects"
  },
  {
    "name": "stat_destroyed_robots",
    "defaultvalue": 0,
    "displayName": "Destroyed Robots"
  },
  {
    "name": "stat_thrown_bombs",
    "defaultvalue": 0,
    "displayName": "Thrown Bombs"
  },
  {
    "name": "stat_used_generators",
    "defaultvalue": 0,
    "displayName": "Used Generators"
  },
  {
    "name": "stat_crossed_bridges",
    "defaultvalue": 0,
    "displayName": "Crossed Bridges"
  },
  {
    "name": "stat_teleported_robots",
    "defaultvalue": 0,
    "displayName": "Teleported Robots"
  },
  {
    "name": "stat_teleporters_used",
    "defaultvalue": 0,
    "displayName": "Teleporters Used"
  },
  {
    "name": "stat_extra_bombs_found",
    "defaultvalue": 0,
    "displayName": "Extra Bombs Found"
  },
  {
    "name": "stat_unclouders_found",
    "defaultvalue": 0,
    "displayName": "Unclouders Found"
  },
  {
    "name": "stat_maps_found",
    "defaultvalue": 0,
    "displayName": "Maps Found"
  },
  {
    "name": "stat_extra_bombs_used",
    "defaultvalue": 0,
    "displayName": "Extra Bombs Used"
  },
  {
    "name": "stat_unclouders_used",
    "defaultvalue": 0,
    "displayName": "Unclouders Used"
  }
]