﻿[
  {
    "name": "win_1_level",
    "defaultvalue": 0,
    "displayName": "Complete one level",
    "hidden": 0,
    "description": "Solve at least one puzzle",
    "icon": "https://steamcdn-a.akamaihd.net/steamcommunity/public/images/apps/448560/6fb718bb2a492edd2d7e377b1de99934d68bf503.jpg",
    "icongray": "https://steamcdn-a.akamaihd.net/steamcommunity/public/images/apps/448560/273555f5eca58d9efcad063bdbc620a21d297ba5.jpg"
  },
  {
    "name": "win_5_levels",
    "defaultvalue": 0,
    "displayName": "Complete five levels",
    "hidden": 0,
    "description": "Solve five puzzles",
    "icon": "https://steamcdn-a.akamaihd.net/steamcommunity/public/images/apps/448560/76f084e0f32df97e5b391dcea0cb88799a4dd8da.jpg",
    "icongray": "https://steamcdn-a.akamaihd.net/steamcommunity/public/images/apps/448560/273555f5eca58d9efcad063bdbc620a21d297ba5.jpg"
  },
  {
    "name": "win_40_levels",
    "defaultvalue": 0,
    "displayName": "Complete 40 levels",
    "hidden": 0,
    "description": "Solve 40 puzzles",
    "icon": "https://steamcdn-a.akamaihd.net/steamcommunity/public/images/apps/448560/742069597c21cb0f75fe21132d4a02568cde9e46.jpg",
    "icongray": "https://steamcdn-a.akamaihd.net/steamcommunity/public/images/apps/448560/273555f5eca58d9efcad063bdbc620a21d297ba5.jpg"
  },
  {
    "name": "win_100_levels",
    "defaultvalue": 0,
    "displayName": "Complete 100 levels",
    "hidden": 0,
    "description": "Solve 100 puzzles",
    "icon": "https://steamcdn-a.akamaihd.net/steamcommunity/public/images/apps/448560/3df53de11c975bf4201134b02ef0b9a80f4d0484.jpg",
    "icongray": "https://steamcdn-a.akamaihd.net/steamcommunity/public/images/apps/448560/273555f5eca58d9efcad063bdbc620a21d297ba5.jpg"
  },
  {
    "name": "win_200_levels",
    "defaultvalue": 0,
    "displayName": "Complete 200 levels",
    "hidden": 0,
    "description": "Solve 200 puzzles",
    "icon": "https://steamcdn-a.akamaihd.net/steamcommunity/public/images/apps/448560/92e2d7d491a863aa9d0087ae2f2438d453c8eb53.jpg",
    "icongray": "https://steamcdn-a.akamaihd.net/steamcommunity/public/images/apps/448560/273555f5eca58d9efcad063bdbc620a21d297ba5.jpg"
  },
  {
    "name": "level_skip",
    "defaultvalue": 0,
    "displayName": "Skip a level",
    "hidden": 0,
    "description": "Skip single level",
    "icon": "https://steamcdn-a.akamaihd.net/steamcommunity/public/images/apps/448560/291b0af13f15b9e2a8bf60bdf31972cdd06800aa.jpg",
    "icongray": "https://steamcdn-a.akamaihd.net/steamcommunity/public/images/apps/448560/273555f5eca58d9efcad063bdbc620a21d297ba5.jpg"
  },
  {
    "name": "entrance",
    "defaultvalue": 0,
    "displayName": "Solve Entrance",
    "hidden": 0,
    "description": "Solve Entrance picture puzzle",
    "icon": "https://steamcdn-a.akamaihd.net/steamcommunity/public/images/apps/448560/a4bbdffa596a69b1c22ed139f3b7ea33956c265a.jpg",
    "icongray": "https://steamcdn-a.akamaihd.net/steamcommunity/public/images/apps/448560/273555f5eca58d9efcad063bdbc620a21d297ba5.jpg"
  },
  {
    "name": "dali",
    "defaultvalue": 0,
    "displayName": "Solve Dali ",
    "hidden": 0,
    "description": "Solve Dali picture puzzle",
    "icon": "https://steamcdn-a.akamaihd.net/steamcommunity/public/images/apps/448560/012532b84463b3f448a98634635d726f7752fe98.jpg",
    "icongray": "https://steamcdn-a.akamaihd.net/steamcommunity/public/images/apps/448560/273555f5eca58d9efcad063bdbc620a21d297ba5.jpg"
  },
  {
    "name": "bogatyrs",
    "defaultvalue": 0,
    "displayName": "Solve Bogaryrs",
    "hidden": 0,
    "description": "Solve Bogaryrs picture puzzle",
    "icon": "https://steamcdn-a.akamaihd.net/steamcommunity/public/images/apps/448560/10446e449b03f4a6c89f1e1f31b0298e7361a935.jpg",
    "icongray": "https://steamcdn-a.akamaihd.net/steamcommunity/public/images/apps/448560/273555f5eca58d9efcad063bdbc620a21d297ba5.jpg"
  },
  {
    "name": "oak",
    "defaultvalue": 0,
    "displayName": "Solve Oak Grove",
    "hidden": 0,
    "description": "Solve Oak Grove picture puzzle",
    "icon": "https://steamcdn-a.akamaihd.net/steamcommunity/public/images/apps/448560/0e0a9317f2adf03203d28507df44bad1cf43610a.jpg",
    "icongray": "https://steamcdn-a.akamaihd.net/steamcommunity/public/images/apps/448560/273555f5eca58d9efcad063bdbc620a21d297ba5.jpg"
  },
  {
    "name": "battleship",
    "defaultvalue": 0,
    "displayName": "Win Battleship",
    "hidden": 0,
    "description": "Win Battleship mini game",
    "icon": "https://steamcdn-a.akamaihd.net/steamcommunity/public/images/apps/448560/b5b6e19bd28f3d2fdcd863a401b96f0e20daad80.jpg",
    "icongray": "https://steamcdn-a.akamaihd.net/steamcommunity/public/images/apps/448560/273555f5eca58d9efcad063bdbc620a21d297ba5.jpg"
  },
  {
    "name": "checkers",
    "defaultvalue": 0,
    "displayName": "Solve Checkers",
    "hidden": 0,
    "description": "Solve Checkers puzzle",
    "icon": "https://steamcdn-a.akamaihd.net/steamcommunity/public/images/apps/448560/e3d09459b0684eb5ca09fa6d52c2e5ec9019615a.jpg",
    "icongray": "https://steamcdn-a.akamaihd.net/steamcommunity/public/images/apps/448560/273555f5eca58d9efcad063bdbc620a21d297ba5.jpg"
  },
  {
    "name": "chess",
    "defaultvalue": 0,
    "displayName": "Solve Chess",
    "hidden": 0,
    "description": "Solve Chess puzzle",
    "icon": "https://steamcdn-a.akamaihd.net/steamcommunity/public/images/apps/448560/a205e99c0543ff5433a8d0b99f814a2e35866ed0.jpg",
    "icongray": "https://steamcdn-a.akamaihd.net/steamcommunity/public/images/apps/448560/273555f5eca58d9efcad063bdbc620a21d297ba5.jpg"
  },
  {
    "name": "china_checkers",
    "defaultvalue": 0,
    "displayName": "Solve Chinese Checkers",
    "hidden": 0,
    "description": "Solve Chinese Checkers puzzle",
    "icon": "https://steamcdn-a.akamaihd.net/steamcommunity/public/images/apps/448560/de10b885ccba2b7936955deab2d1f98f83e1381b.jpg",
    "icongray": "https://steamcdn-a.akamaihd.net/steamcommunity/public/images/apps/448560/273555f5eca58d9efcad063bdbc620a21d297ba5.jpg"
  },
  {
    "name": "nim",
    "defaultvalue": 0,
    "displayName": "Win Nim",
    "hidden": 0,
    "description": "Win Nim coins game",
    "icon": "https://steamcdn-a.akamaihd.net/steamcommunity/public/images/apps/448560/b1e6ff37b1f13da8d8f24ae3633073fc177688e3.jpg",
    "icongray": "https://steamcdn-a.akamaihd.net/steamcommunity/public/images/apps/448560/273555f5eca58d9efcad063bdbc620a21d297ba5.jpg"
  },
  {
    "name": "coins",
    "defaultvalue": 0,
    "displayName": "Solve Coins",
    "hidden": 0,
    "description": "Solve Coins puzzle",
    "icon": "https://steamcdn-a.akamaihd.net/steamcommunity/public/images/apps/448560/a61745c64eff9bc0652048f0549fab6109e8a71d.jpg",
    "icongray": "https://steamcdn-a.akamaihd.net/steamcommunity/public/images/apps/448560/273555f5eca58d9efcad063bdbc620a21d297ba5.jpg"
  },
  {
    "name": "color_box",
    "defaultvalue": 0,
    "displayName": "Solve Color Box",
    "hidden": 0,
    "description": "Solve Color Box puzzle",
    "icon": "https://steamcdn-a.akamaihd.net/steamcommunity/public/images/apps/448560/b314d1e878adb40d9a90e2b8afbf0a5ed60610ee.jpg",
    "icongray": "https://steamcdn-a.akamaihd.net/steamcommunity/public/images/apps/448560/273555f5eca58d9efcad063bdbc620a21d297ba5.jpg"
  },
  {
    "name": "dice",
    "defaultvalue": 0,
    "displayName": "Solve Dice",
    "hidden": 0,
    "description": "Solve Dice puzzle",
    "icon": "https://steamcdn-a.akamaihd.net/steamcommunity/public/images/apps/448560/5dff5245b2845f45d510aedf508d11e5f6f5188b.jpg",
    "icongray": "https://steamcdn-a.akamaihd.net/steamcommunity/public/images/apps/448560/273555f5eca58d9efcad063bdbc620a21d297ba5.jpg"
  },
  {
    "name": "dice_sudoku",
    "defaultvalue": 0,
    "displayName": "Solve Dice Sudoku",
    "hidden": 0,
    "description": "Solve Dice Sudoku puzzle",
    "icon": "https://steamcdn-a.akamaihd.net/steamcommunity/public/images/apps/448560/b51b29b2b2b3cb9e4c8b4c310ff59d525c586af4.jpg",
    "icongray": "https://steamcdn-a.akamaihd.net/steamcommunity/public/images/apps/448560/273555f5eca58d9efcad063bdbc620a21d297ba5.jpg"
  },
  {
    "name": "domino",
    "defaultvalue": 0,
    "displayName": "Solve Domino",
    "hidden": 0,
    "description": "Solve Domino puzzle",
    "icon": "https://steamcdn-a.akamaihd.net/steamcommunity/public/images/apps/448560/4bb0f97a408d03bb1f2c6a865aaab3ad8288894f.jpg",
    "icongray": "https://steamcdn-a.akamaihd.net/steamcommunity/public/images/apps/448560/273555f5eca58d9efcad063bdbc620a21d297ba5.jpg"
  },
  {
    "name": "fifteen",
    "defaultvalue": 0,
    "displayName": "Solve Fifteen",
    "hidden": 0,
    "description": "Solve Fifteen puzzle",
    "icon": "https://steamcdn-a.akamaihd.net/steamcommunity/public/images/apps/448560/3354adfb86fe35ae51e55c85fab727d4149c294c.jpg",
    "icongray": "https://steamcdn-a.akamaihd.net/steamcommunity/public/images/apps/448560/273555f5eca58d9efcad063bdbc620a21d297ba5.jpg"
  },
  {
    "name": "fifteen_ext",
    "defaultvalue": 0,
    "displayName": "Solve Fifteen+",
    "hidden": 0,
    "description": "Solve Extended Fifteen puzzle",
    "icon": "https://steamcdn-a.akamaihd.net/steamcommunity/public/images/apps/448560/bb28c9b283482d59bf7a8a4b9a26b1f98c57f5ec.jpg",
    "icongray": "https://steamcdn-a.akamaihd.net/steamcommunity/public/images/apps/448560/273555f5eca58d9efcad063bdbc620a21d297ba5.jpg"
  },
  {
    "name": "marble",
    "defaultvalue": 0,
    "displayName": "Solve Marble",
    "hidden": 0,
    "description": "Solve Marble puzzle",
    "icon": "https://steamcdn-a.akamaihd.net/steamcommunity/public/images/apps/448560/9d2b3b7876fe94b5a63776fb6b65bf546340a808.jpg",
    "icongray": "https://steamcdn-a.akamaihd.net/steamcommunity/public/images/apps/448560/273555f5eca58d9efcad063bdbc620a21d297ba5.jpg"
  },
  {
    "name": "hex",
    "defaultvalue": 0,
    "displayName": "Win Hex",
    "hidden": 0,
    "description": "Win Hex mini-game",
    "icon": "https://steamcdn-a.akamaihd.net/steamcommunity/public/images/apps/448560/08522eb13c3c8800f9689df5a6ce1c52d2ede068.jpg",
    "icongray": "https://steamcdn-a.akamaihd.net/steamcommunity/public/images/apps/448560/273555f5eca58d9efcad063bdbc620a21d297ba5.jpg"
  },
  {
    "name": "one",
    "defaultvalue": 0,
    "displayName": "Win Infection",
    "hidden": 0,
    "description": "Win Infection mini-game",
    "icon": "https://steamcdn-a.akamaihd.net/steamcommunity/public/images/apps/448560/80956117d31ebbba52c709db842d1609f8b5ced5.jpg",
    "icongray": "https://steamcdn-a.akamaihd.net/steamcommunity/public/images/apps/448560/273555f5eca58d9efcad063bdbc620a21d297ba5.jpg"
  },
  {
    "name": "nine_square",
    "defaultvalue": 0,
    "displayName": "Solve Nine Square",
    "hidden": 0,
    "description": "Solve picture puzzle",
    "icon": "https://steamcdn-a.akamaihd.net/steamcommunity/public/images/apps/448560/11edc1140058abf549007e78f540e6d992b88d38.jpg",
    "icongray": "https://steamcdn-a.akamaihd.net/steamcommunity/public/images/apps/448560/273555f5eca58d9efcad063bdbc620a21d297ba5.jpg"
  },
  {
    "name": "pack",
    "defaultvalue": 0,
    "displayName": "Solve Packer",
    "hidden": 0,
    "description": "Solve Packer puzzle",
    "icon": "https://steamcdn-a.akamaihd.net/steamcommunity/public/images/apps/448560/ae1c6f9aa512419a254b4782652ceba072d6d17f.jpg",
    "icongray": "https://steamcdn-a.akamaihd.net/steamcommunity/public/images/apps/448560/273555f5eca58d9efcad063bdbc620a21d297ba5.jpg"
  },
  {
    "name": "qgame",
    "defaultvalue": 0,
    "displayName": "Solve QGame",
    "hidden": 0,
    "description": "Solve QGame puzzle",
    "icon": "https://steamcdn-a.akamaihd.net/steamcommunity/public/images/apps/448560/4011fa44781f2c9a7cea940cc0998eb16408ae78.jpg",
    "icongray": "https://steamcdn-a.akamaihd.net/steamcommunity/public/images/apps/448560/273555f5eca58d9efcad063bdbc620a21d297ba5.jpg"
  },
  {
    "name": "rubik",
    "defaultvalue": 0,
    "displayName": "Solve Rubik",
    "hidden": 0,
    "description": "Solve Rubik puzzle",
    "icon": "https://steamcdn-a.akamaihd.net/steamcommunity/public/images/apps/448560/0e20ee68f332e1b1de14190912c4f83f242af3d4.jpg",
    "icongray": "https://steamcdn-a.akamaihd.net/steamcommunity/public/images/apps/448560/273555f5eca58d9efcad063bdbc620a21d297ba5.jpg"
  },
  {
    "name": "switch_off",
    "defaultvalue": 0,
    "displayName": "Solve Switch Off",
    "hidden": 0,
    "description": "Solve Switch Off puzzle",
    "icon": "https://steamcdn-a.akamaihd.net/steamcommunity/public/images/apps/448560/b06c00afe2d77adc83704e0bee0898aa5d4c0b32.jpg",
    "icongray": "https://steamcdn-a.akamaihd.net/steamcommunity/public/images/apps/448560/273555f5eca58d9efcad063bdbc620a21d297ba5.jpg"
  }
]