﻿{
  "Dlcs": {},
  "Name": "Cosmo's Cosmic Adventure",
  "AppId": "358250",
  "ImageUrl": "https://steamcdn-a.akamaihd.net/steam/apps/358250/header.jpg?t=1567673964",
  "Languages": [
    "english"
  ],
  "Platforms": {
    "windows": true,
    "mac": true,
    "linux": false
  }
}