﻿{
  "Dlcs": {},
  "Name": "Flock!",
  "AppId": "21640",
  "ImageUrl": "https://steamcdn-a.akamaihd.net/steam/apps/21640/header.jpg?t=1590391906",
  "Languages": [
    "english",
    "french",
    "german",
    "italian",
    "spanish"
  ],
  "Platforms": {
    "windows": true,
    "mac": false,
    "linux": false
  }
}