﻿{
  "Dlcs": {
    "422690": {
      "Name": "FIVE: Guardians of David Soundtrack",
      "ImageUrl": "https://steamcdn-a.akamaihd.net/steam/apps/422690/header.jpg?t=1536868182"
    },
    "422691": {
      "Name": "FIVE: Guardians of David Art Book",
      "ImageUrl": "https://steamcdn-a.akamaihd.net/steam/apps/422691/header.jpg?t=1536868293"
    },
    "466380": {
      "Name": "FIVE: Guardians of David Comics",
      "ImageUrl": "https://steamcdn-a.akamaihd.net/steam/apps/466380/header.jpg?t=1536868239"
    }
  },
  "Name": "FIVE: Guardians of David",
  "AppId": "387010",
  "ImageUrl": "https://steamcdn-a.akamaihd.net/steam/apps/387010/header.jpg?t=1494954261",
  "Languages": [
    "english",
    "spanish",
    "german",
    "hungarian",
    "russian"
  ],
  "Platforms": {
    "windows": true,
    "mac": true,
    "linux": false
  }
}