﻿{
  "Dlcs": {},
  "Name": "Dragon Lords: 3D Strategy",
  "AppId": "661960",
  "ImageUrl": "https://steamcdn-a.akamaihd.net/steam/apps/661960/header.jpg?t=1505189671",
  "Languages": [
    "english",
    "french",
    "german",
    "korean",
    "russian"
  ],
  "Platforms": {
    "windows": true,
    "mac": true,
    "linux": false
  }
}