﻿[
  {
    "name": "WINS_USSR_10",
    "defaultvalue": 0,
    "displayName": "Senior Lieutenant",
    "hidden": 0,
    "description": "10 victories for the USSR",
    "icon": "https://steamcdn-a.akamaihd.net/steamcommunity/public/images/apps/512560/682675a752c05a4e03e3a97da951453b3c896a9d.jpg",
    "icongray": "https://steamcdn-a.akamaihd.net/steamcommunity/public/images/apps/512560/9c03a4de1993b1b7e8a6fdd2bdfe9673736d03df.jpg"
  },
  {
    "name": "WINS_USSR_100",
    "defaultvalue": 0,
    "displayName": "Captain",
    "hidden": 0,
    "description": "100 victories for the USSR",
    "icon": "https://steamcdn-a.akamaihd.net/steamcommunity/public/images/apps/512560/be757ec600c726d503c54935eaea03deff153a69.jpg",
    "icongray": "https://steamcdn-a.akamaihd.net/steamcommunity/public/images/apps/512560/15c782918f228df5fba1a1321d5b274d1738481e.jpg"
  },
  {
    "name": "WINS_USSR_500",
    "defaultvalue": 0,
    "displayName": "Colonel",
    "hidden": 0,
    "description": "500 victories for the USSR",
    "icon": "https://steamcdn-a.akamaihd.net/steamcommunity/public/images/apps/512560/60b1bf0220f97439a1450bb4606aa3e6ce4a3145.jpg",
    "icongray": "https://steamcdn-a.akamaihd.net/steamcommunity/public/images/apps/512560/48d064024e60b1811c5172a0a36d4714901e2d40.jpg"
  },
  {
    "name": "WINS_USSR_1000",
    "defaultvalue": 0,
    "displayName": "Hero of the Soviet Union",
    "hidden": 0,
    "description": "1000 victories for the USSR",
    "icon": "https://steamcdn-a.akamaihd.net/steamcommunity/public/images/apps/512560/198a91b9c13ce920b0f4a738488a1e83d21c459e.jpg",
    "icongray": "https://steamcdn-a.akamaihd.net/steamcommunity/public/images/apps/512560/73e734bc34c9858e89f7c18b46f013feea8c6a7e.jpg"
  },
  {
    "name": "WINS_GERMANY_10",
    "defaultvalue": 0,
    "displayName": "Oberleutnant",
    "hidden": 0,
    "description": "10 victories for Germany",
    "icon": "https://steamcdn-a.akamaihd.net/steamcommunity/public/images/apps/512560/13048ddf7c6ce7b3ff6b9bf22d248720ef582031.jpg",
    "icongray": "https://steamcdn-a.akamaihd.net/steamcommunity/public/images/apps/512560/b28d62fe851b72c8be5c65411687e03635f89e5f.jpg"
  },
  {
    "name": "WINS_GERMANY_100",
    "defaultvalue": 0,
    "displayName": "Hauptman",
    "hidden": 0,
    "description": "100 victories for Germany",
    "icon": "https://steamcdn-a.akamaihd.net/steamcommunity/public/images/apps/512560/b1f9b59bb33e348ab6ca9fbf0b90c154613427f7.jpg",
    "icongray": "https://steamcdn-a.akamaihd.net/steamcommunity/public/images/apps/512560/23c0f04b881d778698dc918dc4d3acf0a1af8c96.jpg"
  },
  {
    "name": "WINS_GERMANY_500",
    "defaultvalue": 0,
    "displayName": "Oberst",
    "hidden": 0,
    "description": "500 victories for Germany",
    "icon": "https://steamcdn-a.akamaihd.net/steamcommunity/public/images/apps/512560/e255fec4c931ab8dbbd40f2b64ca5a2def0c7d83.jpg",
    "icongray": "https://steamcdn-a.akamaihd.net/steamcommunity/public/images/apps/512560/b3f86f3648964f1437eec2614bf6991839eb48a7.jpg"
  },
  {
    "name": "WINS_GERMANY_1000",
    "defaultvalue": 0,
    "displayName": "Knight's Cross",
    "hidden": 0,
    "description": "1000 victories for Germany",
    "icon": "https://steamcdn-a.akamaihd.net/steamcommunity/public/images/apps/512560/a9731f8a23fd82727ff439aa2ea7543e1d454d15.jpg",
    "icongray": "https://steamcdn-a.akamaihd.net/steamcommunity/public/images/apps/512560/e88b5d4b0f6204580456e0b5a0c3ad148ccbcf59.jpg"
  },
  {
    "name": "TIME_IN_GAME_250",
    "defaultvalue": 0,
    "displayName": "Experienced",
    "hidden": 0,
    "description": "250 hours in the game",
    "icon": "https://steamcdn-a.akamaihd.net/steamcommunity/public/images/apps/512560/5cc968733fced0ed7c74d4f23aad4b6ac971e842.jpg",
    "icongray": "https://steamcdn-a.akamaihd.net/steamcommunity/public/images/apps/512560/992f06c64bf8648fd16760fba5d61d1d42fad5bf.jpg"
  },
  {
    "name": "TIME_IN_GAME_1000",
    "defaultvalue": 0,
    "displayName": "Specialist",
    "hidden": 0,
    "description": "1000 hours in the game",
    "icon": "https://steamcdn-a.akamaihd.net/steamcommunity/public/images/apps/512560/0541f8a81ffe655ab1d49f922d229829acca4003.jpg",
    "icongray": "https://steamcdn-a.akamaihd.net/steamcommunity/public/images/apps/512560/d0203b5eb60df9e374508750585b6b1cb716e1ce.jpg"
  },
  {
    "name": "TIME_IN_GAME_2000",
    "defaultvalue": 0,
    "displayName": "Veteran",
    "hidden": 0,
    "description": "2000 hours in the game",
    "icon": "https://steamcdn-a.akamaihd.net/steamcommunity/public/images/apps/512560/6e005088edc59f674c8f1b95b9adb174ab897ead.jpg",
    "icongray": "https://steamcdn-a.akamaihd.net/steamcommunity/public/images/apps/512560/dbd770a1c9b18000f9934510522ebd3ca09ce3c1.jpg"
  },
  {
    "name": "WIN_1l5_TRANSITIONAL_CARD",
    "defaultvalue": 0,
    "displayName": "Battle Trophy",
    "hidden": 0,
    "description": "Win 1/5 Transition Cards",
    "icon": "https://steamcdn-a.akamaihd.net/steamcommunity/public/images/apps/512560/e9cc5c9cd8eb34892ee36c329c16ada9ac92bdd0.jpg",
    "icongray": "https://steamcdn-a.akamaihd.net/steamcommunity/public/images/apps/512560/afaa5d8a4b7de1835c753f4dc82693b63b9e275e.jpg"
  },
  {
    "name": "DECK_ADD_PREMIUM_5",
    "defaultvalue": 0,
    "displayName": "The Magnificent Five",
    "hidden": 0,
    "description": "Add 5 premium cards to the deck",
    "icon": "https://steamcdn-a.akamaihd.net/steamcommunity/public/images/apps/512560/66245f2fab1f103a91cda7388e40c7cc2aac7228.jpg",
    "icongray": "https://steamcdn-a.akamaihd.net/steamcommunity/public/images/apps/512560/3eb96884f1e18f0dc62827985c4d3d517b09238d.jpg"
  },
  {
    "name": "DECK_ADD_PREMIUM_15",
    "defaultvalue": 0,
    "displayName": "Fresh replenishment",
    "hidden": 0,
    "description": "Add 15 premium cards to the deck",
    "icon": "https://steamcdn-a.akamaihd.net/steamcommunity/public/images/apps/512560/c41f6610751ea478473eb630edabd5f832d5d154.jpg",
    "icongray": "https://steamcdn-a.akamaihd.net/steamcommunity/public/images/apps/512560/7db54b6fbef52eefd4f8dc5b91103e0a7f0e264c.jpg"
  },
  {
    "name": "DECK_ADD_PREMIUM_25",
    "defaultvalue": 0,
    "displayName": "Premium Regiment",
    "hidden": 0,
    "description": "Add 25 premium cards to the deck ",
    "icon": "https://steamcdn-a.akamaihd.net/steamcommunity/public/images/apps/512560/44d3d0d204f3bee77fbc21d4bafdac2ae8d4385d.jpg",
    "icongray": "https://steamcdn-a.akamaihd.net/steamcommunity/public/images/apps/512560/4361a82f4ea13a7d26fc2be2c3d68e2d0d7f5a61.jpg"
  },
  {
    "name": "BATTLE_WIN_HP_LESS_5",
    "defaultvalue": 0,
    "displayName": "Out of the last strength",
    "hidden": 0,
    "description": "Win when your headquarters has 5 health or less",
    "icon": "https://steamcdn-a.akamaihd.net/steamcommunity/public/images/apps/512560/91431f0f5ba21646d99c3075f36fd593c5e9fc8c.jpg",
    "icongray": "https://steamcdn-a.akamaihd.net/steamcommunity/public/images/apps/512560/9eeefaa46d7acc712b47df1ccb32f249ca99b677.jpg"
  },
  {
    "name": "BATTLE_OPERATIONS_GREATER_10",
    "defaultvalue": 0,
    "displayName": "Ice and Fire",
    "hidden": 0,
    "description": "Use in one battle more than 10 operations cards",
    "icon": "https://steamcdn-a.akamaihd.net/steamcommunity/public/images/apps/512560/1dd98fa7ae1cfb4479138a0897c0af79d088064c.jpg",
    "icongray": "https://steamcdn-a.akamaihd.net/steamcommunity/public/images/apps/512560/7386d1aea649e7ae08e4de327b1b47a6d7d4454f.jpg"
  },
  {
    "name": "PROVISION_ACCUMULAT_100000",
    "defaultvalue": 0,
    "displayName": "Master of the rear",
    "hidden": 0,
    "description": "Accumulate 100,000 equipment",
    "icon": "https://steamcdn-a.akamaihd.net/steamcommunity/public/images/apps/512560/6cef650c0daed93e67ccc7a0b6559cfc110d8dfe.jpg",
    "icongray": "https://steamcdn-a.akamaihd.net/steamcommunity/public/images/apps/512560/291d47e6a76b95d948aebf54c15e1cf1c4f17c62.jpg"
  },
  {
    "name": "PROVISION_ACCUMULAT_500000",
    "defaultvalue": 0,
    "displayName": "Profi of the rear",
    "hidden": 0,
    "description": "Accumulate 500,000 equipment",
    "icon": "https://steamcdn-a.akamaihd.net/steamcommunity/public/images/apps/512560/6324ced7f23e77194f9e2263a19d282126d674a6.jpg",
    "icongray": "https://steamcdn-a.akamaihd.net/steamcommunity/public/images/apps/512560/aa9ca579da3138c5f84589137a64873597fd93d4.jpg"
  },
  {
    "name": "PROVISION_ACCUMULAT_1000000",
    "defaultvalue": 0,
    "displayName": "Expert of the rear",
    "hidden": 0,
    "description": "Accumulate 1,000,000 equipment",
    "icon": "https://steamcdn-a.akamaihd.net/steamcommunity/public/images/apps/512560/89e59d191e171df1611b47acad216a4fceee11d5.jpg",
    "icongray": "https://steamcdn-a.akamaihd.net/steamcommunity/public/images/apps/512560/8e90719a8b15abde3d369c731d007f7f741dd7e8.jpg"
  },
  {
    "name": "CURRENCY_HOCWARS_ACCUMULAT_5000",
    "defaultvalue": 0,
    "displayName": "Bag with jewels",
    "hidden": 0,
    "description": "Accumulate 5,000 hocwars",
    "icon": "https://steamcdn-a.akamaihd.net/steamcommunity/public/images/apps/512560/5c04d534fd52f534143293b720e738ea4b7ca65e.jpg",
    "icongray": "https://steamcdn-a.akamaihd.net/steamcommunity/public/images/apps/512560/3e5683dbdba05eead6db1fa4a08c1122e99eec40.jpg"
  },
  {
    "name": "CURRENCY_HOCWARS_ACCUMULAT_10000",
    "defaultvalue": 0,
    "displayName": "Chest of Gold",
    "hidden": 0,
    "description": "Accumulate 10,000 hocwars",
    "icon": "https://steamcdn-a.akamaihd.net/steamcommunity/public/images/apps/512560/0ddd12d084dd733a7077d0b0daeaa838319e2861.jpg",
    "icongray": "https://steamcdn-a.akamaihd.net/steamcommunity/public/images/apps/512560/1ee0443bd930350782727b70a6f02d1fcfbac463.jpg"
  },
  {
    "name": "CURRENCY_HOCWARS_ACCUMULAT_20000",
    "defaultvalue": 0,
    "displayName": "Treasure Cave",
    "hidden": 0,
    "description": "Accumulate 20,000 hocwars",
    "icon": "https://steamcdn-a.akamaihd.net/steamcommunity/public/images/apps/512560/6ba760a5bab99702719f41ba137b3cf4c3e1cd6b.jpg",
    "icongray": "https://steamcdn-a.akamaihd.net/steamcommunity/public/images/apps/512560/0f28551b23d6831077d1816717c32016d6a09ccc.jpg"
  },
  {
    "name": "DISASSEMBLE_CARD_50",
    "defaultvalue": 0,
    "displayName": "Cleaner",
    "hidden": 0,
    "description": "Disassemble of 50 cards",
    "icon": "https://steamcdn-a.akamaihd.net/steamcommunity/public/images/apps/512560/c8491a4b5bc7c061810401c9fe50ee3ee2d0d21d.jpg",
    "icongray": "https://steamcdn-a.akamaihd.net/steamcommunity/public/images/apps/512560/6b15c2d367e1a459f66436cc382bad46ce0f19d1.jpg"
  },
  {
    "name": "DISASSEMBLE_CARD_100",
    "defaultvalue": 0,
    "displayName": "Neutralizer",
    "hidden": 0,
    "description": "Disassemble of 100 cards",
    "icon": "https://steamcdn-a.akamaihd.net/steamcommunity/public/images/apps/512560/afc68ac9e1aeca68c9d8675b06f1908ebd6fada9.jpg",
    "icongray": "https://steamcdn-a.akamaihd.net/steamcommunity/public/images/apps/512560/ecb57a46a15306a8f1e2e5ebe8f7a09f4dc4ee33.jpg"
  },
  {
    "name": "DISASSEMBLE_CARD_500",
    "defaultvalue": 0,
    "displayName": "Utilizer",
    "hidden": 0,
    "description": " Disassemble of 500 cards",
    "icon": "https://steamcdn-a.akamaihd.net/steamcommunity/public/images/apps/512560/a67fdbf6d40e966799898b2f60a58f15f17f214a.jpg",
    "icongray": "https://steamcdn-a.akamaihd.net/steamcommunity/public/images/apps/512560/56728f5785f59c62301778351ebf2c3070dd5059.jpg"
  },
  {
    "name": "UNDERGO_TUTORIAL",
    "defaultvalue": 0,
    "displayName": "Cadet",
    "hidden": 0,
    "description": "Get training",
    "icon": "https://steamcdn-a.akamaihd.net/steamcommunity/public/images/apps/512560/46c7a040c74f75cc5012facceffdf0dd0b5579ee.jpg",
    "icongray": "https://steamcdn-a.akamaihd.net/steamcommunity/public/images/apps/512560/0c7c1ca9f1c00d8c778369512598c5fafcd344eb.jpg"
  }
]