﻿{
  "Dlcs": {},
  "Name": "Super 3-D Noah's Ark",
  "AppId": "371180",
  "ImageUrl": "https://steamcdn-a.akamaihd.net/steam/apps/371180/header.jpg?t=1513731669",
  "Languages": [
    "english"
  ],
  "Platforms": {
    "windows": true,
    "mac": true,
    "linux": true
  }
}