﻿[
  {
    "name": "STAT_THEOLOGIAN",
    "defaultvalue": 0,
    "displayName": "Quiz progress"
  },
  {
    "name": "STAT_SPEEDRUN_PAR",
    "defaultvalue": 0,
    "displayName": "Speedrun progress"
  },
  {
    "name": "STAT_ALL_SECRETS",
    "defaultvalue": 0,
    "displayName": "Secret progress"
  },
  {
    "name": "STAT_ALL_ANIMALS",
    "defaultvalue": 0,
    "displayName": "Animal progress"
  },
  {
    "name": "STAT_ALL_FRUITS",
    "defaultvalue": 0,
    "displayName": "Fruits progress"
  },
  {
    "name": "STAT_COMPLETE_GAME",
    "defaultvalue": 0,
    "displayName": "Hard mode progress"
  }
]