﻿[
  {
    "name": "CEMETERY_FINISHED",
    "defaultvalue": 0,
    "displayName": "Cemetery",
    "hidden": 0,
    "description": "Finish Cemetery level",
    "icon": "https://steamcdn-a.akamaihd.net/steamcommunity/public/images/apps/496400/ed84c8970e5490d7926493b80de43cedc7dc240b.jpg",
    "icongray": "https://steamcdn-a.akamaihd.net/steamcommunity/public/images/apps/496400/58d931a07b2b61334ce96b06002911edc58a782c.jpg"
  },
  {
    "name": "CITY_BAN_FINISHED",
    "defaultvalue": 0,
    "displayName": "Banquet Hall",
    "hidden": 0,
    "description": "Finish Banquet hall level",
    "icon": "https://steamcdn-a.akamaihd.net/steamcommunity/public/images/apps/496400/84543e82ca8dfbc945f345798fe6e9f5bf899436.jpg",
    "icongray": "https://steamcdn-a.akamaihd.net/steamcommunity/public/images/apps/496400/1d26ba951c1577e7537d99d8fba9d568598d7626.jpg"
  },
  {
    "name": "POLICE_OFFICE_FINISHED",
    "defaultvalue": 0,
    "displayName": "Police Office",
    "hidden": 0,
    "description": "Finish Police office level",
    "icon": "https://steamcdn-a.akamaihd.net/steamcommunity/public/images/apps/496400/b7090d216d3dc47fac16daa05fb8d0bb00e4acd7.jpg",
    "icongray": "https://steamcdn-a.akamaihd.net/steamcommunity/public/images/apps/496400/91be53401c3a8bd5b05681118cdd4818ccf514ba.jpg"
  },
  {
    "name": "MONUMENT_ROOF_FINISHED",
    "defaultvalue": 0,
    "displayName": "Monument Roof",
    "hidden": 0,
    "description": "Finish Monument roof level",
    "icon": "https://steamcdn-a.akamaihd.net/steamcommunity/public/images/apps/496400/fceee3439363c633ca4840648ed38ec0278f9421.jpg",
    "icongray": "https://steamcdn-a.akamaihd.net/steamcommunity/public/images/apps/496400/d4dfaa6cdb584c997aab0bafcb67cbb84cc24c8e.jpg"
  },
  {
    "name": "MONUMENT_EPILOGUE_FINISHED",
    "defaultvalue": 0,
    "displayName": "Monument Epilogue",
    "hidden": 0,
    "description": "Finish Monument epilogue level",
    "icon": "https://steamcdn-a.akamaihd.net/steamcommunity/public/images/apps/496400/02911790035b6d4c7f40bb68ce705f7bb7d04a41.jpg",
    "icongray": "https://steamcdn-a.akamaihd.net/steamcommunity/public/images/apps/496400/b092903b16096e3368995c34417f3e4d62283eb5.jpg"
  },
  {
    "name": "USE_GHOST_100_TIMES",
    "defaultvalue": 0,
    "displayName": "Use 100 ghosts",
    "hidden": 1,
    "icon": "https://steamcdn-a.akamaihd.net/steamcommunity/public/images/apps/496400/41241dedfd6f9cad092547c484d7964e4738c95f.jpg",
    "icongray": "https://steamcdn-a.akamaihd.net/steamcommunity/public/images/apps/496400/28019ab7cec2babaf7d6ff50daa697e4fda81761.jpg"
  },
  {
    "name": "DIE_10_TIMES",
    "defaultvalue": 0,
    "displayName": "Die 10 times",
    "hidden": 1,
    "icon": "https://steamcdn-a.akamaihd.net/steamcommunity/public/images/apps/496400/f4f0883718f679f483a863870a7355a0588efa50.jpg",
    "icongray": "https://steamcdn-a.akamaihd.net/steamcommunity/public/images/apps/496400/d302b6e77877212ea08e8caa5b3324b67dd5c5d9.jpg"
  },
  {
    "name": "LAST_JUMP",
    "defaultvalue": 0,
    "displayName": "Follow Mayor's step",
    "hidden": 0,
    "description": "Jump from the Roof at the Monument roof level",
    "icon": "https://steamcdn-a.akamaihd.net/steamcommunity/public/images/apps/496400/2f745a993f39334b6e843d31f8a4f891ffa524a3.jpg",
    "icongray": "https://steamcdn-a.akamaihd.net/steamcommunity/public/images/apps/496400/ae957b90b752927ec094c7b6722eeff78f57bdf1.jpg"
  },
  {
    "name": "SPEEDRUN",
    "defaultvalue": 0,
    "displayName": "Speedrun",
    "hidden": 0,
    "description": "Finish each level in 15 minutes or less",
    "icon": "https://steamcdn-a.akamaihd.net/steamcommunity/public/images/apps/496400/78f446494287087851a857c4e9e580dbb0555ea9.jpg",
    "icongray": "https://steamcdn-a.akamaihd.net/steamcommunity/public/images/apps/496400/35c4da245555f1103ad55a0951d3063073d3fcf2.jpg"
  }
]