﻿{
  "Dlcs": {
    "723470": {
      "Name": "The Cleansing - Versus (Original Soundtrack)",
      "ImageUrl": "https://steamcdn-a.akamaihd.net/steam/apps/723470/header.jpg?t=1511794840"
    }
  },
  "Name": "The Cleansing - Versus",
  "AppId": "625580",
  "ImageUrl": "https://steamcdn-a.akamaihd.net/steam/apps/625580/header.jpg?t=1509555955",
  "Languages": [
    "english"
  ],
  "Platforms": {
    "windows": true,
    "mac": false,
    "linux": false
  }
}