﻿{
  "Dlcs": {},
  "Name": "Statues",
  "AppId": "413680",
  "ImageUrl": "https://steamcdn-a.akamaihd.net/steam/apps/413680/header.jpg?t=1561300405",
  "Languages": [
    "english",
    "russian",
    "french",
    "spanish",
    "japanese"
  ],
  "Platforms": {
    "windows": true,
    "mac": false,
    "linux": false
  }
}