﻿[
  {
    "name": "score_250",
    "defaultvalue": 0,
    "displayName": "Score: 250",
    "hidden": 0,
    "description": "Score 250",
    "icon": "https://steamcdn-a.akamaihd.net/steamcommunity/public/images/apps/463180/5940fd1eabbcf730617e671f01f09efdbb104396.jpg",
    "icongray": "https://steamcdn-a.akamaihd.net/steamcommunity/public/images/apps/463180/1397e02e81007b4d49702d5eff31dcdc62427c25.jpg"
  },
  {
    "name": "score_500",
    "defaultvalue": 0,
    "displayName": "Score: 500",
    "hidden": 0,
    "description": "Score 500",
    "icon": "https://steamcdn-a.akamaihd.net/steamcommunity/public/images/apps/463180/50b2f069c2ba814d4fc793fa1ba9997aeacca0cc.jpg",
    "icongray": "https://steamcdn-a.akamaihd.net/steamcommunity/public/images/apps/463180/7dc85bf2d6f0625fe78d4a34f82bb018381ef46a.jpg"
  },
  {
    "name": "score_750",
    "defaultvalue": 0,
    "displayName": "Score: 750",
    "hidden": 0,
    "description": "Score 750",
    "icon": "https://steamcdn-a.akamaihd.net/steamcommunity/public/images/apps/463180/b293010eba1cd05efc025b0838025bb53780063e.jpg",
    "icongray": "https://steamcdn-a.akamaihd.net/steamcommunity/public/images/apps/463180/bc63a3c91557454a209a730715d7bbeabd0b34ad.jpg"
  },
  {
    "name": "score_1000",
    "defaultvalue": 0,
    "displayName": "Score: 1000",
    "hidden": 0,
    "description": "Score 1000",
    "icon": "https://steamcdn-a.akamaihd.net/steamcommunity/public/images/apps/463180/5671fc3449f6a83e6a8076dda9b22d536daceb25.jpg",
    "icongray": "https://steamcdn-a.akamaihd.net/steamcommunity/public/images/apps/463180/be86548a861f3e2ea2ebb06ec5e9bffecd040e67.jpg"
  },
  {
    "name": "score_1500",
    "defaultvalue": 0,
    "displayName": "Score: 1500",
    "hidden": 0,
    "description": "Score 1500",
    "icon": "https://steamcdn-a.akamaihd.net/steamcommunity/public/images/apps/463180/e7e3380f1b3f7cac40fc518b3b2d40abceacde58.jpg",
    "icongray": "https://steamcdn-a.akamaihd.net/steamcommunity/public/images/apps/463180/3335abb74b6e0039b9c027d754d5a3912792aef4.jpg"
  },
  {
    "name": "score_2000",
    "defaultvalue": 0,
    "displayName": "Score: 2000",
    "hidden": 0,
    "description": "Score 2000",
    "icon": "https://steamcdn-a.akamaihd.net/steamcommunity/public/images/apps/463180/97bd0b3b8a4aa72122fe8ad927a86f89421a5745.jpg",
    "icongray": "https://steamcdn-a.akamaihd.net/steamcommunity/public/images/apps/463180/652d8d955b493b6b5134b488c92d976525587344.jpg"
  },
  {
    "name": "score_2500",
    "defaultvalue": 0,
    "displayName": "Score: 2500",
    "hidden": 0,
    "description": "Score 2500",
    "icon": "https://steamcdn-a.akamaihd.net/steamcommunity/public/images/apps/463180/8a15b342a29d9dcb230756520e5052f559b66c4d.jpg",
    "icongray": "https://steamcdn-a.akamaihd.net/steamcommunity/public/images/apps/463180/3ef7d48f0d5787d7efbda51ca9711f7061bb6eb8.jpg"
  },
  {
    "name": "score_5000",
    "defaultvalue": 0,
    "displayName": "Score: 5000",
    "hidden": 0,
    "description": "Score 5000",
    "icon": "https://steamcdn-a.akamaihd.net/steamcommunity/public/images/apps/463180/f9f4cb2410b14453d989023e7c3f4b876fd06441.jpg",
    "icongray": "https://steamcdn-a.akamaihd.net/steamcommunity/public/images/apps/463180/fa6c9ab47ebe5fe98a656e9a8257a8ba2094e540.jpg"
  },
  {
    "name": "survive_15",
    "defaultvalue": 0,
    "displayName": "Survive 15 minutes in Space",
    "hidden": 0,
    "description": "Survive 15 minutes in Space",
    "icon": "https://steamcdn-a.akamaihd.net/steamcommunity/public/images/apps/463180/1924ef72ef00823db4c886a5f670d89c01973c9b.jpg",
    "icongray": "https://steamcdn-a.akamaihd.net/steamcommunity/public/images/apps/463180/f59867ae123d5aa33b762d9fd4b2ff7917294404.jpg"
  },
  {
    "name": "survive_30",
    "defaultvalue": 0,
    "displayName": "Survive 30 min in Space",
    "hidden": 0,
    "description": "Survive 30 min in Space",
    "icon": "https://steamcdn-a.akamaihd.net/steamcommunity/public/images/apps/463180/851185942ad7df4fc3fe004a62aba67b6d60bec2.jpg",
    "icongray": "https://steamcdn-a.akamaihd.net/steamcommunity/public/images/apps/463180/cbf337b9c21eccfa45466eb87b6ecbdc05610d67.jpg"
  },
  {
    "name": "survive_45",
    "defaultvalue": 0,
    "displayName": "Survive 45 minutes in Space",
    "hidden": 0,
    "description": "Survive 45 minutes in Space",
    "icon": "https://steamcdn-a.akamaihd.net/steamcommunity/public/images/apps/463180/3a95282ee9698b35b1a1c9343b667547eb5c9a45.jpg",
    "icongray": "https://steamcdn-a.akamaihd.net/steamcommunity/public/images/apps/463180/a2414213aba2f85418d5d1614abb7e8e9931a305.jpg"
  },
  {
    "name": "survive_60",
    "defaultvalue": 0,
    "displayName": "Survive 60 min in Space",
    "hidden": 0,
    "description": "Survive 60 min in Space",
    "icon": "https://steamcdn-a.akamaihd.net/steamcommunity/public/images/apps/463180/bb12a426e2c5eb637111dc0e7492b459208956db.jpg",
    "icongray": "https://steamcdn-a.akamaihd.net/steamcommunity/public/images/apps/463180/0b27ed5e9b9bb9b9435a15d41cbd561e61484f94.jpg"
  },
  {
    "name": "ultracombos_10",
    "defaultvalue": 0,
    "displayName": "Ultra Combos x 10",
    "hidden": 0,
    "description": "Make 10 Ultra Combos",
    "icon": "https://steamcdn-a.akamaihd.net/steamcommunity/public/images/apps/463180/ad9b2888b646151258e99ff849c13b75bc2fa053.jpg",
    "icongray": "https://steamcdn-a.akamaihd.net/steamcommunity/public/images/apps/463180/0478243e3d36107b1ebb4d38967cd12ce378536c.jpg"
  },
  {
    "name": "ultracombos_25",
    "defaultvalue": 0,
    "displayName": "Ultra Combos x 25",
    "hidden": 0,
    "description": "Make 25 Ultra Combos",
    "icon": "https://steamcdn-a.akamaihd.net/steamcommunity/public/images/apps/463180/c9f05f18d5411740024184f5afe05cf2002f25f4.jpg",
    "icongray": "https://steamcdn-a.akamaihd.net/steamcommunity/public/images/apps/463180/36e46c44f9399d182d1ed4ae13bb4f66152ba854.jpg"
  },
  {
    "name": "dreadnoughts_10",
    "defaultvalue": 0,
    "displayName": "Dreadnoughts x 10",
    "hidden": 0,
    "description": "Defeat 10 Dreadnoughts",
    "icon": "https://steamcdn-a.akamaihd.net/steamcommunity/public/images/apps/463180/2ec37320adb69619da8e6d16a0028417784bbee5.jpg",
    "icongray": "https://steamcdn-a.akamaihd.net/steamcommunity/public/images/apps/463180/f88a72a3e5f19213fdb32d40aab04f7f346119ea.jpg"
  },
  {
    "name": "dreadnoughts_25",
    "defaultvalue": 0,
    "displayName": "Dreadnoughts x 25",
    "hidden": 0,
    "description": "Defeat 25 Dreadnoughts",
    "icon": "https://steamcdn-a.akamaihd.net/steamcommunity/public/images/apps/463180/88d82df42191252dcf2acd92ec3a734fae3476ee.jpg",
    "icongray": "https://steamcdn-a.akamaihd.net/steamcommunity/public/images/apps/463180/88e1f8cebce98b365a3bf356474f7798320082ba.jpg"
  }
]