﻿{
  "Dlcs": {},
  "Name": "J.A.W.S",
  "AppId": "753610",
  "ImageUrl": "https://steamcdn-a.akamaihd.net/steam/apps/753610/header.jpg?t=1520615203",
  "Languages": [
    "english"
  ],
  "Platforms": {
    "windows": true,
    "mac": false,
    "linux": false
  }
}