﻿{
  "Dlcs": {},
  "Name": "Hot Squat",
  "AppId": "553590",
  "ImageUrl": "https://steamcdn-a.akamaihd.net/steam/apps/553590/header.jpg?t=1575066124",
  "Languages": [
    "english"
  ],
  "Platforms": {
    "windows": true,
    "mac": false,
    "linux": false
  }
}