﻿{
  "Dlcs": {},
  "Name": "Heavy Destinies",
  "AppId": "726570",
  "ImageUrl": "https://steamcdn-a.akamaihd.net/steam/apps/726570/header.jpg?t=1509605192",
  "Languages": [
    "russian",
    "english",
    "french"
  ],
  "Platforms": {
    "windows": true,
    "mac": false,
    "linux": false
  }
}