﻿{
  "Dlcs": {
    "215200": {
      "Name": "The Book of Unwritten Tales Digital Extras",
      "ImageUrl": "https://steamcdn-a.akamaihd.net/steam/apps/215200/header.jpg?t=1471949099"
    }
  },
  "Name": "The Book of Unwritten Tales",
  "AppId": "215160",
  "ImageUrl": "https://steamcdn-a.akamaihd.net/steam/apps/215160/header.jpg?t=1561962140",
  "Languages": [
    "english",
    "german"
  ],
  "Platforms": {
    "windows": true,
    "mac": true,
    "linux": true
  }
}