﻿[
  {
    "name": "Santa",
    "defaultvalue": 0,
    "displayName": "Santa",
    "hidden": 0,
    "description": "Start the game",
    "icon": "https://steamcdn-a.akamaihd.net/steamcommunity/public/images/apps/761440/eaae200f579601490e4f9889cc0d99fd5156bd9c.jpg",
    "icongray": "https://steamcdn-a.akamaihd.net/steamcommunity/public/images/apps/761440/9d6e98a399496de3847218f5e2bac66b0efefb54.jpg"
  },
  {
    "name": "New",
    "defaultvalue": 0,
    "displayName": "New",
    "hidden": 0,
    "description": "Start the game",
    "icon": "https://steamcdn-a.akamaihd.net/steamcommunity/public/images/apps/761440/deb9d5bb71a38d4c130652002ccd3d813a78148c.jpg",
    "icongray": "https://steamcdn-a.akamaihd.net/steamcommunity/public/images/apps/761440/9d6e98a399496de3847218f5e2bac66b0efefb54.jpg"
  },
  {
    "name": "Year",
    "defaultvalue": 0,
    "displayName": "Year",
    "hidden": 0,
    "description": "Start the game",
    "icon": "https://steamcdn-a.akamaihd.net/steamcommunity/public/images/apps/761440/dcbe6279d2324645875a6b3aedd3383c162b624a.jpg",
    "icongray": "https://steamcdn-a.akamaihd.net/steamcommunity/public/images/apps/761440/9d6e98a399496de3847218f5e2bac66b0efefb54.jpg"
  },
  {
    "name": "!",
    "defaultvalue": 0,
    "displayName": "!",
    "hidden": 0,
    "description": "Start the game",
    "icon": "https://steamcdn-a.akamaihd.net/steamcommunity/public/images/apps/761440/fcda513794a7f05e32b6894700ce93e3d4e26ae6.jpg",
    "icongray": "https://steamcdn-a.akamaihd.net/steamcommunity/public/images/apps/761440/9d6e98a399496de3847218f5e2bac66b0efefb54.jpg"
  },
  {
    "name": "Merry",
    "defaultvalue": 0,
    "displayName": "Merry",
    "hidden": 0,
    "description": "Close the game",
    "icon": "https://steamcdn-a.akamaihd.net/steamcommunity/public/images/apps/761440/acd226074e9acd86c84ebf1a36c276747e255082.jpg",
    "icongray": "https://steamcdn-a.akamaihd.net/steamcommunity/public/images/apps/761440/9d6e98a399496de3847218f5e2bac66b0efefb54.jpg"
  },
  {
    "name": "Christmas",
    "defaultvalue": 0,
    "displayName": "Christmas",
    "hidden": 0,
    "description": "Close the game",
    "icon": "https://steamcdn-a.akamaihd.net/steamcommunity/public/images/apps/761440/4dbbd13d7e033dddfe801051fb75c0896eb98601.jpg",
    "icongray": "https://steamcdn-a.akamaihd.net/steamcommunity/public/images/apps/761440/9d6e98a399496de3847218f5e2bac66b0efefb54.jpg"
  },
  {
    "name": "Blue girl",
    "defaultvalue": 0,
    "displayName": "Blue girl",
    "hidden": 0,
    "description": "You were hit by a blue girl",
    "icon": "https://steamcdn-a.akamaihd.net/steamcommunity/public/images/apps/761440/a996bbda29ef22a1b5b591cb12c04329b69c9abc.jpg",
    "icongray": "https://steamcdn-a.akamaihd.net/steamcommunity/public/images/apps/761440/9d6e98a399496de3847218f5e2bac66b0efefb54.jpg"
  },
  {
    "name": "Deer",
    "defaultvalue": 0,
    "displayName": "Deer",
    "hidden": 0,
    "description": "You were hit by a deer",
    "icon": "https://steamcdn-a.akamaihd.net/steamcommunity/public/images/apps/761440/cec91e6bff43558be34093c54d5291d7c8509be6.jpg",
    "icongray": "https://steamcdn-a.akamaihd.net/steamcommunity/public/images/apps/761440/9d6e98a399496de3847218f5e2bac66b0efefb54.jpg"
  },
  {
    "name": "Dog",
    "defaultvalue": 0,
    "displayName": "Dog",
    "hidden": 0,
    "description": "You were hit by a dog",
    "icon": "https://steamcdn-a.akamaihd.net/steamcommunity/public/images/apps/761440/1095fd3b6182de2958929846ee0d2cff428ab11f.jpg",
    "icongray": "https://steamcdn-a.akamaihd.net/steamcommunity/public/images/apps/761440/9d6e98a399496de3847218f5e2bac66b0efefb54.jpg"
  },
  {
    "name": "Penguin",
    "defaultvalue": 0,
    "displayName": "Penguin",
    "hidden": 0,
    "description": "You were hit by a penguin",
    "icon": "https://steamcdn-a.akamaihd.net/steamcommunity/public/images/apps/761440/3bcb6329d10bd6ae2aac5f8d02ce4012374badb3.jpg",
    "icongray": "https://steamcdn-a.akamaihd.net/steamcommunity/public/images/apps/761440/9d6e98a399496de3847218f5e2bac66b0efefb54.jpg"
  },
  {
    "name": "Present",
    "defaultvalue": 0,
    "displayName": "Present",
    "hidden": 0,
    "description": "Pick up first present in City map",
    "icon": "https://steamcdn-a.akamaihd.net/steamcommunity/public/images/apps/761440/b85ea4dbf1952dc8e70177592cc2b063ee735a09.jpg",
    "icongray": "https://steamcdn-a.akamaihd.net/steamcommunity/public/images/apps/761440/9d6e98a399496de3847218f5e2bac66b0efefb54.jpg"
  },
  {
    "name": "Gift",
    "defaultvalue": 0,
    "displayName": "Gift",
    "hidden": 0,
    "description": "Pick up first gift in Forest map",
    "icon": "https://steamcdn-a.akamaihd.net/steamcommunity/public/images/apps/761440/b8344b31508fc81bb5fb05a03095e16ea4406fb2.jpg",
    "icongray": "https://steamcdn-a.akamaihd.net/steamcommunity/public/images/apps/761440/9d6e98a399496de3847218f5e2bac66b0efefb54.jpg"
  }
]