﻿[
  {
    "name": "Achievement_1",
    "defaultvalue": 0,
    "displayName": "Battleborn",
    "hidden": 0,
    "description": "Play a match or mission after reaching Command Rank 100.",
    "icon": "https://steamcdn-a.akamaihd.net/steamcommunity/public/images/apps/394230/48919a33fe4b808db359fd5a5f8de1129a8562d7.jpg",
    "icongray": "https://steamcdn-a.akamaihd.net/steamcommunity/public/images/apps/394230/6035427d7384388dac13dd62ba43f92907a59002.jpg"
  },
  {
    "name": "Achievement_2",
    "defaultvalue": 0,
    "displayName": "No Rest for the Wicked",
    "hidden": 0,
    "description": "Win 30 Story missions or Versus matches.",
    "icon": "https://steamcdn-a.akamaihd.net/steamcommunity/public/images/apps/394230/d320863b77abf6a80e7abe51492398c7f06c85e5.jpg",
    "icongray": "https://steamcdn-a.akamaihd.net/steamcommunity/public/images/apps/394230/7ae60f00e329ef156266aefeecf1bfa32a4ed88a.jpg"
  },
  {
    "name": "Achievement_3",
    "defaultvalue": 0,
    "displayName": "Solus War Hardcore Hero",
    "hidden": 0,
    "description": "Complete all Story missions on Hardcore.",
    "icon": "https://steamcdn-a.akamaihd.net/steamcommunity/public/images/apps/394230/795a9d5237a47e8a17a069588496cb935671c591.jpg",
    "icongray": "https://steamcdn-a.akamaihd.net/steamcommunity/public/images/apps/394230/1c71be2ad78484cbc4b333519df50d1141164392.jpg"
  },
  {
    "name": "Achievement_4",
    "defaultvalue": 0,
    "displayName": "Solus War Hero Advanced",
    "hidden": 0,
    "description": "Complete all Story missions on Advanced Difficulty.",
    "icon": "https://steamcdn-a.akamaihd.net/steamcommunity/public/images/apps/394230/31aaef28413da84bb015c372cc20f139f5b90610.jpg",
    "icongray": "https://steamcdn-a.akamaihd.net/steamcommunity/public/images/apps/394230/42150a0c1e3bf8c0139a90e189251ca89029ab7c.jpg"
  },
  {
    "name": "Achievement_5",
    "defaultvalue": 0,
    "displayName": "Tour of Duty",
    "hidden": 0,
    "description": "Win a match on each Versus map.",
    "icon": "https://steamcdn-a.akamaihd.net/steamcommunity/public/images/apps/394230/61f685127686a9363b85e2aebcf31c2d58cdc281.jpg",
    "icongray": "https://steamcdn-a.akamaihd.net/steamcommunity/public/images/apps/394230/787ea6fb16134316e79946030eeb2a9ec77dbf7d.jpg"
  },
  {
    "name": "Achievement_6",
    "defaultvalue": 0,
    "displayName": "Commander and Collector",
    "hidden": 0,
    "description": "Play at least one match or mission with all 25 Battleborn.",
    "icon": "https://steamcdn-a.akamaihd.net/steamcommunity/public/images/apps/394230/b7002da68ada2e1d2c34c409bc4d071fbdc95446.jpg",
    "icongray": "https://steamcdn-a.akamaihd.net/steamcommunity/public/images/apps/394230/a0a1a2b9af5eaa66327144f48833ca497e5e34d1.jpg"
  },
  {
    "name": "Achievement_8",
    "defaultvalue": 0,
    "displayName": "First Among Heroes",
    "hidden": 0,
    "description": "Complete a match or mission and reach rank 15 with a Battleborn.",
    "icon": "https://steamcdn-a.akamaihd.net/steamcommunity/public/images/apps/394230/66ff154c9fb92b5c913b65190d4b035632326a6b.jpg",
    "icongray": "https://steamcdn-a.akamaihd.net/steamcommunity/public/images/apps/394230/6fa24229485b8401131f2405b67a27b76f24e644.jpg"
  },
  {
    "name": "Achievement_9",
    "defaultvalue": 0,
    "displayName": "A Tyrant Undone",
    "hidden": 0,
    "description": "Defeat Rendain.",
    "icon": "https://steamcdn-a.akamaihd.net/steamcommunity/public/images/apps/394230/d29ee7cc08a0de0d8e3c2de1514a2631d9cfea33.jpg",
    "icongray": "https://steamcdn-a.akamaihd.net/steamcommunity/public/images/apps/394230/4a25d82a4aba5dce659053eb9529829f21f81a90.jpg"
  },
  {
    "name": "Achievement_10",
    "defaultvalue": 0,
    "displayName": "Perfectionist",
    "hidden": 0,
    "description": "Complete a Story mission without losing any Lives.",
    "icon": "https://steamcdn-a.akamaihd.net/steamcommunity/public/images/apps/394230/7c166dea502dc884ac15bc9dd72be11368c0c06a.jpg",
    "icongray": "https://steamcdn-a.akamaihd.net/steamcommunity/public/images/apps/394230/d4769d3de9f4bd0792b0f271a30f99de4274392f.jpg"
  },
  {
    "name": "Achievement_11",
    "defaultvalue": 0,
    "displayName": "The Ol' One-Two",
    "hidden": 0,
    "description": "Get 5 double kills.",
    "icon": "https://steamcdn-a.akamaihd.net/steamcommunity/public/images/apps/394230/214a294098ee27fe3c80f6a6489df23176fd1168.jpg",
    "icongray": "https://steamcdn-a.akamaihd.net/steamcommunity/public/images/apps/394230/d21c40cc8eab6dc2d3dcd73ad52b98ca118d88ec.jpg"
  },
  {
    "name": "Achievement_12",
    "defaultvalue": 0,
    "displayName": "Behold My Death Lasers and Despair",
    "hidden": 0,
    "description": "Activate a piece of Legendary Gear.",
    "icon": "https://steamcdn-a.akamaihd.net/steamcommunity/public/images/apps/394230/2379cd8b6bbca56635daa01cdaf85c2be714e95b.jpg",
    "icongray": "https://steamcdn-a.akamaihd.net/steamcommunity/public/images/apps/394230/a87efbd06c942f0b0b191c22ce4e73d3ee2e088a.jpg"
  },
  {
    "name": "Achievement_13",
    "defaultvalue": 0,
    "displayName": "Solus Sentinel",
    "hidden": 0,
    "description": "Achieve a Gold rating on any Story mission.",
    "icon": "https://steamcdn-a.akamaihd.net/steamcommunity/public/images/apps/394230/187e836651b453aa0b0ed878f42df2888c6c16f0.jpg",
    "icongray": "https://steamcdn-a.akamaihd.net/steamcommunity/public/images/apps/394230/9d7b6486b88dc33c4403ef51a681a7914e2d9cdb.jpg"
  },
  {
    "name": "Achievement_14",
    "defaultvalue": 0,
    "displayName": "Gotta Punch 'em All",
    "hidden": 0,
    "description": "Participate in killing each Battleborn at least once.",
    "icon": "https://steamcdn-a.akamaihd.net/steamcommunity/public/images/apps/394230/9e086d54e65602b390f4d459c2093ee5ba81abc0.jpg",
    "icongray": "https://steamcdn-a.akamaihd.net/steamcommunity/public/images/apps/394230/c355f2ae895cc64f4f6333556efd90377d035293.jpg"
  },
  {
    "name": "Achievement_15",
    "defaultvalue": 0,
    "displayName": "Decked Out",
    "hidden": 0,
    "description": "Activate three pieces of Epic or better Gear in a single mission or match.",
    "icon": "https://steamcdn-a.akamaihd.net/steamcommunity/public/images/apps/394230/49c5f32f086f82e1f746dd10366cf7183317b984.jpg",
    "icongray": "https://steamcdn-a.akamaihd.net/steamcommunity/public/images/apps/394230/2a7b319cf58be71f0e03834e4e9b1ba635c40394.jpg"
  },
  {
    "name": "Achievement_16",
    "defaultvalue": 0,
    "displayName": "Grow Forth and Conquer",
    "hidden": 0,
    "description": "Activate a mutation in a match.",
    "icon": "https://steamcdn-a.akamaihd.net/steamcommunity/public/images/apps/394230/d1102cd7f50c230089adcfb00193f3350fc064a6.jpg",
    "icongray": "https://steamcdn-a.akamaihd.net/steamcommunity/public/images/apps/394230/dfa5bdce10f71be4bfb5322a9be08be0d177a74e.jpg"
  },
  {
    "name": "Achievement_17",
    "defaultvalue": 0,
    "displayName": "Dressed for Success",
    "hidden": 0,
    "description": "Complete any challenge that unlocks a Champion skin.",
    "icon": "https://steamcdn-a.akamaihd.net/steamcommunity/public/images/apps/394230/a7b27de5c0da89f7438977239127e6d13a413480.jpg",
    "icongray": "https://steamcdn-a.akamaihd.net/steamcommunity/public/images/apps/394230/b76bb0da412a389604d769c8545dcaab1200e20f.jpg"
  },
  {
    "name": "Achievement_18",
    "defaultvalue": 0,
    "displayName": "When You Roll Up With the Squad Like",
    "hidden": 0,
    "description": "Enter matchmaking with a full team of 5 players.",
    "icon": "https://steamcdn-a.akamaihd.net/steamcommunity/public/images/apps/394230/40846311d25f4ac700e2d5f16e83eb82a46fffaf.jpg",
    "icongray": "https://steamcdn-a.akamaihd.net/steamcommunity/public/images/apps/394230/e5f6bdf9ee3484fce6cabcf5f8e2aa7866cd21ad.jpg"
  },
  {
    "name": "Achievement_19",
    "defaultvalue": 0,
    "displayName": "The Blossom's Fury",
    "hidden": 0,
    "description": "Complete all Thorn lore challenges.",
    "icon": "https://steamcdn-a.akamaihd.net/steamcommunity/public/images/apps/394230/c649889e710a2f93d0687a9a4dd747d192dcbf17.jpg",
    "icongray": "https://steamcdn-a.akamaihd.net/steamcommunity/public/images/apps/394230/0a59783252981880377223330afb7e22afb1dbdd.jpg"
  },
  {
    "name": "Achievement_20",
    "defaultvalue": 0,
    "displayName": "Brotherhood of the Mikes",
    "hidden": 0,
    "description": "Complete all Oscar Mike lore challenges.",
    "icon": "https://steamcdn-a.akamaihd.net/steamcommunity/public/images/apps/394230/a3b36a13045ae34300669aef101df3c20c2a4ab8.jpg",
    "icongray": "https://steamcdn-a.akamaihd.net/steamcommunity/public/images/apps/394230/d2e6058ea061ab8a1d8746901f4c23084452ce6f.jpg"
  },
  {
    "name": "Achievement_21",
    "defaultvalue": 0,
    "displayName": "Keeper of the Blades",
    "hidden": 0,
    "description": "Complete all Rath lore challenges.",
    "icon": "https://steamcdn-a.akamaihd.net/steamcommunity/public/images/apps/394230/84fd9557751cdd653fe477ddaba326e74783aeaa.jpg",
    "icongray": "https://steamcdn-a.akamaihd.net/steamcommunity/public/images/apps/394230/a32b850bcf62c0e00cf8bfca4850d07a6fe1e13c.jpg"
  },
  {
    "name": "Achievement_23",
    "defaultvalue": 0,
    "displayName": "Acres and Eras",
    "hidden": 0,
    "description": "Complete all Miko lore challenges.",
    "icon": "https://steamcdn-a.akamaihd.net/steamcommunity/public/images/apps/394230/be1fa730b61ec2c7d9ab48424800cd32ea557b93.jpg",
    "icongray": "https://steamcdn-a.akamaihd.net/steamcommunity/public/images/apps/394230/90971b74893c217a4241e7ffa163000a6c999e2d.jpg"
  },
  {
    "name": "Achievement_24",
    "defaultvalue": 0,
    "displayName": "It's My Only Name, Chief",
    "hidden": 0,
    "description": "Complete all Montana lore challenges.",
    "icon": "https://steamcdn-a.akamaihd.net/steamcommunity/public/images/apps/394230/23d462aa97cb5394732505487c9d498496ec080d.jpg",
    "icongray": "https://steamcdn-a.akamaihd.net/steamcommunity/public/images/apps/394230/1ba72996aef26d445aab94dc1f1eed2b73654c8b.jpg"
  },
  {
    "name": "Achievement_25",
    "defaultvalue": 0,
    "displayName": "Rise of the Valkyrie",
    "hidden": 0,
    "description": "Complete all Reyna lore challenges.",
    "icon": "https://steamcdn-a.akamaihd.net/steamcommunity/public/images/apps/394230/642cac1deeab6bb230a762f92d9f21381bd61404.jpg",
    "icongray": "https://steamcdn-a.akamaihd.net/steamcommunity/public/images/apps/394230/effa0c08b51953a982c413e59ce6a019598bb544.jpg"
  },
  {
    "name": "Achievement_26",
    "defaultvalue": 0,
    "displayName": "Champion of the Pits",
    "hidden": 0,
    "description": "Complete all Caldarius lore challenges.",
    "icon": "https://steamcdn-a.akamaihd.net/steamcommunity/public/images/apps/394230/b08bd385da3df076109e7df874c6073242a34fab.jpg",
    "icongray": "https://steamcdn-a.akamaihd.net/steamcommunity/public/images/apps/394230/6f7c077dce17e0af70cf8eed681849ca3ea05376.jpg"
  },
  {
    "name": "Achievement_27",
    "defaultvalue": 0,
    "displayName": "Love and Fire, Death and Kisses",
    "hidden": 0,
    "description": "Complete all Orendi lore challenges.",
    "icon": "https://steamcdn-a.akamaihd.net/steamcommunity/public/images/apps/394230/0bf6452be9d893439f78a23f650230e7957a3bc8.jpg",
    "icongray": "https://steamcdn-a.akamaihd.net/steamcommunity/public/images/apps/394230/0394a1d9aeb70d12d81f44e324b2e23aa128de0f.jpg"
  },
  {
    "name": "Achievement_28",
    "defaultvalue": 0,
    "displayName": "Elegance in Engineering",
    "hidden": 0,
    "description": "Complete all Phoebe lore challenges.",
    "icon": "https://steamcdn-a.akamaihd.net/steamcommunity/public/images/apps/394230/11fccce494594fda048e02e42ddf5edb7e73b78d.jpg",
    "icongray": "https://steamcdn-a.akamaihd.net/steamcommunity/public/images/apps/394230/9b89decb426178b468c624865ebd9791df2ac5d6.jpg"
  },
  {
    "name": "Achievement_29",
    "defaultvalue": 0,
    "displayName": "Flyboy",
    "hidden": 0,
    "description": "Complete all Benedict lore challenges.",
    "icon": "https://steamcdn-a.akamaihd.net/steamcommunity/public/images/apps/394230/9b7746db5fcb6627ad62b5e034bc2241e19f06c7.jpg",
    "icongray": "https://steamcdn-a.akamaihd.net/steamcommunity/public/images/apps/394230/cfc43a80dbec63b9af7fdb94d8c4adb631bd5f1d.jpg"
  },
  {
    "name": "Achievement_30",
    "defaultvalue": 0,
    "displayName": "The Bears and the Beers",
    "hidden": 0,
    "description": "Complete all Boldur lore challenges.",
    "icon": "https://steamcdn-a.akamaihd.net/steamcommunity/public/images/apps/394230/4872d4d04df8e4118bf21873fdd79f8c54b3502c.jpg",
    "icongray": "https://steamcdn-a.akamaihd.net/steamcommunity/public/images/apps/394230/e616f9e595151cbc9adc1c4ac7619ad9c1445f1f.jpg"
  },
  {
    "name": "Achievement_31",
    "defaultvalue": 0,
    "displayName": "Priestess of the Sustaining Mother",
    "hidden": 0,
    "description": "Complete all Ambra lore challenges.",
    "icon": "https://steamcdn-a.akamaihd.net/steamcommunity/public/images/apps/394230/2d913a8571d02c2265a6ad7ba61328b406d29c15.jpg",
    "icongray": "https://steamcdn-a.akamaihd.net/steamcommunity/public/images/apps/394230/97202879618cfb5bbe0b78e47db83ea6362942a5.jpg"
  },
  {
    "name": "Achievement_32",
    "defaultvalue": 0,
    "displayName": "Hate Furnace at Maximum! :) ",
    "hidden": 0,
    "description": "Complete all ISIC lore challenges.",
    "icon": "https://steamcdn-a.akamaihd.net/steamcommunity/public/images/apps/394230/a55d4068118ab107f84f3a40a07cdc86866a36c0.jpg",
    "icongray": "https://steamcdn-a.akamaihd.net/steamcommunity/public/images/apps/394230/54273d23fe50853c153c8cd374b69ddbde34d4b5.jpg"
  },
  {
    "name": "Achievement_33",
    "defaultvalue": 0,
    "displayName": "Me 'n' My Monster",
    "hidden": 0,
    "description": "Complete all Shayne & Aurox lore challenges.",
    "icon": "https://steamcdn-a.akamaihd.net/steamcommunity/public/images/apps/394230/07426cf07e47269f6277ccd356a790ec76ebe816.jpg",
    "icongray": "https://steamcdn-a.akamaihd.net/steamcommunity/public/images/apps/394230/db804991f1e0a0bd294617c0535cce6f1efc1f11.jpg"
  },
  {
    "name": "Achievement_34",
    "defaultvalue": 0,
    "displayName": "The Wraith of Bliss",
    "hidden": 0,
    "description": "Complete all Galilea lore challenges.",
    "icon": "https://steamcdn-a.akamaihd.net/steamcommunity/public/images/apps/394230/2ebf34671fcbd648477ae5bed54e455a394a9e30.jpg",
    "icongray": "https://steamcdn-a.akamaihd.net/steamcommunity/public/images/apps/394230/75e2f8743866f00f3f87e378789359712feeb376.jpg"
  },
  {
    "name": "Achievement_35",
    "defaultvalue": 0,
    "displayName": "Civil Ice",
    "hidden": 0,
    "description": "Complete all Kelvin lore challenges.",
    "icon": "https://steamcdn-a.akamaihd.net/steamcommunity/public/images/apps/394230/64949ce8ccea23a574ab806f0b6055428cc0e55a.jpg",
    "icongray": "https://steamcdn-a.akamaihd.net/steamcommunity/public/images/apps/394230/1db8f14882f639a9c05cf4949ce1c4f3841faefe.jpg"
  },
  {
    "name": "Achievement_36",
    "defaultvalue": 0,
    "displayName": "Anarchy Rules",
    "hidden": 0,
    "description": "Complete all Attikus lore challenges.",
    "icon": "https://steamcdn-a.akamaihd.net/steamcommunity/public/images/apps/394230/0da5a99e5eb5dbed3bc4097451dae25dbf568a15.jpg",
    "icongray": "https://steamcdn-a.akamaihd.net/steamcommunity/public/images/apps/394230/6f9398d4409cf41eeb594f91af3c2421d031ebda.jpg"
  },
  {
    "name": "Achievement_37",
    "defaultvalue": 0,
    "displayName": "The Once and Future Champ",
    "hidden": 0,
    "description": "Complete all El Dragón lore challenges.",
    "icon": "https://steamcdn-a.akamaihd.net/steamcommunity/public/images/apps/394230/245a9ac77d430dad30406d7168c6834d6d209ed2.jpg",
    "icongray": "https://steamcdn-a.akamaihd.net/steamcommunity/public/images/apps/394230/36c64e1fe8737e3765e82be407a00328c33987cd.jpg"
  },
  {
    "name": "Achievement_38",
    "defaultvalue": 0,
    "displayName": "Anxious, Angry, and Adorable",
    "hidden": 0,
    "description": "Complete all Toby lore challenges.",
    "icon": "https://steamcdn-a.akamaihd.net/steamcommunity/public/images/apps/394230/db0b3101f9a6fcecd5fa73bc17841bc2ce90cfbc.jpg",
    "icongray": "https://steamcdn-a.akamaihd.net/steamcommunity/public/images/apps/394230/34dfc1f7cdc57eeea143e2be1bef0e81b2783640.jpg"
  },
  {
    "name": "Achievement_39",
    "defaultvalue": 0,
    "displayName": "The Captain",
    "hidden": 0,
    "description": "Complete all Ghalt lore challenges.",
    "icon": "https://steamcdn-a.akamaihd.net/steamcommunity/public/images/apps/394230/d6d4fd09a548f95ca89bff2e6fc9c9bde92eb4d2.jpg",
    "icongray": "https://steamcdn-a.akamaihd.net/steamcommunity/public/images/apps/394230/3fbfa9b25c25fe5e3c6c3733ea2eff6656cb4ea2.jpg"
  },
  {
    "name": "Achievement_40",
    "defaultvalue": 0,
    "displayName": "Lost Little Eldrid",
    "hidden": 0,
    "description": "Complete all Mellka lore challenges.",
    "icon": "https://steamcdn-a.akamaihd.net/steamcommunity/public/images/apps/394230/501b8c6a62df1a44276a97b2a5e2b2e778e788d7.jpg",
    "icongray": "https://steamcdn-a.akamaihd.net/steamcommunity/public/images/apps/394230/81036fbca01cfaad69227e2ed39446f04bc06869.jpg"
  },
  {
    "name": "Achievement_41",
    "defaultvalue": 0,
    "displayName": "The Spymistress",
    "hidden": 0,
    "description": "Complete all Deande lore challenges.",
    "icon": "https://steamcdn-a.akamaihd.net/steamcommunity/public/images/apps/394230/49133fdc44dd7fd4152e02f210899fccc5d49f9d.jpg",
    "icongray": "https://steamcdn-a.akamaihd.net/steamcommunity/public/images/apps/394230/d91c7e607b28b4445fab65f07d76df2885e6d652.jpg"
  },
  {
    "name": "Achievement_42",
    "defaultvalue": 0,
    "displayName": "The Curmudgeon",
    "hidden": 0,
    "description": "Complete all Kleese lore challenges.",
    "icon": "https://steamcdn-a.akamaihd.net/steamcommunity/public/images/apps/394230/6efc77dd5b44322653d8fe34614bc382032b7302.jpg",
    "icongray": "https://steamcdn-a.akamaihd.net/steamcommunity/public/images/apps/394230/5754613e0b053aa9a4470359aaa42f59458e5e68.jpg"
  },
  {
    "name": "Achievement_43",
    "defaultvalue": 0,
    "displayName": "The Mike Who Lived",
    "hidden": 0,
    "description": "Complete all Whiskey Foxtrot lore challenges.",
    "icon": "https://steamcdn-a.akamaihd.net/steamcommunity/public/images/apps/394230/edf45b63895edb4b14fb6517a66ff518fc3ae0e3.jpg",
    "icongray": "https://steamcdn-a.akamaihd.net/steamcommunity/public/images/apps/394230/c717c1eb152fdb4e8d799f9c8393f01c4d206026.jpg"
  },
  {
    "name": "Achievement_44",
    "defaultvalue": 0,
    "displayName": "Shock the Trooper",
    "hidden": 0,
    "description": "Complete The Renegade on any difficulty.",
    "icon": "https://steamcdn-a.akamaihd.net/steamcommunity/public/images/apps/394230/0016e9105a6c756edaf11c7febdd5e46f82f8c96.jpg",
    "icongray": "https://steamcdn-a.akamaihd.net/steamcommunity/public/images/apps/394230/a5f470b60e61d9d9f40f0b2db80ee87f756fc121.jpg"
  },
  {
    "name": "Achievement_45",
    "defaultvalue": 0,
    "displayName": "Mister Wolf's Wild Ride",
    "hidden": 0,
    "description": "Complete The Void's Edge on any difficulty.",
    "icon": "https://steamcdn-a.akamaihd.net/steamcommunity/public/images/apps/394230/c1f78894fd481acab1de234a33d0b78209f460a5.jpg",
    "icongray": "https://steamcdn-a.akamaihd.net/steamcommunity/public/images/apps/394230/3ce420a74aae3b5df97778bc23b0962bf21281ad.jpg"
  },
  {
    "name": "Achievement_46",
    "defaultvalue": 0,
    "displayName": "Desperate Measurements",
    "hidden": 0,
    "description": "Complete The Experiment on any difficulty.",
    "icon": "https://steamcdn-a.akamaihd.net/steamcommunity/public/images/apps/394230/92f8b3e4c35716a11eb200436918e83d873c73b3.jpg",
    "icongray": "https://steamcdn-a.akamaihd.net/steamcommunity/public/images/apps/394230/298f4dc4a21daa9d47969ef8dfd98ec2af785ddb.jpg"
  },
  {
    "name": "Achievement_47",
    "defaultvalue": 0,
    "displayName": "Remnants of Codex",
    "hidden": 0,
    "description": "Complete The Archive on any difficulty.",
    "icon": "https://steamcdn-a.akamaihd.net/steamcommunity/public/images/apps/394230/f7775d32364f69be9b83342b625db2a1de085dd6.jpg",
    "icongray": "https://steamcdn-a.akamaihd.net/steamcommunity/public/images/apps/394230/9ee217dd43e57ae8f267ef379b7951890e362890.jpg"
  },
  {
    "name": "Achievement_48",
    "defaultvalue": 0,
    "displayName": "Traps and Treasure",
    "hidden": 0,
    "description": "Complete The Sentinel on any difficulty.",
    "icon": "https://steamcdn-a.akamaihd.net/steamcommunity/public/images/apps/394230/acec73b8e2d0d85df29d990eb1092771886b6f2f.jpg",
    "icongray": "https://steamcdn-a.akamaihd.net/steamcommunity/public/images/apps/394230/94348b4213a20df0fcd9b21670305178fa339884.jpg"
  },
  {
    "name": "Achievement_49",
    "defaultvalue": 0,
    "displayName": "A Booming Business",
    "hidden": 0,
    "description": "Complete The Saboteur on any difficulty.",
    "icon": "https://steamcdn-a.akamaihd.net/steamcommunity/public/images/apps/394230/503620bbf4586a59533f1acc9ef9896ddaae5757.jpg",
    "icongray": "https://steamcdn-a.akamaihd.net/steamcommunity/public/images/apps/394230/4aba5227b316b1da9981b722f82c8ef4fcdc533d.jpg"
  },
  {
    "name": "Achievement_50",
    "defaultvalue": 0,
    "displayName": "Divide by Zero Hour",
    "hidden": 0,
    "description": "Complete The Algorithm on any difficulty.",
    "icon": "https://steamcdn-a.akamaihd.net/steamcommunity/public/images/apps/394230/59819565743730e2bc4692fa9da9e41ba769a2ef.jpg",
    "icongray": "https://steamcdn-a.akamaihd.net/steamcommunity/public/images/apps/394230/2bf969e34c70460e3e14db8e8c756011e0f16c9f.jpg"
  },
  {
    "name": "Achievement_7",
    "defaultvalue": 0,
    "displayName": "Sir Hon. Lord Baron Oscar Mike Jr IV, Esq.",
    "hidden": 0,
    "description": "Collect 25 Titles from completing Challenges.",
    "icon": "https://steamcdn-a.akamaihd.net/steamcommunity/public/images/apps/394230/4c13da14f3e040ff8ae9a70d5f34c0d7acc15e30.jpg",
    "icongray": "https://steamcdn-a.akamaihd.net/steamcommunity/public/images/apps/394230/35e05ce4dd2aa1dff2822145c43b32287e955b08.jpg"
  },
  {
    "name": "Achievement_22",
    "defaultvalue": 0,
    "displayName": "Titanium Dandy",
    "hidden": 0,
    "description": "Complete all Marquis lore challenges.",
    "icon": "https://steamcdn-a.akamaihd.net/steamcommunity/public/images/apps/394230/770b13617f168c275edcc6535d0e40208a186f03.jpg",
    "icongray": "https://steamcdn-a.akamaihd.net/steamcommunity/public/images/apps/394230/c34247208b6adbe71281853bbd15af93f66d96c4.jpg"
  },
  {
    "name": "Achievement_51",
    "defaultvalue": 0,
    "displayName": "The Bluemother Smiles",
    "hidden": 0,
    "description": "Complete all Alani lore challenges.",
    "icon": "https://steamcdn-a.akamaihd.net/steamcommunity/public/images/apps/394230/78e0c4c1c8f6912322d6964562fdcc20797cf224.jpg",
    "icongray": "https://steamcdn-a.akamaihd.net/steamcommunity/public/images/apps/394230/4c12741c1c9bf0f0588b090fd51450bb26d2401e.jpg"
  },
  {
    "name": "Achievement_52",
    "defaultvalue": 0,
    "displayName": "Twice-Made Sneaker",
    "hidden": 0,
    "description": "Complete all Pendles lore challenges.",
    "icon": "https://steamcdn-a.akamaihd.net/steamcommunity/public/images/apps/394230/6c1dca6082ed604b4068c6bd0eeca00bfc7d9148.jpg",
    "icongray": "https://steamcdn-a.akamaihd.net/steamcommunity/public/images/apps/394230/4d883eb1d0f5aab2a6bd95e96f8355ec2caf6e3e.jpg"
  },
  {
    "name": "Achievement_53",
    "defaultvalue": 0,
    "displayName": "Sergeant Demobird",
    "hidden": 0,
    "description": "Complete all Ernest lore challenges.",
    "icon": "https://steamcdn-a.akamaihd.net/steamcommunity/public/images/apps/394230/e12f7000490332aca6502099500e1d5865e617ed.jpg",
    "icongray": "https://steamcdn-a.akamaihd.net/steamcommunity/public/images/apps/394230/4bd11c41aabe9a051ad242d8f084e76c1056c21b.jpg"
  },
  {
    "name": "Achievement_54",
    "defaultvalue": 0,
    "displayName": "It Was A Dark And Stormy Night",
    "hidden": 0,
    "description": "Complete Attikus and the Thrall Rebellion with at least 50 Ops Points.",
    "icon": "https://steamcdn-a.akamaihd.net/steamcommunity/public/images/apps/394230/25d21479315239b04786544494ea9b0ae9fa7085.jpg",
    "icongray": "https://steamcdn-a.akamaihd.net/steamcommunity/public/images/apps/394230/3cb87b84563b0545c161250bd3a1d6358ce3b72a.jpg"
  },
  {
    "name": "Achievement_55",
    "defaultvalue": 0,
    "displayName": "Berg Rush",
    "hidden": 0,
    "description": "Complete Toby's Friendship Raid with at least 50 Ops Points.",
    "icon": "https://steamcdn-a.akamaihd.net/steamcommunity/public/images/apps/394230/f2e827437db2658145a2038a9814c7b372bf1671.jpg",
    "icongray": "https://steamcdn-a.akamaihd.net/steamcommunity/public/images/apps/394230/9d9a51cc4fd1594e99f3b219d618a9ab1d4929fe.jpg"
  },
  {
    "name": "Achievement_56",
    "defaultvalue": 0,
    "displayName": "Collect All 5!",
    "hidden": 0,
    "description": "Complete all Kid Ultra lore challenges.",
    "icon": "https://steamcdn-a.akamaihd.net/steamcommunity/public/images/apps/394230/0fa71a08349fb42813ccf3ef603b9e51430c7285.jpg",
    "icongray": "https://steamcdn-a.akamaihd.net/steamcommunity/public/images/apps/394230/0a2c2b7ae536d78cfb1f7fb9777b7bd8dd93c2c9.jpg"
  },
  {
    "name": "Achievement_57",
    "defaultvalue": 0,
    "displayName": "Magnum Gun Loud",
    "hidden": 0,
    "description": "Complete Oscar Mike vs. the Battle School with at least 50 Ops points.",
    "icon": "https://steamcdn-a.akamaihd.net/steamcommunity/public/images/apps/394230/cb47b94c4a286cc8d0e7eca610777197db42cb21.jpg",
    "icongray": "https://steamcdn-a.akamaihd.net/steamcommunity/public/images/apps/394230/ccf133a873e27cd5512a428e61be35cebd2a806e.jpg"
  },
  {
    "name": "Achievement_58",
    "defaultvalue": 0,
    "displayName": "Tooth, Nail, and Minigun",
    "hidden": 0,
    "description": "Complete Montana and the Demon Bear with at least 50 Ops points.",
    "icon": "https://steamcdn-a.akamaihd.net/steamcommunity/public/images/apps/394230/74a9ee2f5e570072fd50576880c3b9ec052e3c0b.jpg",
    "icongray": "https://steamcdn-a.akamaihd.net/steamcommunity/public/images/apps/394230/77c3b29f027508e3d0b290b92820bc00c86b6085.jpg"
  },
  {
    "name": "Achievement_59",
    "defaultvalue": 0,
    "displayName": "Mountains of Madness",
    "hidden": 0,
    "description": "Complete Phoebe and the Heart of Ekkunar with at least 50 Ops points.",
    "icon": "https://steamcdn-a.akamaihd.net/steamcommunity/public/images/apps/394230/ab838d7eb0e6218307069dd71d2c88bdee405aeb.jpg",
    "icongray": "https://steamcdn-a.akamaihd.net/steamcommunity/public/images/apps/394230/c1f95239f5253c4716f87185c5fc0d6e74172b8a.jpg"
  },
  {
    "name": "Achievement_60",
    "defaultvalue": 0,
    "displayName": "Duty is Only Skin Deep",
    "hidden": 0,
    "description": "Complete all Beatrix lore challenges.",
    "icon": "https://steamcdn-a.akamaihd.net/steamcommunity/public/images/apps/394230/e87a5420371172682a9de8aad892f4aff433dd34.jpg",
    "icongray": "https://steamcdn-a.akamaihd.net/steamcommunity/public/images/apps/394230/65d83a247169b0550d0e798a0b7e880df4804b1c.jpg"
  }
]