﻿[
  {
    "name": "collected_collectibles",
    "defaultvalue": 0,
    "displayName": "Collected Collectibles"
  },
  {
    "name": "activated_landingstones",
    "defaultvalue": 0,
    "displayName": "Found Landingstones"
  },
  {
    "name": "collected_ancient_frogs",
    "defaultvalue": 0,
    "displayName": "Collected Ancient Frogs"
  },
  {
    "name": "version",
    "defaultvalue": 0,
    "displayName": "Version"
  },
  {
    "name": "sung_melodies",
    "defaultvalue": 0,
    "displayName": "Melodies sung"
  },
  {
    "name": "filled_collectible_deposits",
    "defaultvalue": 0,
    "displayName": "Collectible deposits filled"
  },
  {
    "name": "activated_doors",
    "defaultvalue": 0,
    "displayName": "Activated doors"
  },
  {
    "name": "electrocuted_types",
    "defaultvalue": 0,
    "displayName": "Number of different creatures electrocuted"
  },
  {
    "name": "crushed_types",
    "defaultvalue": 0,
    "displayName": "Number of different creatures crushed"
  },
  {
    "name": "tourist_locations",
    "defaultvalue": 0,
    "displayName": "Number of tourist locations visited"
  }
]