﻿{
  "Dlcs": {},
  "Name": "Deathtrap",
  "AppId": "310510",
  "ImageUrl": "https://steamcdn-a.akamaihd.net/steam/apps/310510/header.jpg?t=1573829363",
  "Languages": [
    "english",
    "french",
    "italian",
    "german",
    "spanish",
    "hungarian",
    "polish",
    "portuguese",
    "russian"
  ],
  "Platforms": {
    "windows": true,
    "mac": false,
    "linux": false
  }
}