﻿{
  "Dlcs": {},
  "Name": "Viking Saga: Epic Adventure",
  "AppId": "573720",
  "ImageUrl": "https://steamcdn-a.akamaihd.net/steam/apps/573720/header.jpg?t=1542718193",
  "Languages": [
    "english",
    "russian",
    "french",
    "italian",
    "german",
    "spanish",
    "portuguese",
    "dutch",
    "swedish"
  ],
  "Platforms": {
    "windows": true,
    "mac": false,
    "linux": false
  }
}