﻿{
  "Dlcs": {},
  "Name": "Show It 2 Me",
  "AppId": "622270",
  "ImageUrl": "https://steamcdn-a.akamaihd.net/steam/apps/622270/header.jpg?t=1513293829",
  "Languages": [
    "english"
  ],
  "Platforms": {
    "windows": true,
    "mac": false,
    "linux": false
  }
}