﻿{
  "Dlcs": {},
  "Name": "Fluffy Horde",
  "AppId": "777880",
  "ImageUrl": "https://steamcdn-a.akamaihd.net/steam/apps/777880/header.jpg?t=1541611931",
  "Languages": [
    "english"
  ],
  "Platforms": {
    "windows": true,
    "mac": true,
    "linux": true
  }
}