﻿[
  {
    "name": "tutorial",
    "defaultvalue": 0,
    "displayName": "Fast Learner",
    "hidden": 0,
    "description": "End the tutorial",
    "icon": "https://steamcdn-a.akamaihd.net/steamcommunity/public/images/apps/777880/3615aa4962c98b85e1fc5d05da1e487100db8cac.jpg",
    "icongray": "https://steamcdn-a.akamaihd.net/steamcommunity/public/images/apps/777880/289408943dd7616b69aef326e9b9ef2fce9e5f9c.jpg"
  },
  {
    "name": "boss1",
    "defaultvalue": 0,
    "displayName": "Naked Snake",
    "hidden": 0,
    "description": "Beat the Queen Bunny",
    "icon": "https://steamcdn-a.akamaihd.net/steamcommunity/public/images/apps/777880/aedb4d4f14f3b0ca03ac6a75bfd115b61e2d6a7d.jpg",
    "icongray": "https://steamcdn-a.akamaihd.net/steamcommunity/public/images/apps/777880/184d2fad60c4e2e9b5bda7eab5e3498d9aec2e03.jpg"
  },
  {
    "name": "boss2",
    "defaultvalue": 0,
    "displayName": "Justice Rains From Above.",
    "hidden": 0,
    "description": "Protect the princess",
    "icon": "https://steamcdn-a.akamaihd.net/steamcommunity/public/images/apps/777880/32ab056135395f85a84d03801f59225bb2a81536.jpg",
    "icongray": "https://steamcdn-a.akamaihd.net/steamcommunity/public/images/apps/777880/8b5bd0c52b2e85cd55013ebd10d855a1d4ce1c71.jpg"
  },
  {
    "name": "boss3",
    "defaultvalue": 0,
    "displayName": "#fatphobic",
    "hidden": 0,
    "description": "Stop Kalendra",
    "icon": "https://steamcdn-a.akamaihd.net/steamcommunity/public/images/apps/777880/b42c4f7aafc644b24b6f38e1a8de1bc7ce34c73d.jpg",
    "icongray": "https://steamcdn-a.akamaihd.net/steamcommunity/public/images/apps/777880/99e65adca7665e1371a797cbd2a00a2084077aec.jpg"
  },
  {
    "name": "boss4",
    "defaultvalue": 0,
    "displayName": "Year Zero",
    "hidden": 0,
    "description": "Beat the Game",
    "icon": "https://steamcdn-a.akamaihd.net/steamcommunity/public/images/apps/777880/5f941abc3f90a6019865e3706b57d4c4d69c7204.jpg",
    "icongray": "https://steamcdn-a.akamaihd.net/steamcommunity/public/images/apps/777880/53686a3b4ccdda435dd8ad0f9047b12317c9a1e1.jpg"
  },
  {
    "name": "allmedals",
    "defaultvalue": 0,
    "displayName": "GOD...is that you?",
    "hidden": 0,
    "description": "Collect all the medals",
    "icon": "https://steamcdn-a.akamaihd.net/steamcommunity/public/images/apps/777880/483dcd474d6a5612090b314c1a9b9db02c76ee71.jpg",
    "icongray": "https://steamcdn-a.akamaihd.net/steamcommunity/public/images/apps/777880/8241caa30414c592057c9ef33081136c156f6332.jpg"
  }
]