﻿{
  "Dlcs": {},
  "Name": "Project \"Fire\"",
  "AppId": "526430",
  "ImageUrl": "https://steamcdn-a.akamaihd.net/steam/apps/526430/header.jpg?t=1475312721",
  "Languages": [
    "english",
    "russian"
  ],
  "Platforms": {
    "windows": true,
    "mac": false,
    "linux": false
  }
}