﻿[
  {
    "name": "aACEG",
    "defaultvalue": 0,
    "displayName": "German Ace Pilot (5 Victories)",
    "hidden": 0,
    "description": "Earn 5 Victories with a German Pilot",
    "icon": "https://steamcdn-a.akamaihd.net/steamcommunity/public/images/apps/244070/219064b4d68987972c380b773b3d9b01c31391f3.jpg",
    "icongray": "https://steamcdn-a.akamaihd.net/steamcommunity/public/images/apps/244070/02a20e77a8bb08cf81531f09dcb47572bc9db5bc.jpg"
  },
  {
    "name": "aACEA",
    "defaultvalue": 0,
    "displayName": "American Ace Pilot (5 Victories)",
    "hidden": 0,
    "description": "Earn 5 Victories with a American Pilot",
    "icon": "https://steamcdn-a.akamaihd.net/steamcommunity/public/images/apps/244070/7ab906c795ef546a4c0f7c5a25326feaf1a1f481.jpg",
    "icongray": "https://steamcdn-a.akamaihd.net/steamcommunity/public/images/apps/244070/fde3a16ee4027eb43f9767a13a1ea52181b07449.jpg"
  },
  {
    "name": "aACEB",
    "defaultvalue": 0,
    "displayName": "British Ace Pilot (5 Victories)",
    "hidden": 0,
    "description": "Earn 5 Victories with a British Pilot",
    "icon": "https://steamcdn-a.akamaihd.net/steamcommunity/public/images/apps/244070/0874e21fe9cd7dfe90853aca00dbb1c147051138.jpg",
    "icongray": "https://steamcdn-a.akamaihd.net/steamcommunity/public/images/apps/244070/a22f132cd8eee6fd11575f6232d9206b76ce697f.jpg"
  },
  {
    "name": "aACEF",
    "defaultvalue": 0,
    "displayName": "French Ace Pilot (5 Victories)",
    "hidden": 0,
    "description": "Earn 5 Victories with a French Pilot",
    "icon": "https://steamcdn-a.akamaihd.net/steamcommunity/public/images/apps/244070/5c0ad14ce0db2c7e935327df42cd5c2b03d684a9.jpg",
    "icongray": "https://steamcdn-a.akamaihd.net/steamcommunity/public/images/apps/244070/703e7df0bb2e97355e12299aa0e6aae7128eb9eb.jpg"
  },
  {
    "name": "aACE50G",
    "defaultvalue": 0,
    "displayName": "Legendary German Pilot (50 Victories)",
    "hidden": 0,
    "description": "Earn 50 Victories with a German Pilot",
    "icon": "https://steamcdn-a.akamaihd.net/steamcommunity/public/images/apps/244070/71ab92bce3aba5e45fa9d6295384eb781ad56a0e.jpg",
    "icongray": "https://steamcdn-a.akamaihd.net/steamcommunity/public/images/apps/244070/1a2792d0d9d66d30d107ca2e032fcb2b01039e3d.jpg"
  },
  {
    "name": "aACE50A",
    "defaultvalue": 0,
    "displayName": "Legendary American Pilot (50 Victories)",
    "hidden": 0,
    "description": "Earn 50 Victories with a American Pilot",
    "icon": "https://steamcdn-a.akamaihd.net/steamcommunity/public/images/apps/244070/63b8f2b0f83b9d2563a314f0f19c8b3f5d1bbb67.jpg",
    "icongray": "https://steamcdn-a.akamaihd.net/steamcommunity/public/images/apps/244070/8c28315ee31a614d5f99938747eb41db32323321.jpg"
  },
  {
    "name": "aACE50B",
    "defaultvalue": 0,
    "displayName": "Legendary British Pilot (50 Victories)",
    "hidden": 0,
    "description": "Earn 50 Victories with a British Pilot",
    "icon": "https://steamcdn-a.akamaihd.net/steamcommunity/public/images/apps/244070/d76a8615c0703fb22af7f338dfe61f660d06ee5a.jpg",
    "icongray": "https://steamcdn-a.akamaihd.net/steamcommunity/public/images/apps/244070/daf51a7aaeafc4d9455087411c607beb6effa1f6.jpg"
  },
  {
    "name": "aACE50F",
    "defaultvalue": 0,
    "displayName": "Legendary French Pilot (50 Victories)",
    "hidden": 0,
    "description": "Earn 50 Victories with a French Pilot",
    "icon": "https://steamcdn-a.akamaihd.net/steamcommunity/public/images/apps/244070/d2f0a9962f2077743198af3619169fef699e7c3b.jpg",
    "icongray": "https://steamcdn-a.akamaihd.net/steamcommunity/public/images/apps/244070/d1d7214de43f114430c1abeffeabbab711b6f9b9.jpg"
  },
  {
    "name": "aBATTLEG",
    "defaultvalue": 0,
    "displayName": "Win an Offensive - Germans",
    "hidden": 0,
    "description": "Win an Offensive as the Germans",
    "icon": "https://steamcdn-a.akamaihd.net/steamcommunity/public/images/apps/244070/1354e5dbaf1a4a82ac95e406a4de33848acd8d9c.jpg",
    "icongray": "https://steamcdn-a.akamaihd.net/steamcommunity/public/images/apps/244070/da4651712bd1db73a3e43393254ad27db0ea8999.jpg"
  },
  {
    "name": "aBATTLEA",
    "defaultvalue": 0,
    "displayName": "Win an Offensive - Americans",
    "hidden": 0,
    "description": "Win an Offensive as the Americans",
    "icon": "https://steamcdn-a.akamaihd.net/steamcommunity/public/images/apps/244070/013a14f4a188222264ec2e5352920ba8d90f0b35.jpg",
    "icongray": "https://steamcdn-a.akamaihd.net/steamcommunity/public/images/apps/244070/19bb3eeda5b8fd92a40114fe10595b561dab9bf4.jpg"
  },
  {
    "name": "aBATTLEB",
    "defaultvalue": 0,
    "displayName": "Win an Offensive - British",
    "hidden": 0,
    "description": "Win an Offensive as the British",
    "icon": "https://steamcdn-a.akamaihd.net/steamcommunity/public/images/apps/244070/036688825bc2594584e526861b93eae6c411fd68.jpg",
    "icongray": "https://steamcdn-a.akamaihd.net/steamcommunity/public/images/apps/244070/1bc962f8e61dd60107b70c90db5947f5495b44d8.jpg"
  },
  {
    "name": "aBATTLEF",
    "defaultvalue": 0,
    "displayName": "Win an Offensive - French",
    "hidden": 0,
    "description": "Win an Offensive as the French",
    "icon": "https://steamcdn-a.akamaihd.net/steamcommunity/public/images/apps/244070/6674be1cfae45d991076fc314bc3bf486a8438c1.jpg",
    "icongray": "https://steamcdn-a.akamaihd.net/steamcommunity/public/images/apps/244070/ae4e22843cd5f8a3ad1f8836c67a78f86b8beff2.jpg"
  },
  {
    "name": "aCAMPAIGNG",
    "defaultvalue": 0,
    "displayName": "Win the Campaign - Germans",
    "hidden": 0,
    "description": "Win the Campaign as the Germans",
    "icon": "https://steamcdn-a.akamaihd.net/steamcommunity/public/images/apps/244070/e55603c58834683f47bf402ec0ed73c1c573ea08.jpg",
    "icongray": "https://steamcdn-a.akamaihd.net/steamcommunity/public/images/apps/244070/81fe0c9ccd20cd68beb200f4cdb2f0ac606f7199.jpg"
  },
  {
    "name": "aCAMPAIGNA",
    "defaultvalue": 0,
    "displayName": "Win the Campaign - Americans",
    "hidden": 0,
    "description": "Win the Campaign as the Americans",
    "icon": "https://steamcdn-a.akamaihd.net/steamcommunity/public/images/apps/244070/525b4f507b5384ed44e30496a6635ab28cbbeed8.jpg",
    "icongray": "https://steamcdn-a.akamaihd.net/steamcommunity/public/images/apps/244070/f5fbada8bbc5d5bb202313a23240552ee53de6a5.jpg"
  },
  {
    "name": "aCAMPAIGNB",
    "defaultvalue": 0,
    "displayName": "Win the Campaign - British",
    "hidden": 0,
    "description": "Win the Campaign as the British",
    "icon": "https://steamcdn-a.akamaihd.net/steamcommunity/public/images/apps/244070/14e552cdd542df0e0bcc4fa06f845f372a997da0.jpg",
    "icongray": "https://steamcdn-a.akamaihd.net/steamcommunity/public/images/apps/244070/9cb2282990bd240047d636eae824a85d251caf67.jpg"
  },
  {
    "name": "aCAMPAIGNF",
    "defaultvalue": 0,
    "displayName": "Win the Campaign - French",
    "hidden": 0,
    "description": "Win the Campaign as the French",
    "icon": "https://steamcdn-a.akamaihd.net/steamcommunity/public/images/apps/244070/5648969208149ac957d4aa1415dd8cf7fd0f7086.jpg",
    "icongray": "https://steamcdn-a.akamaihd.net/steamcommunity/public/images/apps/244070/173f3996848a6f860dd4bf939571162f39252708.jpg"
  },
  {
    "name": "aM5000G",
    "defaultvalue": 0,
    "displayName": "5,000 point mission - German",
    "hidden": 0,
    "description": "Earn 5,000 points with a German squadron",
    "icon": "https://steamcdn-a.akamaihd.net/steamcommunity/public/images/apps/244070/f55af5b91daf0d71740209a3a96c2591967d1a60.jpg",
    "icongray": "https://steamcdn-a.akamaihd.net/steamcommunity/public/images/apps/244070/68d3dcd6c16e9dc9631a4dec9c4f5fcc6c6cb510.jpg"
  },
  {
    "name": "aM5000A",
    "defaultvalue": 0,
    "displayName": "5,000 point mission - American",
    "hidden": 0,
    "description": "Earn 5,000 points with a American squadron",
    "icon": "https://steamcdn-a.akamaihd.net/steamcommunity/public/images/apps/244070/3ccf44b37f400b26513f97ed4e561741f62c308d.jpg",
    "icongray": "https://steamcdn-a.akamaihd.net/steamcommunity/public/images/apps/244070/2fce567acc844f39172e131366322561862914b7.jpg"
  },
  {
    "name": "aM5000B",
    "defaultvalue": 0,
    "displayName": "5,000 point mission - British",
    "hidden": 0,
    "description": "Earn 5,000 points with a British squadron",
    "icon": "https://steamcdn-a.akamaihd.net/steamcommunity/public/images/apps/244070/29a545f6d1914dd6a3ebd3215cb7c837a9f83364.jpg",
    "icongray": "https://steamcdn-a.akamaihd.net/steamcommunity/public/images/apps/244070/dbafa579ad4c20a3ba37cff47b260233d54c0671.jpg"
  },
  {
    "name": "aM5000F",
    "defaultvalue": 0,
    "displayName": "5,000 point mission - French",
    "hidden": 0,
    "description": "Earn 5,000 points with a French squadron",
    "icon": "https://steamcdn-a.akamaihd.net/steamcommunity/public/images/apps/244070/f9b3cd695c6dd1e9cf84f2648a306e6ae430043a.jpg",
    "icongray": "https://steamcdn-a.akamaihd.net/steamcommunity/public/images/apps/244070/fc4f9b40715632822ffe60a199e48729cbb5ec18.jpg"
  },
  {
    "name": "aM10000G",
    "defaultvalue": 0,
    "displayName": "10,000 point mission - German",
    "hidden": 0,
    "description": "Earn 10,000 points with a German squadron",
    "icon": "https://steamcdn-a.akamaihd.net/steamcommunity/public/images/apps/244070/8704be50cb769eb810f4c960fc0781e83e94a2c1.jpg",
    "icongray": "https://steamcdn-a.akamaihd.net/steamcommunity/public/images/apps/244070/38d21e0f1511af8b6bc2715e28a1eabf92fdf45a.jpg"
  },
  {
    "name": "aM10000A",
    "defaultvalue": 0,
    "displayName": "10,000 point mission - American",
    "hidden": 0,
    "description": "Earn 10,000 points with a American squadron",
    "icon": "https://steamcdn-a.akamaihd.net/steamcommunity/public/images/apps/244070/f7d7673ab05746bb11743c5ba19b6e3eb07c4bdb.jpg",
    "icongray": "https://steamcdn-a.akamaihd.net/steamcommunity/public/images/apps/244070/9f5df09d8ae6603f3d1bd08dbba14a9096d02402.jpg"
  },
  {
    "name": "aM10000B",
    "defaultvalue": 0,
    "displayName": "10,000 point mission - British",
    "hidden": 0,
    "description": "Earn 10,000 points with a British squadron",
    "icon": "https://steamcdn-a.akamaihd.net/steamcommunity/public/images/apps/244070/f5703191cf34e47334f771ab44a47026d60a1279.jpg",
    "icongray": "https://steamcdn-a.akamaihd.net/steamcommunity/public/images/apps/244070/9a26c1edc7d9c5bc072c34113e15a6ae0d1c7e25.jpg"
  },
  {
    "name": "aM10000F",
    "defaultvalue": 0,
    "displayName": "10,000 point mission - French",
    "hidden": 0,
    "description": "Earn 10,000 points with a French squadron",
    "icon": "https://steamcdn-a.akamaihd.net/steamcommunity/public/images/apps/244070/7eacf643da46704084b3b6c9235e2dcbe0cf25e2.jpg",
    "icongray": "https://steamcdn-a.akamaihd.net/steamcommunity/public/images/apps/244070/813d29ba3c048f4a249f804a4e23eac3151c8ce4.jpg"
  },
  {
    "name": "aM15000G",
    "defaultvalue": 0,
    "displayName": "15,000 point mission - German",
    "hidden": 0,
    "description": "Earn 15,000 points with a German squadron",
    "icon": "https://steamcdn-a.akamaihd.net/steamcommunity/public/images/apps/244070/a858cda0224a9706e74253a4d5cd141eb5f94366.jpg",
    "icongray": "https://steamcdn-a.akamaihd.net/steamcommunity/public/images/apps/244070/ccb0e4064b7bdd4cdb6d227ea0f9a2b57b711722.jpg"
  },
  {
    "name": "aM15000A",
    "defaultvalue": 0,
    "displayName": "15,000 point mission - American",
    "hidden": 0,
    "description": "Earn 15,000 points with a American squadron",
    "icon": "https://steamcdn-a.akamaihd.net/steamcommunity/public/images/apps/244070/0fffc5991569a95bec036f957053f6a91371ce5b.jpg",
    "icongray": "https://steamcdn-a.akamaihd.net/steamcommunity/public/images/apps/244070/8eb358cc1653df9b8d1a0e6499fa81b64df21abe.jpg"
  },
  {
    "name": "aM15000B",
    "defaultvalue": 0,
    "displayName": "15,000 point mission - British",
    "hidden": 0,
    "description": "Earn 15,000 points with a British squadron",
    "icon": "https://steamcdn-a.akamaihd.net/steamcommunity/public/images/apps/244070/2f99baeb2ea37fae2a9edea8a7cdb950be697592.jpg",
    "icongray": "https://steamcdn-a.akamaihd.net/steamcommunity/public/images/apps/244070/ba6de07ba8dd8c20fe151bbdf383ccec0150984a.jpg"
  },
  {
    "name": "aM15000F",
    "defaultvalue": 0,
    "displayName": "15,000 point mission - French",
    "hidden": 0,
    "description": "Earn 15,000 points with a French squadron",
    "icon": "https://steamcdn-a.akamaihd.net/steamcommunity/public/images/apps/244070/f3c65aefb4109840b89325c8c287e8738a4b5aa6.jpg",
    "icongray": "https://steamcdn-a.akamaihd.net/steamcommunity/public/images/apps/244070/237ef97f8125680ca45b13d7ac91ae6d0050bc48.jpg"
  },
  {
    "name": "aS50000G",
    "defaultvalue": 0,
    "displayName": "50,000 Squadron points - German",
    "hidden": 0,
    "description": "Earn 50,000 points with a German squadron",
    "icon": "https://steamcdn-a.akamaihd.net/steamcommunity/public/images/apps/244070/8386ece197a2a64dccaa239a549042ae262f7d3b.jpg",
    "icongray": "https://steamcdn-a.akamaihd.net/steamcommunity/public/images/apps/244070/6c1f2997542739990403eb30c78eea571c4f8fac.jpg"
  },
  {
    "name": "aS50000A",
    "defaultvalue": 0,
    "displayName": "50,000 Squadron points - American",
    "hidden": 0,
    "description": "Earn 50,000 points with a American squadron",
    "icon": "https://steamcdn-a.akamaihd.net/steamcommunity/public/images/apps/244070/ac73d6890cfd10985b7444c40de10e067f022137.jpg",
    "icongray": "https://steamcdn-a.akamaihd.net/steamcommunity/public/images/apps/244070/af3bb920af554256c2ae1e28ad902ddb3162f346.jpg"
  },
  {
    "name": "aS50000B",
    "defaultvalue": 0,
    "displayName": "50,000 Squadron points - British",
    "hidden": 0,
    "description": "Earn 50,000 points with a British squadron",
    "icon": "https://steamcdn-a.akamaihd.net/steamcommunity/public/images/apps/244070/96a72d25ed95521bc3216a93ecdf20e809c15087.jpg",
    "icongray": "https://steamcdn-a.akamaihd.net/steamcommunity/public/images/apps/244070/22adeaf3669c89c59899a37b6458a0ebe99f73ba.jpg"
  },
  {
    "name": "aS50000F",
    "defaultvalue": 0,
    "displayName": "50,000 Squadron points - French",
    "hidden": 0,
    "description": "Earn 50,000 points with a French squadron",
    "icon": "https://steamcdn-a.akamaihd.net/steamcommunity/public/images/apps/244070/ef52a1b16a54ccce758f074333b0b7da2bea127f.jpg",
    "icongray": "https://steamcdn-a.akamaihd.net/steamcommunity/public/images/apps/244070/454b517342d7e45e18f88d229a5ca4182a1ed6b8.jpg"
  },
  {
    "name": "aS100000G",
    "defaultvalue": 0,
    "displayName": "100,000 Squadron points - German",
    "hidden": 0,
    "description": "Earn 100,000 points with a German squadron",
    "icon": "https://steamcdn-a.akamaihd.net/steamcommunity/public/images/apps/244070/ce0869efcf955040b0ff10e6e960e30c272bc12c.jpg",
    "icongray": "https://steamcdn-a.akamaihd.net/steamcommunity/public/images/apps/244070/0b64c39cf573bd1e26e606b12c5de6c44611b53e.jpg"
  },
  {
    "name": "aS100000A",
    "defaultvalue": 0,
    "displayName": "100,000 Squadron points - American",
    "hidden": 0,
    "description": "Earn 100,000 points with a American squadron",
    "icon": "https://steamcdn-a.akamaihd.net/steamcommunity/public/images/apps/244070/4da6e500236a98cf12dda1d3d488e9e96b41e79c.jpg",
    "icongray": "https://steamcdn-a.akamaihd.net/steamcommunity/public/images/apps/244070/2f9574f0bde7185e0d98a1e87cc27bf8993ad813.jpg"
  },
  {
    "name": "aS100000B",
    "defaultvalue": 0,
    "displayName": "100,000 Squadron points - British",
    "hidden": 0,
    "description": "Earn 100,000 points with a British squadron",
    "icon": "https://steamcdn-a.akamaihd.net/steamcommunity/public/images/apps/244070/7d95c2823f600fbb94f08747036bbabda03ec9ba.jpg",
    "icongray": "https://steamcdn-a.akamaihd.net/steamcommunity/public/images/apps/244070/f258197f4193d4862fff7bef6ff80e2b5dd84c37.jpg"
  },
  {
    "name": "aS100000F",
    "defaultvalue": 0,
    "displayName": "100,000 Squadron points - French",
    "hidden": 0,
    "description": "Earn 100,000 points with a French squadron",
    "icon": "https://steamcdn-a.akamaihd.net/steamcommunity/public/images/apps/244070/82c921495d4a641e5c5cc2c1efdabc6fe37bc0f3.jpg",
    "icongray": "https://steamcdn-a.akamaihd.net/steamcommunity/public/images/apps/244070/683673644dd4cd0c025347113adc8fc0e356d5b0.jpg"
  },
  {
    "name": "aS150000G",
    "defaultvalue": 0,
    "displayName": "150,000 Squadron points - German",
    "hidden": 0,
    "description": "Earn 150,000 points with a German squadron",
    "icon": "https://steamcdn-a.akamaihd.net/steamcommunity/public/images/apps/244070/114cb1b3744c5f655944579e895acff75fd2b527.jpg",
    "icongray": "https://steamcdn-a.akamaihd.net/steamcommunity/public/images/apps/244070/1ecb54f36c6f9c7bc58fc22847822a18c483d49a.jpg"
  },
  {
    "name": "aS150000A",
    "defaultvalue": 0,
    "displayName": "150,000 Squadron points - American",
    "hidden": 0,
    "description": "Earn 150,000 points with a American squadron",
    "icon": "https://steamcdn-a.akamaihd.net/steamcommunity/public/images/apps/244070/cd38e619af523d38dd38d6f8f1519e4a1ac2ab2e.jpg",
    "icongray": "https://steamcdn-a.akamaihd.net/steamcommunity/public/images/apps/244070/cad10a484597ef1c416532f7db56c0cff05c5f82.jpg"
  },
  {
    "name": "aS150000B",
    "defaultvalue": 0,
    "displayName": "150,000 Squadron points - British",
    "hidden": 0,
    "description": "Earn 150,000 points with a British squadron",
    "icon": "https://steamcdn-a.akamaihd.net/steamcommunity/public/images/apps/244070/77ab46db14b449f1b34f3e7b7fb0f32548addb4f.jpg",
    "icongray": "https://steamcdn-a.akamaihd.net/steamcommunity/public/images/apps/244070/66f4ba6554aeae3d9f1ea36e4169e36aff81e87f.jpg"
  },
  {
    "name": "aS150000F",
    "defaultvalue": 0,
    "displayName": "150,000 Squadron points - French",
    "hidden": 0,
    "description": "Earn 150,000 points with a French squadron",
    "icon": "https://steamcdn-a.akamaihd.net/steamcommunity/public/images/apps/244070/58733c7f4b24e3cd672214e889e207527de1518e.jpg",
    "icongray": "https://steamcdn-a.akamaihd.net/steamcommunity/public/images/apps/244070/2e18d333726693e960afc1350d1917572dcef6e3.jpg"
  },
  {
    "name": "aMDIFF1",
    "defaultvalue": 0,
    "displayName": "Win a Mission - Pilot",
    "hidden": 0,
    "description": "Win a Mission at Pilot difficulty level",
    "icon": "https://steamcdn-a.akamaihd.net/steamcommunity/public/images/apps/244070/4a9398509647a0db001f83a003237fd6e8e6857b.jpg",
    "icongray": "https://steamcdn-a.akamaihd.net/steamcommunity/public/images/apps/244070/b0370037466b2982c69fa42b1706f6777c6dd206.jpg"
  },
  {
    "name": "aMDIFF2",
    "defaultvalue": 0,
    "displayName": "Win a Mission - Ace",
    "hidden": 0,
    "description": "Win a Mission at Ace difficulty level",
    "icon": "https://steamcdn-a.akamaihd.net/steamcommunity/public/images/apps/244070/dad391fa09c823c819c1a7deb5ae3264f9e3874f.jpg",
    "icongray": "https://steamcdn-a.akamaihd.net/steamcommunity/public/images/apps/244070/d35b70f072509a8406e0f7bf9464c0a670ab892f.jpg"
  },
  {
    "name": "aMDIFF3",
    "defaultvalue": 0,
    "displayName": "Win a Mission - Leader",
    "hidden": 0,
    "description": "Win a Mission at Leader difficulty level",
    "icon": "https://steamcdn-a.akamaihd.net/steamcommunity/public/images/apps/244070/d26f81b14038495b310c7693bc737588a6f0de60.jpg",
    "icongray": "https://steamcdn-a.akamaihd.net/steamcommunity/public/images/apps/244070/75c834c6922ab46653d5a00e5a3ef7d8f19e0aad.jpg"
  },
  {
    "name": "aMDIFF4",
    "defaultvalue": 0,
    "displayName": "Win a Mission - Legend",
    "hidden": 0,
    "description": "Win a Mission at Legend difficulty level",
    "icon": "https://steamcdn-a.akamaihd.net/steamcommunity/public/images/apps/244070/abda2057355c6185bc9e6e8a64cf7ccd88cd3f81.jpg",
    "icongray": "https://steamcdn-a.akamaihd.net/steamcommunity/public/images/apps/244070/e34d3a8e73675de712e9fdd2466f439ee36c5734.jpg"
  },
  {
    "name": "aHATTRICK0",
    "defaultvalue": 0,
    "displayName": "Hat Trick - Rookie",
    "hidden": 0,
    "description": "Shoot down 3 planes with 1 pilot in 1 mission: Rookie",
    "icon": "https://steamcdn-a.akamaihd.net/steamcommunity/public/images/apps/244070/2f75875cf5e6d9c6c1ade436b4f5adee6790e519.jpg",
    "icongray": "https://steamcdn-a.akamaihd.net/steamcommunity/public/images/apps/244070/a04e266ee99bd56347289e32c9147f0c587de1aa.jpg"
  },
  {
    "name": "aHATTRICK1",
    "defaultvalue": 0,
    "displayName": "Hat Trick - Pilot",
    "hidden": 0,
    "description": "Shoot down 3 planes with 1 pilot in 1 mission: Pilot",
    "icon": "https://steamcdn-a.akamaihd.net/steamcommunity/public/images/apps/244070/c43ea2edb04806f4482c6ca8a36992f2473e3792.jpg",
    "icongray": "https://steamcdn-a.akamaihd.net/steamcommunity/public/images/apps/244070/7b39707f087a0af68f9c65e86156c3ebe006edcd.jpg"
  },
  {
    "name": "aHATTRICK2",
    "defaultvalue": 0,
    "displayName": "Hat Trick - Ace",
    "hidden": 0,
    "description": "Shoot down 3 planes with 1 pilot in 1 mission: Ace",
    "icon": "https://steamcdn-a.akamaihd.net/steamcommunity/public/images/apps/244070/9879a940227983d93b2930fa83c4349448ee99f8.jpg",
    "icongray": "https://steamcdn-a.akamaihd.net/steamcommunity/public/images/apps/244070/ffa97698751018c8cee37ff7267f623e814d4515.jpg"
  },
  {
    "name": "aHATTRICK3",
    "defaultvalue": 0,
    "displayName": "Hat Trick - Leader",
    "hidden": 0,
    "description": "Shoot down 3 planes with 1 pilot in 1 mission: Leader",
    "icon": "https://steamcdn-a.akamaihd.net/steamcommunity/public/images/apps/244070/9bb96f59de9132c675373dc9496768fd6931d506.jpg",
    "icongray": "https://steamcdn-a.akamaihd.net/steamcommunity/public/images/apps/244070/806aaf5c82ece409b21db977db6a75feb7348137.jpg"
  },
  {
    "name": "aHATTRICK4",
    "defaultvalue": 0,
    "displayName": "Hat Trick - Legend",
    "hidden": 0,
    "description": "Shoot down 3 planes with 1 pilot in 1 mission: Legend",
    "icon": "https://steamcdn-a.akamaihd.net/steamcommunity/public/images/apps/244070/6002d0206f6180a21e3a2fab3cd1ff372b16ae10.jpg",
    "icongray": "https://steamcdn-a.akamaihd.net/steamcommunity/public/images/apps/244070/f057caeb4f0b15af64495348af0faf3a1168258d.jpg"
  },
  {
    "name": "aALLACES",
    "defaultvalue": 0,
    "displayName": "Four Aces",
    "hidden": 0,
    "description": "Create a Squadron with four aces",
    "icon": "https://steamcdn-a.akamaihd.net/steamcommunity/public/images/apps/244070/0cb898a202a3081a3267d1f53c213dedcb589294.jpg",
    "icongray": "https://steamcdn-a.akamaihd.net/steamcommunity/public/images/apps/244070/7c04cf2cde8c70df31addb3a19ce0506ed15e2d3.jpg"
  },
  {
    "name": "aTRAIN",
    "defaultvalue": 0,
    "displayName": "Destroy an enemy supply train",
    "hidden": 0,
    "description": "Destroy an enemy supply train",
    "icon": "https://steamcdn-a.akamaihd.net/steamcommunity/public/images/apps/244070/5654d9330b0609310bc0b0310e3621cdfaa64065.jpg",
    "icongray": "https://steamcdn-a.akamaihd.net/steamcommunity/public/images/apps/244070/8b6f84c873edd1c53af9401b661e528173fbfaf8.jpg"
  },
  {
    "name": "aZEPPELIN",
    "defaultvalue": 0,
    "displayName": "Zeppelin",
    "hidden": 0,
    "description": "Shoot down an enemy zeppelin",
    "icon": "https://steamcdn-a.akamaihd.net/steamcommunity/public/images/apps/244070/33218fadaf3e6ab959354967fc0e1ce46aae5a58.jpg",
    "icongray": "https://steamcdn-a.akamaihd.net/steamcommunity/public/images/apps/244070/110bc043c28fab9a9b7ac3312aa292aa483a7cd9.jpg"
  }
]