﻿{
  "Dlcs": {},
  "Name": "AI: Rampage",
  "AppId": "438020",
  "ImageUrl": "https://steamcdn-a.akamaihd.net/steam/apps/438020/header.jpg?t=1512241751",
  "Languages": [
    "english",
    "russian",
    "ukrainian"
  ],
  "Platforms": {
    "windows": true,
    "mac": false,
    "linux": false
  }
}