﻿[
  {
    "name": "LabUpgrades1",
    "defaultvalue": 0,
    "displayName": "Dungeon Constructor 1",
    "hidden": 0,
    "description": "Upgrade your Labyrinth to level 2",
    "icon": "https://steamcdn-a.akamaihd.net/steamcommunity/public/images/apps/438720/37c96a9f790b9aa3f517f0b3084bc1213688f9e7.jpg",
    "icongray": "https://steamcdn-a.akamaihd.net/steamcommunity/public/images/apps/438720/5bc754c49ed60c28b403eacb6a0090d314c3f198.jpg"
  },
  {
    "name": "LabUpgrades2",
    "defaultvalue": 0,
    "displayName": "Dungeon Constructor 2",
    "hidden": 0,
    "description": "Upgrade your Labyrinth to level 4",
    "icon": "https://steamcdn-a.akamaihd.net/steamcommunity/public/images/apps/438720/28be894cabac39506b4e191825251ce0ede97384.jpg",
    "icongray": "https://steamcdn-a.akamaihd.net/steamcommunity/public/images/apps/438720/e20c88ca472d0779c5ec34c3dac79e0d89c18960.jpg"
  },
  {
    "name": "LabUpgrades3",
    "defaultvalue": 0,
    "displayName": "Dungeon Constructor 3",
    "hidden": 0,
    "description": "Upgrade your Labyrinth to level 6",
    "icon": "https://steamcdn-a.akamaihd.net/steamcommunity/public/images/apps/438720/b996455da6b3eb24a4279a56f733bc4a4318e341.jpg",
    "icongray": "https://steamcdn-a.akamaihd.net/steamcommunity/public/images/apps/438720/33922da4db28c8888740af80d8570c288effc639.jpg"
  },
  {
    "name": "DenUpgrades1",
    "defaultvalue": 0,
    "displayName": "Worker's Paradise 1",
    "hidden": 0,
    "description": "Upgrade your Worker Den to level 2",
    "icon": "https://steamcdn-a.akamaihd.net/steamcommunity/public/images/apps/438720/fa55c5a886bed3af26c0f1d213c44a9bdc36668b.jpg",
    "icongray": "https://steamcdn-a.akamaihd.net/steamcommunity/public/images/apps/438720/c08202c98c340ec24aaf2ec3b0e8b4f0aad96233.jpg"
  },
  {
    "name": "DenUpgrades2",
    "defaultvalue": 0,
    "displayName": "Worker's Paradise",
    "hidden": 0,
    "description": "Upgrade your Worker Den to level 4",
    "icon": "https://steamcdn-a.akamaihd.net/steamcommunity/public/images/apps/438720/e5f363e6b0cabb472d482102250711a48d001d2c.jpg",
    "icongray": "https://steamcdn-a.akamaihd.net/steamcommunity/public/images/apps/438720/a1146d081024213b261507dd1063307c55c4e4b3.jpg"
  },
  {
    "name": "DenUpgrades3",
    "defaultvalue": 0,
    "displayName": "Worker's Paradise 3",
    "hidden": 0,
    "description": "Upgrade your Worker Den to level 6",
    "icon": "https://steamcdn-a.akamaihd.net/steamcommunity/public/images/apps/438720/6567266907fdfdbc27f3873c5db2e1a0c18ceee8.jpg",
    "icongray": "https://steamcdn-a.akamaihd.net/steamcommunity/public/images/apps/438720/f8dee90f08826a2026e2c3edc4b51ca69aafff3f.jpg"
  },
  {
    "name": "OnyxMoonQuests1",
    "defaultvalue": 0,
    "displayName": "Keeper of the Moon 1",
    "hidden": 0,
    "description": "Defeat Onyx Moon Quest 5",
    "icon": "https://steamcdn-a.akamaihd.net/steamcommunity/public/images/apps/438720/0746726134f78a5c29fc65f39216683dd570419c.jpg",
    "icongray": "https://steamcdn-a.akamaihd.net/steamcommunity/public/images/apps/438720/5cb3bae8227f459a61bb9f25e401a26520b13096.jpg"
  },
  {
    "name": "OnyxMoonQuests2",
    "defaultvalue": 0,
    "displayName": "Keeper of the Moon 2",
    "hidden": 0,
    "description": "Defeat Onyx Moon Quest 15",
    "icon": "https://steamcdn-a.akamaihd.net/steamcommunity/public/images/apps/438720/a9870b5157976a728c867eda692ed60422af69ae.jpg",
    "icongray": "https://steamcdn-a.akamaihd.net/steamcommunity/public/images/apps/438720/f1f0597c09b15309360814c969314b023ad81b76.jpg"
  },
  {
    "name": "OnyxMoonQuests3",
    "defaultvalue": 0,
    "displayName": "Keeper of the Moon 3",
    "hidden": 0,
    "description": "Defeat Onyx Moon Quest 30",
    "icon": "https://steamcdn-a.akamaihd.net/steamcommunity/public/images/apps/438720/3609b7f5dfdfac9d0143d09f6fcf9134827947c4.jpg",
    "icongray": "https://steamcdn-a.akamaihd.net/steamcommunity/public/images/apps/438720/9660134beb69be0b1a76b23589f70be692a6acd2.jpg"
  },
  {
    "name": "VeraRevengeQuests1",
    "defaultvalue": 0,
    "displayName": "Vera's Champion 1",
    "hidden": 0,
    "description": "Defeat Vera's Revenge Quest 5",
    "icon": "https://steamcdn-a.akamaihd.net/steamcommunity/public/images/apps/438720/29244127411c70cc92006b1d968b4f459c575e62.jpg",
    "icongray": "https://steamcdn-a.akamaihd.net/steamcommunity/public/images/apps/438720/efbb42d00533c93cc5da7e612c82952509976984.jpg"
  },
  {
    "name": "VeraRevengeQuests2",
    "defaultvalue": 0,
    "displayName": "Vera's Champion 2",
    "hidden": 0,
    "description": "Defeat Vera's Revenge Quest 15",
    "icon": "https://steamcdn-a.akamaihd.net/steamcommunity/public/images/apps/438720/29ca5e2bb4a9a7e6b0458e1f5aec268b675d19c5.jpg",
    "icongray": "https://steamcdn-a.akamaihd.net/steamcommunity/public/images/apps/438720/869f1d359657c72da9c660bb8022b6e10ea437a8.jpg"
  },
  {
    "name": "VeraRevengeQuests3",
    "defaultvalue": 0,
    "displayName": "Vera's Champion 3",
    "hidden": 0,
    "description": "Defeat Vera's Revenge Quest 30",
    "icon": "https://steamcdn-a.akamaihd.net/steamcommunity/public/images/apps/438720/860a27747d13a8271dbd4e72a744e65c214c5364.jpg",
    "icongray": "https://steamcdn-a.akamaihd.net/steamcommunity/public/images/apps/438720/38a55e4e4035bc6e9914bf44ee39c23c7e1236c6.jpg"
  },
  {
    "name": "GoldRaided1",
    "defaultvalue": 0,
    "displayName": "Your Weight in Gold",
    "hidden": 0,
    "description": "Steal 5,000 Gold",
    "icon": "https://steamcdn-a.akamaihd.net/steamcommunity/public/images/apps/438720/aeeaf11badbe85cda7110088328ef2126d4ac5b9.jpg",
    "icongray": "https://steamcdn-a.akamaihd.net/steamcommunity/public/images/apps/438720/7b9e20b7741fdd2bd3f96e4d8fae2c8633d5e17a.jpg"
  },
  {
    "name": "GoldRaided2",
    "defaultvalue": 0,
    "displayName": "Your Weight in Gold",
    "hidden": 0,
    "description": "Steal 100,000 Gold",
    "icon": "https://steamcdn-a.akamaihd.net/steamcommunity/public/images/apps/438720/2a25e9dd7132e27500dd7708ded3739517c2a1bc.jpg",
    "icongray": "https://steamcdn-a.akamaihd.net/steamcommunity/public/images/apps/438720/b294901858d5dc9e180596a746188f34f835c925.jpg"
  },
  {
    "name": "GoldRaided3",
    "defaultvalue": 0,
    "displayName": "Your Weight in Gold",
    "hidden": 0,
    "description": "Steal 1,000,000 Gold",
    "icon": "https://steamcdn-a.akamaihd.net/steamcommunity/public/images/apps/438720/3bff2376cd58e81451765816240deabf97b542cc.jpg",
    "icongray": "https://steamcdn-a.akamaihd.net/steamcommunity/public/images/apps/438720/8aa78d41963453e959485ee1a6c8f0f3d8883020.jpg"
  },
  {
    "name": "StoneRaided1",
    "defaultvalue": 0,
    "displayName": "Geo Grabber 1",
    "hidden": 0,
    "description": "Steal 3,000 Stone",
    "icon": "https://steamcdn-a.akamaihd.net/steamcommunity/public/images/apps/438720/9fb6ed4a4cebdf1a3c05cab41667f50765f75e54.jpg",
    "icongray": "https://steamcdn-a.akamaihd.net/steamcommunity/public/images/apps/438720/6b15da3805b4b5572d47f7b0c78cd26e1632bbc1.jpg"
  },
  {
    "name": "StoneRaided2",
    "defaultvalue": 0,
    "displayName": "Geo Grabber 2",
    "hidden": 0,
    "description": "Steal 70,000 Stone",
    "icon": "https://steamcdn-a.akamaihd.net/steamcommunity/public/images/apps/438720/c7c720767402ab593abe1aabfdc0a59df33dbeff.jpg",
    "icongray": "https://steamcdn-a.akamaihd.net/steamcommunity/public/images/apps/438720/f5e8bbc2f92697ee0e0b7901fb954fec2dee5a2b.jpg"
  },
  {
    "name": "StoneRaided3",
    "defaultvalue": 0,
    "displayName": "Geo Grabber 3",
    "hidden": 0,
    "description": "Steal 700,000 Stone",
    "icon": "https://steamcdn-a.akamaihd.net/steamcommunity/public/images/apps/438720/c012afb531068c9f8ff0535ea747fd2b0268becc.jpg",
    "icongray": "https://steamcdn-a.akamaihd.net/steamcommunity/public/images/apps/438720/39f06d8799845983568af2e532f165b7d62ef771.jpg"
  },
  {
    "name": "GuardSummoned1",
    "defaultvalue": 0,
    "displayName": "Heavily Guarded 1",
    "hidden": 0,
    "description": "Summon Rare or better Guard",
    "icon": "https://steamcdn-a.akamaihd.net/steamcommunity/public/images/apps/438720/6850dca41dcdf89025da3a1137bdcdba21a17ea7.jpg",
    "icongray": "https://steamcdn-a.akamaihd.net/steamcommunity/public/images/apps/438720/4886be08ef3e36690747962ba77af619cd211929.jpg"
  },
  {
    "name": "GuardSummoned2",
    "defaultvalue": 0,
    "displayName": "Heavily Guarded 2",
    "hidden": 0,
    "description": "Summon Epic or better Guard",
    "icon": "https://steamcdn-a.akamaihd.net/steamcommunity/public/images/apps/438720/f48570e2596a17c84422fb152579b413fd6f294d.jpg",
    "icongray": "https://steamcdn-a.akamaihd.net/steamcommunity/public/images/apps/438720/872ba7738721f8e477c506ac91fbaf702ff6c90c.jpg"
  },
  {
    "name": "GuardSummoned3",
    "defaultvalue": 0,
    "displayName": "Heavily Guarded 3",
    "hidden": 0,
    "description": "Summon Legendary or better Guard",
    "icon": "https://steamcdn-a.akamaihd.net/steamcommunity/public/images/apps/438720/9f7ca5bfe79766fc5177eed8fd0cc9a1d514091b.jpg",
    "icongray": "https://steamcdn-a.akamaihd.net/steamcommunity/public/images/apps/438720/7d2635bc0c0e67ad4350da873d4b03a247685c63.jpg"
  },
  {
    "name": "SpiderPendants1",
    "defaultvalue": 0,
    "displayName": "Medals of Honor 1",
    "hidden": 0,
    "description": "Acquire 500 Spider Pendants",
    "icon": "https://steamcdn-a.akamaihd.net/steamcommunity/public/images/apps/438720/12f6450295d604dacc49c5f2101a6d3bbc716f10.jpg",
    "icongray": "https://steamcdn-a.akamaihd.net/steamcommunity/public/images/apps/438720/347238d8a95c784827d11a1e2afc13955a19ea2f.jpg"
  },
  {
    "name": "SpiderPendants2",
    "defaultvalue": 0,
    "displayName": "Medals of Honor 2",
    "hidden": 0,
    "description": "Acquire 1,000 Spider Pendants",
    "icon": "https://steamcdn-a.akamaihd.net/steamcommunity/public/images/apps/438720/8718b1128b673a8c7e7e7c2cbc0f5a58879ac498.jpg",
    "icongray": "https://steamcdn-a.akamaihd.net/steamcommunity/public/images/apps/438720/3f88641cd05baa2293a2abbc0b2a9e357723e3ca.jpg"
  },
  {
    "name": "SpiderPendants3",
    "defaultvalue": 0,
    "displayName": "Medals of Honor 3",
    "hidden": 0,
    "description": "Acquire 1,500 Spider Pendants",
    "icon": "https://steamcdn-a.akamaihd.net/steamcommunity/public/images/apps/438720/370b29c254d1ac0618a8ddbd1e24c4fd600c763f.jpg",
    "icongray": "https://steamcdn-a.akamaihd.net/steamcommunity/public/images/apps/438720/fbbdad722ff070c9b81fab53cc109d1e64491765.jpg"
  },
  {
    "name": "SuccessfulOffenses1",
    "defaultvalue": 0,
    "displayName": "Epic Pillager 1",
    "hidden": 0,
    "description": "Successfully raid 50 multiplayer Labyrinths",
    "icon": "https://steamcdn-a.akamaihd.net/steamcommunity/public/images/apps/438720/b01f6d212771f3bef43af48071cc2e62cead7291.jpg",
    "icongray": "https://steamcdn-a.akamaihd.net/steamcommunity/public/images/apps/438720/0680a42e79175337d51280a8ccae25a99cc7e4a3.jpg"
  },
  {
    "name": "SuccessfulOffenses2",
    "defaultvalue": 0,
    "displayName": "Epic Pillager 2",
    "hidden": 0,
    "description": "Successfully raid 250 multiplayer Labyrinths",
    "icon": "https://steamcdn-a.akamaihd.net/steamcommunity/public/images/apps/438720/99dd49e2e4161187152bb7b3d9307fd0dcbb7186.jpg",
    "icongray": "https://steamcdn-a.akamaihd.net/steamcommunity/public/images/apps/438720/55fffaa814361641da7991ca7974c641cce31b8c.jpg"
  },
  {
    "name": "SuccessfulOffenses3",
    "defaultvalue": 0,
    "displayName": "Epic Pillager 3",
    "hidden": 0,
    "description": "Successfully raid 1,000 multiplayer Labyrinths",
    "icon": "https://steamcdn-a.akamaihd.net/steamcommunity/public/images/apps/438720/81b434a0ed37b9f36aa223c0ed3c1acfbb9262ee.jpg",
    "icongray": "https://steamcdn-a.akamaihd.net/steamcommunity/public/images/apps/438720/545a01772ed6b6307f278eaed7b2cb3097051d4c.jpg"
  },
  {
    "name": "SuccessfulDefenses1",
    "defaultvalue": 0,
    "displayName": "Labyrinth Architect 1",
    "hidden": 0,
    "description": "Defend against 50 multiplayer Attacks",
    "icon": "https://steamcdn-a.akamaihd.net/steamcommunity/public/images/apps/438720/e5036365d5e12cb8c8d80a5bd7479c6fb213ec8f.jpg",
    "icongray": "https://steamcdn-a.akamaihd.net/steamcommunity/public/images/apps/438720/c88e286f0d6974ac826f4847f77dd1c1f0378d70.jpg"
  },
  {
    "name": "SuccessfulDefenses2",
    "defaultvalue": 0,
    "displayName": "Labyrinth Architect 2",
    "hidden": 0,
    "description": "Defend against 250 multiplayer Attacks",
    "icon": "https://steamcdn-a.akamaihd.net/steamcommunity/public/images/apps/438720/90d94c80c0240fcff6faf3e61e1b9474651fe2a1.jpg",
    "icongray": "https://steamcdn-a.akamaihd.net/steamcommunity/public/images/apps/438720/fa908dc405733472c93d55368b121213cd590482.jpg"
  },
  {
    "name": "SuccessfulDefenses3",
    "defaultvalue": 0,
    "displayName": "Labyrinth Architect 3",
    "hidden": 0,
    "description": "Defend against 1,000 multiplayer Attacks",
    "icon": "https://steamcdn-a.akamaihd.net/steamcommunity/public/images/apps/438720/77f544a0de660137967fdaa2eee3925111b1fb9b.jpg",
    "icongray": "https://steamcdn-a.akamaihd.net/steamcommunity/public/images/apps/438720/fdbed397443d063b7245669207b23d453c7b55fb.jpg"
  },
  {
    "name": "GuardsDonated1",
    "defaultvalue": 0,
    "displayName": "Friendly Reinforcer 1",
    "hidden": 0,
    "description": "Donate 40 Faction Guards",
    "icon": "https://steamcdn-a.akamaihd.net/steamcommunity/public/images/apps/438720/ed054c7f31bde3379403bb77c47aef6f86842c7f.jpg",
    "icongray": "https://steamcdn-a.akamaihd.net/steamcommunity/public/images/apps/438720/cba8a286338f21e1fd5e2f2b86af52425ecbb155.jpg"
  },
  {
    "name": "GuardsDonated2",
    "defaultvalue": 0,
    "displayName": "Friendly Reinforcer 2",
    "hidden": 0,
    "description": "Donate 200 Faction Guards",
    "icon": "https://steamcdn-a.akamaihd.net/steamcommunity/public/images/apps/438720/3caf99fa55a09ed7e6b8bd1d0108e0a0fa98cf92.jpg",
    "icongray": "https://steamcdn-a.akamaihd.net/steamcommunity/public/images/apps/438720/06f6d7dadf3e760cafc225c79f29a13843bc04df.jpg"
  },
  {
    "name": "GuardsDonated3",
    "defaultvalue": 0,
    "displayName": "Friendly Reinforcer 3",
    "hidden": 0,
    "description": "Donate 1,000 Faction Guards",
    "icon": "https://steamcdn-a.akamaihd.net/steamcommunity/public/images/apps/438720/4eccfd68a9d553738858cad9bc8c2eed2bddb28b.jpg",
    "icongray": "https://steamcdn-a.akamaihd.net/steamcommunity/public/images/apps/438720/8794c4046fe053fc23b1e29a91e5d3cad9e3d33c.jpg"
  },
  {
    "name": "FundsDonated1",
    "defaultvalue": 0,
    "displayName": "Mega Donor 1",
    "hidden": 0,
    "description": "Donate 2,000 Gold to Faction Funds",
    "icon": "https://steamcdn-a.akamaihd.net/steamcommunity/public/images/apps/438720/a21635811f34de340d0131570f0801ed8f523891.jpg",
    "icongray": "https://steamcdn-a.akamaihd.net/steamcommunity/public/images/apps/438720/eb07d51d131e6973db644b838b4ad5c78dbbaf43.jpg"
  },
  {
    "name": "FundsDonated2",
    "defaultvalue": 0,
    "displayName": "Mega Donor 2",
    "hidden": 0,
    "description": "Donate 20,000 Gold to Faction Funds",
    "icon": "https://steamcdn-a.akamaihd.net/steamcommunity/public/images/apps/438720/b30a43801e6d8e9bc0a029e4011382d387211c71.jpg",
    "icongray": "https://steamcdn-a.akamaihd.net/steamcommunity/public/images/apps/438720/1a7cdd8015021b836dd39335d4756f51fde08d96.jpg"
  },
  {
    "name": "FundsDonated3",
    "defaultvalue": 0,
    "displayName": "Mega Donor 3",
    "hidden": 0,
    "description": "Donate 200,000 Gold to Faction Funds",
    "icon": "https://steamcdn-a.akamaihd.net/steamcommunity/public/images/apps/438720/581cb91c1513a4e3205d73a1fc2c12efea374783.jpg",
    "icongray": "https://steamcdn-a.akamaihd.net/steamcommunity/public/images/apps/438720/47bd27d168a9763b7d30280989ad0598aa200ad4.jpg"
  },
  {
    "name": "ItemCrafted1",
    "defaultvalue": 0,
    "displayName": "Prize Collector 1",
    "hidden": 0,
    "description": "Acquire Rare or better item",
    "icon": "https://steamcdn-a.akamaihd.net/steamcommunity/public/images/apps/438720/a0db1a60efb5fe63bafb9dc0bcb8bf9ba10af9b5.jpg",
    "icongray": "https://steamcdn-a.akamaihd.net/steamcommunity/public/images/apps/438720/d780164e1d0847603e0b2b25f1dfde54297e7705.jpg"
  },
  {
    "name": "ItemCrafted2",
    "defaultvalue": 0,
    "displayName": "Prize Collector 2",
    "hidden": 0,
    "description": "Acquire Epic or better item",
    "icon": "https://steamcdn-a.akamaihd.net/steamcommunity/public/images/apps/438720/6b690be88092c5bc704c59f54fd604528a8924f7.jpg",
    "icongray": "https://steamcdn-a.akamaihd.net/steamcommunity/public/images/apps/438720/cf6c7ce837c66f5ec1654e2941961d2abff6aa54.jpg"
  },
  {
    "name": "ItemCrafted3",
    "defaultvalue": 0,
    "displayName": "Prize Collector 3",
    "hidden": 0,
    "description": "Acquire Legendary or better item",
    "icon": "https://steamcdn-a.akamaihd.net/steamcommunity/public/images/apps/438720/cc67175bc392eb14fe8ee9c728aeece9aefdd1aa.jpg",
    "icongray": "https://steamcdn-a.akamaihd.net/steamcommunity/public/images/apps/438720/87d861832c496098e4dc2f16ccfef3d8ac5a8282.jpg"
  }
]