﻿{
  "Dlcs": {},
  "Name": "SECTOR",
  "AppId": "366960",
  "ImageUrl": "https://steamcdn-a.akamaihd.net/steam/apps/366960/header.jpg?t=1468887547",
  "Languages": [
    "english"
  ],
  "Platforms": {
    "windows": true,
    "mac": false,
    "linux": false
  }
}