﻿{
  "Dlcs": {},
  "Name": "Joana's Life",
  "AppId": "513740",
  "ImageUrl": "https://steamcdn-a.akamaihd.net/steam/apps/513740/header.jpg?t=1472750149",
  "Languages": [
    "english"
  ],
  "Platforms": {
    "windows": true,
    "mac": false,
    "linux": false
  }
}