﻿{
  "Dlcs": {},
  "Name": "Killing Time",
  "AppId": "493320",
  "ImageUrl": "https://steamcdn-a.akamaihd.net/steam/apps/493320/header.jpg?t=1591050304",
  "Languages": [
    "english"
  ],
  "Platforms": {
    "windows": true,
    "mac": false,
    "linux": false
  }
}