﻿{
  "Dlcs": {},
  "Name": "Order of War™",
  "AppId": "34600",
  "ImageUrl": "https://steamcdn-a.akamaihd.net/steam/apps/34600/header.jpg?t=1592493041",
  "Languages": [
    "english",
    "french",
    "german",
    "italian",
    "polish",
    "russian",
    "spanish"
  ],
  "Platforms": {
    "windows": true,
    "mac": false,
    "linux": false
  }
}