﻿{
  "Dlcs": {
    "703170": {
      "Name": "Evening Surprise - Extra Materials",
      "ImageUrl": "https://steamcdn-a.akamaihd.net/steam/apps/703170/header.jpg?t=1505498633"
    }
  },
  "Name": "Evening Surprise",
  "AppId": "690930",
  "ImageUrl": "https://steamcdn-a.akamaihd.net/steam/apps/690930/header.jpg?t=1505498575",
  "Languages": [
    "english",
    "russian"
  ],
  "Platforms": {
    "windows": true,
    "mac": true,
    "linux": true
  }
}