﻿{
  "Dlcs": {},
  "Name": "Luxor 3",
  "AppId": "15930",
  "ImageUrl": "https://steamcdn-a.akamaihd.net/steam/apps/15930/header.jpg?t=1447351187",
  "Languages": [
    "english"
  ],
  "Platforms": {
    "windows": true,
    "mac": false,
    "linux": false
  }
}