{
  "Releases": [
    "Windows",
    "Mac"
  ],
  "Name": "Wilmot's Warehouse",
  "AppId": "9b40e3ffb4074f22a856a521be5ce858",
  "Namespace": "f697ab7aa6af41f880e1489818e2720d",
  "ItemId": "3a081bf54f9f477cad66a1f29cdfaa2a",
  "ImageUrl": "https://cdn1.epicgames.com/f697ab7aa6af41f880e1489818e2720d/item/EGS_WilmotsWarehouse_HollowPondsRichardHogg_S1-2560x1440-8db93e787c510b773094aa680dad7a60.jpg",
  "Dlcs": {}
}