﻿[
  {
    "name": "ACHIEVEMENT_1",
    "defaultvalue": 0,
    "displayName": "Claws of Osh",
    "hidden": 0,
    "description": "Outsmart the guardian of the Lower World",
    "icon": "https://steamcdn-a.akamaihd.net/steamcommunity/public/images/apps/574310/a9c79a7a9d3f40ef08f11b8423fa037faeefae15.jpg",
    "icongray": "https://steamcdn-a.akamaihd.net/steamcommunity/public/images/apps/574310/9692ee9610f0ad16bc2ceb46bb428e45cac412d9.jpg"
  },
  {
    "name": "ACHIEVEMENT_2",
    "defaultvalue": 0,
    "displayName": "Lower World",
    "hidden": 0,
    "description": "Enter the world of the dead and ancient spirits",
    "icon": "https://steamcdn-a.akamaihd.net/steamcommunity/public/images/apps/574310/f9bb0e7df2123feffda43d0a97c55fa0491557c7.jpg",
    "icongray": "https://steamcdn-a.akamaihd.net/steamcommunity/public/images/apps/574310/d75105382e296f51676207cae721580b1666fcf7.jpg"
  },
  {
    "name": "ACHIEVEMENT_3",
    "defaultvalue": 0,
    "displayName": "Cows of Vakul",
    "hidden": 1,
    "icon": "https://steamcdn-a.akamaihd.net/steamcommunity/public/images/apps/574310/02b2de04e840b2530b18e24fcd1a507cfea799ab.jpg",
    "icongray": "https://steamcdn-a.akamaihd.net/steamcommunity/public/images/apps/574310/d7f39d287d4353056286a34a82b7f40db2550c1c.jpg"
  },
  {
    "name": "ACHIEVEMENT_4",
    "defaultvalue": 0,
    "displayName": "Riddles in the Dark",
    "hidden": 0,
    "description": "Solve the ice crystal riddle in the underworld",
    "icon": "https://steamcdn-a.akamaihd.net/steamcommunity/public/images/apps/574310/57b9c5e78063b218ec5c0b25485ebc8fcc99bb29.jpg",
    "icongray": "https://steamcdn-a.akamaihd.net/steamcommunity/public/images/apps/574310/6bca8200492a2a479c2a8060eadb026b92d3bd63.jpg"
  },
  {
    "name": "ACHIEVEMENT_5",
    "defaultvalue": 0,
    "displayName": "Shondi",
    "hidden": 0,
    "description": "Grab a piece of shimmering sun",
    "icon": "https://steamcdn-a.akamaihd.net/steamcommunity/public/images/apps/574310/8099748b5c790e6555be469404522198ec7c5199.jpg",
    "icongray": "https://steamcdn-a.akamaihd.net/steamcommunity/public/images/apps/574310/26cee7e9c870c8ab5f4d7cf7a948ddfbd04d640e.jpg"
  },
  {
    "name": "ACHIEVEMENT_6",
    "defaultvalue": 0,
    "displayName": "Secrets of the Bone Forest",
    "hidden": 0,
    "description": "Find all the artefacts among Mangonth's tusks",
    "icon": "https://steamcdn-a.akamaihd.net/steamcommunity/public/images/apps/574310/1b2092ee99a9685ff62fcc8223ea210998030d8e.jpg",
    "icongray": "https://steamcdn-a.akamaihd.net/steamcommunity/public/images/apps/574310/eb2e1090951ea6c7c79f4aa4028d658274d7d378.jpg"
  },
  {
    "name": "ACHIEVEMENT_7",
    "defaultvalue": 0,
    "displayName": "Cheran'",
    "hidden": 0,
    "description": "Fight and defeat the spider of the Lower World",
    "icon": "https://steamcdn-a.akamaihd.net/steamcommunity/public/images/apps/574310/696b038364ab7510b1bc8598c736ee5dfd4fa64f.jpg",
    "icongray": "https://steamcdn-a.akamaihd.net/steamcommunity/public/images/apps/574310/696bd0c5626859422f44bb8a41251873bc84b8a3.jpg"
  },
  {
    "name": "ACHIEVEMENT_8",
    "defaultvalue": 0,
    "displayName": "Vakul",
    "hidden": 0,
    "description": "Escape the river god",
    "icon": "https://steamcdn-a.akamaihd.net/steamcommunity/public/images/apps/574310/6313eb3c328dfcf6b7f5eba3b6549a0519a29793.jpg",
    "icongray": "https://steamcdn-a.akamaihd.net/steamcommunity/public/images/apps/574310/872912848fb14b1ae02f9769cef492815e0cfe2e.jpg"
  },
  {
    "name": "ACHIEVEMENT_9",
    "defaultvalue": 0,
    "displayName": "Vorsa's Sanctuary",
    "hidden": 0,
    "description": "Solve the riddle of Vorsa's sanctuary",
    "icon": "https://steamcdn-a.akamaihd.net/steamcommunity/public/images/apps/574310/f8fd12a68a08e71bf1df04fddb9a975f153cd0ff.jpg",
    "icongray": "https://steamcdn-a.akamaihd.net/steamcommunity/public/images/apps/574310/c97ae0c2f8cc3abeca9839440d5dfbc17bbbfaa8.jpg"
  },
  {
    "name": "ACHIEVEMENT_10",
    "defaultvalue": 0,
    "displayName": "Middle World",
    "hidden": 0,
    "description": "Enter the world of men",
    "icon": "https://steamcdn-a.akamaihd.net/steamcommunity/public/images/apps/574310/6915761e59fd0efcd579726630338fd5566e184d.jpg",
    "icongray": "https://steamcdn-a.akamaihd.net/steamcommunity/public/images/apps/574310/f086faa8968bca80ff658738a234f4c03e6315e2.jpg"
  },
  {
    "name": "ACHIEVEMENT_11",
    "defaultvalue": 0,
    "displayName": "Healer",
    "hidden": 0,
    "description": "Outsmart Yoma the Witch",
    "icon": "https://steamcdn-a.akamaihd.net/steamcommunity/public/images/apps/574310/fdc2e643ada058835d3aa8889d9a8840d28ddb7b.jpg",
    "icongray": "https://steamcdn-a.akamaihd.net/steamcommunity/public/images/apps/574310/8c106cd67c88cf4d44e4502de0a7974bcede2b12.jpg"
  },
  {
    "name": "ACHIEVEMENT_12",
    "defaultvalue": 0,
    "displayName": "Upper World",
    "hidden": 0,
    "description": "Enter the world of gods and ancestors",
    "icon": "https://steamcdn-a.akamaihd.net/steamcommunity/public/images/apps/574310/2171fb0374579693592cb8557e83e388a32a4a15.jpg",
    "icongray": "https://steamcdn-a.akamaihd.net/steamcommunity/public/images/apps/574310/456a870be1b6e440839e24a8f80e200451e9154a.jpg"
  },
  {
    "name": "ACHIEVEMENT_13",
    "defaultvalue": 0,
    "displayName": "Rug Ride",
    "hidden": 0,
    "description": "Survive the chase by Voipel ",
    "icon": "https://steamcdn-a.akamaihd.net/steamcommunity/public/images/apps/574310/626ab5ed28244e7d768ff7fa324e3b2ca7cd788d.jpg",
    "icongray": "https://steamcdn-a.akamaihd.net/steamcommunity/public/images/apps/574310/3a8ef2b81703df0e4712990d5e0ccb04c4c8bcfb.jpg"
  },
  {
    "name": "ACHIEVEMENT_14",
    "defaultvalue": 0,
    "displayName": "Sunset",
    "hidden": 0,
    "description": "Return to the gates of the Lower World",
    "icon": "https://steamcdn-a.akamaihd.net/steamcommunity/public/images/apps/574310/7480efd05bffefce3b9a07a165a2bdb15b482348.jpg",
    "icongray": "https://steamcdn-a.akamaihd.net/steamcommunity/public/images/apps/574310/02d7602f735fc3ba5d6f928ee3a3608885df260c.jpg"
  },
  {
    "name": "ACHIEVEMENT_15",
    "defaultvalue": 0,
    "displayName": "Archaeologist",
    "hidden": 0,
    "description": "Collect all artefacts",
    "icon": "https://steamcdn-a.akamaihd.net/steamcommunity/public/images/apps/574310/c91ebb210f73865b8fc7122cffa763f174fa282a.jpg",
    "icongray": "https://steamcdn-a.akamaihd.net/steamcommunity/public/images/apps/574310/4777a69c9e13b593a2a07fbe8dff79e95e45f4b7.jpg"
  }
]