﻿{
  "Dlcs": {},
  "Name": "Dead Horde",
  "AppId": "27940",
  "ImageUrl": "https://steamcdn-a.akamaihd.net/steam/apps/27940/header.jpg?t=1447354462",
  "Languages": [
    "english",
    "polish",
    "russian",
    "spanish"
  ],
  "Platforms": {
    "windows": true,
    "mac": false,
    "linux": false
  }
}