﻿[
  {
    "name": "deaths",
    "defaultvalue": 0,
    "displayName": "Deaths"
  },
  {
    "name": "projectile_fired",
    "defaultvalue": 0,
    "displayName": "Projectiles Fired"
  },
  {
    "name": "bullet_fired",
    "defaultvalue": 0,
    "displayName": "Bullets Fired"
  },
  {
    "name": "arrow_fired",
    "defaultvalue": 0,
    "displayName": "Arrows Fired"
  },
  {
    "name": "rocket_fired",
    "defaultvalue": 0,
    "displayName": "Rockets Fired"
  },
  {
    "name": "headshots",
    "defaultvalue": 0,
    "displayName": "Headshots"
  },
  {
    "name": "item_drop",
    "defaultvalue": 0,
    "displayName": "Items Dropped"
  },
  {
    "name": "blueprint_studied",
    "defaultvalue": 0,
    "displayName": "Blueprints Studied"
  },
  {
    "name": "death_suicide",
    "defaultvalue": 0,
    "displayName": "Suicides"
  },
  {
    "name": "death_fall",
    "defaultvalue": 0,
    "displayName": "Fall"
  },
  {
    "name": "death_selfinflicted",
    "defaultvalue": 0,
    "displayName": "Killed self in unknown way"
  },
  {
    "name": "kill_player",
    "defaultvalue": 0,
    "displayName": "Murders"
  },
  {
    "name": "bullet_hit_player",
    "defaultvalue": 0,
    "displayName": "Bullets fired that hit a player"
  },
  {
    "name": "arrow_hit_entity",
    "defaultvalue": 0,
    "displayName": "Arrows that hit an unknown entity"
  },
  {
    "name": "harvest.fat_animal",
    "defaultvalue": 0,
    "displayName": "Harvested animal fat"
  },
  {
    "name": "harvest.stones",
    "defaultvalue": 0,
    "displayName": "Harvested Stones"
  },
  {
    "name": "bullet_hit_entity",
    "defaultvalue": 0,
    "displayName": "Bullets that hit an unkown entity"
  },
  {
    "name": "harvest.cloth",
    "defaultvalue": 0,
    "displayName": "Harvested cloth"
  },
  {
    "name": "harvest.wood",
    "defaultvalue": 0,
    "displayName": "Harvested Wood"
  },
  {
    "name": "arrow_hit_building",
    "defaultvalue": 0,
    "displayName": "Arrows that hit a building"
  },
  {
    "name": "kill_bear",
    "defaultvalue": 0,
    "displayName": ""
  },
  {
    "name": "kill_boar",
    "defaultvalue": 0,
    "displayName": ""
  },
  {
    "name": "kill_stag",
    "defaultvalue": 0,
    "displayName": ""
  },
  {
    "name": "kill_chicken",
    "defaultvalue": 0,
    "displayName": ""
  },
  {
    "name": "kill_horse",
    "defaultvalue": 0,
    "displayName": ""
  },
  {
    "name": "kill_wolf",
    "defaultvalue": 0,
    "displayName": ""
  },
  {
    "name": "harvest.metal_ore",
    "defaultvalue": 0,
    "displayName": ""
  },
  {
    "name": "headshot",
    "defaultvalue": 0,
    "displayName": ""
  },
  {
    "name": "harvest.sulfur_ore",
    "defaultvalue": 0,
    "displayName": ""
  },
  {
    "name": "harvest.bone_fragments",
    "defaultvalue": 0,
    "displayName": ""
  },
  {
    "name": "harvest.humanmeat_raw",
    "defaultvalue": 0,
    "displayName": ""
  },
  {
    "name": "arrow_hit_boar",
    "defaultvalue": 0,
    "displayName": ""
  },
  {
    "name": "arrow_hit_bear",
    "defaultvalue": 0,
    "displayName": ""
  },
  {
    "name": "arrow_hit_wolf",
    "defaultvalue": 0,
    "displayName": ""
  },
  {
    "name": "arrow_hit_stag",
    "defaultvalue": 0,
    "displayName": ""
  },
  {
    "name": "arrow_hit_chicken",
    "defaultvalue": 0,
    "displayName": ""
  },
  {
    "name": "bullet_hit_building",
    "defaultvalue": 0,
    "displayName": ""
  },
  {
    "name": "harvest.wolfmeat_raw",
    "defaultvalue": 0,
    "displayName": ""
  },
  {
    "name": "harvest.skull_human",
    "defaultvalue": 0,
    "displayName": ""
  },
  {
    "name": "harvest.skull_wolf",
    "defaultvalue": 0,
    "displayName": ""
  },
  {
    "name": "arrow_hit_horse",
    "defaultvalue": 0,
    "displayName": ""
  },
  {
    "name": "arrow_hit_player",
    "defaultvalue": 0,
    "displayName": ""
  },
  {
    "name": "death_entity",
    "defaultvalue": 0,
    "displayName": ""
  },
  {
    "name": "death_wolf",
    "defaultvalue": 0,
    "displayName": ""
  },
  {
    "name": "death_bear",
    "defaultvalue": 0,
    "displayName": ""
  },
  {
    "name": "shotgun_fired",
    "defaultvalue": 0,
    "displayName": ""
  },
  {
    "name": "shotgun_hit_building",
    "defaultvalue": 0,
    "displayName": ""
  },
  {
    "name": "shotgun_hit_player",
    "defaultvalue": 0,
    "displayName": ""
  },
  {
    "name": "shotgun_hit_horse",
    "defaultvalue": 0,
    "displayName": ""
  },
  {
    "name": "bullet_hit_bear",
    "defaultvalue": 0,
    "displayName": ""
  },
  {
    "name": "shotgun_hit_entity",
    "defaultvalue": 0,
    "displayName": ""
  },
  {
    "name": "bullet_hit_horse",
    "defaultvalue": 0,
    "displayName": ""
  },
  {
    "name": "bullet_hit_stag",
    "defaultvalue": 0,
    "displayName": ""
  },
  {
    "name": "bullet_hit_wolf",
    "defaultvalue": 0,
    "displayName": ""
  },
  {
    "name": "bullet_hit_boar",
    "defaultvalue": 0,
    "displayName": ""
  },
  {
    "name": "bullet_hit_sign",
    "defaultvalue": 0,
    "displayName": ""
  },
  {
    "name": "wounded",
    "defaultvalue": 0,
    "displayName": ""
  },
  {
    "name": "wounded_assisted",
    "defaultvalue": 0,
    "displayName": ""
  },
  {
    "name": "wounded_healed",
    "defaultvalue": 0,
    "displayName": ""
  },
  {
    "name": "bullet_hit_playercorpse",
    "defaultvalue": 0,
    "displayName": ""
  },
  {
    "name": "bullet_hit_corpse",
    "defaultvalue": 0,
    "displayName": ""
  },
  {
    "name": "INVENTORY_OPENED",
    "defaultvalue": 0,
    "displayName": ""
  },
  {
    "name": "CRAFTING_OPENED",
    "defaultvalue": 0,
    "displayName": ""
  },
  {
    "name": "harvested_wood",
    "defaultvalue": 0,
    "displayName": ""
  },
  {
    "name": "harvested_stones",
    "defaultvalue": 0,
    "displayName": ""
  },
  {
    "name": "MAP_OPENED",
    "defaultvalue": 0,
    "displayName": ""
  },
  {
    "name": "CUPBOARD_OPENED",
    "defaultvalue": 0,
    "displayName": ""
  },
  {
    "name": "ITEM_EXAMINED",
    "defaultvalue": 0,
    "displayName": ""
  },
  {
    "name": "ORE_HIT",
    "defaultvalue": 0,
    "displayName": ""
  },
  {
    "name": "TREE_HIT",
    "defaultvalue": 0,
    "displayName": ""
  },
  {
    "name": "comfort_duration",
    "defaultvalue": 0,
    "displayName": ""
  },
  {
    "name": "calories_consumed",
    "defaultvalue": 0,
    "displayName": ""
  },
  {
    "name": "water_consumed",
    "defaultvalue": 0,
    "displayName": ""
  },
  {
    "name": "pickup_category_food_Old",
    "defaultvalue": 0,
    "displayName": ""
  },
  {
    "name": "pickup_category_food",
    "defaultvalue": 0,
    "displayName": ""
  },
  {
    "name": "radiation_exposure_duration",
    "defaultvalue": 0,
    "displayName": ""
  },
  {
    "name": "cold_exposure_duration",
    "defaultvalue": 0,
    "displayName": ""
  },
  {
    "name": "hot_exposure_duration",
    "defaultvalue": 0,
    "displayName": ""
  },
  {
    "name": "melee_strikes",
    "defaultvalue": 0,
    "displayName": ""
  },
  {
    "name": "melee_thrown",
    "defaultvalue": 0,
    "displayName": ""
  },
  {
    "name": "placed_blocks",
    "defaultvalue": 0,
    "displayName": ""
  },
  {
    "name": "upgraded_blocks",
    "defaultvalue": 0,
    "displayName": ""
  },
  {
    "name": "arrows_shot",
    "defaultvalue": 0,
    "displayName": ""
  },
  {
    "name": "seconds_speaking",
    "defaultvalue": 0,
    "displayName": ""
  },
  {
    "name": "harvested_cloth",
    "defaultvalue": 0,
    "displayName": ""
  },
  {
    "name": "harvested_leather",
    "defaultvalue": 0,
    "displayName": ""
  },
  {
    "name": "acquired_lowgradefuel",
    "defaultvalue": 0,
    "displayName": ""
  },
  {
    "name": "acquired_metal.ore",
    "defaultvalue": 0,
    "displayName": ""
  },
  {
    "name": "acquired_scrap",
    "defaultvalue": 0,
    "displayName": ""
  },
  {
    "name": "topology_road_duration",
    "defaultvalue": 0,
    "displayName": ""
  },
  {
    "name": "destroyed_barrels",
    "defaultvalue": 0,
    "displayName": ""
  },
  {
    "name": "horse_distance_ridden",
    "defaultvalue": 0,
    "displayName": ""
  },
  {
    "name": "helipad_landings",
    "defaultvalue": 0,
    "displayName": ""
  },
  {
    "name": "cargoship_bridge_visits",
    "defaultvalue": 0,
    "displayName": ""
  },
  {
    "name": "recycled_cans",
    "defaultvalue": 0,
    "displayName": ""
  },
  {
    "name": "kill_scientist",
    "defaultvalue": 0,
    "displayName": ""
  },
  {
    "name": "horse_distance_ridden_km",
    "defaultvalue": 0,
    "displayName": ""
  },
  {
    "name": "notesplayed_bass",
    "defaultvalue": 0,
    "displayName": ""
  },
  {
    "name": "notesplayed_cowbell",
    "defaultvalue": 0,
    "displayName": ""
  },
  {
    "name": "notesplayed_drumkit",
    "defaultvalue": 0,
    "displayName": ""
  },
  {
    "name": "notesplayed_flute",
    "defaultvalue": 0,
    "displayName": ""
  },
  {
    "name": "notesplayed_acousticguitar",
    "defaultvalue": 0,
    "displayName": ""
  },
  {
    "name": "notesplayed_jerrycanguitar",
    "defaultvalue": 0,
    "displayName": ""
  },
  {
    "name": "notesplayed_piano",
    "defaultvalue": 0,
    "displayName": ""
  },
  {
    "name": "notesplayed_tambourine",
    "defaultvalue": 0,
    "displayName": ""
  },
  {
    "name": "notesplayed_trumpet",
    "defaultvalue": 0,
    "displayName": ""
  },
  {
    "name": "notesplayed_tuba",
    "defaultvalue": 0,
    "displayName": ""
  },
  {
    "name": "notesplayed_xylophone",
    "defaultvalue": 0,
    "displayName": ""
  },
  {
    "name": "notesplayed",
    "defaultvalue": 0,
    "displayName": ""
  },
  {
    "name": "InstrumentNotesPlayed",
    "defaultvalue": 0,
    "displayName": ""
  },
  {
    "name": "InstrumentFullKeyboardMode",
    "defaultvalue": 0,
    "displayName": ""
  },
  {
    "name": "InstrumentNotesPlayedBinds",
    "defaultvalue": 0,
    "displayName": ""
  }
]