﻿{
  "Dlcs": {
    "500770": {
      "Name": "Quadrant - Official Soundtrack",
      "ImageUrl": "https://steamcdn-a.akamaihd.net/steam/apps/500770/header.jpg?t=1468877884"
    }
  },
  "Name": "Quadrant",
  "AppId": "365320",
  "ImageUrl": "https://steamcdn-a.akamaihd.net/steam/apps/365320/header.jpg?t=1484599110",
  "Languages": [
    "english",
    "french",
    "italian",
    "german",
    "spanish",
    "portuguese",
    "russian"
  ],
  "Platforms": {
    "windows": true,
    "mac": false,
    "linux": true
  }
}