﻿{
  "Dlcs": {},
  "Name": "Sid Meier's Civilization® IV",
  "AppId": "34440",
  "ImageUrl": "https://steamcdn-a.akamaihd.net/steam/apps/3900/header.jpg?t=1573063101",
  "Languages": [
    "english",
    "french",
    "german",
    "italian",
    "spanish"
  ],
  "Platforms": {
    "windows": true,
    "mac": true,
    "linux": false
  }
}