﻿{
  "Dlcs": {},
  "Name": "Plug & Play",
  "AppId": "353560",
  "ImageUrl": "https://steamcdn-a.akamaihd.net/steam/apps/353560/header.jpg?t=1576149021",
  "Languages": [
    "english"
  ],
  "Platforms": {
    "windows": true,
    "mac": true,
    "linux": true
  }
}