﻿{
  "Dlcs": {},
  "Name": "Dark Matter",
  "AppId": "850250",
  "ImageUrl": "https://steamcdn-a.akamaihd.net/steam/apps/850250/header.jpg?t=1576029022",
  "Languages": [
    "english"
  ],
  "Platforms": {
    "windows": true,
    "mac": false,
    "linux": false
  }
}