﻿{
  "Dlcs": {},
  "Name": "Forgotten Land",
  "AppId": "685990",
  "ImageUrl": "https://steamcdn-a.akamaihd.net/steam/apps/685990/header.jpg?t=1507536677",
  "Languages": [
    "english"
  ],
  "Platforms": {
    "windows": true,
    "mac": false,
    "linux": false
  }
}