﻿{
  "Dlcs": {},
  "Name": "Alone in the Dark: The New Nightmare",
  "AppId": "259190",
  "ImageUrl": "https://steamcdn-a.akamaihd.net/steam/apps/259190/header.jpg?t=1568008965",
  "Languages": [
    "english"
  ],
  "Platforms": {
    "windows": true,
    "mac": false,
    "linux": false
  }
}