﻿[
  {
    "name": "NumGames",
    "defaultvalue": 0,
    "displayName": "Games Played"
  },
  {
    "name": "NumWins",
    "defaultvalue": 0,
    "displayName": "Games Won"
  },
  {
    "name": "NumLosses",
    "defaultvalue": 0,
    "displayName": "Games Lost"
  },
  {
    "name": "FeetTraveled",
    "defaultvalue": 0,
    "displayName": "Total Feet Traveled"
  }
]