﻿{
  "Dlcs": {},
  "Name": "Transmissions: Element 120",
  "AppId": "365300",
  "ImageUrl": "https://steamcdn-a.akamaihd.net/steam/apps/365300/header.jpg?t=1467019620",
  "Languages": [
    "english",
    "french",
    "german",
    "spanish",
    "russian"
  ],
  "Platforms": {
    "windows": true,
    "mac": false,
    "linux": true
  }
}