﻿{
  "Dlcs": {},
  "Name": "Slide Ride Arcade",
  "AppId": "462400",
  "ImageUrl": "https://steamcdn-a.akamaihd.net/steam/apps/462400/header.jpg?t=1468400252",
  "Languages": [
    "english"
  ],
  "Platforms": {
    "windows": true,
    "mac": false,
    "linux": false
  }
}