﻿[
  {
    "name": "CHIEVO_1",
    "defaultvalue": 0,
    "displayName": "\"Beat\" the game",
    "hidden": 1,
    "icon": "https://steamcdn-a.akamaihd.net/steamcommunity/public/images/apps/324120/cbc714ae986e98df3e1651153e7b38e553cbaa98.jpg",
    "icongray": "https://steamcdn-a.akamaihd.net/steamcommunity/public/images/apps/324120/18507d11522bd0e8e1a96cc900dae3085c834a77.jpg"
  },
  {
    "name": "CHIEVO_2",
    "defaultvalue": 0,
    "displayName": "Nice Catch",
    "hidden": 1,
    "icon": "https://steamcdn-a.akamaihd.net/steamcommunity/public/images/apps/324120/cbc714ae986e98df3e1651153e7b38e553cbaa98.jpg",
    "icongray": "https://steamcdn-a.akamaihd.net/steamcommunity/public/images/apps/324120/18507d11522bd0e8e1a96cc900dae3085c834a77.jpg"
  },
  {
    "name": "CHIEVO_3",
    "defaultvalue": 0,
    "displayName": "C:\\VS400\\Steam>dir\\MAIN",
    "hidden": 1,
    "icon": "https://steamcdn-a.akamaihd.net/steamcommunity/public/images/apps/324120/cbc714ae986e98df3e1651153e7b38e553cbaa98.jpg",
    "icongray": "https://steamcdn-a.akamaihd.net/steamcommunity/public/images/apps/324120/18507d11522bd0e8e1a96cc900dae3085c834a77.jpg"
  },
  {
    "name": "CHIEVO_4",
    "defaultvalue": 0,
    "displayName": "Burn it down",
    "hidden": 1,
    "icon": "https://steamcdn-a.akamaihd.net/steamcommunity/public/images/apps/324120/cbc714ae986e98df3e1651153e7b38e553cbaa98.jpg",
    "icongray": "https://steamcdn-a.akamaihd.net/steamcommunity/public/images/apps/324120/18507d11522bd0e8e1a96cc900dae3085c834a77.jpg"
  },
  {
    "name": "CHIEVO_5",
    "defaultvalue": 0,
    "displayName": "Start Fresh",
    "hidden": 1,
    "icon": "https://steamcdn-a.akamaihd.net/steamcommunity/public/images/apps/324120/cbc714ae986e98df3e1651153e7b38e553cbaa98.jpg",
    "icongray": "https://steamcdn-a.akamaihd.net/steamcommunity/public/images/apps/324120/18507d11522bd0e8e1a96cc900dae3085c834a77.jpg"
  },
  {
    "name": "CHIEVO_6",
    "defaultvalue": 0,
    "displayName": "Everyone needs a little",
    "hidden": 1,
    "icon": "https://steamcdn-a.akamaihd.net/steamcommunity/public/images/apps/324120/cbc714ae986e98df3e1651153e7b38e553cbaa98.jpg",
    "icongray": "https://steamcdn-a.akamaihd.net/steamcommunity/public/images/apps/324120/18507d11522bd0e8e1a96cc900dae3085c834a77.jpg"
  },
  {
    "name": "CHIEVO_7",
    "defaultvalue": 0,
    "displayName": "You're not supposed to be here.",
    "hidden": 1,
    "icon": "https://steamcdn-a.akamaihd.net/steamcommunity/public/images/apps/324120/cbc714ae986e98df3e1651153e7b38e553cbaa98.jpg",
    "icongray": "https://steamcdn-a.akamaihd.net/steamcommunity/public/images/apps/324120/18507d11522bd0e8e1a96cc900dae3085c834a77.jpg"
  },
  {
    "name": "CHIEVO_8",
    "defaultvalue": 0,
    "displayName": "8888888888888888",
    "hidden": 1,
    "icon": "https://steamcdn-a.akamaihd.net/steamcommunity/public/images/apps/324120/cbc714ae986e98df3e1651153e7b38e553cbaa98.jpg",
    "icongray": "https://steamcdn-a.akamaihd.net/steamcommunity/public/images/apps/324120/18507d11522bd0e8e1a96cc900dae3085c834a77.jpg"
  },
  {
    "name": "CHIEVO_9",
    "defaultvalue": 0,
    "displayName": "User Preference",
    "hidden": 1,
    "icon": "https://steamcdn-a.akamaihd.net/steamcommunity/public/images/apps/324120/cbc714ae986e98df3e1651153e7b38e553cbaa98.jpg",
    "icongray": "https://steamcdn-a.akamaihd.net/steamcommunity/public/images/apps/324120/18507d11522bd0e8e1a96cc900dae3085c834a77.jpg"
  },
  {
    "name": "CHIEVO_10",
    "defaultvalue": 0,
    "displayName": "Know Thyself",
    "hidden": 1,
    "icon": "https://steamcdn-a.akamaihd.net/steamcommunity/public/images/apps/324120/cbc714ae986e98df3e1651153e7b38e553cbaa98.jpg",
    "icongray": "https://steamcdn-a.akamaihd.net/steamcommunity/public/images/apps/324120/18507d11522bd0e8e1a96cc900dae3085c834a77.jpg"
  },
  {
    "name": "CHIEVO_11",
    "defaultvalue": 0,
    "displayName": "Holy Cheater",
    "hidden": 1,
    "icon": "https://steamcdn-a.akamaihd.net/steamcommunity/public/images/apps/324120/cbc714ae986e98df3e1651153e7b38e553cbaa98.jpg",
    "icongray": "https://steamcdn-a.akamaihd.net/steamcommunity/public/images/apps/324120/18507d11522bd0e8e1a96cc900dae3085c834a77.jpg"
  },
  {
    "name": "CHIEVO_12",
    "defaultvalue": 0,
    "displayName": "Barry Allen",
    "hidden": 1,
    "icon": "https://steamcdn-a.akamaihd.net/steamcommunity/public/images/apps/324120/cbc714ae986e98df3e1651153e7b38e553cbaa98.jpg",
    "icongray": "https://steamcdn-a.akamaihd.net/steamcommunity/public/images/apps/324120/18507d11522bd0e8e1a96cc900dae3085c834a77.jpg"
  }
]