﻿{
  "Dlcs": {},
  "Name": "Downpour",
  "AppId": "371400",
  "ImageUrl": "https://steamcdn-a.akamaihd.net/steam/apps/371400/header.jpg?t=1447374660",
  "Languages": [
    "english"
  ],
  "Platforms": {
    "windows": true,
    "mac": false,
    "linux": false
  }
}