﻿[
  {
    "name": "kills_alltime",
    "defaultvalue": 0,
    "displayName": "Kills all time"
  },
  {
    "name": "kills_week",
    "defaultvalue": 0,
    "displayName": "Kills past week"
  },
  {
    "name": "deaths_alltime",
    "defaultvalue": 0,
    "displayName": "Deaths all time"
  },
  {
    "name": "deaths_week",
    "defaultvalue": 0,
    "displayName": "Deaths past week"
  },
  {
    "name": "assists_alltime",
    "defaultvalue": 0,
    "displayName": "Assists all time"
  },
  {
    "name": "assists_week",
    "defaultvalue": 0,
    "displayName": "Assists past week"
  },
  {
    "name": "games_won_alltime",
    "defaultvalue": 0,
    "displayName": "Games won all time"
  },
  {
    "name": "games_won_week",
    "defaultvalue": 0,
    "displayName": "Games won past week"
  },
  {
    "name": "games_lost_alltime",
    "defaultvalue": 0,
    "displayName": "Games lost all time"
  },
  {
    "name": "games_lost_week",
    "defaultvalue": 0,
    "displayName": "Games lost last week"
  },
  {
    "name": "games_played_alltime",
    "defaultvalue": 0,
    "displayName": "Games played all time"
  },
  {
    "name": "games_played_week",
    "defaultvalue": 0,
    "displayName": "Games played last week"
  },
  {
    "name": "bots_killed_alltime",
    "defaultvalue": 0,
    "displayName": "Bots killed all time"
  },
  {
    "name": "bots_killed_week",
    "defaultvalue": 0,
    "displayName": "Bots killed last week"
  },
  {
    "name": "xp_gained_alltime",
    "defaultvalue": 0,
    "displayName": "Experience gained all time"
  },
  {
    "name": "xp_gained_week",
    "defaultvalue": 0,
    "displayName": "Experience gained week"
  },
  {
    "name": "data_gained_alltime",
    "defaultvalue": 0,
    "displayName": "Data gained all time"
  },
  {
    "name": "data_gained_week",
    "defaultvalue": 0,
    "displayName": "Data gained week"
  },
  {
    "name": "deaths_blackhole_alltime",
    "defaultvalue": 0,
    "displayName": "Deaths blackhole all time"
  },
  {
    "name": "deaths_blackhole_week",
    "defaultvalue": 0,
    "displayName": "Deaths blackhole week"
  },
  {
    "name": "deaths_heat_alltime",
    "defaultvalue": 0,
    "displayName": "Deaths heat all time"
  },
  {
    "name": "deaths_heat_week",
    "defaultvalue": 0,
    "displayName": "Deaths heat week"
  },
  {
    "name": "deaths_collission_alltime",
    "defaultvalue": 0,
    "displayName": "Deaths collission all time"
  },
  {
    "name": "deaths_collission_week",
    "defaultvalue": 0,
    "displayName": "Deaths collission week"
  },
  {
    "name": "deaths_suicide_alltime",
    "defaultvalue": 0,
    "displayName": "Suicides all time"
  },
  {
    "name": "deaths_suicide_week",
    "defaultvalue": 0,
    "displayName": "Suicides week"
  },
  {
    "name": "kill_death_ratio_alltime",
    "defaultvalue": 0,
    "displayName": "Kill Death Ratio all time"
  },
  {
    "name": "kill_death_ratio_week",
    "defaultvalue": 0,
    "displayName": "Kill Death Ratio week"
  },
  {
    "name": "tdm_won_alltime",
    "defaultvalue": 0,
    "displayName": "Team Deathmatch games won all time"
  },
  {
    "name": "tdm_won_week",
    "defaultvalue": 0,
    "displayName": "Team Deathmatch games won week"
  },
  {
    "name": "tdm_lost_alltime",
    "defaultvalue": 0,
    "displayName": "Team Deathmatch games lost all time"
  },
  {
    "name": "tdm_lost_week",
    "defaultvalue": 0,
    "displayName": "Team Deathmatch games lost week"
  },
  {
    "name": "cth_won_alltime",
    "defaultvalue": 0,
    "displayName": "Capture the Hyperdrive games won all time"
  },
  {
    "name": "cth_won_week",
    "defaultvalue": 0,
    "displayName": "Capture the Hyperdrive games won week"
  },
  {
    "name": "cth_lost_alltime",
    "defaultvalue": 0,
    "displayName": "Capture the Hyperdrive games lost all time"
  },
  {
    "name": "cth_lost_week",
    "defaultvalue": 0,
    "displayName": "Capture the Hyperdrive games lost week"
  },
  {
    "name": "ffa_win_alltime",
    "defaultvalue": 0,
    "displayName": "Free for All games won all time"
  },
  {
    "name": "ffa_win_week",
    "defaultvalue": 0,
    "displayName": "Free for All games won week"
  },
  {
    "name": "ffa_lost_alltime",
    "defaultvalue": 0,
    "displayName": "Free for All games lost all time"
  },
  {
    "name": "ffa_lost_week",
    "defaultvalue": 0,
    "displayName": "Free for All games lost week"
  },
  {
    "name": "bestscore_ffa_alltime",
    "defaultvalue": 0,
    "displayName": "Best Free for All score all time"
  },
  {
    "name": "bestscore_ffa_week",
    "defaultvalue": 0,
    "displayName": "Best Free for All score week"
  },
  {
    "name": "bestscore_tdm_alltime",
    "defaultvalue": 0,
    "displayName": "Best Team Deathmatch score all time"
  },
  {
    "name": "bestscore_tdm_week",
    "defaultvalue": 0,
    "displayName": "Best Team Deathmatch score week"
  },
  {
    "name": "bestscore_cth_alltime",
    "defaultvalue": 0,
    "displayName": "Best Capture the Hyperdrive score all time"
  },
  {
    "name": "bestscore_cth_week",
    "defaultvalue": 0,
    "displayName": "Best Capture the Hyperdrive score week"
  },
  {
    "name": "kills_laser_alltime",
    "defaultvalue": 0,
    "displayName": "Kills with laser all time"
  },
  {
    "name": "kills_laser_week",
    "defaultvalue": 0,
    "displayName": "Kills with laser week"
  },
  {
    "name": "kills_laser_plus_alltime",
    "defaultvalue": 0,
    "displayName": "Kills Laser Plus all time"
  },
  {
    "name": "kills_laser_plus_week",
    "defaultvalue": 0,
    "displayName": "Kills Laser Plus week"
  },
  {
    "name": "kills_minigun_alltime",
    "defaultvalue": 0,
    "displayName": "Kills Minigun all time"
  },
  {
    "name": "kills_minigun_week",
    "defaultvalue": 0,
    "displayName": "Kills Minigun week"
  },
  {
    "name": "kills_minigun_plus_alltime",
    "defaultvalue": 0,
    "displayName": "Kills Minigun Plus all time"
  },
  {
    "name": "kills_minigun_plus_week",
    "defaultvalue": 0,
    "displayName": "Kills Minigun Plus week"
  },
  {
    "name": "kills_railgun_alltime",
    "defaultvalue": 0,
    "displayName": "Kills Railgun all time"
  },
  {
    "name": "kills_railgun_week",
    "defaultvalue": 0,
    "displayName": "Kills Railgun week"
  },
  {
    "name": "kills_rocket_1_alltime",
    "defaultvalue": 0,
    "displayName": "Kills Rocket all time"
  },
  {
    "name": "kills_rocket_1_week",
    "defaultvalue": 0,
    "displayName": "Kills Rocket week"
  },
  {
    "name": "kills_rocket_2_alltime",
    "defaultvalue": 0,
    "displayName": "Kills Rocket Plus all time"
  },
  {
    "name": "kills_rocket_2_week",
    "defaultvalue": 0,
    "displayName": "Kills Rocket Plus week"
  },
  {
    "name": "kills_thunderbolt_alltime",
    "defaultvalue": 0,
    "displayName": "Kills Thunderboltgun all time"
  },
  {
    "name": "kills_thunderbolt_week",
    "defaultvalue": 0,
    "displayName": "Kills Thunderboltgun week"
  },
  {
    "name": "kills_tank_alltime",
    "defaultvalue": 0,
    "displayName": "Kills Tank all time"
  },
  {
    "name": "kills_tank_week",
    "defaultvalue": 0,
    "displayName": "Kills Tank week"
  },
  {
    "name": "kills_support_alltime",
    "defaultvalue": 0,
    "displayName": "Kills support all time"
  },
  {
    "name": "kills_support_week",
    "defaultvalue": 0,
    "displayName": "Kills support week"
  },
  {
    "name": "kills_stealth_alltime",
    "defaultvalue": 0,
    "displayName": "Kills stealth all time"
  },
  {
    "name": "kills_stealth_week",
    "defaultvalue": 0,
    "displayName": "Kills stealth week"
  },
  {
    "name": "kills_fighter_alltime",
    "defaultvalue": 0,
    "displayName": "Kills fighter all time"
  },
  {
    "name": "kills_fighter_week",
    "defaultvalue": 0,
    "displayName": "Kills fighter week"
  },
  {
    "name": "kills_highspeed_alltime",
    "defaultvalue": 0,
    "displayName": "Kills highspeed all time"
  },
  {
    "name": "kills_highspeed_week",
    "defaultvalue": 0,
    "displayName": "Kills highspeed week"
  },
  {
    "name": "deaths_tank_alltime",
    "defaultvalue": 0,
    "displayName": "Deaths tank all time"
  },
  {
    "name": "deaths_tank_week",
    "defaultvalue": 0,
    "displayName": "Deaths tank week"
  },
  {
    "name": "deaths_support_alltime",
    "defaultvalue": 0,
    "displayName": "Deaths support all time"
  },
  {
    "name": "deaths_support_week",
    "defaultvalue": 0,
    "displayName": "Deaths support week"
  },
  {
    "name": "deaths_stealth_alltime",
    "defaultvalue": 0,
    "displayName": "Deaths stealth all time"
  },
  {
    "name": "deaths_stealth_week",
    "defaultvalue": 0,
    "displayName": "Deaths stealth week"
  },
  {
    "name": "deaths_fighter_alltime",
    "defaultvalue": 0,
    "displayName": "Deaths fighter all time"
  },
  {
    "name": "deaths_fighter_week",
    "defaultvalue": 0,
    "displayName": "Deaths fighter week"
  },
  {
    "name": "deaths_highspeed_alltime",
    "defaultvalue": 0,
    "displayName": "Deaths highspeed all time"
  },
  {
    "name": "deaths_highspeed_week",
    "defaultvalue": 0,
    "displayName": "Deaths highspeed week"
  },
  {
    "name": "assists_tank_alltime",
    "defaultvalue": 0,
    "displayName": "Assists tank all time"
  },
  {
    "name": "assists_tank_week",
    "defaultvalue": 0,
    "displayName": "Assists tank week"
  },
  {
    "name": "assists_support_alltime",
    "defaultvalue": 0,
    "displayName": "Assists support all time"
  },
  {
    "name": "assists_support_week",
    "defaultvalue": 0,
    "displayName": "Assists support week"
  },
  {
    "name": "assists_stealth_alltime",
    "defaultvalue": 0,
    "displayName": "Assists stealth all time"
  },
  {
    "name": "assists_stealth_week",
    "defaultvalue": 0,
    "displayName": "Assists stealth week"
  },
  {
    "name": "assists_fighter_alltime",
    "defaultvalue": 0,
    "displayName": "Assists fighter all time"
  },
  {
    "name": "assists_fighter_week",
    "defaultvalue": 0,
    "displayName": "Assists fighter week"
  },
  {
    "name": "assists_highspeed_alltime",
    "defaultvalue": 0,
    "displayName": "Assists highspeed all time"
  },
  {
    "name": "assists_highspeed_week",
    "defaultvalue": 0,
    "displayName": "Assists highspeed week"
  },
  {
    "name": "played_mothership_alltime",
    "defaultvalue": 0,
    "displayName": "Played Mothership all time"
  },
  {
    "name": "played_mothership_week",
    "defaultvalue": 0,
    "displayName": "Played Mothership week"
  },
  {
    "name": "played_satalite_alltime",
    "defaultvalue": 0,
    "displayName": "Played satalite all time"
  },
  {
    "name": "played_satalite_week",
    "defaultvalue": 0,
    "displayName": "Played satalite week"
  },
  {
    "name": "played_energystation_alltime",
    "defaultvalue": 0,
    "displayName": "Played energystation all time"
  },
  {
    "name": "played_energystation_week",
    "defaultvalue": 0,
    "displayName": "Played energystation week"
  },
  {
    "name": "played_dyingstar_alltime",
    "defaultvalue": 0,
    "displayName": "Played dying star all time"
  },
  {
    "name": "played_dyingstar_week",
    "defaultvalue": 0,
    "displayName": "Played dying star week"
  },
  {
    "name": "played_drainage_alltime",
    "defaultvalue": 0,
    "displayName": "Played drainage all time"
  },
  {
    "name": "played_drainage_week",
    "defaultvalue": 0,
    "displayName": "Played drainage week"
  },
  {
    "name": "played_pillars_alltime",
    "defaultvalue": 0,
    "displayName": "Played pillars all time"
  },
  {
    "name": "played_pillars_week",
    "defaultvalue": 0,
    "displayName": "Played pillars week"
  },
  {
    "name": "played_graveyard_alltime",
    "defaultvalue": 0,
    "displayName": "Played graveyard all time"
  },
  {
    "name": "played_graveyard_week",
    "defaultvalue": 0,
    "displayName": "Played graveyard week"
  }
]