﻿{
  "Dlcs": {},
  "Name": "Cannon Fodder 3",
  "AppId": "209750",
  "ImageUrl": "https://steamcdn-a.akamaihd.net/steam/apps/209750/header.jpg?t=1572587502",
  "Languages": [
    "english"
  ],
  "Platforms": {
    "windows": true,
    "mac": false,
    "linux": false
  }
}