﻿[
  {
    "name": "knight_xp",
    "defaultvalue": 0,
    "displayName": "Knight XP"
  },
  {
    "name": "worlds_created",
    "defaultvalue": 0,
    "displayName": "Worlds Created"
  },
  {
    "name": "games_shared",
    "defaultvalue": 0,
    "displayName": "Games Shared"
  },
  {
    "name": "enemies_killed",
    "defaultvalue": 0,
    "displayName": "Enemies Killed"
  },
  {
    "name": "items_placed",
    "defaultvalue": 0,
    "displayName": "Items Placed"
  },
  {
    "name": "looted",
    "defaultvalue": 0,
    "displayName": ""
  },
  {
    "name": "xp0",
    "defaultvalue": 0,
    "displayName": "xp0"
  },
  {
    "name": "xp1",
    "defaultvalue": 0,
    "displayName": "xp1"
  },
  {
    "name": "xp2",
    "defaultvalue": 0,
    "displayName": "xp2"
  },
  {
    "name": "xp3",
    "defaultvalue": 0,
    "displayName": "xp3"
  },
  {
    "name": "xp4",
    "defaultvalue": 0,
    "displayName": "xp4"
  },
  {
    "name": "hasUsedXPUpgrade",
    "defaultvalue": 0,
    "displayName": "upgradeXP"
  },
  {
    "name": "xp5",
    "defaultvalue": 0,
    "displayName": "xp5"
  }
]