﻿[
  {
    "name": "TROPHY_1",
    "defaultvalue": 0,
    "displayName": "Legendary catch",
    "hidden": 0,
    "description": "Catch any legendary fish",
    "icon": "https://steamcdn-a.akamaihd.net/steamcommunity/public/images/apps/522230/cb22c36c62102ff09c63ba0114c1cd837eed37f6.jpg",
    "icongray": "https://steamcdn-a.akamaihd.net/steamcommunity/public/images/apps/522230/6406f3368e6d2778d7d3b9b96aecd5f2a2fd5b2a.jpg"
  },
  {
    "name": "TROPHY_2",
    "defaultvalue": 0,
    "displayName": "Giant catch",
    "hidden": 0,
    "description": "Catch any giant fish",
    "icon": "https://steamcdn-a.akamaihd.net/steamcommunity/public/images/apps/522230/d011d91a5dde0b4c8463df3f50fcf9b4ff56edea.jpg",
    "icongray": "https://steamcdn-a.akamaihd.net/steamcommunity/public/images/apps/522230/31d3863d4b9fcbbc6a27a799f48d7f5d13b29a69.jpg"
  },
  {
    "name": "TROPHY_3",
    "defaultvalue": 0,
    "displayName": "Huge catch",
    "hidden": 0,
    "description": "Catch any huge fish",
    "icon": "https://steamcdn-a.akamaihd.net/steamcommunity/public/images/apps/522230/119294d1b02bff2034316862f5832ac708f86118.jpg",
    "icongray": "https://steamcdn-a.akamaihd.net/steamcommunity/public/images/apps/522230/95f6cd525c9bb2affd97951b18d9793e341f4f9f.jpg"
  },
  {
    "name": "TROPHY_4",
    "defaultvalue": 0,
    "displayName": "10 pounder",
    "hidden": 0,
    "description": "Catch any fish with with a weight between 5.0kg and 10.0kg",
    "icon": "https://steamcdn-a.akamaihd.net/steamcommunity/public/images/apps/522230/2e835c161e7f782df8505738c9aed04376a445bf.jpg",
    "icongray": "https://steamcdn-a.akamaihd.net/steamcommunity/public/images/apps/522230/0b81d290b399ee5b87be68bdceceaa7ab0f2497c.jpg"
  },
  {
    "name": "TROPHY_5",
    "defaultvalue": 0,
    "displayName": "20 pounder",
    "hidden": 0,
    "description": "Catch any fish with with a weight between 10.0kg and 25.0kg",
    "icon": "https://steamcdn-a.akamaihd.net/steamcommunity/public/images/apps/522230/b0993b7b92c7c0c0c6d4e3b9de583830eedccd05.jpg",
    "icongray": "https://steamcdn-a.akamaihd.net/steamcommunity/public/images/apps/522230/baeb583a95ba0d013cf347ae0670825d99ac9674.jpg"
  },
  {
    "name": "TROPHY_6",
    "defaultvalue": 0,
    "displayName": "50 pounder",
    "hidden": 0,
    "description": "Catch any fish with with a weight between 25.0kg and 50.0kg",
    "icon": "https://steamcdn-a.akamaihd.net/steamcommunity/public/images/apps/522230/86edb47efb0f6a56a5136503e7da79a393718674.jpg",
    "icongray": "https://steamcdn-a.akamaihd.net/steamcommunity/public/images/apps/522230/f4c9f05ed0c26070a0b4eb6241743d65bce16842.jpg"
  },
  {
    "name": "TROPHY_7",
    "defaultvalue": 0,
    "displayName": "Friend Buster",
    "hidden": 0,
    "description": "Reach 1st place amongst your friends in a weekly tournament (you need at least 3 friends playing the fishing club)",
    "icon": "https://steamcdn-a.akamaihd.net/steamcommunity/public/images/apps/522230/efd36baa730f5074f045f6ad2e517beed8b84200.jpg",
    "icongray": "https://steamcdn-a.akamaihd.net/steamcommunity/public/images/apps/522230/80bde1df1470ba2dac8e6b16ea6afc9cbe7f0a73.jpg"
  },
  {
    "name": "TROPHY_8",
    "defaultvalue": 0,
    "displayName": "Club Buster",
    "hidden": 0,
    "description": "Win your club's internal weekly contest (club must have at least 3 members)",
    "icon": "https://steamcdn-a.akamaihd.net/steamcommunity/public/images/apps/522230/9fa237dbffd51072edb83e1429f3bef758cf5d59.jpg",
    "icongray": "https://steamcdn-a.akamaihd.net/steamcommunity/public/images/apps/522230/dbea57424cd40fc7eace50763372569e46f0154f.jpg"
  },
  {
    "name": "TROPHY_17",
    "defaultvalue": 0,
    "displayName": "Gold Champ",
    "hidden": 0,
    "description": "Be the number one on the global weekly ranking list",
    "icon": "https://steamcdn-a.akamaihd.net/steamcommunity/public/images/apps/522230/a6a60524dc1d45c4d4221c71bd2078b68e7757c1.jpg",
    "icongray": "https://steamcdn-a.akamaihd.net/steamcommunity/public/images/apps/522230/5e493d52c68ccbebc3fe34ba49a9134b990f55bc.jpg"
  },
  {
    "name": "TROPHY_18",
    "defaultvalue": 0,
    "displayName": "Silver Champ",
    "hidden": 0,
    "description": "Be the number two on the global weekly ranking list",
    "icon": "https://steamcdn-a.akamaihd.net/steamcommunity/public/images/apps/522230/c2a7acff7cfae8d8d6ecaf2b3ee6515b3567566d.jpg",
    "icongray": "https://steamcdn-a.akamaihd.net/steamcommunity/public/images/apps/522230/07e838d82e97bb7a88376fc88439206ec82d60d7.jpg"
  },
  {
    "name": "TROPHY_19",
    "defaultvalue": 0,
    "displayName": "Bronze Champ",
    "hidden": 0,
    "description": "Be the number three on the global weekly ranking list",
    "icon": "https://steamcdn-a.akamaihd.net/steamcommunity/public/images/apps/522230/3a184cd3dbebf5fbed7ed7fd7442044c896c8da6.jpg",
    "icongray": "https://steamcdn-a.akamaihd.net/steamcommunity/public/images/apps/522230/3bd0757371a701cbff6c07af92e3fcf50141dc98.jpg"
  },
  {
    "name": "TROPHY_20",
    "defaultvalue": 0,
    "displayName": "Legendary catch: Black Pike",
    "hidden": 0,
    "description": "Catch the legendary black pike",
    "icon": "https://steamcdn-a.akamaihd.net/steamcommunity/public/images/apps/522230/a70d9af650ea2f6da229e13aa63cbccdafac2020.jpg",
    "icongray": "https://steamcdn-a.akamaihd.net/steamcommunity/public/images/apps/522230/598a3817abb568df6c63b42208249dce2b60bcf3.jpg"
  },
  {
    "name": "TROPHY_21",
    "defaultvalue": 0,
    "displayName": "Legendary catch: Moby Dick",
    "hidden": 0,
    "description": "Catch the legendary white bream \"moby dick\"",
    "icon": "https://steamcdn-a.akamaihd.net/steamcommunity/public/images/apps/522230/3f21ecdece4ae8baf32139d4213330b108ce3fe7.jpg",
    "icongray": "https://steamcdn-a.akamaihd.net/steamcommunity/public/images/apps/522230/bf98233db3bb88a789e1e1987d60fbd64602f81d.jpg"
  },
  {
    "name": "TROPHY_22",
    "defaultvalue": 0,
    "displayName": "Legendary catch: Jack the Ripper",
    "hidden": 0,
    "description": "Catch the legendary zander \"jack the ripper\"",
    "icon": "https://steamcdn-a.akamaihd.net/steamcommunity/public/images/apps/522230/5fe0f004e78b5faa5080af4a0fbc13ab90b312e9.jpg",
    "icongray": "https://steamcdn-a.akamaihd.net/steamcommunity/public/images/apps/522230/7e1b7ebc50bde8d604a96c98e7c9b887f9fc51e5.jpg"
  },
  {
    "name": "TROPHY_23",
    "defaultvalue": 0,
    "displayName": "Speed Fishing Contest Winner",
    "hidden": 0,
    "description": "Win any speed fishing contest",
    "icon": "https://steamcdn-a.akamaihd.net/steamcommunity/public/images/apps/522230/6419735b24a40085b819e937d9882276eb1925f0.jpg",
    "icongray": "https://steamcdn-a.akamaihd.net/steamcommunity/public/images/apps/522230/32ce0b9814d8e2f5900f16176ee1af6a5d4b2e91.jpg"
  },
  {
    "name": "TROPHY_24",
    "defaultvalue": 0,
    "displayName": "Speed Fishing Contest, 2nd place",
    "hidden": 0,
    "description": "Reach the second place in any speed fishing contest",
    "icon": "https://steamcdn-a.akamaihd.net/steamcommunity/public/images/apps/522230/99acb4903a8814217ca111d5650173a6a71562cb.jpg",
    "icongray": "https://steamcdn-a.akamaihd.net/steamcommunity/public/images/apps/522230/18a7bb0548ac1b862da436d05cc6520475aaffbb.jpg"
  },
  {
    "name": "TROPHY_25",
    "defaultvalue": 0,
    "displayName": "Speed Fishing Contest, 3rd place",
    "hidden": 0,
    "description": "Reach the third place in any speed fishing contest",
    "icon": "https://steamcdn-a.akamaihd.net/steamcommunity/public/images/apps/522230/dc0dd8bdc766272d8b1a73da8e8675f5e2b6a6dd.jpg",
    "icongray": "https://steamcdn-a.akamaihd.net/steamcommunity/public/images/apps/522230/f9a2e480d8613740e5a8f6f038182edaabf4e340.jpg"
  },
  {
    "name": "TROPHY_26",
    "defaultvalue": 0,
    "displayName": "Legendary catch: Golden Nase",
    "hidden": 0,
    "description": "Catch the legendary golden nase",
    "icon": "https://steamcdn-a.akamaihd.net/steamcommunity/public/images/apps/522230/7018a4cc789a7f01a379c3b47cc16976c487aaeb.jpg",
    "icongray": "https://steamcdn-a.akamaihd.net/steamcommunity/public/images/apps/522230/a2b9aaaea4553b3a983407e7e92baeec64ba9440.jpg"
  },
  {
    "name": "TROPHY_27",
    "defaultvalue": 0,
    "displayName": "Legendary catch: Tiger Trout",
    "hidden": 0,
    "description": "Catch the legendary tiger trout",
    "icon": "https://steamcdn-a.akamaihd.net/steamcommunity/public/images/apps/522230/72b9aa25f43bdf3e2f530542370ff0bd02153a74.jpg",
    "icongray": "https://steamcdn-a.akamaihd.net/steamcommunity/public/images/apps/522230/61d12ecf52cbc976597ac216ef38b51bbb3792c0.jpg"
  },
  {
    "name": "TROPHY_28",
    "defaultvalue": 0,
    "displayName": "Legendary catch: Gorgemaw",
    "hidden": 0,
    "description": "Catch the legendary gorgemaw shark",
    "icon": "https://steamcdn-a.akamaihd.net/steamcommunity/public/images/apps/522230/4fa66d43374ff3f8a64f4ade9d3e076aa17e831a.jpg",
    "icongray": "https://steamcdn-a.akamaihd.net/steamcommunity/public/images/apps/522230/9279d1b7465d0f20378ee19b3c6132af97fa4d7b.jpg"
  },
  {
    "name": "TROPHY_29",
    "defaultvalue": 0,
    "displayName": "Legendary catch: Kermit the Permit",
    "hidden": 0,
    "description": "Catch the legendary kermit the permit",
    "icon": "https://steamcdn-a.akamaihd.net/steamcommunity/public/images/apps/522230/4707ae88feea94adfe5ed42423ea46f11e09d9aa.jpg",
    "icongray": "https://steamcdn-a.akamaihd.net/steamcommunity/public/images/apps/522230/a2aa328c69564f9e4259f8e28100067a419e97d2.jpg"
  },
  {
    "name": "TROPHY_30",
    "defaultvalue": 0,
    "displayName": "Legendary catch: Blue-Eye",
    "hidden": 0,
    "description": "Catch the legendary walleye blue-eye",
    "icon": "https://steamcdn-a.akamaihd.net/steamcommunity/public/images/apps/522230/163c6f226a9098612c506b6a0a4d2d293f412da8.jpg",
    "icongray": "https://steamcdn-a.akamaihd.net/steamcommunity/public/images/apps/522230/bb4bcffbd2eb6226115386b2680f8c2491fee947.jpg"
  },
  {
    "name": "TROPHY_31",
    "defaultvalue": 0,
    "displayName": "Legendary catch: T-1000",
    "hidden": 0,
    "description": "Catch the legendary steelhead t-1000",
    "icon": "https://steamcdn-a.akamaihd.net/steamcommunity/public/images/apps/522230/c914817a671eead558ef9335470e3d7853d0ded7.jpg",
    "icongray": "https://steamcdn-a.akamaihd.net/steamcommunity/public/images/apps/522230/b7332fc67deaec9cdc06fd11f74e701d4282bff8.jpg"
  },
  {
    "name": "TROPHY_32",
    "defaultvalue": 0,
    "displayName": "Bloodfish Elephant Catcher",
    "hidden": 0,
    "description": "Catch this legendary member of the bloodfish gang!",
    "icon": "https://steamcdn-a.akamaihd.net/steamcommunity/public/images/apps/522230/b5efd3ae61ad82884eb8807816940b27ab7a0554.jpg",
    "icongray": "https://steamcdn-a.akamaihd.net/steamcommunity/public/images/apps/522230/8873a94bd46f19e2d4d636228f8a876884688b2d.jpg"
  },
  {
    "name": "TROPHY_33",
    "defaultvalue": 0,
    "displayName": "Bloodfish Arowana Catcher",
    "hidden": 0,
    "description": "Catch this legendary member of the bloodfish gang!",
    "icon": "https://steamcdn-a.akamaihd.net/steamcommunity/public/images/apps/522230/2b7f38f4a6c6feffaaa2e25b9b8a2be95654aefc.jpg",
    "icongray": "https://steamcdn-a.akamaihd.net/steamcommunity/public/images/apps/522230/2b213d8e942d3fc03023cf14ab483652edf13090.jpg"
  },
  {
    "name": "TROPHY_34",
    "defaultvalue": 0,
    "displayName": "Bloodfish Tigerfish Catcher",
    "hidden": 0,
    "description": "Catch this legendary member of the bloodfish gang!",
    "icon": "https://steamcdn-a.akamaihd.net/steamcommunity/public/images/apps/522230/7aa56e3c89794bdb33380ffee1b455c448e10978.jpg",
    "icongray": "https://steamcdn-a.akamaihd.net/steamcommunity/public/images/apps/522230/563a285689137f149d1ec9b9594d81508ba294ba.jpg"
  },
  {
    "name": "TROPHY_35",
    "defaultvalue": 0,
    "displayName": "Bloodfish Kamba Catcher",
    "hidden": 0,
    "description": "Catch this legendary member of the bloodfish gang!",
    "icon": "https://steamcdn-a.akamaihd.net/steamcommunity/public/images/apps/522230/bff15d07de7b672b4d59ffe1086a1e6881c5a547.jpg",
    "icongray": "https://steamcdn-a.akamaihd.net/steamcommunity/public/images/apps/522230/2f92674400899d6854f841157a639fac4db66df4.jpg"
  },
  {
    "name": "TROPHY_36",
    "defaultvalue": 0,
    "displayName": "The Guardian",
    "hidden": 0,
    "description": "Catch the legendary Guardian!",
    "icon": "https://steamcdn-a.akamaihd.net/steamcommunity/public/images/apps/522230/0b9690d0525fd84af2b04b4c86eb7ac30d0fca44.jpg",
    "icongray": "https://steamcdn-a.akamaihd.net/steamcommunity/public/images/apps/522230/2347deb9e622aa38dac6d2bf8db049214eeabad8.jpg"
  },
  {
    "name": "TROPHY_9",
    "defaultvalue": 0,
    "displayName": "Promising Angler",
    "hidden": 0,
    "description": "Catch 100 fish of any type",
    "icon": "https://steamcdn-a.akamaihd.net/steamcommunity/public/images/apps/522230/acc3dd785d0e5482acd443044996e298c349e1ef.jpg",
    "icongray": "https://steamcdn-a.akamaihd.net/steamcommunity/public/images/apps/522230/26102d733bfebe11f8a5ef9734552d309b0f4b5b.jpg"
  },
  {
    "name": "TROPHY_10",
    "defaultvalue": 0,
    "displayName": "Skilled Angler",
    "hidden": 0,
    "description": "Catch 1,000 fish of any type",
    "icon": "https://steamcdn-a.akamaihd.net/steamcommunity/public/images/apps/522230/231cf54c02ae47debadfeaf7f7cf38cb7f4ca4dd.jpg",
    "icongray": "https://steamcdn-a.akamaihd.net/steamcommunity/public/images/apps/522230/32110a8f79e69e6ff8edd97a18fd19d2fe52981a.jpg"
  },
  {
    "name": "TROPHY_11",
    "defaultvalue": 0,
    "displayName": "Pro Angler",
    "hidden": 0,
    "description": "Catch 10,000 fish of any type",
    "icon": "https://steamcdn-a.akamaihd.net/steamcommunity/public/images/apps/522230/fbb83bf21c21a79a40ccce139821cbc5ffe7d261.jpg",
    "icongray": "https://steamcdn-a.akamaihd.net/steamcommunity/public/images/apps/522230/f6d2a58faea0b80679a3304838395403a7c6f4ba.jpg"
  },
  {
    "name": "TROPHY_12",
    "defaultvalue": 0,
    "displayName": "King Angler",
    "hidden": 0,
    "description": "Catch 100,000 fish of any type",
    "icon": "https://steamcdn-a.akamaihd.net/steamcommunity/public/images/apps/522230/84617d980352f217eb55f95672ebebbba3b315d6.jpg",
    "icongray": "https://steamcdn-a.akamaihd.net/steamcommunity/public/images/apps/522230/a542795d6575a38aa7b1101179a2a17ab9989d91.jpg"
  },
  {
    "name": "TROPHY_13",
    "defaultvalue": 0,
    "displayName": "Fish Millionaire",
    "hidden": 0,
    "description": "Catch 1,000,000 fish of any kind",
    "icon": "https://steamcdn-a.akamaihd.net/steamcommunity/public/images/apps/522230/a95defd1e482b8103c5005f4983f8362f24646a0.jpg",
    "icongray": "https://steamcdn-a.akamaihd.net/steamcommunity/public/images/apps/522230/985dc9e9d5f1bd1b36e37875b910ae82a653f32f.jpg"
  },
  {
    "name": "TROPHY_14",
    "defaultvalue": 0,
    "displayName": "Insider",
    "hidden": 0,
    "description": "Catch 100 legendary fish",
    "icon": "https://steamcdn-a.akamaihd.net/steamcommunity/public/images/apps/522230/df57fac53c9a57398ae55707452c849f94cd81f2.jpg",
    "icongray": "https://steamcdn-a.akamaihd.net/steamcommunity/public/images/apps/522230/90994c826286f55ff765a62d51c5512d1da24006.jpg"
  },
  {
    "name": "TROPHY_15",
    "defaultvalue": 0,
    "displayName": "Dealmaker",
    "hidden": 0,
    "description": "Close 100 deals",
    "icon": "https://steamcdn-a.akamaihd.net/steamcommunity/public/images/apps/522230/2709d0de3ee816aa299c14f5d5b48ee8b42ad55c.jpg",
    "icongray": "https://steamcdn-a.akamaihd.net/steamcommunity/public/images/apps/522230/5ef18eaaff479317496a4deb3b583ee46d7eaba7.jpg"
  },
  {
    "name": "TROPHY_16",
    "defaultvalue": 0,
    "displayName": "Deal Guru",
    "hidden": 0,
    "description": "Close 1,000 deals",
    "icon": "https://steamcdn-a.akamaihd.net/steamcommunity/public/images/apps/522230/44a428063ead5f175e9813225bd50a8c5e75c073.jpg",
    "icongray": "https://steamcdn-a.akamaihd.net/steamcommunity/public/images/apps/522230/b5d105d8ce5523ef4d8689540b6b7bb8ba730937.jpg"
  },
  {
    "name": "TROPHY_37",
    "defaultvalue": 0,
    "displayName": "Weekly Winner",
    "hidden": 1,
    "icon": "https://steamcdn-a.akamaihd.net/steamcommunity/public/images/apps/522230/e98e60464874b986f3b34aa60d6f0bccfa1dd057.jpg",
    "icongray": "https://steamcdn-a.akamaihd.net/steamcommunity/public/images/apps/522230/d1916d52f9aa7ea6a9d63dc488c08131c4c621d8.jpg"
  },
  {
    "name": "TROPHY_38",
    "defaultvalue": 0,
    "displayName": "Jagjaw catcher",
    "hidden": 0,
    "description": "Catch the legendary Jagjaw great white shark",
    "icon": "https://steamcdn-a.akamaihd.net/steamcommunity/public/images/apps/522230/21ba9de4e72ee2dd9680a17f17ae723acb32f8c2.jpg",
    "icongray": "https://steamcdn-a.akamaihd.net/steamcommunity/public/images/apps/522230/b4faeb16eda21f003e7e562e655bbdfe8b99a7fd.jpg"
  },
  {
    "name": "TROPHY_39",
    "defaultvalue": 0,
    "displayName": "Sharky McSharkface catcher",
    "hidden": 0,
    "description": "Catch the legendary Sharky McSharkface blue shark",
    "icon": "https://steamcdn-a.akamaihd.net/steamcommunity/public/images/apps/522230/38db9e4a04a296f5d62285659844dd01b980ad20.jpg",
    "icongray": "https://steamcdn-a.akamaihd.net/steamcommunity/public/images/apps/522230/3ac12945d919f9302665d9b7ad855ece91cd9c1f.jpg"
  },
  {
    "name": "TROPHY_40",
    "defaultvalue": 0,
    "displayName": "The Ninja catcher",
    "hidden": 0,
    "description": "Catch the legendary Ninja black marlin",
    "icon": "https://steamcdn-a.akamaihd.net/steamcommunity/public/images/apps/522230/a7599806ab48f2643346c374e5d0bd718d44c86e.jpg",
    "icongray": "https://steamcdn-a.akamaihd.net/steamcommunity/public/images/apps/522230/f6074336ab273d5abe1af0e2ad52798edcf9969b.jpg"
  },
  {
    "name": "TROPHY_41",
    "defaultvalue": 0,
    "displayName": "Barcode catcher",
    "hidden": 0,
    "description": "Catch the legendary Barcode bar cod",
    "icon": "https://steamcdn-a.akamaihd.net/steamcommunity/public/images/apps/522230/60a85ec00862ff2c5b5bb2cd774751184e98ccbd.jpg",
    "icongray": "https://steamcdn-a.akamaihd.net/steamcommunity/public/images/apps/522230/eab326c5f7a81097710b16f0bf8df69965430899.jpg"
  },
  {
    "name": "TROPHY_42",
    "defaultvalue": 0,
    "displayName": "Googly eyes catcher",
    "hidden": 0,
    "description": "Catch the legendary Googly eyes Big-eye tuna",
    "icon": "https://steamcdn-a.akamaihd.net/steamcommunity/public/images/apps/522230/0c9e04c63c420f37e0e186b67a595e88e7916de9.jpg",
    "icongray": "https://steamcdn-a.akamaihd.net/steamcommunity/public/images/apps/522230/e7b9e03638734239ea0ac43ad46a656d99bf4ff8.jpg"
  },
  {
    "name": "TROPHY_43",
    "defaultvalue": 0,
    "displayName": "Muddy Waters catcher",
    "hidden": 0,
    "description": "Catch the legendary mirror carp Muddy Waters",
    "icon": "https://steamcdn-a.akamaihd.net/steamcommunity/public/images/apps/522230/1832feca8a0ce7d6c21f669ccf879e6eef52ab18.jpg",
    "icongray": "https://steamcdn-a.akamaihd.net/steamcommunity/public/images/apps/522230/a29aafd4b97cb373c97c611b0499217db32c95e2.jpg"
  },
  {
    "name": "TROPHY_44",
    "defaultvalue": 0,
    "displayName": "Deadringer catcher",
    "hidden": 0,
    "description": "Catch the legendary Mahi-Mahi Deadringer",
    "icon": "https://steamcdn-a.akamaihd.net/steamcommunity/public/images/apps/522230/4cc0f4b0f4885324ceb285cd2d03b2abcfb7f985.jpg",
    "icongray": "https://steamcdn-a.akamaihd.net/steamcommunity/public/images/apps/522230/024b674095af5b6f38c045c0ad8c374e5eeb4c83.jpg"
  },
  {
    "name": "TROPHY_45",
    "defaultvalue": 0,
    "displayName": "Grey Wolf catcher",
    "hidden": 0,
    "description": "Catch the legendary northern pike Grey Wolf",
    "icon": "https://steamcdn-a.akamaihd.net/steamcommunity/public/images/apps/522230/23e30dd3079f7627c084296b68b6506ce7106020.jpg",
    "icongray": "https://steamcdn-a.akamaihd.net/steamcommunity/public/images/apps/522230/33e7097a5a377eee1782f2b2b9e0cc868a176a0a.jpg"
  },
  {
    "name": "TROPHY_46",
    "defaultvalue": 0,
    "displayName": "Simba catcher",
    "hidden": 0,
    "description": "Catch the legendary lionhead Simba",
    "icon": "https://steamcdn-a.akamaihd.net/steamcommunity/public/images/apps/522230/d020158c5c496abd14995f611ce843b46e954933.jpg",
    "icongray": "https://steamcdn-a.akamaihd.net/steamcommunity/public/images/apps/522230/031f8d2f7cf6746931c41893665953c5487129cc.jpg"
  },
  {
    "name": "TROPHY_47",
    "defaultvalue": 0,
    "displayName": "Sparky catcher",
    "hidden": 0,
    "description": "Catch the legendary bluefish Sparky",
    "icon": "https://steamcdn-a.akamaihd.net/steamcommunity/public/images/apps/522230/1480ed19857f14a01adc4ece0d4bb30bb891ca4d.jpg",
    "icongray": "https://steamcdn-a.akamaihd.net/steamcommunity/public/images/apps/522230/75fb5047b0908fa0ab7c6475e5a167014e3c0149.jpg"
  }
]