﻿{
  "Dlcs": {},
  "Name": "Spunk and Moxie",
  "AppId": "449310",
  "ImageUrl": "https://steamcdn-a.akamaihd.net/steam/apps/449310/header.jpg?t=1496167470",
  "Languages": [
    "english"
  ],
  "Platforms": {
    "windows": true,
    "mac": false,
    "linux": false
  }
}