﻿[
  {
    "name": "1wins_for_warrior",
    "defaultvalue": 0,
    "displayName": "First win for Warrior",
    "hidden": 0,
    "description": "Win 1 ranked game for Warrior",
    "icon": "https://steamcdn-a.akamaihd.net/steamcommunity/public/images/apps/685420/dbd72feb4c3c7379081d3ea5d8b81023883224a4.jpg",
    "icongray": "https://steamcdn-a.akamaihd.net/steamcommunity/public/images/apps/685420/17fe6636d8b0d57cfa78a852daea20ef3666e2cd.jpg"
  },
  {
    "name": "10wins_for_warrior",
    "defaultvalue": 0,
    "displayName": "10 wins for Warrior",
    "hidden": 0,
    "description": "Win 10 ranked games for Warrior",
    "icon": "https://steamcdn-a.akamaihd.net/steamcommunity/public/images/apps/685420/80e1f9639f04d59562f0ff4654c16fde90fa63c8.jpg",
    "icongray": "https://steamcdn-a.akamaihd.net/steamcommunity/public/images/apps/685420/baa46742ec3c32d98e5d38427d136566f86ef7be.jpg"
  },
  {
    "name": "100wins_for_warrior",
    "defaultvalue": 0,
    "displayName": "100 wins for Warrior",
    "hidden": 0,
    "description": "Win 100 ranked games for Warrior",
    "icon": "https://steamcdn-a.akamaihd.net/steamcommunity/public/images/apps/685420/fdef9199c43d48cd05ce07ffcf9887c34b2ae2ff.jpg",
    "icongray": "https://steamcdn-a.akamaihd.net/steamcommunity/public/images/apps/685420/18cf8f113bcbda5346217acb20c69f2ed0d919bc.jpg"
  },
  {
    "name": "1000wins_for_warrior",
    "defaultvalue": 0,
    "displayName": "1000 wins for Warrior",
    "hidden": 0,
    "description": "Win 1000 ranked games for Warrior",
    "icon": "https://steamcdn-a.akamaihd.net/steamcommunity/public/images/apps/685420/7543fc0e72fc3247b1dce03a58a6502d6df05d53.jpg",
    "icongray": "https://steamcdn-a.akamaihd.net/steamcommunity/public/images/apps/685420/496fd487d29a1d6719e06f10bd6be5f72ebba6de.jpg"
  },
  {
    "name": "10000wins_for_warrior",
    "defaultvalue": 0,
    "displayName": "10000 wins for Warrior",
    "hidden": 0,
    "description": "Win 10000 ranked games for Warrior",
    "icon": "https://steamcdn-a.akamaihd.net/steamcommunity/public/images/apps/685420/bc26b97290f52ae35937afc9b1cb5cf38bacfe84.jpg",
    "icongray": "https://steamcdn-a.akamaihd.net/steamcommunity/public/images/apps/685420/73aebb438200fd3baf3dff11c545eaefd5dbf872.jpg"
  },
  {
    "name": "1wins_for_hunter",
    "defaultvalue": 0,
    "displayName": "First win for Hunter",
    "hidden": 0,
    "description": "Win 1 ranked game for Hunter",
    "icon": "https://steamcdn-a.akamaihd.net/steamcommunity/public/images/apps/685420/7564d4a2078bf0d7350454024e3137e2a42d7c84.jpg",
    "icongray": "https://steamcdn-a.akamaihd.net/steamcommunity/public/images/apps/685420/c1cb1d81d6306182eb7fdb326b58092d3ca22923.jpg"
  },
  {
    "name": "10wins_for_hunter",
    "defaultvalue": 0,
    "displayName": "10 wins for Hunter",
    "hidden": 0,
    "description": "Win 10 ranked games for Hunter",
    "icon": "https://steamcdn-a.akamaihd.net/steamcommunity/public/images/apps/685420/929f304b678f7723380e3dd8c1fd61e6fd8ff00f.jpg",
    "icongray": "https://steamcdn-a.akamaihd.net/steamcommunity/public/images/apps/685420/530f7751cef3d9ce13f07e4a4e366ef5b763e9bc.jpg"
  },
  {
    "name": "100wins_for_hunter",
    "defaultvalue": 0,
    "displayName": "100 wins for Hunter",
    "hidden": 0,
    "description": "Win 100 ranked games for Hunter",
    "icon": "https://steamcdn-a.akamaihd.net/steamcommunity/public/images/apps/685420/538c2531b86e2f2be2d9c4315d5e445c9276aee8.jpg",
    "icongray": "https://steamcdn-a.akamaihd.net/steamcommunity/public/images/apps/685420/8bfeb8284a718f7cff603e4bdff8087818d81e17.jpg"
  },
  {
    "name": "1000wins_for_hunter",
    "defaultvalue": 0,
    "displayName": "1000 wins for Hunter",
    "hidden": 0,
    "description": "Win 1000 ranked games for Hunter",
    "icon": "https://steamcdn-a.akamaihd.net/steamcommunity/public/images/apps/685420/5be4bee8a0c5e75db98b62b3ebf7aa48852b8d46.jpg",
    "icongray": "https://steamcdn-a.akamaihd.net/steamcommunity/public/images/apps/685420/c1507f9ca640b85d408c70e571c7232c25f42eaf.jpg"
  },
  {
    "name": "10000wins_for_hunter",
    "defaultvalue": 0,
    "displayName": "10000 wins for Hunter",
    "hidden": 0,
    "description": "Win 10000 ranked games for Hunter",
    "icon": "https://steamcdn-a.akamaihd.net/steamcommunity/public/images/apps/685420/5df958b873e3640cbb9bc693b63a61d81969217a.jpg",
    "icongray": "https://steamcdn-a.akamaihd.net/steamcommunity/public/images/apps/685420/2a69f07b934618a32554167102b4abecf523ca10.jpg"
  },
  {
    "name": "1wins_for_darkmage",
    "defaultvalue": 0,
    "displayName": "First win for Dark Mage",
    "hidden": 0,
    "description": "Win 1 ranked game for Dark Mage",
    "icon": "https://steamcdn-a.akamaihd.net/steamcommunity/public/images/apps/685420/cb13817c292f1da182e2cf38bb438f911a3773c4.jpg",
    "icongray": "https://steamcdn-a.akamaihd.net/steamcommunity/public/images/apps/685420/1841dadd811de6ca991fc17c8d56899c468519fc.jpg"
  },
  {
    "name": "10wins_for_darkmage",
    "defaultvalue": 0,
    "displayName": "10 wins for Dark Mage",
    "hidden": 0,
    "description": "Win 10 ranked games for Dark Mage",
    "icon": "https://steamcdn-a.akamaihd.net/steamcommunity/public/images/apps/685420/84d4a78e188d9127e2ab7944769df97d15f6b393.jpg",
    "icongray": "https://steamcdn-a.akamaihd.net/steamcommunity/public/images/apps/685420/16677b60a4c46d4e57ffdc5423f1141da22bdc74.jpg"
  },
  {
    "name": "100wins_for_darkmage",
    "defaultvalue": 0,
    "displayName": "100 wins for Dark Mage",
    "hidden": 0,
    "description": "Win 100 ranked games for Dark Mage",
    "icon": "https://steamcdn-a.akamaihd.net/steamcommunity/public/images/apps/685420/d4ff9070d122f0e8c7104c632a11891c12801750.jpg",
    "icongray": "https://steamcdn-a.akamaihd.net/steamcommunity/public/images/apps/685420/475f000527bca878f3a01c5efd1ee4383f4bd824.jpg"
  },
  {
    "name": "1000wins_for_darkmage",
    "defaultvalue": 0,
    "displayName": "1000 wins for Dark Mage",
    "hidden": 0,
    "description": "Win 1000 ranked games for Dark Mage",
    "icon": "https://steamcdn-a.akamaihd.net/steamcommunity/public/images/apps/685420/e7c507ffb9304a1d2bfdfe4cd42b607c46dca962.jpg",
    "icongray": "https://steamcdn-a.akamaihd.net/steamcommunity/public/images/apps/685420/e5377c1a4c563e5fe03ba7924dabce830bed8b72.jpg"
  },
  {
    "name": "10000wins_for_darkmage",
    "defaultvalue": 0,
    "displayName": "10000 wins for Dark Mage",
    "hidden": 0,
    "description": "Win 10000 ranked games for Dark Mage",
    "icon": "https://steamcdn-a.akamaihd.net/steamcommunity/public/images/apps/685420/ae15dcbcbe5801d98c905ce706932f628d361eaf.jpg",
    "icongray": "https://steamcdn-a.akamaihd.net/steamcommunity/public/images/apps/685420/69ab84ab0d3e411eac0a317ce8799ad21039d8c8.jpg"
  }
]