﻿[
  {
    "name": "a_puzzling_development",
    "defaultvalue": 0,
    "displayName": "A Puzzling Development",
    "hidden": 0,
    "description": "Beat Level 12",
    "icon": "https://steamcdn-a.akamaihd.net/steamcommunity/public/images/apps/362290/e2b3d3fa15bc2f039db7b8c693e3c7c6c4f03b16.jpg",
    "icongray": "https://steamcdn-a.akamaihd.net/steamcommunity/public/images/apps/362290/77d8cc32e12a87646edcb206d23500d86113b7a4.jpg"
  },
  {
    "name": "all_the_murderous_basics",
    "defaultvalue": 0,
    "displayName": "All the murderous Basics",
    "hidden": 0,
    "description": "Beat Level 3",
    "icon": "https://steamcdn-a.akamaihd.net/steamcommunity/public/images/apps/362290/f662e66d4974f8ee969d29e5d7699b3c97df575d.jpg",
    "icongray": "https://steamcdn-a.akamaihd.net/steamcommunity/public/images/apps/362290/9b1a2b6b2392b8597ff3109c4599faaa5900e1a0.jpg"
  },
  {
    "name": "enough_hand_holding",
    "defaultvalue": 0,
    "displayName": "Enough Hand Holding",
    "hidden": 0,
    "description": "Beat Level 7",
    "icon": "https://steamcdn-a.akamaihd.net/steamcommunity/public/images/apps/362290/a0869f12afc43f6e3045e3b14715dea7af1b3dad.jpg",
    "icongray": "https://steamcdn-a.akamaihd.net/steamcommunity/public/images/apps/362290/4d50d4aec76691231f42181bd501f66377c820b9.jpg"
  },
  {
    "name": "sneaky_lizard_face",
    "defaultvalue": 0,
    "displayName": "Sneaky Lizard Face",
    "hidden": 0,
    "description": "Beat Level 19",
    "icon": "https://steamcdn-a.akamaihd.net/steamcommunity/public/images/apps/362290/65c9f6ac93afa28f8e7151ea0b7bf49e31154f76.jpg",
    "icongray": "https://steamcdn-a.akamaihd.net/steamcommunity/public/images/apps/362290/390dad1cfe8615aed5024f6faeb2e638a045f3f8.jpg"
  },
  {
    "name": "wretchedly_violent",
    "defaultvalue": 0,
    "displayName": "Wretchedly Violent",
    "hidden": 0,
    "description": "Watch 200 wretched die",
    "icon": "https://steamcdn-a.akamaihd.net/steamcommunity/public/images/apps/362290/b117a186cfcb47bcd816a88bc13bda62c7490e4a.jpg",
    "icongray": "https://steamcdn-a.akamaihd.net/steamcommunity/public/images/apps/362290/7cd3cdce5a1c9ebbc3faf5d3fd17b591cdceef79.jpg"
  },
  {
    "name": "a_song_of_death_and_death",
    "defaultvalue": 0,
    "displayName": "A Song of Death and Death",
    "hidden": 0,
    "description": "Have 20 shadows, and 20 sentinels destroyed",
    "icon": "https://steamcdn-a.akamaihd.net/steamcommunity/public/images/apps/362290/e9f1b920d935c3087581f33523b01482486ab883.jpg",
    "icongray": "https://steamcdn-a.akamaihd.net/steamcommunity/public/images/apps/362290/c66e664fc443fa3fb49c2b7fe0e947b064b70aa9.jpg"
  },
  {
    "name": "heroic_sacrifice",
    "defaultvalue": 0,
    "displayName": "Heroic Sacrifice",
    "hidden": 0,
    "description": "Finish the game",
    "icon": "https://steamcdn-a.akamaihd.net/steamcommunity/public/images/apps/362290/c0fe010ed451497ae481eb6b9340576adede1a4d.jpg",
    "icongray": "https://steamcdn-a.akamaihd.net/steamcommunity/public/images/apps/362290/37efd0c0bd745987dce866f464b37211258fc4fb.jpg"
  },
  {
    "name": "happy_ending",
    "defaultvalue": 0,
    "displayName": "Happy Ending",
    "hidden": 0,
    "description": "Finish the game with all the bonus objectives",
    "icon": "https://steamcdn-a.akamaihd.net/steamcommunity/public/images/apps/362290/769455f85dadbc1e5581b3204fb85475df69c6ab.jpg",
    "icongray": "https://steamcdn-a.akamaihd.net/steamcommunity/public/images/apps/362290/fc636c652bd1a225ecbf64729fd24e7fb698ea82.jpg"
  },
  {
    "name": "keeping_it_canon",
    "defaultvalue": 0,
    "displayName": "Keeping it Canon",
    "hidden": 0,
    "description": "Complete 8 bonus objectives.",
    "icon": "https://steamcdn-a.akamaihd.net/steamcommunity/public/images/apps/362290/1dc03cc75092b711818d01ebb97a6e5f27023fe0.jpg",
    "icongray": "https://steamcdn-a.akamaihd.net/steamcommunity/public/images/apps/362290/a07b53893c02948ca991a19f8e55d64cb1e99914.jpg"
  },
  {
    "name": "not_dead_on_arrival",
    "defaultvalue": 0,
    "displayName": "Not Dead on Arrival",
    "hidden": 0,
    "description": "Manage to not screw up the first level.",
    "icon": "https://steamcdn-a.akamaihd.net/steamcommunity/public/images/apps/362290/0a555459562b94b599b428a865cf0ac24e35e89c.jpg",
    "icongray": "https://steamcdn-a.akamaihd.net/steamcommunity/public/images/apps/362290/7bdec8bfd6071575d19277816b0945844bb59720.jpg"
  },
  {
    "name": "just_happy_to_take_part",
    "defaultvalue": 0,
    "displayName": "Just Happy to Take Part",
    "hidden": 0,
    "description": "Complete a multiplayer game.",
    "icon": "https://steamcdn-a.akamaihd.net/steamcommunity/public/images/apps/362290/d0b86cfdc78350df9a5a4278dcbe2181c6d61863.jpg",
    "icongray": "https://steamcdn-a.akamaihd.net/steamcommunity/public/images/apps/362290/c707b1b8214867b99df4b3813663e3ab3b21831a.jpg"
  },
  {
    "name": "pure_evil",
    "defaultvalue": 0,
    "displayName": "Pure Evil",
    "hidden": 0,
    "description": "Force a draw or sudden death as a human DM, with at least 1 A.I. opponent.",
    "icon": "https://steamcdn-a.akamaihd.net/steamcommunity/public/images/apps/362290/8f501954b927177d4960796e5c3fea900669ed5f.jpg",
    "icongray": "https://steamcdn-a.akamaihd.net/steamcommunity/public/images/apps/362290/61d812bfc405edd5e303ee21262e0bd94848a193.jpg"
  },
  {
    "name": "i_hate_that_colour",
    "defaultvalue": 0,
    "displayName": "I Hate That Colour",
    "hidden": 0,
    "description": "Kill two members of the same team on your turn.",
    "icon": "https://steamcdn-a.akamaihd.net/steamcommunity/public/images/apps/362290/936882e3d71d939411b524ad6fc5b2b0f7580960.jpg",
    "icongray": "https://steamcdn-a.akamaihd.net/steamcommunity/public/images/apps/362290/bdcc960b0c6ddce9ae2a65a73478063c5cc10d42.jpg"
  },
  {
    "name": "into_darkness_literally",
    "defaultvalue": 0,
    "displayName": "Into Darkness. Literally",
    "hidden": 0,
    "description": "Kill someone indirectly with a shadow.",
    "icon": "https://steamcdn-a.akamaihd.net/steamcommunity/public/images/apps/362290/601a2f018225f7e4bde7fb97b7f15708c04da085.jpg",
    "icongray": "https://steamcdn-a.akamaihd.net/steamcommunity/public/images/apps/362290/65f5e6f95c709f20e94dcba2a6897547ae0dcc96.jpg"
  },
  {
    "name": "live_and_let_die",
    "defaultvalue": 0,
    "displayName": "Live and Let Die",
    "hidden": 0,
    "description": "Stay alive for the duration of a multiplayer game with at least 3 A.I. opponents.",
    "icon": "https://steamcdn-a.akamaihd.net/steamcommunity/public/images/apps/362290/5a6314dc88d50720745f52be851a222331bb7603.jpg",
    "icongray": "https://steamcdn-a.akamaihd.net/steamcommunity/public/images/apps/362290/8ae2552829bb30337c3d0e9bb1ca323c6d93b354.jpg"
  },
  {
    "name": "because_your_face",
    "defaultvalue": 0,
    "displayName": "Because Your Face",
    "hidden": 0,
    "description": "Assasinate a player that isn't your target in a game with at least 2 A.I. opponents.",
    "icon": "https://steamcdn-a.akamaihd.net/steamcommunity/public/images/apps/362290/8b6b2dace2b4c5f39091831cec93c41e1310cd20.jpg",
    "icongray": "https://steamcdn-a.akamaihd.net/steamcommunity/public/images/apps/362290/e7c5168e2c6cfb8caa676d42f34f2e4b68d5c87f.jpg"
  },
  {
    "name": "epic_bias",
    "defaultvalue": 0,
    "displayName": "Epic Bias",
    "hidden": 0,
    "description": "Win a multiplayer game on the DM's turn.",
    "icon": "https://steamcdn-a.akamaihd.net/steamcommunity/public/images/apps/362290/d8ce1d96d9b49df73f7f9d5640e7d8ce4a417455.jpg",
    "icongray": "https://steamcdn-a.akamaihd.net/steamcommunity/public/images/apps/362290/323f35bdbf2782c1ed161dcef16f19a83c8e854f.jpg"
  },
  {
    "name": "dont_hate_me_cause_im_badass",
    "defaultvalue": 0,
    "displayName": "Don't Hate Me 'Cause I'm Badass",
    "hidden": 0,
    "description": "Win a multiplayer game with the DM biased against you and at least 2 A.I. opponents.",
    "icon": "https://steamcdn-a.akamaihd.net/steamcommunity/public/images/apps/362290/857c8afec7e2e5e850b8b608451850f42cdfe03a.jpg",
    "icongray": "https://steamcdn-a.akamaihd.net/steamcommunity/public/images/apps/362290/400d670247d3c88236c87d47b1ec8f134732b678.jpg"
  },
  {
    "name": "theif_liar_cheat_proud",
    "defaultvalue": 0,
    "displayName": "Theif, Liar, Cheat, Proud",
    "hidden": 0,
    "description": "Win a game without directly killing anyone with at least 3 A.I. opponents.",
    "icon": "https://steamcdn-a.akamaihd.net/steamcommunity/public/images/apps/362290/39bb77cf7c073ee57280c13ebd583a49d83cf870.jpg",
    "icongray": "https://steamcdn-a.akamaihd.net/steamcommunity/public/images/apps/362290/f13631f8e4105419b24d34a200b4f854f6d9337e.jpg"
  },
  {
    "name": "lots_of_dead_friends",
    "defaultvalue": 0,
    "displayName": "Lots of Dead Friends",
    "hidden": 0,
    "description": "Win an assassination game with 6 or more players.",
    "icon": "https://steamcdn-a.akamaihd.net/steamcommunity/public/images/apps/362290/6e0f13f3947cd7688c1d95f9db78047095cf035c.jpg",
    "icongray": "https://steamcdn-a.akamaihd.net/steamcommunity/public/images/apps/362290/2cac748a4143a701a5624d8892b477b39c50fa27.jpg"
  },
  {
    "name": "violence_is_the_answer",
    "defaultvalue": 0,
    "displayName": "Violence Is The Answer",
    "hidden": 0,
    "description": "Cause the death of two other players on your turn.",
    "icon": "https://steamcdn-a.akamaihd.net/steamcommunity/public/images/apps/362290/121c5520032e226eac5f176a9cb040daf1f59ecc.jpg",
    "icongray": "https://steamcdn-a.akamaihd.net/steamcommunity/public/images/apps/362290/51bb4bc68f4063b9b2d8bd49fb84c45f0d2479b8.jpg"
  }
]