﻿{
  "Dlcs": {
    "1364051": {
      "Name": "Star Conflict - Pirate Chronicles. Stage two (Deluxe edition)",
      "ImageUrl": "https://steamcdn-a.akamaihd.net/steam/apps/1364051/header.jpg?t=1595308515"
    },
    "1364050": {
      "Name": "Star Conflict - Pirate Chronicles. Stage two",
      "ImageUrl": "https://steamcdn-a.akamaihd.net/steam/apps/1364050/header.jpg?t=1595308512"
    },
    "1323941": {
      "Name": "Star Conflict - Pirate Chronicles. Stage one (Deluxe edition)",
      "ImageUrl": "https://steamcdn-a.akamaihd.net/steam/apps/1323941/header.jpg?t=1594887006"
    },
    "1323940": {
      "Name": "Star Conflict - Pirate Chronicles. Stage one",
      "ImageUrl": "https://steamcdn-a.akamaihd.net/steam/apps/1323940/header.jpg?t=1594887008"
    },
    "1297050": {
      "Name": "Star Conflict: Gungnir",
      "ImageUrl": "https://steamcdn-a.akamaihd.net/steam/apps/1297050/header.jpg?t=1589801553"
    },
    "1268120": {
      "Name": "Star Conflict - Scylla",
      "ImageUrl": "https://steamcdn-a.akamaihd.net/steam/apps/1268120/header.jpg?t=1589801551"
    },
    "1158800": {
      "Name": "Star Conflict - Custodian",
      "ImageUrl": "https://steamcdn-a.akamaihd.net/steam/apps/1158800/header.jpg?t=1589801557"
    },
    "1092690": {
      "Name": "Star Conflict - Empire destroyer “Invincible”",
      "ImageUrl": "https://steamcdn-a.akamaihd.net/steam/apps/1092690/header.jpg?t=1589801556"
    },
    "1092695": {
      "Name": "Star Conflict - Empire destroyer Vigilant",
      "ImageUrl": "https://steamcdn-a.akamaihd.net/steam/apps/1092695/header.jpg?t=1589801855"
    },
    "1092691": {
      "Name": "Star Conflict - Jericho destroyer Archon",
      "ImageUrl": "https://steamcdn-a.akamaihd.net/steam/apps/1092691/header.jpg?t=1589801856"
    },
    "1092694": {
      "Name": "Star Conflict - Jericho destroyer Tyrant",
      "ImageUrl": "https://steamcdn-a.akamaihd.net/steam/apps/1092694/header.jpg?t=1589801859"
    },
    "1092692": {
      "Name": "Star Conflict - Federation destroyer “Procyon”",
      "ImageUrl": "https://steamcdn-a.akamaihd.net/steam/apps/1092692/header.jpg?t=1589801921"
    },
    "1092693": {
      "Name": "Star Conflict - Federation destroyer Sirius",
      "ImageUrl": "https://steamcdn-a.akamaihd.net/steam/apps/1092693/header.jpg?t=1589801861"
    },
    "1049650": {
      "Name": "Star Conflict - Pilgrim",
      "ImageUrl": "https://steamcdn-a.akamaihd.net/steam/apps/1049650/header.jpg?t=1589801864"
    },
    "991773": {
      "Name": "Star Conflict - Ellidium Destroyer Starter pack",
      "ImageUrl": "https://steamcdn-a.akamaihd.net/steam/apps/991773/header.jpg?t=1589801867"
    },
    "797150": {
      "Name": "Star Conflict: Journey - Object NY18",
      "ImageUrl": "https://steamcdn-a.akamaihd.net/steam/apps/797150/header.jpg?t=1589801870"
    },
    "222280": {
      "Name": "Star Conflict: Mercenary Pack - Soldier of Fortune",
      "ImageUrl": "https://steamcdn-a.akamaihd.net/steam/apps/222280/header.jpg?t=1591012162"
    },
    "222281": {
      "Name": "Star Conflict: Mercenary Pack - Galaxy Explorer",
      "ImageUrl": "https://steamcdn-a.akamaihd.net/steam/apps/222281/header.jpg?t=1591012156"
    },
    "222282": {
      "Name": "Star Conflict: Mercenary Pack - Elite Pilot",
      "ImageUrl": "https://steamcdn-a.akamaihd.net/steam/apps/222282/header.jpg?t=1591012150"
    },
    "222283": {
      "Name": "Star Conflict: Pirate Pack - Corsair",
      "ImageUrl": "https://steamcdn-a.akamaihd.net/steam/apps/222283/header.jpg?t=1591012145"
    },
    "222284": {
      "Name": "Star Conflict: Pirate Pack - Jolly Roger",
      "ImageUrl": "https://steamcdn-a.akamaihd.net/steam/apps/222284/header.jpg?t=1591012135"
    },
    "222285": {
      "Name": "Star Conflict: Pirate Pack - Dead Man's Chest",
      "ImageUrl": "https://steamcdn-a.akamaihd.net/steam/apps/222285/header.jpg?t=1591012140"
    },
    "397120": {
      "Name": "Star Conflict: Fleet Strength - Loki",
      "ImageUrl": "https://steamcdn-a.akamaihd.net/steam/apps/397120/header.jpg?t=1589802122"
    },
    "397121": {
      "Name": "Star Conflict: Fleet Strength - Razor",
      "ImageUrl": "https://steamcdn-a.akamaihd.net/steam/apps/397121/header.jpg?t=1589802122"
    },
    "397122": {
      "Name": "Star Conflict: Fleet Strength - Blood Tormentor",
      "ImageUrl": "https://steamcdn-a.akamaihd.net/steam/apps/397122/header.jpg?t=1589802123"
    },
    "397123": {
      "Name": "Star Conflict: Fleet Strength - Sawtooth",
      "ImageUrl": "https://steamcdn-a.akamaihd.net/steam/apps/397123/header.jpg?t=1589802123"
    },
    "397124": {
      "Name": "Star Conflict: Fleet Strength - Cutter",
      "ImageUrl": "https://steamcdn-a.akamaihd.net/steam/apps/397124/header.jpg?t=1589802129"
    },
    "397125": {
      "Name": "Star Conflict: Fleet Strength - Mauler",
      "ImageUrl": "https://steamcdn-a.akamaihd.net/steam/apps/397125/header.jpg?t=1589802130"
    },
    "397126": {
      "Name": "Star Conflict: Dogs of War - Nyx",
      "ImageUrl": "https://steamcdn-a.akamaihd.net/steam/apps/397126/header.jpg?t=1589802132"
    }
  },
  "Name": "Star Conflict",
  "AppId": "212070",
  "ImageUrl": "https://steamcdn-a.akamaihd.net/steam/apps/212070/header.jpg?t=1599110450",
  "Languages": [
    "english",
    "russian",
    "french",
    "german",
    "spanish",
    "portuguese",
    "polish",
    "hungarian",
    "czech",
    "ukrainian",
    "schinese"
  ],
  "Platforms": {
    "windows": true,
    "mac": true,
    "linux": true
  }
}