﻿{
  "Dlcs": {
    "533810": {
      "Name": "Turbo Pug Soundtrack",
      "ImageUrl": "https://steamcdn-a.akamaihd.net/steam/apps/533810/header.jpg?t=1484080544"
    }
  },
  "Name": "Turbo Pug DX",
  "AppId": "513780",
  "ImageUrl": "https://steamcdn-a.akamaihd.net/steam/apps/513780/header.jpg?t=1474921562",
  "Languages": [
    "english"
  ],
  "Platforms": {
    "windows": true,
    "mac": false,
    "linux": false
  }
}