﻿[
  {
    "name": "death_1",
    "defaultvalue": 0,
    "displayName": "First Blood",
    "hidden": 0,
    "description": "You crushed your pug for the first time.",
    "icon": "https://steamcdn-a.akamaihd.net/steamcommunity/public/images/apps/513780/aeeaeb0ca87125c3d12434d97f4125e933655877.jpg",
    "icongray": "https://steamcdn-a.akamaihd.net/steamcommunity/public/images/apps/513780/7f4a4c989d64d1f7b1886defdabeb6af05e63a20.jpg"
  },
  {
    "name": "death_2",
    "defaultvalue": 0,
    "displayName": "Tenacity",
    "hidden": 0,
    "description": "You killed at least 100 cute animals.",
    "icon": "https://steamcdn-a.akamaihd.net/steamcommunity/public/images/apps/513780/5bfe8a04e30225e3cc4e80195c92319c2d1bcdbf.jpg",
    "icongray": "https://steamcdn-a.akamaihd.net/steamcommunity/public/images/apps/513780/0ddd9e65b448c55aa4a7a96958fa412b3c04fac4.jpg"
  },
  {
    "name": "death_3",
    "defaultvalue": 0,
    "displayName": "Legend",
    "hidden": 0,
    "description": "Your cruelty towards pets became legendary.",
    "icon": "https://steamcdn-a.akamaihd.net/steamcommunity/public/images/apps/513780/80e50cb7f04ac0845592d263e9f66e6fdc9a7e0e.jpg",
    "icongray": "https://steamcdn-a.akamaihd.net/steamcommunity/public/images/apps/513780/fa03e8fd7006b2a3e1ae912f9b34991af7d57a6b.jpg"
  },
  {
    "name": "death_4",
    "defaultvalue": 0,
    "displayName": "Executioner",
    "hidden": 1,
    "icon": "https://steamcdn-a.akamaihd.net/steamcommunity/public/images/apps/513780/5480f26a5186d27dbf16eb8f3e599f77c607fe3e.jpg",
    "icongray": "https://steamcdn-a.akamaihd.net/steamcommunity/public/images/apps/513780/5fee7c9f40a0d161f329fb5f581de23f42e1ec8d.jpg"
  },
  {
    "name": "skins_1",
    "defaultvalue": 0,
    "displayName": "Explorer",
    "hidden": 1,
    "icon": "https://steamcdn-a.akamaihd.net/steamcommunity/public/images/apps/513780/6e0d5716266f778bc820bdb3a257a4f45bc9fb64.jpg",
    "icongray": "https://steamcdn-a.akamaihd.net/steamcommunity/public/images/apps/513780/7f799736ecf38fed1f7f068742a3710796ae47be.jpg"
  },
  {
    "name": "distance_1",
    "defaultvalue": 0,
    "displayName": "Walking the dog",
    "hidden": 0,
    "description": "You ran 500 metres!",
    "icon": "https://steamcdn-a.akamaihd.net/steamcommunity/public/images/apps/513780/78c3dd035adccb6e0f4b1612b7ea8b2bb2c4c937.jpg",
    "icongray": "https://steamcdn-a.akamaihd.net/steamcommunity/public/images/apps/513780/10cf5252a12255e435498fc907ac27655d852869.jpg"
  },
  {
    "name": "distance_2",
    "defaultvalue": 0,
    "displayName": "Half-Marathon",
    "hidden": 0,
    "description": "You ran 1000 metres!",
    "icon": "https://steamcdn-a.akamaihd.net/steamcommunity/public/images/apps/513780/93a91e729290788867a9744b58fe261204a04f46.jpg",
    "icongray": "https://steamcdn-a.akamaihd.net/steamcommunity/public/images/apps/513780/1fed8ee9a0244cf67a78f8b60442b3463ced2eff.jpg"
  },
  {
    "name": "distance_3",
    "defaultvalue": 0,
    "displayName": "Pug Marathon",
    "hidden": 0,
    "description": "You ran 2000 metres!",
    "icon": "https://steamcdn-a.akamaihd.net/steamcommunity/public/images/apps/513780/a6da7f7ee3ead62a4e8fe91dbf50581fd6748057.jpg",
    "icongray": "https://steamcdn-a.akamaihd.net/steamcommunity/public/images/apps/513780/aba9a80ea36c8ad148c40af589780241536bb888.jpg"
  },
  {
    "name": "distance_4",
    "defaultvalue": 0,
    "displayName": "Pug Olympian",
    "hidden": 1,
    "icon": "https://steamcdn-a.akamaihd.net/steamcommunity/public/images/apps/513780/f00287d698e6bd6269773a1ad8390691a87152ff.jpg",
    "icongray": "https://steamcdn-a.akamaihd.net/steamcommunity/public/images/apps/513780/b524903c5f5a25207cc2e3031b3e2392d2d9c372.jpg"
  },
  {
    "name": "travel_1",
    "defaultvalue": 0,
    "displayName": "Adventure awaits",
    "hidden": 0,
    "description": "Your adventure is just beginning.",
    "icon": "https://steamcdn-a.akamaihd.net/steamcommunity/public/images/apps/513780/3c5ddd81f1aad4dc0f093336545633dba1694be2.jpg",
    "icongray": "https://steamcdn-a.akamaihd.net/steamcommunity/public/images/apps/513780/1a0ce8f592a8ad4046f28c7f7c9956c91c7e8023.jpg"
  },
  {
    "name": "travel_2",
    "defaultvalue": 0,
    "displayName": "Over the hills and far away",
    "hidden": 0,
    "description": "You covered a small amount of ground.",
    "icon": "https://steamcdn-a.akamaihd.net/steamcommunity/public/images/apps/513780/f8522f0a8c8dfa423f5b5fd3bae8bc8c9272f5e8.jpg",
    "icongray": "https://steamcdn-a.akamaihd.net/steamcommunity/public/images/apps/513780/8ba501ecbc09cc6b785e7633c33172ba961a8c31.jpg"
  },
  {
    "name": "travel_3",
    "defaultvalue": 0,
    "displayName": "Just keep running, just keep running",
    "hidden": 0,
    "description": "You stepped into a new world beyond the horizon.",
    "icon": "https://steamcdn-a.akamaihd.net/steamcommunity/public/images/apps/513780/e704aabd50d24e2f07afc04be4ea65f2cfd102a3.jpg",
    "icongray": "https://steamcdn-a.akamaihd.net/steamcommunity/public/images/apps/513780/dea4fc50a6ecc142feba17437aa8c996c953b8be.jpg"
  },
  {
    "name": "travel_4",
    "defaultvalue": 0,
    "displayName": "Pug Man's Sky",
    "hidden": 1,
    "icon": "https://steamcdn-a.akamaihd.net/steamcommunity/public/images/apps/513780/d5d40e4d3a622b8b2b920d64371505761694c2b4.jpg",
    "icongray": "https://steamcdn-a.akamaihd.net/steamcommunity/public/images/apps/513780/6d3684c98414bebf0ca3fafd06be776ffe38e389.jpg"
  },
  {
    "name": "char_1",
    "defaultvalue": 0,
    "displayName": "Is it a plane?",
    "hidden": 0,
    "description": "Unlock Super Pug.",
    "icon": "https://steamcdn-a.akamaihd.net/steamcommunity/public/images/apps/513780/c89c309fc7e05d9d1c99cfdcd2239d92913fe3ba.jpg",
    "icongray": "https://steamcdn-a.akamaihd.net/steamcommunity/public/images/apps/513780/0ed42816dbc1ba31430acb9b067aa687fbebf079.jpg"
  },
  {
    "name": "char_2",
    "defaultvalue": 0,
    "displayName": "A pug is not just for Christmas",
    "hidden": 0,
    "description": "Unlock Santa Pug.",
    "icon": "https://steamcdn-a.akamaihd.net/steamcommunity/public/images/apps/513780/38b235d1c404aff4a670da7ecb17e3a1621daf67.jpg",
    "icongray": "https://steamcdn-a.akamaihd.net/steamcommunity/public/images/apps/513780/5b8b7b549ff32a6875261b3e379a3d8c21bd7a73.jpg"
  },
  {
    "name": "char_3",
    "defaultvalue": 0,
    "displayName": "Spanglish Style",
    "hidden": 0,
    "description": "Unlock the Mexican Pug.",
    "icon": "https://steamcdn-a.akamaihd.net/steamcommunity/public/images/apps/513780/89f563a3abcb9dd3481d20ac2fdfb8cfc6f73fcd.jpg",
    "icongray": "https://steamcdn-a.akamaihd.net/steamcommunity/public/images/apps/513780/86416f7959c379018592ae45531882dca97b6d4d.jpg"
  },
  {
    "name": "char_4",
    "defaultvalue": 0,
    "displayName": "Soft kitty, warm kitty",
    "hidden": 0,
    "description": "Unlock Mittens the kitten.",
    "icon": "https://steamcdn-a.akamaihd.net/steamcommunity/public/images/apps/513780/a5ee87d4d60b4b8e860697a974c21c663624a631.jpg",
    "icongray": "https://steamcdn-a.akamaihd.net/steamcommunity/public/images/apps/513780/352e6d6a7c6d5a02c76c39a9a1857fdaac8489a9.jpg"
  },
  {
    "name": "char_5",
    "defaultvalue": 0,
    "displayName": "Fur ball",
    "hidden": 0,
    "description": "Unlock the Hamster.",
    "icon": "https://steamcdn-a.akamaihd.net/steamcommunity/public/images/apps/513780/1997256ce11cd671dfb0c83cbfbced8b98d1d76f.jpg",
    "icongray": "https://steamcdn-a.akamaihd.net/steamcommunity/public/images/apps/513780/374070818a3f99224027eda07129272fd2519c79.jpg"
  },
  {
    "name": "char_6",
    "defaultvalue": 0,
    "displayName": "Hot Dog",
    "hidden": 0,
    "description": "Unlock the Basset Hound.",
    "icon": "https://steamcdn-a.akamaihd.net/steamcommunity/public/images/apps/513780/41b5ad474b9d1ebc59ba0ebc415c20da4eb915f0.jpg",
    "icongray": "https://steamcdn-a.akamaihd.net/steamcommunity/public/images/apps/513780/df997dbc24ae98ba96256c3e54b49330af0c4c88.jpg"
  },
  {
    "name": "char_7",
    "defaultvalue": 0,
    "displayName": "Heart Healer",
    "hidden": 0,
    "description": "Unlock Montaro.",
    "icon": "https://steamcdn-a.akamaihd.net/steamcommunity/public/images/apps/513780/44a8812400c57cddfbd7eef059b27120de67fec1.jpg",
    "icongray": "https://steamcdn-a.akamaihd.net/steamcommunity/public/images/apps/513780/ff6e437b038a0e4248b64ff1ab598fc2e2ecbce8.jpg"
  },
  {
    "name": "char_8",
    "defaultvalue": 0,
    "displayName": "OINK OINK!",
    "hidden": 0,
    "description": "Unlock the Piglet.",
    "icon": "https://steamcdn-a.akamaihd.net/steamcommunity/public/images/apps/513780/e46be8d98fa00c3e264fa053dd4e48a0fd41aeea.jpg",
    "icongray": "https://steamcdn-a.akamaihd.net/steamcommunity/public/images/apps/513780/1b952bcf4b218b61971d76237ecf6681f14fad1a.jpg"
  },
  {
    "name": "char_9",
    "defaultvalue": 0,
    "displayName": "Turtle",
    "hidden": 0,
    "description": "You unlocked the coolest Turtle around.",
    "icon": "https://steamcdn-a.akamaihd.net/steamcommunity/public/images/apps/513780/8fd319e49213209504141f00d847c5b9577fe1d7.jpg",
    "icongray": "https://steamcdn-a.akamaihd.net/steamcommunity/public/images/apps/513780/4d76e8c2ce2b8af2de1ec41adf13d2d78ca261d5.jpg"
  },
  {
    "name": "drowned_1",
    "defaultvalue": 0,
    "displayName": "Sleeping with the Fishes",
    "hidden": 1,
    "icon": "https://steamcdn-a.akamaihd.net/steamcommunity/public/images/apps/513780/2fa33615584471e1d5ac717b1049e715834beb09.jpg",
    "icongray": "https://steamcdn-a.akamaihd.net/steamcommunity/public/images/apps/513780/cf4a366e31471c45d2ddb0046320c87ef97635b8.jpg"
  },
  {
    "name": "lightning_1",
    "defaultvalue": 0,
    "displayName": "Shockingly good!",
    "hidden": 1,
    "icon": "https://steamcdn-a.akamaihd.net/steamcommunity/public/images/apps/513780/aa61487275d472212801b8edf18f99f88f9279c3.jpg",
    "icongray": "https://steamcdn-a.akamaihd.net/steamcommunity/public/images/apps/513780/191c7bff5be2e0b70cf151fee62809fdf4dbb759.jpg"
  },
  {
    "name": "minis_1",
    "defaultvalue": 0,
    "displayName": "Mini Gamer",
    "hidden": 1,
    "icon": "https://steamcdn-a.akamaihd.net/steamcommunity/public/images/apps/513780/5429a2c7c8c3093723cf1c71e920d7ac8349be06.jpg",
    "icongray": "https://steamcdn-a.akamaihd.net/steamcommunity/public/images/apps/513780/8b98ba3fe3cbb2ab8e5b7492578ba29dcd48b4e1.jpg"
  },
  {
    "name": "mini_1",
    "defaultvalue": 0,
    "displayName": "Penguin Rider",
    "hidden": 1,
    "icon": "https://steamcdn-a.akamaihd.net/steamcommunity/public/images/apps/513780/325a9d5c83b783b91f0937c105b118b2cb409f79.jpg",
    "icongray": "https://steamcdn-a.akamaihd.net/steamcommunity/public/images/apps/513780/792d2c9db38f461d828895466a1d8bd456a87db6.jpg"
  },
  {
    "name": "mini_2",
    "defaultvalue": 0,
    "displayName": "The Escapist",
    "hidden": 1,
    "icon": "https://steamcdn-a.akamaihd.net/steamcommunity/public/images/apps/513780/0802571dd946a6c68e1197e9df7c2dbe8016c77c.jpg",
    "icongray": "https://steamcdn-a.akamaihd.net/steamcommunity/public/images/apps/513780/8c4cd7950a286e81bd6dc0bad51e9554d63820e3.jpg"
  }
]