﻿[
  {
    "name": "FIRST",
    "defaultvalue": 0,
    "displayName": "First!",
    "hidden": 0,
    "description": "Win a race",
    "icon": "https://steamcdn-a.akamaihd.net/steamcommunity/public/images/apps/209520/0902efe52cdaaf31480feb726fec70e47590f906.jpg",
    "icongray": "https://steamcdn-a.akamaihd.net/steamcommunity/public/images/apps/209520/c10bd39e6bd6582f2e5961033569e76ee452f9bc.jpg"
  },
  {
    "name": "CUP_GET",
    "defaultvalue": 0,
    "displayName": "Cup Get!",
    "hidden": 0,
    "description": "Win the first 4 races",
    "icon": "https://steamcdn-a.akamaihd.net/steamcommunity/public/images/apps/209520/85257c82783a0fdd00b2baf6145555719dc8cc41.jpg",
    "icongray": "https://steamcdn-a.akamaihd.net/steamcommunity/public/images/apps/209520/cedc637f73f2fdd493e2a2cbdc7ab9e5e6a328a6.jpg"
  },
  {
    "name": "CHAMPION_BEGINNER",
    "defaultvalue": 0,
    "displayName": "Mini Motor Champion (Beginner)",
    "hidden": 0,
    "description": "Win every race in the Beginner Championship",
    "icon": "https://steamcdn-a.akamaihd.net/steamcommunity/public/images/apps/209520/ea30e368dfa03ab993359920301a1b8f78a464fb.jpg",
    "icongray": "https://steamcdn-a.akamaihd.net/steamcommunity/public/images/apps/209520/317c03a22269454f5f3d9468e9725b0223fb7449.jpg"
  },
  {
    "name": "CHAMPION_INTERMEDIATE",
    "defaultvalue": 0,
    "displayName": "Mini Motor Champion (Intermediate)",
    "hidden": 0,
    "description": " Win every race in the Intermediate Championship",
    "icon": "https://steamcdn-a.akamaihd.net/steamcommunity/public/images/apps/209520/52becd929f2b46982f211d6b445afcf7aab6e2ea.jpg",
    "icongray": "https://steamcdn-a.akamaihd.net/steamcommunity/public/images/apps/209520/81f061a6dc8eb6952021bd25c4d3eae4300c5d76.jpg"
  },
  {
    "name": "CHAMPION_EXPERT",
    "defaultvalue": 0,
    "displayName": "Mini Motor Champion (Expert)",
    "hidden": 0,
    "description": "Win every race in the Expert Championship",
    "icon": "https://steamcdn-a.akamaihd.net/steamcommunity/public/images/apps/209520/63bb579e868c5f7d078afb72a984b8f6726a30d2.jpg",
    "icongray": "https://steamcdn-a.akamaihd.net/steamcommunity/public/images/apps/209520/b4cfd3f06b392a863e377842b850d3af01144813.jpg"
  },
  {
    "name": "CHAMPION_MASTER",
    "defaultvalue": 0,
    "displayName": "Mini Motor Champion (Master)",
    "hidden": 0,
    "description": "Win every race in the Master Championship",
    "icon": "https://steamcdn-a.akamaihd.net/steamcommunity/public/images/apps/209520/d448d7cecda74ea6eaa4bc105fa6bca4845276e4.jpg",
    "icongray": "https://steamcdn-a.akamaihd.net/steamcommunity/public/images/apps/209520/607f3ccc4830cf2a2e818ff852fb627fd7cccbd8.jpg"
  },
  {
    "name": "MASTER",
    "defaultvalue": 0,
    "displayName": "Mini Motor Master",
    "hidden": 0,
    "description": "Win every single race across all 4 championships",
    "icon": "https://steamcdn-a.akamaihd.net/steamcommunity/public/images/apps/209520/89e6ca5b72f69754de7bd8d6bffb9c30ba910547.jpg",
    "icongray": "https://steamcdn-a.akamaihd.net/steamcommunity/public/images/apps/209520/6aeb94b079d6f6e371a7335ce4c51b10a702fd37.jpg"
  },
  {
    "name": "TUNER",
    "defaultvalue": 0,
    "displayName": "Tuner",
    "hidden": 0,
    "description": "Fully upgrade a single stat on any car",
    "icon": "https://steamcdn-a.akamaihd.net/steamcommunity/public/images/apps/209520/3c4b903a0b878640309b46327efef2e0e26d3a44.jpg",
    "icongray": "https://steamcdn-a.akamaihd.net/steamcommunity/public/images/apps/209520/53f11e6757fb29f6790da67cc2cb337ccace9045.jpg"
  },
  {
    "name": "PRO_TUNER",
    "defaultvalue": 0,
    "displayName": "Pro Tuner",
    "hidden": 0,
    "description": "Fully upgrade all stats on any car",
    "icon": "https://steamcdn-a.akamaihd.net/steamcommunity/public/images/apps/209520/bf08394b68e1106e0ec19dbad4b830a637555373.jpg",
    "icongray": "https://steamcdn-a.akamaihd.net/steamcommunity/public/images/apps/209520/857ee24c7075bcd9bfe39419f78ece0c0256ba64.jpg"
  },
  {
    "name": "MONEYBAGS",
    "defaultvalue": 0,
    "displayName": "Moneybags",
    "hidden": 0,
    "description": "Have at least $100,000 career cash",
    "icon": "https://steamcdn-a.akamaihd.net/steamcommunity/public/images/apps/209520/da95e817719f15b356c098191a9648d2b3d0326f.jpg",
    "icongray": "https://steamcdn-a.akamaihd.net/steamcommunity/public/images/apps/209520/f2e4924ff2dbd47938c0b1bb79a232e26c137972.jpg"
  },
  {
    "name": "COLLECTOR",
    "defaultvalue": 0,
    "displayName": "Collector",
    "hidden": 0,
    "description": "Unlock all the cars",
    "icon": "https://steamcdn-a.akamaihd.net/steamcommunity/public/images/apps/209520/c480ee56cedefb6dfac871de79f926c40fe95aad.jpg",
    "icongray": "https://steamcdn-a.akamaihd.net/steamcommunity/public/images/apps/209520/db5812272dd207125e8ecf7772bade58c01c5062.jpg"
  },
  {
    "name": "GREAT_SCOTT",
    "defaultvalue": 0,
    "displayName": "Great Scott!",
    "hidden": 0,
    "description": "Complete the Beginner Championship",
    "icon": "https://steamcdn-a.akamaihd.net/steamcommunity/public/images/apps/209520/a950d0cbc23acdc6414f347908dbea8b970ae12b.jpg",
    "icongray": "https://steamcdn-a.akamaihd.net/steamcommunity/public/images/apps/209520/600458851c9972b7d0367e21c2c875e13d915050.jpg"
  },
  {
    "name": "VICTORY",
    "defaultvalue": 0,
    "displayName": "Victory!",
    "hidden": 0,
    "description": "Complete the Team Fortress 2 Cup",
    "icon": "https://steamcdn-a.akamaihd.net/steamcommunity/public/images/apps/209520/1cf6273dd1aa09742e7ebfd5576083589bd9eda8.jpg",
    "icongray": "https://steamcdn-a.akamaihd.net/steamcommunity/public/images/apps/209520/72efe25dac1c967bf25e9aa3670cca6c17cb1879.jpg"
  },
  {
    "name": "TOURISMO",
    "defaultvalue": 0,
    "displayName": "Tourismo",
    "hidden": 0,
    "description": "Complete the Intermediate Championship",
    "icon": "https://steamcdn-a.akamaihd.net/steamcommunity/public/images/apps/209520/87a9eb0bd6c2fb1e354048787c1ede335ec1d56f.jpg",
    "icongray": "https://steamcdn-a.akamaihd.net/steamcommunity/public/images/apps/209520/0dd516d4ed1f8b925a0548bcd80eabc411cb859d.jpg"
  },
  {
    "name": "FOR_SCIENCE",
    "defaultvalue": 0,
    "displayName": "For Science",
    "hidden": 0,
    "description": "Complete the Aperture Science Cup",
    "icon": "https://steamcdn-a.akamaihd.net/steamcommunity/public/images/apps/209520/14a8917526b571419567f4f1a9450dfd8effa652.jpg",
    "icongray": "https://steamcdn-a.akamaihd.net/steamcommunity/public/images/apps/209520/d9d2af0f8e8019d947d3c030f84c942d495f5827.jpg"
  },
  {
    "name": "HELL_ON_WHEELS",
    "defaultvalue": 0,
    "displayName": "Hell On Wheels",
    "hidden": 0,
    "description": "Complete the Expert Championship",
    "icon": "https://steamcdn-a.akamaihd.net/steamcommunity/public/images/apps/209520/93453375b47dd3ad029a85928d3a5640a908318f.jpg",
    "icongray": "https://steamcdn-a.akamaihd.net/steamcommunity/public/images/apps/209520/7acf74266cb4e25dd8b5248dd79fbbd51097f4cf.jpg"
  },
  {
    "name": "HO_HO_HO",
    "defaultvalue": 0,
    "displayName": "Ho! Ho! Ho!",
    "hidden": 0,
    "description": "Complete the Master Championship",
    "icon": "https://steamcdn-a.akamaihd.net/steamcommunity/public/images/apps/209520/cb976c4c5bb257038393e8cfad900ddd50a0c341.jpg",
    "icongray": "https://steamcdn-a.akamaihd.net/steamcommunity/public/images/apps/209520/3fcf2eb9e9a240ce04b8c982ab370d2e2e62be4c.jpg"
  },
  {
    "name": "TOURER",
    "defaultvalue": 0,
    "displayName": "Tourer",
    "hidden": 0,
    "description": "Complete a multiplayer race",
    "icon": "https://steamcdn-a.akamaihd.net/steamcommunity/public/images/apps/209520/e771df45eff42401d60bc8deea37a7cbe729931c.jpg",
    "icongray": "https://steamcdn-a.akamaihd.net/steamcommunity/public/images/apps/209520/dd8cd6ff8b2a1c49f8addd86fae25eee8452b2f5.jpg"
  },
  {
    "name": "PWNAGE",
    "defaultvalue": 0,
    "displayName": "Pwnage",
    "hidden": 0,
    "description": "Win a multiplayer race",
    "icon": "https://steamcdn-a.akamaihd.net/steamcommunity/public/images/apps/209520/cc1b81e58c7008fc9747c5952879e50c7a466170.jpg",
    "icongray": "https://steamcdn-a.akamaihd.net/steamcommunity/public/images/apps/209520/1ad0341ed849396efd17e313c24f7e95a127295c.jpg"
  },
  {
    "name": "JUICY",
    "defaultvalue": 0,
    "displayName": "Juicy!",
    "hidden": 0,
    "description": "Complete the Fruit Ninja Cup",
    "icon": "https://steamcdn-a.akamaihd.net/steamcommunity/public/images/apps/209520/536dfbe5c58da1dfe826532d186afdb38c28bdc3.jpg",
    "icongray": "https://steamcdn-a.akamaihd.net/steamcommunity/public/images/apps/209520/9f29c285621e11d8513062984461527b0014ba4f.jpg"
  }
]