﻿[
  {
    "name": "COLLECTOR_STAT",
    "defaultvalue": 0,
    "displayName": "Cars Unlocked"
  },
  {
    "name": "CHAMPION_BEGINNER_STAT",
    "defaultvalue": 0,
    "displayName": "Beginner Championship progress"
  },
  {
    "name": "CHAMPION_INTERMEDIATE_STAT",
    "defaultvalue": 0,
    "displayName": "Intermediate Championship progress"
  },
  {
    "name": "CHAMPION_EXPERT_STAT",
    "defaultvalue": 0,
    "displayName": "Expert Championship progress"
  },
  {
    "name": "CHAMPION_MASTER_STAT",
    "defaultvalue": 0,
    "displayName": "Master Championship progress"
  },
  {
    "name": "MASTER_STAT",
    "defaultvalue": 0,
    "displayName": "Total Championship progress"
  },
  {
    "name": "CUP_GET_STAT",
    "defaultvalue": 0,
    "displayName": "First four race win progress"
  }
]