﻿{
  "Dlcs": {},
  "Name": "Taken Souls: Blood Ritual Collector's Edition",
  "AppId": "586930",
  "ImageUrl": "https://steamcdn-a.akamaihd.net/steam/apps/586930/header.jpg?t=1486122777",
  "Languages": [
    "english"
  ],
  "Platforms": {
    "windows": true,
    "mac": false,
    "linux": false
  }
}