﻿[
  {
    "name": "A1",
    "defaultvalue": 0,
    "displayName": "GUN BABY",
    "hidden": 0,
    "description": "find the shotgun",
    "icon": "https://steamcdn-a.akamaihd.net/steamcommunity/public/images/apps/522940/6bec48dcf8bca4d2f5966e11e8d528295971e8f4.jpg",
    "icongray": "https://steamcdn-a.akamaihd.net/steamcommunity/public/images/apps/522940/c3f7fe826b7d007e7ac93a4606e2e777d52ce01a.jpg"
  },
  {
    "name": "A2",
    "defaultvalue": 0,
    "displayName": "GUN TEEN",
    "hidden": 0,
    "description": "find the minigun",
    "icon": "https://steamcdn-a.akamaihd.net/steamcommunity/public/images/apps/522940/12a51b040d561bbdba84a8a3dd9e752060e23344.jpg",
    "icongray": "https://steamcdn-a.akamaihd.net/steamcommunity/public/images/apps/522940/24eedd864574ba02fc67fc7e16232dee690ec262.jpg"
  },
  {
    "name": "A3",
    "defaultvalue": 0,
    "displayName": "GUN ADULT",
    "hidden": 0,
    "description": "find the bazooka",
    "icon": "https://steamcdn-a.akamaihd.net/steamcommunity/public/images/apps/522940/525f00a676e555f1810f0d1ef2bb58a0c828208f.jpg",
    "icongray": "https://steamcdn-a.akamaihd.net/steamcommunity/public/images/apps/522940/7bde9e03030f8968188910a57012cbbc28066131.jpg"
  },
  {
    "name": "A4",
    "defaultvalue": 0,
    "displayName": "GUN GOD",
    "hidden": 0,
    "description": "gun a god",
    "icon": "https://steamcdn-a.akamaihd.net/steamcommunity/public/images/apps/522940/a3bc0ac1e54df28a80e192c52e8384d1b3bf0a97.jpg",
    "icongray": "https://steamcdn-a.akamaihd.net/steamcommunity/public/images/apps/522940/5277ff3538e49bb17e5e3733eadeedd1665aa709.jpg"
  },
  {
    "name": "A5",
    "defaultvalue": 0,
    "displayName": "SHANK GOD",
    "hidden": 1,
    "icon": "https://steamcdn-a.akamaihd.net/steamcommunity/public/images/apps/522940/c679ef77254c03c557497cb5ac5b3a627e448058.jpg",
    "icongray": "https://steamcdn-a.akamaihd.net/steamcommunity/public/images/apps/522940/0c21ddfe09b454deee7f36247573ece9a303a5fb.jpg"
  },
  {
    "name": "A6",
    "defaultvalue": 0,
    "displayName": "YUNG MONEY",
    "hidden": 0,
    "description": "find half the triangles",
    "icon": "https://steamcdn-a.akamaihd.net/steamcommunity/public/images/apps/522940/5621e102632db7775ec7097e7a4fec7ed7dbc621.jpg",
    "icongray": "https://steamcdn-a.akamaihd.net/steamcommunity/public/images/apps/522940/4e7dc3a607209c69e60b92f091f5264dc39d94cc.jpg"
  },
  {
    "name": "A7",
    "defaultvalue": 0,
    "displayName": "YUNG VENUZ",
    "hidden": 0,
    "description": "find all the triangles",
    "icon": "https://steamcdn-a.akamaihd.net/steamcommunity/public/images/apps/522940/df3c4f1f5842a8ba7a1dcfe24d8241afed42081b.jpg",
    "icongray": "https://steamcdn-a.akamaihd.net/steamcommunity/public/images/apps/522940/08abfb85b00f3bec5d21e3b8908925feddd9b403.jpg"
  },
  {
    "name": "A8",
    "defaultvalue": 0,
    "displayName": "NO SNITCHEZ",
    "hidden": 0,
    "description": "kill first boss",
    "icon": "https://steamcdn-a.akamaihd.net/steamcommunity/public/images/apps/522940/cd61837797f32064cee2a541c0706f7bdf4793ec.jpg",
    "icongray": "https://steamcdn-a.akamaihd.net/steamcommunity/public/images/apps/522940/8399dd50a7c2eb5da55626b83cc23f343e50a800.jpg"
  }
]