﻿{
  "Dlcs": {
    "373450": {
      "Name": "UFHO2 - Game Soundtrack",
      "ImageUrl": "https://steamcdn-a.akamaihd.net/steam/apps/373450/header.jpg?t=1447375171"
    },
    "374180": {
      "Name": "UFHO2 - Making Of & Extras",
      "ImageUrl": "https://steamcdn-a.akamaihd.net/steam/apps/374180/header.jpg?t=1447375333"
    }
  },
  "Name": "UFHO2",
  "AppId": "348840",
  "ImageUrl": "https://steamcdn-a.akamaihd.net/steam/apps/348840/header.jpg?t=1465417866",
  "Languages": [
    "english"
  ],
  "Platforms": {
    "windows": true,
    "mac": true,
    "linux": true
  }
}