﻿[
  {
    "name": "unlock_base_chars",
    "defaultvalue": 0,
    "displayName": "Good Fellas",
    "hidden": 0,
    "description": "Unlock all 4 original alien races",
    "icon": "https://steamcdn-a.akamaihd.net/steamcommunity/public/images/apps/348840/af349004d9a7e28a70642cff72c5edf4a83f0d4d.jpg",
    "icongray": "https://steamcdn-a.akamaihd.net/steamcommunity/public/images/apps/348840/f2f95eb587cd42baaa54fce5a954ac361f7e9fea.jpg"
  },
  {
    "name": "unlock_cortex",
    "defaultvalue": 0,
    "displayName": "A Big Brain",
    "hidden": 0,
    "description": "Unlock the Cortex from Cortex Command",
    "icon": "https://steamcdn-a.akamaihd.net/steamcommunity/public/images/apps/348840/4204eb97a7fc6bd0f9e1fcd8e6f92e63b3fbe661.jpg",
    "icongray": "https://steamcdn-a.akamaihd.net/steamcommunity/public/images/apps/348840/56b4207b54651c0005a75f6fcb70a1b8b13679bc.jpg"
  },
  {
    "name": "unlock_hexabot",
    "defaultvalue": 0,
    "displayName": "Drill and Circuits",
    "hidden": 0,
    "description": "Unlock the Hexabot from Blocks That Matter",
    "icon": "https://steamcdn-a.akamaihd.net/steamcommunity/public/images/apps/348840/5b08499e6d2b77643d133b48cc813ca12d2a168f.jpg",
    "icongray": "https://steamcdn-a.akamaihd.net/steamcommunity/public/images/apps/348840/c9df34f7c9d8bdae6f8e3f0fd191a4163f8b14b5.jpg"
  },
  {
    "name": "unlock_commander",
    "defaultvalue": 0,
    "displayName": "The Creator",
    "hidden": 0,
    "description": "Unlock the Commander from Bit.Trip",
    "icon": "https://steamcdn-a.akamaihd.net/steamcommunity/public/images/apps/348840/33c3efacf0fc3695374028ed4c57fb68f7ebcc7d.jpg",
    "icongray": "https://steamcdn-a.akamaihd.net/steamcommunity/public/images/apps/348840/de023e1dafd95f5e47a8b1fc48b7d7661395bbb5.jpg"
  },
  {
    "name": "unlock_critter",
    "defaultvalue": 0,
    "displayName": "Green Pests",
    "hidden": 0,
    "description": "Unlock the Critters from Super Crate Box",
    "icon": "https://steamcdn-a.akamaihd.net/steamcommunity/public/images/apps/348840/44fa47bcd5fddd02f12db4d397969c188b6932d4.jpg",
    "icongray": "https://steamcdn-a.akamaihd.net/steamcommunity/public/images/apps/348840/a3263bed8eed5c7d759ace5a90cf0e4163267ea4.jpg"
  },
  {
    "name": "unlock_gish",
    "defaultvalue": 0,
    "displayName": "Hard Pudding",
    "hidden": 0,
    "description": "Unlock Gish from the Gish",
    "icon": "https://steamcdn-a.akamaihd.net/steamcommunity/public/images/apps/348840/0c46b9d41b36c26a63086cb5ba68c0dd6f3368ef.jpg",
    "icongray": "https://steamcdn-a.akamaihd.net/steamcommunity/public/images/apps/348840/b3c24bd730708a811f4bdd3bad50a656947310af.jpg"
  },
  {
    "name": "unlock_gooo",
    "defaultvalue": 0,
    "displayName": "Born Builder",
    "hidden": 0,
    "description": "Unlock Gooo from World of Goo",
    "icon": "https://steamcdn-a.akamaihd.net/steamcommunity/public/images/apps/348840/6169443fe98c9b877a8f10e0462e0a03d549b492.jpg",
    "icongray": "https://steamcdn-a.akamaihd.net/steamcommunity/public/images/apps/348840/8f2f67bf5beceb9abaf8ab98069ddaaad990f486.jpg"
  },
  {
    "name": "unlock_room_pwups",
    "defaultvalue": 0,
    "displayName": "Claustrophobia",
    "hidden": 0,
    "description": "Unlock all powerups to be used on Rooms",
    "icon": "https://steamcdn-a.akamaihd.net/steamcommunity/public/images/apps/348840/23fd152fe234294c96aa5a131b22beee238f6f07.jpg",
    "icongray": "https://steamcdn-a.akamaihd.net/steamcommunity/public/images/apps/348840/39456e6512afe96ae2e036b9a926def2e10a0ab2.jpg"
  },
  {
    "name": "unlock_sector_pwups",
    "defaultvalue": 0,
    "displayName": "Rotational Disturbs",
    "hidden": 0,
    "description": "Unlock all powerups to be used on Sector gears",
    "icon": "https://steamcdn-a.akamaihd.net/steamcommunity/public/images/apps/348840/9fdb6f552762fda193f776be9d6b49c7b69569e5.jpg",
    "icongray": "https://steamcdn-a.akamaihd.net/steamcommunity/public/images/apps/348840/40b350e965eef89a04b49832b4bbf2cb839dce7e.jpg"
  },
  {
    "name": "unlock_consumable_pwups",
    "defaultvalue": 0,
    "displayName": "Propensity to Consume",
    "hidden": 0,
    "description": "Unlock powerups to be consumed",
    "icon": "https://steamcdn-a.akamaihd.net/steamcommunity/public/images/apps/348840/5552aac421fb6b76a2c9c757742f175b592852d7.jpg",
    "icongray": "https://steamcdn-a.akamaihd.net/steamcommunity/public/images/apps/348840/57887026d594bfe138b6136e89ba93e0c1882718.jpg"
  },
  {
    "name": "unlock_gooy_stages",
    "defaultvalue": 0,
    "displayName": "Familiar Places",
    "hidden": 0,
    "description": "Unlock all stages in Gooy missions",
    "icon": "https://steamcdn-a.akamaihd.net/steamcommunity/public/images/apps/348840/91e0e0530d5622c744d66a1c97a6e073b538bc26.jpg",
    "icongray": "https://steamcdn-a.akamaihd.net/steamcommunity/public/images/apps/348840/82ec0368de3a496cd33b9e882976f94992ecf1e6.jpg"
  },
  {
    "name": "unlock_jeevil_stages",
    "defaultvalue": 0,
    "displayName": "Weird Locations",
    "hidden": 0,
    "description": "Unlock all stages in Jeevil missions",
    "icon": "https://steamcdn-a.akamaihd.net/steamcommunity/public/images/apps/348840/37ac49a3d5b0148258e757e7def26bcaf8cbfa2e.jpg",
    "icongray": "https://steamcdn-a.akamaihd.net/steamcommunity/public/images/apps/348840/10ecb485f77c217a01f92ee5c7706e1d86d28549.jpg"
  },
  {
    "name": "win_easy_challenges",
    "defaultvalue": 0,
    "displayName": "No Problem",
    "hidden": 0,
    "description": "Beat all the Easy Situations",
    "icon": "https://steamcdn-a.akamaihd.net/steamcommunity/public/images/apps/348840/3fc78e795de3c3eff633af886511c113c09f1a6d.jpg",
    "icongray": "https://steamcdn-a.akamaihd.net/steamcommunity/public/images/apps/348840/c8f0369735c76829679eee2fbcaa3d5099331909.jpg"
  },
  {
    "name": "win_medium_challenges",
    "defaultvalue": 0,
    "displayName": "Still no Problem",
    "hidden": 0,
    "description": "Beat all the Medium Situations",
    "icon": "https://steamcdn-a.akamaihd.net/steamcommunity/public/images/apps/348840/e15b3e67d70589294bf150df60e993366ed7e410.jpg",
    "icongray": "https://steamcdn-a.akamaihd.net/steamcommunity/public/images/apps/348840/ccc8a9e4513c68bd3480cc87b355ff86350bb3bc.jpg"
  },
  {
    "name": "win_hard_challenges",
    "defaultvalue": 0,
    "displayName": "That was Close",
    "hidden": 0,
    "description": "Beat all the Hard Situations",
    "icon": "https://steamcdn-a.akamaihd.net/steamcommunity/public/images/apps/348840/cf78aeb0cc64b0bf48861f0acd28cac3afba8658.jpg",
    "icongray": "https://steamcdn-a.akamaihd.net/steamcommunity/public/images/apps/348840/87bc65ad73966d6b6983207fc5ec57bf1029b3dd.jpg"
  },
  {
    "name": "two_gems",
    "defaultvalue": 0,
    "displayName": "Stroke of Luck",
    "hidden": 1,
    "icon": "https://steamcdn-a.akamaihd.net/steamcommunity/public/images/apps/348840/1739f21ebdc90e616eb7818de8f95c1efe380e17.jpg",
    "icongray": "https://steamcdn-a.akamaihd.net/steamcommunity/public/images/apps/348840/d6a16f936948f8bc82a22ef1a9a72d3abd2de561.jpg"
  },
  {
    "name": "two_teleports",
    "defaultvalue": 0,
    "displayName": "Now you See Me",
    "hidden": 1,
    "icon": "https://steamcdn-a.akamaihd.net/steamcommunity/public/images/apps/348840/200ee42c1e2b563e843cf102bba3a7c0ddcf77ad.jpg",
    "icongray": "https://steamcdn-a.akamaihd.net/steamcommunity/public/images/apps/348840/5a7bc01aeef48fadfe03e0e34002a4fa05144561.jpg"
  },
  {
    "name": "two_loopholes",
    "defaultvalue": 0,
    "displayName": "Portal 2",
    "hidden": 1,
    "icon": "https://steamcdn-a.akamaihd.net/steamcommunity/public/images/apps/348840/9d5ce1f66c80ec43954b09c311f3245d6d95b2f7.jpg",
    "icongray": "https://steamcdn-a.akamaihd.net/steamcommunity/public/images/apps/348840/f5a21d9b105f75a0c4df92dbfb7b9be4062f38a2.jpg"
  },
  {
    "name": "first_turn_gem",
    "defaultvalue": 0,
    "displayName": "Nabbed!",
    "hidden": 1,
    "icon": "https://steamcdn-a.akamaihd.net/steamcommunity/public/images/apps/348840/48cf6f1f3090f67bf3e14f6e350f6a4332b2c93b.jpg",
    "icongray": "https://steamcdn-a.akamaihd.net/steamcommunity/public/images/apps/348840/abea9025189f05f451e96766649b2b0ba869662a.jpg"
  },
  {
    "name": "hundred_gems",
    "defaultvalue": 0,
    "displayName": "Polished Stones",
    "hidden": 1,
    "icon": "https://steamcdn-a.akamaihd.net/steamcommunity/public/images/apps/348840/44f8306227fa1c6044f31518a948166f6954a363.jpg",
    "icongray": "https://steamcdn-a.akamaihd.net/steamcommunity/public/images/apps/348840/0d3bba379edb601fa29ad441c32541f641978e96.jpg"
  },
  {
    "name": "three_hundred_gems",
    "defaultvalue": 0,
    "displayName": "Shiny Pieces",
    "hidden": 1,
    "icon": "https://steamcdn-a.akamaihd.net/steamcommunity/public/images/apps/348840/cb67efdab364714925c678326328adcf2603681e.jpg",
    "icongray": "https://steamcdn-a.akamaihd.net/steamcommunity/public/images/apps/348840/0f085d66bcc4f758475436b504f1112403c9788d.jpg"
  },
  {
    "name": "thirty_matches",
    "defaultvalue": 0,
    "displayName": "Thirty is Company",
    "hidden": 1,
    "icon": "https://steamcdn-a.akamaihd.net/steamcommunity/public/images/apps/348840/87ec3a93dc39d96861ea4684648645b0045637b9.jpg",
    "icongray": "https://steamcdn-a.akamaihd.net/steamcommunity/public/images/apps/348840/bc3d63f36484006cab4558c0c28c89a0aecda3af.jpg"
  },
  {
    "name": "hundred_matches",
    "defaultvalue": 0,
    "displayName": "A Hundred Times",
    "hidden": 1,
    "icon": "https://steamcdn-a.akamaihd.net/steamcommunity/public/images/apps/348840/4f089a619bbf21f1892bc05f07c5e332d9f066f9.jpg",
    "icongray": "https://steamcdn-a.akamaihd.net/steamcommunity/public/images/apps/348840/dfad3ebd2159249f5b767cc423076eb8183d4ecf.jpg"
  },
  {
    "name": "storymode_complete",
    "defaultvalue": 0,
    "displayName": "It's all Over",
    "hidden": 0,
    "description": "Complete the Story Mode",
    "icon": "https://steamcdn-a.akamaihd.net/steamcommunity/public/images/apps/348840/e87ea5d4dd605c3d11a5b7d8d6770228fcc917bb.jpg",
    "icongray": "https://steamcdn-a.akamaihd.net/steamcommunity/public/images/apps/348840/591c85f56ca4d7a77317d2c536555747ab5dd43c.jpg"
  }
]