﻿{
  "Dlcs": {},
  "Name": "Spire of Sorcery – Character Generator",
  "AppId": "893560",
  "ImageUrl": "https://steamcdn-a.akamaihd.net/steam/apps/893560/header.jpg?t=1575297528",
  "Languages": [
    "english",
    "russian",
    "japanese",
    "korean",
    "schinese"
  ],
  "Platforms": {
    "windows": true,
    "mac": false,
    "linux": false
  }
}