﻿{
  "Dlcs": {},
  "Name": "Breach of Contract Online",
  "AppId": "681160",
  "ImageUrl": "https://steamcdn-a.akamaihd.net/steam/apps/681160/header.jpg?t=1517500436",
  "Languages": [
    "english"
  ],
  "Platforms": {
    "windows": true,
    "mac": false,
    "linux": false
  }
}