﻿[
  {
    "name": "stat_battles_played",
    "defaultvalue": 0,
    "displayName": "Battles played"
  },
  {
    "name": "SKIRMISHES_PLAYED",
    "defaultvalue": 0,
    "displayName": "Skirmish mode battles"
  },
  {
    "name": "SKIRMISHES_WON",
    "defaultvalue": 0,
    "displayName": "Skirmish mode battles completed"
  },
  {
    "name": "TUTORIALS_COMPLETED",
    "defaultvalue": 0,
    "displayName": "Tutorials completed"
  },
  {
    "name": "ENEMY_SHIPS_DESTROYED",
    "defaultvalue": 0,
    "displayName": "Enemy player ships destroyed"
  },
  {
    "name": "ENEMY_DEFS_DESTROYED",
    "defaultvalue": 0,
    "displayName": "Enemy defenders destroyed"
  },
  {
    "name": "TURRETS_CAPTURED",
    "defaultvalue": 0,
    "displayName": "Turrets captured"
  },
  {
    "name": "IRRADIATED_DEATHS",
    "defaultvalue": 0,
    "displayName": "Deaths in radiation"
  }
]