﻿[
  {
    "name": "DieCount",
    "defaultvalue": 0,
    "displayName": "Times died"
  },
  {
    "name": "PickupCount",
    "defaultvalue": 0,
    "displayName": "Pickups collected"
  },
  {
    "name": "ShieldCount",
    "defaultvalue": 0,
    "displayName": "Shileds collected"
  }
]