﻿[
  {
    "name": "stat.collection.orbs",
    "defaultvalue": 0,
    "displayName": "Orb Collector"
  },
  {
    "name": "stat.collection.gems",
    "defaultvalue": 0,
    "displayName": "Gem Hoarder"
  },
  {
    "name": "stat.collection.keys",
    "defaultvalue": 0,
    "displayName": "Keymaster"
  },
  {
    "name": "stat.collection.health",
    "defaultvalue": 0,
    "displayName": "Health Nut"
  },
  {
    "name": "stat.collection.magic",
    "defaultvalue": 0,
    "displayName": "Master of Magic"
  },
  {
    "name": "stat.collection.medals",
    "defaultvalue": 0,
    "displayName": "Decorated"
  },
  {
    "name": "stat.collection.books",
    "defaultvalue": 0,
    "displayName": "Head Librarian"
  },
  {
    "name": "stat.collection.recipes",
    "defaultvalue": 0,
    "displayName": "Masterchef"
  },
  {
    "name": "stat.collection.rewards",
    "defaultvalue": 0,
    "displayName": "Power Cooker"
  },
  {
    "name": "stat.collection.crystals",
    "defaultvalue": 0,
    "displayName": "Crystal Keeper"
  },
  {
    "name": "stat.collection.percent",
    "defaultvalue": 0,
    "displayName": "Percent Complete"
  }
]