﻿{
  "Dlcs": {},
  "Name": "Damnation City of Death",
  "AppId": "346800",
  "ImageUrl": "https://steamcdn-a.akamaihd.net/steam/apps/346800/header.jpg?t=1498136601",
  "Languages": [
    "english",
    "finnish",
    "russian",
    "swedish"
  ],
  "Platforms": {
    "windows": true,
    "mac": false,
    "linux": false
  }
}