﻿[
  {
    "name": "WIN_GAME",
    "defaultvalue": 0,
    "displayName": "Taking The Egg",
    "hidden": 0,
    "description": "Win a game",
    "icon": "https://steamcdn-a.akamaihd.net/steamcommunity/public/images/apps/638070/e4e492a4f91d808d6dd493fc4daac28f674b1027.jpg",
    "icongray": "https://steamcdn-a.akamaihd.net/steamcommunity/public/images/apps/638070/6bb19e747b2907cd98251ea43950f382c1fc58e7.jpg"
  },
  {
    "name": "WIN_GAME_100",
    "defaultvalue": 0,
    "displayName": "Skilamalink",
    "hidden": 0,
    "description": "Win 100 games",
    "icon": "https://steamcdn-a.akamaihd.net/steamcommunity/public/images/apps/638070/56e4d4bd247efc05e926361ab051c8b5b81a85e8.jpg",
    "icongray": "https://steamcdn-a.akamaihd.net/steamcommunity/public/images/apps/638070/da3cb945fc6877c7dd77e1ab1875d394b87d0b55.jpg"
  },
  {
    "name": "WIN_GAME_NODEATHS",
    "defaultvalue": 0,
    "displayName": "Back Slang It!",
    "hidden": 0,
    "description": "Win a game without being killed",
    "icon": "https://steamcdn-a.akamaihd.net/steamcommunity/public/images/apps/638070/5193035145c0a3bfe11cc9cff4b9d60539b4c640.jpg",
    "icongray": "https://steamcdn-a.akamaihd.net/steamcommunity/public/images/apps/638070/af07c4aff35a1f626d7213e0e40ba7314595ec5f.jpg"
  },
  {
    "name": "KILL_QUARRY_25",
    "defaultvalue": 0,
    "displayName": "Batty-Fang",
    "hidden": 0,
    "description": "Kill 25 Quarries",
    "icon": "https://steamcdn-a.akamaihd.net/steamcommunity/public/images/apps/638070/f3b4aef28c0e8cb5888b3973bdd5ec9b9f5764ed.jpg",
    "icongray": "https://steamcdn-a.akamaihd.net/steamcommunity/public/images/apps/638070/7502377ec60b0e31fb00787b6541e5413eb2b1b6.jpg"
  },
  {
    "name": "KILL_QUARRY_250",
    "defaultvalue": 0,
    "displayName": "Out on a benjo",
    "hidden": 0,
    "description": "Kill 250 Quarries",
    "icon": "https://steamcdn-a.akamaihd.net/steamcommunity/public/images/apps/638070/258e23893a769bb116d908518ced78408bc62782.jpg",
    "icongray": "https://steamcdn-a.akamaihd.net/steamcommunity/public/images/apps/638070/2b62021d9b7ea745bb4c430618c0759aa21978cc.jpg"
  },
  {
    "name": "KILL_QUARRY_2500",
    "defaultvalue": 0,
    "displayName": "Dead As A Doornail",
    "hidden": 0,
    "description": "Kill 1000 Quarries",
    "icon": "https://steamcdn-a.akamaihd.net/steamcommunity/public/images/apps/638070/455e657a1cfa994f8997f50025a184d3ed2d206d.jpg",
    "icongray": "https://steamcdn-a.akamaihd.net/steamcommunity/public/images/apps/638070/128e52c7115f8492f080b7c63fffc01abcbe66c6.jpg"
  },
  {
    "name": "KILL_QUARRY_MAXBONUS",
    "defaultvalue": 0,
    "displayName": "Butter Upon Bacon",
    "hidden": 0,
    "description": "Kill a Quarry with a five star weapon and gain all bonuses",
    "icon": "https://steamcdn-a.akamaihd.net/steamcommunity/public/images/apps/638070/780dfe0db58491474e9a25901f66fe2bc7b0c355.jpg",
    "icongray": "https://steamcdn-a.akamaihd.net/steamcommunity/public/images/apps/638070/5db0a0229064051e46e7c9422cb9b45ab9e30667.jpg"
  },
  {
    "name": "KILL_HUNTER_25",
    "defaultvalue": 0,
    "displayName": "Chucked Up Their Bunch O'Fives",
    "hidden": 0,
    "description": "Stun 25 Hunters",
    "icon": "https://steamcdn-a.akamaihd.net/steamcommunity/public/images/apps/638070/5fbbad2d79e73f33d681ff794d6b7899a348745d.jpg",
    "icongray": "https://steamcdn-a.akamaihd.net/steamcommunity/public/images/apps/638070/03b544a648ff11d67d36dea26571dc2cf726823e.jpg"
  },
  {
    "name": "KILL_HUNTER_250",
    "defaultvalue": 0,
    "displayName": "A Proper Argol-Bargol",
    "hidden": 0,
    "description": "Stun 250 Hunters",
    "icon": "https://steamcdn-a.akamaihd.net/steamcommunity/public/images/apps/638070/70dadaeac65e121da5056b89a512e79b89030bc3.jpg",
    "icongray": "https://steamcdn-a.akamaihd.net/steamcommunity/public/images/apps/638070/9d9100d76b7e28bfbb47edfbb07ee16568ec6e40.jpg"
  },
  {
    "name": "KILL_HUNTER_2500",
    "defaultvalue": 0,
    "displayName": "A Right Ol'Collie Shangle",
    "hidden": 0,
    "description": "Stun 1000 Hunters",
    "icon": "https://steamcdn-a.akamaihd.net/steamcommunity/public/images/apps/638070/64c83c5f005310a026f8f58f420c273fb3ddb0ec.jpg",
    "icongray": "https://steamcdn-a.akamaihd.net/steamcommunity/public/images/apps/638070/563288dfbf09ba3959a886d229884d856ae21d56.jpg"
  },
  {
    "name": "ABILITY_COUNTER_100",
    "defaultvalue": 0,
    "displayName": "Too Afternoonified For Them",
    "hidden": 0,
    "description": "Counter 100 Quarries or Hunters",
    "icon": "https://steamcdn-a.akamaihd.net/steamcommunity/public/images/apps/638070/6776310f81715df392022275afdc6587156f629f.jpg",
    "icongray": "https://steamcdn-a.akamaihd.net/steamcommunity/public/images/apps/638070/c7cf58fdfdcacb89c7a088f25cb3e0e9f2d0821f.jpg"
  },
  {
    "name": "ABILITY_FLASH_100",
    "defaultvalue": 0,
    "displayName": "Arf'Arf'An'Arf",
    "hidden": 0,
    "description": "Flash 100 Quarries or Hunters",
    "icon": "https://steamcdn-a.akamaihd.net/steamcommunity/public/images/apps/638070/b8ee1829ecccac8a7449fc1744e66dca15486b7b.jpg",
    "icongray": "https://steamcdn-a.akamaihd.net/steamcommunity/public/images/apps/638070/2367dc6d7594b26c3e02e8a9871928d55610a195.jpg"
  },
  {
    "name": "ABILITY_HUMILIATE_100",
    "defaultvalue": 0,
    "displayName": "All Poked Up",
    "hidden": 0,
    "description": "Humiliate 100 Quarries",
    "icon": "https://steamcdn-a.akamaihd.net/steamcommunity/public/images/apps/638070/6d7fd6d62d2f664595621034b7dd20d262dc671d.jpg",
    "icongray": "https://steamcdn-a.akamaihd.net/steamcommunity/public/images/apps/638070/99cf8da7ea25e56645bac57b7bc89c93ce263612.jpg"
  },
  {
    "name": "ABILITY_DISGUISE_100",
    "defaultvalue": 0,
    "displayName": "The Phantom Of Whitechapel",
    "hidden": 0,
    "description": "Kill 100 Quarries or Hunters while disguised",
    "icon": "https://steamcdn-a.akamaihd.net/steamcommunity/public/images/apps/638070/ff5201a0e7ae5768297e67958cd0025288caa179.jpg",
    "icongray": "https://steamcdn-a.akamaihd.net/steamcommunity/public/images/apps/638070/ad68ada04c6e44fb56c0f8409235da334a19e984.jpg"
  },
  {
    "name": "ABILITY_REVEAL_100",
    "defaultvalue": 0,
    "displayName": "Don't Sell Me The Dog",
    "hidden": 0,
    "description": "Reveal 100 Quarries or Hunters",
    "icon": "https://steamcdn-a.akamaihd.net/steamcommunity/public/images/apps/638070/7acb3f28628f0df78c3143d68a51550e8c22c247.jpg",
    "icongray": "https://steamcdn-a.akamaihd.net/steamcommunity/public/images/apps/638070/259821484141c99914d1a84ddcafa105b740ae77.jpg"
  },
  {
    "name": "WIN_GAME_ALLARCHETYPES",
    "defaultvalue": 0,
    "displayName": "Bang Up The Elephant",
    "hidden": 0,
    "description": "Win a game with each character",
    "icon": "https://steamcdn-a.akamaihd.net/steamcommunity/public/images/apps/638070/3fe32b1dc4b60bc88245d9c1f7509a835a8c302e.jpg",
    "icongray": "https://steamcdn-a.akamaihd.net/steamcommunity/public/images/apps/638070/6fe604d63fa0835030764a6067e8bf93740f6564.jpg"
  },
  {
    "name": "ABILITY_HUMILIATE_NEARBYHUNTER",
    "defaultvalue": 0,
    "displayName": "Bricky",
    "hidden": 0,
    "description": "Humiliate a Quarry while a Hunter is nearby",
    "icon": "https://steamcdn-a.akamaihd.net/steamcommunity/public/images/apps/638070/2f924d8e155655b9916e1f66ff41cd9903baca2b.jpg",
    "icongray": "https://steamcdn-a.akamaihd.net/steamcommunity/public/images/apps/638070/d818a12aa26cebaba44fd6af49fc5fd2179db6f8.jpg"
  },
  {
    "name": "ABILITY_COUNTER_NEARBYGUARD",
    "defaultvalue": 0,
    "displayName": "Blind-Eyed Mutton Shunter",
    "hidden": 0,
    "description": "Kill a Quarry or stun a Hunter while a nearby guard is distracted",
    "icon": "https://steamcdn-a.akamaihd.net/steamcommunity/public/images/apps/638070/6385ac1a392b87bb6bc1d5e7a706ae8c51582db0.jpg",
    "icongray": "https://steamcdn-a.akamaihd.net/steamcommunity/public/images/apps/638070/7fea54a58b15aad7b2b774327d46fdfc47ccc3df.jpg"
  },
  {
    "name": "KILL_QUARRY_REVEALED",
    "defaultvalue": 0,
    "displayName": "Elementary My Dear",
    "hidden": 0,
    "description": "Reveal and kill a Quarry",
    "icon": "https://steamcdn-a.akamaihd.net/steamcommunity/public/images/apps/638070/48c7beedba2c0b98dedd2bb3d56cbb90f676c06f.jpg",
    "icongray": "https://steamcdn-a.akamaihd.net/steamcommunity/public/images/apps/638070/65e7c294293b3f0fc8943afc04027e7dde3242f1.jpg"
  },
  {
    "name": "VIGNETTE_EAT_1897",
    "defaultvalue": 0,
    "displayName": "Pies Of Fleet Street",
    "hidden": 0,
    "description": "Eat 1897 pies",
    "icon": "https://steamcdn-a.akamaihd.net/steamcommunity/public/images/apps/638070/804d2a34686e34c6537fd3aeebcf1db39b6a748f.jpg",
    "icongray": "https://steamcdn-a.akamaihd.net/steamcommunity/public/images/apps/638070/7dc22292e0b0ac9d14d7aa659b9a212844459267.jpg"
  },
  {
    "name": "FAVOUR_ADMIRAL_1",
    "defaultvalue": 0,
    "displayName": "Maverick",
    "hidden": 0,
    "description": "Earn 100 Favour as the Admiral",
    "icon": "https://steamcdn-a.akamaihd.net/steamcommunity/public/images/apps/638070/da4e1890a4463b8a0a70c678b037f2ae54cc6307.jpg",
    "icongray": "https://steamcdn-a.akamaihd.net/steamcommunity/public/images/apps/638070/25909d2a17210701ee2bb453114f2d2117f47a1c.jpg"
  },
  {
    "name": "FAVOUR_ADMIRAL_2",
    "defaultvalue": 0,
    "displayName": "Wellington",
    "hidden": 0,
    "description": "Earn 250 Favour as the Admiral",
    "icon": "https://steamcdn-a.akamaihd.net/steamcommunity/public/images/apps/638070/6fd4b664d76148af4992d300066611b809c0cd3b.jpg",
    "icongray": "https://steamcdn-a.akamaihd.net/steamcommunity/public/images/apps/638070/f5e3658be8d0cfb9c98623126d750b5fee4cfc8b.jpg"
  },
  {
    "name": "FAVOUR_ADMIRAL_3",
    "defaultvalue": 0,
    "displayName": "Queen's Guard",
    "hidden": 0,
    "description": "Earn 500 Favour as the Admiral",
    "icon": "https://steamcdn-a.akamaihd.net/steamcommunity/public/images/apps/638070/2f316196bcd7f28fa2c25753ac6455eb4ca697c6.jpg",
    "icongray": "https://steamcdn-a.akamaihd.net/steamcommunity/public/images/apps/638070/4900ab369b92b0beaf71a12a2399a30a66a11155.jpg"
  },
  {
    "name": "FAVOUR_ASSASSIN_1",
    "defaultvalue": 0,
    "displayName": "Sea Breeze",
    "hidden": 0,
    "description": "Earn 100 Favour as the Assassin",
    "icon": "https://steamcdn-a.akamaihd.net/steamcommunity/public/images/apps/638070/2ea0c9a5ad29304003f9d2fa7ee52e5b55e110c6.jpg",
    "icongray": "https://steamcdn-a.akamaihd.net/steamcommunity/public/images/apps/638070/5e0ed7341eca616bf200c4cb5cfb2e580c155bfb.jpg"
  },
  {
    "name": "FAVOUR_ASSASSIN_2",
    "defaultvalue": 0,
    "displayName": "Cherry Blossom",
    "hidden": 0,
    "description": "Earn 250 Favour as the Assassin",
    "icon": "https://steamcdn-a.akamaihd.net/steamcommunity/public/images/apps/638070/66d573572fc2df1c5ee6585bcfff94e6822b8bd6.jpg",
    "icongray": "https://steamcdn-a.akamaihd.net/steamcommunity/public/images/apps/638070/16657dc96a9faf01f51b024355508202e14b3802.jpg"
  },
  {
    "name": "FAVOUR_ASSASSIN_3",
    "defaultvalue": 0,
    "displayName": "Midnight",
    "hidden": 0,
    "description": "Earn 500 Favour as the Assassin",
    "icon": "https://steamcdn-a.akamaihd.net/steamcommunity/public/images/apps/638070/090a3caa186452eb79ff63a0708e66a86f830e57.jpg",
    "icongray": "https://steamcdn-a.akamaihd.net/steamcommunity/public/images/apps/638070/984a11f0d7d0f2b10e9a4a396afc8452eaab5ad1.jpg"
  },
  {
    "name": "FAVOUR_BRUTE_1",
    "defaultvalue": 0,
    "displayName": "Red Star",
    "hidden": 0,
    "description": "Earn 100 Favour as the Brute",
    "icon": "https://steamcdn-a.akamaihd.net/steamcommunity/public/images/apps/638070/7acca5d1b47ce206bfa9c2772457ac3bf3fe8b6b.jpg",
    "icongray": "https://steamcdn-a.akamaihd.net/steamcommunity/public/images/apps/638070/74b11f91f144939ae282569fcdf77695df089178.jpg"
  },
  {
    "name": "FAVOUR_BRUTE_2",
    "defaultvalue": 0,
    "displayName": "Iron Sickle",
    "hidden": 0,
    "description": "Earn 250 Favour as the Brute",
    "icon": "https://steamcdn-a.akamaihd.net/steamcommunity/public/images/apps/638070/5e162a42af5334a98d4ac0fc03ff776565819a6e.jpg",
    "icongray": "https://steamcdn-a.akamaihd.net/steamcommunity/public/images/apps/638070/c0be4acb3f7bd7cad1652ee3458a68af980656c8.jpg"
  },
  {
    "name": "FAVOUR_BRUTE_3",
    "defaultvalue": 0,
    "displayName": "Motherland",
    "hidden": 0,
    "description": "Earn 500 Favour as the Brute",
    "icon": "https://steamcdn-a.akamaihd.net/steamcommunity/public/images/apps/638070/afc14e313eb9b7c2dd36160af18e7d8690c0822f.jpg",
    "icongray": "https://steamcdn-a.akamaihd.net/steamcommunity/public/images/apps/638070/80641ef648ca7bcc4694fb5acc3797af6575f291.jpg"
  },
  {
    "name": "FAVOUR_DODGER_1",
    "defaultvalue": 0,
    "displayName": "Barrow",
    "hidden": 0,
    "description": "Earn 100 Favour as the Dodger",
    "icon": "https://steamcdn-a.akamaihd.net/steamcommunity/public/images/apps/638070/b137bee08756e3e9f50724ca2193d06ac7be5ed9.jpg",
    "icongray": "https://steamcdn-a.akamaihd.net/steamcommunity/public/images/apps/638070/cff0041a07f74ee798993e9b15e21ae741c9326b.jpg"
  },
  {
    "name": "FAVOUR_DODGER_2",
    "defaultvalue": 0,
    "displayName": "Soot",
    "hidden": 0,
    "description": "Earn 250 Favour as the Dodger",
    "icon": "https://steamcdn-a.akamaihd.net/steamcommunity/public/images/apps/638070/3f008be3d90b57aba9c065370e8c08977b66875c.jpg",
    "icongray": "https://steamcdn-a.akamaihd.net/steamcommunity/public/images/apps/638070/5cfc68ad9de29bd9b49194e98dcc7cd9e0e7b02b.jpg"
  },
  {
    "name": "FAVOUR_DODGER_3",
    "defaultvalue": 0,
    "displayName": "Coal",
    "hidden": 0,
    "description": "Earn 500 Favour as the Dodger",
    "icon": "https://steamcdn-a.akamaihd.net/steamcommunity/public/images/apps/638070/c3b033d0c0905eefb01bc51206993c15391cfb08.jpg",
    "icongray": "https://steamcdn-a.akamaihd.net/steamcommunity/public/images/apps/638070/ecc73fc4d2fa2ca645dc8766e0f6629fe53124b9.jpg"
  },
  {
    "name": "FAVOUR_DOXY_1",
    "defaultvalue": 0,
    "displayName": "Daffodil",
    "hidden": 0,
    "description": "Earn 100 Favour as the Doxy",
    "icon": "https://steamcdn-a.akamaihd.net/steamcommunity/public/images/apps/638070/698e8834f01daf7cafda55f19a966b955c0d944c.jpg",
    "icongray": "https://steamcdn-a.akamaihd.net/steamcommunity/public/images/apps/638070/6f5f6465b199b4426a525d2e202a0ce5bf040564.jpg"
  },
  {
    "name": "FAVOUR_DOXY_2",
    "defaultvalue": 0,
    "displayName": "Lavender",
    "hidden": 0,
    "description": "Earn 250 Favour as the Doxy",
    "icon": "https://steamcdn-a.akamaihd.net/steamcommunity/public/images/apps/638070/05511337aeefaa166af0961dbd0f2fbd66ed17d8.jpg",
    "icongray": "https://steamcdn-a.akamaihd.net/steamcommunity/public/images/apps/638070/bfba2d40bb12dc8c04aa6089fb25c6c97e728ebb.jpg"
  },
  {
    "name": "FAVOUR_DOXY_3",
    "defaultvalue": 0,
    "displayName": "Clover",
    "hidden": 0,
    "description": "Earn 500 Favour as the Doxy",
    "icon": "https://steamcdn-a.akamaihd.net/steamcommunity/public/images/apps/638070/d3acee97f6267745a2c7e4f6c2451248db12df2c.jpg",
    "icongray": "https://steamcdn-a.akamaihd.net/steamcommunity/public/images/apps/638070/66b56bc36c8a1a2475ad594dc2323423a3575649.jpg"
  },
  {
    "name": "FAVOUR_DUCHESS_1",
    "defaultvalue": 0,
    "displayName": "Thistle",
    "hidden": 0,
    "description": "Earn 100 Favour as the Duchess",
    "icon": "https://steamcdn-a.akamaihd.net/steamcommunity/public/images/apps/638070/64654b351e1a50de74e99acda56aa216fe84a3f8.jpg",
    "icongray": "https://steamcdn-a.akamaihd.net/steamcommunity/public/images/apps/638070/1ae2cfe95824784cd51354d1bb80f4f664b0ea6f.jpg"
  },
  {
    "name": "FAVOUR_DUCHESS_2",
    "defaultvalue": 0,
    "displayName": "Munro",
    "hidden": 0,
    "description": "Earn 250 Favour as the Duchess",
    "icon": "https://steamcdn-a.akamaihd.net/steamcommunity/public/images/apps/638070/000f2ed48c55f161d76a17810cc5504965205762.jpg",
    "icongray": "https://steamcdn-a.akamaihd.net/steamcommunity/public/images/apps/638070/f728dfbafb03b8c08fab404c0a6dfeea6f517e69.jpg"
  },
  {
    "name": "FAVOUR_DUCHESS_3",
    "defaultvalue": 0,
    "displayName": "Heather",
    "hidden": 0,
    "description": "Earn 500 Favour as the Duchess",
    "icon": "https://steamcdn-a.akamaihd.net/steamcommunity/public/images/apps/638070/f7e9089046e0167bd76b5ceb5568ae654e9c7097.jpg",
    "icongray": "https://steamcdn-a.akamaihd.net/steamcommunity/public/images/apps/638070/55d11ab58844edf5a86d50b9682596a75bf529a3.jpg"
  },
  {
    "name": "FAVOUR_PRINCE_1",
    "defaultvalue": 0,
    "displayName": "Ruby",
    "hidden": 0,
    "description": "Earn 100 Favour as the Prince",
    "icon": "https://steamcdn-a.akamaihd.net/steamcommunity/public/images/apps/638070/565693fb4f2ad1156aca3faa4227a53d0e8ff8d7.jpg",
    "icongray": "https://steamcdn-a.akamaihd.net/steamcommunity/public/images/apps/638070/68c96c4bad8f3e1bb16ac15c055f91e7138ede0d.jpg"
  },
  {
    "name": "FAVOUR_PRINCE_2",
    "defaultvalue": 0,
    "displayName": "Topaz",
    "hidden": 0,
    "description": "Earn 250 Favour as the Prince",
    "icon": "https://steamcdn-a.akamaihd.net/steamcommunity/public/images/apps/638070/dc0b6d1328a61dbabae96a54c68a00c82af7a4d9.jpg",
    "icongray": "https://steamcdn-a.akamaihd.net/steamcommunity/public/images/apps/638070/19830fbec260ac847f17e72139beaa8d77bdebe6.jpg"
  },
  {
    "name": "FAVOUR_PRINCE_3",
    "defaultvalue": 0,
    "displayName": "Onyx",
    "hidden": 0,
    "description": "Earn 500 Favour as the Prince",
    "icon": "https://steamcdn-a.akamaihd.net/steamcommunity/public/images/apps/638070/3d25aa325c273712ec946badb64efa495f85857b.jpg",
    "icongray": "https://steamcdn-a.akamaihd.net/steamcommunity/public/images/apps/638070/3e55838e397744f2466ffc91094e8c55f91a7e91.jpg"
  },
  {
    "name": "FAVOUR_TRACKER_1",
    "defaultvalue": 0,
    "displayName": "Marsh",
    "hidden": 0,
    "description": "Earn 100 Favour as the Tracker",
    "icon": "https://steamcdn-a.akamaihd.net/steamcommunity/public/images/apps/638070/79b3a559da2e022ceca2cfa3cd9575c7f3a62c22.jpg",
    "icongray": "https://steamcdn-a.akamaihd.net/steamcommunity/public/images/apps/638070/5e2acc86f14f4d188e5159bfe8ed6db101795893.jpg"
  },
  {
    "name": "FAVOUR_TRACKER_2",
    "defaultvalue": 0,
    "displayName": "Forest",
    "hidden": 0,
    "description": "Earn 250 Favour as the Tracker",
    "icon": "https://steamcdn-a.akamaihd.net/steamcommunity/public/images/apps/638070/b3cffbad10cb2e9719fc0a61babda2a2a4f44a63.jpg",
    "icongray": "https://steamcdn-a.akamaihd.net/steamcommunity/public/images/apps/638070/fcde8456f87205ab2ab7b54c729a4ea8347a99d3.jpg"
  },
  {
    "name": "FAVOUR_TRACKER_3",
    "defaultvalue": 0,
    "displayName": "Mountain",
    "hidden": 0,
    "description": "Earn 500 Favour as the Tracker",
    "icon": "https://steamcdn-a.akamaihd.net/steamcommunity/public/images/apps/638070/43f7eca2eb170dd4a659f2823d2ac8e5cb9f7e69.jpg",
    "icongray": "https://steamcdn-a.akamaihd.net/steamcommunity/public/images/apps/638070/c1f6a5a113d8385d84fbd1f400e4740b499cf1db.jpg"
  },
  {
    "name": "PURCHASED_DELUXE",
    "defaultvalue": 0,
    "displayName": "DeluXe Edition",
    "hidden": 0,
    "description": "Purchase the Mr. X edition",
    "icon": "https://steamcdn-a.akamaihd.net/steamcommunity/public/images/apps/638070/1804826976e70a56ec4b057a1de9e2bf00b8ec0d.jpg",
    "icongray": "https://steamcdn-a.akamaihd.net/steamcommunity/public/images/apps/638070/56301b882c5b8b3558f1047072aac75441db59cb.jpg"
  },
  {
    "name": "LEVEL_10",
    "defaultvalue": 0,
    "displayName": "Level 10",
    "hidden": 0,
    "description": "Reach level 10",
    "icon": "https://steamcdn-a.akamaihd.net/steamcommunity/public/images/apps/638070/3146420a63cee4f08d1a53921c3662b3d4e8d97d.jpg",
    "icongray": "https://steamcdn-a.akamaihd.net/steamcommunity/public/images/apps/638070/68e1a2bcbe0492a3ac5a1255bcc4c17dbed5cd35.jpg"
  },
  {
    "name": "LEVEL_25",
    "defaultvalue": 0,
    "displayName": "Level 25",
    "hidden": 0,
    "description": "Reach level 25",
    "icon": "https://steamcdn-a.akamaihd.net/steamcommunity/public/images/apps/638070/98f600babe29ddda4e861a23010a35bde707197e.jpg",
    "icongray": "https://steamcdn-a.akamaihd.net/steamcommunity/public/images/apps/638070/ea583af420eff96710f58237b9a7ac90220a32d5.jpg"
  },
  {
    "name": "LEVEL_50",
    "defaultvalue": 0,
    "displayName": "Level 50",
    "hidden": 0,
    "description": "Reach level 50",
    "icon": "https://steamcdn-a.akamaihd.net/steamcommunity/public/images/apps/638070/67bd7d055d7c58e6edb2a5b4764c8378c40a7160.jpg",
    "icongray": "https://steamcdn-a.akamaihd.net/steamcommunity/public/images/apps/638070/3e9212836dae7221688be4fa6c95f5babbc7cc2f.jpg"
  },
  {
    "name": "LEVEL_100",
    "defaultvalue": 0,
    "displayName": "Level 100",
    "hidden": 0,
    "description": "Reach level 100",
    "icon": "https://steamcdn-a.akamaihd.net/steamcommunity/public/images/apps/638070/58ccefbc5014d450f8b350aea0e4166341cd58a0.jpg",
    "icongray": "https://steamcdn-a.akamaihd.net/steamcommunity/public/images/apps/638070/881bb238557a7e834b558f3c146e559f2200f57a.jpg"
  },
  {
    "name": "LEVEL_250",
    "defaultvalue": 0,
    "displayName": "Level 250",
    "hidden": 0,
    "description": "Reach level 250",
    "icon": "https://steamcdn-a.akamaihd.net/steamcommunity/public/images/apps/638070/5dab7333ea90f9edac16630fca6144972c06db1a.jpg",
    "icongray": "https://steamcdn-a.akamaihd.net/steamcommunity/public/images/apps/638070/eb33a1e95074326c355ff562a3b688b62620d3e1.jpg"
  },
  {
    "name": "FAVOUR_ADMIRAL_4",
    "defaultvalue": 0,
    "displayName": "Coffyn",
    "hidden": 0,
    "description": "Earn 750 Favour as the Admiral",
    "icon": "https://steamcdn-a.akamaihd.net/steamcommunity/public/images/apps/638070/6dd059803685d5efeeb326fde97ea1f5051f0e58.jpg",
    "icongray": "https://steamcdn-a.akamaihd.net/steamcommunity/public/images/apps/638070/aa8709f0634c8c02ec8619cbce1921fc9791b882.jpg"
  },
  {
    "name": "FAVOUR_ASSASSIN_4",
    "defaultvalue": 0,
    "displayName": "Kitsune",
    "hidden": 0,
    "description": "Earn 750 Favour as the Assassin",
    "icon": "https://steamcdn-a.akamaihd.net/steamcommunity/public/images/apps/638070/6ad5242b8274a1819af3e69e683d17899ba384f7.jpg",
    "icongray": "https://steamcdn-a.akamaihd.net/steamcommunity/public/images/apps/638070/13cb219ee0314963fe443f0b4c5481a8acad545a.jpg"
  },
  {
    "name": "FAVOUR_BRUTE_4",
    "defaultvalue": 0,
    "displayName": "Katorga",
    "hidden": 0,
    "description": "Earn 750 Favour as the Brute",
    "icon": "https://steamcdn-a.akamaihd.net/steamcommunity/public/images/apps/638070/5a6aac07ba9c9520d15004c9ea7ecd0dc408ee65.jpg",
    "icongray": "https://steamcdn-a.akamaihd.net/steamcommunity/public/images/apps/638070/b25e61f38d845fd3b4ce1487d797b6878ebd4ba9.jpg"
  },
  {
    "name": "FAVOUR_DODGER_4",
    "defaultvalue": 0,
    "displayName": "Hustler",
    "hidden": 0,
    "description": "Earn 750 Favour as the Dodger",
    "icon": "https://steamcdn-a.akamaihd.net/steamcommunity/public/images/apps/638070/4c4716b5af9e88019b014dea75c838201eae748a.jpg",
    "icongray": "https://steamcdn-a.akamaihd.net/steamcommunity/public/images/apps/638070/018f2e68041de7c49e161a704d2483d9c4f8860a.jpg"
  },
  {
    "name": "FAVOUR_DOXY_4",
    "defaultvalue": 0,
    "displayName": "Lovett",
    "hidden": 0,
    "description": "Earn 750 Favour as the Doxy",
    "icon": "https://steamcdn-a.akamaihd.net/steamcommunity/public/images/apps/638070/bdaaa0cd247699aea21bbbc36be7ba65b481aea0.jpg",
    "icongray": "https://steamcdn-a.akamaihd.net/steamcommunity/public/images/apps/638070/ec5f202ffcb7aebe168092b844af89d7feb5b4fb.jpg"
  },
  {
    "name": "FAVOUR_DUCHESS_4",
    "defaultvalue": 0,
    "displayName": "Stewart",
    "hidden": 0,
    "description": "Earn 750 Favour as the Duchess",
    "icon": "https://steamcdn-a.akamaihd.net/steamcommunity/public/images/apps/638070/877e1b46e359e49b2f07fb078a076dab70fe47e1.jpg",
    "icongray": "https://steamcdn-a.akamaihd.net/steamcommunity/public/images/apps/638070/60bd22c1aeb1ed713560efcd60aa39cceedd9da0.jpg"
  },
  {
    "name": "FAVOUR_PRINCE_4",
    "defaultvalue": 0,
    "displayName": "Tiger",
    "hidden": 0,
    "description": "Earn 750 Favour as the Prince",
    "icon": "https://steamcdn-a.akamaihd.net/steamcommunity/public/images/apps/638070/86e43ff939df1d80a91d2239544d6dbad3f571f6.jpg",
    "icongray": "https://steamcdn-a.akamaihd.net/steamcommunity/public/images/apps/638070/ee0b900c9ec61ace54323502c7f2e15adfb2bc03.jpg"
  },
  {
    "name": "FAVOUR_TRACKER_4",
    "defaultvalue": 0,
    "displayName": "Big Game",
    "hidden": 0,
    "description": "Earn 750 Favour as the Tracker",
    "icon": "https://steamcdn-a.akamaihd.net/steamcommunity/public/images/apps/638070/02b2b2dc9551240e5062334b5b7b7f48b8043948.jpg",
    "icongray": "https://steamcdn-a.akamaihd.net/steamcommunity/public/images/apps/638070/d4c61e24e5cf88c84981f5afb4e2eff21ae00e56.jpg"
  },
  {
    "name": "WIN_ADMIRAL_1",
    "defaultvalue": 0,
    "displayName": "Up Ye",
    "hidden": 0,
    "description": "Win 10 games as the Admiral or Privateer",
    "icon": "https://steamcdn-a.akamaihd.net/steamcommunity/public/images/apps/638070/e04219d4ede93764372ad8f6adeb0a73e2acf26c.jpg",
    "icongray": "https://steamcdn-a.akamaihd.net/steamcommunity/public/images/apps/638070/1b3006efa21deb368dd499b9cf0cfdd222e79232.jpg"
  },
  {
    "name": "WIN_ASSASSIN_1",
    "defaultvalue": 0,
    "displayName": "Dance",
    "hidden": 0,
    "description": "Win 10 games as the Assassin or Gokudo.",
    "icon": "https://steamcdn-a.akamaihd.net/steamcommunity/public/images/apps/638070/ba35f95d1b599edda98feb9c6e54a33578b2d41e.jpg",
    "icongray": "https://steamcdn-a.akamaihd.net/steamcommunity/public/images/apps/638070/b74718eb2f92d66a2c204bbcec47065de259ad40.jpg"
  },
  {
    "name": "WIN_BRUTE_1",
    "defaultvalue": 0,
    "displayName": "Thoughtful",
    "hidden": 0,
    "description": "Win 10 games as the Brute or Moujik",
    "icon": "https://steamcdn-a.akamaihd.net/steamcommunity/public/images/apps/638070/6d842f2fbfd44b8822e454cbd6cccb38807b713b.jpg",
    "icongray": "https://steamcdn-a.akamaihd.net/steamcommunity/public/images/apps/638070/b46fa93d7742f75125cc38155af9b29935592a1e.jpg"
  },
  {
    "name": "WIN_DODGER_1",
    "defaultvalue": 0,
    "displayName": "Ey Up",
    "hidden": 0,
    "description": "Win 10 games as the Dodger or Gentleman.",
    "icon": "https://steamcdn-a.akamaihd.net/steamcommunity/public/images/apps/638070/1993f26a9b7b22bec228f71bde22b475036e7e9f.jpg",
    "icongray": "https://steamcdn-a.akamaihd.net/steamcommunity/public/images/apps/638070/6b5a4b6ea3fe2661dcf2b01319dca059ef0f9098.jpg"
  },
  {
    "name": "WIN_DOXY_1",
    "defaultvalue": 0,
    "displayName": "Curtsy",
    "hidden": 0,
    "description": "Win 10 games as the Doxy or Soothsayer",
    "icon": "https://steamcdn-a.akamaihd.net/steamcommunity/public/images/apps/638070/2759248edb4998f8532c6735920999f959116a7b.jpg",
    "icongray": "https://steamcdn-a.akamaihd.net/steamcommunity/public/images/apps/638070/a3941ad4f7c1006215ef61408a863c30a6136df8.jpg"
  },
  {
    "name": "WIN_DUCHESS_1",
    "defaultvalue": 0,
    "displayName": "Crabbit",
    "hidden": 0,
    "description": "Win 10 games as the Duchess or Widow.",
    "icon": "https://steamcdn-a.akamaihd.net/steamcommunity/public/images/apps/638070/432d1ea8e9d27f1462735e27c4c4147a11e9de0c.jpg",
    "icongray": "https://steamcdn-a.akamaihd.net/steamcommunity/public/images/apps/638070/b9c42fd7f364c88f75d8dff4fbd01e6b8eb33edb.jpg"
  },
  {
    "name": "WIN_PRINCE_1",
    "defaultvalue": 0,
    "displayName": "Bow",
    "hidden": 0,
    "description": "Win 10 games as the Prince or Adventurer.",
    "icon": "https://steamcdn-a.akamaihd.net/steamcommunity/public/images/apps/638070/7207d533c069400d95f43e6d817f6d5bf815000f.jpg",
    "icongray": "https://steamcdn-a.akamaihd.net/steamcommunity/public/images/apps/638070/371bd4d8b9b27d43cd40d9ec4b133b4b218557e0.jpg"
  },
  {
    "name": "WIN_TRACKER_1",
    "defaultvalue": 0,
    "displayName": "Bullseye",
    "hidden": 0,
    "description": "Win 10 games as the Tracker or Saurian Hunter",
    "icon": "https://steamcdn-a.akamaihd.net/steamcommunity/public/images/apps/638070/ab6b5a43e00f4b731d9a2166ffb944c1ee01a554.jpg",
    "icongray": "https://steamcdn-a.akamaihd.net/steamcommunity/public/images/apps/638070/bb2443a729049c510973dfdb85ea5c9a93ee3cff.jpg"
  },
  {
    "name": "RANK_INITIATE",
    "defaultvalue": 0,
    "displayName": "Initiate",
    "hidden": 0,
    "description": "Reach the Kairos Rank of Initiate",
    "icon": "https://steamcdn-a.akamaihd.net/steamcommunity/public/images/apps/638070/104b03ce7ca4ac488e66b7d52b3aaeb729a16de5.jpg",
    "icongray": "https://steamcdn-a.akamaihd.net/steamcommunity/public/images/apps/638070/1101003bb68876a998a4b5b9472a05e20a6e0b9f.jpg"
  },
  {
    "name": "RANK_DISCIPLE",
    "defaultvalue": 0,
    "displayName": "Disciple",
    "hidden": 0,
    "description": "Reach the Kairos Rank of Disciple",
    "icon": "https://steamcdn-a.akamaihd.net/steamcommunity/public/images/apps/638070/17e8adda57f2e0536e6b65bceb9285bc7388b9ef.jpg",
    "icongray": "https://steamcdn-a.akamaihd.net/steamcommunity/public/images/apps/638070/cafc0af96bef9861455de97552bc1200dc24c035.jpg"
  },
  {
    "name": "RANK_ACOLYTE",
    "defaultvalue": 0,
    "displayName": "Acolyte",
    "hidden": 0,
    "description": "Reach the Kairos Rank of Acolyte",
    "icon": "https://steamcdn-a.akamaihd.net/steamcommunity/public/images/apps/638070/caf5d6abcdd82fef95c7e771339d64eea67d9dc2.jpg",
    "icongray": "https://steamcdn-a.akamaihd.net/steamcommunity/public/images/apps/638070/69ab3518bdc916af393447338a5ff0ffd55ed552.jpg"
  },
  {
    "name": "RANK_CHOSEN",
    "defaultvalue": 0,
    "displayName": "Chosen",
    "hidden": 0,
    "description": "Reach the Kairos Rank of Chosen",
    "icon": "https://steamcdn-a.akamaihd.net/steamcommunity/public/images/apps/638070/b7cf361ba03ee7ffda483bd04bab25c1e61c4e78.jpg",
    "icongray": "https://steamcdn-a.akamaihd.net/steamcommunity/public/images/apps/638070/59847482063623fda8acb5bafe733d3d0228ae8c.jpg"
  },
  {
    "name": "RANK_MASTER",
    "defaultvalue": 0,
    "displayName": "Master",
    "hidden": 0,
    "description": "Reach the Kairos Rank of Master",
    "icon": "https://steamcdn-a.akamaihd.net/steamcommunity/public/images/apps/638070/1d7a1af44b5c7ccdc4ad42a9d09de6a1499faafb.jpg",
    "icongray": "https://steamcdn-a.akamaihd.net/steamcommunity/public/images/apps/638070/c6036ea1e58853b69e4195ca628488e9c2ed00ba.jpg"
  },
  {
    "name": "RANK_GRANDMASTER",
    "defaultvalue": 0,
    "displayName": "Grand Master",
    "hidden": 0,
    "description": "Reach the Kairos Rank of Grand Master",
    "icon": "https://steamcdn-a.akamaihd.net/steamcommunity/public/images/apps/638070/69160da0553fcb401a73e6cf13fa610861845b85.jpg",
    "icongray": "https://steamcdn-a.akamaihd.net/steamcommunity/public/images/apps/638070/870fe621458d2b9ee9de0786ae37b8c701f9f180.jpg"
  },
  {
    "name": "WIN_ADMIRAL_0",
    "defaultvalue": 0,
    "displayName": "Marine",
    "hidden": 0,
    "description": "Win 5 games as the Admiral or Privateer",
    "icon": "https://steamcdn-a.akamaihd.net/steamcommunity/public/images/apps/638070/31d37b2ea049319fb919be3052b80baaa6bad1d9.jpg",
    "icongray": "https://steamcdn-a.akamaihd.net/steamcommunity/public/images/apps/638070/ee4929b0a7dd6a1585f954fbd710b96da51f4511.jpg"
  },
  {
    "name": "WIN_ASSASSIN_0",
    "defaultvalue": 0,
    "displayName": "Golden Koi",
    "hidden": 0,
    "description": "Win 5 games as the Assassin or Gokudo.",
    "icon": "https://steamcdn-a.akamaihd.net/steamcommunity/public/images/apps/638070/da1a65aec6ec06b7673f6758ef5a5f2ef5243c31.jpg",
    "icongray": "https://steamcdn-a.akamaihd.net/steamcommunity/public/images/apps/638070/d54a6ca6b8533d906e61f1871cd5b2de627be515.jpg"
  },
  {
    "name": "WIN_BRUTE_0",
    "defaultvalue": 0,
    "displayName": "Proletarian",
    "hidden": 0,
    "description": "Win 5 games as the Brute or Moujik",
    "icon": "https://steamcdn-a.akamaihd.net/steamcommunity/public/images/apps/638070/4f546b04d8c5857775fa8f5ee323423db2a1c33f.jpg",
    "icongray": "https://steamcdn-a.akamaihd.net/steamcommunity/public/images/apps/638070/1b828aea6d5943be31287c5225b9dde6c641a114.jpg"
  },
  {
    "name": "WIN_DODGER_0",
    "defaultvalue": 0,
    "displayName": "Mudlark",
    "hidden": 0,
    "description": "Win 5 games as the Dodger or Gentleman.",
    "icon": "https://steamcdn-a.akamaihd.net/steamcommunity/public/images/apps/638070/5a5e684c844b9719602f80a4ac6a7067b535adde.jpg",
    "icongray": "https://steamcdn-a.akamaihd.net/steamcommunity/public/images/apps/638070/ae7d3d52f0795777b333ca9b1492e49dcb04c55f.jpg"
  },
  {
    "name": "WIN_DOXY_0",
    "defaultvalue": 0,
    "displayName": "Rose",
    "hidden": 0,
    "description": "Win 5 games as the Doxy or Soothsayer",
    "icon": "https://steamcdn-a.akamaihd.net/steamcommunity/public/images/apps/638070/782969574c1571984202ac8b70d88acb5faf5d2f.jpg",
    "icongray": "https://steamcdn-a.akamaihd.net/steamcommunity/public/images/apps/638070/be8183d6762c4ebee6fef469263a18fea891e75f.jpg"
  },
  {
    "name": "WIN_DUCHESS_0",
    "defaultvalue": 0,
    "displayName": "Glen",
    "hidden": 0,
    "description": "Win 5 games as the Duchess or Widow.",
    "icon": "https://steamcdn-a.akamaihd.net/steamcommunity/public/images/apps/638070/86cfe2365ad3bacaea97ecc11b9f10531468f4e8.jpg",
    "icongray": "https://steamcdn-a.akamaihd.net/steamcommunity/public/images/apps/638070/5739366b46530304002d8ecb84b952cdc5ff193f.jpg"
  },
  {
    "name": "WIN_PRINCE_0",
    "defaultvalue": 0,
    "displayName": "Jade",
    "hidden": 0,
    "description": "Win 5 games as the Prince or Adventurer.",
    "icon": "https://steamcdn-a.akamaihd.net/steamcommunity/public/images/apps/638070/673c81a2e744532c6eb6f88577e12ad6545c056b.jpg",
    "icongray": "https://steamcdn-a.akamaihd.net/steamcommunity/public/images/apps/638070/f52572026471c0a8e9bc660138ab29ddd785875c.jpg"
  },
  {
    "name": "WIN_TRACKER_0",
    "defaultvalue": 0,
    "displayName": "Savannah",
    "hidden": 0,
    "description": "Win 5 games as the Tracker or Saurian Hunter",
    "icon": "https://steamcdn-a.akamaihd.net/steamcommunity/public/images/apps/638070/ef607ed6d9c35eb436893d7e740a2cf3b2d7281a.jpg",
    "icongray": "https://steamcdn-a.akamaihd.net/steamcommunity/public/images/apps/638070/4b4db84e2c864c05607740df1c7831110bcdf97b.jpg"
  },
  {
    "name": "WIN_ADMIRAL_2",
    "defaultvalue": 0,
    "displayName": "Sea Wolf",
    "hidden": 0,
    "description": "Win 25 games as the Admiral or Privateer",
    "icon": "https://steamcdn-a.akamaihd.net/steamcommunity/public/images/apps/638070/acf6eecbad0bdf7acfa164e5a91097a99f775a8d.jpg",
    "icongray": "https://steamcdn-a.akamaihd.net/steamcommunity/public/images/apps/638070/7190b42d960881b09022b5c008e5faa7aa296493.jpg"
  },
  {
    "name": "WIN_ASSASSIN_2",
    "defaultvalue": 0,
    "displayName": "Katana",
    "hidden": 0,
    "description": "Win 25 games as the Assassin or Gokudo.",
    "icon": "https://steamcdn-a.akamaihd.net/steamcommunity/public/images/apps/638070/0e49d5c45579b3646c2e712030ed1f2a606c52d8.jpg",
    "icongray": "https://steamcdn-a.akamaihd.net/steamcommunity/public/images/apps/638070/b9acfd1aeee6902cafb75ced6ab111cd636da540.jpg"
  },
  {
    "name": "WIN_BRUTE_2",
    "defaultvalue": 0,
    "displayName": "Squat",
    "hidden": 0,
    "description": "Win 25 games as the Brute or Moujik",
    "icon": "https://steamcdn-a.akamaihd.net/steamcommunity/public/images/apps/638070/eadaf2600f77aae7a9b587c049fc05eaa493d2eb.jpg",
    "icongray": "https://steamcdn-a.akamaihd.net/steamcommunity/public/images/apps/638070/b4f10d9e787baeb903bcd5e3de47531897a17229.jpg"
  },
  {
    "name": "WIN_DODGER_2",
    "defaultvalue": 0,
    "displayName": "Heel Click",
    "hidden": 0,
    "description": "Win 25 games as the Dodger or Gentleman.",
    "icon": "https://steamcdn-a.akamaihd.net/steamcommunity/public/images/apps/638070/52558113ef4ee74982ec2eed867573d2c59bc52a.jpg",
    "icongray": "https://steamcdn-a.akamaihd.net/steamcommunity/public/images/apps/638070/abc619b54c5f99bf7c945623d6338a95bf866046.jpg"
  },
  {
    "name": "WIN_DOXY_2",
    "defaultvalue": 0,
    "displayName": "Mwah",
    "hidden": 0,
    "description": "Win 25 games as the Doxy or Soothsayer",
    "icon": "https://steamcdn-a.akamaihd.net/steamcommunity/public/images/apps/638070/1051ef4223cc441ab3f403cd0e0db13e6334b0d1.jpg",
    "icongray": "https://steamcdn-a.akamaihd.net/steamcommunity/public/images/apps/638070/e8eb51ac4fea20abf6c5723f31fdb0c762e8356d.jpg"
  },
  {
    "name": "WIN_DUCHESS_2",
    "defaultvalue": 0,
    "displayName": "Afternoon Tea",
    "hidden": 0,
    "description": "Win 25 games as the Duchess or Widow.",
    "icon": "https://steamcdn-a.akamaihd.net/steamcommunity/public/images/apps/638070/7f2c09473f4a75eb8902e651b86635c3a693e6ed.jpg",
    "icongray": "https://steamcdn-a.akamaihd.net/steamcommunity/public/images/apps/638070/e64de8898649f72138e26be7ae609f6b2a19c3ae.jpg"
  },
  {
    "name": "WIN_PRINCE_2",
    "defaultvalue": 0,
    "displayName": "Sword Dance",
    "hidden": 0,
    "description": "Win 25 games as the Prince or Adventurer.",
    "icon": "https://steamcdn-a.akamaihd.net/steamcommunity/public/images/apps/638070/bc6159878a2eb329030e3accc13b15a39ea29aa0.jpg",
    "icongray": "https://steamcdn-a.akamaihd.net/steamcommunity/public/images/apps/638070/d79ef4027ebfabda86c1d184d81e0ad51b406f39.jpg"
  },
  {
    "name": "WIN_TRACKER_2",
    "defaultvalue": 0,
    "displayName": "Tracking",
    "hidden": 0,
    "description": "Win 25 games as the Tracker or Saurian Hunter",
    "icon": "https://steamcdn-a.akamaihd.net/steamcommunity/public/images/apps/638070/f116491f16b0ef43cdac841a2261b55f48bd9dd9.jpg",
    "icongray": "https://steamcdn-a.akamaihd.net/steamcommunity/public/images/apps/638070/8af7e77e89f371958650c4703bbf395ee560ccae.jpg"
  },
  {
    "name": "ABILITY_DISRUPT_100",
    "defaultvalue": 0,
    "displayName": "Flabberdegaz",
    "hidden": 0,
    "description": "Disrupt 100 Quarries or Hunters",
    "icon": "https://steamcdn-a.akamaihd.net/steamcommunity/public/images/apps/638070/52a33df6da2415fbdb176f25d12de791269c1ee4.jpg",
    "icongray": "https://steamcdn-a.akamaihd.net/steamcommunity/public/images/apps/638070/92258a25bc1b3d6c2447022c0fac5b5ceaad6e1d.jpg"
  },
  {
    "name": "FAVOUR_BRUTE_5",
    "defaultvalue": 0,
    "displayName": "Medved",
    "hidden": 0,
    "description": "Earn 1000 Favour as the Brute",
    "icon": "https://steamcdn-a.akamaihd.net/steamcommunity/public/images/apps/638070/dd96e7221de505033b958a2113de55a58a7be071.jpg",
    "icongray": "https://steamcdn-a.akamaihd.net/steamcommunity/public/images/apps/638070/f942a7bd0363d40e651b9a5c806d87dbd3ad2f78.jpg"
  },
  {
    "name": "FAVOUR_DOXY_5",
    "defaultvalue": 0,
    "displayName": "Fortune",
    "hidden": 0,
    "description": "Earn 1000 Favour as the Doxy",
    "icon": "https://steamcdn-a.akamaihd.net/steamcommunity/public/images/apps/638070/5ef1ce38ae043949e2369de01cf10af78939fbf2.jpg",
    "icongray": "https://steamcdn-a.akamaihd.net/steamcommunity/public/images/apps/638070/b20f9a6849e806daadcd505d422bad5168ed3faa.jpg"
  },
  {
    "name": "FAVOUR_MOUJIK_1",
    "defaultvalue": 0,
    "displayName": "Seraya Gora",
    "hidden": 0,
    "description": "Earn 250 Favour as the Moujik",
    "icon": "https://steamcdn-a.akamaihd.net/steamcommunity/public/images/apps/638070/f353bb36585fa1a5972ae4081a3bb5263500e755.jpg",
    "icongray": "https://steamcdn-a.akamaihd.net/steamcommunity/public/images/apps/638070/83edf780123af633ff0d1b3310f5d328853d50b8.jpg"
  },
  {
    "name": "FAVOUR_MOUJIK_2",
    "defaultvalue": 0,
    "displayName": "Osen",
    "hidden": 0,
    "description": "Earn 500 Favour as the Moujik",
    "icon": "https://steamcdn-a.akamaihd.net/steamcommunity/public/images/apps/638070/875849a258f7ff22ec36dec73daa3092d4e54fc9.jpg",
    "icongray": "https://steamcdn-a.akamaihd.net/steamcommunity/public/images/apps/638070/cffe1c61374062ce749abd52b4b522f0f3a3b12e.jpg"
  },
  {
    "name": "FAVOUR_MOUJIK_3",
    "defaultvalue": 0,
    "displayName": "Zelenyy Les",
    "hidden": 0,
    "description": "Earn 750 Favour as the Moujik",
    "icon": "https://steamcdn-a.akamaihd.net/steamcommunity/public/images/apps/638070/8d787cb02fa50c04205e1b53872b5ff7af11f2bf.jpg",
    "icongray": "https://steamcdn-a.akamaihd.net/steamcommunity/public/images/apps/638070/989aa431252406e26db039ffdc86a83ee6efbe9e.jpg"
  },
  {
    "name": "FAVOUR_SOOTHSAYER_1",
    "defaultvalue": 0,
    "displayName": "Riverside",
    "hidden": 0,
    "description": "Earn 250 Favour as the Soothsayer",
    "icon": "https://steamcdn-a.akamaihd.net/steamcommunity/public/images/apps/638070/d84ceb8c93ef0ace2038c83dabd0e30e01f1d5ca.jpg",
    "icongray": "https://steamcdn-a.akamaihd.net/steamcommunity/public/images/apps/638070/ec32710228809fd23389e53cfb88242b4cd33731.jpg"
  },
  {
    "name": "FAVOUR_SOOTHSAYER_2",
    "defaultvalue": 0,
    "displayName": "Autumnal",
    "hidden": 0,
    "description": "Earn 500 Favour as the Soothsayer",
    "icon": "https://steamcdn-a.akamaihd.net/steamcommunity/public/images/apps/638070/d3c818fdfda72b1e89c4af57e949c2ec5f495158.jpg",
    "icongray": "https://steamcdn-a.akamaihd.net/steamcommunity/public/images/apps/638070/cdd797194e32b750f92d9e2d0162bb872ee0e18f.jpg"
  },
  {
    "name": "FAVOUR_SOOTHSAYER_3",
    "defaultvalue": 0,
    "displayName": "Moonlight",
    "hidden": 0,
    "description": "Earn 750 Favour as the Soothsayer",
    "icon": "https://steamcdn-a.akamaihd.net/steamcommunity/public/images/apps/638070/0ed01e5cd37fca5774c2c8b83ea7e1ae435d8f21.jpg",
    "icongray": "https://steamcdn-a.akamaihd.net/steamcommunity/public/images/apps/638070/fdd77474b9b242a8fa94498e84a14934327207ce.jpg"
  },
  {
    "name": "ABILITY_SUBVERT_100",
    "defaultvalue": 0,
    "displayName": "Dash Yer Wig",
    "hidden": 0,
    "description": "Subvert 100 Quarries or Hunters",
    "icon": "https://steamcdn-a.akamaihd.net/steamcommunity/public/images/apps/638070/c2387ebcd6cab5e2b1391610bbc0421ab3a1a33e.jpg",
    "icongray": "https://steamcdn-a.akamaihd.net/steamcommunity/public/images/apps/638070/019d31b6525e86a40d20257df05182ce58548e59.jpg"
  },
  {
    "name": "PIEBOMB_100",
    "defaultvalue": 0,
    "displayName": "Meater",
    "hidden": 0,
    "description": "Use the pie bomb on 100 Quarries or Hunters",
    "icon": "https://steamcdn-a.akamaihd.net/steamcommunity/public/images/apps/638070/d7237f4f53e16e2ef72f60ca281dac44f7b92f5d.jpg",
    "icongray": "https://steamcdn-a.akamaihd.net/steamcommunity/public/images/apps/638070/7baf0b789d3165f681395cfd5ce48d9a7e8483f6.jpg"
  },
  {
    "name": "FAVOUR_ADMIRAL_5",
    "defaultvalue": 0,
    "displayName": "Tortuga",
    "hidden": 0,
    "description": "Earn 1000 Favour as the Admiral",
    "icon": "https://steamcdn-a.akamaihd.net/steamcommunity/public/images/apps/638070/b65ebe71a9f397e43267c587b69d381b5cb2df93.jpg",
    "icongray": "https://steamcdn-a.akamaihd.net/steamcommunity/public/images/apps/638070/1f0e8b74e1b49b7b6167463d2eccab437db1088a.jpg"
  },
  {
    "name": "FAVOUR_TRACKER_5",
    "defaultvalue": 0,
    "displayName": "Mesozoic",
    "hidden": 0,
    "description": "Earn 1000 Favour as the Tracker",
    "icon": "https://steamcdn-a.akamaihd.net/steamcommunity/public/images/apps/638070/efa950d2337adca1dc5dcef47b640dde83476767.jpg",
    "icongray": "https://steamcdn-a.akamaihd.net/steamcommunity/public/images/apps/638070/01e209edaa579e1488400400c4a606dc57a3e467.jpg"
  },
  {
    "name": "FAVOUR_PRIVATEER_1",
    "defaultvalue": 0,
    "displayName": "Nassau",
    "hidden": 0,
    "description": "Earn 250 Favour as the Privateer",
    "icon": "https://steamcdn-a.akamaihd.net/steamcommunity/public/images/apps/638070/3ceb3788e993115a1c096f290fc1bdcb0a40d2eb.jpg",
    "icongray": "https://steamcdn-a.akamaihd.net/steamcommunity/public/images/apps/638070/3221fced1809adab88614b6a5ab826d9f7d73a09.jpg"
  },
  {
    "name": "FAVOUR_PRIVATEER_2",
    "defaultvalue": 0,
    "displayName": "Sainte Marie",
    "hidden": 0,
    "description": "Earn 500 Favour as the Privateer",
    "icon": "https://steamcdn-a.akamaihd.net/steamcommunity/public/images/apps/638070/2c8dee4f22ea4954bcc13a243d4e46b9e517a273.jpg",
    "icongray": "https://steamcdn-a.akamaihd.net/steamcommunity/public/images/apps/638070/6756325d02be876ae900918a67fcb333adc57678.jpg"
  },
  {
    "name": "FAVOUR_PRIVATEER_3",
    "defaultvalue": 0,
    "displayName": "Port Royal",
    "hidden": 0,
    "description": "Earn 750 Favour as the Privateer",
    "icon": "https://steamcdn-a.akamaihd.net/steamcommunity/public/images/apps/638070/cd0fd260056ae127e8bb546e81345f201eea9ba2.jpg",
    "icongray": "https://steamcdn-a.akamaihd.net/steamcommunity/public/images/apps/638070/985fe37bbd89ed3c367666768d096c56c4ca4c06.jpg"
  },
  {
    "name": "FAVOUR_SAURIANHUNTER_1",
    "defaultvalue": 0,
    "displayName": "Triassic",
    "hidden": 0,
    "description": "Earn 250 Favour as the Saurian Hunter",
    "icon": "https://steamcdn-a.akamaihd.net/steamcommunity/public/images/apps/638070/f3b7c7e2328b8def9b5219426b5137dd17f58cda.jpg",
    "icongray": "https://steamcdn-a.akamaihd.net/steamcommunity/public/images/apps/638070/f8fa534feb4cf6599af5565765da1ab1ed965803.jpg"
  },
  {
    "name": "FAVOUR_SAURIANHUNTER_2",
    "defaultvalue": 0,
    "displayName": "Jurassic",
    "hidden": 0,
    "description": "Earn 500 Favour as the Saurian Hunter",
    "icon": "https://steamcdn-a.akamaihd.net/steamcommunity/public/images/apps/638070/9a5f4e16a9a813c24e5be5e37b6189e72f9be61b.jpg",
    "icongray": "https://steamcdn-a.akamaihd.net/steamcommunity/public/images/apps/638070/8791ef46f88ead1678d7b3565fd60de979275cd1.jpg"
  },
  {
    "name": "FAVOUR_SAURIANHUNTER_3",
    "defaultvalue": 0,
    "displayName": "Cretaceous",
    "hidden": 0,
    "description": "Earn 750 Favour as the Saurian Hunter",
    "icon": "https://steamcdn-a.akamaihd.net/steamcommunity/public/images/apps/638070/7f02b5965fe62c25377c47d5c6235e6c550e5352.jpg",
    "icongray": "https://steamcdn-a.akamaihd.net/steamcommunity/public/images/apps/638070/03966508a4c53b4ffb465cd97a64997010eb806d.jpg"
  },
  {
    "name": "FAVOUR_DODGER_5",
    "defaultvalue": 0,
    "displayName": "Thames",
    "hidden": 0,
    "description": "Earn 1000 Favour as the Dodger",
    "icon": "https://steamcdn-a.akamaihd.net/steamcommunity/public/images/apps/638070/b59077cb4a39d0579873cf971b196b37e43db3dd.jpg",
    "icongray": "https://steamcdn-a.akamaihd.net/steamcommunity/public/images/apps/638070/af5e1079b71b24ece63562bdcfe917fe0904210d.jpg"
  },
  {
    "name": "FAVOUR_GENTLEMAN_1",
    "defaultvalue": 0,
    "displayName": "Buckingham",
    "hidden": 0,
    "description": "Earn 250 Favour as the Gentleman",
    "icon": "https://steamcdn-a.akamaihd.net/steamcommunity/public/images/apps/638070/e984378bce78abd36b93f2159d5c0692f28541b0.jpg",
    "icongray": "https://steamcdn-a.akamaihd.net/steamcommunity/public/images/apps/638070/443aff61ada55104454fd3fdea1d33a705578141.jpg"
  },
  {
    "name": "FAVOUR_GENTLEMAN_2",
    "defaultvalue": 0,
    "displayName": "Hyde",
    "hidden": 0,
    "description": "Earn 500 Favour as the Gentleman",
    "icon": "https://steamcdn-a.akamaihd.net/steamcommunity/public/images/apps/638070/f977a7a9e862ad26531dcc79e9357ff28c9c92b9.jpg",
    "icongray": "https://steamcdn-a.akamaihd.net/steamcommunity/public/images/apps/638070/f5d4bf9a629cf3017cbb38f8a427db49fe271ea4.jpg"
  },
  {
    "name": "FAVOUR_GENTLEMAN_3",
    "defaultvalue": 0,
    "displayName": "Westminster",
    "hidden": 0,
    "description": "Earn 750 Favour as the Gentleman",
    "icon": "https://steamcdn-a.akamaihd.net/steamcommunity/public/images/apps/638070/476306d676105e2c4d7640583e06bfd251097b93.jpg",
    "icongray": "https://steamcdn-a.akamaihd.net/steamcommunity/public/images/apps/638070/0f96c23ff27ca295461b3d224a43069ecadf0e1c.jpg"
  },
  {
    "name": "FAVOUR_ASSASSIN_5",
    "defaultvalue": 0,
    "displayName": "Ka",
    "hidden": 0,
    "description": "Earn 1000 Favour as the Assassin",
    "icon": "https://steamcdn-a.akamaihd.net/steamcommunity/public/images/apps/638070/80ac969ef8f7046d2395c16b96b9932669138b52.jpg",
    "icongray": "https://steamcdn-a.akamaihd.net/steamcommunity/public/images/apps/638070/28463ee5455703cd755ba80476b9df9d76fe6cea.jpg"
  },
  {
    "name": "FAVOUR_GOKUDO_1",
    "defaultvalue": 0,
    "displayName": "Mizu",
    "hidden": 0,
    "description": "Earn 250 Favour as the Gokudo",
    "icon": "https://steamcdn-a.akamaihd.net/steamcommunity/public/images/apps/638070/f1d85fa5e980519eb40ad84bb057df2da94ce64b.jpg",
    "icongray": "https://steamcdn-a.akamaihd.net/steamcommunity/public/images/apps/638070/37c67f292baa11addf67f1320b6ff677739fc25a.jpg"
  },
  {
    "name": "FAVOUR_GOKUDO_2",
    "defaultvalue": 0,
    "displayName": "Tsuchi",
    "hidden": 0,
    "description": "Earn 500 Favour as the Gokudo",
    "icon": "https://steamcdn-a.akamaihd.net/steamcommunity/public/images/apps/638070/24232e65d5178ddbdfc7cc80e92e85d304d06c36.jpg",
    "icongray": "https://steamcdn-a.akamaihd.net/steamcommunity/public/images/apps/638070/b0aff2381a02cb82053c321a33ceef870c5a42ff.jpg"
  },
  {
    "name": "FAVOUR_GOKUDO_3",
    "defaultvalue": 0,
    "displayName": "Sora",
    "hidden": 0,
    "description": "Earn 750 Favour as the Gokudo",
    "icon": "https://steamcdn-a.akamaihd.net/steamcommunity/public/images/apps/638070/cadb7db715cee67222b7e71ef23e4588b7cab0e9.jpg",
    "icongray": "https://steamcdn-a.akamaihd.net/steamcommunity/public/images/apps/638070/e9b07a110d8003230e2b5ac03dc05b3f62c5b75e.jpg"
  },
  {
    "name": "FAVOUR_DUCHESS_5",
    "defaultvalue": 0,
    "displayName": "Sable",
    "hidden": 0,
    "description": "Earn 1000 Favour as the Duchess",
    "icon": "https://steamcdn-a.akamaihd.net/steamcommunity/public/images/apps/638070/ffb4f521c34fcf5385313000d61878d5e2a63396.jpg",
    "icongray": "https://steamcdn-a.akamaihd.net/steamcommunity/public/images/apps/638070/83eb45ce33616f78ef6fe41a5f753a67ce0fe395.jpg"
  },
  {
    "name": "FAVOUR_BLACKWIDOW_1",
    "defaultvalue": 0,
    "displayName": "Scarlet",
    "hidden": 0,
    "description": "Earn 250 Favour as the Black Widow",
    "icon": "https://steamcdn-a.akamaihd.net/steamcommunity/public/images/apps/638070/855366fe6696f50b24e23d921750dad100401145.jpg",
    "icongray": "https://steamcdn-a.akamaihd.net/steamcommunity/public/images/apps/638070/a342953d435ab17094a1ead8545a6b6402b0b3a9.jpg"
  },
  {
    "name": "FAVOUR_BLACKWIDOW_2",
    "defaultvalue": 0,
    "displayName": "Royal",
    "hidden": 0,
    "description": "Earn 500 Favour as the Black Widow",
    "icon": "https://steamcdn-a.akamaihd.net/steamcommunity/public/images/apps/638070/a85aed73278469cae772e80729d660f31176bcb1.jpg",
    "icongray": "https://steamcdn-a.akamaihd.net/steamcommunity/public/images/apps/638070/e72eb1792d7dc77a24c4f181d9b4adeb9aeb12cf.jpg"
  },
  {
    "name": "FAVOUR_BLACKWIDOW_3",
    "defaultvalue": 0,
    "displayName": "Ivory",
    "hidden": 0,
    "description": "Earn 750 Favour as the Black Widow",
    "icon": "https://steamcdn-a.akamaihd.net/steamcommunity/public/images/apps/638070/535d0379ec39f902c0d7c1ddebc6b02e9e03c397.jpg",
    "icongray": "https://steamcdn-a.akamaihd.net/steamcommunity/public/images/apps/638070/6a6e897d5ae0045c81f1c8b448d13dff68a5ebbd.jpg"
  },
  {
    "name": "FAVOUR_PRINCE_5",
    "defaultvalue": 0,
    "displayName": "Shanhai",
    "hidden": 0,
    "description": "Earn 1000 Favour as the Prince",
    "icon": "https://steamcdn-a.akamaihd.net/steamcommunity/public/images/apps/638070/489848da2ddaaa77badec390974b0f204ba3ddf0.jpg",
    "icongray": "https://steamcdn-a.akamaihd.net/steamcommunity/public/images/apps/638070/2b4c1e704ee8b4158d7eaa902624b6a19a50d202.jpg"
  },
  {
    "name": "FAVOUR_ADVENTURER_1",
    "defaultvalue": 0,
    "displayName": "Delphi",
    "hidden": 0,
    "description": "Earn 250 Favour as the Adventurer",
    "icon": "https://steamcdn-a.akamaihd.net/steamcommunity/public/images/apps/638070/1d7ce2b863aa006cd56112194f65e94f712c4c6d.jpg",
    "icongray": "https://steamcdn-a.akamaihd.net/steamcommunity/public/images/apps/638070/a381a92e5ffa13133eab129295409135fe07f18d.jpg"
  },
  {
    "name": "FAVOUR_ADVENTURER_2",
    "defaultvalue": 0,
    "displayName": "Petra",
    "hidden": 0,
    "description": "Earn 500 Favour as the Adventurer",
    "icon": "https://steamcdn-a.akamaihd.net/steamcommunity/public/images/apps/638070/5d1c375ff54fddbab7549075e260609abb8025df.jpg",
    "icongray": "https://steamcdn-a.akamaihd.net/steamcommunity/public/images/apps/638070/c115ac691cfdace6416cce3b37402b5ead17af11.jpg"
  },
  {
    "name": "FAVOUR_ADVENTURER_3",
    "defaultvalue": 0,
    "displayName": "Pompeii",
    "hidden": 0,
    "description": "Earn 750 Favour as the Adventurer",
    "icon": "https://steamcdn-a.akamaihd.net/steamcommunity/public/images/apps/638070/98db3c4c80a8489e6f5631bdcd11d943e56fa385.jpg",
    "icongray": "https://steamcdn-a.akamaihd.net/steamcommunity/public/images/apps/638070/7c43722085af24189c3ed76f8a38aea7c75b8167.jpg"
  },
  {
    "name": "WIN_GAME_NOSTUNS",
    "defaultvalue": 0,
    "displayName": "Such Nanty Narking",
    "hidden": 0,
    "description": "Win a game without being stunned",
    "icon": "https://steamcdn-a.akamaihd.net/steamcommunity/public/images/apps/638070/439fb19167a479ea4ac19f9ec0c302e221b69ccb.jpg",
    "icongray": "https://steamcdn-a.akamaihd.net/steamcommunity/public/images/apps/638070/d21e9ce52e98f5a6ba6df523be54d2ad1d042e74.jpg"
  },
  {
    "name": "WIN_GAME_NOEXPOSED",
    "defaultvalue": 0,
    "displayName": "Social E",
    "hidden": 0,
    "description": "Win a game without being exposed",
    "icon": "https://steamcdn-a.akamaihd.net/steamcommunity/public/images/apps/638070/141a6b60320349375bc3c0f3d9fea98d751a634f.jpg",
    "icongray": "https://steamcdn-a.akamaihd.net/steamcommunity/public/images/apps/638070/950b43af6f23b2cc4f013da4b89b85d91647f2dc.jpg"
  },
  {
    "name": "FAVOUR_GAME_100",
    "defaultvalue": 0,
    "displayName": "Windfall",
    "hidden": 0,
    "description": "Earn 100 favour in a single game",
    "icon": "https://steamcdn-a.akamaihd.net/steamcommunity/public/images/apps/638070/634ccb71ec108e7ea514760a93fae9dd0f60b9a5.jpg",
    "icongray": "https://steamcdn-a.akamaihd.net/steamcommunity/public/images/apps/638070/dd5e5443cbd4f1749e7715b7a5a940a464ecafb8.jpg"
  },
  {
    "name": "KILL_QUARRY_10",
    "defaultvalue": 0,
    "displayName": "Ripper",
    "hidden": 0,
    "description": "Kill 10 Quarries in a single game",
    "icon": "https://steamcdn-a.akamaihd.net/steamcommunity/public/images/apps/638070/c0077d5fcb027e3ee1d77d8bce878f6393f14d94.jpg",
    "icongray": "https://steamcdn-a.akamaihd.net/steamcommunity/public/images/apps/638070/ab8f6fe76e1a0c44798c6cbbd9d9e09e5e1cfc18.jpg"
  },
  {
    "name": "KILL_QUARRY_STUN_HUNTER",
    "defaultvalue": 0,
    "displayName": "Quick Draw",
    "hidden": 0,
    "description": "Kill a Quarry and Stun a hunter within 3 seconds of each other",
    "icon": "https://steamcdn-a.akamaihd.net/steamcommunity/public/images/apps/638070/1510266e500eec0f88813857711af254e6b2cca8.jpg",
    "icongray": "https://steamcdn-a.akamaihd.net/steamcommunity/public/images/apps/638070/07fcab3e1775ccee0f45b22d189ede5ff6347270.jpg"
  },
  {
    "name": "KILL_STUN_ALL",
    "defaultvalue": 0,
    "displayName": "Floozy",
    "hidden": 0,
    "description": "Kill or stun all other players in a game",
    "icon": "https://steamcdn-a.akamaihd.net/steamcommunity/public/images/apps/638070/26b89baeb2919649ddb4a1890c8427fc27551f00.jpg",
    "icongray": "https://steamcdn-a.akamaihd.net/steamcommunity/public/images/apps/638070/cd354246ecc5fa463d55a2aec1c17ab6b8da4566.jpg"
  },
  {
    "name": "WIN_10_PERK_UNDERDOG",
    "defaultvalue": 0,
    "displayName": "Underdog",
    "hidden": 0,
    "description": "Win 10 games with no perk equipped",
    "icon": "https://steamcdn-a.akamaihd.net/steamcommunity/public/images/apps/638070/3c4cb54fc00fc4bfefa781aaf53787ed00bedd24.jpg",
    "icongray": "https://steamcdn-a.akamaihd.net/steamcommunity/public/images/apps/638070/def8e2776475b95bc110e2a20235172680a5ffdb.jpg"
  },
  {
    "name": "WIN_10_PERK_SCAVENGER",
    "defaultvalue": 0,
    "displayName": "Scavenger",
    "hidden": 0,
    "description": "Win 10 games with the Scavenger perk equipped",
    "icon": "https://steamcdn-a.akamaihd.net/steamcommunity/public/images/apps/638070/516fe87b1052f2bf5ec982d4e1ab630f9a641acc.jpg",
    "icongray": "https://steamcdn-a.akamaihd.net/steamcommunity/public/images/apps/638070/9943ada26a8ed05fb37af957ad5f2f3556a113ff.jpg"
  },
  {
    "name": "WIN_10_PERK_CHAMELEON",
    "defaultvalue": 0,
    "displayName": "Chameleon",
    "hidden": 0,
    "description": "Win 10 games with the Chameleon perk equipped",
    "icon": "https://steamcdn-a.akamaihd.net/steamcommunity/public/images/apps/638070/34fb48cd4e8e822997aa9672709e8a8787e0288e.jpg",
    "icongray": "https://steamcdn-a.akamaihd.net/steamcommunity/public/images/apps/638070/3f5e922ae617bf89b70b7fb5a2503016bd900931.jpg"
  },
  {
    "name": "WIN_10_PERK_INCOGNITO",
    "defaultvalue": 0,
    "displayName": "Incognito",
    "hidden": 0,
    "description": "Win 10 games with the Incognito perk equipped",
    "icon": "https://steamcdn-a.akamaihd.net/steamcommunity/public/images/apps/638070/dda54685986aa509486bff1354df0805166ef1d2.jpg",
    "icongray": "https://steamcdn-a.akamaihd.net/steamcommunity/public/images/apps/638070/cf02252c4cff63e758708acec6abe3e0b5426b70.jpg"
  },
  {
    "name": "WIN_10_PERK_RESOURCEFUL",
    "defaultvalue": 0,
    "displayName": "Resourceful",
    "hidden": 0,
    "description": "Win 10 games with the Resourceful perk equipped",
    "icon": "https://steamcdn-a.akamaihd.net/steamcommunity/public/images/apps/638070/00ebe30e3f7299ac9cd6b8aec7e112e65c7f8780.jpg",
    "icongray": "https://steamcdn-a.akamaihd.net/steamcommunity/public/images/apps/638070/32f5fadd41e2470c65b64f8a2cccc156b86a33a5.jpg"
  },
  {
    "name": "WIN_10_PERK_DETERMINED",
    "defaultvalue": 0,
    "displayName": "Determined",
    "hidden": 0,
    "description": "Win 10 games with the Determined perk equipped",
    "icon": "https://steamcdn-a.akamaihd.net/steamcommunity/public/images/apps/638070/123cb21fffc807cd6f22fcbefc71ace6886e705d.jpg",
    "icongray": "https://steamcdn-a.akamaihd.net/steamcommunity/public/images/apps/638070/5513dbba71ea4c27e7ddf8084620225613e5e293.jpg"
  },
  {
    "name": "WIN_10_PERK_GAMBLER",
    "defaultvalue": 0,
    "displayName": "Gambler",
    "hidden": 0,
    "description": "Win 10 games with the Gambler perk equipped",
    "icon": "https://steamcdn-a.akamaihd.net/steamcommunity/public/images/apps/638070/d2840a8ed5a61e84095e3eb2e65c39bdd8c660d7.jpg",
    "icongray": "https://steamcdn-a.akamaihd.net/steamcommunity/public/images/apps/638070/d9095ff856089eb6111f5552ece89ef4be41ab7c.jpg"
  },
  {
    "name": "WIN_10_PERK_NIMBLE",
    "defaultvalue": 0,
    "displayName": "Nimble",
    "hidden": 0,
    "description": "Win 10 games with the Nimble perk equipped",
    "icon": "https://steamcdn-a.akamaihd.net/steamcommunity/public/images/apps/638070/cd227ec6791292726b3dc58297bc663502b95aeb.jpg",
    "icongray": "https://steamcdn-a.akamaihd.net/steamcommunity/public/images/apps/638070/8a714ae3847c8c05a12755d5781bbaaa7e2ee4ac.jpg"
  },
  {
    "name": "WIN_GAME_HUNT_25",
    "defaultvalue": 0,
    "displayName": "Hunter",
    "hidden": 0,
    "description": "Win 25 games of Hunt",
    "icon": "https://steamcdn-a.akamaihd.net/steamcommunity/public/images/apps/638070/6aa29e59cb779a403ef4f1010ea401fac26cfd0b.jpg",
    "icongray": "https://steamcdn-a.akamaihd.net/steamcommunity/public/images/apps/638070/2077bef85a63b25d226b6720727b4746139b56d1.jpg"
  },
  {
    "name": "WIN_GAME_DEATHMATCH_25",
    "defaultvalue": 0,
    "displayName": "Killer",
    "hidden": 0,
    "description": "Win 25 games of Deathmatch",
    "icon": "https://steamcdn-a.akamaihd.net/steamcommunity/public/images/apps/638070/3fb44871bf3c173be16ba178fcfb42747c56e289.jpg",
    "icongray": "https://steamcdn-a.akamaihd.net/steamcommunity/public/images/apps/638070/4d82cf3459841c84842ff803689f9f8adc004691.jpg"
  },
  {
    "name": "WIN_GAME_ELIMINATION_25",
    "defaultvalue": 0,
    "displayName": "Survivor",
    "hidden": 0,
    "description": "Win 25 games of Elimination",
    "icon": "https://steamcdn-a.akamaihd.net/steamcommunity/public/images/apps/638070/16ad98272ac1aa169cb0f41c881f6802a1506ee3.jpg",
    "icongray": "https://steamcdn-a.akamaihd.net/steamcommunity/public/images/apps/638070/5191177e1310be15a0c21563d628e7788cedd116.jpg"
  },
  {
    "name": "WIN_ALL_LEVELS",
    "defaultvalue": 0,
    "displayName": "Traveler",
    "hidden": 0,
    "description": "Win a game in each of the levels aboard the H.M.S Britannic",
    "icon": "https://steamcdn-a.akamaihd.net/steamcommunity/public/images/apps/638070/2662324607c80ee37d144e385b52f1e6d296b278.jpg",
    "icongray": "https://steamcdn-a.akamaihd.net/steamcommunity/public/images/apps/638070/a248427d7faf5311d9e85ffde308440ec028ab4b.jpg"
  },
  {
    "name": "FAVOUR_TOTAL_10000",
    "defaultvalue": 0,
    "displayName": "Basher",
    "hidden": 0,
    "description": "Earn a total of 10000 favour",
    "icon": "https://steamcdn-a.akamaihd.net/steamcommunity/public/images/apps/638070/a845c8c3a8c994880ff648f02bf5658dffdcf2f7.jpg",
    "icongray": "https://steamcdn-a.akamaihd.net/steamcommunity/public/images/apps/638070/409af2e6e9f9969ae2d10e0f8819884cd4aa4195.jpg"
  },
  {
    "name": "FLASH_QUARRY_HUNTER",
    "defaultvalue": 0,
    "displayName": "Fifteen Puzzle",
    "hidden": 0,
    "description": "Flash a Quarry and Hunter at the same time ",
    "icon": "https://steamcdn-a.akamaihd.net/steamcommunity/public/images/apps/638070/698ffd13a9c1379ccd41a59e6c16623d78544744.jpg",
    "icongray": "https://steamcdn-a.akamaihd.net/steamcommunity/public/images/apps/638070/829cff89ae69c233565603730d4654aa2d5c8482.jpg"
  },
  {
    "name": "ABILITY_DISGUISE_NEARBYQUARRYHUNTER",
    "defaultvalue": 0,
    "displayName": "Kruger-Spoof",
    "hidden": 0,
    "description": "Use disguise while a Quarry and Hunter is nearby",
    "icon": "https://steamcdn-a.akamaihd.net/steamcommunity/public/images/apps/638070/a96ea9ab170762006bb9dcfcd876b7a496bdc227.jpg",
    "icongray": "https://steamcdn-a.akamaihd.net/steamcommunity/public/images/apps/638070/7071526941b3846f68eda926cb0a4735826699b6.jpg"
  },
  {
    "name": "CALLING_CARDS_25",
    "defaultvalue": 0,
    "displayName": "Collector",
    "hidden": 0,
    "description": "Collect 25 Calling Cards",
    "icon": "https://steamcdn-a.akamaihd.net/steamcommunity/public/images/apps/638070/ad0d0c6b2c8916f970896304200e74cc063e7e61.jpg",
    "icongray": "https://steamcdn-a.akamaihd.net/steamcommunity/public/images/apps/638070/1a5c5314ff0deda8689c1d40c0bec550fd502ea9.jpg"
  }
]