﻿{
  "Dlcs": {},
  "Name": "Deadfall Adventures",
  "AppId": "231330",
  "ImageUrl": "https://steamcdn-a.akamaihd.net/steam/apps/231330/header.jpg?t=1561964976",
  "Languages": [
    "english",
    "german",
    "polish",
    "french",
    "russian"
  ],
  "Platforms": {
    "windows": true,
    "mac": false,
    "linux": true
  }
}