﻿{
  "Dlcs": {},
  "Name": "BREATHE",
  "AppId": "799860",
  "ImageUrl": "https://steamcdn-a.akamaihd.net/steam/apps/799860/header.jpg?t=1520521106",
  "Languages": [
    "english"
  ],
  "Platforms": {
    "windows": true,
    "mac": true,
    "linux": false
  }
}