﻿[
  {
    "name": "NOW_YOU_KNOW",
    "defaultvalue": 0,
    "displayName": "Now you know",
    "hidden": 0,
    "description": "Completed the Training. You are now ready.",
    "icon": "https://steamcdn-a.akamaihd.net/steamcommunity/public/images/apps/604950/6d0a1aeb1e0868f7f2a8ff77e2c48e223f361b21.jpg",
    "icongray": "https://steamcdn-a.akamaihd.net/steamcommunity/public/images/apps/604950/3f754b20583bdc595d103e0350d56b0f98e690d2.jpg"
  },
  {
    "name": "JOURNEY_BEGINS",
    "defaultvalue": 0,
    "displayName": "You journey begins",
    "hidden": 0,
    "description": "Finished Prime 1.",
    "icon": "https://steamcdn-a.akamaihd.net/steamcommunity/public/images/apps/604950/94d1d71ea38b957cb9c37281e767c987274e5b3f.jpg",
    "icongray": "https://steamcdn-a.akamaihd.net/steamcommunity/public/images/apps/604950/947a1edc5230a06eb457434f9ef6f7cc0ef6973e.jpg"
  },
  {
    "name": "PRIME_TRAVELLER_1",
    "defaultvalue": 0,
    "displayName": "Prime Traveller Lv 01",
    "hidden": 0,
    "description": "Completed the last Prime mission on difficulty 1.",
    "icon": "https://steamcdn-a.akamaihd.net/steamcommunity/public/images/apps/604950/2458a4bcc7d7ed3ce09e036b3083f226a6fbfa10.jpg",
    "icongray": "https://steamcdn-a.akamaihd.net/steamcommunity/public/images/apps/604950/87207bd9d67810235d6bbdda1206a8898490996f.jpg"
  },
  {
    "name": "PRIME_TRAVELLER_2",
    "defaultvalue": 0,
    "displayName": "Prime Traveller Lv 02",
    "hidden": 0,
    "description": "Completed the last Prime mission on difficulty 2.",
    "icon": "https://steamcdn-a.akamaihd.net/steamcommunity/public/images/apps/604950/cf1940a18682060f4c0374d2092158fa237d6c22.jpg",
    "icongray": "https://steamcdn-a.akamaihd.net/steamcommunity/public/images/apps/604950/5e9b9d5f20b99b24decfe60596e8160536a48774.jpg"
  },
  {
    "name": "PRIME_TRAVELLER_3",
    "defaultvalue": 0,
    "displayName": "Prime Traveller Lv 03",
    "hidden": 0,
    "description": "Completed the last Prime mission on difficulty 3.",
    "icon": "https://steamcdn-a.akamaihd.net/steamcommunity/public/images/apps/604950/a2b17ea8035936e90f2cfd7967d4cf8f900873d1.jpg",
    "icongray": "https://steamcdn-a.akamaihd.net/steamcommunity/public/images/apps/604950/9867513f69dccce9621ef29a387d29f272305421.jpg"
  },
  {
    "name": "PRIME_TRAVELLER_4",
    "defaultvalue": 0,
    "displayName": "Prime Traveller Lv 04",
    "hidden": 0,
    "description": "Completed the last Prime mission on difficulty 4.",
    "icon": "https://steamcdn-a.akamaihd.net/steamcommunity/public/images/apps/604950/e6278310c445525491f1b36f75707872c1a7265a.jpg",
    "icongray": "https://steamcdn-a.akamaihd.net/steamcommunity/public/images/apps/604950/67096ba7cf1bba62b53a4ef48fcd399c56c4af46.jpg"
  },
  {
    "name": "ENERGY_TRAVELLER_1",
    "defaultvalue": 0,
    "displayName": "Energy Traveller Lv 01",
    "hidden": 0,
    "description": "Completed the last Energy mission on difficulty 1.",
    "icon": "https://steamcdn-a.akamaihd.net/steamcommunity/public/images/apps/604950/7e9dbccb79bdf8e36ed2a1b10b60422b2758fea6.jpg",
    "icongray": "https://steamcdn-a.akamaihd.net/steamcommunity/public/images/apps/604950/6967b83b689cbd4bfca7c2a2b237db72920a5280.jpg"
  },
  {
    "name": "ENERGY_TRAVELLER_2",
    "defaultvalue": 0,
    "displayName": "Energy Traveller Lv 02",
    "hidden": 0,
    "description": "Completed the last Energy mission on difficulty 2.",
    "icon": "https://steamcdn-a.akamaihd.net/steamcommunity/public/images/apps/604950/1d04cae2b061690554a18f0d967a03834bcec578.jpg",
    "icongray": "https://steamcdn-a.akamaihd.net/steamcommunity/public/images/apps/604950/e75bc68680bdd7959dcc7538203d9e21796cf396.jpg"
  },
  {
    "name": "ENERGY_TRAVELLER_3",
    "defaultvalue": 0,
    "displayName": "Energy Traveller Lv 03",
    "hidden": 0,
    "description": "Completed the last Energy mission on difficulty 3.",
    "icon": "https://steamcdn-a.akamaihd.net/steamcommunity/public/images/apps/604950/7d211ff9e2cccd2842fe5d72c80c3821c3757a20.jpg",
    "icongray": "https://steamcdn-a.akamaihd.net/steamcommunity/public/images/apps/604950/0368717dcda4bc1f41ec01a6518a327bc4381c9c.jpg"
  },
  {
    "name": "ENERGY_TRAVELLER_4",
    "defaultvalue": 0,
    "displayName": "Energy Traveller Lv 04",
    "hidden": 0,
    "description": "Completed the last Energy mission on difficulty 4.",
    "icon": "https://steamcdn-a.akamaihd.net/steamcommunity/public/images/apps/604950/1ce6589b7073ed92c66543533d778da34ec7e22c.jpg",
    "icongray": "https://steamcdn-a.akamaihd.net/steamcommunity/public/images/apps/604950/1ce6589b7073ed92c66543533d778da34ec7e22c.jpg"
  },
  {
    "name": "RGB_TRAVELLER_1",
    "defaultvalue": 0,
    "displayName": "RGB Traveller Lv 01",
    "hidden": 0,
    "description": "Completed the last RGB mission on difficulty 1.",
    "icon": "https://steamcdn-a.akamaihd.net/steamcommunity/public/images/apps/604950/2c63562acf8a937aa7eb2195a0cb91e3ce0d5aee.jpg",
    "icongray": "https://steamcdn-a.akamaihd.net/steamcommunity/public/images/apps/604950/9ad1865afa0711adc72068368feb7886879a30d6.jpg"
  },
  {
    "name": "RGB_TRAVELLER_2",
    "defaultvalue": 0,
    "displayName": "RGB Traveller Lv 02",
    "hidden": 0,
    "description": "Completed the last RGB mission on difficulty 2.",
    "icon": "https://steamcdn-a.akamaihd.net/steamcommunity/public/images/apps/604950/ce0c6e00b8145c9e3413c90f650ecd5af79b6ff0.jpg",
    "icongray": "https://steamcdn-a.akamaihd.net/steamcommunity/public/images/apps/604950/97f5e35605df8de561637a738611a0b7c574a8bd.jpg"
  },
  {
    "name": "RGB_TRAVELLER_3",
    "defaultvalue": 0,
    "displayName": "RGB Traveller Lv 03",
    "hidden": 0,
    "description": "Completed the last RGB mission on difficulty 3.",
    "icon": "https://steamcdn-a.akamaihd.net/steamcommunity/public/images/apps/604950/928463a9d98ad2efb8ae6268e596d7ab01da5c68.jpg",
    "icongray": "https://steamcdn-a.akamaihd.net/steamcommunity/public/images/apps/604950/067e6729c1ddc27ec52805ca77ba6529991f6f55.jpg"
  },
  {
    "name": "RGB_TRAVELLER_4",
    "defaultvalue": 0,
    "displayName": "RGB Traveller Lv 04",
    "hidden": 0,
    "description": "Completed the last RGB mission on difficulty 4.",
    "icon": "https://steamcdn-a.akamaihd.net/steamcommunity/public/images/apps/604950/5a86b6737c4b594ca8ca42337de050548251e670.jpg",
    "icongray": "https://steamcdn-a.akamaihd.net/steamcommunity/public/images/apps/604950/39ebfdb31696c3565e730fb2a0dc8ef5376b199f.jpg"
  },
  {
    "name": "COLLECTOR",
    "defaultvalue": 0,
    "displayName": "Collector",
    "hidden": 0,
    "description": "Collected 250 points.",
    "icon": "https://steamcdn-a.akamaihd.net/steamcommunity/public/images/apps/604950/f57ab059dd24c1581c96e4d37dc79a84f39d1882.jpg",
    "icongray": "https://steamcdn-a.akamaihd.net/steamcommunity/public/images/apps/604950/97b3a56aaf063b979905c354f7f1c2e6a58faeb4.jpg"
  },
  {
    "name": "MEGA_COLLECTOR",
    "defaultvalue": 0,
    "displayName": "Mega Collector",
    "hidden": 0,
    "description": "Collected 3000 points.",
    "icon": "https://steamcdn-a.akamaihd.net/steamcommunity/public/images/apps/604950/37bb20f4d9661d67e041da17e7c877c8721e4cf2.jpg",
    "icongray": "https://steamcdn-a.akamaihd.net/steamcommunity/public/images/apps/604950/826835e0cc4f465e49fd8c2f58fbfeeda8ba6e84.jpg"
  },
  {
    "name": "PRIME_CHALLENGER",
    "defaultvalue": 0,
    "displayName": "Prime Challenger",
    "hidden": 0,
    "description": "Completed all Prime Challenges.",
    "icon": "https://steamcdn-a.akamaihd.net/steamcommunity/public/images/apps/604950/e6278310c445525491f1b36f75707872c1a7265a.jpg",
    "icongray": "https://steamcdn-a.akamaihd.net/steamcommunity/public/images/apps/604950/67096ba7cf1bba62b53a4ef48fcd399c56c4af46.jpg"
  },
  {
    "name": "ENERGY_CHALLENGER",
    "defaultvalue": 0,
    "displayName": "Energy Challenger",
    "hidden": 0,
    "description": "Completed all Energy Challenges.",
    "icon": "https://steamcdn-a.akamaihd.net/steamcommunity/public/images/apps/604950/1ce6589b7073ed92c66543533d778da34ec7e22c.jpg",
    "icongray": "https://steamcdn-a.akamaihd.net/steamcommunity/public/images/apps/604950/5e2618053ce1f7c90955487f065441fff65aac11.jpg"
  },
  {
    "name": "RGB_CHALLENGER",
    "defaultvalue": 0,
    "displayName": "RGB Challenger",
    "hidden": 0,
    "description": "Completed all RGB Challenges.",
    "icon": "https://steamcdn-a.akamaihd.net/steamcommunity/public/images/apps/604950/5a86b6737c4b594ca8ca42337de050548251e670.jpg",
    "icongray": "https://steamcdn-a.akamaihd.net/steamcommunity/public/images/apps/604950/39ebfdb31696c3565e730fb2a0dc8ef5376b199f.jpg"
  }
]