﻿[
  {
    "name": "TUTORIAL_COMPLETED",
    "defaultvalue": 0,
    "displayName": "Recruit",
    "hidden": 0,
    "description": "Complete the tutorial",
    "icon": "https://steamcdn-a.akamaihd.net/steamcommunity/public/images/apps/353130/85849f776e36e1000f87ecdb89b5b308ca2f1175.jpg",
    "icongray": "https://steamcdn-a.akamaihd.net/steamcommunity/public/images/apps/353130/1038ce2e3d52e4b7c0da9bc206f1ef49db5511cf.jpg"
  },
  {
    "name": "NUMBER_OF_GAMES_10",
    "defaultvalue": 0,
    "displayName": "Trial by the fire",
    "hidden": 0,
    "description": "Play 10 games",
    "icon": "https://steamcdn-a.akamaihd.net/steamcommunity/public/images/apps/353130/e4765cddddef010dbc8bffd16e20ee420bfd600e.jpg",
    "icongray": "https://steamcdn-a.akamaihd.net/steamcommunity/public/images/apps/353130/2746d627bf5abd74c3a7dda50acc4c2566b715f4.jpg"
  },
  {
    "name": "NUMBER_OF_GAMES_100",
    "defaultvalue": 0,
    "displayName": "Experienced",
    "hidden": 0,
    "description": "Play 100 games",
    "icon": "https://steamcdn-a.akamaihd.net/steamcommunity/public/images/apps/353130/0a999cf26940db21ab9574a164e999b3eb5c04ec.jpg",
    "icongray": "https://steamcdn-a.akamaihd.net/steamcommunity/public/images/apps/353130/2415890d1587e226f52c0e7ea3ff65c5a97471ca.jpg"
  },
  {
    "name": "NUMBER_OF_GAMES_500",
    "defaultvalue": 0,
    "displayName": "Battle-hardened",
    "hidden": 0,
    "description": "Play 500 games",
    "icon": "https://steamcdn-a.akamaihd.net/steamcommunity/public/images/apps/353130/03b6da17bd2dab9b5d95982aeea6b0f1fc492a18.jpg",
    "icongray": "https://steamcdn-a.akamaihd.net/steamcommunity/public/images/apps/353130/8cbcf28951ce186a3e280514d3e6aff04fdea3ad.jpg"
  },
  {
    "name": "NUMBER_OF_VICTORIES_10",
    "defaultvalue": 0,
    "displayName": "Soldier",
    "hidden": 0,
    "description": "Win 10 times",
    "icon": "https://steamcdn-a.akamaihd.net/steamcommunity/public/images/apps/353130/9a7ee1e8afed773a45c57489edaee1a50db9aeeb.jpg",
    "icongray": "https://steamcdn-a.akamaihd.net/steamcommunity/public/images/apps/353130/29c64ccbc67c0aeecafa208e763953efb736db44.jpg"
  },
  {
    "name": "NUMBER_OF_VICTORIES_100",
    "defaultvalue": 0,
    "displayName": "Warrior",
    "hidden": 0,
    "description": "Win 100 times",
    "icon": "https://steamcdn-a.akamaihd.net/steamcommunity/public/images/apps/353130/a86ff86309458d52ea28fb9c69c0a3f824bae90c.jpg",
    "icongray": "https://steamcdn-a.akamaihd.net/steamcommunity/public/images/apps/353130/a088f2d446309dddc847d8eed2e261279085d1a0.jpg"
  },
  {
    "name": "NUMBER_OF_VICTORIES_500",
    "defaultvalue": 0,
    "displayName": "Veteran",
    "hidden": 0,
    "description": "Win 500 times",
    "icon": "https://steamcdn-a.akamaihd.net/steamcommunity/public/images/apps/353130/7b67037e9001550bf383035a30277cfdff1e5637.jpg",
    "icongray": "https://steamcdn-a.akamaihd.net/steamcommunity/public/images/apps/353130/09b30446ceb6482d06fda0411f7910a936e8a5d1.jpg"
  },
  {
    "name": "FIRST_PLACE_10",
    "defaultvalue": 0,
    "displayName": "Gold 10",
    "hidden": 0,
    "description": "Take first place in the session game ranking 10 times",
    "icon": "https://steamcdn-a.akamaihd.net/steamcommunity/public/images/apps/353130/339b2d1f587ee82b4f77c1a683db1e391fa3dae6.jpg",
    "icongray": "https://steamcdn-a.akamaihd.net/steamcommunity/public/images/apps/353130/2488d02df697d767165e09db3bd7087d6301e9a5.jpg"
  },
  {
    "name": "FIRST_PLACE_100",
    "defaultvalue": 0,
    "displayName": "Gold 100",
    "hidden": 0,
    "description": "Take first place in the session game ranking 100 times",
    "icon": "https://steamcdn-a.akamaihd.net/steamcommunity/public/images/apps/353130/e8466f2428709a49555c25c2d8ab263089bbb1a3.jpg",
    "icongray": "https://steamcdn-a.akamaihd.net/steamcommunity/public/images/apps/353130/835cc8389b56c68f02a36661edc0cb25604ee666.jpg"
  },
  {
    "name": "FIRST_PLACE_500",
    "defaultvalue": 0,
    "displayName": "Gold 500",
    "hidden": 0,
    "description": "Take first place in the session game ranking 500 times",
    "icon": "https://steamcdn-a.akamaihd.net/steamcommunity/public/images/apps/353130/720d7eb1227802b3ff770fbe4ea5caa1f8f484a8.jpg",
    "icongray": "https://steamcdn-a.akamaihd.net/steamcommunity/public/images/apps/353130/f8cc21fa3761ac369a389df58ad3fcaa543233c4.jpg"
  },
  {
    "name": "SECOND_PLACE_10",
    "defaultvalue": 0,
    "displayName": "Silver 10",
    "hidden": 0,
    "description": "Take second place in the session game ranking 10 times",
    "icon": "https://steamcdn-a.akamaihd.net/steamcommunity/public/images/apps/353130/725c5a5bd7b360075bf8255f19cd031567cb0e23.jpg",
    "icongray": "https://steamcdn-a.akamaihd.net/steamcommunity/public/images/apps/353130/713c7c5495f91b312c3189f832ef45c93a9b6778.jpg"
  },
  {
    "name": "SECOND_PLACE_100",
    "defaultvalue": 0,
    "displayName": "Silver 100",
    "hidden": 0,
    "description": "Take second place in the session game ranking 100 times",
    "icon": "https://steamcdn-a.akamaihd.net/steamcommunity/public/images/apps/353130/daf9069e8d177e46971f41d76bb2bdf1eb7a4025.jpg",
    "icongray": "https://steamcdn-a.akamaihd.net/steamcommunity/public/images/apps/353130/0eb4d894816f3b8621b34362358f975f0c8f62d4.jpg"
  },
  {
    "name": "SECOND_PLACE_500",
    "defaultvalue": 0,
    "displayName": "Silver 500",
    "hidden": 0,
    "description": "Take second place in the session game ranking 500 times",
    "icon": "https://steamcdn-a.akamaihd.net/steamcommunity/public/images/apps/353130/1fccdfa3a74ba8ad8b5c6f7b246153c808d2c419.jpg",
    "icongray": "https://steamcdn-a.akamaihd.net/steamcommunity/public/images/apps/353130/757469fc1ff60dde6364155b09a2b02d46f8e13c.jpg"
  },
  {
    "name": "THIRD_PLACE_10",
    "defaultvalue": 0,
    "displayName": "Bronze 10",
    "hidden": 0,
    "description": "Take third place in the session game ranking 10 times",
    "icon": "https://steamcdn-a.akamaihd.net/steamcommunity/public/images/apps/353130/6e4865269fc576916952867bf9e80e8cfbb86364.jpg",
    "icongray": "https://steamcdn-a.akamaihd.net/steamcommunity/public/images/apps/353130/12d9f1e7c559789e579c1efffaa9abdbf12c0222.jpg"
  },
  {
    "name": "THIRD_PLACE_100",
    "defaultvalue": 0,
    "displayName": "Bronze 100",
    "hidden": 0,
    "description": "Take third place in the session game ranking 100 times",
    "icon": "https://steamcdn-a.akamaihd.net/steamcommunity/public/images/apps/353130/35337a5e7bf87372022b61afc50295119b05e72d.jpg",
    "icongray": "https://steamcdn-a.akamaihd.net/steamcommunity/public/images/apps/353130/01c9b447447a5ab7078bb89c327d192ddf434d8b.jpg"
  },
  {
    "name": "THIRD_PLACE_500",
    "defaultvalue": 0,
    "displayName": "Bronze 500",
    "hidden": 0,
    "description": "Take third place in the session game ranking 500 times",
    "icon": "https://steamcdn-a.akamaihd.net/steamcommunity/public/images/apps/353130/fcee149bcdd52561e22c358b9a9665e9d78543c8.jpg",
    "icongray": "https://steamcdn-a.akamaihd.net/steamcommunity/public/images/apps/353130/9bd25cb731479bfee9bc3e02837f281e414c82b1.jpg"
  },
  {
    "name": "DOUBLE_KILL_10",
    "defaultvalue": 0,
    "displayName": "Double kill 10",
    "hidden": 0,
    "description": "Make a double kill 10 times",
    "icon": "https://steamcdn-a.akamaihd.net/steamcommunity/public/images/apps/353130/2c451961307f873799100a9e86d271047eaccac2.jpg",
    "icongray": "https://steamcdn-a.akamaihd.net/steamcommunity/public/images/apps/353130/23a1a469ae21c018ab36ef983a128117a439bbf7.jpg"
  },
  {
    "name": "DOUBLE_KILL_100",
    "defaultvalue": 0,
    "displayName": "Double kill 100",
    "hidden": 0,
    "description": "Make a double kill 100 times",
    "icon": "https://steamcdn-a.akamaihd.net/steamcommunity/public/images/apps/353130/e214cfdf34feef165867731d3341afddcdf40bbb.jpg",
    "icongray": "https://steamcdn-a.akamaihd.net/steamcommunity/public/images/apps/353130/de6cb372371ad06b96fc88d64fbd195e58eb5ac9.jpg"
  },
  {
    "name": "DOUBLE_KILL_500",
    "defaultvalue": 0,
    "displayName": "Double kill 500",
    "hidden": 0,
    "description": "Make a double kill 500 times",
    "icon": "https://steamcdn-a.akamaihd.net/steamcommunity/public/images/apps/353130/31182f0afd640fa305359a2685d923efb89e8100.jpg",
    "icongray": "https://steamcdn-a.akamaihd.net/steamcommunity/public/images/apps/353130/4d0c38f48e33d2717beceef158233c1c3ba92acc.jpg"
  },
  {
    "name": "TRIPPLE_KILL_10",
    "defaultvalue": 0,
    "displayName": "Triple kill 10",
    "hidden": 0,
    "description": "Make a triple kill 10 times",
    "icon": "https://steamcdn-a.akamaihd.net/steamcommunity/public/images/apps/353130/101716abcf356b0a10c1d1ea0c3fb8465073649e.jpg",
    "icongray": "https://steamcdn-a.akamaihd.net/steamcommunity/public/images/apps/353130/0cfc9ae20d26da773d3c861460b5f84b99580c90.jpg"
  },
  {
    "name": "TRIPPLE_KILL_100",
    "defaultvalue": 0,
    "displayName": "Triple kill 100",
    "hidden": 0,
    "description": "Make a triple kill 100 times",
    "icon": "https://steamcdn-a.akamaihd.net/steamcommunity/public/images/apps/353130/0d715e65efdfbd38bc44fd492c0f35552f873009.jpg",
    "icongray": "https://steamcdn-a.akamaihd.net/steamcommunity/public/images/apps/353130/3b20f2f2386fbc2a007877ddfb794b6e88ae0119.jpg"
  },
  {
    "name": "TRIPPLE_KILL_500",
    "defaultvalue": 0,
    "displayName": "Triple kill 500",
    "hidden": 0,
    "description": "Make a triple kill 500 times",
    "icon": "https://steamcdn-a.akamaihd.net/steamcommunity/public/images/apps/353130/5502c286d362d81d67fd89d9ed5853b10a71d313.jpg",
    "icongray": "https://steamcdn-a.akamaihd.net/steamcommunity/public/images/apps/353130/319a72e662e688ca2325d8a2ffb4d37a754f6de1.jpg"
  },
  {
    "name": "MULTI_KILL_10",
    "defaultvalue": 0,
    "displayName": "Multi kill 10",
    "hidden": 0,
    "description": "Make a multi kill 10 times",
    "icon": "https://steamcdn-a.akamaihd.net/steamcommunity/public/images/apps/353130/c8d74f9cf690c72a5631cdcd14e36d2b0e615e3a.jpg",
    "icongray": "https://steamcdn-a.akamaihd.net/steamcommunity/public/images/apps/353130/dee0b5ece3326903d1d0a9e2a7a9eb1b0fbc68b2.jpg"
  },
  {
    "name": "MULTI_KILL_100",
    "defaultvalue": 0,
    "displayName": "Multi kill 100",
    "hidden": 0,
    "description": "Make a multi kill 100 times",
    "icon": "https://steamcdn-a.akamaihd.net/steamcommunity/public/images/apps/353130/26ee1b5e0def889a47649a3e1c66156f1aa7d697.jpg",
    "icongray": "https://steamcdn-a.akamaihd.net/steamcommunity/public/images/apps/353130/fb6c0ee582153f5afb4833b32299df927071b804.jpg"
  },
  {
    "name": "MULTI_KILL_500",
    "defaultvalue": 0,
    "displayName": "Multi kill 500",
    "hidden": 0,
    "description": "Make a multi kill 500 times",
    "icon": "https://steamcdn-a.akamaihd.net/steamcommunity/public/images/apps/353130/aebd0c6dde33b646b4e42e11aaaa5f7ca276b46f.jpg",
    "icongray": "https://steamcdn-a.akamaihd.net/steamcommunity/public/images/apps/353130/9c9beea32c545a7a858b944a71df8368350ccb08.jpg"
  },
  {
    "name": "NUMBER_OF_KILLS_100",
    "defaultvalue": 0,
    "displayName": "Drop of blood",
    "hidden": 0,
    "description": "Kill 100 players",
    "icon": "https://steamcdn-a.akamaihd.net/steamcommunity/public/images/apps/353130/940f1cf8dea9fd2b9374b72782d651028220a072.jpg",
    "icongray": "https://steamcdn-a.akamaihd.net/steamcommunity/public/images/apps/353130/909cd6a84f5671b2929d98009630fff3211c1c0b.jpg"
  },
  {
    "name": "NUMBER_OF_KILLS_500",
    "defaultvalue": 0,
    "displayName": "More blood",
    "hidden": 0,
    "description": "Kill 500 players",
    "icon": "https://steamcdn-a.akamaihd.net/steamcommunity/public/images/apps/353130/be0e95954081431f9f4f50078bf58fb1a2b2a507.jpg",
    "icongray": "https://steamcdn-a.akamaihd.net/steamcommunity/public/images/apps/353130/c914fe51819127ee96804d368c08bea01b3d47e3.jpg"
  },
  {
    "name": "NUMBER_OF_KILLS_1000",
    "defaultvalue": 0,
    "displayName": "Seas of blood",
    "hidden": 0,
    "description": "Kill 1000 players",
    "icon": "https://steamcdn-a.akamaihd.net/steamcommunity/public/images/apps/353130/acecb8b68c5d2fb5fec821915b7fc99edc9af0d0.jpg",
    "icongray": "https://steamcdn-a.akamaihd.net/steamcommunity/public/images/apps/353130/8275f2efba19e1af0d6e7760da26062cd6331d71.jpg"
  },
  {
    "name": "CREATED_DRAGONS_A",
    "defaultvalue": 0,
    "displayName": "Biologist",
    "hidden": 0,
    "description": "Create all dragons",
    "icon": "https://steamcdn-a.akamaihd.net/steamcommunity/public/images/apps/353130/7fb57ed6cd6d9cb3c038ee9df4a29b514407bf79.jpg",
    "icongray": "https://steamcdn-a.akamaihd.net/steamcommunity/public/images/apps/353130/849a256000dbd2127cf2176f2eeb625bd755b57e.jpg"
  },
  {
    "name": "LEADERBOARD_PLACE_WEEK",
    "defaultvalue": 0,
    "displayName": "Weekly TOP",
    "hidden": 0,
    "description": "Take a top place in weekly rating",
    "icon": "https://steamcdn-a.akamaihd.net/steamcommunity/public/images/apps/353130/d6bc790031532967ef9bb42435627854c29c06b5.jpg",
    "icongray": "https://steamcdn-a.akamaihd.net/steamcommunity/public/images/apps/353130/7d2870a414484db98edbcbf9a160f616ae3f8fb8.jpg"
  },
  {
    "name": "LEADERBOARD_PLACE_MONTH",
    "defaultvalue": 0,
    "displayName": "TOP of the month",
    "hidden": 0,
    "description": "Take a top place in monthly rating",
    "icon": "https://steamcdn-a.akamaihd.net/steamcommunity/public/images/apps/353130/cdae8c01c82a756381d6c5584213912530a18d4b.jpg",
    "icongray": "https://steamcdn-a.akamaihd.net/steamcommunity/public/images/apps/353130/939c3273a4f347b86d66e19259f9f61254363270.jpg"
  },
  {
    "name": "LEADERBOARD_PLACE_DAY",
    "defaultvalue": 0,
    "displayName": "Daily TOP",
    "hidden": 0,
    "description": "Take a top place in daily rating",
    "icon": "https://steamcdn-a.akamaihd.net/steamcommunity/public/images/apps/353130/3a9670c74c7e56b0bcabccd99e9bc049a103efab.jpg",
    "icongray": "https://steamcdn-a.akamaihd.net/steamcommunity/public/images/apps/353130/c10d035513016d6bf3a22c3f7a5f47dd5d130ceb.jpg"
  },
  {
    "name": "ZERO_DEATHS_FOR_ONE_ROUND",
    "defaultvalue": 0,
    "displayName": "Survivor",
    "hidden": 1,
    "icon": "https://steamcdn-a.akamaihd.net/steamcommunity/public/images/apps/353130/ecbc97a6c2bee0e2e374ddafa2c266aa01eae3e3.jpg",
    "icongray": "https://steamcdn-a.akamaihd.net/steamcommunity/public/images/apps/353130/f61dfbbfa3e11a3c3a83110651ad3add17aba616.jpg"
  },
  {
    "name": "PURE_WIN",
    "defaultvalue": 0,
    "displayName": "Pure victory",
    "hidden": 0,
    "description": "Whitewash the enemy team",
    "icon": "https://steamcdn-a.akamaihd.net/steamcommunity/public/images/apps/353130/48dffe3e88a1215c787fcf52dd1eaddfbc9aee2f.jpg",
    "icongray": "https://steamcdn-a.akamaihd.net/steamcommunity/public/images/apps/353130/b4694bf4c6bb35ed043fb0f73270ef72141f48a2.jpg"
  },
  {
    "name": "PLAY_WITH_FRIENDS",
    "defaultvalue": 0,
    "displayName": "Brothers in arms",
    "hidden": 0,
    "description": "Play with your friends",
    "icon": "https://steamcdn-a.akamaihd.net/steamcommunity/public/images/apps/353130/b116e508b20dddfeb641a3b90f1295322ce4a951.jpg",
    "icongray": "https://steamcdn-a.akamaihd.net/steamcommunity/public/images/apps/353130/acc86ef6213fe691e15d8c48d9452dd088c988a8.jpg"
  },
  {
    "name": "MASK_MAPS_A",
    "defaultvalue": 0,
    "displayName": "Explorer",
    "hidden": 0,
    "description": "Play on all maps",
    "icon": "https://steamcdn-a.akamaihd.net/steamcommunity/public/images/apps/353130/91d2d86dda54998247f7831534ca4e1419c1106b.jpg",
    "icongray": "https://steamcdn-a.akamaihd.net/steamcommunity/public/images/apps/353130/01f2e1977711053b5f07b60cf6559c3530f3b73e.jpg"
  },
  {
    "name": "MASK_DRAGONS_A",
    "defaultvalue": 0,
    "displayName": "General",
    "hidden": 0,
    "description": "Use all dragons",
    "icon": "https://steamcdn-a.akamaihd.net/steamcommunity/public/images/apps/353130/259b76a588831c807a643b9e1201f9df9cbe552b.jpg",
    "icongray": "https://steamcdn-a.akamaihd.net/steamcommunity/public/images/apps/353130/4925188be6fb8cc8808a280d3ba35e51f2c5ce14.jpg"
  },
  {
    "name": "MASK_MAGIC_A",
    "defaultvalue": 0,
    "displayName": "Elementalist's apprentice",
    "hidden": 0,
    "description": "Use special abilities of all dragons",
    "icon": "https://steamcdn-a.akamaihd.net/steamcommunity/public/images/apps/353130/355fa6f9c92d824a2115a519434f42ae0e0080ba.jpg",
    "icongray": "https://steamcdn-a.akamaihd.net/steamcommunity/public/images/apps/353130/b1622b3c4635546f42caa8bb487461e3ba862441.jpg"
  },
  {
    "name": "BLIND_KILL",
    "defaultvalue": 0,
    "displayName": "Blindfolded",
    "hidden": 0,
    "description": "Kill an opponent while under the influence of the ability named Flash",
    "icon": "https://steamcdn-a.akamaihd.net/steamcommunity/public/images/apps/353130/44925f9e20d401440c8012daf2c5fbcf98237d5b.jpg",
    "icongray": "https://steamcdn-a.akamaihd.net/steamcommunity/public/images/apps/353130/c9e46a82e80fbf6ba9da9ea5a1d46f36f68e7357.jpg"
  },
  {
    "name": "STUN_KILL",
    "defaultvalue": 0,
    "displayName": "No movement",
    "hidden": 0,
    "description": "Kill an opponent while under the influence of the ability named Stun",
    "icon": "https://steamcdn-a.akamaihd.net/steamcommunity/public/images/apps/353130/5659e1fc2c928fb134cbb4c5ded49d51e42e3e99.jpg",
    "icongray": "https://steamcdn-a.akamaihd.net/steamcommunity/public/images/apps/353130/2bb21d28986ee71db85c1f55a9d0a888c862e560.jpg"
  },
  {
    "name": "POISON_KILL",
    "defaultvalue": 0,
    "displayName": "The Antidote",
    "hidden": 0,
    "description": "Kill an opponent while under the influence of the ability named Poison Cloud",
    "icon": "https://steamcdn-a.akamaihd.net/steamcommunity/public/images/apps/353130/e507fbe5beda28c789d02584fd724b5c368a184d.jpg",
    "icongray": "https://steamcdn-a.akamaihd.net/steamcommunity/public/images/apps/353130/93b2e2814e0f2df28634d4530cb2d4184ddd293c.jpg"
  },
  {
    "name": "MASK_WEAPONS_USE_ITEMS_A",
    "defaultvalue": 0,
    "displayName": "Full arsenal",
    "hidden": 0,
    "description": "Use all weapons and supplies",
    "icon": "https://steamcdn-a.akamaihd.net/steamcommunity/public/images/apps/353130/a4c5098baae2eab73cb9a2ccdfa59408bdd3de9a.jpg",
    "icongray": "https://steamcdn-a.akamaihd.net/steamcommunity/public/images/apps/353130/dc31a14fcb6ceeddae37ec2828af8bd215be083f.jpg"
  },
  {
    "name": "REVENGE",
    "defaultvalue": 0,
    "displayName": "Vengeance",
    "hidden": 1,
    "icon": "https://steamcdn-a.akamaihd.net/steamcommunity/public/images/apps/353130/3e89d3d99176db2f20e2acdf75e3db55980c71e4.jpg",
    "icongray": "https://steamcdn-a.akamaihd.net/steamcommunity/public/images/apps/353130/a78188f56148acf97f0e460dab9ffd9a4824b66f.jpg"
  },
  {
    "name": "EARLY_WIN",
    "defaultvalue": 0,
    "displayName": "No chance",
    "hidden": 1,
    "icon": "https://steamcdn-a.akamaihd.net/steamcommunity/public/images/apps/353130/71889afd3cb104a10f0036fd1c914607438827da.jpg",
    "icongray": "https://steamcdn-a.akamaihd.net/steamcommunity/public/images/apps/353130/99d1649ec9b2785a4164f2573e1c1054623c2477.jpg"
  },
  {
    "name": "KILLS_HIGHT_LEVEL_10",
    "defaultvalue": 0,
    "displayName": "Atlas hunter 10",
    "hidden": 0,
    "description": "Kill 10 high level players",
    "icon": "https://steamcdn-a.akamaihd.net/steamcommunity/public/images/apps/353130/0f0f0dc87ac7f2484ca185f501d6cd48ee42f521.jpg",
    "icongray": "https://steamcdn-a.akamaihd.net/steamcommunity/public/images/apps/353130/b44176a8519ab158dfeaa1317371316360871560.jpg"
  },
  {
    "name": "KILLS_HIGHT_LEVEL_100",
    "defaultvalue": 0,
    "displayName": "Atlas hunter 100",
    "hidden": 0,
    "description": "Kill 100 high level players",
    "icon": "https://steamcdn-a.akamaihd.net/steamcommunity/public/images/apps/353130/37ebfaec3c76cc536c8276f329664fccfa7f2eb9.jpg",
    "icongray": "https://steamcdn-a.akamaihd.net/steamcommunity/public/images/apps/353130/04ddf9ae3918cc4e87d2c01f6f6f3a4b2fc7d397.jpg"
  },
  {
    "name": "KILLS_HIGHT_LEVEL_500",
    "defaultvalue": 0,
    "displayName": "Atlas hunter 500",
    "hidden": 0,
    "description": "Kill 500 high level players",
    "icon": "https://steamcdn-a.akamaihd.net/steamcommunity/public/images/apps/353130/bb12dfdafcc0530991c878728a152e12aa96c8fd.jpg",
    "icongray": "https://steamcdn-a.akamaihd.net/steamcommunity/public/images/apps/353130/f45a5795f36302bdbeefc1d9da673a9ec0487237.jpg"
  },
  {
    "name": "NUMBER_OF_TREAT_10",
    "defaultvalue": 0,
    "displayName": "Medic",
    "hidden": 0,
    "description": "Heal 10 players",
    "icon": "https://steamcdn-a.akamaihd.net/steamcommunity/public/images/apps/353130/5436501d9f2a6922b1ccb11e825dcdb027f76abd.jpg",
    "icongray": "https://steamcdn-a.akamaihd.net/steamcommunity/public/images/apps/353130/36de7e6b6629dd10f87af692e1ea8cfdf8a4b2cf.jpg"
  },
  {
    "name": "NUMBER_OF_TREAT_100",
    "defaultvalue": 0,
    "displayName": "Physician",
    "hidden": 0,
    "description": "Heal 100 players",
    "icon": "https://steamcdn-a.akamaihd.net/steamcommunity/public/images/apps/353130/ea2fb311b749668952460c905eb85bf7360e0920.jpg",
    "icongray": "https://steamcdn-a.akamaihd.net/steamcommunity/public/images/apps/353130/7ffbb16c94cce8a174cd59150657f64560959860.jpg"
  },
  {
    "name": "NUMBER_OF_TREAT_500",
    "defaultvalue": 0,
    "displayName": "Doctor",
    "hidden": 0,
    "description": "Heal 500 players",
    "icon": "https://steamcdn-a.akamaihd.net/steamcommunity/public/images/apps/353130/c8970456a6afa29fc594db2a8a7967e4e547932e.jpg",
    "icongray": "https://steamcdn-a.akamaihd.net/steamcommunity/public/images/apps/353130/684b128ed61f5719f4c97c15d1a6fad7786ce5d5.jpg"
  },
  {
    "name": "NUMBER_OF_CRITICAL_KILLS_10",
    "defaultvalue": 0,
    "displayName": "Running on empty 10",
    "hidden": 0,
    "description": "Kill 10 enemy players while having critically low health",
    "icon": "https://steamcdn-a.akamaihd.net/steamcommunity/public/images/apps/353130/5c6978a64adaa13d9aa78d158c167450e62a1ef9.jpg",
    "icongray": "https://steamcdn-a.akamaihd.net/steamcommunity/public/images/apps/353130/4cb45103564122a35e8304cc92c38c29ffb20c77.jpg"
  },
  {
    "name": "NUMBER_OF_CRITICAL_KILLS_100",
    "defaultvalue": 0,
    "displayName": "Running on empty 100",
    "hidden": 0,
    "description": "Kill 100 enemy players while having critically low health",
    "icon": "https://steamcdn-a.akamaihd.net/steamcommunity/public/images/apps/353130/2d2bb22ff1bf8259ec6910c12ac82a82de6b62ba.jpg",
    "icongray": "https://steamcdn-a.akamaihd.net/steamcommunity/public/images/apps/353130/e603aaa8bfc2b3609697a521ed1d6143c10cbe1d.jpg"
  },
  {
    "name": "NUMBER_OF_CRITICAL_KILLS_500",
    "defaultvalue": 0,
    "displayName": "Running on empty 500",
    "hidden": 0,
    "description": "Kill 500 enemy players while having critically low health",
    "icon": "https://steamcdn-a.akamaihd.net/steamcommunity/public/images/apps/353130/f4327f6d55b7724476c408f0fba5856b61d58039.jpg",
    "icongray": "https://steamcdn-a.akamaihd.net/steamcommunity/public/images/apps/353130/40a4705b1f44e756d4acc3fd123f5f09b1a4e0d3.jpg"
  },
  {
    "name": "NUMBER_OF_ASSISTANCE_10",
    "defaultvalue": 0,
    "displayName": "Sidekick 10",
    "hidden": 0,
    "description": "Assist in 10 kills",
    "icon": "https://steamcdn-a.akamaihd.net/steamcommunity/public/images/apps/353130/6a7978ae53f67527941e57030d3d145df3643362.jpg",
    "icongray": "https://steamcdn-a.akamaihd.net/steamcommunity/public/images/apps/353130/5ba7361b9268fda529b33113ba47ea5b2468f7f1.jpg"
  },
  {
    "name": "NUMBER_OF_ASSISTANCE_100",
    "defaultvalue": 0,
    "displayName": "Sidekick 100",
    "hidden": 0,
    "description": "Assist in 100 kills",
    "icon": "https://steamcdn-a.akamaihd.net/steamcommunity/public/images/apps/353130/350c3c359a125b540578e90a341b9c2912c06151.jpg",
    "icongray": "https://steamcdn-a.akamaihd.net/steamcommunity/public/images/apps/353130/ffa2a04b55d5f885e1a4df088edbdecf6bb92e88.jpg"
  },
  {
    "name": "NUMBER_OF_ASSISTANCE_500",
    "defaultvalue": 0,
    "displayName": "Sidekick 500",
    "hidden": 0,
    "description": "Assist in 500 kills",
    "icon": "https://steamcdn-a.akamaihd.net/steamcommunity/public/images/apps/353130/2c534964b500812ec54df76395268c190e6a4934.jpg",
    "icongray": "https://steamcdn-a.akamaihd.net/steamcommunity/public/images/apps/353130/0b187afc476767afdda59e74f5bc190bb7a1846d.jpg"
  },
  {
    "name": "NUMBER_OF_TIME_KILLS_2",
    "defaultvalue": 0,
    "displayName": "Smasher 2",
    "hidden": 0,
    "description": "Kill 2 players in one minute.",
    "icon": "https://steamcdn-a.akamaihd.net/steamcommunity/public/images/apps/353130/9b730f67f4a052b5d6a1d00024cb6653590b386f.jpg",
    "icongray": "https://steamcdn-a.akamaihd.net/steamcommunity/public/images/apps/353130/d9a3c05fc8ebe5b09c750faf1d21098611b34ecd.jpg"
  },
  {
    "name": "NUMBER_OF_TIME_KILLS_4",
    "defaultvalue": 0,
    "displayName": "Smasher 4",
    "hidden": 0,
    "description": "Kill 4 players in one minute.",
    "icon": "https://steamcdn-a.akamaihd.net/steamcommunity/public/images/apps/353130/f4389dabe642cb48e376360c3ccf180160645b22.jpg",
    "icongray": "https://steamcdn-a.akamaihd.net/steamcommunity/public/images/apps/353130/4b20900221706e8d34688348681f30c18828c8ae.jpg"
  },
  {
    "name": "NUMBER_OF_TIME_KILLS_6",
    "defaultvalue": 0,
    "displayName": "Smasher 6",
    "hidden": 0,
    "description": "Kill 6 players in one minute.",
    "icon": "https://steamcdn-a.akamaihd.net/steamcommunity/public/images/apps/353130/8ea6806d35e6ec36c02af748b9c6e163cbbcdec9.jpg",
    "icongray": "https://steamcdn-a.akamaihd.net/steamcommunity/public/images/apps/353130/c2e913743c6ae0d24b2013fc23e15e46d4552461.jpg"
  },
  {
    "name": "NUMBER_OF_SOULS_10",
    "defaultvalue": 0,
    "displayName": "Soul Collector 10",
    "hidden": 0,
    "description": "Collect 10 souls (Soul Collector mode)",
    "icon": "https://steamcdn-a.akamaihd.net/steamcommunity/public/images/apps/353130/c83d443686918bdb44b7fcd5e70f09fa159450d5.jpg",
    "icongray": "https://steamcdn-a.akamaihd.net/steamcommunity/public/images/apps/353130/d93f2b1bf6e3c5f6a9a172fc119d8a15a89f6719.jpg"
  },
  {
    "name": "NUMBER_OF_SOULS_50",
    "defaultvalue": 0,
    "displayName": "Soul Collector 50",
    "hidden": 0,
    "description": "Collect 50 souls (Soul Collector mode)",
    "icon": "https://steamcdn-a.akamaihd.net/steamcommunity/public/images/apps/353130/cb2599df5bfa1b9ec1e6f0a496ccf206d3765ffe.jpg",
    "icongray": "https://steamcdn-a.akamaihd.net/steamcommunity/public/images/apps/353130/aa86276d8b57602ec51fc6d75e86cc3982b691c3.jpg"
  },
  {
    "name": "NUMBER_OF_SOULS_100",
    "defaultvalue": 0,
    "displayName": "Soul Collector 100",
    "hidden": 0,
    "description": "Collect 100 souls (Soul Collector mode)",
    "icon": "https://steamcdn-a.akamaihd.net/steamcommunity/public/images/apps/353130/c0710a3be667f24158df717b3ba469149ebcfb32.jpg",
    "icongray": "https://steamcdn-a.akamaihd.net/steamcommunity/public/images/apps/353130/3e3886b6cf5de3cd7b30980a65a043df4c2067df.jpg"
  },
  {
    "name": "NUMBER_OF_POINTS_10",
    "defaultvalue": 0,
    "displayName": "Controller 10",
    "hidden": 0,
    "description": "Take control on 10 points",
    "icon": "https://steamcdn-a.akamaihd.net/steamcommunity/public/images/apps/353130/4e18532952ebf5fad9b9f655a69ffa5e2013849f.jpg",
    "icongray": "https://steamcdn-a.akamaihd.net/steamcommunity/public/images/apps/353130/f4e80236c53f74a5ecbb1a47443e3feff539838c.jpg"
  },
  {
    "name": "NUMBER_OF_POINTS_50",
    "defaultvalue": 0,
    "displayName": "Controller 50",
    "hidden": 0,
    "description": "Take control on 50 points",
    "icon": "https://steamcdn-a.akamaihd.net/steamcommunity/public/images/apps/353130/3d0c84edec73d7043a14f30a17f95d203a11b6d4.jpg",
    "icongray": "https://steamcdn-a.akamaihd.net/steamcommunity/public/images/apps/353130/e40ad8205f6242e2c12cdfc6f13b446be9aeac10.jpg"
  },
  {
    "name": "NUMBER_OF_POINTS_100",
    "defaultvalue": 0,
    "displayName": "Controller 100",
    "hidden": 0,
    "description": "Take control on 100 points",
    "icon": "https://steamcdn-a.akamaihd.net/steamcommunity/public/images/apps/353130/0d629d26827d129e2dd91be57a1a4d896719f37e.jpg",
    "icongray": "https://steamcdn-a.akamaihd.net/steamcommunity/public/images/apps/353130/e43797b262631ca1edafe59c3c8b30e064f0d4b7.jpg"
  },
  {
    "name": "DAMAGE_100K",
    "defaultvalue": 0,
    "displayName": "Destroyer 100000",
    "hidden": 0,
    "description": "Cause 100000 damage",
    "icon": "https://steamcdn-a.akamaihd.net/steamcommunity/public/images/apps/353130/15a2344c26cf24c97cfcdde74bf86076a23126e3.jpg",
    "icongray": "https://steamcdn-a.akamaihd.net/steamcommunity/public/images/apps/353130/ad62d89c82d30bad3ff84fe4d71cf6f55563879c.jpg"
  },
  {
    "name": "DAMAGE_500K",
    "defaultvalue": 0,
    "displayName": "Destroyer 500000",
    "hidden": 0,
    "description": "Cause 500000 damage",
    "icon": "https://steamcdn-a.akamaihd.net/steamcommunity/public/images/apps/353130/9619a23c273a18b9f111eaee28fea110c6ef0285.jpg",
    "icongray": "https://steamcdn-a.akamaihd.net/steamcommunity/public/images/apps/353130/1402c9b4a6d0d00e7d8d69371ff32b64701885df.jpg"
  },
  {
    "name": "DAMAGE_1M",
    "defaultvalue": 0,
    "displayName": "Destroyer 1000000",
    "hidden": 0,
    "description": "Cause 1000000 damage",
    "icon": "https://steamcdn-a.akamaihd.net/steamcommunity/public/images/apps/353130/0d6cdf7fe3976877258ce87ceb7b9454b3b68a46.jpg",
    "icongray": "https://steamcdn-a.akamaihd.net/steamcommunity/public/images/apps/353130/9cebaabea9a7d971740d8333b0610a8c794e21b7.jpg"
  },
  {
    "name": "NUMBER_OF_TEAM_COMMANDS_10",
    "defaultvalue": 0,
    "displayName": "Commander 10",
    "hidden": 1,
    "icon": "https://steamcdn-a.akamaihd.net/steamcommunity/public/images/apps/353130/460ce36b7e30188b030b405224e7d6454ccdf28c.jpg",
    "icongray": "https://steamcdn-a.akamaihd.net/steamcommunity/public/images/apps/353130/1f80f0603b27487a3bf3bb16a089c878c4b91392.jpg"
  },
  {
    "name": "NUMBER_OF_TEAM_COMMANDS_50",
    "defaultvalue": 0,
    "displayName": "Commander 50",
    "hidden": 1,
    "icon": "https://steamcdn-a.akamaihd.net/steamcommunity/public/images/apps/353130/8c56f82e6912124f8d4b7b9f32d766ea490323dd.jpg",
    "icongray": "https://steamcdn-a.akamaihd.net/steamcommunity/public/images/apps/353130/a03eb28cbc66b69d2eedcb858968411a1308a18d.jpg"
  },
  {
    "name": "NUMBER_OF_TEAM_COMMANDS_100",
    "defaultvalue": 0,
    "displayName": "Commander 100",
    "hidden": 1,
    "icon": "https://steamcdn-a.akamaihd.net/steamcommunity/public/images/apps/353130/d485d14e0e9518ec50743e62db12e7f214cca29e.jpg",
    "icongray": "https://steamcdn-a.akamaihd.net/steamcommunity/public/images/apps/353130/f077f1ffc440a0db6c3a20e89a9904e2bd7d9d15.jpg"
  },
  {
    "name": "NUMBER_OF_ONE_ROUND_KILLS_5",
    "defaultvalue": 0,
    "displayName": "Ruffian 5",
    "hidden": 0,
    "description": "Kill 5 dragons during battle",
    "icon": "https://steamcdn-a.akamaihd.net/steamcommunity/public/images/apps/353130/5658ee9c5679a5f1ecdabb22c506b6e8e5a9ab91.jpg",
    "icongray": "https://steamcdn-a.akamaihd.net/steamcommunity/public/images/apps/353130/b80111a52412fec7810e1e2da2490d20273a05b5.jpg"
  },
  {
    "name": "NUMBER_OF_ONE_ROUND_KILLS_10",
    "defaultvalue": 0,
    "displayName": "Ruffian 10",
    "hidden": 0,
    "description": "Kill 10 dragons during battle",
    "icon": "https://steamcdn-a.akamaihd.net/steamcommunity/public/images/apps/353130/8ca1345350269dbbab12c3b804971d8dc353fb4b.jpg",
    "icongray": "https://steamcdn-a.akamaihd.net/steamcommunity/public/images/apps/353130/af634c0fc16c4c0c7a0269f5e0ef414487314f83.jpg"
  },
  {
    "name": "NUMBER_OF_ONE_ROUND_KILLS_15",
    "defaultvalue": 0,
    "displayName": "Ruffian 15",
    "hidden": 0,
    "description": "Kill 15 dragons during battle",
    "icon": "https://steamcdn-a.akamaihd.net/steamcommunity/public/images/apps/353130/ea526a7d52dddd6b315ba6c5c9fdea6bfce4fbb2.jpg",
    "icongray": "https://steamcdn-a.akamaihd.net/steamcommunity/public/images/apps/353130/9153870bd0e66ac6100bccde5cea43bd19cffb6d.jpg"
  },
  {
    "name": "STRONG_WIN",
    "defaultvalue": 0,
    "displayName": "The turning point",
    "hidden": 0,
    "description": "Win the battle on last minute",
    "icon": "https://steamcdn-a.akamaihd.net/steamcommunity/public/images/apps/353130/5ba04d63834523147e038304fef483c92278676e.jpg",
    "icongray": "https://steamcdn-a.akamaihd.net/steamcommunity/public/images/apps/353130/6a86f6660f9700475f4771c816d2193c38b833cd.jpg"
  },
  {
    "name": "PLAY_WITH_ALL_DRAGONS",
    "defaultvalue": 0,
    "displayName": "Universalist",
    "hidden": 0,
    "description": "Use all dragons in one battle",
    "icon": "https://steamcdn-a.akamaihd.net/steamcommunity/public/images/apps/353130/75df8598b8d4646c479f53eb26df201619269bd8.jpg",
    "icongray": "https://steamcdn-a.akamaihd.net/steamcommunity/public/images/apps/353130/3dd94b953e19bba72c624b5689f737c1dd825a38.jpg"
  },
  {
    "name": "PLAY_WITH_ALL_WEAPONS_ITEMS",
    "defaultvalue": 0,
    "displayName": "Pack Rat",
    "hidden": 0,
    "description": "Use all weapons and supplies in one battle (a weapon is considered used if it caused a death of enemy dragon)",
    "icon": "https://steamcdn-a.akamaihd.net/steamcommunity/public/images/apps/353130/1a7460dd214f5d0a46c2682af7b60d47ebd4edec.jpg",
    "icongray": "https://steamcdn-a.akamaihd.net/steamcommunity/public/images/apps/353130/a31cf0e9191f13eace3fe70e06b82a70883d504c.jpg"
  },
  {
    "name": "PLAY_WITH_ALL_MAGIC",
    "defaultvalue": 0,
    "displayName": "Elementalist",
    "hidden": 0,
    "description": "Use special abilities of all dragons in one battle",
    "icon": "https://steamcdn-a.akamaihd.net/steamcommunity/public/images/apps/353130/3d4977d0ace2d2e794a48c4deb22aa495f117520.jpg",
    "icongray": "https://steamcdn-a.akamaihd.net/steamcommunity/public/images/apps/353130/38b23d55f4b3ed619ef95cb54a35f2ab2baa3cb2.jpg"
  },
  {
    "name": "PLAY_ALL_MAPS",
    "defaultvalue": 0,
    "displayName": "Traveller",
    "hidden": 0,
    "description": "Play on all maps without exiting into the menu",
    "icon": "https://steamcdn-a.akamaihd.net/steamcommunity/public/images/apps/353130/89503de8be07134e8b50cbd9f0360a1688a63576.jpg",
    "icongray": "https://steamcdn-a.akamaihd.net/steamcommunity/public/images/apps/353130/838d9c54a4c75e20d28736cfe1051f9701003513.jpg"
  },
  {
    "name": "TEAM_KILLER",
    "defaultvalue": 0,
    "displayName": "Polite Berserk",
    "hidden": 1,
    "icon": "https://steamcdn-a.akamaihd.net/steamcommunity/public/images/apps/353130/ad3c8cf4b475ae39d94972f4a41dec7e209b6b82.jpg",
    "icongray": "https://steamcdn-a.akamaihd.net/steamcommunity/public/images/apps/353130/82da00ac770a08bd02a86897d502a9461cf07ed2.jpg"
  },
  {
    "name": "TEAM_HELP_RESPONCE",
    "defaultvalue": 0,
    "displayName": "Responsive",
    "hidden": 1,
    "icon": "https://steamcdn-a.akamaihd.net/steamcommunity/public/images/apps/353130/88bac7811ea9dfe3e10c2a4760e1f4b6c501a545.jpg",
    "icongray": "https://steamcdn-a.akamaihd.net/steamcommunity/public/images/apps/353130/bb5d312e4a4b3b09d48e98fa7ada29c3584467b7.jpg"
  },
  {
    "name": "DIVER",
    "defaultvalue": 0,
    "displayName": "Diver",
    "hidden": 1,
    "icon": "https://steamcdn-a.akamaihd.net/steamcommunity/public/images/apps/353130/d9dd32b9edc5a7814892854d3bdaa03515ba4924.jpg",
    "icongray": "https://steamcdn-a.akamaihd.net/steamcommunity/public/images/apps/353130/4c416f36345b53d28ca2d48c99b0159af8dcc8ba.jpg"
  },
  {
    "name": "GRID_DEATH",
    "defaultvalue": 0,
    "displayName": "Shock Therapy",
    "hidden": 1,
    "icon": "https://steamcdn-a.akamaihd.net/steamcommunity/public/images/apps/353130/61cc344eeee682f8f8dcd393ccf0794166a801dc.jpg",
    "icongray": "https://steamcdn-a.akamaihd.net/steamcommunity/public/images/apps/353130/0d4cf948180de0a576fa8302f1b274b984f18b07.jpg"
  },
  {
    "name": "DRON_DEATH",
    "defaultvalue": 0,
    "displayName": "Trespasser",
    "hidden": 1,
    "icon": "https://steamcdn-a.akamaihd.net/steamcommunity/public/images/apps/353130/d08b13df56313afb473ed20ba71a6c3efc730b3f.jpg",
    "icongray": "https://steamcdn-a.akamaihd.net/steamcommunity/public/images/apps/353130/2710338a962686a9bf0282a86eaea8899ddfe35a.jpg"
  },
  {
    "name": "MAP_DESERT_10",
    "defaultvalue": 0,
    "displayName": "Explorer of Desert",
    "hidden": 0,
    "description": "Play 10 battles on Desert map",
    "icon": "https://steamcdn-a.akamaihd.net/steamcommunity/public/images/apps/353130/d32f027b3dd054fb72257f8cda4682249ed81b6c.jpg",
    "icongray": "https://steamcdn-a.akamaihd.net/steamcommunity/public/images/apps/353130/c27ced33af348883918b16e2bd4ab0c6dde22817.jpg"
  },
  {
    "name": "MAP_NIGHT_DESERT_10",
    "defaultvalue": 0,
    "displayName": "Explorer of Night Desert",
    "hidden": 0,
    "description": "Play 10 battles on Night Desert map",
    "icon": "https://steamcdn-a.akamaihd.net/steamcommunity/public/images/apps/353130/d32f027b3dd054fb72257f8cda4682249ed81b6c.jpg",
    "icongray": "https://steamcdn-a.akamaihd.net/steamcommunity/public/images/apps/353130/c27ced33af348883918b16e2bd4ab0c6dde22817.jpg"
  },
  {
    "name": "MAP_CRYSTAL_VALLEY_10",
    "defaultvalue": 0,
    "displayName": "Explorer of Crystal Valley",
    "hidden": 0,
    "description": "Play 10 battles on Crystal Valley map",
    "icon": "https://steamcdn-a.akamaihd.net/steamcommunity/public/images/apps/353130/d32f027b3dd054fb72257f8cda4682249ed81b6c.jpg",
    "icongray": "https://steamcdn-a.akamaihd.net/steamcommunity/public/images/apps/353130/c27ced33af348883918b16e2bd4ab0c6dde22817.jpg"
  },
  {
    "name": "MAP_NIGHT_VALLEY_10",
    "defaultvalue": 0,
    "displayName": "Explorer of Night Valley",
    "hidden": 0,
    "description": "Play 10 battles on Crystal Valley map",
    "icon": "https://steamcdn-a.akamaihd.net/steamcommunity/public/images/apps/353130/d32f027b3dd054fb72257f8cda4682249ed81b6c.jpg",
    "icongray": "https://steamcdn-a.akamaihd.net/steamcommunity/public/images/apps/353130/c27ced33af348883918b16e2bd4ab0c6dde22817.jpg"
  },
  {
    "name": "MAP_COAST_10",
    "defaultvalue": 0,
    "displayName": "Explorer of Evendor",
    "hidden": 0,
    "description": "Play 10 battles on Evendor map",
    "icon": "https://steamcdn-a.akamaihd.net/steamcommunity/public/images/apps/353130/d32f027b3dd054fb72257f8cda4682249ed81b6c.jpg",
    "icongray": "https://steamcdn-a.akamaihd.net/steamcommunity/public/images/apps/353130/c27ced33af348883918b16e2bd4ab0c6dde22817.jpg"
  },
  {
    "name": "MAP_ISLANDS_10",
    "defaultvalue": 0,
    "displayName": "Explorer of Islands",
    "hidden": 0,
    "description": "Play 10 battles on Islands map",
    "icon": "https://steamcdn-a.akamaihd.net/steamcommunity/public/images/apps/353130/d32f027b3dd054fb72257f8cda4682249ed81b6c.jpg",
    "icongray": "https://steamcdn-a.akamaihd.net/steamcommunity/public/images/apps/353130/c27ced33af348883918b16e2bd4ab0c6dde22817.jpg"
  },
  {
    "name": "MAP_MINES_10",
    "defaultvalue": 0,
    "displayName": "Explorer of Mines",
    "hidden": 0,
    "description": "Play 10 battles on Mines map",
    "icon": "https://steamcdn-a.akamaihd.net/steamcommunity/public/images/apps/353130/d32f027b3dd054fb72257f8cda4682249ed81b6c.jpg",
    "icongray": "https://steamcdn-a.akamaihd.net/steamcommunity/public/images/apps/353130/c27ced33af348883918b16e2bd4ab0c6dde22817.jpg"
  },
  {
    "name": "KILL_KRONUS_100",
    "defaultvalue": 0,
    "displayName": " Kronus Hunter",
    "hidden": 0,
    "description": "Kill Kronus 100 times",
    "icon": "https://steamcdn-a.akamaihd.net/steamcommunity/public/images/apps/353130/db1712d76633c1a0de8c8d9c3356a2af713b3b6a.jpg",
    "icongray": "https://steamcdn-a.akamaihd.net/steamcommunity/public/images/apps/353130/a4106548597acc177c6658090028c05e519a35d5.jpg"
  },
  {
    "name": "KILL_TIAMAT_100",
    "defaultvalue": 0,
    "displayName": "Tiamat Hunter",
    "hidden": 0,
    "description": "Kill Tiamat 100 times",
    "icon": "https://steamcdn-a.akamaihd.net/steamcommunity/public/images/apps/353130/a6eb72cc9353ab7643e590094904b341575f7d0d.jpg",
    "icongray": "https://steamcdn-a.akamaihd.net/steamcommunity/public/images/apps/353130/494192f012a5d52b4dddf0a4b45844d2e4ca2045.jpg"
  },
  {
    "name": "KILL_YADR_100",
    "defaultvalue": 0,
    "displayName": "Toxor Hunter",
    "hidden": 0,
    "description": "Kill Toxor 100 times",
    "icon": "https://steamcdn-a.akamaihd.net/steamcommunity/public/images/apps/353130/bc3148dc1cc6fb872459c0889eac8eb30b5ae924.jpg",
    "icongray": "https://steamcdn-a.akamaihd.net/steamcommunity/public/images/apps/353130/d04e6e8f716e3740ef2b5c319721bedd1ab43968.jpg"
  },
  {
    "name": "KILL_OGR_100",
    "defaultvalue": 0,
    "displayName": "Ogre Hunter",
    "hidden": 0,
    "description": "Kill Ogre 100 times",
    "icon": "https://steamcdn-a.akamaihd.net/steamcommunity/public/images/apps/353130/97e5dafaacbbbf50e9adef92970fa68d5619014d.jpg",
    "icongray": "https://steamcdn-a.akamaihd.net/steamcommunity/public/images/apps/353130/078240ff7a65454dbd0a3d3ebf9b76240257533d.jpg"
  },
  {
    "name": "KILL_SKAT_100",
    "defaultvalue": 0,
    "displayName": "Ray Hunter",
    "hidden": 0,
    "description": "Kill Ray 100 times",
    "icon": "https://steamcdn-a.akamaihd.net/steamcommunity/public/images/apps/353130/38c9675df5f06768dd648354812c29bb71a8d5cd.jpg",
    "icongray": "https://steamcdn-a.akamaihd.net/steamcommunity/public/images/apps/353130/82d492a17e3ad211f52786de010731e7d268e951.jpg"
  },
  {
    "name": "KILL_INARA_100",
    "defaultvalue": 0,
    "displayName": "Inara Hunter",
    "hidden": 0,
    "description": "Kill Inara 100 times",
    "icon": "https://steamcdn-a.akamaihd.net/steamcommunity/public/images/apps/353130/16defd330114bb8528fa91c6578211937c925d42.jpg",
    "icongray": "https://steamcdn-a.akamaihd.net/steamcommunity/public/images/apps/353130/0f0ad2737a4fc85fa18d5a84a6bfe04989de838b.jpg"
  },
  {
    "name": "KILL_FURY_100",
    "defaultvalue": 0,
    "displayName": "Fury Hunter",
    "hidden": 0,
    "description": "Kill Fury 100 times",
    "icon": "https://steamcdn-a.akamaihd.net/steamcommunity/public/images/apps/353130/0de42ace14ecb0351b34af33a4863cbf27bad351.jpg",
    "icongray": "https://steamcdn-a.akamaihd.net/steamcommunity/public/images/apps/353130/07dd28e897249a5b7e1321eaf1de2764d74f9f40.jpg"
  },
  {
    "name": "KILL_VAMPIRE_100",
    "defaultvalue": 0,
    "displayName": "Vampire Hunter",
    "hidden": 0,
    "description": "Kill Vampire 100 times",
    "icon": "https://steamcdn-a.akamaihd.net/steamcommunity/public/images/apps/353130/b0488d7777bf4f647f28b9900663f8bd3a7fd3c9.jpg",
    "icongray": "https://steamcdn-a.akamaihd.net/steamcommunity/public/images/apps/353130/2e074ca618a15d860f14fc6ab3360f2a33f6b784.jpg"
  },
  {
    "name": "VICTORY_DM_10",
    "defaultvalue": 0,
    "displayName": "Death Match mode Specialist",
    "hidden": 0,
    "description": "Win 10 times in Death Match mode",
    "icon": "https://steamcdn-a.akamaihd.net/steamcommunity/public/images/apps/353130/4e25d50870036f19aea186ee0e4821689a7280cf.jpg",
    "icongray": "https://steamcdn-a.akamaihd.net/steamcommunity/public/images/apps/353130/e95bc14280d3531a6b90ce4d726342e3f493c9cb.jpg"
  },
  {
    "name": "VICTORY_TDM_10",
    "defaultvalue": 0,
    "displayName": "Team Death Match mode Specialist",
    "hidden": 0,
    "description": "Win 10 times in Team Death Match mode",
    "icon": "https://steamcdn-a.akamaihd.net/steamcommunity/public/images/apps/353130/3b96acb903a91ddaa07d75f839720db5ec725df6.jpg",
    "icongray": "https://steamcdn-a.akamaihd.net/steamcommunity/public/images/apps/353130/6576a6cb99d7fddfeebef563239fee75a674bc5c.jpg"
  },
  {
    "name": "VICTORY_POINTS_10",
    "defaultvalue": 0,
    "displayName": "Control Points mode Specialist",
    "hidden": 0,
    "description": "Win 10 times in Control Points mode",
    "icon": "https://steamcdn-a.akamaihd.net/steamcommunity/public/images/apps/353130/f37bafde0e7a7b49bed27b16f1587d31392942f4.jpg",
    "icongray": "https://steamcdn-a.akamaihd.net/steamcommunity/public/images/apps/353130/ab95747d45584a468077d3d6265037023024e9cd.jpg"
  },
  {
    "name": "VICORY_SOULS_10",
    "defaultvalue": 0,
    "displayName": "Dragon's soul mode Specialist",
    "hidden": 0,
    "description": "Win 10 times in Dragon's soul mode",
    "icon": "https://steamcdn-a.akamaihd.net/steamcommunity/public/images/apps/353130/7ef5148947c040f16fa3f94e0604561c90f68d76.jpg",
    "icongray": "https://steamcdn-a.akamaihd.net/steamcommunity/public/images/apps/353130/e00062afcfc9d6d341f2a4b569cf039f35dfd149.jpg"
  },
  {
    "name": "VICTORY_COLLECTOR_10",
    "defaultvalue": 0,
    "displayName": "Souls Collector mode Specialist",
    "hidden": 0,
    "description": "Win 10 times in Souls Collector mode",
    "icon": "https://steamcdn-a.akamaihd.net/steamcommunity/public/images/apps/353130/cf7fd6325b2741294b36ea6899d2c8278cf30d38.jpg",
    "icongray": "https://steamcdn-a.akamaihd.net/steamcommunity/public/images/apps/353130/c9f18442b95e98f1d8e2329fd1e68106ad7a4ecf.jpg"
  },
  {
    "name": "KILL_PLAZMA_100",
    "defaultvalue": 0,
    "displayName": "Plasma Expert",
    "hidden": 0,
    "description": "Kill 100 dragons with Plasma",
    "icon": "https://steamcdn-a.akamaihd.net/steamcommunity/public/images/apps/353130/c1cd8351a2006c4124b90c8f7f44212c6c64d37a.jpg",
    "icongray": "https://steamcdn-a.akamaihd.net/steamcommunity/public/images/apps/353130/d3746c1fa0e9e7434c1817a1d1fe6fac8ef9453b.jpg"
  },
  {
    "name": "KILL_ROCKETS_100",
    "defaultvalue": 0,
    "displayName": "Rockets Expert",
    "hidden": 0,
    "description": "Kill 100 dragons with Rockets",
    "icon": "https://steamcdn-a.akamaihd.net/steamcommunity/public/images/apps/353130/ba41f5ad2acb067c11ee4cbf7d4b04269c22d0a1.jpg",
    "icongray": "https://steamcdn-a.akamaihd.net/steamcommunity/public/images/apps/353130/0ae305a3b79e84b782488821cc3bde8d3568aa64.jpg"
  },
  {
    "name": "KILL_ORB_100",
    "defaultvalue": 0,
    "displayName": "Plasmaball Expert",
    "hidden": 0,
    "description": "Kill 100 dragons with Plasmaball",
    "icon": "https://steamcdn-a.akamaihd.net/steamcommunity/public/images/apps/353130/e37aa8005fb58eef300b15670cbec21711456397.jpg",
    "icongray": "https://steamcdn-a.akamaihd.net/steamcommunity/public/images/apps/353130/628b796a2f29f52e3020079f2b0d91f11c5c0101.jpg"
  },
  {
    "name": "KILL_RAILGUN_100",
    "defaultvalue": 0,
    "displayName": "Railgun Expert",
    "hidden": 0,
    "description": "Kill 100 dragons with Railgun",
    "icon": "https://steamcdn-a.akamaihd.net/steamcommunity/public/images/apps/353130/cf62380a0e7811db415655bb71a80d8006676859.jpg",
    "icongray": "https://steamcdn-a.akamaihd.net/steamcommunity/public/images/apps/353130/342a7137ec617cb7a8f627def5ea67392f3b8c60.jpg"
  },
  {
    "name": "BUY_INARA",
    "defaultvalue": 0,
    "displayName": "Geneticist (Inara)",
    "hidden": 0,
    "description": "Create Inara",
    "icon": "https://steamcdn-a.akamaihd.net/steamcommunity/public/images/apps/353130/a8c6ff1c2dcfae70cafce4467e259844fd5f7996.jpg",
    "icongray": "https://steamcdn-a.akamaihd.net/steamcommunity/public/images/apps/353130/2f43cbc475bf1cf6673793ada2bf2a8cd3a05cb0.jpg"
  },
  {
    "name": "BUY_TIAMAT",
    "defaultvalue": 0,
    "displayName": "Geneticist (Tiamat)",
    "hidden": 0,
    "description": "Create Tiamat",
    "icon": "https://steamcdn-a.akamaihd.net/steamcommunity/public/images/apps/353130/5b036ee2ac926e2408e65673b498c6f20af3678d.jpg",
    "icongray": "https://steamcdn-a.akamaihd.net/steamcommunity/public/images/apps/353130/4b72a37b76eed5cc6d413e9010e859bd174689ad.jpg"
  },
  {
    "name": "BUY_OGR",
    "defaultvalue": 0,
    "displayName": "Geneticist (Ogre)",
    "hidden": 0,
    "description": "Create Ogre",
    "icon": "https://steamcdn-a.akamaihd.net/steamcommunity/public/images/apps/353130/8019075b126eabd66fa14ee1ac6e0150bcc79f86.jpg",
    "icongray": "https://steamcdn-a.akamaihd.net/steamcommunity/public/images/apps/353130/2b9dfac6ad5c842f62e848364272c90079532fe2.jpg"
  },
  {
    "name": "BUY_VAMPIRE",
    "defaultvalue": 0,
    "displayName": "Geneticist (Vampire)",
    "hidden": 0,
    "description": "Create Vampire",
    "icon": "https://steamcdn-a.akamaihd.net/steamcommunity/public/images/apps/353130/271cf17084dd8bf86a886ffe1ed34d76b043df8a.jpg",
    "icongray": "https://steamcdn-a.akamaihd.net/steamcommunity/public/images/apps/353130/b683fe410427b1bbe1cdebcd2a4f6eb19e5c12bb.jpg"
  },
  {
    "name": "BUY_SKAT",
    "defaultvalue": 0,
    "displayName": "Geneticist (Ray)",
    "hidden": 0,
    "description": "Create Ray",
    "icon": "https://steamcdn-a.akamaihd.net/steamcommunity/public/images/apps/353130/4fd801890aed9f3ec0fb16fcd7ee29516e457939.jpg",
    "icongray": "https://steamcdn-a.akamaihd.net/steamcommunity/public/images/apps/353130/04e63d3c3ba9847e93161f7d168bc96ac9d55e76.jpg"
  },
  {
    "name": "BUY_YADR",
    "defaultvalue": 0,
    "displayName": "Geneticist (Toxor)",
    "hidden": 0,
    "description": "Create Toxor",
    "icon": "https://steamcdn-a.akamaihd.net/steamcommunity/public/images/apps/353130/345c36360b6e84e88bb510ddd130c361324765eb.jpg",
    "icongray": "https://steamcdn-a.akamaihd.net/steamcommunity/public/images/apps/353130/072c95b6ae1869c0a0d641c5c96bed1ab177e8ab.jpg"
  },
  {
    "name": "BUY_FURY",
    "defaultvalue": 0,
    "displayName": "Geneticist (Fury)",
    "hidden": 0,
    "description": "Create Fury",
    "icon": "https://steamcdn-a.akamaihd.net/steamcommunity/public/images/apps/353130/558038b3ee933bc2a1f4ef7a4be0baa472bc5663.jpg",
    "icongray": "https://steamcdn-a.akamaihd.net/steamcommunity/public/images/apps/353130/fff1b9d7229816052f77600be89581109c1481ad.jpg"
  },
  {
    "name": "NUMBER_OF_SHOTS_100K",
    "defaultvalue": 0,
    "displayName": "Ballistician",
    "hidden": 0,
    "description": "Shoot 10000 times",
    "icon": "https://steamcdn-a.akamaihd.net/steamcommunity/public/images/apps/353130/9b5296377f2a585266666a5f1b58aa127040988f.jpg",
    "icongray": "https://steamcdn-a.akamaihd.net/steamcommunity/public/images/apps/353130/901ff83c9930b7ebe23b462ae049b9a761b4cd64.jpg"
  },
  {
    "name": "USE_ITEM_COOLING_KIT_100",
    "defaultvalue": 0,
    "displayName": "Cooling kit Expert",
    "hidden": 0,
    "description": "Use Cooling kit 100 times",
    "icon": "https://steamcdn-a.akamaihd.net/steamcommunity/public/images/apps/353130/0000de55a9810dee501c4a219003f3c59dd82f5b.jpg",
    "icongray": "https://steamcdn-a.akamaihd.net/steamcommunity/public/images/apps/353130/f08b6a9796c64ad28ea8301ba5bcd9d649979e5d.jpg"
  },
  {
    "name": "USE_ITEM_DAMAGE_MINA_100",
    "defaultvalue": 0,
    "displayName": "Mine Expert",
    "hidden": 0,
    "description": "Use Mine 100 times",
    "icon": "https://steamcdn-a.akamaihd.net/steamcommunity/public/images/apps/353130/076dba41a8f26226a5139f6ef054c34d4c1ad80c.jpg",
    "icongray": "https://steamcdn-a.akamaihd.net/steamcommunity/public/images/apps/353130/e3c63a413b6bfe7aeb5630af08efe44e23aeecae.jpg"
  },
  {
    "name": "USE_ITEM_ENDURANCE_KIT_100",
    "defaultvalue": 0,
    "displayName": "Stamina kit Expert",
    "hidden": 0,
    "description": "Use Stamina kit 100 times",
    "icon": "https://steamcdn-a.akamaihd.net/steamcommunity/public/images/apps/353130/cb3bf3bbddb66e89eff51b6751a434062c511914.jpg",
    "icongray": "https://steamcdn-a.akamaihd.net/steamcommunity/public/images/apps/353130/4050eb22f1dd14fbff8ec18f552e6bbc78df84db.jpg"
  },
  {
    "name": "USE_ITEM_SMOKE_MINA_100",
    "defaultvalue": 0,
    "displayName": "Smokescreen Expert",
    "hidden": 0,
    "description": "Use Smokescreen 100 times",
    "icon": "https://steamcdn-a.akamaihd.net/steamcommunity/public/images/apps/353130/7aacd67a9ecd8f0de4d52049bef0b7a4a82391c1.jpg",
    "icongray": "https://steamcdn-a.akamaihd.net/steamcommunity/public/images/apps/353130/bdc22586ea9e341a4e3b32eb105e82778d0c77be.jpg"
  }
]