﻿{
  "Dlcs": {
    "658910": {
      "Name": "ClickRaid - Supporter Pack",
      "ImageUrl": "https://steamcdn-a.akamaihd.net/steam/apps/658910/header.jpg?t=1518830022"
    },
    "738870": {
      "Name": "ClickRaid - Halloween Pets/Cursor",
      "ImageUrl": "https://steamcdn-a.akamaihd.net/steam/apps/738870/header.jpg?t=1508545320"
    },
    "757280": {
      "Name": "ClickRaid - Token Resource Collector",
      "ImageUrl": "https://steamcdn-a.akamaihd.net/steam/apps/757280/header.jpg?t=1527846603"
    },
    "804310": {
      "Name": "ClickRaid - Gold Supporter Pack",
      "ImageUrl": "https://steamcdn-a.akamaihd.net/steam/apps/804310/header.jpg?t=1523123616"
    }
  },
  "Name": "ClickRaid",
  "AppId": "658160",
  "ImageUrl": "https://steamcdn-a.akamaihd.net/steam/apps/658160/header.jpg?t=1539493080",
  "Languages": [
    "english"
  ],
  "Platforms": {
    "windows": true,
    "mac": false,
    "linux": true
  }
}