﻿[
  {
    "name": "ACH_START_GAME",
    "defaultvalue": 0,
    "displayName": "Time to kill every dragon!!!",
    "hidden": 0,
    "description": "Start the game.",
    "icon": "https://steamcdn-a.akamaihd.net/steamcommunity/public/images/apps/534220/353c6cd0059a4f65053e65275341f86cd42098a1.jpg",
    "icongray": "https://steamcdn-a.akamaihd.net/steamcommunity/public/images/apps/534220/73cb748ca129d91c4657b03447300dec8d201c4d.jpg"
  },
  {
    "name": "ACH_DIFFICULTY",
    "defaultvalue": 0,
    "displayName": "Why is there no \"normal\" difficulty?",
    "hidden": 0,
    "description": "Enter the difficulty selection page for the first time",
    "icon": "https://steamcdn-a.akamaihd.net/steamcommunity/public/images/apps/534220/7a5d221b764bd26f862355655e036ff52599ea2e.jpg",
    "icongray": "https://steamcdn-a.akamaihd.net/steamcommunity/public/images/apps/534220/499481f93a7e7ce58b2d8e04fa0035d8b6675c92.jpg"
  },
  {
    "name": "ACH_JUMP_FAILED",
    "defaultvalue": 0,
    "displayName": "Wow! I can fly!",
    "hidden": 0,
    "description": "Jumping failed",
    "icon": "https://steamcdn-a.akamaihd.net/steamcommunity/public/images/apps/534220/211138b230e806ec77041ef151f09ac60938fc66.jpg",
    "icongray": "https://steamcdn-a.akamaihd.net/steamcommunity/public/images/apps/534220/a460ff32e25bd10d783e19ce1eed1ae13fd9aabd.jpg"
  },
  {
    "name": "ACH_HUMAN_BATTLE",
    "defaultvalue": 0,
    "displayName": "No transforming dragon for me!",
    "hidden": 0,
    "description": "Complete Chapter 1 without transforming",
    "icon": "https://steamcdn-a.akamaihd.net/steamcommunity/public/images/apps/534220/87769f1a5a849278bfc643cc06d5481c93464e98.jpg",
    "icongray": "https://steamcdn-a.akamaihd.net/steamcommunity/public/images/apps/534220/5aec280003d76192ea84a0e7d41a76d8a567db31.jpg"
  },
  {
    "name": "ACH_CLEAR_LEVEL1",
    "defaultvalue": 0,
    "displayName": "DarkDragon-Hander killer",
    "hidden": 0,
    "description": "Clear chapter 1 in any difficulty",
    "icon": "https://steamcdn-a.akamaihd.net/steamcommunity/public/images/apps/534220/15e3de5ad713eaa57fa833edb37571229db48837.jpg",
    "icongray": "https://steamcdn-a.akamaihd.net/steamcommunity/public/images/apps/534220/3256abdc89555a21fe509a714d1e008998466b7f.jpg"
  },
  {
    "name": "ACH_CLEAR_LEVEL2",
    "defaultvalue": 0,
    "displayName": "DarkDragon-Bodyer killer",
    "hidden": 0,
    "description": "Clear chapter 2 in any difficulty",
    "icon": "https://steamcdn-a.akamaihd.net/steamcommunity/public/images/apps/534220/e8b96dfd324cc088650a187ed88a8979b7ab8060.jpg",
    "icongray": "https://steamcdn-a.akamaihd.net/steamcommunity/public/images/apps/534220/2eaa0bd5accdbb9a1f1a5ec3f20dc5333ee41fe1.jpg"
  },
  {
    "name": "ACH_CLEAR_HARD_ALL",
    "defaultvalue": 0,
    "displayName": "Dragon Slayer",
    "hidden": 0,
    "description": "Clear all chapters in \"hard\" difficulty",
    "icon": "https://steamcdn-a.akamaihd.net/steamcommunity/public/images/apps/534220/d69239044b45ce7c88aa9b6b8b1452cf719a3e66.jpg",
    "icongray": "https://steamcdn-a.akamaihd.net/steamcommunity/public/images/apps/534220/7d88f90390a9f5182353c549648c352a02dfda2f.jpg"
  },
  {
    "name": "ACH_CLEAR_DESPAIR_ALL",
    "defaultvalue": 0,
    "displayName": "Masochist",
    "hidden": 0,
    "description": "Clear all chapters in \"despair\" difficulty",
    "icon": "https://steamcdn-a.akamaihd.net/steamcommunity/public/images/apps/534220/cf53673c1f279ddccef35e7711ff0ad4c4e443e1.jpg",
    "icongray": "https://steamcdn-a.akamaihd.net/steamcommunity/public/images/apps/534220/d33cb7338f87ee675d0331d43db870ac45b52bba.jpg"
  }
]