﻿[
  {
    "name": "HUSH_ACHIE_1_0",
    "defaultvalue": 0,
    "displayName": "Enter The Darkness",
    "hidden": 0,
    "description": "Enter The Darkness",
    "icon": "https://steamcdn-a.akamaihd.net/steamcommunity/public/images/apps/379990/4715616ff941a95185635184b0a0f97e19cacac5.jpg",
    "icongray": "https://steamcdn-a.akamaihd.net/steamcommunity/public/images/apps/379990/e9ae47cf15e9ca8716844a436d4c7412d9fef02b.jpg"
  },
  {
    "name": "HUSH_ACHIE_1_1",
    "defaultvalue": 0,
    "displayName": "Familiar Feeling",
    "hidden": 0,
    "description": "So warm and fuzzy...",
    "icon": "https://steamcdn-a.akamaihd.net/steamcommunity/public/images/apps/379990/eaf76ba58241fac3e366144f0520eb57ed941268.jpg",
    "icongray": "https://steamcdn-a.akamaihd.net/steamcommunity/public/images/apps/379990/5663fe8b4efdc80c39ad7a47812f6b4461767708.jpg"
  },
  {
    "name": "HUSH_ACHIE_1_2",
    "defaultvalue": 0,
    "displayName": "Down Boy",
    "hidden": 0,
    "description": "You really thought you could beat us?",
    "icon": "https://steamcdn-a.akamaihd.net/steamcommunity/public/images/apps/379990/52bb1a0d18f63e107f18ba7399fcb7876687376a.jpg",
    "icongray": "https://steamcdn-a.akamaihd.net/steamcommunity/public/images/apps/379990/433fb2c7599b1353d9c44b14b53a96003b24889e.jpg"
  },
  {
    "name": "HUSH_ACHIE_1_3",
    "defaultvalue": 0,
    "displayName": "Fast and Furious",
    "hidden": 0,
    "description": "Check out my mad driving skills!",
    "icon": "https://steamcdn-a.akamaihd.net/steamcommunity/public/images/apps/379990/2244db90b61733f1daf6ba29c9ce129f58ae9ed3.jpg",
    "icongray": "https://steamcdn-a.akamaihd.net/steamcommunity/public/images/apps/379990/180bcaa73dca16740773fda777d9fe9342d2c655.jpg"
  },
  {
    "name": "HUSH_ACHIE_1_4",
    "defaultvalue": 0,
    "displayName": "Good Samaritan",
    "hidden": 0,
    "description": "See you around, buddy",
    "icon": "https://steamcdn-a.akamaihd.net/steamcommunity/public/images/apps/379990/eecfe9159ec931940d18a4cfd32c1d2a43ed7ad5.jpg",
    "icongray": "https://steamcdn-a.akamaihd.net/steamcommunity/public/images/apps/379990/619699e921e56bf3624a9b7f0bc0adafd1a0db6a.jpg"
  },
  {
    "name": "HUSH_ACHIE_1_5",
    "defaultvalue": 0,
    "displayName": "Collector",
    "hidden": 0,
    "description": "Gotta find them all!",
    "icon": "https://steamcdn-a.akamaihd.net/steamcommunity/public/images/apps/379990/471687cb9d19ce10908bc4f9ad1e16c26a991664.jpg",
    "icongray": "https://steamcdn-a.akamaihd.net/steamcommunity/public/images/apps/379990/9228d8a7c7c7a6baa601fec5567d79389a767565.jpg"
  },
  {
    "name": "HUSH_ACHIE_1_6",
    "defaultvalue": 0,
    "displayName": "Shady Cat",
    "hidden": 0,
    "description": "The darkness hath been conquered",
    "icon": "https://steamcdn-a.akamaihd.net/steamcommunity/public/images/apps/379990/56100ea28bced3d9a428c21122768371379a0101.jpg",
    "icongray": "https://steamcdn-a.akamaihd.net/steamcommunity/public/images/apps/379990/03699931f9e71e3c634fa3be214f442865ba4f99.jpg"
  },
  {
    "name": "HUSH_ACHIE_1_7",
    "defaultvalue": 0,
    "displayName": "Barrel Smasher",
    "hidden": 0,
    "description": "A smashin' good time!",
    "icon": "https://steamcdn-a.akamaihd.net/steamcommunity/public/images/apps/379990/ae36df858f004f0dbccf39cdf4c31de5cc1cbde4.jpg",
    "icongray": "https://steamcdn-a.akamaihd.net/steamcommunity/public/images/apps/379990/fafe0259208bde90f95027d0b9cf1e039e777939.jpg"
  },
  {
    "name": "HUSH_ACHIE_1_8",
    "defaultvalue": 0,
    "displayName": "Firefly Master",
    "hidden": 0,
    "description": "Glad you didn't stop after the first",
    "icon": "https://steamcdn-a.akamaihd.net/steamcommunity/public/images/apps/379990/8116775108bc0197ef4eda1b124e0a4415914964.jpg",
    "icongray": "https://steamcdn-a.akamaihd.net/steamcommunity/public/images/apps/379990/697fdcfb6b04bc660cb409bc85978e36fed86a0d.jpg"
  },
  {
    "name": "HUSH_ACHIE_1_9",
    "defaultvalue": 0,
    "displayName": "Exploring the Dark",
    "hidden": 0,
    "description": "Just like in Neo Kobe City",
    "icon": "https://steamcdn-a.akamaihd.net/steamcommunity/public/images/apps/379990/31f6c3652d987a6118083c3c11eed3d7c2cb21fe.jpg",
    "icongray": "https://steamcdn-a.akamaihd.net/steamcommunity/public/images/apps/379990/582e0d2ab724489818ccbf8d1d1c66eb9b731b5f.jpg"
  }
]