﻿{
  "Dlcs": {},
  "Name": "STAR WARS™ Knights of the Old Republic™ II - The Sith Lords™",
  "AppId": "208580",
  "ImageUrl": "https://steamcdn-a.akamaihd.net/steam/apps/208580/header.jpg?t=1586462756",
  "Languages": [
    "english",
    "french",
    "german",
    "italian",
    "spanish"
  ],
  "Platforms": {
    "windows": true,
    "mac": true,
    "linux": true
  }
}