﻿[
  {
    "name": "test",
    "defaultvalue": 0,
    "displayName": "Test"
  },
  {
    "name": "ShipKills",
    "defaultvalue": 0,
    "displayName": "Ships Destroyed"
  },
  {
    "name": "EasyWins",
    "defaultvalue": 0,
    "displayName": "Easy AIs Defeated"
  },
  {
    "name": "MediumWins",
    "defaultvalue": 0,
    "displayName": "Medium AIs Defeated"
  },
  {
    "name": "HardWins",
    "defaultvalue": 0,
    "displayName": "Hard AIs Defeated"
  },
  {
    "name": "CheatingWins",
    "defaultvalue": 0,
    "displayName": "Cheating AIs Defeated"
  }
]