﻿{
  "Dlcs": {
    "863410": {
      "Name": "Gopnik Simulator - Soundtrack",
      "ImageUrl": "https://steamcdn-a.akamaihd.net/steam/apps/863410/header.jpg?t=1572048806"
    }
  },
  "Name": "Gopnik Simulator",
  "AppId": "853210",
  "ImageUrl": "https://steamcdn-a.akamaihd.net/steam/apps/853210/header.jpg?t=1572045202",
  "Languages": [
    "english"
  ],
  "Platforms": {
    "windows": true,
    "mac": false,
    "linux": false
  }
}