﻿[
  {
    "name": "START_GAME",
    "defaultvalue": 0,
    "displayName": "GOPNIK",
    "hidden": 0,
    "description": "GOPNIK",
    "icon": "https://steamcdn-a.akamaihd.net/steamcommunity/public/images/apps/853210/d9fea319ecdf72eb9f4d11967387baaa6aa76928.jpg",
    "icongray": "https://steamcdn-a.akamaihd.net/steamcommunity/public/images/apps/853210/34d5b9a6876e7ad768ed84feb5990f3cf2a383e7.jpg"
  },
  {
    "name": "BUY_SEMKI_1",
    "defaultvalue": 0,
    "displayName": "SEMKI",
    "hidden": 0,
    "description": "SEMKI",
    "icon": "https://steamcdn-a.akamaihd.net/steamcommunity/public/images/apps/853210/ad7d99b1c5a1d1be4cce8d953bd46095976e0558.jpg",
    "icongray": "https://steamcdn-a.akamaihd.net/steamcommunity/public/images/apps/853210/34d5b9a6876e7ad768ed84feb5990f3cf2a383e7.jpg"
  },
  {
    "name": "BUY_SEMKI_10",
    "defaultvalue": 0,
    "displayName": "SEMKI x10",
    "hidden": 0,
    "description": "SEMKI x10",
    "icon": "https://steamcdn-a.akamaihd.net/steamcommunity/public/images/apps/853210/ad7d99b1c5a1d1be4cce8d953bd46095976e0558.jpg",
    "icongray": "https://steamcdn-a.akamaihd.net/steamcommunity/public/images/apps/853210/ad673db5d87676533fafecb467417a81b97554b1.jpg"
  },
  {
    "name": "BUY_SEMKI_100",
    "defaultvalue": 0,
    "displayName": "SEMKI x100",
    "hidden": 0,
    "description": "SEMKI x100",
    "icon": "https://steamcdn-a.akamaihd.net/steamcommunity/public/images/apps/853210/ad7d99b1c5a1d1be4cce8d953bd46095976e0558.jpg",
    "icongray": "https://steamcdn-a.akamaihd.net/steamcommunity/public/images/apps/853210/ad673db5d87676533fafecb467417a81b97554b1.jpg"
  },
  {
    "name": "BUY_SEMKI_1000",
    "defaultvalue": 0,
    "displayName": "SEMKI x1000",
    "hidden": 0,
    "description": "SEMKI x1000",
    "icon": "https://steamcdn-a.akamaihd.net/steamcommunity/public/images/apps/853210/ad7d99b1c5a1d1be4cce8d953bd46095976e0558.jpg",
    "icongray": "https://steamcdn-a.akamaihd.net/steamcommunity/public/images/apps/853210/ad673db5d87676533fafecb467417a81b97554b1.jpg"
  },
  {
    "name": "BUY_PIVAS_1",
    "defaultvalue": 0,
    "displayName": "PIVAS",
    "hidden": 0,
    "description": "PIVAS",
    "icon": "https://steamcdn-a.akamaihd.net/steamcommunity/public/images/apps/853210/fd7dbec1cc65cacdaa69c0d713a4ea88987a84b9.jpg",
    "icongray": "https://steamcdn-a.akamaihd.net/steamcommunity/public/images/apps/853210/ad673db5d87676533fafecb467417a81b97554b1.jpg"
  },
  {
    "name": "BUY_PIVAS_10",
    "defaultvalue": 0,
    "displayName": "PIVAS x10",
    "hidden": 0,
    "description": "PIVAS x10",
    "icon": "https://steamcdn-a.akamaihd.net/steamcommunity/public/images/apps/853210/cbd699489b27965ce814e2e5bab872b83880df0a.jpg",
    "icongray": "https://steamcdn-a.akamaihd.net/steamcommunity/public/images/apps/853210/ad673db5d87676533fafecb467417a81b97554b1.jpg"
  },
  {
    "name": "BUY_PIVAS_100",
    "defaultvalue": 0,
    "displayName": "PIVAS x100",
    "hidden": 0,
    "description": "PIVAS x100",
    "icon": "https://steamcdn-a.akamaihd.net/steamcommunity/public/images/apps/853210/cbd699489b27965ce814e2e5bab872b83880df0a.jpg",
    "icongray": "https://steamcdn-a.akamaihd.net/steamcommunity/public/images/apps/853210/ad673db5d87676533fafecb467417a81b97554b1.jpg"
  },
  {
    "name": "BUY_PIVAS_1000",
    "defaultvalue": 0,
    "displayName": "PIVAS x1000",
    "hidden": 0,
    "description": "PIVAS x1000",
    "icon": "https://steamcdn-a.akamaihd.net/steamcommunity/public/images/apps/853210/cbd699489b27965ce814e2e5bab872b83880df0a.jpg",
    "icongray": "https://steamcdn-a.akamaihd.net/steamcommunity/public/images/apps/853210/ad673db5d87676533fafecb467417a81b97554b1.jpg"
  },
  {
    "name": "BUY_SIGI_1",
    "defaultvalue": 0,
    "displayName": "SIGI",
    "hidden": 0,
    "description": "SIGI",
    "icon": "https://steamcdn-a.akamaihd.net/steamcommunity/public/images/apps/853210/7d7948de3b0ddf397718c8b55ae0bf352f121f14.jpg",
    "icongray": "https://steamcdn-a.akamaihd.net/steamcommunity/public/images/apps/853210/ad673db5d87676533fafecb467417a81b97554b1.jpg"
  },
  {
    "name": "BUY_SIGI_10",
    "defaultvalue": 0,
    "displayName": "SIGI x10",
    "hidden": 0,
    "description": "SIGI x10",
    "icon": "https://steamcdn-a.akamaihd.net/steamcommunity/public/images/apps/853210/7d7948de3b0ddf397718c8b55ae0bf352f121f14.jpg",
    "icongray": "https://steamcdn-a.akamaihd.net/steamcommunity/public/images/apps/853210/34d5b9a6876e7ad768ed84feb5990f3cf2a383e7.jpg"
  },
  {
    "name": "BBUY_SIGI_100",
    "defaultvalue": 0,
    "displayName": "SIGI x100",
    "hidden": 0,
    "description": "SIGI x100",
    "icon": "https://steamcdn-a.akamaihd.net/steamcommunity/public/images/apps/853210/7d7948de3b0ddf397718c8b55ae0bf352f121f14.jpg",
    "icongray": "https://steamcdn-a.akamaihd.net/steamcommunity/public/images/apps/853210/ad673db5d87676533fafecb467417a81b97554b1.jpg"
  },
  {
    "name": "BUY_SIGI_1000",
    "defaultvalue": 0,
    "displayName": "SIGI x1000",
    "hidden": 0,
    "description": "SIGI x1000",
    "icon": "https://steamcdn-a.akamaihd.net/steamcommunity/public/images/apps/853210/7d7948de3b0ddf397718c8b55ae0bf352f121f14.jpg",
    "icongray": "https://steamcdn-a.akamaihd.net/steamcommunity/public/images/apps/853210/ad673db5d87676533fafecb467417a81b97554b1.jpg"
  },
  {
    "name": "BUY_GOPSTOP_1",
    "defaultvalue": 0,
    "displayName": "GOP STOP",
    "hidden": 0,
    "description": "GOP STOP",
    "icon": "https://steamcdn-a.akamaihd.net/steamcommunity/public/images/apps/853210/48d72ea109a3bcb8303f1b9af3da6cc6f31425f8.jpg",
    "icongray": "https://steamcdn-a.akamaihd.net/steamcommunity/public/images/apps/853210/34d5b9a6876e7ad768ed84feb5990f3cf2a383e7.jpg"
  },
  {
    "name": "BUY_GOPSTOP_10",
    "defaultvalue": 0,
    "displayName": "GOP STOP x10",
    "hidden": 0,
    "description": "GOP STOP x10",
    "icon": "https://steamcdn-a.akamaihd.net/steamcommunity/public/images/apps/853210/48d72ea109a3bcb8303f1b9af3da6cc6f31425f8.jpg",
    "icongray": "https://steamcdn-a.akamaihd.net/steamcommunity/public/images/apps/853210/34d5b9a6876e7ad768ed84feb5990f3cf2a383e7.jpg"
  },
  {
    "name": "BUY_GOPSTOP_100",
    "defaultvalue": 0,
    "displayName": "GOP STOP x100",
    "hidden": 0,
    "description": "GOP STOP x100",
    "icon": "https://steamcdn-a.akamaihd.net/steamcommunity/public/images/apps/853210/48d72ea109a3bcb8303f1b9af3da6cc6f31425f8.jpg",
    "icongray": "https://steamcdn-a.akamaihd.net/steamcommunity/public/images/apps/853210/34d5b9a6876e7ad768ed84feb5990f3cf2a383e7.jpg"
  },
  {
    "name": "BUY_GOPSTOP_1000",
    "defaultvalue": 0,
    "displayName": "GOP STOP x1000",
    "hidden": 0,
    "description": "GOP STOP x1000",
    "icon": "https://steamcdn-a.akamaihd.net/steamcommunity/public/images/apps/853210/48d72ea109a3bcb8303f1b9af3da6cc6f31425f8.jpg",
    "icongray": "https://steamcdn-a.akamaihd.net/steamcommunity/public/images/apps/853210/ad673db5d87676533fafecb467417a81b97554b1.jpg"
  },
  {
    "name": "BUY_POBAZARIT_1",
    "defaultvalue": 0,
    "displayName": "POBAZARIT",
    "hidden": 0,
    "description": "POBAZARIT",
    "icon": "https://steamcdn-a.akamaihd.net/steamcommunity/public/images/apps/853210/fabdcac6f4cde11349e1ef328d625af7033a8216.jpg",
    "icongray": "https://steamcdn-a.akamaihd.net/steamcommunity/public/images/apps/853210/ad673db5d87676533fafecb467417a81b97554b1.jpg"
  },
  {
    "name": "BUY_POBAZARIT_10",
    "defaultvalue": 0,
    "displayName": "POBAZARIT x10",
    "hidden": 0,
    "description": "POBAZARIT x10",
    "icon": "https://steamcdn-a.akamaihd.net/steamcommunity/public/images/apps/853210/fabdcac6f4cde11349e1ef328d625af7033a8216.jpg",
    "icongray": "https://steamcdn-a.akamaihd.net/steamcommunity/public/images/apps/853210/ad673db5d87676533fafecb467417a81b97554b1.jpg"
  },
  {
    "name": "BUY_POBAZARIT_100",
    "defaultvalue": 0,
    "displayName": "POBAZARIT x100",
    "hidden": 0,
    "description": "POBAZARIT x100",
    "icon": "https://steamcdn-a.akamaihd.net/steamcommunity/public/images/apps/853210/fabdcac6f4cde11349e1ef328d625af7033a8216.jpg",
    "icongray": "https://steamcdn-a.akamaihd.net/steamcommunity/public/images/apps/853210/ad673db5d87676533fafecb467417a81b97554b1.jpg"
  },
  {
    "name": "BUY_POBAZARIT_1000",
    "defaultvalue": 0,
    "displayName": "POBAZARIT x1000",
    "hidden": 0,
    "description": "POBAZARIT x1000",
    "icon": "https://steamcdn-a.akamaihd.net/steamcommunity/public/images/apps/853210/c86da82a33cab0848c9fb1aac85d2d7a08ba57a8.jpg",
    "icongray": "https://steamcdn-a.akamaihd.net/steamcommunity/public/images/apps/853210/ad673db5d87676533fafecb467417a81b97554b1.jpg"
  },
  {
    "name": "SEMKI_1",
    "defaultvalue": 0,
    "displayName": "CHETKIE SEMKI",
    "hidden": 0,
    "description": "CHETKIE SEMKI",
    "icon": "https://steamcdn-a.akamaihd.net/steamcommunity/public/images/apps/853210/bf2dd2fa32ca1a970d5733f2fb0477fb436a7553.jpg",
    "icongray": "https://steamcdn-a.akamaihd.net/steamcommunity/public/images/apps/853210/ad673db5d87676533fafecb467417a81b97554b1.jpg"
  },
  {
    "name": "PIVAS_1",
    "defaultvalue": 0,
    "displayName": "CHETKIY PIVAS",
    "hidden": 0,
    "description": "CHETKIY PIVAS",
    "icon": "https://steamcdn-a.akamaihd.net/steamcommunity/public/images/apps/853210/0d527e6c14331d92e7ca676132bc9dd5e08779ab.jpg",
    "icongray": "https://steamcdn-a.akamaihd.net/steamcommunity/public/images/apps/853210/ad673db5d87676533fafecb467417a81b97554b1.jpg"
  },
  {
    "name": "SIGI_1",
    "defaultvalue": 0,
    "displayName": "CHETKIE SIGI",
    "hidden": 0,
    "description": "CHETKIE SIGI",
    "icon": "https://steamcdn-a.akamaihd.net/steamcommunity/public/images/apps/853210/239da418c027a1e84c060785cddffd69ad548eb0.jpg",
    "icongray": "https://steamcdn-a.akamaihd.net/steamcommunity/public/images/apps/853210/ad673db5d87676533fafecb467417a81b97554b1.jpg"
  },
  {
    "name": "GOPSTOP_1",
    "defaultvalue": 0,
    "displayName": "CHETKIY GOP STOP",
    "hidden": 0,
    "description": "CHETKIY GOP STOP",
    "icon": "https://steamcdn-a.akamaihd.net/steamcommunity/public/images/apps/853210/f8f9f3898d9a2cf50d671824f1b991b57b96f47c.jpg",
    "icongray": "https://steamcdn-a.akamaihd.net/steamcommunity/public/images/apps/853210/ad673db5d87676533fafecb467417a81b97554b1.jpg"
  },
  {
    "name": "POBAZARIT_1",
    "defaultvalue": 0,
    "displayName": "CHETKIY BAZAR",
    "hidden": 0,
    "description": "CHETKIY BAZAR",
    "icon": "https://steamcdn-a.akamaihd.net/steamcommunity/public/images/apps/853210/4a5533e8b9d7f7eb11eb3151c960f5ac75ead97d.jpg",
    "icongray": "https://steamcdn-a.akamaihd.net/steamcommunity/public/images/apps/853210/ad673db5d87676533fafecb467417a81b97554b1.jpg"
  },
  {
    "name": "SELL_10_SEMKI",
    "defaultvalue": 0,
    "displayName": "SEMKI PUTNIE",
    "hidden": 0,
    "description": "SEMKI PUTNIE",
    "icon": "https://steamcdn-a.akamaihd.net/steamcommunity/public/images/apps/853210/f27f0b40e971476cfcf2e3ee36b5ada4fe1e97b0.jpg",
    "icongray": "https://steamcdn-a.akamaihd.net/steamcommunity/public/images/apps/853210/ad673db5d87676533fafecb467417a81b97554b1.jpg"
  },
  {
    "name": "SELL_100_SEMKI",
    "defaultvalue": 0,
    "displayName": "SEMKI PUTNIE x100",
    "hidden": 0,
    "description": "SEMKI PUTNIE x100",
    "icon": "https://steamcdn-a.akamaihd.net/steamcommunity/public/images/apps/853210/0961fd9cff3eaa6e8880e1e4584df6b5dd5048ca.jpg",
    "icongray": "https://steamcdn-a.akamaihd.net/steamcommunity/public/images/apps/853210/ad673db5d87676533fafecb467417a81b97554b1.jpg"
  },
  {
    "name": "SELL_1000_SEMKI",
    "defaultvalue": 0,
    "displayName": "SEMKI PUTNIE x1000",
    "hidden": 0,
    "description": "SEMKI PUTNIE x1000",
    "icon": "https://steamcdn-a.akamaihd.net/steamcommunity/public/images/apps/853210/0961fd9cff3eaa6e8880e1e4584df6b5dd5048ca.jpg",
    "icongray": "https://steamcdn-a.akamaihd.net/steamcommunity/public/images/apps/853210/ad673db5d87676533fafecb467417a81b97554b1.jpg"
  },
  {
    "name": "SELL_10K_SEMKI",
    "defaultvalue": 0,
    "displayName": "SEMKI PUTNIE x10 000",
    "hidden": 0,
    "description": "SEMKI PUTNIE x10 000",
    "icon": "https://steamcdn-a.akamaihd.net/steamcommunity/public/images/apps/853210/0961fd9cff3eaa6e8880e1e4584df6b5dd5048ca.jpg",
    "icongray": "https://steamcdn-a.akamaihd.net/steamcommunity/public/images/apps/853210/ad673db5d87676533fafecb467417a81b97554b1.jpg"
  },
  {
    "name": "SELL_100K_SEMKI",
    "defaultvalue": 0,
    "displayName": "SEMKI PUTNIE x100 000",
    "hidden": 0,
    "description": "SEMKI PUTNIE x100 000",
    "icon": "https://steamcdn-a.akamaihd.net/steamcommunity/public/images/apps/853210/0961fd9cff3eaa6e8880e1e4584df6b5dd5048ca.jpg",
    "icongray": "https://steamcdn-a.akamaihd.net/steamcommunity/public/images/apps/853210/ad673db5d87676533fafecb467417a81b97554b1.jpg"
  },
  {
    "name": "SELL_1KK_SEMKI",
    "defaultvalue": 0,
    "displayName": "SEMKI PUTNIE x1 000 000",
    "hidden": 0,
    "description": "SEMKI PUTNIE x1 000 000",
    "icon": "https://steamcdn-a.akamaihd.net/steamcommunity/public/images/apps/853210/0961fd9cff3eaa6e8880e1e4584df6b5dd5048ca.jpg",
    "icongray": "https://steamcdn-a.akamaihd.net/steamcommunity/public/images/apps/853210/ad673db5d87676533fafecb467417a81b97554b1.jpg"
  },
  {
    "name": "SELL_10KK_SEMKI",
    "defaultvalue": 0,
    "displayName": "SEMKI PUTNIE x10 000 000",
    "hidden": 0,
    "description": "SEMKI PUTNIE x10 000 000",
    "icon": "https://steamcdn-a.akamaihd.net/steamcommunity/public/images/apps/853210/0961fd9cff3eaa6e8880e1e4584df6b5dd5048ca.jpg",
    "icongray": "https://steamcdn-a.akamaihd.net/steamcommunity/public/images/apps/853210/ad673db5d87676533fafecb467417a81b97554b1.jpg"
  },
  {
    "name": "SELL_100KK_SEMKI",
    "defaultvalue": 0,
    "displayName": "MEGA SEMKI!!!",
    "hidden": 0,
    "description": "SEMKI PUTNIE x100 000 000",
    "icon": "https://steamcdn-a.akamaihd.net/steamcommunity/public/images/apps/853210/8f1cf7ec274e28c57dbf2c8d02ecfbb2948c2f16.jpg",
    "icongray": "https://steamcdn-a.akamaihd.net/steamcommunity/public/images/apps/853210/ad673db5d87676533fafecb467417a81b97554b1.jpg"
  },
  {
    "name": "SELL_10_PIVAS",
    "defaultvalue": 0,
    "displayName": "HALAVNIY PIVAS",
    "hidden": 0,
    "description": "HALAVNIY PIVAS",
    "icon": "https://steamcdn-a.akamaihd.net/steamcommunity/public/images/apps/853210/914eecf2660b31aff5c46e2445395c26d719bc5f.jpg",
    "icongray": "https://steamcdn-a.akamaihd.net/steamcommunity/public/images/apps/853210/ad673db5d87676533fafecb467417a81b97554b1.jpg"
  },
  {
    "name": "SELL_100_PIVAS",
    "defaultvalue": 0,
    "displayName": "HALAVNIY PIVAS x100",
    "hidden": 0,
    "description": "HALAVNIY PIVAS x100",
    "icon": "https://steamcdn-a.akamaihd.net/steamcommunity/public/images/apps/853210/914eecf2660b31aff5c46e2445395c26d719bc5f.jpg",
    "icongray": "https://steamcdn-a.akamaihd.net/steamcommunity/public/images/apps/853210/34d5b9a6876e7ad768ed84feb5990f3cf2a383e7.jpg"
  },
  {
    "name": "SELL_1000_PIVAS",
    "defaultvalue": 0,
    "displayName": "HALAVNIY PIVAS x1000",
    "hidden": 0,
    "description": "HALAVNIY PIVAS x1000",
    "icon": "https://steamcdn-a.akamaihd.net/steamcommunity/public/images/apps/853210/011504c03aefc39d35c19aec448c5d871ab5143d.jpg",
    "icongray": "https://steamcdn-a.akamaihd.net/steamcommunity/public/images/apps/853210/ad673db5d87676533fafecb467417a81b97554b1.jpg"
  },
  {
    "name": "SELL_10K_PIVAS",
    "defaultvalue": 0,
    "displayName": "HALAVNIY PIVAS x10 000",
    "hidden": 0,
    "description": "HALAVNIY PIVAS x10 000",
    "icon": "https://steamcdn-a.akamaihd.net/steamcommunity/public/images/apps/853210/914eecf2660b31aff5c46e2445395c26d719bc5f.jpg",
    "icongray": "https://steamcdn-a.akamaihd.net/steamcommunity/public/images/apps/853210/ad673db5d87676533fafecb467417a81b97554b1.jpg"
  },
  {
    "name": "SELL_100K_PIVAS",
    "defaultvalue": 0,
    "displayName": "HALAVNIY PIVAS x100 000",
    "hidden": 0,
    "description": "HALAVNIY PIVAS x100 000",
    "icon": "https://steamcdn-a.akamaihd.net/steamcommunity/public/images/apps/853210/914eecf2660b31aff5c46e2445395c26d719bc5f.jpg",
    "icongray": "https://steamcdn-a.akamaihd.net/steamcommunity/public/images/apps/853210/ad673db5d87676533fafecb467417a81b97554b1.jpg"
  },
  {
    "name": "SELL_1KK_PIVAS",
    "defaultvalue": 0,
    "displayName": "HALAVNIY PIVAS x1 000 000",
    "hidden": 0,
    "description": "HALAVNIY PIVAS x1 000 000",
    "icon": "https://steamcdn-a.akamaihd.net/steamcommunity/public/images/apps/853210/914eecf2660b31aff5c46e2445395c26d719bc5f.jpg",
    "icongray": "https://steamcdn-a.akamaihd.net/steamcommunity/public/images/apps/853210/ad673db5d87676533fafecb467417a81b97554b1.jpg"
  },
  {
    "name": "SELL_10KK_PIVAS",
    "defaultvalue": 0,
    "displayName": "HALAVNIY PIVAS x10 000 000",
    "hidden": 0,
    "description": "HALAVNIY PIVAS x10 000 000",
    "icon": "https://steamcdn-a.akamaihd.net/steamcommunity/public/images/apps/853210/914eecf2660b31aff5c46e2445395c26d719bc5f.jpg",
    "icongray": "https://steamcdn-a.akamaihd.net/steamcommunity/public/images/apps/853210/ad673db5d87676533fafecb467417a81b97554b1.jpg"
  },
  {
    "name": "SELL_100KK_PIVAS",
    "defaultvalue": 0,
    "displayName": "POLTORASHKA",
    "hidden": 0,
    "description": "HALAVNIY PIVAS x100 000 000",
    "icon": "https://steamcdn-a.akamaihd.net/steamcommunity/public/images/apps/853210/8766d762a238bd36d9d98be13543419dcfb19b7f.jpg",
    "icongray": "https://steamcdn-a.akamaihd.net/steamcommunity/public/images/apps/853210/ad673db5d87676533fafecb467417a81b97554b1.jpg"
  },
  {
    "name": "SELL_10_SIGI",
    "defaultvalue": 0,
    "displayName": "OTSHATIE SIGI",
    "hidden": 0,
    "description": "OTSHATIE SIGI",
    "icon": "https://steamcdn-a.akamaihd.net/steamcommunity/public/images/apps/853210/14ebc13f07ec7ec8a6fa745cb3c9b4ef87d28903.jpg",
    "icongray": "https://steamcdn-a.akamaihd.net/steamcommunity/public/images/apps/853210/ad673db5d87676533fafecb467417a81b97554b1.jpg"
  },
  {
    "name": "SELL_100_SIGI",
    "defaultvalue": 0,
    "displayName": "OTSHATIE SIGI x100",
    "hidden": 0,
    "description": "OTSHATIE SIGI x100",
    "icon": "https://steamcdn-a.akamaihd.net/steamcommunity/public/images/apps/853210/14ebc13f07ec7ec8a6fa745cb3c9b4ef87d28903.jpg",
    "icongray": "https://steamcdn-a.akamaihd.net/steamcommunity/public/images/apps/853210/ad673db5d87676533fafecb467417a81b97554b1.jpg"
  },
  {
    "name": "SELL_1000_SIGI",
    "defaultvalue": 0,
    "displayName": "OTSHATIE SIGI x1000",
    "hidden": 0,
    "description": "OTSHATIE SIGI x1000",
    "icon": "https://steamcdn-a.akamaihd.net/steamcommunity/public/images/apps/853210/14ebc13f07ec7ec8a6fa745cb3c9b4ef87d28903.jpg",
    "icongray": "https://steamcdn-a.akamaihd.net/steamcommunity/public/images/apps/853210/34d5b9a6876e7ad768ed84feb5990f3cf2a383e7.jpg"
  },
  {
    "name": "SELL_10K_SIGI",
    "defaultvalue": 0,
    "displayName": "OTSHATIE SIGI x10 000",
    "hidden": 0,
    "description": "OTSHATIE SIGI x10 000",
    "icon": "https://steamcdn-a.akamaihd.net/steamcommunity/public/images/apps/853210/14ebc13f07ec7ec8a6fa745cb3c9b4ef87d28903.jpg",
    "icongray": "https://steamcdn-a.akamaihd.net/steamcommunity/public/images/apps/853210/ad673db5d87676533fafecb467417a81b97554b1.jpg"
  },
  {
    "name": "SELL_100K_SIGI",
    "defaultvalue": 0,
    "displayName": "OTSHATIE SIGI x100 000",
    "hidden": 0,
    "description": "OTSHATIE SIGI x100 000",
    "icon": "https://steamcdn-a.akamaihd.net/steamcommunity/public/images/apps/853210/14ebc13f07ec7ec8a6fa745cb3c9b4ef87d28903.jpg",
    "icongray": "https://steamcdn-a.akamaihd.net/steamcommunity/public/images/apps/853210/ad673db5d87676533fafecb467417a81b97554b1.jpg"
  },
  {
    "name": "SELL_1KK_SIGI",
    "defaultvalue": 0,
    "displayName": "OTSHATIE SIGI x1 000 000",
    "hidden": 0,
    "description": "OTSHATIE SIGI x1 000 000",
    "icon": "https://steamcdn-a.akamaihd.net/steamcommunity/public/images/apps/853210/14ebc13f07ec7ec8a6fa745cb3c9b4ef87d28903.jpg",
    "icongray": "https://steamcdn-a.akamaihd.net/steamcommunity/public/images/apps/853210/34d5b9a6876e7ad768ed84feb5990f3cf2a383e7.jpg"
  },
  {
    "name": "SELL_10KK_SIGI",
    "defaultvalue": 0,
    "displayName": "OTSHATIE SIGI x10 000 000",
    "hidden": 0,
    "description": "OTSHATIE SIGI x10 000 000",
    "icon": "https://steamcdn-a.akamaihd.net/steamcommunity/public/images/apps/853210/14ebc13f07ec7ec8a6fa745cb3c9b4ef87d28903.jpg",
    "icongray": "https://steamcdn-a.akamaihd.net/steamcommunity/public/images/apps/853210/ad673db5d87676533fafecb467417a81b97554b1.jpg"
  },
  {
    "name": "SELL_100KK_SIGI",
    "defaultvalue": 0,
    "displayName": "STRELNUT SIGU",
    "hidden": 0,
    "description": "TSHATIE SIGI x100 000 000",
    "icon": "https://steamcdn-a.akamaihd.net/steamcommunity/public/images/apps/853210/d40a4094a7b1fa71f680567673047321bfcea92b.jpg",
    "icongray": "https://steamcdn-a.akamaihd.net/steamcommunity/public/images/apps/853210/ad673db5d87676533fafecb467417a81b97554b1.jpg"
  },
  {
    "name": "SELL_10_GOPSTOP",
    "defaultvalue": 0,
    "displayName": "GOP STOP IZ ZA UGLA ",
    "hidden": 0,
    "description": "GOP STOP IZ ZA UGLA ",
    "icon": "https://steamcdn-a.akamaihd.net/steamcommunity/public/images/apps/853210/e4c244341e2a68756dd885320178406a39063f3a.jpg",
    "icongray": "https://steamcdn-a.akamaihd.net/steamcommunity/public/images/apps/853210/ad673db5d87676533fafecb467417a81b97554b1.jpg"
  },
  {
    "name": "SELL_100_GOPSTOP",
    "defaultvalue": 0,
    "displayName": "GOP STOP IZ ZA UGLA x100",
    "hidden": 0,
    "description": "GOP STOP IZ ZA UGLA x100",
    "icon": "https://steamcdn-a.akamaihd.net/steamcommunity/public/images/apps/853210/31ea96ceb7580625826fbba87aa3361844f8d3f8.jpg",
    "icongray": "https://steamcdn-a.akamaihd.net/steamcommunity/public/images/apps/853210/ad673db5d87676533fafecb467417a81b97554b1.jpg"
  },
  {
    "name": "SELL_1000_GOPSTOP",
    "defaultvalue": 0,
    "displayName": "GOP STOP IZ ZA UGLA x1000",
    "hidden": 0,
    "description": "GOP STOP IZ ZA UGLA x1000",
    "icon": "https://steamcdn-a.akamaihd.net/steamcommunity/public/images/apps/853210/31ea96ceb7580625826fbba87aa3361844f8d3f8.jpg",
    "icongray": "https://steamcdn-a.akamaihd.net/steamcommunity/public/images/apps/853210/ad673db5d87676533fafecb467417a81b97554b1.jpg"
  },
  {
    "name": "SELL_10K_GOPSTOP",
    "defaultvalue": 0,
    "displayName": "GOP STOP IZ ZA UGLA x10 000",
    "hidden": 0,
    "description": "GOP STOP IZ ZA UGLA x10 000",
    "icon": "https://steamcdn-a.akamaihd.net/steamcommunity/public/images/apps/853210/31ea96ceb7580625826fbba87aa3361844f8d3f8.jpg",
    "icongray": "https://steamcdn-a.akamaihd.net/steamcommunity/public/images/apps/853210/ad673db5d87676533fafecb467417a81b97554b1.jpg"
  },
  {
    "name": "SELL_100K_GOPSTOP",
    "defaultvalue": 0,
    "displayName": "GOP STOP IZ ZA UGLA x100 000",
    "hidden": 0,
    "description": "GOP STOP IZ ZA UGLA x100 000",
    "icon": "https://steamcdn-a.akamaihd.net/steamcommunity/public/images/apps/853210/31ea96ceb7580625826fbba87aa3361844f8d3f8.jpg",
    "icongray": "https://steamcdn-a.akamaihd.net/steamcommunity/public/images/apps/853210/ad673db5d87676533fafecb467417a81b97554b1.jpg"
  },
  {
    "name": "SELL_1KK_GOPSTOP",
    "defaultvalue": 0,
    "displayName": "GOP STOP IZ ZA UGLA x1 000 000",
    "hidden": 0,
    "description": "GOP STOP IZ ZA UGLA x1 000 000",
    "icon": "https://steamcdn-a.akamaihd.net/steamcommunity/public/images/apps/853210/e4c244341e2a68756dd885320178406a39063f3a.jpg",
    "icongray": "https://steamcdn-a.akamaihd.net/steamcommunity/public/images/apps/853210/ad673db5d87676533fafecb467417a81b97554b1.jpg"
  },
  {
    "name": "SELL_10KK_GOPSTOP",
    "defaultvalue": 0,
    "displayName": "GOP STOP IZ ZA UGLA x10 000 000",
    "hidden": 0,
    "description": "GOP STOP IZ ZA UGLA x10 000 000",
    "icon": "https://steamcdn-a.akamaihd.net/steamcommunity/public/images/apps/853210/e4c244341e2a68756dd885320178406a39063f3a.jpg",
    "icongray": "https://steamcdn-a.akamaihd.net/steamcommunity/public/images/apps/853210/34d5b9a6876e7ad768ed84feb5990f3cf2a383e7.jpg"
  },
  {
    "name": "SELL_100KK_GOPSTOP",
    "defaultvalue": 0,
    "displayName": "ULTRASUPERSHESKIY GOP STOP",
    "hidden": 0,
    "description": "GOP STOP IZ ZA UGLA x10 000 000",
    "icon": "https://steamcdn-a.akamaihd.net/steamcommunity/public/images/apps/853210/00ded9069d10c9c30d01937e00b4d2191a203476.jpg",
    "icongray": "https://steamcdn-a.akamaihd.net/steamcommunity/public/images/apps/853210/ad673db5d87676533fafecb467417a81b97554b1.jpg"
  },
  {
    "name": "SELL_10_POBAZARIT",
    "defaultvalue": 0,
    "displayName": "BAZARIT ZA SHIZN",
    "hidden": 0,
    "description": "BAZARIT ZA SHIZN",
    "icon": "https://steamcdn-a.akamaihd.net/steamcommunity/public/images/apps/853210/8699acdd261d278456c28d4bcf05fbb50d98993e.jpg",
    "icongray": "https://steamcdn-a.akamaihd.net/steamcommunity/public/images/apps/853210/ad673db5d87676533fafecb467417a81b97554b1.jpg"
  },
  {
    "name": "SELL_100_POBAZARIT",
    "defaultvalue": 0,
    "displayName": "BAZARIT ZA SHIZN x100",
    "hidden": 0,
    "description": "BAZARIT ZA SHIZN x100",
    "icon": "https://steamcdn-a.akamaihd.net/steamcommunity/public/images/apps/853210/8699acdd261d278456c28d4bcf05fbb50d98993e.jpg",
    "icongray": "https://steamcdn-a.akamaihd.net/steamcommunity/public/images/apps/853210/ad673db5d87676533fafecb467417a81b97554b1.jpg"
  },
  {
    "name": "SELL_1000_POBAZARIT",
    "defaultvalue": 0,
    "displayName": "BAZARIT ZA SHIZN x1000",
    "hidden": 0,
    "description": "BAZARIT ZA SHIZN x1000",
    "icon": "https://steamcdn-a.akamaihd.net/steamcommunity/public/images/apps/853210/8699acdd261d278456c28d4bcf05fbb50d98993e.jpg",
    "icongray": "https://steamcdn-a.akamaihd.net/steamcommunity/public/images/apps/853210/ad673db5d87676533fafecb467417a81b97554b1.jpg"
  },
  {
    "name": "SELL_10K_POBAZARIT",
    "defaultvalue": 0,
    "displayName": "BAZARIT ZA SHIZN x10 000",
    "hidden": 0,
    "description": "BAZARIT ZA SHIZN x10 000",
    "icon": "https://steamcdn-a.akamaihd.net/steamcommunity/public/images/apps/853210/8699acdd261d278456c28d4bcf05fbb50d98993e.jpg",
    "icongray": "https://steamcdn-a.akamaihd.net/steamcommunity/public/images/apps/853210/ad673db5d87676533fafecb467417a81b97554b1.jpg"
  },
  {
    "name": "SELL_100K_POBAZARIT",
    "defaultvalue": 0,
    "displayName": "BAZARIT ZA SHIZN x100 000",
    "hidden": 0,
    "description": "BAZARIT ZA SHIZN x100 000",
    "icon": "https://steamcdn-a.akamaihd.net/steamcommunity/public/images/apps/853210/8699acdd261d278456c28d4bcf05fbb50d98993e.jpg",
    "icongray": "https://steamcdn-a.akamaihd.net/steamcommunity/public/images/apps/853210/ad673db5d87676533fafecb467417a81b97554b1.jpg"
  },
  {
    "name": "SELL_1KK_POBAZARIT",
    "defaultvalue": 0,
    "displayName": "BAZARIT ZA SHIZN x1 000 000",
    "hidden": 0,
    "description": "BAZARIT ZA SHIZN x1 000 000",
    "icon": "https://steamcdn-a.akamaihd.net/steamcommunity/public/images/apps/853210/8699acdd261d278456c28d4bcf05fbb50d98993e.jpg",
    "icongray": "https://steamcdn-a.akamaihd.net/steamcommunity/public/images/apps/853210/ad673db5d87676533fafecb467417a81b97554b1.jpg"
  },
  {
    "name": "SELL_10KK_POBAZARIT",
    "defaultvalue": 0,
    "displayName": "BAZARIT ZA SHIZN x10 000 000",
    "hidden": 0,
    "description": "BAZARIT ZA SHIZN x10 000 000",
    "icon": "https://steamcdn-a.akamaihd.net/steamcommunity/public/images/apps/853210/8699acdd261d278456c28d4bcf05fbb50d98993e.jpg",
    "icongray": "https://steamcdn-a.akamaihd.net/steamcommunity/public/images/apps/853210/ad673db5d87676533fafecb467417a81b97554b1.jpg"
  },
  {
    "name": "SELL_100KK_POBAZARIT",
    "defaultvalue": 0,
    "displayName": "POBAZARIM V PADIKE",
    "hidden": 0,
    "description": "BAZARIT ZA SHIZN x100 000 000",
    "icon": "https://steamcdn-a.akamaihd.net/steamcommunity/public/images/apps/853210/b384725556bdffd5f03f0dd8645fca5ce5b1bd9b.jpg",
    "icongray": "https://steamcdn-a.akamaihd.net/steamcommunity/public/images/apps/853210/ad673db5d87676533fafecb467417a81b97554b1.jpg"
  },
  {
    "name": "GP_1",
    "defaultvalue": 0,
    "displayName": "GOPNIK POINT",
    "hidden": 0,
    "description": "GOPNIK POINT",
    "icon": "https://steamcdn-a.akamaihd.net/steamcommunity/public/images/apps/853210/96a4e89f65421cab4378064de7aa8c1d64d50638.jpg",
    "icongray": "https://steamcdn-a.akamaihd.net/steamcommunity/public/images/apps/853210/ad673db5d87676533fafecb467417a81b97554b1.jpg"
  },
  {
    "name": "GP_10",
    "defaultvalue": 0,
    "displayName": "GOPNIK POINT x10",
    "hidden": 0,
    "description": "GOPNIK POINT x10",
    "icon": "https://steamcdn-a.akamaihd.net/steamcommunity/public/images/apps/853210/96a4e89f65421cab4378064de7aa8c1d64d50638.jpg",
    "icongray": "https://steamcdn-a.akamaihd.net/steamcommunity/public/images/apps/853210/ad673db5d87676533fafecb467417a81b97554b1.jpg"
  },
  {
    "name": "GP_100",
    "defaultvalue": 0,
    "displayName": "GOPNIK POINT x100",
    "hidden": 0,
    "description": "GOPNIK POINT x100",
    "icon": "https://steamcdn-a.akamaihd.net/steamcommunity/public/images/apps/853210/96a4e89f65421cab4378064de7aa8c1d64d50638.jpg",
    "icongray": "https://steamcdn-a.akamaihd.net/steamcommunity/public/images/apps/853210/ad673db5d87676533fafecb467417a81b97554b1.jpg"
  },
  {
    "name": "GP_1000",
    "defaultvalue": 0,
    "displayName": "GOPNIK POINT x1000",
    "hidden": 0,
    "description": "GOPNIK POINT x1000",
    "icon": "https://steamcdn-a.akamaihd.net/steamcommunity/public/images/apps/853210/96a4e89f65421cab4378064de7aa8c1d64d50638.jpg",
    "icongray": "https://steamcdn-a.akamaihd.net/steamcommunity/public/images/apps/853210/34d5b9a6876e7ad768ed84feb5990f3cf2a383e7.jpg"
  },
  {
    "name": "GP_10K",
    "defaultvalue": 0,
    "displayName": "GOPNIK POINT x10 000",
    "hidden": 0,
    "description": "GOPNIK POINT x10 000",
    "icon": "https://steamcdn-a.akamaihd.net/steamcommunity/public/images/apps/853210/96a4e89f65421cab4378064de7aa8c1d64d50638.jpg",
    "icongray": "https://steamcdn-a.akamaihd.net/steamcommunity/public/images/apps/853210/ad673db5d87676533fafecb467417a81b97554b1.jpg"
  },
  {
    "name": "GP_100K",
    "defaultvalue": 0,
    "displayName": "GOPNIK POINT x100 000",
    "hidden": 0,
    "description": "GOPNIK POINT x100 000",
    "icon": "https://steamcdn-a.akamaihd.net/steamcommunity/public/images/apps/853210/96a4e89f65421cab4378064de7aa8c1d64d50638.jpg",
    "icongray": "https://steamcdn-a.akamaihd.net/steamcommunity/public/images/apps/853210/ad673db5d87676533fafecb467417a81b97554b1.jpg"
  },
  {
    "name": "GP_1KK",
    "defaultvalue": 0,
    "displayName": "GOPNIK POINT x1 000 000",
    "hidden": 0,
    "description": "GOPNIK POINT x1 000 000",
    "icon": "https://steamcdn-a.akamaihd.net/steamcommunity/public/images/apps/853210/96a4e89f65421cab4378064de7aa8c1d64d50638.jpg",
    "icongray": "https://steamcdn-a.akamaihd.net/steamcommunity/public/images/apps/853210/ad673db5d87676533fafecb467417a81b97554b1.jpg"
  },
  {
    "name": "GP_10KK",
    "defaultvalue": 0,
    "displayName": "GOPNIK POINT x10 000 000",
    "hidden": 0,
    "description": "GOPNIK POINT x10 000 000",
    "icon": "https://steamcdn-a.akamaihd.net/steamcommunity/public/images/apps/853210/96a4e89f65421cab4378064de7aa8c1d64d50638.jpg",
    "icongray": "https://steamcdn-a.akamaihd.net/steamcommunity/public/images/apps/853210/ad673db5d87676533fafecb467417a81b97554b1.jpg"
  },
  {
    "name": "GP_100KK",
    "defaultvalue": 0,
    "displayName": "CHETKIY GOPNIK",
    "hidden": 0,
    "description": "GOPNIK POINT x100 000 000",
    "icon": "https://steamcdn-a.akamaihd.net/steamcommunity/public/images/apps/853210/36d5aad80538321c52c97864526113f655a9e053.jpg",
    "icongray": "https://steamcdn-a.akamaihd.net/steamcommunity/public/images/apps/853210/ad673db5d87676533fafecb467417a81b97554b1.jpg"
  }
]