﻿{
  "Dlcs": {
    "898130": {
      "Name": "Cube Racer - Founders Early Support Upgrade",
      "ImageUrl": "https://steamcdn-a.akamaihd.net/steam/apps/898130/header.jpg?t=1539587333"
    }
  },
  "Name": "Cube Racer",
  "AppId": "705210",
  "ImageUrl": "https://steamcdn-a.akamaihd.net/steam/apps/705210/header.jpg?t=1532000492",
  "Languages": [
    "english"
  ],
  "Platforms": {
    "windows": true,
    "mac": false,
    "linux": true
  }
}