﻿{
  "Dlcs": {},
  "Name": "Shoppe Keep 2 Character Creator Preview",
  "AppId": "787640",
  "ImageUrl": "https://steamcdn-a.akamaihd.net/steam/apps/787640/header.jpg?t=1518014538",
  "Languages": [
    "english",
    "japanese",
    "russian",
    "schinese"
  ],
  "Platforms": {
    "windows": true,
    "mac": false,
    "linux": false
  }
}