﻿{
  "Dlcs": {
    "1003780": {
      "Name": "SYNTHETIK: Arena Premium Upgrade",
      "ImageUrl": "https://steamcdn-a.akamaihd.net/steam/apps/1003780/header.jpg?t=1581341869"
    },
    "1015110": {
      "Name": "SYNTHETIK: Arena Supporter Pack",
      "ImageUrl": "https://steamcdn-a.akamaihd.net/steam/apps/1015110/header.jpg?t=1548097914"
    }
  },
  "Name": "SYNTHETIK: Arena",
  "AppId": "984110",
  "ImageUrl": "https://steamcdn-a.akamaihd.net/steam/apps/984110/header.jpg?t=1572536563",
  "Languages": [
    "english",
    "french",
    "italian",
    "german",
    "spanish",
    "portuguese",
    "russian",
    "polish",
    "korean",
    "schinese"
  ],
  "Platforms": {
    "windows": true,
    "mac": false,
    "linux": false
  }
}