﻿[
  {
    "name": "stat_championtypes",
    "defaultvalue": 0,
    "displayName": "Champion Types Created"
  },
  {
    "name": "stat_mostfloors",
    "defaultvalue": 0,
    "displayName": "Most Floors Built"
  },
  {
    "name": "stat_highestwave",
    "defaultvalue": 0,
    "displayName": "Highest Wave Reached"
  },
  {
    "name": "stat_prophecies",
    "defaultvalue": 0,
    "displayName": "Prophecies Fulfilled"
  },
  {
    "name": "stat_highestmultiplier",
    "defaultvalue": 0,
    "displayName": "Highest Multiplier"
  },
  {
    "name": "stat_mostrituals",
    "defaultvalue": 0,
    "displayName": "Most Rituals Completed"
  },
  {
    "name": "stat_challenge_cheapskate",
    "defaultvalue": 0,
    "displayName": "\"Cheapskate\" Challenge Waves Completed"
  },
  {
    "name": "stat_stockpile",
    "defaultvalue": 0,
    "displayName": "Greatest Stockpile of a Single Resource"
  },
  {
    "name": "stat_mostpotions",
    "defaultvalue": 0,
    "displayName": "Most Potions Used"
  },
  {
    "name": "stat_mostplots",
    "defaultvalue": 0,
    "displayName": "Most Plots Completed"
  },
  {
    "name": "stat_mostpillagingminions",
    "defaultvalue": 0,
    "displayName": "Most Minions Recruited by Pillaging"
  }
]