﻿{
  "Dlcs": {},
  "Name": "KRUM - Edge Of Darkness",
  "AppId": "420210",
  "ImageUrl": "https://steamcdn-a.akamaihd.net/steam/apps/420210/header.jpg?t=1572381207",
  "Languages": [
    "english",
    "french",
    "german",
    "spanish",
    "bulgarian",
    "dutch",
    "portuguese",
    "russian",
    "hungarian"
  ],
  "Platforms": {
    "windows": true,
    "mac": false,
    "linux": false
  }
}