﻿[
  {
    "name": "punch_kill",
    "defaultvalue": 0,
    "displayName": "Punch Kills"
  },
  {
    "name": "grenade_kills",
    "defaultvalue": 0,
    "displayName": "Grenade Kills"
  },
  {
    "name": "total_deaths",
    "defaultvalue": 0,
    "displayName": "Total Deaths"
  },
  {
    "name": "total_money",
    "defaultvalue": 0,
    "displayName": "Total Money Gained"
  }
]