﻿{
  "Dlcs": {},
  "Name": "The Ranger: Lost Tribe",
  "AppId": "673070",
  "ImageUrl": "https://steamcdn-a.akamaihd.net/steam/apps/673070/header.jpg?t=1512370606",
  "Languages": [
    "english",
    "schinese"
  ],
  "Platforms": {
    "windows": true,
    "mac": false,
    "linux": false
  }
}