﻿[
  {
    "name": "gold",
    "defaultvalue": 0,
    "displayName": "Total Gold"
  },
  {
    "name": "enemies_killed",
    "defaultvalue": 0,
    "displayName": "Enemies Killed"
  },
  {
    "name": "risk",
    "defaultvalue": 0,
    "displayName": "Risks Used"
  }
]