﻿[
  {
    "name": "Count_Beatpoints",
    "defaultvalue": 0,
    "displayName": "Gatherer",
    "hidden": 0,
    "description": "Collect a total of 2000 Beatpoints",
    "icon": "https://steamcdn-a.akamaihd.net/steamcommunity/public/images/apps/231040/51d3d8149a9f01ff65988a67571379d2b3e33735.jpg",
    "icongray": "https://steamcdn-a.akamaihd.net/steamcommunity/public/images/apps/231040/de4fd117be10480262d9adc35d844f9a30fedc37.jpg"
  },
  {
    "name": "Count_Containers",
    "defaultvalue": 0,
    "displayName": "Mad on Health",
    "hidden": 0,
    "description": "Destroy 200 containers",
    "icon": "https://steamcdn-a.akamaihd.net/steamcommunity/public/images/apps/231040/214d28c8f0b57791865652102e0ad9880e788415.jpg",
    "icongray": "https://steamcdn-a.akamaihd.net/steamcommunity/public/images/apps/231040/479c6404f50d8a9ab52c153e1e21918088a45730.jpg"
  },
  {
    "name": "Count_Snarejumps",
    "defaultvalue": 0,
    "displayName": "Snare Jumper",
    "hidden": 0,
    "description": "Jump through Snarestreams 100 times",
    "icon": "https://steamcdn-a.akamaihd.net/steamcommunity/public/images/apps/231040/bf37d02747767fb57900fdc07591722a71bcd040.jpg",
    "icongray": "https://steamcdn-a.akamaihd.net/steamcommunity/public/images/apps/231040/703aa2d79232ae38eebb99277352de257f879767.jpg"
  },
  {
    "name": "Count_Rhythm",
    "defaultvalue": 0,
    "displayName": "In the Rhythm",
    "hidden": 0,
    "description": "Accomplish 20 Rhythm Combo's",
    "icon": "https://steamcdn-a.akamaihd.net/steamcommunity/public/images/apps/231040/5f2979c5b770eb857a597e3c02554d162dfc9c55.jpg",
    "icongray": "https://steamcdn-a.akamaihd.net/steamcommunity/public/images/apps/231040/e30607583f115f98a6839925da40543c439b39e4.jpg"
  },
  {
    "name": "Count_Soldiers",
    "defaultvalue": 0,
    "displayName": "Champion",
    "hidden": 0,
    "description": "Defeat 100 Soldiers",
    "icon": "https://steamcdn-a.akamaihd.net/steamcommunity/public/images/apps/231040/874146860eece054ea5705045e1bf170fcc4b05a.jpg",
    "icongray": "https://steamcdn-a.akamaihd.net/steamcommunity/public/images/apps/231040/9f93f83267f2a5f54ec15979510f62a4cd2686a0.jpg"
  },
  {
    "name": "Challenge_Dash",
    "defaultvalue": 0,
    "displayName": "Dash Maniac",
    "hidden": 0,
    "description": "Complete the Elite Training in the Camp",
    "icon": "https://steamcdn-a.akamaihd.net/steamcommunity/public/images/apps/231040/4910fd048310c33ca4c0d0102be224a9a29356f5.jpg",
    "icongray": "https://steamcdn-a.akamaihd.net/steamcommunity/public/images/apps/231040/5444384871bb39bb5af4920f361dedaa83f45c22.jpg"
  },
  {
    "name": "Challenge_Arena",
    "defaultvalue": 0,
    "displayName": "Untouchable",
    "hidden": 0,
    "description": "Defeat the captured Parasites in level 4 without getting hit",
    "icon": "https://steamcdn-a.akamaihd.net/steamcommunity/public/images/apps/231040/7181b15b86c3adea1d7d2ec6e648aa12e3fef5aa.jpg",
    "icongray": "https://steamcdn-a.akamaihd.net/steamcommunity/public/images/apps/231040/dd11c46e022d0034bc2434f3220a147e9c0ed35a.jpg"
  },
  {
    "name": "Challenge_Unlock",
    "defaultvalue": 0,
    "displayName": "Art Collector",
    "hidden": 0,
    "description": "Unlock all the Extras",
    "icon": "https://steamcdn-a.akamaihd.net/steamcommunity/public/images/apps/231040/c64f5d0695775c8754069ac61d493bba0d6fef0a.jpg",
    "icongray": "https://steamcdn-a.akamaihd.net/steamcommunity/public/images/apps/231040/24d8132324469af3f731757009064dc0b5e000f1.jpg"
  },
  {
    "name": "Challenge_Time",
    "defaultvalue": 0,
    "displayName": "Fast Forward",
    "hidden": 0,
    "description": "Complete the game in under 3 hours",
    "icon": "https://steamcdn-a.akamaihd.net/steamcommunity/public/images/apps/231040/a7d453ba43d7318787dc84c957667242265330b5.jpg",
    "icongray": "https://steamcdn-a.akamaihd.net/steamcommunity/public/images/apps/231040/a5c205019919fd10e36db918b509c242c796f39d.jpg"
  },
  {
    "name": "Level_1",
    "defaultvalue": 0,
    "displayName": "Beatbuddy Swing",
    "hidden": 0,
    "description": "Complete level 1",
    "icon": "https://steamcdn-a.akamaihd.net/steamcommunity/public/images/apps/231040/e3f7b76394d7e283e0e29300ae52d0a1c6fa263f.jpg",
    "icongray": "https://steamcdn-a.akamaihd.net/steamcommunity/public/images/apps/231040/8a5204aafa90e88d7f09965b1da62555cae7d1f5.jpg"
  },
  {
    "name": "Level_2",
    "defaultvalue": 0,
    "displayName": "Love Swing",
    "hidden": 0,
    "description": "Complete level 2",
    "icon": "https://steamcdn-a.akamaihd.net/steamcommunity/public/images/apps/231040/d71b4cd652817297465c8c8327c9cf7ff78ca08b.jpg",
    "icongray": "https://steamcdn-a.akamaihd.net/steamcommunity/public/images/apps/231040/ad997159de92349d7eaf8a6758b1dcd9212a4f0b.jpg"
  },
  {
    "name": "Level_3",
    "defaultvalue": 0,
    "displayName": "Lost In Yesterday",
    "hidden": 0,
    "description": "Complete level 3",
    "icon": "https://steamcdn-a.akamaihd.net/steamcommunity/public/images/apps/231040/d240d8a64d168dec368cdb772e19818bdc220222.jpg",
    "icongray": "https://steamcdn-a.akamaihd.net/steamcommunity/public/images/apps/231040/24439246ec15538e2663c60fe17415651295667f.jpg"
  },
  {
    "name": "Level_4",
    "defaultvalue": 0,
    "displayName": "I'm Your Star",
    "hidden": 0,
    "description": "Complete level 4",
    "icon": "https://steamcdn-a.akamaihd.net/steamcommunity/public/images/apps/231040/2a44449eb3f561a043f135999645414a0b417259.jpg",
    "icongray": "https://steamcdn-a.akamaihd.net/steamcommunity/public/images/apps/231040/3d8d7f7b92a31b57b5076237177c3ef14a578909.jpg"
  },
  {
    "name": "Level_5",
    "defaultvalue": 0,
    "displayName": "Stingin' Swing",
    "hidden": 0,
    "description": "Complete level 5",
    "icon": "https://steamcdn-a.akamaihd.net/steamcommunity/public/images/apps/231040/e6e92ae9c400cd2c09c4aaab13e0445a5bdb4885.jpg",
    "icongray": "https://steamcdn-a.akamaihd.net/steamcommunity/public/images/apps/231040/d2bead3ca1621e6e70e968a159c7e9c0bab1d660.jpg"
  },
  {
    "name": "Level_6",
    "defaultvalue": 0,
    "displayName": "You Are The One",
    "hidden": 0,
    "description": "Complete level 6",
    "icon": "https://steamcdn-a.akamaihd.net/steamcommunity/public/images/apps/231040/d3addc8beeb78df0cb5ae1279b4faaa70b5db5b8.jpg",
    "icongray": "https://steamcdn-a.akamaihd.net/steamcommunity/public/images/apps/231040/fe5c9c13810c5a9962372d8a8f2cb089e44b4e55.jpg"
  }
]