﻿{
  "Dlcs": {},
  "Name": "Back in 1995",
  "AppId": "433380",
  "ImageUrl": "https://steamcdn-a.akamaihd.net/steam/apps/433380/header.jpg?t=1589340932",
  "Languages": [
    "english",
    "japanese"
  ],
  "Platforms": {
    "windows": true,
    "mac": true,
    "linux": false
  }
}