﻿{
  "Dlcs": {},
  "Name": "Shadows 2: Perfidia",
  "AppId": "606330",
  "ImageUrl": "https://steamcdn-a.akamaihd.net/steam/apps/606330/header.jpg?t=1545122473",
  "Languages": [
    "english"
  ],
  "Platforms": {
    "windows": true,
    "mac": false,
    "linux": false
  }
}