﻿{
  "Dlcs": {},
  "Name": "Titus the Fox",
  "AppId": "711230",
  "ImageUrl": "https://steamcdn-a.akamaihd.net/steam/apps/711230/header.jpg?t=1575998601",
  "Languages": [
    "english"
  ],
  "Platforms": {
    "windows": true,
    "mac": true,
    "linux": false
  }
}