﻿[
  {
    "name": "ACH_KEY",
    "defaultvalue": 0,
    "displayName": "The first Key",
    "hidden": 0,
    "description": "",
    "icon": "https://steamcdn-a.akamaihd.net/steamcommunity/public/images/apps/429720/8437247cb28f49273991b2b62eb016db1c0b3f27.jpg",
    "icongray": "https://steamcdn-a.akamaihd.net/steamcommunity/public/images/apps/429720/9065a25d145c294edab756e07146729d8a2baa3f.jpg"
  },
  {
    "name": "ACH_PEEKONE",
    "defaultvalue": 0,
    "displayName": "Peek-a-Boo",
    "hidden": 0,
    "description": "",
    "icon": "https://steamcdn-a.akamaihd.net/steamcommunity/public/images/apps/429720/4766eca8681b2bcd0227c5f3b2f9b903b2492584.jpg",
    "icongray": "https://steamcdn-a.akamaihd.net/steamcommunity/public/images/apps/429720/9065a25d145c294edab756e07146729d8a2baa3f.jpg"
  },
  {
    "name": "ACH_TAG",
    "defaultvalue": 0,
    "displayName": "Master Tag",
    "hidden": 0,
    "description": "",
    "icon": "https://steamcdn-a.akamaihd.net/steamcommunity/public/images/apps/429720/0bbf625490226126eeaf5e0f65901db7a25f6743.jpg",
    "icongray": "https://steamcdn-a.akamaihd.net/steamcommunity/public/images/apps/429720/9065a25d145c294edab756e07146729d8a2baa3f.jpg"
  },
  {
    "name": "ACH_UNSEEN",
    "defaultvalue": 0,
    "displayName": "Not to See",
    "hidden": 0,
    "description": "",
    "icon": "https://steamcdn-a.akamaihd.net/steamcommunity/public/images/apps/429720/957ef43476821948ce60ea8733b3c5d26ef24b70.jpg",
    "icongray": "https://steamcdn-a.akamaihd.net/steamcommunity/public/images/apps/429720/9065a25d145c294edab756e07146729d8a2baa3f.jpg"
  },
  {
    "name": "ACH_WALLSECRET",
    "defaultvalue": 0,
    "displayName": "Heavens Door",
    "hidden": 0,
    "description": "",
    "icon": "https://steamcdn-a.akamaihd.net/steamcommunity/public/images/apps/429720/df54bdb289aca4054a27952b131c8740acd51911.jpg",
    "icongray": "https://steamcdn-a.akamaihd.net/steamcommunity/public/images/apps/429720/9065a25d145c294edab756e07146729d8a2baa3f.jpg"
  },
  {
    "name": "ACH_ENDED",
    "defaultvalue": 0,
    "displayName": "Game Ended",
    "hidden": 1,
    "icon": "https://steamcdn-a.akamaihd.net/steamcommunity/public/images/apps/429720/edb2a1db742b3d1459e4ed8c3c6c877f3d633883.jpg",
    "icongray": "https://steamcdn-a.akamaihd.net/steamcommunity/public/images/apps/429720/9065a25d145c294edab756e07146729d8a2baa3f.jpg"
  },
  {
    "name": "ACH_PEEKTWICE",
    "defaultvalue": 0,
    "displayName": "Peek-a-TWO",
    "hidden": 0,
    "description": "",
    "icon": "https://steamcdn-a.akamaihd.net/steamcommunity/public/images/apps/429720/4766eca8681b2bcd0227c5f3b2f9b903b2492584.jpg",
    "icongray": "https://steamcdn-a.akamaihd.net/steamcommunity/public/images/apps/429720/9065a25d145c294edab756e07146729d8a2baa3f.jpg"
  },
  {
    "name": "ACH_KEEPCONTACT",
    "defaultvalue": 0,
    "displayName": "Thanks for staying",
    "hidden": 0,
    "description": "",
    "icon": "https://steamcdn-a.akamaihd.net/steamcommunity/public/images/apps/429720/fa37ccdb06b4ff2856f952b73204de4768f1d3de.jpg",
    "icongray": "https://steamcdn-a.akamaihd.net/steamcommunity/public/images/apps/429720/9065a25d145c294edab756e07146729d8a2baa3f.jpg"
  },
  {
    "name": "ACH_LUCKYTICKS",
    "defaultvalue": 0,
    "displayName": "Lucky Tickets",
    "hidden": 0,
    "description": "",
    "icon": "https://steamcdn-a.akamaihd.net/steamcommunity/public/images/apps/429720/92b63dabb8279efe4fbb61831d5b4edd83401776.jpg",
    "icongray": "https://steamcdn-a.akamaihd.net/steamcommunity/public/images/apps/429720/9065a25d145c294edab756e07146729d8a2baa3f.jpg"
  },
  {
    "name": "ACH_HENDED",
    "defaultvalue": 0,
    "displayName": "Game HEnded",
    "hidden": 1,
    "icon": "https://steamcdn-a.akamaihd.net/steamcommunity/public/images/apps/429720/ecaeaece054f3ee2289a0b2c9e149224c5dc540b.jpg",
    "icongray": "https://steamcdn-a.akamaihd.net/steamcommunity/public/images/apps/429720/9065a25d145c294edab756e07146729d8a2baa3f.jpg"
  },
  {
    "name": "ACH_LONELINESS",
    "defaultvalue": 0,
    "displayName": "Loneliness",
    "hidden": 1,
    "icon": "https://steamcdn-a.akamaihd.net/steamcommunity/public/images/apps/429720/f3008283ba85ca1f6b2e3dededa5a98021cbd85b.jpg",
    "icongray": "https://steamcdn-a.akamaihd.net/steamcommunity/public/images/apps/429720/9065a25d145c294edab756e07146729d8a2baa3f.jpg"
  }
]