﻿{
  "Dlcs": {},
  "Name": "Containment: The Zombie Puzzler",
  "AppId": "203560",
  "ImageUrl": "https://steamcdn-a.akamaihd.net/steam/apps/203560/header.jpg?t=1447355048",
  "Languages": [
    "english"
  ],
  "Platforms": {
    "windows": true,
    "mac": true,
    "linux": true
  }
}