﻿[
  {
    "name": "charactersUsed",
    "defaultvalue": 0,
    "displayName": "Characters Used"
  },
  {
    "name": "moneyLostOnCupGame",
    "defaultvalue": 0,
    "displayName": "Money Lost On Cup Game"
  },
  {
    "name": "cupGamesWon",
    "defaultvalue": 0,
    "displayName": "Cup Games Won"
  },
  {
    "name": "dartGamesWon",
    "defaultvalue": 0,
    "displayName": "Dart Games Won"
  },
  {
    "name": "nagelGamesWon",
    "defaultvalue": 0,
    "displayName": "Nagel Games Won"
  },
  {
    "name": "cratesFoundS0",
    "defaultvalue": 0,
    "displayName": "Crates Found S0"
  },
  {
    "name": "cratesFoundPP",
    "defaultvalue": 0,
    "displayName": "Crates Found PP"
  },
  {
    "name": "cratesFoundWS",
    "defaultvalue": 0,
    "displayName": "Crates Found WS"
  },
  {
    "name": "cratesFoundLF",
    "defaultvalue": 0,
    "displayName": "Crates Found LF"
  },
  {
    "name": "cratesFoundBL",
    "defaultvalue": 0,
    "displayName": "Crates Found BL"
  },
  {
    "name": "cratesFoundUF",
    "defaultvalue": 0,
    "displayName": "Crates Found UF"
  },
  {
    "name": "charactersRevived",
    "defaultvalue": 0,
    "displayName": "Characters Revived"
  },
  {
    "name": "specialsUsed",
    "defaultvalue": 0,
    "displayName": "Specials Used"
  },
  {
    "name": "charactersFinished",
    "defaultvalue": 0,
    "displayName": "Characters Finished"
  },
  {
    "name": "charactersUsedProgress",
    "defaultvalue": 0,
    "displayName": "Characters Used"
  },
  {
    "name": "charactersRevivedProgress",
    "defaultvalue": 0,
    "displayName": "Characters Revived"
  },
  {
    "name": "charactersFinishedProgress",
    "defaultvalue": 0,
    "displayName": "Characters Finished"
  },
  {
    "name": "cratesFoundS0Progress",
    "defaultvalue": 0,
    "displayName": "Crates Canal"
  },
  {
    "name": "cratesFoundPPProgress",
    "defaultvalue": 0,
    "displayName": "Crates Pristine Pools"
  },
  {
    "name": "cratesFoundWSProgress",
    "defaultvalue": 0,
    "displayName": "Crates Workshop"
  },
  {
    "name": "cratesFoundLFProgress",
    "defaultvalue": 0,
    "displayName": "Crates Lowerfloors"
  },
  {
    "name": "cratesFoundBLProgress",
    "defaultvalue": 0,
    "displayName": "Crates Biolab"
  },
  {
    "name": "cratesFoundUFProgress",
    "defaultvalue": 0,
    "displayName": "Crates Upperfloors"
  }
]