﻿{
  "Dlcs": {},
  "Name": "Battle Islands",
  "AppId": "305260",
  "ImageUrl": "https://steamcdn-a.akamaihd.net/steam/apps/305260/header.jpg?t=1484148152",
  "Languages": [
    "english",
    "french",
    "italian",
    "german",
    "spanish",
    "portuguese",
    "portuguese"
  ],
  "Platforms": {
    "windows": true,
    "mac": false,
    "linux": false
  }
}