﻿{
  "Dlcs": {},
  "Name": "Dinosaur Hunt First Blood",
  "AppId": "650490",
  "ImageUrl": "https://steamcdn-a.akamaihd.net/steam/apps/650490/header.jpg?t=1592228773",
  "Languages": [
    "english"
  ],
  "Platforms": {
    "windows": true,
    "mac": true,
    "linux": true
  }
}