﻿[
  {
    "name": "to_boldly_go",
    "defaultvalue": 0,
    "displayName": "To Boldly Go",
    "hidden": 0,
    "description": "Witnessed the devastating effects of the temporal anomaly crisis.",
    "icon": "https://steamcdn-a.akamaihd.net/steamcommunity/public/images/apps/600750/47bc63c35d98a51ba73b7642c58ee5a451b6f9b0.jpg",
    "icongray": "https://steamcdn-a.akamaihd.net/steamcommunity/public/images/apps/600750/3c3bb8149148b2e889eca7a5d1bdfcef5f710ab8.jpg"
  },
  {
    "name": "logic_under_fire",
    "defaultvalue": 0,
    "displayName": "Logic Under Fire",
    "hidden": 0,
    "description": "Defeated Regent Worf and drove the Klingon-Cardassian Alliance from Vulcan.",
    "icon": "https://steamcdn-a.akamaihd.net/steamcommunity/public/images/apps/600750/5fda52f34372751fdfc3fa598a2e67341ddc5933.jpg",
    "icongray": "https://steamcdn-a.akamaihd.net/steamcommunity/public/images/apps/600750/c821c2377f30119cb644c8a76c65a2e1205c1b16.jpg"
  },
  {
    "name": "never_forgive_never_forget",
    "defaultvalue": 0,
    "displayName": "Never Forgive, Never Forget",
    "hidden": 0,
    "description": "Ended lawlessness in Bajoran and Cardassian space and handed control to a single faction.",
    "icon": "https://steamcdn-a.akamaihd.net/steamcommunity/public/images/apps/600750/e12f8612c65ea9907a98b3585225685b709f64ba.jpg",
    "icongray": "https://steamcdn-a.akamaihd.net/steamcommunity/public/images/apps/600750/82c865b30f717287f87f5cf92698971ac9ae8490.jpg"
  },
  {
    "name": "ethical_alternatives",
    "defaultvalue": 0,
    "displayName": "Ethical Alternatives",
    "hidden": 0,
    "description": "Put the future of the Federation in either Section 31 or the Terran Empire’s hands.",
    "icon": "https://steamcdn-a.akamaihd.net/steamcommunity/public/images/apps/600750/75e6c83a94e457fd54ed8d96152f3a20ec7ab619.jpg",
    "icongray": "https://steamcdn-a.akamaihd.net/steamcommunity/public/images/apps/600750/71ae3ce1fdaa96493a03557d45cad6e08d463ffb.jpg"
  },
  {
    "name": "art_of_war",
    "defaultvalue": 0,
    "displayName": "The Art of War",
    "hidden": 0,
    "description": "Ensured the supremacy of the Augments or the Klingons as the galaxy’s strongest warriors.",
    "icon": "https://steamcdn-a.akamaihd.net/steamcommunity/public/images/apps/600750/bfd5d7fbc7aa6f4ee3e28ec42b21730b774ec5df.jpg",
    "icongray": "https://steamcdn-a.akamaihd.net/steamcommunity/public/images/apps/600750/4c8e04c5421de4d00fede177f12797357e0e11d0.jpg"
  },
  {
    "name": "hostile_takeover",
    "defaultvalue": 0,
    "displayName": "Hostile Takeover",
    "hidden": 0,
    "description": "Gave the Grand Nagus seat to Rom and his progressive Alliance, or Brunt and his Traditionalist followers.",
    "icon": "https://steamcdn-a.akamaihd.net/steamcommunity/public/images/apps/600750/9a18d2644e1ed6c3172058fb5136344b42efcd1f.jpg",
    "icongray": "https://steamcdn-a.akamaihd.net/steamcommunity/public/images/apps/600750/497368f39645680279da671c776857b286222a30.jpg"
  },
  {
    "name": "when_falcons_clash",
    "defaultvalue": 0,
    "displayName": "When Falcons Clash",
    "hidden": 0,
    "description": "Gave control of the Romulan Star Empire to Sela and the reluctant Romulans, or Shinzon and the victorious Klingon-Cardassian Alliance.",
    "icon": "https://steamcdn-a.akamaihd.net/steamcommunity/public/images/apps/600750/7c5b62262b341cdb92adc7d1c9e8730df399a17d.jpg",
    "icongray": "https://steamcdn-a.akamaihd.net/steamcommunity/public/images/apps/600750/cd9436d3878b8fc52772c51a3fcd338c84b57abf.jpg"
  },
  {
    "name": "killing_syndrome",
    "defaultvalue": 0,
    "displayName": "The Killing Syndrome",
    "hidden": 0,
    "description": "With approval (or disapproval) from the Xindi, allowed the Dominion to be hunted to near-extinction, or ended the Hirogen hunt.",
    "icon": "https://steamcdn-a.akamaihd.net/steamcommunity/public/images/apps/600750/46e1989277301e3c3cd64f23b66c99e81f28e6c5.jpg",
    "icongray": "https://steamcdn-a.akamaihd.net/steamcommunity/public/images/apps/600750/86e9e5c3ca26180c31761fe14952d019e9650bef.jpg"
  },
  {
    "name": "Level_10",
    "defaultvalue": 0,
    "displayName": "Promoted",
    "hidden": 0,
    "description": "It's time to earn your place in Starfleet!",
    "icon": "https://steamcdn-a.akamaihd.net/steamcommunity/public/images/apps/600750/cbbf23eae72ce921642837adf58597dbd894345b.jpg",
    "icongray": "https://steamcdn-a.akamaihd.net/steamcommunity/public/images/apps/600750/f057a3d27c00c6a3fe47ccb214ba993f61857305.jpg"
  },
  {
    "name": "Level_30",
    "defaultvalue": 0,
    "displayName": "Con Permiso, Capitan",
    "hidden": 0,
    "description": "Become Q's right-hand Captain in the galaxy.",
    "icon": "https://steamcdn-a.akamaihd.net/steamcommunity/public/images/apps/600750/736e8177f9b295eb8437caac37472f9e6fa195ff.jpg",
    "icongray": "https://steamcdn-a.akamaihd.net/steamcommunity/public/images/apps/600750/26a01e991a037165f28ecf8f3837675add83290c.jpg"
  }
]