﻿[
  {
    "name": "shutter_bug",
    "defaultvalue": 0,
    "displayName": "Shutter Bug",
    "hidden": 0,
    "description": "Take 100 screenshots.",
    "icon": "https://steamcdn-a.akamaihd.net/steamcommunity/public/images/apps/266430/b5d70bd24eccaa70c196fc592a76584e6b1a863e.jpg",
    "icongray": "https://steamcdn-a.akamaihd.net/steamcommunity/public/images/apps/266430/c9c462bd1eb47b424c142e7d4303749d78dbf941.jpg"
  },
  {
    "name": "tube_head",
    "defaultvalue": 0,
    "displayName": "Tube Head",
    "hidden": 0,
    "description": "1,000 tube videos consumed.",
    "icon": "https://steamcdn-a.akamaihd.net/steamcommunity/public/images/apps/266430/e15fd56f2a6209199cc2397845396593fb8e0069.jpg",
    "icongray": "https://steamcdn-a.akamaihd.net/steamcommunity/public/images/apps/266430/e3e792474cf7699c4de51ad1e0a4aae2dc3c8d9b.jpg"
  },
  {
    "name": "set_designer",
    "defaultvalue": 0,
    "displayName": "Set Designer",
    "hidden": 0,
    "description": "Spawn 100 props.",
    "icon": "https://steamcdn-a.akamaihd.net/steamcommunity/public/images/apps/266430/d3b015442bb5dfcdde722400f68f94bd940c26b7.jpg",
    "icongray": "https://steamcdn-a.akamaihd.net/steamcommunity/public/images/apps/266430/a4fe0786f471fc40983b644fe9483fdc683460fe.jpg"
  },
  {
    "name": "typist",
    "defaultvalue": 0,
    "displayName": "Typist",
    "hidden": 0,
    "description": "Create 20 text cards.",
    "icon": "https://steamcdn-a.akamaihd.net/steamcommunity/public/images/apps/266430/bac819c83f9422373f61ccdd3fbf7bb44b57e727.jpg",
    "icongray": "https://steamcdn-a.akamaihd.net/steamcommunity/public/images/apps/266430/baf3f8f46d3c0bbf9bf49b890ced8dd1a7eb8d38.jpg"
  },
  {
    "name": "npc_me",
    "defaultvalue": 0,
    "displayName": "NPC Me",
    "hidden": 0,
    "description": "Spawn one of each NPC.",
    "icon": "https://steamcdn-a.akamaihd.net/steamcommunity/public/images/apps/266430/9f61ee6d9e76a4649ac484df2891449a85457940.jpg",
    "icongray": "https://steamcdn-a.akamaihd.net/steamcommunity/public/images/apps/266430/3e9bff9fcb587808acc028e8873176870f916b68.jpg"
  },
  {
    "name": "computer_love",
    "defaultvalue": 0,
    "displayName": "Computer Love",
    "hidden": 0,
    "description": "Spawn 100 NPCs.",
    "icon": "https://steamcdn-a.akamaihd.net/steamcommunity/public/images/apps/266430/2b4870fc85809fce90e0ea32914c5a0e4b62d33b.jpg",
    "icongray": "https://steamcdn-a.akamaihd.net/steamcommunity/public/images/apps/266430/7749778c383e1b16b8d5e6deeb246c0def20a834.jpg"
  },
  {
    "name": "untouchable",
    "defaultvalue": 0,
    "displayName": "Untouchable",
    "hidden": 0,
    "description": "Select 20 collisionless objects.",
    "icon": "https://steamcdn-a.akamaihd.net/steamcommunity/public/images/apps/266430/7f1e36580cb5e5cd70c2d4267352fe03702f6e75.jpg",
    "icongray": "https://steamcdn-a.akamaihd.net/steamcommunity/public/images/apps/266430/de289d5afafae006cfbcbafe1d551976ca94a4d3.jpg"
  },
  {
    "name": "picky",
    "defaultvalue": 0,
    "displayName": "Picky",
    "hidden": 0,
    "description": "Select 1,000 objects.",
    "icon": "https://steamcdn-a.akamaihd.net/steamcommunity/public/images/apps/266430/eca0905bae6f198f15aa05bb3a304a35fe515d39.jpg",
    "icongray": "https://steamcdn-a.akamaihd.net/steamcommunity/public/images/apps/266430/fd0d4ce729fc55218c5b1ce55fc5655a747440af.jpg"
  },
  {
    "name": "stuck_on_you",
    "defaultvalue": 0,
    "displayName": "Stuck On You",
    "hidden": 0,
    "description": "Apply 100 stickers.",
    "icon": "https://steamcdn-a.akamaihd.net/steamcommunity/public/images/apps/266430/db6aa1e5dc1019ea838b9edcac39fe5f7329dfe6.jpg",
    "icongray": "https://steamcdn-a.akamaihd.net/steamcommunity/public/images/apps/266430/2ea608ca5ec774b3d976bfcfa3ba23dd1a51365c.jpg"
  },
  {
    "name": "librarian",
    "defaultvalue": 0,
    "displayName": "Librarian",
    "hidden": 0,
    "description": "A whopping 1,000 items added to your library.",
    "icon": "https://steamcdn-a.akamaihd.net/steamcommunity/public/images/apps/266430/c57af81bca5cf2291dc58ec04348d893c56fa3af.jpg",
    "icongray": "https://steamcdn-a.akamaihd.net/steamcommunity/public/images/apps/266430/63ac3addaed2194a6af9a28849939441a37abc4a.jpg"
  },
  {
    "name": "magellan",
    "defaultvalue": 0,
    "displayName": "Magellan",
    "hidden": 0,
    "description": "Discover 100 unique maps.",
    "icon": "https://steamcdn-a.akamaihd.net/steamcommunity/public/images/apps/266430/f6341a13352858fa0b11fe82cbd1f1887230cb65.jpg",
    "icongray": "https://steamcdn-a.akamaihd.net/steamcommunity/public/images/apps/266430/debe2fd9c4958542ae9b7985a81fd2c7bddd02e8.jpg"
  },
  {
    "name": "go_for_launch",
    "defaultvalue": 0,
    "displayName": "Go For Launch",
    "hidden": 0,
    "description": "Launch 200 shortcuts.",
    "icon": "https://steamcdn-a.akamaihd.net/steamcommunity/public/images/apps/266430/601ad748515412781344a0f6fbeba1c7368ae3f1.jpg",
    "icongray": "https://steamcdn-a.akamaihd.net/steamcommunity/public/images/apps/266430/8acdfe7bcc8c1fa4d75adb245c398523140a16a8.jpg"
  },
  {
    "name": "merlin",
    "defaultvalue": 0,
    "displayName": "Merlin",
    "hidden": 0,
    "description": "Apply wizards 50 times.",
    "icon": "https://steamcdn-a.akamaihd.net/steamcommunity/public/images/apps/266430/c48ef22a9766380e24310918f4e55935fec6dda1.jpg",
    "icongray": "https://steamcdn-a.akamaihd.net/steamcommunity/public/images/apps/266430/f027b0fcdffe5c0aaea572c3edd3d367f6307993.jpg"
  },
  {
    "name": "libretrotarian",
    "defaultvalue": 0,
    "displayName": "Libretrotarian",
    "hidden": 0,
    "description": "Play 100 items in-game with Libretro.",
    "icon": "https://steamcdn-a.akamaihd.net/steamcommunity/public/images/apps/266430/c7b5959186c35ff228325329b1e68ba3962c77d7.jpg",
    "icongray": "https://steamcdn-a.akamaihd.net/steamcommunity/public/images/apps/266430/881b513f51028c7ff184ae9f4b002268f08eb637.jpg"
  },
  {
    "name": "marathon",
    "defaultvalue": 0,
    "displayName": "Marathon",
    "hidden": 0,
    "description": "Use AArcade for 24 hours straight.",
    "icon": "https://steamcdn-a.akamaihd.net/steamcommunity/public/images/apps/266430/9fb9b7077c6ffda1861b6a5d0d229437c1ea43be.jpg",
    "icongray": "https://steamcdn-a.akamaihd.net/steamcommunity/public/images/apps/266430/09704f99cf8c063eecbf01a9000549d08fd935fd.jpg"
  },
  {
    "name": "day_one",
    "defaultvalue": 0,
    "displayName": "Day One",
    "hidden": 0,
    "description": "Use AArcade for a total of 24 hours.",
    "icon": "https://steamcdn-a.akamaihd.net/steamcommunity/public/images/apps/266430/414c04aace0ee533d3d72ed13e0db2972a387a62.jpg",
    "icongray": "https://steamcdn-a.akamaihd.net/steamcommunity/public/images/apps/266430/fcba6f2c04673a4dae51c251196e9e22ac4e1d59.jpg"
  },
  {
    "name": "positional_shortcuts",
    "defaultvalue": 0,
    "displayName": "Positional Shortcuts",
    "hidden": 0,
    "description": "Spawn 100 items as 3D objects.",
    "icon": "https://steamcdn-a.akamaihd.net/steamcommunity/public/images/apps/266430/609929d871d0fe5a1363d64f0c140813afed1418.jpg",
    "icongray": "https://steamcdn-a.akamaihd.net/steamcommunity/public/images/apps/266430/fa77e5d691d38e3d30c8220f73e5410cc5d11a62.jpg"
  },
  {
    "name": "auto_watch",
    "defaultvalue": 0,
    "displayName": "Auto Watch",
    "hidden": 0,
    "description": "Watch 100 items on autoplay.",
    "icon": "https://steamcdn-a.akamaihd.net/steamcommunity/public/images/apps/266430/e2a9cfb832d4d95a9c97ae83f957eaed56804b8c.jpg",
    "icongray": "https://steamcdn-a.akamaihd.net/steamcommunity/public/images/apps/266430/d765548d6d97f465076670d1b0a20539308b018a.jpg"
  },
  {
    "name": "prop_inventory",
    "defaultvalue": 0,
    "displayName": "Prop Inventory",
    "hidden": 0,
    "description": "Spawn each of the included props once.",
    "icon": "https://steamcdn-a.akamaihd.net/steamcommunity/public/images/apps/266430/ce7392a7cf3c9d7095abaa428223bc2d7afc9d64.jpg",
    "icongray": "https://steamcdn-a.akamaihd.net/steamcommunity/public/images/apps/266430/d1606aba337b0645c962a926bf8f8de8815b1c5b.jpg"
  },
  {
    "name": "xp_avenger",
    "defaultvalue": 0,
    "displayName": "XP Avenger",
    "hidden": 0,
    "description": "Earn 10,000 XP.",
    "icon": "https://steamcdn-a.akamaihd.net/steamcommunity/public/images/apps/266430/925bbd08dcde7fe1749c244365a964762b1ce6ee.jpg",
    "icongray": "https://steamcdn-a.akamaihd.net/steamcommunity/public/images/apps/266430/32f1bf44fca0652b281b74d4e69bc44afc2839c5.jpg"
  },
  {
    "name": "literate",
    "defaultvalue": 0,
    "displayName": "Literate",
    "hidden": 0,
    "description": "Spawn each letter prop once.",
    "icon": "https://steamcdn-a.akamaihd.net/steamcommunity/public/images/apps/266430/1e89c52b977bdadb719cad9fde26a03b531dad45.jpg",
    "icongray": "https://steamcdn-a.akamaihd.net/steamcommunity/public/images/apps/266430/1bc0d3646170b7713541838d27db546eabdf7981.jpg"
  },
  {
    "name": "speller",
    "defaultvalue": 0,
    "displayName": "Speller",
    "hidden": 0,
    "description": "Spawn 100 letter props.",
    "icon": "https://steamcdn-a.akamaihd.net/steamcommunity/public/images/apps/266430/f96825c21200fcd63b481460d4f542822408e845.jpg",
    "icongray": "https://steamcdn-a.akamaihd.net/steamcommunity/public/images/apps/266430/e55b3427850d3676265d8efebbb34cbc6b9a0582.jpg"
  }
]