﻿[
  {
    "name": "stat_games",
    "defaultvalue": 0,
    "displayName": "Total Games"
  },
  {
    "name": "stat_wins",
    "defaultvalue": 0,
    "displayName": "Game Wins"
  },
  {
    "name": "stat_kills",
    "defaultvalue": 0,
    "displayName": "Total Kills"
  }
]