﻿{
  "Dlcs": {
    "455451": {
      "Name": "Jesus Christ RPG Trilogy Soundtrack",
      "ImageUrl": "https://steamcdn-a.akamaihd.net/steam/apps/455451/header.jpg?t=1459004983"
    }
  },
  "Name": "Jesus Christ RPG Trilogy",
  "AppId": "449040",
  "ImageUrl": "https://steamcdn-a.akamaihd.net/steam/apps/449040/header.jpg?t=1585257496",
  "Languages": [
    "english"
  ],
  "Platforms": {
    "windows": true,
    "mac": false,
    "linux": false
  }
}