﻿[
  {
    "name": "ACHIEVEMENT_1_1",
    "defaultvalue": 0,
    "displayName": "Bronze tycoon",
    "hidden": 0,
    "description": "Someone who has earned 5000 coins",
    "icon": "https://steamcdn-a.akamaihd.net/steamcommunity/public/images/apps/470040/7b216e16e9c8274340bc11f39634754a7efe157b.jpg",
    "icongray": "https://steamcdn-a.akamaihd.net/steamcommunity/public/images/apps/470040/d9c0506a6c8de77c12b9e1127bc8c143fe0de8e9.jpg"
  },
  {
    "name": "ACHIEVEMENT_1_2",
    "defaultvalue": 0,
    "displayName": "Silver tycoon",
    "hidden": 0,
    "description": "Someone who has earned 20k coins",
    "icon": "https://steamcdn-a.akamaihd.net/steamcommunity/public/images/apps/470040/d3fa4ab45961e52ed85c0bb9b38937953b432826.jpg",
    "icongray": "https://steamcdn-a.akamaihd.net/steamcommunity/public/images/apps/470040/32587684164b0bd4ffcea7d372d6e4c23d21ce77.jpg"
  },
  {
    "name": "ACHIEVEMENT_1_3",
    "defaultvalue": 0,
    "displayName": "Gold tycoon",
    "hidden": 0,
    "description": "Someone who has earned 100k coins",
    "icon": "https://steamcdn-a.akamaihd.net/steamcommunity/public/images/apps/470040/1dba77f60081f8232e9a30675083512a0853cf4c.jpg",
    "icongray": "https://steamcdn-a.akamaihd.net/steamcommunity/public/images/apps/470040/14cac610cfb4a9d6aac02f984e1642a7f569c71d.jpg"
  },
  {
    "name": "ACHIEVEMENT_3_1",
    "defaultvalue": 0,
    "displayName": "Bronze Hurtar slayer",
    "hidden": 0,
    "description": "Someone who has killed 100 Hurtars (of any kind)",
    "icon": "https://steamcdn-a.akamaihd.net/steamcommunity/public/images/apps/470040/eeb9bc1a4cc2eb92dbaab1a5e25d733739eadf92.jpg",
    "icongray": "https://steamcdn-a.akamaihd.net/steamcommunity/public/images/apps/470040/555b9d7b4958cf6202c6dd03f3b21ad544e9ba80.jpg"
  },
  {
    "name": "ACHIEVEMENT_3_2",
    "defaultvalue": 0,
    "displayName": "Silver Hurtar slayer",
    "hidden": 0,
    "description": "Someone who has killed 1000 Hurtars (of any kind)",
    "icon": "https://steamcdn-a.akamaihd.net/steamcommunity/public/images/apps/470040/eaa0df2e87230bafe81a0ef61fb13711ee2fdb0f.jpg",
    "icongray": "https://steamcdn-a.akamaihd.net/steamcommunity/public/images/apps/470040/cae0372a72e1af665a7e41b5bab08dbb02f2c5d9.jpg"
  },
  {
    "name": "ACHIEVEMENT_3_3",
    "defaultvalue": 0,
    "displayName": "Gold Hurtar slayer",
    "hidden": 0,
    "description": "Someone who has killed 10k Hurtars (of any kind)",
    "icon": "https://steamcdn-a.akamaihd.net/steamcommunity/public/images/apps/470040/7158b37187f65c127c207a80ababfebca1230701.jpg",
    "icongray": "https://steamcdn-a.akamaihd.net/steamcommunity/public/images/apps/470040/e3a6f4314b59af117ee45094f36ecca6a7bed27c.jpg"
  },
  {
    "name": "ACHIEVEMENT_4_1",
    "defaultvalue": 0,
    "displayName": "Bronze Python slayer",
    "hidden": 0,
    "description": "Someone who has killed 100 pythons (of any kind)",
    "icon": "https://steamcdn-a.akamaihd.net/steamcommunity/public/images/apps/470040/5f296e354bd9bf8f1158af096e70e2919ea8e868.jpg",
    "icongray": "https://steamcdn-a.akamaihd.net/steamcommunity/public/images/apps/470040/e6ddcdaf3480ca57cbd05e7189e05373905348fb.jpg"
  },
  {
    "name": "ACHIEVEMENT_4_2",
    "defaultvalue": 0,
    "displayName": "Silver Python slayer",
    "hidden": 0,
    "description": "Someone who has killed 1000 pythons (of any kind)",
    "icon": "https://steamcdn-a.akamaihd.net/steamcommunity/public/images/apps/470040/30215030f70db3e2435fcaafdb8470f74c4abd8d.jpg",
    "icongray": "https://steamcdn-a.akamaihd.net/steamcommunity/public/images/apps/470040/490c15a12928d110c398f7bcb4fa514abfd57068.jpg"
  },
  {
    "name": "ACHIEVEMENT_4_3",
    "defaultvalue": 0,
    "displayName": "Gold Python slayer",
    "hidden": 0,
    "description": "Someone who has killed 10k pythons (of any kind)",
    "icon": "https://steamcdn-a.akamaihd.net/steamcommunity/public/images/apps/470040/2fd875ea209757590fb6a937427fcb2872b30fb3.jpg",
    "icongray": "https://steamcdn-a.akamaihd.net/steamcommunity/public/images/apps/470040/69570558e825f31c05a0863289e27bdbb552f81d.jpg"
  },
  {
    "name": "ACHIEVEMENT_5_1",
    "defaultvalue": 0,
    "displayName": "Bronze Golem slayer",
    "hidden": 0,
    "description": "Someone who has killed 100 golems (of any kind)",
    "icon": "https://steamcdn-a.akamaihd.net/steamcommunity/public/images/apps/470040/7ad27bbf77129c12ebfb2983de94638bf5250935.jpg",
    "icongray": "https://steamcdn-a.akamaihd.net/steamcommunity/public/images/apps/470040/52a120f48cd3b3af984a52aa1fc75e1bd321b428.jpg"
  },
  {
    "name": "ACHIEVEMENT_5_2",
    "defaultvalue": 0,
    "displayName": "Silver Golem slayer",
    "hidden": 0,
    "description": "Someone who has killed 1000 golems (of any kind)",
    "icon": "https://steamcdn-a.akamaihd.net/steamcommunity/public/images/apps/470040/e47ea4f7956cef08624a2152d3763d5bf08042be.jpg",
    "icongray": "https://steamcdn-a.akamaihd.net/steamcommunity/public/images/apps/470040/9936102891bd2094a3aef5517a8239257c48db82.jpg"
  },
  {
    "name": "ACHIEVEMENT_5_3",
    "defaultvalue": 0,
    "displayName": "Gold Golem slayer",
    "hidden": 0,
    "description": "Someone who has killed 10k golems (of any kind)",
    "icon": "https://steamcdn-a.akamaihd.net/steamcommunity/public/images/apps/470040/6ad1b393f084706dc3b70ac3bebd3b0f79b020d0.jpg",
    "icongray": "https://steamcdn-a.akamaihd.net/steamcommunity/public/images/apps/470040/eb9c91915f5298e54573577e807519f38ca85392.jpg"
  },
  {
    "name": "ACHIEVEMENT_6_1",
    "defaultvalue": 0,
    "displayName": "Bronze Humpback slayer",
    "hidden": 0,
    "description": "Someone who has killed 100 humpbacks (of any kind)",
    "icon": "https://steamcdn-a.akamaihd.net/steamcommunity/public/images/apps/470040/aa4e1a92e110d206111476a07d215f35ba317de2.jpg",
    "icongray": "https://steamcdn-a.akamaihd.net/steamcommunity/public/images/apps/470040/eed5312e783738d8a236b992438a21a567191c37.jpg"
  },
  {
    "name": "ACHIEVEMENT_6_2",
    "defaultvalue": 0,
    "displayName": "Silver Humpback slayer",
    "hidden": 0,
    "description": "Someone who has killed 1000 humpbacks (of any kind)",
    "icon": "https://steamcdn-a.akamaihd.net/steamcommunity/public/images/apps/470040/9fca4a51a3a61a206ea19c726377b2f050c8f7ef.jpg",
    "icongray": "https://steamcdn-a.akamaihd.net/steamcommunity/public/images/apps/470040/13fe445430fcb5ad359eac4478c88a0036ca34f5.jpg"
  },
  {
    "name": "ACHIEVEMENT_6_3",
    "defaultvalue": 0,
    "displayName": "Gold Humpback slayer",
    "hidden": 0,
    "description": "Someone who has killed 10k humpbacks (of any kind)",
    "icon": "https://steamcdn-a.akamaihd.net/steamcommunity/public/images/apps/470040/582266cca8535971aba1b93f81cd3b1276ecbbf6.jpg",
    "icongray": "https://steamcdn-a.akamaihd.net/steamcommunity/public/images/apps/470040/40a8b79ce813f407216259482a9207423b2f1de7.jpg"
  },
  {
    "name": "ACHIEVEMENT_7_1",
    "defaultvalue": 0,
    "displayName": "Bronze Kamlan slayer",
    "hidden": 0,
    "description": "Someone who has killed 100 Kamlans (of any kind)",
    "icon": "https://steamcdn-a.akamaihd.net/steamcommunity/public/images/apps/470040/5980846ba2c695da13a38ae52eacaa590211c8b5.jpg",
    "icongray": "https://steamcdn-a.akamaihd.net/steamcommunity/public/images/apps/470040/ea4d8ece5d1f1c9ba8ad9cd186a4c58c31b525d6.jpg"
  },
  {
    "name": "ACHIEVEMENT_7_2",
    "defaultvalue": 0,
    "displayName": "Silver Kamlan slayer",
    "hidden": 0,
    "description": "Someone who has killed 1000 Kamlans (of any kind)",
    "icon": "https://steamcdn-a.akamaihd.net/steamcommunity/public/images/apps/470040/24c68481c08182efc151e7165d6bdeab2376cb80.jpg",
    "icongray": "https://steamcdn-a.akamaihd.net/steamcommunity/public/images/apps/470040/fbd2dba1a20392e85e62b02d277860ec40a79cc5.jpg"
  },
  {
    "name": "ACHIEVEMENT_7_3",
    "defaultvalue": 0,
    "displayName": "Gold Kamlan slayer",
    "hidden": 0,
    "description": "Someone who has killed 10k Kamlans (of any kind)",
    "icon": "https://steamcdn-a.akamaihd.net/steamcommunity/public/images/apps/470040/28fd266865a6dc71a9732f73207941887c4baa95.jpg",
    "icongray": "https://steamcdn-a.akamaihd.net/steamcommunity/public/images/apps/470040/a31a870d6408b164581f35c11c4b738744b73d83.jpg"
  },
  {
    "name": "ACHIEVEMENT_10_1",
    "defaultvalue": 0,
    "displayName": "Bronze Adventurer",
    "hidden": 0,
    "description": "Someone who participated in 20 crusades",
    "icon": "https://steamcdn-a.akamaihd.net/steamcommunity/public/images/apps/470040/a9504fd60657820cb98d4c95c00db1c0b5a22927.jpg",
    "icongray": "https://steamcdn-a.akamaihd.net/steamcommunity/public/images/apps/470040/10b04e704d4a1fc20c14d08778cedfafc7e49a7b.jpg"
  },
  {
    "name": "ACHIEVEMENT_10_2",
    "defaultvalue": 0,
    "displayName": "Silver Adventurer",
    "hidden": 0,
    "description": "Someone who participated in 50 crusades",
    "icon": "https://steamcdn-a.akamaihd.net/steamcommunity/public/images/apps/470040/c15a9273e482260819fd5827f6b8030f2b907088.jpg",
    "icongray": "https://steamcdn-a.akamaihd.net/steamcommunity/public/images/apps/470040/d6d127eb55521cac2e02d3d9939e38b4e83a46bf.jpg"
  },
  {
    "name": "ACHIEVEMENT_10_3",
    "defaultvalue": 0,
    "displayName": "Gold Adventurer",
    "hidden": 0,
    "description": "Someone who participated in 250 crusades",
    "icon": "https://steamcdn-a.akamaihd.net/steamcommunity/public/images/apps/470040/ac8e9e2726899204ac758a5bd8c9116ad614b7d1.jpg",
    "icongray": "https://steamcdn-a.akamaihd.net/steamcommunity/public/images/apps/470040/63175e4dc829e173b5aa2dea56cffc797c63ffd6.jpg"
  },
  {
    "name": "ACHIEVEMENT_11_1",
    "defaultvalue": 0,
    "displayName": "Bronze Coordinator",
    "hidden": 0,
    "description": "Someone who led 10 crusades",
    "icon": "https://steamcdn-a.akamaihd.net/steamcommunity/public/images/apps/470040/57879d011230de68344221ecbde7ecd83a832262.jpg",
    "icongray": "https://steamcdn-a.akamaihd.net/steamcommunity/public/images/apps/470040/bcc1be404d9b8618673b78eed5b973377e90d09c.jpg"
  },
  {
    "name": "ACHIEVEMENT_11_2",
    "defaultvalue": 0,
    "displayName": "Silver Coordinator",
    "hidden": 0,
    "description": "Someone who led 25 crusades",
    "icon": "https://steamcdn-a.akamaihd.net/steamcommunity/public/images/apps/470040/e2b5cc827d24660f506919025de3842a9b926231.jpg",
    "icongray": "https://steamcdn-a.akamaihd.net/steamcommunity/public/images/apps/470040/5214f04bd61e469fc0a789f52c9450de830ba5f6.jpg"
  },
  {
    "name": "ACHIEVEMENT_11_3",
    "defaultvalue": 0,
    "displayName": "Gold Coordinator",
    "hidden": 0,
    "description": "Someone who led 100 crusades",
    "icon": "https://steamcdn-a.akamaihd.net/steamcommunity/public/images/apps/470040/884c84747b633b45bcc9e5ed83923d205fab0404.jpg",
    "icongray": "https://steamcdn-a.akamaihd.net/steamcommunity/public/images/apps/470040/ccc6abe18ddd9f7930cd7504ed9a2fe1ff364fe4.jpg"
  },
  {
    "name": "ACHIEVEMENT_14_1",
    "defaultvalue": 0,
    "displayName": "Bronze Mushroom gatherer",
    "hidden": 0,
    "description": "Someone who has gathered 50 mushrooms",
    "icon": "https://steamcdn-a.akamaihd.net/steamcommunity/public/images/apps/470040/666e6ee225ed4be0a5acc1f2f35b0ad7d87a37fa.jpg",
    "icongray": "https://steamcdn-a.akamaihd.net/steamcommunity/public/images/apps/470040/4af8e080297a347e0f167e91990c084a7ab2b853.jpg"
  },
  {
    "name": "ACHIEVEMENT_14_2",
    "defaultvalue": 0,
    "displayName": "Silver Mushroom gatherer",
    "hidden": 0,
    "description": "Someone who has gathered 250 mushrooms",
    "icon": "https://steamcdn-a.akamaihd.net/steamcommunity/public/images/apps/470040/acea90460793ef57a51fcc9937fd3f01708851fa.jpg",
    "icongray": "https://steamcdn-a.akamaihd.net/steamcommunity/public/images/apps/470040/b24130ce8c13da7119a879b5e82c349d6cf913a4.jpg"
  },
  {
    "name": "ACHIEVEMENT_14_3",
    "defaultvalue": 0,
    "displayName": "Gold Mushroom gatherer",
    "hidden": 0,
    "description": "Someone who has gathered 1000 mushrooms",
    "icon": "https://steamcdn-a.akamaihd.net/steamcommunity/public/images/apps/470040/335a5eeda25dec9001798628e641afe96fe0ea6e.jpg",
    "icongray": "https://steamcdn-a.akamaihd.net/steamcommunity/public/images/apps/470040/2ec395ffb310ddeb4216842b17948f4ba715f0e3.jpg"
  },
  {
    "name": "ACHIEVEMENT_15_1",
    "defaultvalue": 0,
    "displayName": "Bronze Herbalist",
    "hidden": 0,
    "description": "Someone who has become a herbalist",
    "icon": "https://steamcdn-a.akamaihd.net/steamcommunity/public/images/apps/470040/7b375abb1ccf8039f23f0bceb4de457ed4135630.jpg",
    "icongray": "https://steamcdn-a.akamaihd.net/steamcommunity/public/images/apps/470040/42b09f3558556d30d24f91821af0ffb474368d9f.jpg"
  },
  {
    "name": "ACHIEVEMENT_15_2",
    "defaultvalue": 0,
    "displayName": "Silver Herbalist",
    "hidden": 0,
    "description": "Someone who has become a herbalist",
    "icon": "https://steamcdn-a.akamaihd.net/steamcommunity/public/images/apps/470040/0b67ea362a9664317df92b12d302bfef10ada392.jpg",
    "icongray": "https://steamcdn-a.akamaihd.net/steamcommunity/public/images/apps/470040/3e1fd3989cb5f497479683ead6daafe07f3168b0.jpg"
  },
  {
    "name": "ACHIEVEMENT_15_3",
    "defaultvalue": 0,
    "displayName": "Gold Herbalist",
    "hidden": 0,
    "description": "Someone who has become a herbalist",
    "icon": "https://steamcdn-a.akamaihd.net/steamcommunity/public/images/apps/470040/b820dd0fb11de229363a6901cec13f075d0501d2.jpg",
    "icongray": "https://steamcdn-a.akamaihd.net/steamcommunity/public/images/apps/470040/aa9764691354006ab4716c83f927d59c433858ec.jpg"
  },
  {
    "name": "ACHIEVEMENT_16_1",
    "defaultvalue": 0,
    "displayName": "Bronze Potion Fan",
    "hidden": 0,
    "description": "Someone who hit the bottle many times",
    "icon": "https://steamcdn-a.akamaihd.net/steamcommunity/public/images/apps/470040/69b68ad89a427b05a9746d9d07f69f134e3a8307.jpg",
    "icongray": "https://steamcdn-a.akamaihd.net/steamcommunity/public/images/apps/470040/3c562aea3598fa4f1b06583708f0224cca4742e3.jpg"
  },
  {
    "name": "ACHIEVEMENT_16_2",
    "defaultvalue": 0,
    "displayName": "Silver Potion Fan",
    "hidden": 0,
    "description": "Someone who hit the bottle many times",
    "icon": "https://steamcdn-a.akamaihd.net/steamcommunity/public/images/apps/470040/cde50741b3b4614aa5bdc7cc1f769218a102f33e.jpg",
    "icongray": "https://steamcdn-a.akamaihd.net/steamcommunity/public/images/apps/470040/f0cc72b0c9a06c3a7b709011f40a9e4505212805.jpg"
  },
  {
    "name": "ACHIEVEMENT_16_3",
    "defaultvalue": 0,
    "displayName": "Gold Potion Fan",
    "hidden": 0,
    "description": "Someone who hit the bottle many times",
    "icon": "https://steamcdn-a.akamaihd.net/steamcommunity/public/images/apps/470040/e09e6824905b9f5a30039b1aa43eeab3ac0310af.jpg",
    "icongray": "https://steamcdn-a.akamaihd.net/steamcommunity/public/images/apps/470040/ff6336432d415858afa4690a9cdddd48aceb582a.jpg"
  },
  {
    "name": "ACHIEVEMENT_20_1",
    "defaultvalue": 0,
    "displayName": "Bronze Token Collector",
    "hidden": 0,
    "description": "Someone who has earned a lot of tokens",
    "icon": "https://steamcdn-a.akamaihd.net/steamcommunity/public/images/apps/470040/a0ba68832634011eccec48d676d9f221b0f544ae.jpg",
    "icongray": "https://steamcdn-a.akamaihd.net/steamcommunity/public/images/apps/470040/384aae7f7b2d12a14785551ad470f6109740117e.jpg"
  },
  {
    "name": "ACHIEVEMENT_20_2",
    "defaultvalue": 0,
    "displayName": "Silver Token Collector",
    "hidden": 0,
    "description": "Someone who has earned a lot of tokens",
    "icon": "https://steamcdn-a.akamaihd.net/steamcommunity/public/images/apps/470040/c43f24398dcad5f807d78652bc60bb61163a3a6f.jpg",
    "icongray": "https://steamcdn-a.akamaihd.net/steamcommunity/public/images/apps/470040/565c7e9f03c83d723f09b1e38185e773988cb427.jpg"
  },
  {
    "name": "ACHIEVEMENT_20_3",
    "defaultvalue": 0,
    "displayName": "Gold Token Collector",
    "hidden": 0,
    "description": "Someone who has earned a lot of tokens",
    "icon": "https://steamcdn-a.akamaihd.net/steamcommunity/public/images/apps/470040/67f7d595cf2532e304b8edafc3ed0d85166ae9f5.jpg",
    "icongray": "https://steamcdn-a.akamaihd.net/steamcommunity/public/images/apps/470040/b737432dbe0ebf86acd5bcac21d70ae911f890a0.jpg"
  },
  {
    "name": "ACHIEVEMENT_21_1",
    "defaultvalue": 0,
    "displayName": "Bronze Punisher",
    "hidden": 0,
    "description": "Someone who has dealt damage to other characters",
    "icon": "https://steamcdn-a.akamaihd.net/steamcommunity/public/images/apps/470040/51fed4d247ffdcbd5b3d7d2a48f92151e52eb17f.jpg",
    "icongray": "https://steamcdn-a.akamaihd.net/steamcommunity/public/images/apps/470040/87c41def9324b5a2ca467aa6bf390158b011d318.jpg"
  },
  {
    "name": "ACHIEVEMENT_21_2",
    "defaultvalue": 0,
    "displayName": "Silver Punisher",
    "hidden": 0,
    "description": "Someone who has dealt damage to other characters",
    "icon": "https://steamcdn-a.akamaihd.net/steamcommunity/public/images/apps/470040/bc9b8e21af79f0c0ab45372414af3162051bbf78.jpg",
    "icongray": "https://steamcdn-a.akamaihd.net/steamcommunity/public/images/apps/470040/653251746b763f842c01351da27bf73189576ba4.jpg"
  },
  {
    "name": "ACHIEVEMENT_21_3",
    "defaultvalue": 0,
    "displayName": "Gold Punisher",
    "hidden": 0,
    "description": "Someone who has dealt damage to other characters",
    "icon": "https://steamcdn-a.akamaihd.net/steamcommunity/public/images/apps/470040/146432635a3b1ff66703e136a2f428c30cb163d5.jpg",
    "icongray": "https://steamcdn-a.akamaihd.net/steamcommunity/public/images/apps/470040/a8fe7e8919ee172c6249a289e811ea57792841a6.jpg"
  },
  {
    "name": "ACHIEVEMENT_22_1",
    "defaultvalue": 0,
    "displayName": "Bronze Gladiator",
    "hidden": 0,
    "description": "Someone who participated in arena battles",
    "icon": "https://steamcdn-a.akamaihd.net/steamcommunity/public/images/apps/470040/50f9d8706d392fe250a2de8144c073d89df8a418.jpg",
    "icongray": "https://steamcdn-a.akamaihd.net/steamcommunity/public/images/apps/470040/028b7cd0d560753a2e005980c202a2afe12361c7.jpg"
  },
  {
    "name": "ACHIEVEMENT_22_2",
    "defaultvalue": 0,
    "displayName": "Silver Gladiator",
    "hidden": 0,
    "description": "Someone who participated in arena battles",
    "icon": "https://steamcdn-a.akamaihd.net/steamcommunity/public/images/apps/470040/ea6d123f2505ced5f442e9ab62d8bbe5efa389f0.jpg",
    "icongray": "https://steamcdn-a.akamaihd.net/steamcommunity/public/images/apps/470040/70f4a0253ac6a15fad7924df6678007e82ec1684.jpg"
  },
  {
    "name": "ACHIEVEMENT_22_3",
    "defaultvalue": 0,
    "displayName": "Gold Gladiator",
    "hidden": 0,
    "description": "Someone who participated in arena battles",
    "icon": "https://steamcdn-a.akamaihd.net/steamcommunity/public/images/apps/470040/b8fc5c36ce1c7c476a4bca02ac042b5af24e335d.jpg",
    "icongray": "https://steamcdn-a.akamaihd.net/steamcommunity/public/images/apps/470040/1b26d698a7ce810823dbf1986374cde635aefbf5.jpg"
  },
  {
    "name": "ACHIEVEMENT_24_1",
    "defaultvalue": 0,
    "displayName": "Bronze Veteran",
    "hidden": 0,
    "description": "Someone who has suffered a lot of injuries at the battlefields",
    "icon": "https://steamcdn-a.akamaihd.net/steamcommunity/public/images/apps/470040/f82fab6cdf60e7acc6e00b2cf5f35c2e58e34dd5.jpg",
    "icongray": "https://steamcdn-a.akamaihd.net/steamcommunity/public/images/apps/470040/75b511468a90e51c1ac31c69e94662acf8f95028.jpg"
  },
  {
    "name": "ACHIEVEMENT_24_2",
    "defaultvalue": 0,
    "displayName": "Silver Veteran",
    "hidden": 0,
    "description": "Someone who has suffered a lot of injuries at the battlefields",
    "icon": "https://steamcdn-a.akamaihd.net/steamcommunity/public/images/apps/470040/9439a93215dbf58fd93dca00ea4aa1f7058879a0.jpg",
    "icongray": "https://steamcdn-a.akamaihd.net/steamcommunity/public/images/apps/470040/70f7fb09d551bbd38c1814a827bf4062b897cc42.jpg"
  },
  {
    "name": "ACHIEVEMENT_24_3",
    "defaultvalue": 0,
    "displayName": "Gold Veteran",
    "hidden": 0,
    "description": "Someone who has suffered a lot of injuries at the battlefields",
    "icon": "https://steamcdn-a.akamaihd.net/steamcommunity/public/images/apps/470040/2d36722739cef1cac94f346941b03a52afee141a.jpg",
    "icongray": "https://steamcdn-a.akamaihd.net/steamcommunity/public/images/apps/470040/3aa99e22a42a49a594a30c1aff4af370b3d45baa.jpg"
  },
  {
    "name": "RANK_1",
    "defaultvalue": 0,
    "displayName": "Rank I",
    "hidden": 0,
    "description": "Junker of the Foundation or Recruit of the House of Migurat",
    "icon": "https://steamcdn-a.akamaihd.net/steamcommunity/public/images/apps/470040/a71c0cadc14448212c5560a25fa719ffc38e257c.jpg",
    "icongray": "https://steamcdn-a.akamaihd.net/steamcommunity/public/images/apps/470040/ea3d9a4b3b65fb1dfd6f870665638bf047c44b98.jpg"
  },
  {
    "name": "RANK_2",
    "defaultvalue": 0,
    "displayName": "Rank II",
    "hidden": 0,
    "description": "Candidate of the Foundation or Corporal of the House of Migurat",
    "icon": "https://steamcdn-a.akamaihd.net/steamcommunity/public/images/apps/470040/43ce807faec64aab8a3396025475b99d490a58f6.jpg",
    "icongray": "https://steamcdn-a.akamaihd.net/steamcommunity/public/images/apps/470040/7d0b3a2f2be6bc884452c94bcb5b53c9025c4f79.jpg"
  },
  {
    "name": "RANK_3",
    "defaultvalue": 0,
    "displayName": "Rank III",
    "hidden": 0,
    "description": "Junior knight of the Foundation or Junior stormtrooper of the House of Migurat",
    "icon": "https://steamcdn-a.akamaihd.net/steamcommunity/public/images/apps/470040/99fc778e0dad0aee3cb81e30336a054f72d4ff8f.jpg",
    "icongray": "https://steamcdn-a.akamaihd.net/steamcommunity/public/images/apps/470040/29d62cc6400c0b03cd614fca276bbf6d799e9f48.jpg"
  },
  {
    "name": "RANK_4",
    "defaultvalue": 0,
    "displayName": "Rank IV",
    "hidden": 0,
    "description": "Knight of the Foundation or Stormtrooper of the House of Migurat",
    "icon": "https://steamcdn-a.akamaihd.net/steamcommunity/public/images/apps/470040/bbf053df8e7e9ecc4411a5c63643710e33ac5dfc.jpg",
    "icongray": "https://steamcdn-a.akamaihd.net/steamcommunity/public/images/apps/470040/acf838d41d4e5ba28a1a7229e7a1c5fd5fc31d15.jpg"
  },
  {
    "name": "RANK_5",
    "defaultvalue": 0,
    "displayName": "Rank V",
    "hidden": 0,
    "description": "Grand knight of the Foundation or Senior stormtrooper of the House of Migurat",
    "icon": "https://steamcdn-a.akamaihd.net/steamcommunity/public/images/apps/470040/35b6bec61680b2b54e69d19d70e1e1cb6d9b34ce.jpg",
    "icongray": "https://steamcdn-a.akamaihd.net/steamcommunity/public/images/apps/470040/b061606077b990b2cb918986a907786a1149f99b.jpg"
  },
  {
    "name": "RANK_6",
    "defaultvalue": 0,
    "displayName": "Rank VI",
    "hidden": 0,
    "description": "Junior bombardier of the Foundation or Junior guardian Stormtrooper of the House of Migurat",
    "icon": "https://steamcdn-a.akamaihd.net/steamcommunity/public/images/apps/470040/01d100eb205a596fd41d1e9ff68494398ebfb538.jpg",
    "icongray": "https://steamcdn-a.akamaihd.net/steamcommunity/public/images/apps/470040/1879d057f145568f07665126127eab7597587015.jpg"
  },
  {
    "name": "RANK_7",
    "defaultvalue": 0,
    "displayName": "Rank VII",
    "hidden": 0,
    "description": "Bombardier of the Foundation or Guardian of the House of Migurat",
    "icon": "https://steamcdn-a.akamaihd.net/steamcommunity/public/images/apps/470040/9d9ee837e5f700eee5ed4b6dd9895041fe1df564.jpg",
    "icongray": "https://steamcdn-a.akamaihd.net/steamcommunity/public/images/apps/470040/8ed102ce273db7686e6a01f62b964812b9845cc9.jpg"
  },
  {
    "name": "RANK_8",
    "defaultvalue": 0,
    "displayName": "Rank VIII",
    "hidden": 0,
    "description": "Grand bombardier of the Foundation  or Senior guardian of the House of Migurat",
    "icon": "https://steamcdn-a.akamaihd.net/steamcommunity/public/images/apps/470040/e193b6fef7884e37c62b3c8f6886c007945a632f.jpg",
    "icongray": "https://steamcdn-a.akamaihd.net/steamcommunity/public/images/apps/470040/26839e40ca1f39f9ba181af0746289e37df72f10.jpg"
  },
  {
    "name": "RANK_9",
    "defaultvalue": 0,
    "displayName": "Rank IX",
    "hidden": 0,
    "description": "Junior officer of the Foundation or Subaltern officer of the House of Migurat",
    "icon": "https://steamcdn-a.akamaihd.net/steamcommunity/public/images/apps/470040/ccad03a2360e7bf3e9e8e24eb0a551b948fcdaa8.jpg",
    "icongray": "https://steamcdn-a.akamaihd.net/steamcommunity/public/images/apps/470040/019787613b921242d17394bfc4e251a6d33563ba.jpg"
  },
  {
    "name": "RANK_10",
    "defaultvalue": 0,
    "displayName": "Rank X",
    "hidden": 0,
    "description": "Officer of the Foundation or of the House of Migurat",
    "icon": "https://steamcdn-a.akamaihd.net/steamcommunity/public/images/apps/470040/1872ba996158faa22465948494a08f81ab42caa9.jpg",
    "icongray": "https://steamcdn-a.akamaihd.net/steamcommunity/public/images/apps/470040/58afb1e400873512c1f31e8cc6006be8b5a5dbf4.jpg"
  },
  {
    "name": "RANK_11",
    "defaultvalue": 0,
    "displayName": "Rank XI",
    "hidden": 0,
    "description": "Grand-officer of the Foundation or Chief officer of the House of Migurat",
    "icon": "https://steamcdn-a.akamaihd.net/steamcommunity/public/images/apps/470040/cf1a69372ff86508225b564c55aafb4290a5ee42.jpg",
    "icongray": "https://steamcdn-a.akamaihd.net/steamcommunity/public/images/apps/470040/e0bffea2f55cc9e65537430fca482336f2ca1885.jpg"
  },
  {
    "name": "RANK_12",
    "defaultvalue": 0,
    "displayName": "Rank XII",
    "hidden": 0,
    "description": "Expert of the Foundation or Brigadier of the House of Migurat",
    "icon": "https://steamcdn-a.akamaihd.net/steamcommunity/public/images/apps/470040/0ba893f4306bca1a1ba9be583567358da727ef52.jpg",
    "icongray": "https://steamcdn-a.akamaihd.net/steamcommunity/public/images/apps/470040/97e7a60035b4d976922962d8f318a2be1d0e2c5b.jpg"
  },
  {
    "name": "RANK_13",
    "defaultvalue": 0,
    "displayName": "Rank XIII",
    "hidden": 0,
    "description": "Grand-expert of the Foundation or Senior Brigadier of the House of Migurat",
    "icon": "https://steamcdn-a.akamaihd.net/steamcommunity/public/images/apps/470040/bac08754d64372bc41ad5d93aaa5f2cd09e7a37e.jpg",
    "icongray": "https://steamcdn-a.akamaihd.net/steamcommunity/public/images/apps/470040/64569f0db4f7c241a4a0fff902fef35923bc771f.jpg"
  },
  {
    "name": "RANK_14",
    "defaultvalue": 0,
    "displayName": "Rank XIV",
    "hidden": 0,
    "description": "Military adviser of the Foundation or Tactician of the House of Migurat",
    "icon": "https://steamcdn-a.akamaihd.net/steamcommunity/public/images/apps/470040/89201795e7809acbbba24ad2fcd1f4d24d827e5d.jpg",
    "icongray": "https://steamcdn-a.akamaihd.net/steamcommunity/public/images/apps/470040/a6c3e91ef3f836d52fd23b100525123ba45de6b4.jpg"
  },
  {
    "name": "RANK_15",
    "defaultvalue": 0,
    "displayName": "Rank XV",
    "hidden": 0,
    "description": "Commander of the Foundation or Captain of the House of Migurat",
    "icon": "https://steamcdn-a.akamaihd.net/steamcommunity/public/images/apps/470040/8474d7914a19071387c469238026ecaf9abbdb68.jpg",
    "icongray": "https://steamcdn-a.akamaihd.net/steamcommunity/public/images/apps/470040/1cf330c84c95676fab520cdecbb3be0319994570.jpg"
  },
  {
    "name": "RANK_16",
    "defaultvalue": 0,
    "displayName": "Rank XVI",
    "hidden": 0,
    "description": "Grand commander of the Foundation or Senior captain of the House of Migurat",
    "icon": "https://steamcdn-a.akamaihd.net/steamcommunity/public/images/apps/470040/fb009ccfa277bb6cabe7b93607af4cd4884161b7.jpg",
    "icongray": "https://steamcdn-a.akamaihd.net/steamcommunity/public/images/apps/470040/ba109862c92406868221eeda46dabb8887b8f921.jpg"
  },
  {
    "name": "RANK_17",
    "defaultvalue": 0,
    "displayName": "Rank XVII",
    "hidden": 0,
    "description": "Magistrate of the Foundation or Master of the House of Migurat",
    "icon": "https://steamcdn-a.akamaihd.net/steamcommunity/public/images/apps/470040/b2f92e034319aed4043afe081eb8d7f0328dcfff.jpg",
    "icongray": "https://steamcdn-a.akamaihd.net/steamcommunity/public/images/apps/470040/674879f9cdb404771951a16dfa4ffc6d45492d7b.jpg"
  },
  {
    "name": "RANK_18",
    "defaultvalue": 0,
    "displayName": "Rank XVIII",
    "hidden": 0,
    "description": "Grand magistrate of the Foundation or Senior master of the House of Migurat",
    "icon": "https://steamcdn-a.akamaihd.net/steamcommunity/public/images/apps/470040/fa2c30c9d2c4b0db130171f1bf3dc5f01e416c58.jpg",
    "icongray": "https://steamcdn-a.akamaihd.net/steamcommunity/public/images/apps/470040/ef80d541147f9c93ff73d32c84bf45c2adbbd354.jpg"
  },
  {
    "name": "RANK_19",
    "defaultvalue": 0,
    "displayName": "Rank XIX",
    "hidden": 0,
    "description": "General of the Foundation or Flag officer of the House of Migurat",
    "icon": "https://steamcdn-a.akamaihd.net/steamcommunity/public/images/apps/470040/821a8915eb04e35e2a1d0d86f33c8994653c0bef.jpg",
    "icongray": "https://steamcdn-a.akamaihd.net/steamcommunity/public/images/apps/470040/9c8d1a50183106842173cbba6a071e89e511599e.jpg"
  },
  {
    "name": "RANK_20",
    "defaultvalue": 0,
    "displayName": "Rank XX",
    "hidden": 0,
    "description": "Grand general of the Foundation or Senior flag officer of the House of Migurat",
    "icon": "https://steamcdn-a.akamaihd.net/steamcommunity/public/images/apps/470040/e024f33a6db892e6a1ccabdd1f7e522c4a9200a5.jpg",
    "icongray": "https://steamcdn-a.akamaihd.net/steamcommunity/public/images/apps/470040/054e69ff66009ea9ec237b5ded95d163ed0945c7.jpg"
  }
]