﻿{
  "Dlcs": {},
  "Name": "Zombie Party",
  "AppId": "384500",
  "ImageUrl": "https://steamcdn-a.akamaihd.net/steam/apps/384500/header.jpg?t=1540745553",
  "Languages": [
    "english"
  ],
  "Platforms": {
    "windows": true,
    "mac": false,
    "linux": false
  }
}