﻿{
  "Dlcs": {},
  "Name": "HitBox",
  "AppId": "341890",
  "ImageUrl": "https://steamcdn-a.akamaihd.net/steam/apps/341890/header.jpg?t=1568752514",
  "Languages": [
    "english"
  ],
  "Platforms": {
    "windows": true,
    "mac": false,
    "linux": false
  }
}