﻿[
  {
    "name": "rooms",
    "defaultvalue": 0,
    "displayName": "Number of Rooms"
  },
  {
    "name": "enemies",
    "defaultvalue": 0,
    "displayName": "Number of Enemies Destroyed"
  },
  {
    "name": "bullets_fired",
    "defaultvalue": 0,
    "displayName": "Bullets Fired"
  },
  {
    "name": "bullets_per_level",
    "defaultvalue": 0,
    "displayName": "Most Bullets Fired on a Level"
  }
]