﻿{
  "Dlcs": {},
  "Name": "Dead Secret",
  "AppId": "402260",
  "ImageUrl": "https://steamcdn-a.akamaihd.net/steam/apps/402260/header.jpg?t=1572531815",
  "Languages": [
    "english"
  ],
  "Platforms": {
    "windows": true,
    "mac": true,
    "linux": false
  }
}