﻿[
  {
    "name": "EndingS",
    "defaultvalue": 0,
    "displayName": "Ending S",
    "hidden": 0,
    "description": "Achieve Ending S",
    "icon": "https://steamcdn-a.akamaihd.net/steamcommunity/public/images/apps/402260/9b81954d668e69629ed02ffc16b52b4b6c7f99e0.jpg",
    "icongray": "https://steamcdn-a.akamaihd.net/steamcommunity/public/images/apps/402260/0f4bfebae2d52042f33076fa465a6cb2ade2c3a1.jpg"
  },
  {
    "name": "EndingA",
    "defaultvalue": 0,
    "displayName": "Ending A",
    "hidden": 0,
    "description": "Achieve Ending A",
    "icon": "https://steamcdn-a.akamaihd.net/steamcommunity/public/images/apps/402260/56d266be6b7819d8b604f0bf2a9f5f27f01ea130.jpg",
    "icongray": "https://steamcdn-a.akamaihd.net/steamcommunity/public/images/apps/402260/0f4bfebae2d52042f33076fa465a6cb2ade2c3a1.jpg"
  },
  {
    "name": "EndingB",
    "defaultvalue": 0,
    "displayName": "Ending B",
    "hidden": 0,
    "description": "Achieve Ending B",
    "icon": "https://steamcdn-a.akamaihd.net/steamcommunity/public/images/apps/402260/7c64a33b5b0e95782d63cf6ad0fce6f1c38571c4.jpg",
    "icongray": "https://steamcdn-a.akamaihd.net/steamcommunity/public/images/apps/402260/0f4bfebae2d52042f33076fa465a6cb2ade2c3a1.jpg"
  },
  {
    "name": "EndingC",
    "defaultvalue": 0,
    "displayName": "Ending C",
    "hidden": 0,
    "description": "Achieve Ending C",
    "icon": "https://steamcdn-a.akamaihd.net/steamcommunity/public/images/apps/402260/b33a4161fe33daca830d880a216e73857a5fbd08.jpg",
    "icongray": "https://steamcdn-a.akamaihd.net/steamcommunity/public/images/apps/402260/0f4bfebae2d52042f33076fa465a6cb2ade2c3a1.jpg"
  },
  {
    "name": "EndingD",
    "defaultvalue": 0,
    "displayName": "Ending D",
    "hidden": 0,
    "description": "Achieve Ending D",
    "icon": "https://steamcdn-a.akamaihd.net/steamcommunity/public/images/apps/402260/3947676e1fb23aba954ba6c0754b0dd05527db43.jpg",
    "icongray": "https://steamcdn-a.akamaihd.net/steamcommunity/public/images/apps/402260/0f4bfebae2d52042f33076fa465a6cb2ade2c3a1.jpg"
  }
]