﻿{
  "Dlcs": {
    "721410": {
      "Name": "",
      "ImageUrl": ""
    }
  },
  "Name": "We Were Here",
  "AppId": "582500",
  "ImageUrl": "https://steamcdn-a.akamaihd.net/steam/apps/582500/header.jpg?t=1600085378",
  "Languages": [
    "english"
  ],
  "Platforms": {
    "windows": true,
    "mac": true,
    "linux": false
  }
}