﻿{
  "Dlcs": {
    "889900": {
      "Name": "Darksiders III - Digital Extras",
      "ImageUrl": "https://steamcdn-a.akamaihd.net/steam/apps/889900/header.jpg?t=1563806817"
    },
    "889902": {
      "Name": "Darksiders III - The Crucible",
      "ImageUrl": "https://steamcdn-a.akamaihd.net/steam/apps/889902/header.jpg?t=1551204142"
    },
    "889903": {
      "Name": "Darksiders III - Keepers of the Void",
      "ImageUrl": "https://steamcdn-a.akamaihd.net/steam/apps/889903/header.jpg?t=1563445172"
    }
  },
  "Name": "Darksiders III",
  "AppId": "606280",
  "ImageUrl": "https://steamcdn-a.akamaihd.net/steam/apps/606280/header.jpg?t=1590128037",
  "Languages": [
    "english",
    "french",
    "italian",
    "german",
    "spanish",
    "arabic",
    "portuguese",
    "schinese",
    "japanese",
    "korean",
    "polish",
    "russian"
  ],
  "Platforms": {
    "windows": true,
    "mac": false,
    "linux": false
  }
}