﻿[
  {
    "name": "SeriousBeginner",
    "defaultvalue": 0,
    "displayName": "Serious Beginner",
    "hidden": 0,
    "description": "Complete any level in single player.",
    "icon": "https://steamcdn-a.akamaihd.net/steamcommunity/public/images/apps/41000/eea5a08d96489b7acdae416d9ac8427ac9da9774.jpg",
    "icongray": "https://steamcdn-a.akamaihd.net/steamcommunity/public/images/apps/41000/08b5a126ba0cddafa970f67e891ab62db4b448e8.jpg"
  },
  {
    "name": "GameMaster",
    "defaultvalue": 0,
    "displayName": "Game Master",
    "hidden": 0,
    "description": "Complete the game.",
    "icon": "https://steamcdn-a.akamaihd.net/steamcommunity/public/images/apps/41000/2ca6debbdd548d9469db0a6bb99750dc9a2b7e33.jpg",
    "icongray": "https://steamcdn-a.akamaihd.net/steamcommunity/public/images/apps/41000/00b59357db2bd0ae5990228fdfd4e736d110412f.jpg"
  },
  {
    "name": "SeriousSam",
    "defaultvalue": 0,
    "displayName": "Serious Sam",
    "hidden": 0,
    "description": "Complete the game in single player on serious difficulty.",
    "icon": "https://steamcdn-a.akamaihd.net/steamcommunity/public/images/apps/41000/e2389b76efcb3835e4dbc0337a3ef989c1e4466b.jpg",
    "icongray": "https://steamcdn-a.akamaihd.net/steamcommunity/public/images/apps/41000/0756d8b43a23bdd3dac5c5d4296975301f420b33.jpg"
  },
  {
    "name": "SeriousRun",
    "defaultvalue": 0,
    "displayName": "Serious Run",
    "hidden": 0,
    "description": "Complete the game in single player by beating estimated time on each level.",
    "icon": "https://steamcdn-a.akamaihd.net/steamcommunity/public/images/apps/41000/e3143f71d7f39e792f50c4aa8fa77b9b79a783bc.jpg",
    "icongray": "https://steamcdn-a.akamaihd.net/steamcommunity/public/images/apps/41000/57910e5edff2e02eec2d217651983199077db882.jpg"
  },
  {
    "name": "CannonExpert",
    "defaultvalue": 0,
    "displayName": "Cannon Expert",
    "hidden": 0,
    "description": "Pierce at least 10 enemies with a single cannonball.",
    "icon": "https://steamcdn-a.akamaihd.net/steamcommunity/public/images/apps/41000/c14c4b2d59bcaa140824cbcc0eda088f2c2a8192.jpg",
    "icongray": "https://steamcdn-a.akamaihd.net/steamcommunity/public/images/apps/41000/d81c4a7d0606539cfdad7cfb8d0ffe65924d0100.jpg"
  },
  {
    "name": "PerfectKill",
    "defaultvalue": 0,
    "displayName": "Perfect Kill",
    "hidden": 0,
    "description": "Kill all enemies in Karnak in single player.",
    "icon": "https://steamcdn-a.akamaihd.net/steamcommunity/public/images/apps/41000/f920d551adb67e5960842138ce5a2196ad14af51.jpg",
    "icongray": "https://steamcdn-a.akamaihd.net/steamcommunity/public/images/apps/41000/bc504a2ee2fa35a8d4a030235199634c2f146204.jpg"
  },
  {
    "name": "LookItsASecret",
    "defaultvalue": 0,
    "displayName": "Look, it's a secret",
    "hidden": 0,
    "description": "Find at least 50 secrets in single player.",
    "icon": "https://steamcdn-a.akamaihd.net/steamcommunity/public/images/apps/41000/2cb68a6cd9b43c82b2a7d67ec8e50ffa092c6f87.jpg",
    "icongray": "https://steamcdn-a.akamaihd.net/steamcommunity/public/images/apps/41000/a49618b13b063f919810672889faf95d076911da.jpg"
  },
  {
    "name": "MetropolisKing",
    "defaultvalue": 0,
    "displayName": "Metropolis King",
    "hidden": 0,
    "description": "Complete Metropolis level in single player on serious difficulty without loading.",
    "icon": "https://steamcdn-a.akamaihd.net/steamcommunity/public/images/apps/41000/ad47e1b1124cd610f7cb6a989df1916981185d6a.jpg",
    "icongray": "https://steamcdn-a.akamaihd.net/steamcommunity/public/images/apps/41000/d97637d4fff654e0e15f926d04edd5a5cee2ae9e.jpg"
  },
  {
    "name": "IAmInvincible",
    "defaultvalue": 0,
    "displayName": "I am invincible",
    "hidden": 0,
    "description": "Complete the game in single player without firing a single bullet or shell.",
    "icon": "https://steamcdn-a.akamaihd.net/steamcommunity/public/images/apps/41000/a6fb3230ae25fcc0a8fad78f72e186d24f7a8f37.jpg",
    "icongray": "https://steamcdn-a.akamaihd.net/steamcommunity/public/images/apps/41000/45d57f0f7b9c53b853eb7ef8be01a3c63c3653fd.jpg"
  },
  {
    "name": "CoopBeginner",
    "defaultvalue": 0,
    "displayName": "Co-op Beginner",
    "hidden": 0,
    "description": "Complete any level in co-op.",
    "icon": "https://steamcdn-a.akamaihd.net/steamcommunity/public/images/apps/41000/e4d6547e6d18a31da114c0479e0b29b8c5a984e9.jpg",
    "icongray": "https://steamcdn-a.akamaihd.net/steamcommunity/public/images/apps/41000/4feb964e9615acf0633fc5d3a6758db7b3ef3fcb.jpg"
  },
  {
    "name": "CoopHippie",
    "defaultvalue": 0,
    "displayName": "Co-op Hippy",
    "hidden": 0,
    "description": "Complete The Great Pyramid in co-op with blood option set to hippy.",
    "icon": "https://steamcdn-a.akamaihd.net/steamcommunity/public/images/apps/41000/67700334bee4fd0ac3e39051cab2408f901f64a4.jpg",
    "icongray": "https://steamcdn-a.akamaihd.net/steamcommunity/public/images/apps/41000/30a5c89b243d67b573191fa54f64aa9bd89d6e93.jpg"
  },
  {
    "name": "SeriousCoop",
    "defaultvalue": 0,
    "displayName": "Serious Co-op",
    "hidden": 0,
    "description": "Complete a co-op game on serious difficulty and extra enemy strength on 400%.",
    "icon": "https://steamcdn-a.akamaihd.net/steamcommunity/public/images/apps/41000/94e4d804ac4c83a802935c24d24757380ceefb32.jpg",
    "icongray": "https://steamcdn-a.akamaihd.net/steamcommunity/public/images/apps/41000/081b0f57178a3d622bd25e00aadb6c39ddc11f4c.jpg"
  },
  {
    "name": "RocketJumper",
    "defaultvalue": 0,
    "displayName": "Rocket Jumper",
    "hidden": 0,
    "description": "Perform 100 rocket jumps.",
    "icon": "https://steamcdn-a.akamaihd.net/steamcommunity/public/images/apps/41000/6b30c133db2c2bb8e79ddd3e47bb54a296f37d89.jpg",
    "icongray": "https://steamcdn-a.akamaihd.net/steamcommunity/public/images/apps/41000/bc1c864c52cdb077285ad7daf1bf5634198b96e6.jpg"
  },
  {
    "name": "LookMaIWon",
    "defaultvalue": 0,
    "displayName": "Look Ma, I won!",
    "hidden": 0,
    "description": "Win a deathmatch.",
    "icon": "https://steamcdn-a.akamaihd.net/steamcommunity/public/images/apps/41000/b4cc6cdf857088475e3757b069acb5239f8a0e83.jpg",
    "icongray": "https://steamcdn-a.akamaihd.net/steamcommunity/public/images/apps/41000/b1e6a3a7c06b94a690efc4447a8517663c2364fd.jpg"
  },
  {
    "name": "DeathmatchMaster",
    "defaultvalue": 0,
    "displayName": "Deathmatch Master",
    "hidden": 0,
    "description": "Win 100 deathmatch games.",
    "icon": "https://steamcdn-a.akamaihd.net/steamcommunity/public/images/apps/41000/aed5ff9285173049b6cf8383b1b4a069efc8cad8.jpg",
    "icongray": "https://steamcdn-a.akamaihd.net/steamcommunity/public/images/apps/41000/b71cdcd028accbac08099f33e960f65cf7269128.jpg"
  },
  {
    "name": "DeathmatchChampion",
    "defaultvalue": 0,
    "displayName": "Deathmatch Champion",
    "hidden": 0,
    "description": "Win 1000 deathmatch games.",
    "icon": "https://steamcdn-a.akamaihd.net/steamcommunity/public/images/apps/41000/7aebc9efa90ce210b8e68f495304cf0fc959422b.jpg",
    "icongray": "https://steamcdn-a.akamaihd.net/steamcommunity/public/images/apps/41000/a0dbe62df0c5dca26bdb55b9c3bd0fb31191c869.jpg"
  },
  {
    "name": "DeathmatchVeteran",
    "defaultvalue": 0,
    "displayName": "Deathmatch Veteran",
    "hidden": 0,
    "description": "Complete 100 deathmatches.",
    "icon": "https://steamcdn-a.akamaihd.net/steamcommunity/public/images/apps/41000/842c5d44af65467825d3b83fe6f11f44b138a039.jpg",
    "icongray": "https://steamcdn-a.akamaihd.net/steamcommunity/public/images/apps/41000/ae618be12b71dd8b2d5b92c0423d20dd9a832cde.jpg"
  },
  {
    "name": "DeathmatchDuelist",
    "defaultvalue": 0,
    "displayName": "Deathmatch Duelist",
    "hidden": 0,
    "description": "Win 25 1-on-1 deathmatches.",
    "icon": "https://steamcdn-a.akamaihd.net/steamcommunity/public/images/apps/41000/19aa82e484ba25ad8042aebefa9edc65ce50ab9e.jpg",
    "icongray": "https://steamcdn-a.akamaihd.net/steamcommunity/public/images/apps/41000/88b65ea32ed7bd5a356df29b519a46d5afdf8a41.jpg"
  },
  {
    "name": "Untouchable",
    "defaultvalue": 0,
    "displayName": "Untouchable",
    "hidden": 0,
    "description": "Win an at least 4 player deathmatch by reaching frag limit of at least 25 without dying.",
    "icon": "https://steamcdn-a.akamaihd.net/steamcommunity/public/images/apps/41000/70a5aa6c245f6f3f0fe3ae27de5309942bae88bb.jpg",
    "icongray": "https://steamcdn-a.akamaihd.net/steamcommunity/public/images/apps/41000/613377274114a00097d1d0ab9697d8d85670f906.jpg"
  },
  {
    "name": "Fragger",
    "defaultvalue": 0,
    "displayName": "Fragger",
    "hidden": 0,
    "description": "Frag a total of 100 players.",
    "icon": "https://steamcdn-a.akamaihd.net/steamcommunity/public/images/apps/41000/45ed405ca844be87e5def4f51956b999674ab713.jpg",
    "icongray": "https://steamcdn-a.akamaihd.net/steamcommunity/public/images/apps/41000/d349ebe975b623fc5815a2aba0ef7b2c457c8a27.jpg"
  },
  {
    "name": "CrazyFragger",
    "defaultvalue": 0,
    "displayName": "Crazy Fragger",
    "hidden": 0,
    "description": "Frag a total of 500 players.",
    "icon": "https://steamcdn-a.akamaihd.net/steamcommunity/public/images/apps/41000/092c515849f901683007cba133b4654efb423a6c.jpg",
    "icongray": "https://steamcdn-a.akamaihd.net/steamcommunity/public/images/apps/41000/8fb4247bec450ca2505ab51bfa41108a0d05d27e.jpg"
  },
  {
    "name": "SeriousFragger",
    "defaultvalue": 0,
    "displayName": "Serious Fragger",
    "hidden": 0,
    "description": "Frag a total of 1000 players.",
    "icon": "https://steamcdn-a.akamaihd.net/steamcommunity/public/images/apps/41000/33f3152fa243fe185ea7212d4f07b5189bae14f2.jpg",
    "icongray": "https://steamcdn-a.akamaihd.net/steamcommunity/public/images/apps/41000/bd4f552030442dd8d65dba23d75044af9e5baae9.jpg"
  },
  {
    "name": "1337Fragger",
    "defaultvalue": 0,
    "displayName": "1337 Fragger",
    "hidden": 0,
    "description": "Frag a total of 1337 players.",
    "icon": "https://steamcdn-a.akamaihd.net/steamcommunity/public/images/apps/41000/275e384ea7bb110ec6152c29752f9c6c880668ad.jpg",
    "icongray": "https://steamcdn-a.akamaihd.net/steamcommunity/public/images/apps/41000/ff551125d811bb6e2500de62e36227c3dbb341e5.jpg"
  },
  {
    "name": "DesperateFragger",
    "defaultvalue": 0,
    "displayName": "Desperate Fragger",
    "hidden": 0,
    "description": "Frag 25 players with a knife while having no more than 10 health left.",
    "icon": "https://steamcdn-a.akamaihd.net/steamcommunity/public/images/apps/41000/7b47389b91b3b67f984ca2cdeac4921f60df3927.jpg",
    "icongray": "https://steamcdn-a.akamaihd.net/steamcommunity/public/images/apps/41000/7ec49c33e38001497084b358d59b318b97c35835.jpg"
  },
  {
    "name": "Butcher",
    "defaultvalue": 0,
    "displayName": "Butcher",
    "hidden": 0,
    "description": "Frag 100 players with a knife.",
    "icon": "https://steamcdn-a.akamaihd.net/steamcommunity/public/images/apps/41000/61bb742541d71e554874113c017906e3ef87fb7c.jpg",
    "icongray": "https://steamcdn-a.akamaihd.net/steamcommunity/public/images/apps/41000/5b8037be43d35010d4c7f683ccea2abde176d35e.jpg"
  },
  {
    "name": "Swordsman",
    "defaultvalue": 0,
    "displayName": "Swordsman",
    "hidden": 0,
    "description": "Frag 100 players in a knife-to-knife fight.",
    "icon": "https://steamcdn-a.akamaihd.net/steamcommunity/public/images/apps/41000/f195e6fcd6c479ba9b8db82c8d08c943b36a2b5e.jpg",
    "icongray": "https://steamcdn-a.akamaihd.net/steamcommunity/public/images/apps/41000/79f812a2294aa03c42498551cf111bbcaa0cd998.jpg"
  },
  {
    "name": "Backstabber",
    "defaultvalue": 0,
    "displayName": "Backstabber",
    "hidden": 0,
    "description": "Frag 100 players with a knife from behind.",
    "icon": "https://steamcdn-a.akamaihd.net/steamcommunity/public/images/apps/41000/a5bcc2bacf3cd52361169dadac7d5db6d9b90ee8.jpg",
    "icongray": "https://steamcdn-a.akamaihd.net/steamcommunity/public/images/apps/41000/91914af03dca3135f586cf74807e0dcff42920f8.jpg"
  },
  {
    "name": "DiverseFragger",
    "defaultvalue": 0,
    "displayName": "Diverse Fragger",
    "hidden": 0,
    "description": "Frag 100 different players in deathmatch.",
    "icon": "https://steamcdn-a.akamaihd.net/steamcommunity/public/images/apps/41000/b86bc131ad1e9f29bfc484131342dc85f02e869c.jpg",
    "icongray": "https://steamcdn-a.akamaihd.net/steamcommunity/public/images/apps/41000/f26fcc38613f426e9c94482de3a06035af5ae76c.jpg"
  },
  {
    "name": "DeathmatchMarathon",
    "defaultvalue": 0,
    "displayName": "Deathmatch Marathon",
    "hidden": 0,
    "description": "Complete a deathmatch with frag limit set to at least 200. (Frag limit must be reached!)",
    "icon": "https://steamcdn-a.akamaihd.net/steamcommunity/public/images/apps/41000/b3aaa78967771356d35c81debf349193f32346f0.jpg",
    "icongray": "https://steamcdn-a.akamaihd.net/steamcommunity/public/images/apps/41000/ab68d3231fa18f39d4335ada08e548c14ad272e2.jpg"
  },
  {
    "name": "DeathmatchMarathonWinner",
    "defaultvalue": 0,
    "displayName": "Deathmatch Marathon Winner",
    "hidden": 0,
    "description": "Win a deathmatch marathon.",
    "icon": "https://steamcdn-a.akamaihd.net/steamcommunity/public/images/apps/41000/442d1de475dfc59163365ffdd7c7cee008e93596.jpg",
    "icongray": "https://steamcdn-a.akamaihd.net/steamcommunity/public/images/apps/41000/cf182d1f030a483d5c4c64585338e928b8f193b5.jpg"
  },
  {
    "name": "Grudge",
    "defaultvalue": 0,
    "displayName": "Grudge",
    "hidden": 0,
    "description": "Frag the same player 5 times in a row in at least 4 player deathmatch.",
    "icon": "https://steamcdn-a.akamaihd.net/steamcommunity/public/images/apps/41000/a4112fc9a384e8ddfd4395d2977bce264f3f9b54.jpg",
    "icongray": "https://steamcdn-a.akamaihd.net/steamcommunity/public/images/apps/41000/16a240dde61a893245c120d03d880dae93a1a261.jpg"
  },
  {
    "name": "Nemesis",
    "defaultvalue": 0,
    "displayName": "Nemesis",
    "hidden": 0,
    "description": "Frag the same player 10 times during a single round in at least 4 player deathmatch.",
    "icon": "https://steamcdn-a.akamaihd.net/steamcommunity/public/images/apps/41000/464e6fcbb133292e432f7dba322a62be63dcd921.jpg",
    "icongray": "https://steamcdn-a.akamaihd.net/steamcommunity/public/images/apps/41000/7a8d2d2ab916be96218b3f4014c2bc8444728595.jpg"
  },
  {
    "name": "FragCombo",
    "defaultvalue": 0,
    "displayName": "Frag Combo",
    "hidden": 0,
    "description": "Perform 4 frags with each being no more than 10 seconds apart from the previous frag in at least 4 player deathmatch.",
    "icon": "https://steamcdn-a.akamaihd.net/steamcommunity/public/images/apps/41000/b247d134511ba74093b1e5ead11ff865d207840a.jpg",
    "icongray": "https://steamcdn-a.akamaihd.net/steamcommunity/public/images/apps/41000/742cf63b4452941b5d4081a593a77b08f54c71b4.jpg"
  },
  {
    "name": "RoyalFragCombo",
    "defaultvalue": 0,
    "displayName": "Royal Frag Combo",
    "hidden": 0,
    "description": "Frag all players in a single frag combo.",
    "icon": "https://steamcdn-a.akamaihd.net/steamcommunity/public/images/apps/41000/c7b0aa9593d4c25071d79ebadada81fd59261c3c.jpg",
    "icongray": "https://steamcdn-a.akamaihd.net/steamcommunity/public/images/apps/41000/6132c41fb8b4236011ecc4f3a6890a968e5a52ef.jpg"
  },
  {
    "name": "SwimmingInstructor",
    "defaultvalue": 0,
    "displayName": "Swimming Instructor",
    "hidden": 0,
    "description": "Drown an enemy.",
    "icon": "https://steamcdn-a.akamaihd.net/steamcommunity/public/images/apps/41000/79f1c67b39a4c7f2e2beff49d27016fffa3d75f4.jpg",
    "icongray": "https://steamcdn-a.akamaihd.net/steamcommunity/public/images/apps/41000/acc25dffe779af83cc2e5e9ef9b147676394ac2a.jpg"
  }
]