﻿{
  "Dlcs": {},
  "Name": "Castlevania: Lords of Shadow – Ultimate Edition",
  "AppId": "234080",
  "ImageUrl": "https://steamcdn-a.akamaihd.net/steam/apps/234080/header.jpg?t=1598376510",
  "Languages": [
    "english",
    "german",
    "french",
    "italian",
    "spanish",
    "portuguese"
  ],
  "Platforms": {
    "windows": true,
    "mac": false,
    "linux": false
  }
}