﻿{
  "Dlcs": {},
  "Name": "The God's Chain",
  "AppId": "504490",
  "ImageUrl": "https://steamcdn-a.akamaihd.net/steam/apps/504490/header.jpg?t=1500130635",
  "Languages": [
    "english"
  ],
  "Platforms": {
    "windows": true,
    "mac": true,
    "linux": true
  }
}