﻿{
  "Dlcs": {},
  "Name": "PRO EVOLUTION SOCCER 2019 LITE",
  "AppId": "950100",
  "ImageUrl": "https://steamcdn-a.akamaihd.net/steam/apps/950100/header.jpg?t=1575564830",
  "Languages": [
    "english",
    "french",
    "italian",
    "german",
    "spanish",
    "dutch",
    "greek",
    "korean",
    "portuguese",
    "portuguese",
    "russian",
    "schinese",
    "tchinese",
    "turkish"
  ],
  "Platforms": {
    "windows": true,
    "mac": false,
    "linux": false
  }
}