﻿[
  {
    "name": "ACH_FIRSTCONTACT",
    "defaultvalue": 0,
    "displayName": "First Contact",
    "hidden": 0,
    "description": "First encounter with zombies",
    "icon": "https://steamcdn-a.akamaihd.net/steamcommunity/public/images/apps/442190/664a30a92841245494d56d2ae43f36cf150c18cf.jpg",
    "icongray": "https://steamcdn-a.akamaihd.net/steamcommunity/public/images/apps/442190/8c8da4a51a279e444ade90712f3c9cdd68120a14.jpg"
  },
  {
    "name": "ACH_HEADHUNTER",
    "defaultvalue": 0,
    "displayName": "Head Hunter",
    "hidden": 0,
    "description": "Perform 300 headshot in the campaign",
    "icon": "https://steamcdn-a.akamaihd.net/steamcommunity/public/images/apps/442190/9211d8799eb85b29f08649338d573757d940c44b.jpg",
    "icongray": "https://steamcdn-a.akamaihd.net/steamcommunity/public/images/apps/442190/eb503e490289918f18e409365bfbe7661f79ce27.jpg"
  },
  {
    "name": "ACH_OVERKILL",
    "defaultvalue": 0,
    "displayName": "Overkill",
    "hidden": 0,
    "description": "Kill 500 zombies in the campaign",
    "icon": "https://steamcdn-a.akamaihd.net/steamcommunity/public/images/apps/442190/ae70d932bb2dfa5525bc74e09ac730810686c562.jpg",
    "icongray": "https://steamcdn-a.akamaihd.net/steamcommunity/public/images/apps/442190/c209972f9a703197d34b9d2a57e475cc2b7d1142.jpg"
  },
  {
    "name": "ACH_FIRSTAIDJUNKY",
    "defaultvalue": 0,
    "displayName": "First Aid Junky",
    "hidden": 0,
    "description": "Use 40 meds in the campaign",
    "icon": "https://steamcdn-a.akamaihd.net/steamcommunity/public/images/apps/442190/3cc2db34fbaabe4a26a808d83e3237c24266f84b.jpg",
    "icongray": "https://steamcdn-a.akamaihd.net/steamcommunity/public/images/apps/442190/2fea29c754ed0a859393a0bed09fc6bae5a74eb2.jpg"
  },
  {
    "name": "ACH_BATTLEBORN",
    "defaultvalue": 0,
    "displayName": "Battle Born",
    "hidden": 0,
    "description": "Achieve 15000 experience points in the campaign",
    "icon": "https://steamcdn-a.akamaihd.net/steamcommunity/public/images/apps/442190/5bd5e6cd1c43fd755b7c811ca2eab0985169ec95.jpg",
    "icongray": "https://steamcdn-a.akamaihd.net/steamcommunity/public/images/apps/442190/095bed8bc9e4386f9d7aacd5c91799344bfd985d.jpg"
  },
  {
    "name": "ACH_GREENHORN",
    "defaultvalue": 0,
    "displayName": "Greenhorn",
    "hidden": 0,
    "description": "Die 20 times in the campaign",
    "icon": "https://steamcdn-a.akamaihd.net/steamcommunity/public/images/apps/442190/0134b6543ed6a8a667f234248aac10a8dfaa8c21.jpg",
    "icongray": "https://steamcdn-a.akamaihd.net/steamcommunity/public/images/apps/442190/cffa048c8a04bc901d1b54d62a33a2217f368db6.jpg"
  },
  {
    "name": "ACH_ULTIMATESURVIVOR",
    "defaultvalue": 0,
    "displayName": "Ultimate Survivor",
    "hidden": 0,
    "description": "Complete the campaign without dieing",
    "icon": "https://steamcdn-a.akamaihd.net/steamcommunity/public/images/apps/442190/93f00a492aaef6655cfd431df45c69150bc35b3f.jpg",
    "icongray": "https://steamcdn-a.akamaihd.net/steamcommunity/public/images/apps/442190/aee262ee9e031f0bc20fab8894f47a2eab66aa25.jpg"
  },
  {
    "name": "ACH_SURVIVOR",
    "defaultvalue": 0,
    "displayName": "Survivor",
    "hidden": 0,
    "description": "Complete the campaign",
    "icon": "https://steamcdn-a.akamaihd.net/steamcommunity/public/images/apps/442190/c32ea43d16c729076b6dddefb96aa2f5ef933cc4.jpg",
    "icongray": "https://steamcdn-a.akamaihd.net/steamcommunity/public/images/apps/442190/c5b96c19c228959c2ea302b1fcb9384881c4129e.jpg"
  },
  {
    "name": "ACH_OVERWATCH",
    "defaultvalue": 0,
    "displayName": "Overwatch",
    "hidden": 0,
    "description": "Complete the lockdown mode with your men alive",
    "icon": "https://steamcdn-a.akamaihd.net/steamcommunity/public/images/apps/442190/12ba9857851be1dca5586b6ee35d53157dddff32.jpg",
    "icongray": "https://steamcdn-a.akamaihd.net/steamcommunity/public/images/apps/442190/aa0705caa1af739b1942aafd9641993b1bd64e3e.jpg"
  },
  {
    "name": "ACH_EXTERMINATOR",
    "defaultvalue": 0,
    "displayName": "Exterminator",
    "hidden": 0,
    "description": "Complete the lockdown mode with agent Stan",
    "icon": "https://steamcdn-a.akamaihd.net/steamcommunity/public/images/apps/442190/470b028ff2be5a925742ee96c1706764994287a5.jpg",
    "icongray": "https://steamcdn-a.akamaihd.net/steamcommunity/public/images/apps/442190/52d9eb5038af2e468f84b8a53870bb45b169f9c5.jpg"
  },
  {
    "name": "ACH_IMMORTAL",
    "defaultvalue": 0,
    "displayName": "Immortal",
    "hidden": 0,
    "description": "Complete the lockdown mode without dieing",
    "icon": "https://steamcdn-a.akamaihd.net/steamcommunity/public/images/apps/442190/3f3df0ffedce28df76c342b861878ee1004ce24e.jpg",
    "icongray": "https://steamcdn-a.akamaihd.net/steamcommunity/public/images/apps/442190/f96acc5b6961d350853287bb5811aa3087220e2c.jpg"
  },
  {
    "name": "ACH_EXTERMINATRESS",
    "defaultvalue": 0,
    "displayName": "Exterminatress",
    "hidden": 0,
    "description": "Complete the lockdown mode with agent Muda",
    "icon": "https://steamcdn-a.akamaihd.net/steamcommunity/public/images/apps/442190/57998e27b3cf029b5cb016535124b1ad00e199fd.jpg",
    "icongray": "https://steamcdn-a.akamaihd.net/steamcommunity/public/images/apps/442190/757f7c9664a7e34a5cd59c3dfa587615b52e07fb.jpg"
  }
]