﻿{
  "Dlcs": {
    "204372": {
      "Name": "Castle Crashers - Blacksmith Pack",
      "ImageUrl": "https://steamcdn-a.akamaihd.net/steam/apps/204372/header.jpg?t=1447355384"
    },
    "204371": {
      "Name": "Castle Crashers - Pink Knight Pack",
      "ImageUrl": "https://steamcdn-a.akamaihd.net/steam/apps/204371/header.jpg?t=1447355384"
    }
  },
  "Name": "Castle Crashers®",
  "AppId": "204360",
  "ImageUrl": "https://steamcdn-a.akamaihd.net/steam/apps/204360/header.jpg?t=1599944052",
  "Languages": [
    "english",
    "german",
    "french",
    "italian",
    "korean",
    "spanish",
    "schinese",
    "tchinese",
    "japanese",
    "portuguese",
    "russian"
  ],
  "Platforms": {
    "windows": true,
    "mac": true,
    "linux": false
  }
}