﻿{
  "Dlcs": {},
  "Name": "CRANGA!: Harbor Frenzy",
  "AppId": "517970",
  "ImageUrl": "https://steamcdn-a.akamaihd.net/steam/apps/517970/header.jpg?t=1560477227",
  "Languages": [
    "english",
    "french",
    "german",
    "spanish",
    "japanese",
    "korean",
    "schinese",
    "tchinese"
  ],
  "Platforms": {
    "windows": true,
    "mac": false,
    "linux": false
  }
}