﻿{
  "Dlcs": {},
  "Name": "Operation Flashpoint: Dragon Rising",
  "AppId": "12830",
  "ImageUrl": "https://steamcdn-a.akamaihd.net/steam/apps/12830/header.jpg?t=1573465857",
  "Languages": [
    "english",
    "french",
    "german",
    "italian",
    "spanish"
  ],
  "Platforms": {
    "windows": true,
    "mac": false,
    "linux": false
  }
}