﻿[
  {
    "name": "steam_Victorious",
    "defaultvalue": 0,
    "displayName": "Victorious",
    "hidden": 0,
    "description": "Win a game in Battle Mode",
    "icon": "https://steamcdn-a.akamaihd.net/steamcommunity/public/images/apps/468250/3baaaf89c0e1896fc1247e038055119c74289e81.jpg",
    "icongray": "https://steamcdn-a.akamaihd.net/steamcommunity/public/images/apps/468250/20bbccf2f627ea8911f9c3cf3b780529c6b4586f.jpg"
  },
  {
    "name": "steam_Commander",
    "defaultvalue": 0,
    "displayName": "Commander",
    "hidden": 0,
    "description": "Win 100 games in Battle Mode",
    "icon": "https://steamcdn-a.akamaihd.net/steamcommunity/public/images/apps/468250/0ed16aa2ac826b7364dcd68cd9daec15b4dd0d73.jpg",
    "icongray": "https://steamcdn-a.akamaihd.net/steamcommunity/public/images/apps/468250/8e5a286d253a01d375a4da2f686c4cd952b2e3f2.jpg"
  },
  {
    "name": "steam_Veteran",
    "defaultvalue": 0,
    "displayName": "Veteran",
    "hidden": 0,
    "description": "Win 1000 games in Battle Mode",
    "icon": "https://steamcdn-a.akamaihd.net/steamcommunity/public/images/apps/468250/c258aa02fdf0c413b302dd5e4c975ce05816322c.jpg",
    "icongray": "https://steamcdn-a.akamaihd.net/steamcommunity/public/images/apps/468250/f4c3805b73c50fb67c0a3a79586b0382cd9fae9f.jpg"
  },
  {
    "name": "steam_CommanderRussia",
    "defaultvalue": 0,
    "displayName": "RUS Commander",
    "hidden": 0,
    "description": "Reach level 50 with RUS",
    "icon": "https://steamcdn-a.akamaihd.net/steamcommunity/public/images/apps/468250/ee3ca13f47031f156db38f10712ad43295275520.jpg",
    "icongray": "https://steamcdn-a.akamaihd.net/steamcommunity/public/images/apps/468250/f5438988739c8e861102c1bd9836dd525ebbae91.jpg"
  },
  {
    "name": "steam_ComanderUSA",
    "defaultvalue": 0,
    "displayName": "USA Commander",
    "hidden": 0,
    "description": "Reach level 50 with USA",
    "icon": "https://steamcdn-a.akamaihd.net/steamcommunity/public/images/apps/468250/e91cc3bbd8901a721b0c4543dd62db462d037cfd.jpg",
    "icongray": "https://steamcdn-a.akamaihd.net/steamcommunity/public/images/apps/468250/f92f6c9e42fb096f0233f5f1319201728b739005.jpg"
  },
  {
    "name": "steam_OutpostDestroyer",
    "defaultvalue": 0,
    "displayName": "Outpost Destroyer",
    "hidden": 0,
    "description": "Do 5000 damage to Outposts",
    "icon": "https://steamcdn-a.akamaihd.net/steamcommunity/public/images/apps/468250/67ffce35a61d9780d02b6ff083c232e6c1177207.jpg",
    "icongray": "https://steamcdn-a.akamaihd.net/steamcommunity/public/images/apps/468250/ab4a735b5f956805d4971644e244a90bac7a9f12.jpg"
  },
  {
    "name": "steam_InfantryDestroyer",
    "defaultvalue": 0,
    "displayName": "Infantry Destroyer",
    "hidden": 0,
    "description": "Defeat 500 enemy infantry units",
    "icon": "https://steamcdn-a.akamaihd.net/steamcommunity/public/images/apps/468250/2d55991f9df7cc8a428ff355fd86017d988b7b79.jpg",
    "icongray": "https://steamcdn-a.akamaihd.net/steamcommunity/public/images/apps/468250/acd4236c62ff3b38ea0bdfe4bd6caadb8da76b5c.jpg"
  },
  {
    "name": "steam_VehicleDestroyer",
    "defaultvalue": 0,
    "displayName": "Vehicle Destroyer",
    "hidden": 0,
    "description": "Defeat 150 enemy vehicles",
    "icon": "https://steamcdn-a.akamaihd.net/steamcommunity/public/images/apps/468250/252670d4b1d7aeb36e568f0dd04e586011fea3ca.jpg",
    "icongray": "https://steamcdn-a.akamaihd.net/steamcommunity/public/images/apps/468250/79d014c909f2d20f08a2015d01dc7342b7d23453.jpg"
  },
  {
    "name": "steam_SupplyDemanded",
    "defaultvalue": 0,
    "displayName": "Supply Demanded",
    "hidden": 0,
    "description": "Use 1000 Supply",
    "icon": "https://steamcdn-a.akamaihd.net/steamcommunity/public/images/apps/468250/1cd45643bdacc90ab31f8424e7d202d4b7dfbe3c.jpg",
    "icongray": "https://steamcdn-a.akamaihd.net/steamcommunity/public/images/apps/468250/be43e8822eeb195b89de4f307d0362f6e2fa6ab2.jpg"
  },
  {
    "name": "steam_ShowOfForce",
    "defaultvalue": 0,
    "displayName": "Show of Force",
    "hidden": 0,
    "description": "Deploy 500 units",
    "icon": "https://steamcdn-a.akamaihd.net/steamcommunity/public/images/apps/468250/0bdbcb67059127f345eb32a025f02e1ba876028f.jpg",
    "icongray": "https://steamcdn-a.akamaihd.net/steamcommunity/public/images/apps/468250/e69f4f01ea0f795fe7371bdc082fbf73ffebb0e6.jpg"
  },
  {
    "name": "steam_LongWar",
    "defaultvalue": 0,
    "displayName": "Long War",
    "hidden": 0,
    "description": "Run out the timer in Battle mode",
    "icon": "https://steamcdn-a.akamaihd.net/steamcommunity/public/images/apps/468250/444161973c9abe76775258b5bd1c7d4323b6508e.jpg",
    "icongray": "https://steamcdn-a.akamaihd.net/steamcommunity/public/images/apps/468250/d4e1c6382ce14580e0aec683852154a45327a97a.jpg"
  },
  {
    "name": "steam_Networker",
    "defaultvalue": 0,
    "displayName": "Networker",
    "hidden": 0,
    "description": "Deploy 50 Network assets",
    "icon": "https://steamcdn-a.akamaihd.net/steamcommunity/public/images/apps/468250/736b60f4a4bdb1c3522e192fe9d205153571adda.jpg",
    "icongray": "https://steamcdn-a.akamaihd.net/steamcommunity/public/images/apps/468250/d5139b0643b971850496ef9821c826fdb89322b5.jpg"
  },
  {
    "name": "steam_Logistical",
    "defaultvalue": 0,
    "displayName": "Logistical",
    "hidden": 0,
    "description": "Deploy 50 Logistics assets",
    "icon": "https://steamcdn-a.akamaihd.net/steamcommunity/public/images/apps/468250/27407e362aead5ec2a7495f83163c7100e17e9cc.jpg",
    "icongray": "https://steamcdn-a.akamaihd.net/steamcommunity/public/images/apps/468250/21154c40731602504b0a3f3903aa44f7dd15dd04.jpg"
  },
  {
    "name": "steam_Incoming",
    "defaultvalue": 0,
    "displayName": "Incoming",
    "hidden": 0,
    "description": "Deploy 50 Fire Support assets",
    "icon": "https://steamcdn-a.akamaihd.net/steamcommunity/public/images/apps/468250/f60cf347fa12224f5a800ac6cd815237d6dbf60c.jpg",
    "icongray": "https://steamcdn-a.akamaihd.net/steamcommunity/public/images/apps/468250/f8198d7e5a6aad24058a14fa63fe702252259d8d.jpg"
  },
  {
    "name": "steam_Commanding",
    "defaultvalue": 0,
    "displayName": "Commanding",
    "hidden": 0,
    "description": "Deploy 50 Command assets",
    "icon": "https://steamcdn-a.akamaihd.net/steamcommunity/public/images/apps/468250/33b29ea531cd04429b7b2a4297294fc0522b11a4.jpg",
    "icongray": "https://steamcdn-a.akamaihd.net/steamcommunity/public/images/apps/468250/ca374bcf6e46c05f3acc35b3e1f4e8602ff70cb0.jpg"
  },
  {
    "name": "steam_Supported",
    "defaultvalue": 0,
    "displayName": "Supported",
    "hidden": 0,
    "description": "Deploy 50 Support Unit assets",
    "icon": "https://steamcdn-a.akamaihd.net/steamcommunity/public/images/apps/468250/abcd6224eb5f8d5ec3d567a9f89d1a93411cbdd0.jpg",
    "icongray": "https://steamcdn-a.akamaihd.net/steamcommunity/public/images/apps/468250/a6c9646cfa00bb983b888130bab2fef37c403dbe.jpg"
  }
]