﻿{
  "Dlcs": {},
  "Name": "MEDICALHOLODECK FREE  | Medical Virtual Reality | Medical VR | DICOM Viewer",
  "AppId": "754010",
  "ImageUrl": "https://steamcdn-a.akamaihd.net/steam/apps/754010/header.jpg?t=1563352669",
  "Languages": [
    "english"
  ],
  "Platforms": {
    "windows": true,
    "mac": false,
    "linux": false
  }
}