﻿{
  "Dlcs": {},
  "Name": "BoxesWithGuns",
  "AppId": "342520",
  "ImageUrl": "https://steamcdn-a.akamaihd.net/steam/apps/342520/header.jpg?t=1447366958",
  "Languages": [
    "english",
    "german",
    "japanese",
    "french"
  ],
  "Platforms": {
    "windows": true,
    "mac": false,
    "linux": false
  }
}