﻿{
  "Dlcs": {},
  "Name": "Tap Cats: Epic Card Battle",
  "AppId": "864920",
  "ImageUrl": "https://steamcdn-a.akamaihd.net/steam/apps/864920/header.jpg?t=1585606638",
  "Languages": [
    "english",
    "french",
    "italian",
    "german",
    "spanish",
    "arabic",
    "russian",
    "turkish",
    "portuguese"
  ],
  "Platforms": {
    "windows": true,
    "mac": true,
    "linux": false
  }
}