﻿{
  "Dlcs": {},
  "Name": "Amorous",
  "AppId": "778700",
  "ImageUrl": "https://steamcdn-a.akamaihd.net/steam/apps/778700/header.jpg?t=1524617477",
  "Languages": [
    "english"
  ],
  "Platforms": {
    "windows": true,
    "mac": true,
    "linux": true
  }
}