﻿{
  "Dlcs": {},
  "Name": "The Elder Scrolls V: Skyrim Special Edition",
  "AppId": "489830",
  "ImageUrl": "https://steamcdn-a.akamaihd.net/steam/apps/489830/header.jpg?t=1590515887",
  "Languages": [
    "english",
    "french",
    "italian",
    "german",
    "spanish",
    "polish",
    "tchinese",
    "russian",
    "japanese"
  ],
  "Platforms": {
    "windows": true,
    "mac": false,
    "linux": false
  }
}