﻿{
  "Dlcs": {
    "644820": {
      "Name": "GO AWAY, THERE'S KUMIS OVER THERE! - SOUNDTRACK",
      "ImageUrl": "https://steamcdn-a.akamaihd.net/steam/apps/644820/header.jpg?t=1497280413"
    }
  },
  "Name": "GO AWAY, THERE'S KUMIS OVER THERE!",
  "AppId": "545580",
  "ImageUrl": "https://steamcdn-a.akamaihd.net/steam/apps/545580/header.jpg?t=1509046300",
  "Languages": [
    "english"
  ],
  "Platforms": {
    "windows": true,
    "mac": false,
    "linux": false
  }
}