﻿{
  "Dlcs": {},
  "Name": "Fearless Fantasy",
  "AppId": "282100",
  "ImageUrl": "https://steamcdn-a.akamaihd.net/steam/apps/282100/header.jpg?t=1588204335",
  "Languages": [
    "english"
  ],
  "Platforms": {
    "windows": true,
    "mac": false,
    "linux": false
  }
}