﻿{
  "Dlcs": {},
  "Name": "Ninjahtic Mind Tricks",
  "AppId": "387880",
  "ImageUrl": "https://steamcdn-a.akamaihd.net/steam/apps/387880/header.jpg?t=1591018414",
  "Languages": [
    "english"
  ],
  "Platforms": {
    "windows": true,
    "mac": false,
    "linux": false
  }
}