﻿[
  {
    "name": "player_gametime_1",
    "defaultvalue": 0,
    "displayName": "Veteran",
    "hidden": 0,
    "description": "Your dedication has not been unnoticed!",
    "icon": "https://steamcdn-a.akamaihd.net/steamcommunity/public/images/apps/302670/33197d1eb8ecbceef0f3225a5c0ef7faae3cdbe9.jpg",
    "icongray": "https://steamcdn-a.akamaihd.net/steamcommunity/public/images/apps/302670/abf24e88420c9c2fd47a6ed610618d2af6f84678.jpg"
  },
  {
    "name": "player_gametime_2",
    "defaultvalue": 0,
    "displayName": "Veteran II",
    "hidden": 0,
    "description": "Your dedication has not been unnoticed!",
    "icon": "https://steamcdn-a.akamaihd.net/steamcommunity/public/images/apps/302670/50cea3ab604fa9dc425659738f3444aeb6570316.jpg",
    "icongray": "https://steamcdn-a.akamaihd.net/steamcommunity/public/images/apps/302670/abf24e88420c9c2fd47a6ed610618d2af6f84678.jpg"
  },
  {
    "name": "player_gametime_3",
    "defaultvalue": 0,
    "displayName": "Veteran III",
    "hidden": 0,
    "description": "Your dedication has not been unnoticed!",
    "icon": "https://steamcdn-a.akamaihd.net/steamcommunity/public/images/apps/302670/f2fd6a9664fb1b60e1d654a37dac3d8fa3bf95ff.jpg",
    "icongray": "https://steamcdn-a.akamaihd.net/steamcommunity/public/images/apps/302670/abf24e88420c9c2fd47a6ed610618d2af6f84678.jpg"
  },
  {
    "name": "player_training",
    "defaultvalue": 0,
    "displayName": "Training",
    "hidden": 0,
    "description": "You have proven your combat readiness!",
    "icon": "https://steamcdn-a.akamaihd.net/steamcommunity/public/images/apps/302670/97cf38a95e934aaae58f740187d6dd38d9152209.jpg",
    "icongray": "https://steamcdn-a.akamaihd.net/steamcommunity/public/images/apps/302670/abf24e88420c9c2fd47a6ed610618d2af6f84678.jpg"
  },
  {
    "name": "usa_01_easy",
    "defaultvalue": 0,
    "displayName": "Ambush",
    "hidden": 0,
    "description": "Complete the mission on easy!",
    "icon": "https://steamcdn-a.akamaihd.net/steamcommunity/public/images/apps/302670/09859a9728be81f677f4580bda6cc32a3f5ffe4c.jpg",
    "icongray": "https://steamcdn-a.akamaihd.net/steamcommunity/public/images/apps/302670/abf24e88420c9c2fd47a6ed610618d2af6f84678.jpg"
  },
  {
    "name": "usa_01_normal",
    "defaultvalue": 0,
    "displayName": "Ambush",
    "hidden": 0,
    "description": "Complete the mission on medium!",
    "icon": "https://steamcdn-a.akamaihd.net/steamcommunity/public/images/apps/302670/2ec7f6abda6c680f95a2cfeb8d4c80cbb2807d23.jpg",
    "icongray": "https://steamcdn-a.akamaihd.net/steamcommunity/public/images/apps/302670/0290cbb54c0724b182005787d5604ce27d7ccf09.jpg"
  },
  {
    "name": "usa_01_hard",
    "defaultvalue": 0,
    "displayName": "Ambush",
    "hidden": 0,
    "description": "Complete the mission on hard!",
    "icon": "https://steamcdn-a.akamaihd.net/steamcommunity/public/images/apps/302670/bc91b7e604cb94bad9c3c9de4edf0ec83b51a8d9.jpg",
    "icongray": "https://steamcdn-a.akamaihd.net/steamcommunity/public/images/apps/302670/abf24e88420c9c2fd47a6ed610618d2af6f84678.jpg"
  },
  {
    "name": "usa_01_heroic",
    "defaultvalue": 0,
    "displayName": "Ambush",
    "hidden": 0,
    "description": "Complete the mission on heroic!",
    "icon": "https://steamcdn-a.akamaihd.net/steamcommunity/public/images/apps/302670/91b2e804d9a5a97f7d1a7e8f84aae98dccd24dcc.jpg",
    "icongray": "https://steamcdn-a.akamaihd.net/steamcommunity/public/images/apps/302670/abf24e88420c9c2fd47a6ed610618d2af6f84678.jpg"
  },
  {
    "name": "usa_02_easy",
    "defaultvalue": 0,
    "displayName": "Unbreakable",
    "hidden": 0,
    "description": "Complete the mission on easy!",
    "icon": "https://steamcdn-a.akamaihd.net/steamcommunity/public/images/apps/302670/09859a9728be81f677f4580bda6cc32a3f5ffe4c.jpg",
    "icongray": "https://steamcdn-a.akamaihd.net/steamcommunity/public/images/apps/302670/abf24e88420c9c2fd47a6ed610618d2af6f84678.jpg"
  },
  {
    "name": "usa_02_normal",
    "defaultvalue": 0,
    "displayName": "Unbreakable",
    "hidden": 0,
    "description": "Complete the mission on normal!",
    "icon": "https://steamcdn-a.akamaihd.net/steamcommunity/public/images/apps/302670/aa5967ed3f55a5c7fd90dcc074aad01370ef95e8.jpg",
    "icongray": "https://steamcdn-a.akamaihd.net/steamcommunity/public/images/apps/302670/abf24e88420c9c2fd47a6ed610618d2af6f84678.jpg"
  },
  {
    "name": "usa_02_hard",
    "defaultvalue": 0,
    "displayName": "Unbreakable",
    "hidden": 0,
    "description": "Complete the mission on hard!",
    "icon": "https://steamcdn-a.akamaihd.net/steamcommunity/public/images/apps/302670/bc91b7e604cb94bad9c3c9de4edf0ec83b51a8d9.jpg",
    "icongray": "https://steamcdn-a.akamaihd.net/steamcommunity/public/images/apps/302670/abf24e88420c9c2fd47a6ed610618d2af6f84678.jpg"
  },
  {
    "name": "usa_02_heroic",
    "defaultvalue": 0,
    "displayName": "Unbreakable",
    "hidden": 0,
    "description": "Complete the mission on heroic!",
    "icon": "https://steamcdn-a.akamaihd.net/steamcommunity/public/images/apps/302670/91b2e804d9a5a97f7d1a7e8f84aae98dccd24dcc.jpg",
    "icongray": "https://steamcdn-a.akamaihd.net/steamcommunity/public/images/apps/302670/abf24e88420c9c2fd47a6ed610618d2af6f84678.jpg"
  },
  {
    "name": "usa_03_easy",
    "defaultvalue": 0,
    "displayName": "Courier",
    "hidden": 0,
    "description": "Complete the mission on easy!",
    "icon": "https://steamcdn-a.akamaihd.net/steamcommunity/public/images/apps/302670/09859a9728be81f677f4580bda6cc32a3f5ffe4c.jpg",
    "icongray": "https://steamcdn-a.akamaihd.net/steamcommunity/public/images/apps/302670/abf24e88420c9c2fd47a6ed610618d2af6f84678.jpg"
  },
  {
    "name": "usa_03_normal",
    "defaultvalue": 0,
    "displayName": "Courier",
    "hidden": 0,
    "description": "Complete the mission on normal!",
    "icon": "https://steamcdn-a.akamaihd.net/steamcommunity/public/images/apps/302670/aa5967ed3f55a5c7fd90dcc074aad01370ef95e8.jpg",
    "icongray": "https://steamcdn-a.akamaihd.net/steamcommunity/public/images/apps/302670/abf24e88420c9c2fd47a6ed610618d2af6f84678.jpg"
  },
  {
    "name": "usa_03_hard",
    "defaultvalue": 0,
    "displayName": "Courier",
    "hidden": 0,
    "description": "Complete the mission on hard!",
    "icon": "https://steamcdn-a.akamaihd.net/steamcommunity/public/images/apps/302670/bc91b7e604cb94bad9c3c9de4edf0ec83b51a8d9.jpg",
    "icongray": "https://steamcdn-a.akamaihd.net/steamcommunity/public/images/apps/302670/abf24e88420c9c2fd47a6ed610618d2af6f84678.jpg"
  },
  {
    "name": "usa_03_heroic",
    "defaultvalue": 0,
    "displayName": "Courier",
    "hidden": 0,
    "description": "Complete the mission on heroic!",
    "icon": "https://steamcdn-a.akamaihd.net/steamcommunity/public/images/apps/302670/91b2e804d9a5a97f7d1a7e8f84aae98dccd24dcc.jpg",
    "icongray": "https://steamcdn-a.akamaihd.net/steamcommunity/public/images/apps/302670/0290cbb54c0724b182005787d5604ce27d7ccf09.jpg"
  },
  {
    "name": "usa_04_easy",
    "defaultvalue": 0,
    "displayName": "Texas Tea",
    "hidden": 0,
    "description": "Complete the mission on easy!",
    "icon": "https://steamcdn-a.akamaihd.net/steamcommunity/public/images/apps/302670/09859a9728be81f677f4580bda6cc32a3f5ffe4c.jpg",
    "icongray": "https://steamcdn-a.akamaihd.net/steamcommunity/public/images/apps/302670/abf24e88420c9c2fd47a6ed610618d2af6f84678.jpg"
  },
  {
    "name": "usa_04_normal",
    "defaultvalue": 0,
    "displayName": "Texas Tea",
    "hidden": 0,
    "description": "Complete the mission on medium!",
    "icon": "https://steamcdn-a.akamaihd.net/steamcommunity/public/images/apps/302670/2ec7f6abda6c680f95a2cfeb8d4c80cbb2807d23.jpg",
    "icongray": "https://steamcdn-a.akamaihd.net/steamcommunity/public/images/apps/302670/abf24e88420c9c2fd47a6ed610618d2af6f84678.jpg"
  },
  {
    "name": "usa_04_hard",
    "defaultvalue": 0,
    "displayName": "Texas Tea",
    "hidden": 0,
    "description": "Complete the mission on hard!",
    "icon": "https://steamcdn-a.akamaihd.net/steamcommunity/public/images/apps/302670/bc91b7e604cb94bad9c3c9de4edf0ec83b51a8d9.jpg",
    "icongray": "https://steamcdn-a.akamaihd.net/steamcommunity/public/images/apps/302670/abf24e88420c9c2fd47a6ed610618d2af6f84678.jpg"
  },
  {
    "name": "usa_04_heroic",
    "defaultvalue": 0,
    "displayName": "Texas Tea",
    "hidden": 0,
    "description": "Complete the mission on heroic!",
    "icon": "https://steamcdn-a.akamaihd.net/steamcommunity/public/images/apps/302670/91b2e804d9a5a97f7d1a7e8f84aae98dccd24dcc.jpg",
    "icongray": "https://steamcdn-a.akamaihd.net/steamcommunity/public/images/apps/302670/abf24e88420c9c2fd47a6ed610618d2af6f84678.jpg"
  },
  {
    "name": "usa_05_easy",
    "defaultvalue": 0,
    "displayName": "Invasion",
    "hidden": 0,
    "description": "Complete the mission on easy!",
    "icon": "https://steamcdn-a.akamaihd.net/steamcommunity/public/images/apps/302670/09859a9728be81f677f4580bda6cc32a3f5ffe4c.jpg",
    "icongray": "https://steamcdn-a.akamaihd.net/steamcommunity/public/images/apps/302670/abf24e88420c9c2fd47a6ed610618d2af6f84678.jpg"
  },
  {
    "name": "usa_05_normal",
    "defaultvalue": 0,
    "displayName": "Invasion",
    "hidden": 0,
    "description": "Complete the mission on medium!",
    "icon": "https://steamcdn-a.akamaihd.net/steamcommunity/public/images/apps/302670/aa5967ed3f55a5c7fd90dcc074aad01370ef95e8.jpg",
    "icongray": "https://steamcdn-a.akamaihd.net/steamcommunity/public/images/apps/302670/abf24e88420c9c2fd47a6ed610618d2af6f84678.jpg"
  },
  {
    "name": "usa_05_hard",
    "defaultvalue": 0,
    "displayName": "Invasion",
    "hidden": 0,
    "description": "Complete the mission on hard!",
    "icon": "https://steamcdn-a.akamaihd.net/steamcommunity/public/images/apps/302670/bc91b7e604cb94bad9c3c9de4edf0ec83b51a8d9.jpg",
    "icongray": "https://steamcdn-a.akamaihd.net/steamcommunity/public/images/apps/302670/abf24e88420c9c2fd47a6ed610618d2af6f84678.jpg"
  },
  {
    "name": "usa_05_heroic",
    "defaultvalue": 0,
    "displayName": "Invasion",
    "hidden": 0,
    "description": "Complete the mission on heroic!",
    "icon": "https://steamcdn-a.akamaihd.net/steamcommunity/public/images/apps/302670/91b2e804d9a5a97f7d1a7e8f84aae98dccd24dcc.jpg",
    "icongray": "https://steamcdn-a.akamaihd.net/steamcommunity/public/images/apps/302670/abf24e88420c9c2fd47a6ed610618d2af6f84678.jpg"
  },
  {
    "name": "usa_06_easy",
    "defaultvalue": 0,
    "displayName": "Black Hawk Down",
    "hidden": 0,
    "description": "Complete the mission on easy!",
    "icon": "https://steamcdn-a.akamaihd.net/steamcommunity/public/images/apps/302670/b9d3898ef96cf83c60615da25b2533e1c9ca1bab.jpg",
    "icongray": "https://steamcdn-a.akamaihd.net/steamcommunity/public/images/apps/302670/0290cbb54c0724b182005787d5604ce27d7ccf09.jpg"
  },
  {
    "name": "usa_06_normal",
    "defaultvalue": 0,
    "displayName": "Black Hawk Down",
    "hidden": 0,
    "description": "Complete the mission on medium!",
    "icon": "https://steamcdn-a.akamaihd.net/steamcommunity/public/images/apps/302670/2ec7f6abda6c680f95a2cfeb8d4c80cbb2807d23.jpg",
    "icongray": "https://steamcdn-a.akamaihd.net/steamcommunity/public/images/apps/302670/abf24e88420c9c2fd47a6ed610618d2af6f84678.jpg"
  },
  {
    "name": "usa_06_hard",
    "defaultvalue": 0,
    "displayName": "Black Hawk Down",
    "hidden": 0,
    "description": "Complete the mission on hard!",
    "icon": "https://steamcdn-a.akamaihd.net/steamcommunity/public/images/apps/302670/bc91b7e604cb94bad9c3c9de4edf0ec83b51a8d9.jpg",
    "icongray": "https://steamcdn-a.akamaihd.net/steamcommunity/public/images/apps/302670/abf24e88420c9c2fd47a6ed610618d2af6f84678.jpg"
  },
  {
    "name": "usa_06_heroic",
    "defaultvalue": 0,
    "displayName": "Black Hawk Down",
    "hidden": 0,
    "description": "Complete the mission on heroic!",
    "icon": "https://steamcdn-a.akamaihd.net/steamcommunity/public/images/apps/302670/91b2e804d9a5a97f7d1a7e8f84aae98dccd24dcc.jpg",
    "icongray": "https://steamcdn-a.akamaihd.net/steamcommunity/public/images/apps/302670/0290cbb54c0724b182005787d5604ce27d7ccf09.jpg"
  },
  {
    "name": "usa_07_easy",
    "defaultvalue": 0,
    "displayName": "Rolling Thunder",
    "hidden": 0,
    "description": "Complete the mission on easy!",
    "icon": "https://steamcdn-a.akamaihd.net/steamcommunity/public/images/apps/302670/09859a9728be81f677f4580bda6cc32a3f5ffe4c.jpg",
    "icongray": "https://steamcdn-a.akamaihd.net/steamcommunity/public/images/apps/302670/abf24e88420c9c2fd47a6ed610618d2af6f84678.jpg"
  },
  {
    "name": "usa_07_normal",
    "defaultvalue": 0,
    "displayName": "Rolling Thunder",
    "hidden": 0,
    "description": "Complete the mission on medium!",
    "icon": "https://steamcdn-a.akamaihd.net/steamcommunity/public/images/apps/302670/2ec7f6abda6c680f95a2cfeb8d4c80cbb2807d23.jpg",
    "icongray": "https://steamcdn-a.akamaihd.net/steamcommunity/public/images/apps/302670/abf24e88420c9c2fd47a6ed610618d2af6f84678.jpg"
  },
  {
    "name": "usa_07_hard",
    "defaultvalue": 0,
    "displayName": "Rolling Thunder",
    "hidden": 0,
    "description": "Complete the mission on hard!",
    "icon": "https://steamcdn-a.akamaihd.net/steamcommunity/public/images/apps/302670/bc91b7e604cb94bad9c3c9de4edf0ec83b51a8d9.jpg",
    "icongray": "https://steamcdn-a.akamaihd.net/steamcommunity/public/images/apps/302670/0290cbb54c0724b182005787d5604ce27d7ccf09.jpg"
  },
  {
    "name": "usa_07_heroic",
    "defaultvalue": 0,
    "displayName": "Rolling Thunder",
    "hidden": 0,
    "description": "Complete the mission on heroic!",
    "icon": "https://steamcdn-a.akamaihd.net/steamcommunity/public/images/apps/302670/91b2e804d9a5a97f7d1a7e8f84aae98dccd24dcc.jpg",
    "icongray": "https://steamcdn-a.akamaihd.net/steamcommunity/public/images/apps/302670/abf24e88420c9c2fd47a6ed610618d2af6f84678.jpg"
  },
  {
    "name": "usa_08_easy",
    "defaultvalue": 0,
    "displayName": "Evacuation",
    "hidden": 0,
    "description": "Complete the mission on easy!",
    "icon": "https://steamcdn-a.akamaihd.net/steamcommunity/public/images/apps/302670/b9d3898ef96cf83c60615da25b2533e1c9ca1bab.jpg",
    "icongray": "https://steamcdn-a.akamaihd.net/steamcommunity/public/images/apps/302670/abf24e88420c9c2fd47a6ed610618d2af6f84678.jpg"
  },
  {
    "name": "usa_08_normal",
    "defaultvalue": 0,
    "displayName": "Evacuation",
    "hidden": 0,
    "description": "Complete the mission on medium!",
    "icon": "https://steamcdn-a.akamaihd.net/steamcommunity/public/images/apps/302670/aa5967ed3f55a5c7fd90dcc074aad01370ef95e8.jpg",
    "icongray": "https://steamcdn-a.akamaihd.net/steamcommunity/public/images/apps/302670/abf24e88420c9c2fd47a6ed610618d2af6f84678.jpg"
  },
  {
    "name": "usa_08_hard",
    "defaultvalue": 0,
    "displayName": "Evacuation",
    "hidden": 0,
    "description": "Complete the mission on hard!",
    "icon": "https://steamcdn-a.akamaihd.net/steamcommunity/public/images/apps/302670/bc91b7e604cb94bad9c3c9de4edf0ec83b51a8d9.jpg",
    "icongray": "https://steamcdn-a.akamaihd.net/steamcommunity/public/images/apps/302670/abf24e88420c9c2fd47a6ed610618d2af6f84678.jpg"
  },
  {
    "name": "usa_08_heroic",
    "defaultvalue": 0,
    "displayName": "Evacuation",
    "hidden": 0,
    "description": "Complete the mission on heroic!",
    "icon": "https://steamcdn-a.akamaihd.net/steamcommunity/public/images/apps/302670/91b2e804d9a5a97f7d1a7e8f84aae98dccd24dcc.jpg",
    "icongray": "https://steamcdn-a.akamaihd.net/steamcommunity/public/images/apps/302670/abf24e88420c9c2fd47a6ed610618d2af6f84678.jpg"
  },
  {
    "name": "usa_09_easy",
    "defaultvalue": 0,
    "displayName": "Wolf Cave",
    "hidden": 0,
    "description": "Complete the mission on easy!",
    "icon": "https://steamcdn-a.akamaihd.net/steamcommunity/public/images/apps/302670/09859a9728be81f677f4580bda6cc32a3f5ffe4c.jpg",
    "icongray": "https://steamcdn-a.akamaihd.net/steamcommunity/public/images/apps/302670/abf24e88420c9c2fd47a6ed610618d2af6f84678.jpg"
  },
  {
    "name": "usa_09_normal",
    "defaultvalue": 0,
    "displayName": "Wolf Cave",
    "hidden": 0,
    "description": "Complete the mission on medium!",
    "icon": "https://steamcdn-a.akamaihd.net/steamcommunity/public/images/apps/302670/aa5967ed3f55a5c7fd90dcc074aad01370ef95e8.jpg",
    "icongray": "https://steamcdn-a.akamaihd.net/steamcommunity/public/images/apps/302670/abf24e88420c9c2fd47a6ed610618d2af6f84678.jpg"
  },
  {
    "name": "usa_09_hard",
    "defaultvalue": 0,
    "displayName": "Wolf Cave",
    "hidden": 0,
    "description": "Complete the mission on hard!",
    "icon": "https://steamcdn-a.akamaihd.net/steamcommunity/public/images/apps/302670/bc91b7e604cb94bad9c3c9de4edf0ec83b51a8d9.jpg",
    "icongray": "https://steamcdn-a.akamaihd.net/steamcommunity/public/images/apps/302670/abf24e88420c9c2fd47a6ed610618d2af6f84678.jpg"
  },
  {
    "name": "usa_09_heroic",
    "defaultvalue": 0,
    "displayName": "Wolf Cave",
    "hidden": 0,
    "description": "Complete the mission on heroic!",
    "icon": "https://steamcdn-a.akamaihd.net/steamcommunity/public/images/apps/302670/91b2e804d9a5a97f7d1a7e8f84aae98dccd24dcc.jpg",
    "icongray": "https://steamcdn-a.akamaihd.net/steamcommunity/public/images/apps/302670/abf24e88420c9c2fd47a6ed610618d2af6f84678.jpg"
  },
  {
    "name": "usa_10_easy",
    "defaultvalue": 0,
    "displayName": "Payday",
    "hidden": 0,
    "description": "Complete the mission on easy!",
    "icon": "https://steamcdn-a.akamaihd.net/steamcommunity/public/images/apps/302670/09859a9728be81f677f4580bda6cc32a3f5ffe4c.jpg",
    "icongray": "https://steamcdn-a.akamaihd.net/steamcommunity/public/images/apps/302670/abf24e88420c9c2fd47a6ed610618d2af6f84678.jpg"
  },
  {
    "name": "usa_10_normal",
    "defaultvalue": 0,
    "displayName": "Payday",
    "hidden": 0,
    "description": "Complete the mission on medium!",
    "icon": "https://steamcdn-a.akamaihd.net/steamcommunity/public/images/apps/302670/aa5967ed3f55a5c7fd90dcc074aad01370ef95e8.jpg",
    "icongray": "https://steamcdn-a.akamaihd.net/steamcommunity/public/images/apps/302670/abf24e88420c9c2fd47a6ed610618d2af6f84678.jpg"
  },
  {
    "name": "usa_10_hard",
    "defaultvalue": 0,
    "displayName": "Payday",
    "hidden": 0,
    "description": "Complete the mission on hard!",
    "icon": "https://steamcdn-a.akamaihd.net/steamcommunity/public/images/apps/302670/bc91b7e604cb94bad9c3c9de4edf0ec83b51a8d9.jpg",
    "icongray": "https://steamcdn-a.akamaihd.net/steamcommunity/public/images/apps/302670/abf24e88420c9c2fd47a6ed610618d2af6f84678.jpg"
  },
  {
    "name": "usa_10_heroic",
    "defaultvalue": 0,
    "displayName": "Payday",
    "hidden": 0,
    "description": "Complete the mission on heroic!",
    "icon": "https://steamcdn-a.akamaihd.net/steamcommunity/public/images/apps/302670/91b2e804d9a5a97f7d1a7e8f84aae98dccd24dcc.jpg",
    "icongray": "https://steamcdn-a.akamaihd.net/steamcommunity/public/images/apps/302670/abf24e88420c9c2fd47a6ed610618d2af6f84678.jpg"
  },
  {
    "name": "grm_01_easy",
    "defaultvalue": 0,
    "displayName": "Homeland",
    "hidden": 0,
    "description": "Complete the mission on easy!",
    "icon": "https://steamcdn-a.akamaihd.net/steamcommunity/public/images/apps/302670/09859a9728be81f677f4580bda6cc32a3f5ffe4c.jpg",
    "icongray": "https://steamcdn-a.akamaihd.net/steamcommunity/public/images/apps/302670/abf24e88420c9c2fd47a6ed610618d2af6f84678.jpg"
  },
  {
    "name": "grm_01_normal",
    "defaultvalue": 0,
    "displayName": "Homeland",
    "hidden": 0,
    "description": "Complete the mission on medium!",
    "icon": "https://steamcdn-a.akamaihd.net/steamcommunity/public/images/apps/302670/aa5967ed3f55a5c7fd90dcc074aad01370ef95e8.jpg",
    "icongray": "https://steamcdn-a.akamaihd.net/steamcommunity/public/images/apps/302670/abf24e88420c9c2fd47a6ed610618d2af6f84678.jpg"
  },
  {
    "name": "grm_01_hard",
    "defaultvalue": 0,
    "displayName": "Homeland",
    "hidden": 0,
    "description": "Complete the mission on hard!",
    "icon": "https://steamcdn-a.akamaihd.net/steamcommunity/public/images/apps/302670/bc91b7e604cb94bad9c3c9de4edf0ec83b51a8d9.jpg",
    "icongray": "https://steamcdn-a.akamaihd.net/steamcommunity/public/images/apps/302670/0290cbb54c0724b182005787d5604ce27d7ccf09.jpg"
  },
  {
    "name": "grm_01_heroic",
    "defaultvalue": 0,
    "displayName": "Homeland",
    "hidden": 0,
    "description": "Complete the mission on heroic!",
    "icon": "https://steamcdn-a.akamaihd.net/steamcommunity/public/images/apps/302670/91b2e804d9a5a97f7d1a7e8f84aae98dccd24dcc.jpg",
    "icongray": "https://steamcdn-a.akamaihd.net/steamcommunity/public/images/apps/302670/abf24e88420c9c2fd47a6ed610618d2af6f84678.jpg"
  },
  {
    "name": "grm_02_easy",
    "defaultvalue": 0,
    "displayName": "Defiant Strike",
    "hidden": 0,
    "description": "Complete the mission on easy!",
    "icon": "https://steamcdn-a.akamaihd.net/steamcommunity/public/images/apps/302670/09859a9728be81f677f4580bda6cc32a3f5ffe4c.jpg",
    "icongray": "https://steamcdn-a.akamaihd.net/steamcommunity/public/images/apps/302670/abf24e88420c9c2fd47a6ed610618d2af6f84678.jpg"
  },
  {
    "name": "grm_02_normal",
    "defaultvalue": 0,
    "displayName": "Defiant Strike",
    "hidden": 0,
    "description": "Complete the mission on medium!",
    "icon": "https://steamcdn-a.akamaihd.net/steamcommunity/public/images/apps/302670/aa5967ed3f55a5c7fd90dcc074aad01370ef95e8.jpg",
    "icongray": "https://steamcdn-a.akamaihd.net/steamcommunity/public/images/apps/302670/abf24e88420c9c2fd47a6ed610618d2af6f84678.jpg"
  },
  {
    "name": "grm_02_hard",
    "defaultvalue": 0,
    "displayName": "Defiant Strike",
    "hidden": 0,
    "description": "Complete the mission on hard!",
    "icon": "https://steamcdn-a.akamaihd.net/steamcommunity/public/images/apps/302670/bc91b7e604cb94bad9c3c9de4edf0ec83b51a8d9.jpg",
    "icongray": "https://steamcdn-a.akamaihd.net/steamcommunity/public/images/apps/302670/abf24e88420c9c2fd47a6ed610618d2af6f84678.jpg"
  },
  {
    "name": "grm_02_heroic",
    "defaultvalue": 0,
    "displayName": "Defiant Strike",
    "hidden": 0,
    "description": "Complete the mission on heroic!",
    "icon": "https://steamcdn-a.akamaihd.net/steamcommunity/public/images/apps/302670/91b2e804d9a5a97f7d1a7e8f84aae98dccd24dcc.jpg",
    "icongray": "https://steamcdn-a.akamaihd.net/steamcommunity/public/images/apps/302670/abf24e88420c9c2fd47a6ed610618d2af6f84678.jpg"
  },
  {
    "name": "grm_03_easy",
    "defaultvalue": 0,
    "displayName": "Revolution",
    "hidden": 0,
    "description": "Complete the mission on easy!",
    "icon": "https://steamcdn-a.akamaihd.net/steamcommunity/public/images/apps/302670/09859a9728be81f677f4580bda6cc32a3f5ffe4c.jpg",
    "icongray": "https://steamcdn-a.akamaihd.net/steamcommunity/public/images/apps/302670/abf24e88420c9c2fd47a6ed610618d2af6f84678.jpg"
  },
  {
    "name": "grm_03_normal",
    "defaultvalue": 0,
    "displayName": "Revolution",
    "hidden": 0,
    "description": "Complete the mission on medium!",
    "icon": "https://steamcdn-a.akamaihd.net/steamcommunity/public/images/apps/302670/aa5967ed3f55a5c7fd90dcc074aad01370ef95e8.jpg",
    "icongray": "https://steamcdn-a.akamaihd.net/steamcommunity/public/images/apps/302670/0290cbb54c0724b182005787d5604ce27d7ccf09.jpg"
  },
  {
    "name": "grm_03_hard",
    "defaultvalue": 0,
    "displayName": "Revolution",
    "hidden": 0,
    "description": "Complete the mission on hard!",
    "icon": "https://steamcdn-a.akamaihd.net/steamcommunity/public/images/apps/302670/bc91b7e604cb94bad9c3c9de4edf0ec83b51a8d9.jpg",
    "icongray": "https://steamcdn-a.akamaihd.net/steamcommunity/public/images/apps/302670/abf24e88420c9c2fd47a6ed610618d2af6f84678.jpg"
  },
  {
    "name": "grm_03_heroic",
    "defaultvalue": 0,
    "displayName": "Revolution",
    "hidden": 0,
    "description": "Complete the mission on heroic!",
    "icon": "https://steamcdn-a.akamaihd.net/steamcommunity/public/images/apps/302670/91b2e804d9a5a97f7d1a7e8f84aae98dccd24dcc.jpg",
    "icongray": "https://steamcdn-a.akamaihd.net/steamcommunity/public/images/apps/302670/abf24e88420c9c2fd47a6ed610618d2af6f84678.jpg"
  },
  {
    "name": "grm_04_easy",
    "defaultvalue": 0,
    "displayName": "Leader's Tears",
    "hidden": 0,
    "description": "Complete the mission on easy!",
    "icon": "https://steamcdn-a.akamaihd.net/steamcommunity/public/images/apps/302670/09859a9728be81f677f4580bda6cc32a3f5ffe4c.jpg",
    "icongray": "https://steamcdn-a.akamaihd.net/steamcommunity/public/images/apps/302670/abf24e88420c9c2fd47a6ed610618d2af6f84678.jpg"
  },
  {
    "name": "grm_04_normal",
    "defaultvalue": 0,
    "displayName": "Leader's Tears",
    "hidden": 0,
    "description": "Complete the mission on medium!",
    "icon": "https://steamcdn-a.akamaihd.net/steamcommunity/public/images/apps/302670/aa5967ed3f55a5c7fd90dcc074aad01370ef95e8.jpg",
    "icongray": "https://steamcdn-a.akamaihd.net/steamcommunity/public/images/apps/302670/0290cbb54c0724b182005787d5604ce27d7ccf09.jpg"
  },
  {
    "name": "grm_04_hard",
    "defaultvalue": 0,
    "displayName": "Leader's Tears",
    "hidden": 0,
    "description": "Complete the mission on hard!",
    "icon": "https://steamcdn-a.akamaihd.net/steamcommunity/public/images/apps/302670/bc91b7e604cb94bad9c3c9de4edf0ec83b51a8d9.jpg",
    "icongray": "https://steamcdn-a.akamaihd.net/steamcommunity/public/images/apps/302670/abf24e88420c9c2fd47a6ed610618d2af6f84678.jpg"
  },
  {
    "name": "grm_04_heroic",
    "defaultvalue": 0,
    "displayName": "Leader's Tears",
    "hidden": 0,
    "description": "Complete the mission on heroic!",
    "icon": "https://steamcdn-a.akamaihd.net/steamcommunity/public/images/apps/302670/7fd986c8144836b74d37170cc1f8b8b110df7a0e.jpg",
    "icongray": "https://steamcdn-a.akamaihd.net/steamcommunity/public/images/apps/302670/abf24e88420c9c2fd47a6ed610618d2af6f84678.jpg"
  },
  {
    "name": "grm_05_easy",
    "defaultvalue": 0,
    "displayName": "Surrender",
    "hidden": 0,
    "description": "Complete the mission on easy!",
    "icon": "https://steamcdn-a.akamaihd.net/steamcommunity/public/images/apps/302670/09859a9728be81f677f4580bda6cc32a3f5ffe4c.jpg",
    "icongray": "https://steamcdn-a.akamaihd.net/steamcommunity/public/images/apps/302670/abf24e88420c9c2fd47a6ed610618d2af6f84678.jpg"
  },
  {
    "name": "grm_05_normal",
    "defaultvalue": 0,
    "displayName": "Surrender",
    "hidden": 0,
    "description": "Complete the mission on medium!",
    "icon": "https://steamcdn-a.akamaihd.net/steamcommunity/public/images/apps/302670/aa5967ed3f55a5c7fd90dcc074aad01370ef95e8.jpg",
    "icongray": "https://steamcdn-a.akamaihd.net/steamcommunity/public/images/apps/302670/abf24e88420c9c2fd47a6ed610618d2af6f84678.jpg"
  },
  {
    "name": "grm_05_hard",
    "defaultvalue": 0,
    "displayName": "Surrender",
    "hidden": 0,
    "description": "Complete the mission on hard!",
    "icon": "https://steamcdn-a.akamaihd.net/steamcommunity/public/images/apps/302670/bc91b7e604cb94bad9c3c9de4edf0ec83b51a8d9.jpg",
    "icongray": "https://steamcdn-a.akamaihd.net/steamcommunity/public/images/apps/302670/abf24e88420c9c2fd47a6ed610618d2af6f84678.jpg"
  },
  {
    "name": "grm_05_heroic",
    "defaultvalue": 0,
    "displayName": "Surrender",
    "hidden": 0,
    "description": "Complete the mission on heroic!",
    "icon": "https://steamcdn-a.akamaihd.net/steamcommunity/public/images/apps/302670/91b2e804d9a5a97f7d1a7e8f84aae98dccd24dcc.jpg",
    "icongray": "https://steamcdn-a.akamaihd.net/steamcommunity/public/images/apps/302670/abf24e88420c9c2fd47a6ed610618d2af6f84678.jpg"
  },
  {
    "name": "grm_06_easy",
    "defaultvalue": 0,
    "displayName": "Bloodthirst",
    "hidden": 0,
    "description": "Complete the mission on easy!",
    "icon": "https://steamcdn-a.akamaihd.net/steamcommunity/public/images/apps/302670/b9d3898ef96cf83c60615da25b2533e1c9ca1bab.jpg",
    "icongray": "https://steamcdn-a.akamaihd.net/steamcommunity/public/images/apps/302670/abf24e88420c9c2fd47a6ed610618d2af6f84678.jpg"
  },
  {
    "name": "grm_06_normal",
    "defaultvalue": 0,
    "displayName": "Bloodthirst",
    "hidden": 0,
    "description": "Complete the mission on normal!",
    "icon": "https://steamcdn-a.akamaihd.net/steamcommunity/public/images/apps/302670/aa5967ed3f55a5c7fd90dcc074aad01370ef95e8.jpg",
    "icongray": "https://steamcdn-a.akamaihd.net/steamcommunity/public/images/apps/302670/abf24e88420c9c2fd47a6ed610618d2af6f84678.jpg"
  },
  {
    "name": "grm_06_hard",
    "defaultvalue": 0,
    "displayName": "Bloodthirst",
    "hidden": 0,
    "description": "Complete the mission on hard!",
    "icon": "https://steamcdn-a.akamaihd.net/steamcommunity/public/images/apps/302670/f2c5b89126ef3dfa589c539dc4f0398be6b71eb7.jpg",
    "icongray": "https://steamcdn-a.akamaihd.net/steamcommunity/public/images/apps/302670/abf24e88420c9c2fd47a6ed610618d2af6f84678.jpg"
  },
  {
    "name": "grm_06_heroic",
    "defaultvalue": 0,
    "displayName": "Bloodthirst",
    "hidden": 0,
    "description": "Complete the mission on heroic!",
    "icon": "https://steamcdn-a.akamaihd.net/steamcommunity/public/images/apps/302670/7fd986c8144836b74d37170cc1f8b8b110df7a0e.jpg",
    "icongray": "https://steamcdn-a.akamaihd.net/steamcommunity/public/images/apps/302670/abf24e88420c9c2fd47a6ed610618d2af6f84678.jpg"
  },
  {
    "name": "grm_07_easy",
    "defaultvalue": 0,
    "displayName": "Hawkeye",
    "hidden": 0,
    "description": "Complete the mission on easy!",
    "icon": "https://steamcdn-a.akamaihd.net/steamcommunity/public/images/apps/302670/b9d3898ef96cf83c60615da25b2533e1c9ca1bab.jpg",
    "icongray": "https://steamcdn-a.akamaihd.net/steamcommunity/public/images/apps/302670/abf24e88420c9c2fd47a6ed610618d2af6f84678.jpg"
  },
  {
    "name": "grm_07_normal",
    "defaultvalue": 0,
    "displayName": "Hawkeye",
    "hidden": 0,
    "description": "Complete the mission on normal!",
    "icon": "https://steamcdn-a.akamaihd.net/steamcommunity/public/images/apps/302670/2ec7f6abda6c680f95a2cfeb8d4c80cbb2807d23.jpg",
    "icongray": "https://steamcdn-a.akamaihd.net/steamcommunity/public/images/apps/302670/abf24e88420c9c2fd47a6ed610618d2af6f84678.jpg"
  },
  {
    "name": "grm_07_hard",
    "defaultvalue": 0,
    "displayName": "Hawkeye",
    "hidden": 0,
    "description": "Complete the mission on hard!",
    "icon": "https://steamcdn-a.akamaihd.net/steamcommunity/public/images/apps/302670/bc91b7e604cb94bad9c3c9de4edf0ec83b51a8d9.jpg",
    "icongray": "https://steamcdn-a.akamaihd.net/steamcommunity/public/images/apps/302670/abf24e88420c9c2fd47a6ed610618d2af6f84678.jpg"
  },
  {
    "name": "grm_07_heroic",
    "defaultvalue": 0,
    "displayName": "Hawkeye",
    "hidden": 0,
    "description": "Complete the mission on heroic!",
    "icon": "https://steamcdn-a.akamaihd.net/steamcommunity/public/images/apps/302670/91b2e804d9a5a97f7d1a7e8f84aae98dccd24dcc.jpg",
    "icongray": "https://steamcdn-a.akamaihd.net/steamcommunity/public/images/apps/302670/abf24e88420c9c2fd47a6ed610618d2af6f84678.jpg"
  },
  {
    "name": "grm_08_easy",
    "defaultvalue": 0,
    "displayName": "Infidels Coffin",
    "hidden": 0,
    "description": "Complete the mission on easy!",
    "icon": "https://steamcdn-a.akamaihd.net/steamcommunity/public/images/apps/302670/09859a9728be81f677f4580bda6cc32a3f5ffe4c.jpg",
    "icongray": "https://steamcdn-a.akamaihd.net/steamcommunity/public/images/apps/302670/abf24e88420c9c2fd47a6ed610618d2af6f84678.jpg"
  },
  {
    "name": "grm_08_normal",
    "defaultvalue": 0,
    "displayName": "Infidels Coffin",
    "hidden": 0,
    "description": "Complete the mission on normal!",
    "icon": "https://steamcdn-a.akamaihd.net/steamcommunity/public/images/apps/302670/aa5967ed3f55a5c7fd90dcc074aad01370ef95e8.jpg",
    "icongray": "https://steamcdn-a.akamaihd.net/steamcommunity/public/images/apps/302670/abf24e88420c9c2fd47a6ed610618d2af6f84678.jpg"
  },
  {
    "name": "grm_08_hard",
    "defaultvalue": 0,
    "displayName": "Infidels Coffin",
    "hidden": 0,
    "description": "Complete the mission on hard!",
    "icon": "https://steamcdn-a.akamaihd.net/steamcommunity/public/images/apps/302670/bc91b7e604cb94bad9c3c9de4edf0ec83b51a8d9.jpg",
    "icongray": "https://steamcdn-a.akamaihd.net/steamcommunity/public/images/apps/302670/0290cbb54c0724b182005787d5604ce27d7ccf09.jpg"
  },
  {
    "name": "grm_08_heroic",
    "defaultvalue": 0,
    "displayName": "Infidels Coffin",
    "hidden": 0,
    "description": "Complete the mission on heroic!",
    "icon": "https://steamcdn-a.akamaihd.net/steamcommunity/public/images/apps/302670/91b2e804d9a5a97f7d1a7e8f84aae98dccd24dcc.jpg",
    "icongray": "https://steamcdn-a.akamaihd.net/steamcommunity/public/images/apps/302670/abf24e88420c9c2fd47a6ed610618d2af6f84678.jpg"
  },
  {
    "name": "grm_09_easy",
    "defaultvalue": 0,
    "displayName": "Battle of Alberes",
    "hidden": 0,
    "description": "Complete the mission on easy!",
    "icon": "https://steamcdn-a.akamaihd.net/steamcommunity/public/images/apps/302670/09859a9728be81f677f4580bda6cc32a3f5ffe4c.jpg",
    "icongray": "https://steamcdn-a.akamaihd.net/steamcommunity/public/images/apps/302670/abf24e88420c9c2fd47a6ed610618d2af6f84678.jpg"
  },
  {
    "name": "grm_09_normal",
    "defaultvalue": 0,
    "displayName": "Battle of Alberes",
    "hidden": 0,
    "description": "Complete the mission on normal!",
    "icon": "https://steamcdn-a.akamaihd.net/steamcommunity/public/images/apps/302670/aa5967ed3f55a5c7fd90dcc074aad01370ef95e8.jpg",
    "icongray": "https://steamcdn-a.akamaihd.net/steamcommunity/public/images/apps/302670/abf24e88420c9c2fd47a6ed610618d2af6f84678.jpg"
  },
  {
    "name": "grm_09_hard",
    "defaultvalue": 0,
    "displayName": "Battle of Alberes",
    "hidden": 0,
    "description": "Complete the mission on hard!",
    "icon": "https://steamcdn-a.akamaihd.net/steamcommunity/public/images/apps/302670/bc91b7e604cb94bad9c3c9de4edf0ec83b51a8d9.jpg",
    "icongray": "https://steamcdn-a.akamaihd.net/steamcommunity/public/images/apps/302670/abf24e88420c9c2fd47a6ed610618d2af6f84678.jpg"
  },
  {
    "name": "grm_09_heroic",
    "defaultvalue": 0,
    "displayName": "Battle of Alberes",
    "hidden": 0,
    "description": "Complete the mission on heroic!",
    "icon": "https://steamcdn-a.akamaihd.net/steamcommunity/public/images/apps/302670/7fd986c8144836b74d37170cc1f8b8b110df7a0e.jpg",
    "icongray": "https://steamcdn-a.akamaihd.net/steamcommunity/public/images/apps/302670/0290cbb54c0724b182005787d5604ce27d7ccf09.jpg"
  },
  {
    "name": "grm_10_easy",
    "defaultvalue": 0,
    "displayName": "Rope for Tyrants",
    "hidden": 0,
    "description": "Complete the mission on easy!",
    "icon": "https://steamcdn-a.akamaihd.net/steamcommunity/public/images/apps/302670/09859a9728be81f677f4580bda6cc32a3f5ffe4c.jpg",
    "icongray": "https://steamcdn-a.akamaihd.net/steamcommunity/public/images/apps/302670/abf24e88420c9c2fd47a6ed610618d2af6f84678.jpg"
  },
  {
    "name": "grm_10_normal",
    "defaultvalue": 0,
    "displayName": "Rope for Tyrants",
    "hidden": 0,
    "description": "Complete the mission on medium!",
    "icon": "https://steamcdn-a.akamaihd.net/steamcommunity/public/images/apps/302670/aa5967ed3f55a5c7fd90dcc074aad01370ef95e8.jpg",
    "icongray": "https://steamcdn-a.akamaihd.net/steamcommunity/public/images/apps/302670/abf24e88420c9c2fd47a6ed610618d2af6f84678.jpg"
  },
  {
    "name": "grm_10_hard",
    "defaultvalue": 0,
    "displayName": "Rope for Tyrants",
    "hidden": 0,
    "description": "Complete the mission on hard!",
    "icon": "https://steamcdn-a.akamaihd.net/steamcommunity/public/images/apps/302670/bc91b7e604cb94bad9c3c9de4edf0ec83b51a8d9.jpg",
    "icongray": "https://steamcdn-a.akamaihd.net/steamcommunity/public/images/apps/302670/abf24e88420c9c2fd47a6ed610618d2af6f84678.jpg"
  },
  {
    "name": "grm_10_heroic",
    "defaultvalue": 0,
    "displayName": "Rope for Tyrants",
    "hidden": 0,
    "description": "Complete the mission on heroic!",
    "icon": "https://steamcdn-a.akamaihd.net/steamcommunity/public/images/apps/302670/91b2e804d9a5a97f7d1a7e8f84aae98dccd24dcc.jpg",
    "icongray": "https://steamcdn-a.akamaihd.net/steamcommunity/public/images/apps/302670/abf24e88420c9c2fd47a6ed610618d2af6f84678.jpg"
  },
  {
    "name": "ger_01_easy",
    "defaultvalue": 0,
    "displayName": "An Airport Too Far",
    "hidden": 0,
    "description": "Complete the mission on easy!",
    "icon": "https://steamcdn-a.akamaihd.net/steamcommunity/public/images/apps/302670/09859a9728be81f677f4580bda6cc32a3f5ffe4c.jpg",
    "icongray": "https://steamcdn-a.akamaihd.net/steamcommunity/public/images/apps/302670/abf24e88420c9c2fd47a6ed610618d2af6f84678.jpg"
  },
  {
    "name": "ger_01_normal",
    "defaultvalue": 0,
    "displayName": "An Airport Too Far",
    "hidden": 0,
    "description": "Complete the mission on normal!",
    "icon": "https://steamcdn-a.akamaihd.net/steamcommunity/public/images/apps/302670/aa5967ed3f55a5c7fd90dcc074aad01370ef95e8.jpg",
    "icongray": "https://steamcdn-a.akamaihd.net/steamcommunity/public/images/apps/302670/abf24e88420c9c2fd47a6ed610618d2af6f84678.jpg"
  },
  {
    "name": "ger_01_hard",
    "defaultvalue": 0,
    "displayName": "An Airport Too Far",
    "hidden": 0,
    "description": "Complete the mission on hard!",
    "icon": "https://steamcdn-a.akamaihd.net/steamcommunity/public/images/apps/302670/bc91b7e604cb94bad9c3c9de4edf0ec83b51a8d9.jpg",
    "icongray": "https://steamcdn-a.akamaihd.net/steamcommunity/public/images/apps/302670/abf24e88420c9c2fd47a6ed610618d2af6f84678.jpg"
  },
  {
    "name": "ger_01_heroic",
    "defaultvalue": 0,
    "displayName": "An Airport Too Far",
    "hidden": 0,
    "description": "Complete the mission on heroic!",
    "icon": "https://steamcdn-a.akamaihd.net/steamcommunity/public/images/apps/302670/91b2e804d9a5a97f7d1a7e8f84aae98dccd24dcc.jpg",
    "icongray": "https://steamcdn-a.akamaihd.net/steamcommunity/public/images/apps/302670/abf24e88420c9c2fd47a6ed610618d2af6f84678.jpg"
  },
  {
    "name": "ger_02_easy",
    "defaultvalue": 0,
    "displayName": "Tight Squeeze",
    "hidden": 0,
    "description": "Complete the mission on easy!",
    "icon": "https://steamcdn-a.akamaihd.net/steamcommunity/public/images/apps/302670/09859a9728be81f677f4580bda6cc32a3f5ffe4c.jpg",
    "icongray": "https://steamcdn-a.akamaihd.net/steamcommunity/public/images/apps/302670/abf24e88420c9c2fd47a6ed610618d2af6f84678.jpg"
  },
  {
    "name": "ger_02_normal",
    "defaultvalue": 0,
    "displayName": "Tight Squeeze",
    "hidden": 0,
    "description": "Complete the mission on normal!",
    "icon": "https://steamcdn-a.akamaihd.net/steamcommunity/public/images/apps/302670/aa5967ed3f55a5c7fd90dcc074aad01370ef95e8.jpg",
    "icongray": "https://steamcdn-a.akamaihd.net/steamcommunity/public/images/apps/302670/abf24e88420c9c2fd47a6ed610618d2af6f84678.jpg"
  },
  {
    "name": "ger_02_hard",
    "defaultvalue": 0,
    "displayName": "Tight Squeeze",
    "hidden": 0,
    "description": "Complete the mission on hard!",
    "icon": "https://steamcdn-a.akamaihd.net/steamcommunity/public/images/apps/302670/bc91b7e604cb94bad9c3c9de4edf0ec83b51a8d9.jpg",
    "icongray": "https://steamcdn-a.akamaihd.net/steamcommunity/public/images/apps/302670/abf24e88420c9c2fd47a6ed610618d2af6f84678.jpg"
  },
  {
    "name": "ger_02_heroic",
    "defaultvalue": 0,
    "displayName": "Tight Squeeze",
    "hidden": 0,
    "description": "Complete the mission on heroic!",
    "icon": "https://steamcdn-a.akamaihd.net/steamcommunity/public/images/apps/302670/91b2e804d9a5a97f7d1a7e8f84aae98dccd24dcc.jpg",
    "icongray": "https://steamcdn-a.akamaihd.net/steamcommunity/public/images/apps/302670/abf24e88420c9c2fd47a6ed610618d2af6f84678.jpg"
  },
  {
    "name": "ger_03_easy",
    "defaultvalue": 0,
    "displayName": "False Intel",
    "hidden": 0,
    "description": "Complete the mission on easy!",
    "icon": "https://steamcdn-a.akamaihd.net/steamcommunity/public/images/apps/302670/09859a9728be81f677f4580bda6cc32a3f5ffe4c.jpg",
    "icongray": "https://steamcdn-a.akamaihd.net/steamcommunity/public/images/apps/302670/abf24e88420c9c2fd47a6ed610618d2af6f84678.jpg"
  },
  {
    "name": "ger_03_normal",
    "defaultvalue": 0,
    "displayName": "False Intel",
    "hidden": 0,
    "description": "Complete the mission on normal!",
    "icon": "https://steamcdn-a.akamaihd.net/steamcommunity/public/images/apps/302670/aa5967ed3f55a5c7fd90dcc074aad01370ef95e8.jpg",
    "icongray": "https://steamcdn-a.akamaihd.net/steamcommunity/public/images/apps/302670/abf24e88420c9c2fd47a6ed610618d2af6f84678.jpg"
  },
  {
    "name": "ger_03_hard",
    "defaultvalue": 0,
    "displayName": "False Intel",
    "hidden": 0,
    "description": "Complete the mission on hard!",
    "icon": "https://steamcdn-a.akamaihd.net/steamcommunity/public/images/apps/302670/bc91b7e604cb94bad9c3c9de4edf0ec83b51a8d9.jpg",
    "icongray": "https://steamcdn-a.akamaihd.net/steamcommunity/public/images/apps/302670/abf24e88420c9c2fd47a6ed610618d2af6f84678.jpg"
  },
  {
    "name": "ger_03_heroic",
    "defaultvalue": 0,
    "displayName": "False Intel",
    "hidden": 0,
    "description": "Complete the mission on heroic!",
    "icon": "https://steamcdn-a.akamaihd.net/steamcommunity/public/images/apps/302670/91b2e804d9a5a97f7d1a7e8f84aae98dccd24dcc.jpg",
    "icongray": "https://steamcdn-a.akamaihd.net/steamcommunity/public/images/apps/302670/abf24e88420c9c2fd47a6ed610618d2af6f84678.jpg"
  },
  {
    "name": "ger_04_easy",
    "defaultvalue": 0,
    "displayName": "Dead Spot",
    "hidden": 0,
    "description": "Complete the mission on easy!",
    "icon": "https://steamcdn-a.akamaihd.net/steamcommunity/public/images/apps/302670/09859a9728be81f677f4580bda6cc32a3f5ffe4c.jpg",
    "icongray": "https://steamcdn-a.akamaihd.net/steamcommunity/public/images/apps/302670/abf24e88420c9c2fd47a6ed610618d2af6f84678.jpg"
  },
  {
    "name": "ger_04_normal",
    "defaultvalue": 0,
    "displayName": "Dead Spot",
    "hidden": 0,
    "description": "Complete the mission on normal!",
    "icon": "https://steamcdn-a.akamaihd.net/steamcommunity/public/images/apps/302670/aa5967ed3f55a5c7fd90dcc074aad01370ef95e8.jpg",
    "icongray": "https://steamcdn-a.akamaihd.net/steamcommunity/public/images/apps/302670/abf24e88420c9c2fd47a6ed610618d2af6f84678.jpg"
  },
  {
    "name": "ger_04_hard",
    "defaultvalue": 0,
    "displayName": "Dead Spot",
    "hidden": 0,
    "description": "Complete the mission on hard!",
    "icon": "https://steamcdn-a.akamaihd.net/steamcommunity/public/images/apps/302670/bc91b7e604cb94bad9c3c9de4edf0ec83b51a8d9.jpg",
    "icongray": "https://steamcdn-a.akamaihd.net/steamcommunity/public/images/apps/302670/abf24e88420c9c2fd47a6ed610618d2af6f84678.jpg"
  },
  {
    "name": "ger_04_heroic",
    "defaultvalue": 0,
    "displayName": "Dead Spot",
    "hidden": 0,
    "description": "Complete the mission on heroic!",
    "icon": "https://steamcdn-a.akamaihd.net/steamcommunity/public/images/apps/302670/91b2e804d9a5a97f7d1a7e8f84aae98dccd24dcc.jpg",
    "icongray": "https://steamcdn-a.akamaihd.net/steamcommunity/public/images/apps/302670/abf24e88420c9c2fd47a6ed610618d2af6f84678.jpg"
  },
  {
    "name": "ger_05_easy",
    "defaultvalue": 0,
    "displayName": "Bolted Horse",
    "hidden": 0,
    "description": "Complete the mission on easy!",
    "icon": "https://steamcdn-a.akamaihd.net/steamcommunity/public/images/apps/302670/09859a9728be81f677f4580bda6cc32a3f5ffe4c.jpg",
    "icongray": "https://steamcdn-a.akamaihd.net/steamcommunity/public/images/apps/302670/abf24e88420c9c2fd47a6ed610618d2af6f84678.jpg"
  },
  {
    "name": "ger_05_normal",
    "defaultvalue": 0,
    "displayName": "Bolted Horse",
    "hidden": 0,
    "description": "Complete the mission on normal!",
    "icon": "https://steamcdn-a.akamaihd.net/steamcommunity/public/images/apps/302670/aa5967ed3f55a5c7fd90dcc074aad01370ef95e8.jpg",
    "icongray": "https://steamcdn-a.akamaihd.net/steamcommunity/public/images/apps/302670/abf24e88420c9c2fd47a6ed610618d2af6f84678.jpg"
  },
  {
    "name": "ger_05_hard",
    "defaultvalue": 0,
    "displayName": "Bolted Horse",
    "hidden": 0,
    "description": "Complete the mission on hard!",
    "icon": "https://steamcdn-a.akamaihd.net/steamcommunity/public/images/apps/302670/bc91b7e604cb94bad9c3c9de4edf0ec83b51a8d9.jpg",
    "icongray": "https://steamcdn-a.akamaihd.net/steamcommunity/public/images/apps/302670/abf24e88420c9c2fd47a6ed610618d2af6f84678.jpg"
  },
  {
    "name": "ger_05_heroic",
    "defaultvalue": 0,
    "displayName": "Bolted Horse",
    "hidden": 0,
    "description": "Complete the mission on heroic!",
    "icon": "https://steamcdn-a.akamaihd.net/steamcommunity/public/images/apps/302670/91b2e804d9a5a97f7d1a7e8f84aae98dccd24dcc.jpg",
    "icongray": "https://steamcdn-a.akamaihd.net/steamcommunity/public/images/apps/302670/abf24e88420c9c2fd47a6ed610618d2af6f84678.jpg"
  },
  {
    "name": "ger_06_easy",
    "defaultvalue": 0,
    "displayName": "Preemptive Strike",
    "hidden": 0,
    "description": "Complete the mission on easy!",
    "icon": "https://steamcdn-a.akamaihd.net/steamcommunity/public/images/apps/302670/09859a9728be81f677f4580bda6cc32a3f5ffe4c.jpg",
    "icongray": "https://steamcdn-a.akamaihd.net/steamcommunity/public/images/apps/302670/abf24e88420c9c2fd47a6ed610618d2af6f84678.jpg"
  },
  {
    "name": "ger_06_normal",
    "defaultvalue": 0,
    "displayName": "Preemptive Strike",
    "hidden": 0,
    "description": "Complete the mission on normal!",
    "icon": "https://steamcdn-a.akamaihd.net/steamcommunity/public/images/apps/302670/aa5967ed3f55a5c7fd90dcc074aad01370ef95e8.jpg",
    "icongray": "https://steamcdn-a.akamaihd.net/steamcommunity/public/images/apps/302670/abf24e88420c9c2fd47a6ed610618d2af6f84678.jpg"
  },
  {
    "name": "ger_06_hard",
    "defaultvalue": 0,
    "displayName": "Preemptive Strike",
    "hidden": 0,
    "description": "Complete the mission on hard!",
    "icon": "https://steamcdn-a.akamaihd.net/steamcommunity/public/images/apps/302670/bc91b7e604cb94bad9c3c9de4edf0ec83b51a8d9.jpg",
    "icongray": "https://steamcdn-a.akamaihd.net/steamcommunity/public/images/apps/302670/abf24e88420c9c2fd47a6ed610618d2af6f84678.jpg"
  },
  {
    "name": "ger_06_heroic",
    "defaultvalue": 0,
    "displayName": "Preemptive Strike",
    "hidden": 0,
    "description": "Complete the mission on heroic!",
    "icon": "https://steamcdn-a.akamaihd.net/steamcommunity/public/images/apps/302670/91b2e804d9a5a97f7d1a7e8f84aae98dccd24dcc.jpg",
    "icongray": "https://steamcdn-a.akamaihd.net/steamcommunity/public/images/apps/302670/abf24e88420c9c2fd47a6ed610618d2af6f84678.jpg"
  },
  {
    "name": "ger_07_easy",
    "defaultvalue": 0,
    "displayName": "Block by Block",
    "hidden": 0,
    "description": "Complete the mission on easy!",
    "icon": "https://steamcdn-a.akamaihd.net/steamcommunity/public/images/apps/302670/09859a9728be81f677f4580bda6cc32a3f5ffe4c.jpg",
    "icongray": "https://steamcdn-a.akamaihd.net/steamcommunity/public/images/apps/302670/abf24e88420c9c2fd47a6ed610618d2af6f84678.jpg"
  },
  {
    "name": "ger_07_normal",
    "defaultvalue": 0,
    "displayName": "Block by Block",
    "hidden": 0,
    "description": "Complete the mission on normal!",
    "icon": "https://steamcdn-a.akamaihd.net/steamcommunity/public/images/apps/302670/aa5967ed3f55a5c7fd90dcc074aad01370ef95e8.jpg",
    "icongray": "https://steamcdn-a.akamaihd.net/steamcommunity/public/images/apps/302670/abf24e88420c9c2fd47a6ed610618d2af6f84678.jpg"
  },
  {
    "name": "ger_07_hard",
    "defaultvalue": 0,
    "displayName": "Block by Block",
    "hidden": 0,
    "description": "Complete the mission on hard!",
    "icon": "https://steamcdn-a.akamaihd.net/steamcommunity/public/images/apps/302670/bc91b7e604cb94bad9c3c9de4edf0ec83b51a8d9.jpg",
    "icongray": "https://steamcdn-a.akamaihd.net/steamcommunity/public/images/apps/302670/abf24e88420c9c2fd47a6ed610618d2af6f84678.jpg"
  },
  {
    "name": "ger_07_heroic",
    "defaultvalue": 0,
    "displayName": "Block by Block",
    "hidden": 0,
    "description": "Complete the mission on heroic!",
    "icon": "https://steamcdn-a.akamaihd.net/steamcommunity/public/images/apps/302670/91b2e804d9a5a97f7d1a7e8f84aae98dccd24dcc.jpg",
    "icongray": "https://steamcdn-a.akamaihd.net/steamcommunity/public/images/apps/302670/abf24e88420c9c2fd47a6ed610618d2af6f84678.jpg"
  },
  {
    "name": "ger_08_easy",
    "defaultvalue": 0,
    "displayName": "Bottleneck",
    "hidden": 0,
    "description": "Complete the mission on easy!",
    "icon": "https://steamcdn-a.akamaihd.net/steamcommunity/public/images/apps/302670/09859a9728be81f677f4580bda6cc32a3f5ffe4c.jpg",
    "icongray": "https://steamcdn-a.akamaihd.net/steamcommunity/public/images/apps/302670/abf24e88420c9c2fd47a6ed610618d2af6f84678.jpg"
  },
  {
    "name": "ger_08_normal",
    "defaultvalue": 0,
    "displayName": "Bottleneck",
    "hidden": 0,
    "description": "Complete the mission on normal!",
    "icon": "https://steamcdn-a.akamaihd.net/steamcommunity/public/images/apps/302670/aa5967ed3f55a5c7fd90dcc074aad01370ef95e8.jpg",
    "icongray": "https://steamcdn-a.akamaihd.net/steamcommunity/public/images/apps/302670/abf24e88420c9c2fd47a6ed610618d2af6f84678.jpg"
  },
  {
    "name": "ger_08_hard",
    "defaultvalue": 0,
    "displayName": "Bottleneck",
    "hidden": 0,
    "description": "Complete the mission on hard!",
    "icon": "https://steamcdn-a.akamaihd.net/steamcommunity/public/images/apps/302670/bc91b7e604cb94bad9c3c9de4edf0ec83b51a8d9.jpg",
    "icongray": "https://steamcdn-a.akamaihd.net/steamcommunity/public/images/apps/302670/abf24e88420c9c2fd47a6ed610618d2af6f84678.jpg"
  },
  {
    "name": "ger_08_heroic",
    "defaultvalue": 0,
    "displayName": "Bottleneck",
    "hidden": 0,
    "description": "Complete the mission on heroic!",
    "icon": "https://steamcdn-a.akamaihd.net/steamcommunity/public/images/apps/302670/91b2e804d9a5a97f7d1a7e8f84aae98dccd24dcc.jpg",
    "icongray": "https://steamcdn-a.akamaihd.net/steamcommunity/public/images/apps/302670/abf24e88420c9c2fd47a6ed610618d2af6f84678.jpg"
  },
  {
    "name": "ger_09_easy",
    "defaultvalue": 0,
    "displayName": "Knocking on the Battlefront",
    "hidden": 0,
    "description": "Complete the mission on easy!",
    "icon": "https://steamcdn-a.akamaihd.net/steamcommunity/public/images/apps/302670/b9d3898ef96cf83c60615da25b2533e1c9ca1bab.jpg",
    "icongray": "https://steamcdn-a.akamaihd.net/steamcommunity/public/images/apps/302670/abf24e88420c9c2fd47a6ed610618d2af6f84678.jpg"
  },
  {
    "name": "ger_09_normal",
    "defaultvalue": 0,
    "displayName": "Knocking on the Battlefront",
    "hidden": 0,
    "description": "Complete the mission on normal!",
    "icon": "https://steamcdn-a.akamaihd.net/steamcommunity/public/images/apps/302670/aa5967ed3f55a5c7fd90dcc074aad01370ef95e8.jpg",
    "icongray": "https://steamcdn-a.akamaihd.net/steamcommunity/public/images/apps/302670/abf24e88420c9c2fd47a6ed610618d2af6f84678.jpg"
  },
  {
    "name": "ger_09_hard",
    "defaultvalue": 0,
    "displayName": "Knocking on the Battlefront",
    "hidden": 0,
    "description": "Complete the mission on hard!",
    "icon": "https://steamcdn-a.akamaihd.net/steamcommunity/public/images/apps/302670/bc91b7e604cb94bad9c3c9de4edf0ec83b51a8d9.jpg",
    "icongray": "https://steamcdn-a.akamaihd.net/steamcommunity/public/images/apps/302670/abf24e88420c9c2fd47a6ed610618d2af6f84678.jpg"
  },
  {
    "name": "ger_09_heroic",
    "defaultvalue": 0,
    "displayName": "Knocking on the Battlefront",
    "hidden": 0,
    "description": "Complete the mission on heroic!",
    "icon": "https://steamcdn-a.akamaihd.net/steamcommunity/public/images/apps/302670/7fd986c8144836b74d37170cc1f8b8b110df7a0e.jpg",
    "icongray": "https://steamcdn-a.akamaihd.net/steamcommunity/public/images/apps/302670/0290cbb54c0724b182005787d5604ce27d7ccf09.jpg"
  },
  {
    "name": "ger_10_easy",
    "defaultvalue": 0,
    "displayName": "Combined Forces",
    "hidden": 0,
    "description": "Complete the mission on easy!",
    "icon": "https://steamcdn-a.akamaihd.net/steamcommunity/public/images/apps/302670/09859a9728be81f677f4580bda6cc32a3f5ffe4c.jpg",
    "icongray": "https://steamcdn-a.akamaihd.net/steamcommunity/public/images/apps/302670/abf24e88420c9c2fd47a6ed610618d2af6f84678.jpg"
  },
  {
    "name": "ger_10_normal",
    "defaultvalue": 0,
    "displayName": "Combined Forces",
    "hidden": 0,
    "description": "Complete the mission on normal!",
    "icon": "https://steamcdn-a.akamaihd.net/steamcommunity/public/images/apps/302670/aa5967ed3f55a5c7fd90dcc074aad01370ef95e8.jpg",
    "icongray": "https://steamcdn-a.akamaihd.net/steamcommunity/public/images/apps/302670/0290cbb54c0724b182005787d5604ce27d7ccf09.jpg"
  },
  {
    "name": "ger_10_hard",
    "defaultvalue": 0,
    "displayName": "Combined Forces",
    "hidden": 0,
    "description": "Complete the mission on hard!",
    "icon": "https://steamcdn-a.akamaihd.net/steamcommunity/public/images/apps/302670/bc91b7e604cb94bad9c3c9de4edf0ec83b51a8d9.jpg",
    "icongray": "https://steamcdn-a.akamaihd.net/steamcommunity/public/images/apps/302670/abf24e88420c9c2fd47a6ed610618d2af6f84678.jpg"
  },
  {
    "name": "ger_10_heroic",
    "defaultvalue": 0,
    "displayName": "Combined Forces",
    "hidden": 0,
    "description": "Complete the mission on heroic!",
    "icon": "https://steamcdn-a.akamaihd.net/steamcommunity/public/images/apps/302670/91b2e804d9a5a97f7d1a7e8f84aae98dccd24dcc.jpg",
    "icongray": "https://steamcdn-a.akamaihd.net/steamcommunity/public/images/apps/302670/abf24e88420c9c2fd47a6ed610618d2af6f84678.jpg"
  }
]