﻿[
  {
    "name": "ACH_WARMING_UP",
    "defaultvalue": 0,
    "displayName": "Warming Up",
    "hidden": 0,
    "description": "Survive your first night",
    "icon": "https://steamcdn-a.akamaihd.net/steamcommunity/public/images/apps/264730/ce7ca7b41454122460733123498d98502cbdaf3b.jpg",
    "icongray": "https://steamcdn-a.akamaihd.net/steamcommunity/public/images/apps/264730/aff9b8289ffc4faba8cc47288bb84fe091aac330.jpg"
  },
  {
    "name": "ACH_DANG_A_LANG",
    "defaultvalue": 0,
    "displayName": "Dang-a-lang",
    "hidden": 0,
    "description": "Kill a naked zombie",
    "icon": "https://steamcdn-a.akamaihd.net/steamcommunity/public/images/apps/264730/d13c28bcae9044829b1b0e7da6d25b1fbf1913f1.jpg",
    "icongray": "https://steamcdn-a.akamaihd.net/steamcommunity/public/images/apps/264730/063214ab27b94e1bb603e86974e7539b35463d9b.jpg"
  },
  {
    "name": "ACH_BOOM_HEADSHOT",
    "defaultvalue": 0,
    "displayName": "Boom, Headshot!",
    "hidden": 0,
    "description": "Kill 500 zombies with Headshots",
    "icon": "https://steamcdn-a.akamaihd.net/steamcommunity/public/images/apps/264730/4f7d6f367cbd363bc41155295c3afa8db4f14478.jpg",
    "icongray": "https://steamcdn-a.akamaihd.net/steamcommunity/public/images/apps/264730/abd84bcf6bfdb6dd0ba85399fb005454fd6a6d57.jpg"
  },
  {
    "name": "ACH_GOLDEN_SHELLS",
    "defaultvalue": 0,
    "displayName": "Golden Shells",
    "hidden": 0,
    "description": "Total of 20000 bullets shot",
    "icon": "https://steamcdn-a.akamaihd.net/steamcommunity/public/images/apps/264730/aba78fb85020521bc543c3eac5c06c9f526a1905.jpg",
    "icongray": "https://steamcdn-a.akamaihd.net/steamcommunity/public/images/apps/264730/798c27cf6853e55afe41f01af4bd79f0d4476502.jpg"
  },
  {
    "name": "ACH_CANT_STOP_NOW",
    "defaultvalue": 0,
    "displayName": "Cant Stop Now!",
    "hidden": 0,
    "description": "Spend an Hour Playing",
    "icon": "https://steamcdn-a.akamaihd.net/steamcommunity/public/images/apps/264730/b025563ac5e3f2a6defb78f46039d2740ca40cf3.jpg",
    "icongray": "https://steamcdn-a.akamaihd.net/steamcommunity/public/images/apps/264730/7b9c8d6689e338f8b26217bb86bc659ea8050734.jpg"
  },
  {
    "name": "ACH_SHANKED",
    "defaultvalue": 0,
    "displayName": "Shanked!",
    "hidden": 0,
    "description": "Stab 300 zombies",
    "icon": "https://steamcdn-a.akamaihd.net/steamcommunity/public/images/apps/264730/2ec389c8ce1bef268706602fbb83b0a408d80654.jpg",
    "icongray": "https://steamcdn-a.akamaihd.net/steamcommunity/public/images/apps/264730/e9364994c9c872572b406b422962f5d694b61ea8.jpg"
  },
  {
    "name": "ACH_TRAVELER",
    "defaultvalue": 0,
    "displayName": "Traveler",
    "hidden": 0,
    "description": "Walk 10 kilometers",
    "icon": "https://steamcdn-a.akamaihd.net/steamcommunity/public/images/apps/264730/911e07033383fddd15869104cffba01074de9a5b.jpg",
    "icongray": "https://steamcdn-a.akamaihd.net/steamcommunity/public/images/apps/264730/7ac4be5887ed87394465bb26512dad63f73f6750.jpg"
  },
  {
    "name": "ACH_INFECTED_MEAT",
    "defaultvalue": 0,
    "displayName": "Infected Meat",
    "hidden": 0,
    "description": "Kill 2000 Zombies",
    "icon": "https://steamcdn-a.akamaihd.net/steamcommunity/public/images/apps/264730/495cf3bc7d37a0d6538ac6d853a0a77d5b95df49.jpg",
    "icongray": "https://steamcdn-a.akamaihd.net/steamcommunity/public/images/apps/264730/b2c3a3441496d5a220412815c0c1b1a10e74a230.jpg"
  },
  {
    "name": "ACH_GETTING_PAID",
    "defaultvalue": 0,
    "displayName": "Getting Paid",
    "hidden": 0,
    "description": "Find Total of 50000 Scrap Metal",
    "icon": "https://steamcdn-a.akamaihd.net/steamcommunity/public/images/apps/264730/086fcf6aadb80b851c6c5316b75c5f3fd4d1de68.jpg",
    "icongray": "https://steamcdn-a.akamaihd.net/steamcommunity/public/images/apps/264730/ca83db86234a80ab19de657d8b69288180451462.jpg"
  },
  {
    "name": "ACH_MEDIC_MEDIC",
    "defaultvalue": 0,
    "displayName": "Medic! Medic!",
    "hidden": 0,
    "description": "Heal 500 Health Points",
    "icon": "https://steamcdn-a.akamaihd.net/steamcommunity/public/images/apps/264730/1a74e9fad1ffde35f68e8423c247e55cfff27db5.jpg",
    "icongray": "https://steamcdn-a.akamaihd.net/steamcommunity/public/images/apps/264730/d46a3daa4a0523e3e897cdf249328ce92694d670.jpg"
  },
  {
    "name": "ACH_DEFENDER",
    "defaultvalue": 0,
    "displayName": "Defender",
    "hidden": 0,
    "description": "Buy 4 Turrets",
    "icon": "https://steamcdn-a.akamaihd.net/steamcommunity/public/images/apps/264730/33ecbe28538f2ae763d14f6a30b067421586e703.jpg",
    "icongray": "https://steamcdn-a.akamaihd.net/steamcommunity/public/images/apps/264730/75a74b0965388a144bdb5baec13ab706bbef142f.jpg"
  },
  {
    "name": "ACH_CANT_TOUCH_ME",
    "defaultvalue": 0,
    "displayName": "Can’t Touch Me",
    "hidden": 0,
    "description": "Buy 10 boxes",
    "icon": "https://steamcdn-a.akamaihd.net/steamcommunity/public/images/apps/264730/fbdeb3c43191d3e82d03aa72c20e621cc305fd52.jpg",
    "icongray": "https://steamcdn-a.akamaihd.net/steamcommunity/public/images/apps/264730/5a3016ceff5acb00e6c6af6482872c94014414c2.jpg"
  },
  {
    "name": "ACH_MECHANIC",
    "defaultvalue": 0,
    "displayName": "Mechanic",
    "hidden": 0,
    "description": "All Maxed Upgrades",
    "icon": "https://steamcdn-a.akamaihd.net/steamcommunity/public/images/apps/264730/4041570bc28346058de83cea2f3bbdf41bf2f571.jpg",
    "icongray": "https://steamcdn-a.akamaihd.net/steamcommunity/public/images/apps/264730/7e706e03b47e6c9e981444708a3c0c323a7f2a10.jpg"
  },
  {
    "name": "ACH_IMMA_TAKE_A_NAP",
    "defaultvalue": 0,
    "displayName": "Imma Take a Nap",
    "hidden": 0,
    "description": "Sleep 5 Nights",
    "icon": "https://steamcdn-a.akamaihd.net/steamcommunity/public/images/apps/264730/7c09e0e3df484db841b5a5fa608065e06a4f424d.jpg",
    "icongray": "https://steamcdn-a.akamaihd.net/steamcommunity/public/images/apps/264730/e5fecc79aec7d2a010fe4e407860bf8e4b54aef8.jpg"
  },
  {
    "name": "ACH_UNION",
    "defaultvalue": 0,
    "displayName": "Union",
    "hidden": 0,
    "description": "Have full crew",
    "icon": "https://steamcdn-a.akamaihd.net/steamcommunity/public/images/apps/264730/1907784715a9a968be0d0f0ab3de4eb5291e5023.jpg",
    "icongray": "https://steamcdn-a.akamaihd.net/steamcommunity/public/images/apps/264730/0ceaeef91a296ee23a5badfe033e18c1c3ab5d47.jpg"
  },
  {
    "name": "ACH_DIY",
    "defaultvalue": 0,
    "displayName": "DIY!?",
    "hidden": 0,
    "description": "Buy the Alien Laser Gun",
    "icon": "https://steamcdn-a.akamaihd.net/steamcommunity/public/images/apps/264730/4f95ea2c00be81f134018f4e2e539e18ed6c3dd9.jpg",
    "icongray": "https://steamcdn-a.akamaihd.net/steamcommunity/public/images/apps/264730/2ddc934c04c6a68ff29174f529ce77d273e0d831.jpg"
  },
  {
    "name": "ACH_OH_HAI_THAR",
    "defaultvalue": 0,
    "displayName": "Oh Hai Thar",
    "hidden": 0,
    "description": "Kill a Red Giant",
    "icon": "https://steamcdn-a.akamaihd.net/steamcommunity/public/images/apps/264730/2a59bf745beeba0fc7dbe219d0d299e0fe2b4bb5.jpg",
    "icongray": "https://steamcdn-a.akamaihd.net/steamcommunity/public/images/apps/264730/466ebb8fbdb03f09d855b227293e81f8ed935b58.jpg"
  },
  {
    "name": "ACH_ONE_UP",
    "defaultvalue": 0,
    "displayName": "1 UP!",
    "hidden": 0,
    "description": "Reach Maximum Level Up",
    "icon": "https://steamcdn-a.akamaihd.net/steamcommunity/public/images/apps/264730/3e9ad81d87ecd56b858ca595f4f262eaf71d5aa3.jpg",
    "icongray": "https://steamcdn-a.akamaihd.net/steamcommunity/public/images/apps/264730/b4130cc77bf113d1e1c8e7583339440eb5c5bca7.jpg"
  },
  {
    "name": "ACH_SURVIVOR",
    "defaultvalue": 0,
    "displayName": "Survivor",
    "hidden": 0,
    "description": "Survive all 30 days and nights",
    "icon": "https://steamcdn-a.akamaihd.net/steamcommunity/public/images/apps/264730/1c43dfc1543bd2e2cd2ecce9819b9ad044dd0ab0.jpg",
    "icongray": "https://steamcdn-a.akamaihd.net/steamcommunity/public/images/apps/264730/c7a660b8bf1c168531cea11d785796e568335e73.jpg"
  },
  {
    "name": "ACH_VODKA",
    "defaultvalue": 0,
    "displayName": "VODKA",
    "hidden": 0,
    "description": "Find the secret button",
    "icon": "https://steamcdn-a.akamaihd.net/steamcommunity/public/images/apps/264730/2266899d1659cc05aa338a39cc7411f438fdd5ff.jpg",
    "icongray": "https://steamcdn-a.akamaihd.net/steamcommunity/public/images/apps/264730/6f5e6f1fa0eee2bfc96e9701712c4df8cc45c16e.jpg"
  },
  {
    "name": "ACH_STAYING_ALIVE",
    "defaultvalue": 0,
    "displayName": "Staying Alive",
    "hidden": 0,
    "description": "Survive a night outside of the base",
    "icon": "https://steamcdn-a.akamaihd.net/steamcommunity/public/images/apps/264730/85ebac4312faaf8f78da6ab344dee4c25e49dca1.jpg",
    "icongray": "https://steamcdn-a.akamaihd.net/steamcommunity/public/images/apps/264730/08c939ebae2a6919105ac8b90733bc34fda2ef08.jpg"
  },
  {
    "name": "ACH_GREAT_TEAMWORK",
    "defaultvalue": 0,
    "displayName": "Great Teamwork...",
    "hidden": 0,
    "description": "Lose the game",
    "icon": "https://steamcdn-a.akamaihd.net/steamcommunity/public/images/apps/264730/8d278c0380051260081287bb0818408011ce1f03.jpg",
    "icongray": "https://steamcdn-a.akamaihd.net/steamcommunity/public/images/apps/264730/94281ab713827e034503aa94b46de4ccb0d4b0ef.jpg"
  },
  {
    "name": "ACH_BLARGH",
    "defaultvalue": 0,
    "displayName": "Blargh!",
    "hidden": 0,
    "description": "Get puked on",
    "icon": "https://steamcdn-a.akamaihd.net/steamcommunity/public/images/apps/264730/1d08334d2059c9ce2942abf78d1f97481c4e603b.jpg",
    "icongray": "https://steamcdn-a.akamaihd.net/steamcommunity/public/images/apps/264730/8cd36069dfd7eb12907d54d684046c32724c2522.jpg"
  },
  {
    "name": "ACH_TWO_WEEKS_LATER",
    "defaultvalue": 0,
    "displayName": "2 Weeks Later",
    "hidden": 0,
    "description": "Survive 14 Nights",
    "icon": "https://steamcdn-a.akamaihd.net/steamcommunity/public/images/apps/264730/d696313935d8dc901680e62325229da441cc8915.jpg",
    "icongray": "https://steamcdn-a.akamaihd.net/steamcommunity/public/images/apps/264730/80d0710f58aa306124944f774089554240c46ca4.jpg"
  },
  {
    "name": "ACH_DEADLY_THREE",
    "defaultvalue": 0,
    "displayName": "Deadly 3",
    "hidden": 0,
    "description": "Get all 3 Survivors to the Helicopter",
    "icon": "https://steamcdn-a.akamaihd.net/steamcommunity/public/images/apps/264730/0fbc45c0b0d7767caf9a2ca8e841e97c111e4cd5.jpg",
    "icongray": "https://steamcdn-a.akamaihd.net/steamcommunity/public/images/apps/264730/60887e346584dde853359326303ff8aa3e96abfe.jpg"
  }
]