﻿[
  {
    "name": "ACHIEVEMENT_LEVEL_1",
    "defaultvalue": 0,
    "displayName": "Survivor",
    "hidden": 0,
    "description": "Enter the arena.",
    "icon": "https://steamcdn-a.akamaihd.net/steamcommunity/public/images/apps/448070/b27c2fe64f0b3978ba146b0b626073e63b9ed814.jpg",
    "icongray": "https://steamcdn-a.akamaihd.net/steamcommunity/public/images/apps/448070/3c99b645b9e183fb87e21b7536553fcad09517d2.jpg"
  },
  {
    "name": "ACHIEVEMENT_LEVEL_2",
    "defaultvalue": 0,
    "displayName": "Hunter",
    "hidden": 0,
    "description": "Reach level 2.",
    "icon": "https://steamcdn-a.akamaihd.net/steamcommunity/public/images/apps/448070/dd7fb0b2e98f3665c723afd83b5566449a2c4f2b.jpg",
    "icongray": "https://steamcdn-a.akamaihd.net/steamcommunity/public/images/apps/448070/5470c61d5ebbedc175908848ea556c602baf7315.jpg"
  },
  {
    "name": "ACHIEVEMENT_LEVEL_3",
    "defaultvalue": 0,
    "displayName": "Ranger",
    "hidden": 0,
    "description": "Reach level 3.",
    "icon": "https://steamcdn-a.akamaihd.net/steamcommunity/public/images/apps/448070/1628490bcc57d3d7a83aa1ba4df2a01fc37ea213.jpg",
    "icongray": "https://steamcdn-a.akamaihd.net/steamcommunity/public/images/apps/448070/5e4c0f32642527b6fc8f1ddf3a537081bbff67c6.jpg"
  },
  {
    "name": "ACHIEVEMENT_LEVEL_4",
    "defaultvalue": 0,
    "displayName": "Thinker",
    "hidden": 0,
    "description": "Reach level 4.",
    "icon": "https://steamcdn-a.akamaihd.net/steamcommunity/public/images/apps/448070/14b86bc332c39f8bc4347368537f7230580bdca0.jpg",
    "icongray": "https://steamcdn-a.akamaihd.net/steamcommunity/public/images/apps/448070/6eca9a97cca2065749a0a495bb298f3a9ca1d217.jpg"
  },
  {
    "name": "ACHIEVEMENT_LEVEL_5",
    "defaultvalue": 0,
    "displayName": "Tactical",
    "hidden": 0,
    "description": "Reach level 5.",
    "icon": "https://steamcdn-a.akamaihd.net/steamcommunity/public/images/apps/448070/c0c57dacc0df3845465f8309ef48de1d6c98e6d5.jpg",
    "icongray": "https://steamcdn-a.akamaihd.net/steamcommunity/public/images/apps/448070/881ec8fcdcd4ce617650a89d3a0aa440cd23774c.jpg"
  },
  {
    "name": "ACHIEVEMENT_LEVEL_6",
    "defaultvalue": 0,
    "displayName": "Adept",
    "hidden": 0,
    "description": "Reach level 6.",
    "icon": "https://steamcdn-a.akamaihd.net/steamcommunity/public/images/apps/448070/0f17a0f9335c31c8959d19174210d78a45a8b79a.jpg",
    "icongray": "https://steamcdn-a.akamaihd.net/steamcommunity/public/images/apps/448070/767405cb5bb6fd1be523f9ad329717134899361c.jpg"
  },
  {
    "name": "ACHIEVEMENT_LEVEL_7",
    "defaultvalue": 0,
    "displayName": "Expert",
    "hidden": 0,
    "description": "Reach level 7.",
    "icon": "https://steamcdn-a.akamaihd.net/steamcommunity/public/images/apps/448070/3434766ca46230e7f71c25fff01144763887154a.jpg",
    "icongray": "https://steamcdn-a.akamaihd.net/steamcommunity/public/images/apps/448070/3271bcdea6feb4cc2e627451e27bf84726d90518.jpg"
  },
  {
    "name": "ACHIEVEMENT_LEVEL_8",
    "defaultvalue": 0,
    "displayName": "Specialist Survivor",
    "hidden": 0,
    "description": "Reach level 8.",
    "icon": "https://steamcdn-a.akamaihd.net/steamcommunity/public/images/apps/448070/e70c06f41f036a094c31761f1ea81d61bfe84aeb.jpg",
    "icongray": "https://steamcdn-a.akamaihd.net/steamcommunity/public/images/apps/448070/e7806abc7d47f3d90da42520c767175733a32539.jpg"
  },
  {
    "name": "ACHIEVEMENT_LEVEL_9",
    "defaultvalue": 0,
    "displayName": "Enhanced Survivor",
    "hidden": 0,
    "description": "Reach level 9.",
    "icon": "https://steamcdn-a.akamaihd.net/steamcommunity/public/images/apps/448070/b72cf6c5a52b904d3e489e775fb9262a015a5933.jpg",
    "icongray": "https://steamcdn-a.akamaihd.net/steamcommunity/public/images/apps/448070/c838148eb03a4fb9aaf6abc9ebd1499358d5315e.jpg"
  },
  {
    "name": "ACHIEVEMENT_LEVEL_10",
    "defaultvalue": 0,
    "displayName": "Professional Survivor",
    "hidden": 0,
    "description": "Reach level 10.",
    "icon": "https://steamcdn-a.akamaihd.net/steamcommunity/public/images/apps/448070/1763bc459d172c989a7379fff45faaa43adb95bf.jpg",
    "icongray": "https://steamcdn-a.akamaihd.net/steamcommunity/public/images/apps/448070/c32e886a3516f82fb2664abc3e5f595e39bc188f.jpg"
  },
  {
    "name": "ACHIEVEMENT_SURVIVE_1000_SECONDS",
    "defaultvalue": 0,
    "displayName": "1000 seconds",
    "hidden": 0,
    "description": "Stay alive for 1000 seconds.",
    "icon": "https://steamcdn-a.akamaihd.net/steamcommunity/public/images/apps/448070/c6fbd2440869627eb9c804538bb4b45e82f79798.jpg",
    "icongray": "https://steamcdn-a.akamaihd.net/steamcommunity/public/images/apps/448070/2bad0edf995857308a7040625695fb2469663c60.jpg"
  },
  {
    "name": "ACHIEVEMENT_SURVIVE_2500_SECONDS",
    "defaultvalue": 0,
    "displayName": "2500 seconds",
    "hidden": 0,
    "description": "Stay alive for 2500 seconds.",
    "icon": "https://steamcdn-a.akamaihd.net/steamcommunity/public/images/apps/448070/2d67bbfddc290712075204281d218590d8cb8672.jpg",
    "icongray": "https://steamcdn-a.akamaihd.net/steamcommunity/public/images/apps/448070/ce3ed949bcf36a233dd4e139493c2cbc0595bcb7.jpg"
  },
  {
    "name": "ACHIEVEMENT_SURVIVE_5000_SECONDS",
    "defaultvalue": 0,
    "displayName": "5000 seconds",
    "hidden": 0,
    "description": "Stay alive for 5000 seconds.",
    "icon": "https://steamcdn-a.akamaihd.net/steamcommunity/public/images/apps/448070/78f92fedfd0cdf3d12eae99b34eae7096def3867.jpg",
    "icongray": "https://steamcdn-a.akamaihd.net/steamcommunity/public/images/apps/448070/e9c74fc7865ef7824beb9305487f93839641dacf.jpg"
  },
  {
    "name": "ACHIEVEMENT_KILL_100_INFECTED",
    "defaultvalue": 0,
    "displayName": "100 Infected",
    "hidden": 0,
    "description": "Kill 100 Infected.",
    "icon": "https://steamcdn-a.akamaihd.net/steamcommunity/public/images/apps/448070/c5e9cd7d369b56292ce78e27536079ca1aaf7702.jpg",
    "icongray": "https://steamcdn-a.akamaihd.net/steamcommunity/public/images/apps/448070/4e040c16e7522bc7555ce52b1678349a7521ed85.jpg"
  },
  {
    "name": "ACHIEVEMENT_KILL_1000_INFECTED",
    "defaultvalue": 0,
    "displayName": "1000 Infected",
    "hidden": 0,
    "description": "Kill 1000 Infected.",
    "icon": "https://steamcdn-a.akamaihd.net/steamcommunity/public/images/apps/448070/e84a0b8dac025e7101dcd29bea7c5dc3111f512e.jpg",
    "icongray": "https://steamcdn-a.akamaihd.net/steamcommunity/public/images/apps/448070/81a8698040f554ebf68c3f1a61038891a92bb2de.jpg"
  },
  {
    "name": "ACHIEVEMENT_KILL_2500_INFECTED",
    "defaultvalue": 0,
    "displayName": "2500 Infected",
    "hidden": 0,
    "description": "Kill 2500 Infected.",
    "icon": "https://steamcdn-a.akamaihd.net/steamcommunity/public/images/apps/448070/2db2e5e7c8608168fab5465bbcdd86e8ff51a645.jpg",
    "icongray": "https://steamcdn-a.akamaihd.net/steamcommunity/public/images/apps/448070/5431a87a4eb715a76f26443004161e6c18ac8f49.jpg"
  },
  {
    "name": "ACHIEVEMENT_TOURNAMENTS_WON_1",
    "defaultvalue": 0,
    "displayName": "First Tournament",
    "hidden": 0,
    "description": "Survive your first tournament.",
    "icon": "https://steamcdn-a.akamaihd.net/steamcommunity/public/images/apps/448070/c7da9c0100b630be26f8851077f2d3ee9d306e5f.jpg",
    "icongray": "https://steamcdn-a.akamaihd.net/steamcommunity/public/images/apps/448070/6c67fc9b915179d5f60dd5e5a0006c1cbde39b23.jpg"
  },
  {
    "name": "ACHIEVEMENT_TOURNAMENTS_WON_5",
    "defaultvalue": 0,
    "displayName": "Tournament Master",
    "hidden": 0,
    "description": "Survive five tournaments.",
    "icon": "https://steamcdn-a.akamaihd.net/steamcommunity/public/images/apps/448070/0e1f0b59ed82074a9c236b60378b90874148caa8.jpg",
    "icongray": "https://steamcdn-a.akamaihd.net/steamcommunity/public/images/apps/448070/d8e9c702e897cf27d1dea919a19cd41f2750a532.jpg"
  },
  {
    "name": "ACHIEVEMENT_TOURNAMENTS_WON_10",
    "defaultvalue": 0,
    "displayName": "Tournament King",
    "hidden": 0,
    "description": "Survive ten tournaments.",
    "icon": "https://steamcdn-a.akamaihd.net/steamcommunity/public/images/apps/448070/0b6a14bb7d964d6aa9ca06ff6d2d03042644ba6c.jpg",
    "icongray": "https://steamcdn-a.akamaihd.net/steamcommunity/public/images/apps/448070/39f0768bbf4efd1b65ea496c1b2659808a37fc1a.jpg"
  }
]