﻿{
  "Dlcs": {},
  "Name": "Dark Matter",
  "AppId": "251410",
  "ImageUrl": "https://steamcdn-a.akamaihd.net/steam/apps/251410/header.jpg?t=1598715715",
  "Languages": [
    "english",
    "german"
  ],
  "Platforms": {
    "windows": true,
    "mac": true,
    "linux": true
  }
}