﻿[
  {
    "name": "ach_skipping_stat",
    "defaultvalue": 0,
    "displayName": ""
  },
  {
    "name": "ach_goodgirl_stat",
    "defaultvalue": 0,
    "displayName": ""
  },
  {
    "name": "ach_firstooze_stat",
    "defaultvalue": 0,
    "displayName": ""
  },
  {
    "name": "ach_biglights_stat",
    "defaultvalue": 0,
    "displayName": ""
  },
  {
    "name": "ach_boomsticked_stat",
    "defaultvalue": 0,
    "displayName": ""
  },
  {
    "name": "ach_littlefriend_stat",
    "defaultvalue": 0,
    "displayName": ""
  },
  {
    "name": "ach_warbunny_stat",
    "defaultvalue": 0,
    "displayName": ""
  },
  {
    "name": "ach_queendeath_stat",
    "defaultvalue": 0,
    "displayName": ""
  },
  {
    "name": "ach_samuraikill_stat",
    "defaultvalue": 0,
    "displayName": ""
  },
  {
    "name": "ach_biolabs_stat",
    "defaultvalue": 0,
    "displayName": ""
  },
  {
    "name": "ach_firestarter_stat",
    "defaultvalue": 0,
    "displayName": ""
  },
  {
    "name": "ach_firemaster_stat",
    "defaultvalue": 0,
    "displayName": ""
  },
  {
    "name": "ach_crawlbane_stat",
    "defaultvalue": 0,
    "displayName": ""
  },
  {
    "name": "ach_oneofeach_stat",
    "defaultvalue": 0,
    "displayName": ""
  },
  {
    "name": "ach_oneofeach2_stat",
    "defaultvalue": 0,
    "displayName": ""
  },
  {
    "name": "ach_unfortunate_stat",
    "defaultvalue": 0,
    "displayName": ""
  },
  {
    "name": "ach_engineer_stat",
    "defaultvalue": 0,
    "displayName": ""
  },
  {
    "name": "ach_soldier_stat",
    "defaultvalue": 0,
    "displayName": ""
  }
]