{
  "Releases": [
    "Windows",
    "Mac",
    "Win32"
  ],
  "Name": "Enter the Gungeon",
  "AppId": "Garlic",
  "Namespace": "be13f6c4fb11427fbf3313ce93b97cc0",
  "ItemId": "25b771db01554b1bb40c5617b663d17e",
  "ImageUrl": "https://cdn1.epicgames.com/be13f6c4fb11427fbf3313ce93b97cc0/item/Gungeon_PrimaryPromo-2560x1440-a34ca96251763ff6deb8529a4a39d0a8.jpg",
  "Dlcs": {}
}