﻿{
  "Dlcs": {},
  "Name": "PINPIN BALLBALL",
  "AppId": "891180",
  "ImageUrl": "https://steamcdn-a.akamaihd.net/steam/apps/891180/header.jpg?t=1566805516",
  "Languages": [
    "english"
  ],
  "Platforms": {
    "windows": true,
    "mac": false,
    "linux": false
  }
}