﻿[
  {
    "name": "test_game",
    "defaultvalue": 0,
    "displayName": "Test Game"
  },
  {
    "name": "stat_3",
    "defaultvalue": 0,
    "displayName": "Multiplayer Games Played"
  },
  {
    "name": "stat_4",
    "defaultvalue": 0,
    "displayName": "Multiplayer Games Hosted"
  }
]