﻿{
  "Dlcs": {
    "616280": {
      "Name": "Mighty Party: Back to Transylvania Pack",
      "ImageUrl": "https://steamcdn-a.akamaihd.net/steam/apps/616280/header.jpg?t=1500994687"
    },
    "616300": {
      "Name": "Mighty Party: Battle and Toads Pack",
      "ImageUrl": "https://steamcdn-a.akamaihd.net/steam/apps/616300/header.jpg?t=1506519293"
    },
    "645430": {
      "Name": "Mighty Party: Wonder Girls Pack",
      "ImageUrl": "https://steamcdn-a.akamaihd.net/steam/apps/645430/header.jpg?t=1507293209"
    },
    "698560": {
      "Name": "Mighty Party: Academy of Enchantress Pack",
      "ImageUrl": "https://steamcdn-a.akamaihd.net/steam/apps/698560/header.jpg?t=1504176378"
    },
    "714230": {
      "Name": "Mighty Party: Kingsguy Pack",
      "ImageUrl": "https://steamcdn-a.akamaihd.net/steam/apps/714230/header.jpg?t=1507293206"
    },
    "798520": {
      "Name": "Mighty Party: Crazy in Love Pack",
      "ImageUrl": "https://steamcdn-a.akamaihd.net/steam/apps/798520/header.jpg?t=1518687699"
    }
  },
  "Name": "Mighty Party",
  "AppId": "575720",
  "ImageUrl": "https://steamcdn-a.akamaihd.net/steam/apps/575720/header.jpg?t=1574846895",
  "Languages": [
    "english",
    "russian",
    "french",
    "german",
    "schinese",
    "korean",
    "japanese",
    "italian",
    "spanish",
    "portuguese"
  ],
  "Platforms": {
    "windows": true,
    "mac": false,
    "linux": false
  }
}