﻿[
  {
    "name": "AchievementHeal1",
    "defaultvalue": 0,
    "displayName": "Intern",
    "hidden": 0,
    "description": "Recover 100 HP",
    "icon": "https://steamcdn-a.akamaihd.net/steamcommunity/public/images/apps/826600/fed42b92de1849b0b9777b31d6eff20c3b2ef174.jpg",
    "icongray": "https://steamcdn-a.akamaihd.net/steamcommunity/public/images/apps/826600/fec3995096c7da5ce77d6d874d155b8aee9a9f41.jpg"
  },
  {
    "name": "AchievementHeal2",
    "defaultvalue": 0,
    "displayName": "Doctor",
    "hidden": 0,
    "description": "Recover 1,000 HP",
    "icon": "https://steamcdn-a.akamaihd.net/steamcommunity/public/images/apps/826600/3730fdc2a67d8c00fef9b46c99233da1268add50.jpg",
    "icongray": "https://steamcdn-a.akamaihd.net/steamcommunity/public/images/apps/826600/e264a4484f7743e8ab14994b3441b548a8414c87.jpg"
  },
  {
    "name": "AchievementHeal3",
    "defaultvalue": 0,
    "displayName": "Doctor Without Borders",
    "hidden": 0,
    "description": "Recover 10,000 HP",
    "icon": "https://steamcdn-a.akamaihd.net/steamcommunity/public/images/apps/826600/f160cd62d48c4bf05f7254919a55cddae314f697.jpg",
    "icongray": "https://steamcdn-a.akamaihd.net/steamcommunity/public/images/apps/826600/9a5623521bfdadfe14620357bcb6a9e83c6adeac.jpg"
  },
  {
    "name": "AchievementDealDamageBullet1",
    "defaultvalue": 0,
    "displayName": "Shooter",
    "hidden": 0,
    "description": "Deal 100 damage with bullet weapons",
    "icon": "https://steamcdn-a.akamaihd.net/steamcommunity/public/images/apps/826600/1fcda56704705ab230bddd50f3fe862d19e976af.jpg",
    "icongray": "https://steamcdn-a.akamaihd.net/steamcommunity/public/images/apps/826600/42ac7c41332f1343163d5c388060cc6d334d4ee4.jpg"
  },
  {
    "name": "AchievementDealDamageBullet2",
    "defaultvalue": 0,
    "displayName": "Stormtrooper",
    "hidden": 0,
    "description": "Deal 5,000 damage with bullet weapons",
    "icon": "https://steamcdn-a.akamaihd.net/steamcommunity/public/images/apps/826600/8e70aee94aaad448beee7a12f50e29a0d3366688.jpg",
    "icongray": "https://steamcdn-a.akamaihd.net/steamcommunity/public/images/apps/826600/99bcee5d074ee6076981be5578c082045456f930.jpg"
  },
  {
    "name": "AchievementDealDamageBullet3",
    "defaultvalue": 0,
    "displayName": "Sniper",
    "hidden": 0,
    "description": "Deal 50,000 damage with bullet weapons",
    "icon": "https://steamcdn-a.akamaihd.net/steamcommunity/public/images/apps/826600/e7ef2d508992e1aa8791f79a2636f3d8872c2144.jpg",
    "icongray": "https://steamcdn-a.akamaihd.net/steamcommunity/public/images/apps/826600/46803b2551156c2dd332e876862b68d8533cfaba.jpg"
  },
  {
    "name": "AchievementDealDamageEM1",
    "defaultvalue": 0,
    "displayName": "Assistant",
    "hidden": 0,
    "description": "Deal 100 damage with energy weapons",
    "icon": "https://steamcdn-a.akamaihd.net/steamcommunity/public/images/apps/826600/77cf79b436ec821263ce27f7fb9ca280f865c76a.jpg",
    "icongray": "https://steamcdn-a.akamaihd.net/steamcommunity/public/images/apps/826600/e07f3221a99bfd4237fa9ce392db79f9a9bbc5ba.jpg"
  },
  {
    "name": "AchievementDealDamageEM2",
    "defaultvalue": 0,
    "displayName": "Scientist",
    "hidden": 0,
    "description": "Deal 5,000 damage with energy weapons",
    "icon": "https://steamcdn-a.akamaihd.net/steamcommunity/public/images/apps/826600/19a84163a7f18e85c80571ab71c843c64909c76f.jpg",
    "icongray": "https://steamcdn-a.akamaihd.net/steamcommunity/public/images/apps/826600/e9f234709e3eaf0f3923295232d8caba5212bc3e.jpg"
  },
  {
    "name": "AchievementDealDamageEM3",
    "defaultvalue": 0,
    "displayName": "Tesla",
    "hidden": 0,
    "description": "Deal 50,000 damage with energy weapons",
    "icon": "https://steamcdn-a.akamaihd.net/steamcommunity/public/images/apps/826600/87016854f8b08d0997c340c5d7fb037bd2d71f0f.jpg",
    "icongray": "https://steamcdn-a.akamaihd.net/steamcommunity/public/images/apps/826600/85e9dc0f50ed2bd1b837845093f60a7e9a1abc27.jpg"
  },
  {
    "name": "AchievementDealDamageExplode1",
    "defaultvalue": 0,
    "displayName": "Dynamite",
    "hidden": 0,
    "description": "Deal 100 damage with explosives",
    "icon": "https://steamcdn-a.akamaihd.net/steamcommunity/public/images/apps/826600/cc289c4f646c3b117536fe2fae18d6c5b74c0603.jpg",
    "icongray": "https://steamcdn-a.akamaihd.net/steamcommunity/public/images/apps/826600/e5e6d30aea2cc69a298d36ca22f79a2d57b10b94.jpg"
  },
  {
    "name": "AchievementDealDamageExplode2",
    "defaultvalue": 0,
    "displayName": "Bomb",
    "hidden": 0,
    "description": "Deal 5,000 damage with explosives",
    "icon": "https://steamcdn-a.akamaihd.net/steamcommunity/public/images/apps/826600/216e4c4f6aa18194c57ea8c73796b920c30b0600.jpg",
    "icongray": "https://steamcdn-a.akamaihd.net/steamcommunity/public/images/apps/826600/da7253edcecfc5ce2f5a49aa6dcce26c866ed7f6.jpg"
  },
  {
    "name": "AchievementDealDamageExplode3",
    "defaultvalue": 0,
    "displayName": "Megaton",
    "hidden": 0,
    "description": "Deal 50,000 damage with explosives",
    "icon": "https://steamcdn-a.akamaihd.net/steamcommunity/public/images/apps/826600/40bd8be8422ec92e53b664bcba9b411ee80e473f.jpg",
    "icongray": "https://steamcdn-a.akamaihd.net/steamcommunity/public/images/apps/826600/0a799d51ab72664b360ea01aa802cd231db0c29b.jpg"
  },
  {
    "name": "AchievementDealDamageMelee1",
    "defaultvalue": 0,
    "displayName": "Surgeon",
    "hidden": 0,
    "description": "Deal 100 damage with melee weapons",
    "icon": "https://steamcdn-a.akamaihd.net/steamcommunity/public/images/apps/826600/64aa2c9946dff63828611dc7856fc8257fdd7639.jpg",
    "icongray": "https://steamcdn-a.akamaihd.net/steamcommunity/public/images/apps/826600/df6e4ee2febfa40cc90390ffa5d5625e6fb1d063.jpg"
  },
  {
    "name": "AchievementDealDamageMelee2",
    "defaultvalue": 0,
    "displayName": "Sadist",
    "hidden": 0,
    "description": "Deal 1,000 damage with melee weapons",
    "icon": "https://steamcdn-a.akamaihd.net/steamcommunity/public/images/apps/826600/f3c377def99c5a6b8b2a451f4676c25244a2525a.jpg",
    "icongray": "https://steamcdn-a.akamaihd.net/steamcommunity/public/images/apps/826600/e14f2ab111ee6e79bde76641b29fe48457d0f5fc.jpg"
  },
  {
    "name": "AchievementDealDamageMelee3",
    "defaultvalue": 0,
    "displayName": "Butcher",
    "hidden": 0,
    "description": "Deal 5,000 damage with melee weapons",
    "icon": "https://steamcdn-a.akamaihd.net/steamcommunity/public/images/apps/826600/0e4f0c5e7c92c192769dc5a000782f453e071943.jpg",
    "icongray": "https://steamcdn-a.akamaihd.net/steamcommunity/public/images/apps/826600/fd43f7864b8cc8f04b4c1a7b6c69a02e95b1a41d.jpg"
  },
  {
    "name": "AchievementDisinsect1",
    "defaultvalue": 0,
    "displayName": "Disinfector",
    "hidden": 0,
    "description": "Remove infection 3 times",
    "icon": "https://steamcdn-a.akamaihd.net/steamcommunity/public/images/apps/826600/7a7af5ae039b8ccc08d45fe75a695bdffd28410a.jpg",
    "icongray": "https://steamcdn-a.akamaihd.net/steamcommunity/public/images/apps/826600/9fdfbe31be9cd598e1af04f33b1a96e8c040bd66.jpg"
  },
  {
    "name": "AchievementFillUltBar1",
    "defaultvalue": 0,
    "displayName": "Moral Compass",
    "hidden": 0,
    "description": "Fill the morale bar 10 times",
    "icon": "https://steamcdn-a.akamaihd.net/steamcommunity/public/images/apps/826600/8d7127a82b1f4a483e21b944545ac6a3939b0ff0.jpg",
    "icongray": "https://steamcdn-a.akamaihd.net/steamcommunity/public/images/apps/826600/2ab7539ac447ec56652bcf5219cfd60f3cc1cfbf.jpg"
  },
  {
    "name": "AchievementInfect1",
    "defaultvalue": 0,
    "displayName": "Disease",
    "hidden": 0,
    "description": "Infect 5 humans",
    "icon": "https://steamcdn-a.akamaihd.net/steamcommunity/public/images/apps/826600/78bbcff6227601fc98edb68c63bf5f2bdcf6c6fd.jpg",
    "icongray": "https://steamcdn-a.akamaihd.net/steamcommunity/public/images/apps/826600/b199a7e35713fddef7ecaec34a03d2fcc4c7a3ed.jpg"
  },
  {
    "name": "AchievementInfect2",
    "defaultvalue": 0,
    "displayName": "Plague",
    "hidden": 0,
    "description": "Infect 100 humans",
    "icon": "https://steamcdn-a.akamaihd.net/steamcommunity/public/images/apps/826600/fd0894973096c0f60088e70a0d93b21444f24c01.jpg",
    "icongray": "https://steamcdn-a.akamaihd.net/steamcommunity/public/images/apps/826600/2d95a240961847feecf467fe0465f29b5df28281.jpg"
  },
  {
    "name": "AchievementInfect3",
    "defaultvalue": 0,
    "displayName": "Epidemic",
    "hidden": 0,
    "description": "Infect 500 humans",
    "icon": "https://steamcdn-a.akamaihd.net/steamcommunity/public/images/apps/826600/65455f2ad2f6399599d1abf25a1532ba68a3315a.jpg",
    "icongray": "https://steamcdn-a.akamaihd.net/steamcommunity/public/images/apps/826600/f2078e19b7976dd78f546e01085901f93c7ac0f0.jpg"
  },
  {
    "name": "AchievementKillEnemy1",
    "defaultvalue": 0,
    "displayName": "Novice Killer",
    "hidden": 0,
    "description": "Kill 10 enemies",
    "icon": "https://steamcdn-a.akamaihd.net/steamcommunity/public/images/apps/826600/94b80078f6ebc17c78c7ddb42a130b349c1a3f8e.jpg",
    "icongray": "https://steamcdn-a.akamaihd.net/steamcommunity/public/images/apps/826600/563549d310eded9b12233d7c19a85be29ec3ef7b.jpg"
  },
  {
    "name": "AchievementKillEnemy2",
    "defaultvalue": 0,
    "displayName": "Serial Killer",
    "hidden": 0,
    "description": "Kill 100 enemies",
    "icon": "https://steamcdn-a.akamaihd.net/steamcommunity/public/images/apps/826600/73719fa01b85c79b8c5aeeed2b38b01cf9e0f554.jpg",
    "icongray": "https://steamcdn-a.akamaihd.net/steamcommunity/public/images/apps/826600/c651e12f03a4ff75d0c7e4e4d0837d460590c267.jpg"
  },
  {
    "name": "AchievementKillEnemy3",
    "defaultvalue": 0,
    "displayName": "Maniac",
    "hidden": 0,
    "description": "Kill 1,000 enemies",
    "icon": "https://steamcdn-a.akamaihd.net/steamcommunity/public/images/apps/826600/b1c270b1702c0855a5b1614aac08c6e59e70cef0.jpg",
    "icongray": "https://steamcdn-a.akamaihd.net/steamcommunity/public/images/apps/826600/3160eae44b1c374bfa36bc73a68a8eee9552c98c.jpg"
  },
  {
    "name": "AchievementNoShame1",
    "defaultvalue": 0,
    "displayName": "Intellect, Honor, Conscience",
    "hidden": 0,
    "description": "End the battle without getting Guilt",
    "icon": "https://steamcdn-a.akamaihd.net/steamcommunity/public/images/apps/826600/86b411bdcf50f0f3a6caeae61e0e825641a0d825.jpg",
    "icongray": "https://steamcdn-a.akamaihd.net/steamcommunity/public/images/apps/826600/1fa95c7fce6ce5b88c73e9c69c827b9f9a1767ed.jpg"
  },
  {
    "name": "AchievementSaveCitizen1",
    "defaultvalue": 0,
    "displayName": "Rescuer",
    "hidden": 0,
    "description": "Save 10 civilians",
    "icon": "https://steamcdn-a.akamaihd.net/steamcommunity/public/images/apps/826600/8d0adb12dff96076db61bbdcc9e12a039e4ef9b8.jpg",
    "icongray": "https://steamcdn-a.akamaihd.net/steamcommunity/public/images/apps/826600/0e34314e75bc89fffa93d941eb196cd2c628e7d0.jpg"
  },
  {
    "name": "AchievementSaveCitizen2",
    "defaultvalue": 0,
    "displayName": "Protector",
    "hidden": 0,
    "description": "Save 100 civilians",
    "icon": "https://steamcdn-a.akamaihd.net/steamcommunity/public/images/apps/826600/e1c83f9b91f572b543bf03a662b63c165c585a08.jpg",
    "icongray": "https://steamcdn-a.akamaihd.net/steamcommunity/public/images/apps/826600/39221402418bf6b6f006804aea90f82febd37501.jpg"
  },
  {
    "name": "AchievementSaveCitizen3",
    "defaultvalue": 0,
    "displayName": "Messiah",
    "hidden": 0,
    "description": "Save 1,000 civilians",
    "icon": "https://steamcdn-a.akamaihd.net/steamcommunity/public/images/apps/826600/5039d6b63f0f32439ef024db08f9f53593a5e01c.jpg",
    "icongray": "https://steamcdn-a.akamaihd.net/steamcommunity/public/images/apps/826600/62191525bd818b368aaea43aada58c6faad84afe.jpg"
  },
  {
    "name": "AchievementTransform1",
    "defaultvalue": 0,
    "displayName": "Dark Side",
    "hidden": 0,
    "description": "Turn a hero into a monster",
    "icon": "https://steamcdn-a.akamaihd.net/steamcommunity/public/images/apps/826600/5dcd10cc1d4e0481883532a8eb2dea258017af1c.jpg",
    "icongray": "https://steamcdn-a.akamaihd.net/steamcommunity/public/images/apps/826600/aa08407d9a140f0fc54dcfddfed88be60bfb3008.jpg"
  },
  {
    "name": "AchievementUseUlt1",
    "defaultvalue": 0,
    "displayName": "Resourceful",
    "hidden": 0,
    "description": "Use heroic ability 5 times",
    "icon": "https://steamcdn-a.akamaihd.net/steamcommunity/public/images/apps/826600/00a6a719fba8568a03dd54926c3fc691ceb1b357.jpg",
    "icongray": "https://steamcdn-a.akamaihd.net/steamcommunity/public/images/apps/826600/7c70245fbca829d3d839de6bbc76404d589e880e.jpg"
  },
  {
    "name": "AchievementWinBattle1",
    "defaultvalue": 0,
    "displayName": "Winner",
    "hidden": 0,
    "description": "Win 5 battles",
    "icon": "https://steamcdn-a.akamaihd.net/steamcommunity/public/images/apps/826600/c6e7e8f1b49862a01f7963b2ba5ad279e5d90cf7.jpg",
    "icongray": "https://steamcdn-a.akamaihd.net/steamcommunity/public/images/apps/826600/be5045ca2e0b0430612c24fd67ee22e1b767e80d.jpg"
  },
  {
    "name": "AchievementWinBattle2",
    "defaultvalue": 0,
    "displayName": "Unchallenged",
    "hidden": 0,
    "description": "Win 20 battles",
    "icon": "https://steamcdn-a.akamaihd.net/steamcommunity/public/images/apps/826600/ec5fe5be003252a8681faafd458bf5be90cdbc2a.jpg",
    "icongray": "https://steamcdn-a.akamaihd.net/steamcommunity/public/images/apps/826600/10d3aaf55d2132efe766c23cbbbc654c687e826e.jpg"
  },
  {
    "name": "AchievementWinBattle3",
    "defaultvalue": 0,
    "displayName": "Top Dog",
    "hidden": 0,
    "description": "Win 500 battles",
    "icon": "https://steamcdn-a.akamaihd.net/steamcommunity/public/images/apps/826600/a08a0697f31e3486dc3be342b67df18a35e5ac9a.jpg",
    "icongray": "https://steamcdn-a.akamaihd.net/steamcommunity/public/images/apps/826600/4bfa94a27f83906567a1598bfc3c33d21ef6b9be.jpg"
  },
  {
    "name": "AchievementNoDeathHeroes1",
    "defaultvalue": 0,
    "displayName": "Unkillable",
    "hidden": 0,
    "description": "Win for the humans without dying",
    "icon": "https://steamcdn-a.akamaihd.net/steamcommunity/public/images/apps/826600/af91919d8f56386f1828455c62fcf33c03d324ce.jpg",
    "icongray": "https://steamcdn-a.akamaihd.net/steamcommunity/public/images/apps/826600/fdc6a8a1cd7349dec3394001d6d5c244077329ef.jpg"
  },
  {
    "name": "AchievementNoDeathMonsters1",
    "defaultvalue": 0,
    "displayName": "Iron Hide",
    "hidden": 0,
    "description": "Win for the monsters without dying",
    "icon": "https://steamcdn-a.akamaihd.net/steamcommunity/public/images/apps/826600/cb55ac465d88e9f6a6135fb554b5dc2c74e97a51.jpg",
    "icongray": "https://steamcdn-a.akamaihd.net/steamcommunity/public/images/apps/826600/128478469da926591d86e90056da173d870e80e6.jpg"
  },
  {
    "name": "AchievmentSetAttestat",
    "defaultvalue": 0,
    "displayName": "Hero Certificate",
    "hidden": 0,
    "description": "Get \"Hero Certificate\" trophy in the game",
    "icon": "https://steamcdn-a.akamaihd.net/steamcommunity/public/images/apps/826600/2d5f8d4044da0834cf298b20a0f91436422f4fc7.jpg",
    "icongray": "https://steamcdn-a.akamaihd.net/steamcommunity/public/images/apps/826600/8f6904489a5985a84e228951c5e3be83571c62cb.jpg"
  },
  {
    "name": "AchievmentSetCruel",
    "defaultvalue": 0,
    "displayName": "Cruelty",
    "hidden": 0,
    "description": "Get \"Cruelty\" trophy in the game",
    "icon": "https://steamcdn-a.akamaihd.net/steamcommunity/public/images/apps/826600/566d773b94bb9a4203095bbeaa78d643b9eb4fa6.jpg",
    "icongray": "https://steamcdn-a.akamaihd.net/steamcommunity/public/images/apps/826600/a4966c0312e44d4c7e93c0e4195580b49f69158b.jpg"
  },
  {
    "name": "AchievmentSetGeneral",
    "defaultvalue": 0,
    "displayName": "General",
    "hidden": 0,
    "description": "Get \"General\" trophy in the game",
    "icon": "https://steamcdn-a.akamaihd.net/steamcommunity/public/images/apps/826600/9d419e83118742e21bbc2ad7417069dd7b29544b.jpg",
    "icongray": "https://steamcdn-a.akamaihd.net/steamcommunity/public/images/apps/826600/b22b92397ad0ddbc08e200286d80b8932cd73d9f.jpg"
  },
  {
    "name": "AchievmentSetHero",
    "defaultvalue": 0,
    "displayName": "Hero In Action",
    "hidden": 0,
    "description": "Get \"Hero In Action\" trophy in the game",
    "icon": "https://steamcdn-a.akamaihd.net/steamcommunity/public/images/apps/826600/1afa6e5f2e56ba5da2be7dce55bdbdb4f033e2db.jpg",
    "icongray": "https://steamcdn-a.akamaihd.net/steamcommunity/public/images/apps/826600/b00a2a81885f550ba9791e2549c5d769ea629247.jpg"
  },
  {
    "name": "AchievmentSetLegend",
    "defaultvalue": 0,
    "displayName": "Space Legend",
    "hidden": 0,
    "description": "Get \"Space Legend\" trophy in the game",
    "icon": "https://steamcdn-a.akamaihd.net/steamcommunity/public/images/apps/826600/1a04f7dc92353742e66e7380c40aeef297394723.jpg",
    "icongray": "https://steamcdn-a.akamaihd.net/steamcommunity/public/images/apps/826600/346e19ea8adbbecf92ae3e3c4f788ea9baf1e702.jpg"
  },
  {
    "name": "AchievmentSetMatureM",
    "defaultvalue": 0,
    "displayName": "Monster Mastery",
    "hidden": 0,
    "description": "Get \"Monster Mastery\" trophy in the game",
    "icon": "https://steamcdn-a.akamaihd.net/steamcommunity/public/images/apps/826600/bf8d0d3491c5b1113b63c4985904ebcd44c73fc0.jpg",
    "icongray": "https://steamcdn-a.akamaihd.net/steamcommunity/public/images/apps/826600/4f0392d2b4aeccf3100f78e812f3c861a0958e07.jpg"
  },
  {
    "name": "AchievmentSetMercyless",
    "defaultvalue": 0,
    "displayName": "Ruthless",
    "hidden": 0,
    "description": "Get \"Ruthless\" trophy in the game",
    "icon": "https://steamcdn-a.akamaihd.net/steamcommunity/public/images/apps/826600/49e436c076b3da6a7e51d1190d14b3f60242e8d7.jpg",
    "icongray": "https://steamcdn-a.akamaihd.net/steamcommunity/public/images/apps/826600/b92bf2eccf8716ffc9f3439ffc0624a18ea8026b.jpg"
  },
  {
    "name": "AchievmentSetMonster",
    "defaultvalue": 0,
    "displayName": "Beast",
    "hidden": 0,
    "description": "Get \"Beast\" trophy in the game",
    "icon": "https://steamcdn-a.akamaihd.net/steamcommunity/public/images/apps/826600/a9f725238459b0fd59603917de49bd0e6e9ca9ad.jpg",
    "icongray": "https://steamcdn-a.akamaihd.net/steamcommunity/public/images/apps/826600/f916cfb0c603b98a95642971175278e20cd5085c.jpg"
  },
  {
    "name": "AchievmentSetOfficer",
    "defaultvalue": 0,
    "displayName": "Officer",
    "hidden": 0,
    "description": "Get \"Officer\" trophy in the game",
    "icon": "https://steamcdn-a.akamaihd.net/steamcommunity/public/images/apps/826600/35b46a1d4ac84178b2df84b7d546a0d0a790cf7c.jpg",
    "icongray": "https://steamcdn-a.akamaihd.net/steamcommunity/public/images/apps/826600/00e0d798f106af6cebae88609ee7b4498f55bc08.jpg"
  },
  {
    "name": "AchievmentSetPerfectHero",
    "defaultvalue": 0,
    "displayName": "Perfect Hero",
    "hidden": 0,
    "description": "Get \"Perfect Hero\" trophy in the game",
    "icon": "https://steamcdn-a.akamaihd.net/steamcommunity/public/images/apps/826600/d452ab57126d1443243ace21937746e74e3069cf.jpg",
    "icongray": "https://steamcdn-a.akamaihd.net/steamcommunity/public/images/apps/826600/6055d067b370fcf2bcafa39a310f0a5beb06df4e.jpg"
  },
  {
    "name": "AchievmentSetSaver",
    "defaultvalue": 0,
    "displayName": "Rescuer",
    "hidden": 0,
    "description": "Get \"Rescuer\" trophy in the game",
    "icon": "https://steamcdn-a.akamaihd.net/steamcommunity/public/images/apps/826600/1af332ff0d4ed08ac954c9a66724d6e7c023caf3.jpg",
    "icongray": "https://steamcdn-a.akamaihd.net/steamcommunity/public/images/apps/826600/ae79b3e7165649e4cddf47e8714a58336c51897c.jpg"
  },
  {
    "name": "AchievmentSetSoldier",
    "defaultvalue": 0,
    "displayName": "Soldier",
    "hidden": 0,
    "description": "Get \"Soldier\" trophy in the game",
    "icon": "https://steamcdn-a.akamaihd.net/steamcommunity/public/images/apps/826600/ae6c198dbbe7eb52e3cadae413012787e9df940f.jpg",
    "icongray": "https://steamcdn-a.akamaihd.net/steamcommunity/public/images/apps/826600/50db3cdb5a53d74ceb3e1e8d610bd3fe0cbb110a.jpg"
  },
  {
    "name": "AchievmentMission01",
    "defaultvalue": 0,
    "displayName": "Creature From Space",
    "hidden": 0,
    "description": "Complete \"Creature From Space\"",
    "icon": "https://steamcdn-a.akamaihd.net/steamcommunity/public/images/apps/826600/d51e0596d8933b7adf4f05c470a447d1dc9ca26d.jpg",
    "icongray": "https://steamcdn-a.akamaihd.net/steamcommunity/public/images/apps/826600/dd9419921e352f8e410e0e23849f27f8e8f10d47.jpg"
  },
  {
    "name": "AchievmentMission02",
    "defaultvalue": 0,
    "displayName": "Laser’s Fist",
    "hidden": 0,
    "description": "Complete \"Laser’s Fist\"",
    "icon": "https://steamcdn-a.akamaihd.net/steamcommunity/public/images/apps/826600/a22989f540779caa3b2e74fac901c05d532e29ab.jpg",
    "icongray": "https://steamcdn-a.akamaihd.net/steamcommunity/public/images/apps/826600/d375cb11ccba131acbae39d65137eec660d905bb.jpg"
  },
  {
    "name": "AchievmentMission03",
    "defaultvalue": 0,
    "displayName": "Lead Role",
    "hidden": 0,
    "description": "Complete \"Lead Role\"",
    "icon": "https://steamcdn-a.akamaihd.net/steamcommunity/public/images/apps/826600/52573258c8afe0fa4dcdf2f69af394eda61ee012.jpg",
    "icongray": "https://steamcdn-a.akamaihd.net/steamcommunity/public/images/apps/826600/6aa75b524b82f376c0a84593962935a4703111fc.jpg"
  },
  {
    "name": "AchievmentMission04",
    "defaultvalue": 0,
    "displayName": "An Otherworldly Hangover",
    "hidden": 0,
    "description": "Complete \"An Otherworldly Hangover\"",
    "icon": "https://steamcdn-a.akamaihd.net/steamcommunity/public/images/apps/826600/7539519018f0172494fe77537f7391a25916f827.jpg",
    "icongray": "https://steamcdn-a.akamaihd.net/steamcommunity/public/images/apps/826600/83f54b79db5c1071e932db54c97947378834bfd8.jpg"
  },
  {
    "name": "AchievmentMission07",
    "defaultvalue": 0,
    "displayName": "Last Dance",
    "hidden": 0,
    "description": "Complete \"Last Dance\"",
    "icon": "https://steamcdn-a.akamaihd.net/steamcommunity/public/images/apps/826600/bacfa929b1d7b54d9023c5ad02e2962bbdeef51c.jpg",
    "icongray": "https://steamcdn-a.akamaihd.net/steamcommunity/public/images/apps/826600/2597300a63e5502a05c96529057b87bf7a8a9b41.jpg"
  },
  {
    "name": "AchievmentMission09",
    "defaultvalue": 0,
    "displayName": "Technicalities",
    "hidden": 0,
    "description": "Complete \"Technicalities\"",
    "icon": "https://steamcdn-a.akamaihd.net/steamcommunity/public/images/apps/826600/4719389ee9b7c91590cfa4a2efe6361b983fdcd2.jpg",
    "icongray": "https://steamcdn-a.akamaihd.net/steamcommunity/public/images/apps/826600/37b539dd74749a2a13e51f79630574a0caabd125.jpg"
  },
  {
    "name": "AchievmentMission10",
    "defaultvalue": 0,
    "displayName": "Welcome!",
    "hidden": 0,
    "description": "Complete \"Welcome!\"",
    "icon": "https://steamcdn-a.akamaihd.net/steamcommunity/public/images/apps/826600/37fbcf680a3cfd68c06b3c1d8c16c0473e3e96a4.jpg",
    "icongray": "https://steamcdn-a.akamaihd.net/steamcommunity/public/images/apps/826600/b0ead579d212f01de8e00da823aebff77a236b95.jpg"
  },
  {
    "name": "AchievmentMission12",
    "defaultvalue": 0,
    "displayName": "Deadly Party",
    "hidden": 0,
    "description": "Complete \"Deadly Party\"",
    "icon": "https://steamcdn-a.akamaihd.net/steamcommunity/public/images/apps/826600/ec9c77534345d05a7140ad68aa73f6e1c44b3315.jpg",
    "icongray": "https://steamcdn-a.akamaihd.net/steamcommunity/public/images/apps/826600/c1a124bc99efca5477c41439018cee8301eeea05.jpg"
  },
  {
    "name": "AchievmentMission13",
    "defaultvalue": 0,
    "displayName": "You're Fired!",
    "hidden": 0,
    "description": "Complete \"You're Fired!\"",
    "icon": "https://steamcdn-a.akamaihd.net/steamcommunity/public/images/apps/826600/ffecd0c81df8d22c0a93830df5b61724d1a95109.jpg",
    "icongray": "https://steamcdn-a.akamaihd.net/steamcommunity/public/images/apps/826600/a315ffe07b9098c6a10489a183fbe94d681273fb.jpg"
  },
  {
    "name": "AchievmentMission14",
    "defaultvalue": 0,
    "displayName": "On Tiptoes",
    "hidden": 0,
    "description": "Complete \"On Tiptoes\"",
    "icon": "https://steamcdn-a.akamaihd.net/steamcommunity/public/images/apps/826600/95125db3fdfc63d8702b5efb3d07756a20fdd655.jpg",
    "icongray": "https://steamcdn-a.akamaihd.net/steamcommunity/public/images/apps/826600/c248c8cd1e0f1e074aada82d2063015f3f63a34e.jpg"
  },
  {
    "name": "AchievmentMission15",
    "defaultvalue": 0,
    "displayName": "Diamond Tears",
    "hidden": 0,
    "description": "Complete \"Diamond Tears\"",
    "icon": "https://steamcdn-a.akamaihd.net/steamcommunity/public/images/apps/826600/f318b72a94c7e603790757a7772015106e4e2241.jpg",
    "icongray": "https://steamcdn-a.akamaihd.net/steamcommunity/public/images/apps/826600/02313b925c80c75df74b3343668ab4471a37ad52.jpg"
  },
  {
    "name": "AchievmentMission16",
    "defaultvalue": 0,
    "displayName": "Massacre",
    "hidden": 0,
    "description": "Complete \"Massacre\"",
    "icon": "https://steamcdn-a.akamaihd.net/steamcommunity/public/images/apps/826600/9c0720ea2e726ed58efea6d4564634bf62f769a9.jpg",
    "icongray": "https://steamcdn-a.akamaihd.net/steamcommunity/public/images/apps/826600/bcb613b0de36cfe9c0e173f1652ca28abb008494.jpg"
  },
  {
    "name": "AchievmentMission17",
    "defaultvalue": 0,
    "displayName": "Transformation",
    "hidden": 0,
    "description": "Complete \"Transformation\"",
    "icon": "https://steamcdn-a.akamaihd.net/steamcommunity/public/images/apps/826600/13e93ae053a8a839dbebf3e6f0f61456c50906f0.jpg",
    "icongray": "https://steamcdn-a.akamaihd.net/steamcommunity/public/images/apps/826600/30a30a9a1b787f685c1e06981220866414fcfd92.jpg"
  },
  {
    "name": "AchievmentMission18",
    "defaultvalue": 0,
    "displayName": "Ambush",
    "hidden": 0,
    "description": "Complete \"Ambush\"",
    "icon": "https://steamcdn-a.akamaihd.net/steamcommunity/public/images/apps/826600/23be5d62d781717355aedc05260a929f5e85a9bb.jpg",
    "icongray": "https://steamcdn-a.akamaihd.net/steamcommunity/public/images/apps/826600/a63a80d2d0d516aa146d633d09813cd31f3a25f3.jpg"
  },
  {
    "name": "AchievmentMission19",
    "defaultvalue": 0,
    "displayName": "Betrayal",
    "hidden": 0,
    "description": "Complete \"Betrayal\"",
    "icon": "https://steamcdn-a.akamaihd.net/steamcommunity/public/images/apps/826600/63f57ac2fa0301ef610b5bf7458ba8766d1c57d7.jpg",
    "icongray": "https://steamcdn-a.akamaihd.net/steamcommunity/public/images/apps/826600/05172d803f2f343a44d14da998cc523a8647497e.jpg"
  },
  {
    "name": "AchievmentMission23",
    "defaultvalue": 0,
    "displayName": "Black Sheep",
    "hidden": 0,
    "description": "Complete \"Black Sheep\"",
    "icon": "https://steamcdn-a.akamaihd.net/steamcommunity/public/images/apps/826600/688f3f6b5b4d5a9d97c1541091aa0dee0bb5ccae.jpg",
    "icongray": "https://steamcdn-a.akamaihd.net/steamcommunity/public/images/apps/826600/9ff6f2ae8a73cc98d1d40ea148dd2d4b4fd3af67.jpg"
  },
  {
    "name": "AchievmentMission24",
    "defaultvalue": 0,
    "displayName": "Call of the Sky",
    "hidden": 0,
    "description": "Complete \"Call of the Sky\"",
    "icon": "https://steamcdn-a.akamaihd.net/steamcommunity/public/images/apps/826600/9a5fae71cbf63668dac6195c107182fa010468fc.jpg",
    "icongray": "https://steamcdn-a.akamaihd.net/steamcommunity/public/images/apps/826600/8c8ad69cde8723f35d9ad27f04267189ac093dfc.jpg"
  },
  {
    "name": "AchievmentMission25",
    "defaultvalue": 0,
    "displayName": "Whose Shuttle is This?",
    "hidden": 0,
    "description": "Complete \"Whose Shuttle is This?\"",
    "icon": "https://steamcdn-a.akamaihd.net/steamcommunity/public/images/apps/826600/10c290b714576d6dce157717b5a7c1feb028dbc8.jpg",
    "icongray": "https://steamcdn-a.akamaihd.net/steamcommunity/public/images/apps/826600/37645cfcd317b99dffedfd87dc4c49d6000b3713.jpg"
  },
  {
    "name": "AchievmentMission26",
    "defaultvalue": 0,
    "displayName": "Death to Earthlings",
    "hidden": 0,
    "description": "Complete \"Death to Earthlings\"",
    "icon": "https://steamcdn-a.akamaihd.net/steamcommunity/public/images/apps/826600/6f4844972a71f693d5d590e02fcb8f20fcf06415.jpg",
    "icongray": "https://steamcdn-a.akamaihd.net/steamcommunity/public/images/apps/826600/ce299402ab17222b2895987626e05b087741f91c.jpg"
  },
  {
    "name": "AchievmentMission27",
    "defaultvalue": 0,
    "displayName": "We're Family",
    "hidden": 0,
    "description": "Complete \"We're Family\"",
    "icon": "https://steamcdn-a.akamaihd.net/steamcommunity/public/images/apps/826600/a104156416dc0a92647923cb1ce4e83239485973.jpg",
    "icongray": "https://steamcdn-a.akamaihd.net/steamcommunity/public/images/apps/826600/716506fd2d2ee92dcc2e1058c0c6f6f2ef4f14ee.jpg"
  },
  {
    "name": "AchievmentMission28",
    "defaultvalue": 0,
    "displayName": "Plan B",
    "hidden": 0,
    "description": "Complete \"Plan B\"",
    "icon": "https://steamcdn-a.akamaihd.net/steamcommunity/public/images/apps/826600/1cd0ef3c7043e19c8adf8e811a0f7a536b6a301d.jpg",
    "icongray": "https://steamcdn-a.akamaihd.net/steamcommunity/public/images/apps/826600/d76800ed2e6a139e87d51ef0c2b9e940e9b7f215.jpg"
  },
  {
    "name": "AchievmentMission29",
    "defaultvalue": 0,
    "displayName": "Fresh Air",
    "hidden": 0,
    "description": "Complete \"Fresh Air\"",
    "icon": "https://steamcdn-a.akamaihd.net/steamcommunity/public/images/apps/826600/014fa93d45e44d0c7c08bec0a2e8ea9b003f0125.jpg",
    "icongray": "https://steamcdn-a.akamaihd.net/steamcommunity/public/images/apps/826600/5a9a217d2edabf313f53be65158183888bbb2c66.jpg"
  },
  {
    "name": "AchievmentMission30",
    "defaultvalue": 0,
    "displayName": "Do Not Touch!",
    "hidden": 0,
    "description": "Complete \"Do Not Touch!\"",
    "icon": "https://steamcdn-a.akamaihd.net/steamcommunity/public/images/apps/826600/069a35f91c9d2d2ec6d3d168f8f34d098deb9a1a.jpg",
    "icongray": "https://steamcdn-a.akamaihd.net/steamcommunity/public/images/apps/826600/855b05d950608e852a485d2316c0d6859e77eb24.jpg"
  },
  {
    "name": "AchievmentMission31",
    "defaultvalue": 0,
    "displayName": "Do Not Feed the Animals!",
    "hidden": 0,
    "description": "Complete \"Do Not Feed the Animals!\"",
    "icon": "https://steamcdn-a.akamaihd.net/steamcommunity/public/images/apps/826600/6c5756016b798e240aec2154f277c9eb5f4d72cd.jpg",
    "icongray": "https://steamcdn-a.akamaihd.net/steamcommunity/public/images/apps/826600/9329c56c3f4bc474739ed98e0956cfd231c9bf55.jpg"
  },
  {
    "name": "AchievmentMission33",
    "defaultvalue": 0,
    "displayName": "Sisyphean Task",
    "hidden": 0,
    "description": "Complete \"Sisyphean Task\"",
    "icon": "https://steamcdn-a.akamaihd.net/steamcommunity/public/images/apps/826600/e214f584e417540397dfca9079f637d4e0451ff0.jpg",
    "icongray": "https://steamcdn-a.akamaihd.net/steamcommunity/public/images/apps/826600/cee6ed10be96b7437f5de5f82b0bdcad2fdd4e14.jpg"
  },
  {
    "name": "AchievmentMission34",
    "defaultvalue": 0,
    "displayName": "The Belly of the Beast",
    "hidden": 0,
    "description": "Complete \"The Belly of the Beast\"",
    "icon": "https://steamcdn-a.akamaihd.net/steamcommunity/public/images/apps/826600/5d54a90ac73bda6bad0123854c0db5a97b3e4448.jpg",
    "icongray": "https://steamcdn-a.akamaihd.net/steamcommunity/public/images/apps/826600/70a9da7283d086354a62d44c63c1f60f41b4ef19.jpg"
  },
  {
    "name": "AchievmentMission35",
    "defaultvalue": 0,
    "displayName": "Indestructible",
    "hidden": 0,
    "description": "Complete \"Indestructible\"",
    "icon": "https://steamcdn-a.akamaihd.net/steamcommunity/public/images/apps/826600/fbdbaa3bb2d74aecc827d7bf848ef5cffbf1543e.jpg",
    "icongray": "https://steamcdn-a.akamaihd.net/steamcommunity/public/images/apps/826600/f5b7b3b1aa4519b24e3bad82edc25c244a51ae96.jpg"
  },
  {
    "name": "AchievmentMission37",
    "defaultvalue": 0,
    "displayName": "Revelation",
    "hidden": 0,
    "description": "Complete \"Revelation\"",
    "icon": "https://steamcdn-a.akamaihd.net/steamcommunity/public/images/apps/826600/dbddc73cb23e741a7a73bdcffe54cfe8999042c8.jpg",
    "icongray": "https://steamcdn-a.akamaihd.net/steamcommunity/public/images/apps/826600/7e30907adb153b6d7ec0a49ba7b6fc1c0ee97bde.jpg"
  },
  {
    "name": "AchievmentMission39",
    "defaultvalue": 0,
    "displayName": "Escape",
    "hidden": 1,
    "icon": "https://steamcdn-a.akamaihd.net/steamcommunity/public/images/apps/826600/29ec64147e3756be072e72f6af805c77ce9f80ac.jpg",
    "icongray": "https://steamcdn-a.akamaihd.net/steamcommunity/public/images/apps/826600/17b5222a7090aa15837f4d5d4ca90725dc5b51d4.jpg"
  },
  {
    "name": "AchievmentMission41",
    "defaultvalue": 0,
    "displayName": "Laser Power",
    "hidden": 1,
    "icon": "https://steamcdn-a.akamaihd.net/steamcommunity/public/images/apps/826600/d5ce6a19fef9e69624af73819927f458afd056b9.jpg",
    "icongray": "https://steamcdn-a.akamaihd.net/steamcommunity/public/images/apps/826600/b4178150ed7c14d4ed5d53facecf632000ebc42a.jpg"
  },
  {
    "name": "AchievmentMission42a",
    "defaultvalue": 0,
    "displayName": "Metro",
    "hidden": 1,
    "icon": "https://steamcdn-a.akamaihd.net/steamcommunity/public/images/apps/826600/da5964fe7fedfac72e8c8e6ce4bb6cdf6e038c93.jpg",
    "icongray": "https://steamcdn-a.akamaihd.net/steamcommunity/public/images/apps/826600/0f52d071538c7e278df7082b3d6bf470dbd733a8.jpg"
  },
  {
    "name": "AchievmentMission42b",
    "defaultvalue": 0,
    "displayName": "Stubbornness",
    "hidden": 1,
    "icon": "https://steamcdn-a.akamaihd.net/steamcommunity/public/images/apps/826600/3f2cd7d402aaf101f034fa83213bd5d5db89845a.jpg",
    "icongray": "https://steamcdn-a.akamaihd.net/steamcommunity/public/images/apps/826600/a5b9bb70b91589170a8dea0626b1725d2343e71a.jpg"
  },
  {
    "name": "AchievmentMission42c",
    "defaultvalue": 0,
    "displayName": "Vicious Circle",
    "hidden": 1,
    "icon": "https://steamcdn-a.akamaihd.net/steamcommunity/public/images/apps/826600/81dc0f71fa777cbe3f25c186d19185402a8fe2ec.jpg",
    "icongray": "https://steamcdn-a.akamaihd.net/steamcommunity/public/images/apps/826600/2d2e633e21b10cc9111f8be1b52733b18f0b2670.jpg"
  },
  {
    "name": "AchievmentMission43",
    "defaultvalue": 0,
    "displayName": "New Hope",
    "hidden": 1,
    "icon": "https://steamcdn-a.akamaihd.net/steamcommunity/public/images/apps/826600/e35dd00dfa1718e94eb67b1ffd9ccd7b7d812adc.jpg",
    "icongray": "https://steamcdn-a.akamaihd.net/steamcommunity/public/images/apps/826600/081201fbc15eca8f68cfc19ce67a0a07149a6f83.jpg"
  },
  {
    "name": "AchievmentMission44",
    "defaultvalue": 0,
    "displayName": "Phoenix",
    "hidden": 1,
    "icon": "https://steamcdn-a.akamaihd.net/steamcommunity/public/images/apps/826600/9ab205f3534410b0662b52a2acbb93a338a07a65.jpg",
    "icongray": "https://steamcdn-a.akamaihd.net/steamcommunity/public/images/apps/826600/f01265a2b60edfd9481b6fe4b6170443ad2e333a.jpg"
  },
  {
    "name": "AchievmentMission45",
    "defaultvalue": 0,
    "displayName": "Magician",
    "hidden": 1,
    "icon": "https://steamcdn-a.akamaihd.net/steamcommunity/public/images/apps/826600/578bdc4210995730673297f6d8b299a404a101b5.jpg",
    "icongray": "https://steamcdn-a.akamaihd.net/steamcommunity/public/images/apps/826600/07687af86a8115b2d1ef06d7b62ddb2261848cb8.jpg"
  },
  {
    "name": "AchievmentMission46",
    "defaultvalue": 0,
    "displayName": "Dark Side",
    "hidden": 1,
    "icon": "https://steamcdn-a.akamaihd.net/steamcommunity/public/images/apps/826600/42a3be2d5a0e78a3bc9cce811ccc87df0e432daf.jpg",
    "icongray": "https://steamcdn-a.akamaihd.net/steamcommunity/public/images/apps/826600/7d4d126f56025f504f805abdaedb3549bc2da429.jpg"
  },
  {
    "name": "AchievmentMission47",
    "defaultvalue": 0,
    "displayName": "Light in the Dark",
    "hidden": 1,
    "icon": "https://steamcdn-a.akamaihd.net/steamcommunity/public/images/apps/826600/d69a6b9ece84e8de5a61c769c0ec73d91acec03f.jpg",
    "icongray": "https://steamcdn-a.akamaihd.net/steamcommunity/public/images/apps/826600/eeaac36ee32bc896351ce7fa80c5b5d2488cfed6.jpg"
  },
  {
    "name": "AchievmentMission50",
    "defaultvalue": 0,
    "displayName": "Mr. X",
    "hidden": 1,
    "icon": "https://steamcdn-a.akamaihd.net/steamcommunity/public/images/apps/826600/c9b8e01216ee2278ab0fbdd2a5a4da1c9ec0f8a2.jpg",
    "icongray": "https://steamcdn-a.akamaihd.net/steamcommunity/public/images/apps/826600/648c3bed41c17c91eb20be557a02ab37e7c9afd8.jpg"
  },
  {
    "name": "AchievmentMission51",
    "defaultvalue": 0,
    "displayName": "Old School",
    "hidden": 1,
    "icon": "https://steamcdn-a.akamaihd.net/steamcommunity/public/images/apps/826600/e9c05a18b29ee632f0656f866fe7d06a9518adb1.jpg",
    "icongray": "https://steamcdn-a.akamaihd.net/steamcommunity/public/images/apps/826600/61c48b4bea6e69554378f3ca788e332cf9594105.jpg"
  },
  {
    "name": "AchievmentMission53",
    "defaultvalue": 0,
    "displayName": "Sector 17",
    "hidden": 1,
    "icon": "https://steamcdn-a.akamaihd.net/steamcommunity/public/images/apps/826600/7848e5b006195664e34b91fd31ad880e836912e4.jpg",
    "icongray": "https://steamcdn-a.akamaihd.net/steamcommunity/public/images/apps/826600/729ba955eb40e8efe432ffa98745ec61e1ceae87.jpg"
  },
  {
    "name": "AchievmentMission55",
    "defaultvalue": 0,
    "displayName": "Portal",
    "hidden": 1,
    "icon": "https://steamcdn-a.akamaihd.net/steamcommunity/public/images/apps/826600/d8f7ecf111b078e8899f1c0c20a4e986f44d74e8.jpg",
    "icongray": "https://steamcdn-a.akamaihd.net/steamcommunity/public/images/apps/826600/2f40a6bac52907fa26331c7de2930a1ec23cee8d.jpg"
  }
]