﻿[
  {
    "name": "ACH_FRESHMAN",
    "defaultvalue": 0,
    "displayName": "Freshman",
    "hidden": 0,
    "description": "Just started the game.",
    "icon": "https://steamcdn-a.akamaihd.net/steamcommunity/public/images/apps/98600/eca11d61f88de27b70c302b30cf72439d6b44373.jpg",
    "icongray": "https://steamcdn-a.akamaihd.net/steamcommunity/public/images/apps/98600/06f701f5172638b11250dd679f60f6214af61dc4.jpg"
  },
  {
    "name": "ACH_FIRST_THINGS_FIRST",
    "defaultvalue": 0,
    "displayName": "First Things First",
    "hidden": 0,
    "description": "You managed to finish your first mission.",
    "icon": "https://steamcdn-a.akamaihd.net/steamcommunity/public/images/apps/98600/d1cbbdf8800469fbd720ef2dae1c8766549476d0.jpg",
    "icongray": "https://steamcdn-a.akamaihd.net/steamcommunity/public/images/apps/98600/c961e1966827c4fec71a1c2daaf48784aac57518.jpg"
  },
  {
    "name": "ACH_SOPHOMORE",
    "defaultvalue": 0,
    "displayName": "Sophomore",
    "hidden": 0,
    "description": "Second thing done!",
    "icon": "https://steamcdn-a.akamaihd.net/steamcommunity/public/images/apps/98600/5e6b531e43b7c3237f61708136ad730547cf78b1.jpg",
    "icongray": "https://steamcdn-a.akamaihd.net/steamcommunity/public/images/apps/98600/7628f950ca2957d82f0df82b9f0dfb9b391d7bff.jpg"
  },
  {
    "name": "ACH_BARBEQUE",
    "defaultvalue": 0,
    "displayName": "Barbeque",
    "hidden": 0,
    "description": "You grilled 10 cows.",
    "icon": "https://steamcdn-a.akamaihd.net/steamcommunity/public/images/apps/98600/38f7e0a22dced302da9f0e87df09ae60cb7cbf77.jpg",
    "icongray": "https://steamcdn-a.akamaihd.net/steamcommunity/public/images/apps/98600/d8152c012b13f1fd04c197a8f9fa53b9600e5cc3.jpg"
  },
  {
    "name": "ACH_CHEF",
    "defaultvalue": 0,
    "displayName": "Chef",
    "hidden": 0,
    "description": "You grilled 30 cows.",
    "icon": "https://steamcdn-a.akamaihd.net/steamcommunity/public/images/apps/98600/b9ddba2b24851376334ebdfa97abb95c2c668eeb.jpg",
    "icongray": "https://steamcdn-a.akamaihd.net/steamcommunity/public/images/apps/98600/da519505f423f01108d696635dd8dfd7b4d02a53.jpg"
  },
  {
    "name": "ACH_BULLDOZER",
    "defaultvalue": 0,
    "displayName": "Bulldozer",
    "hidden": 0,
    "description": "You bulldozed 10 buildings.",
    "icon": "https://steamcdn-a.akamaihd.net/steamcommunity/public/images/apps/98600/341d4280348dd30430e23e54746200ede0ce31e9.jpg",
    "icongray": "https://steamcdn-a.akamaihd.net/steamcommunity/public/images/apps/98600/bc0bbe4224e86a548a87a503d481a659962f2a25.jpg"
  },
  {
    "name": "ACH_COSMICBULLDOZER",
    "defaultvalue": 0,
    "displayName": "Cosmic Bulldozer",
    "hidden": 0,
    "description": "You destroyed 30 buildings.",
    "icon": "https://steamcdn-a.akamaihd.net/steamcommunity/public/images/apps/98600/423cbba91264ea9f42d531845da92fba8c425e52.jpg",
    "icongray": "https://steamcdn-a.akamaihd.net/steamcommunity/public/images/apps/98600/a74006628b3b0efe9917968ddca1bef7b2146ca8.jpg"
  },
  {
    "name": "ACH_GOURMET",
    "defaultvalue": 0,
    "displayName": "Gourmet",
    "hidden": 0,
    "description": "You grilled 100 cows.",
    "icon": "https://steamcdn-a.akamaihd.net/steamcommunity/public/images/apps/98600/0e4807abde5f830a7cdb85455c0c91a6d17e54b0.jpg",
    "icongray": "https://steamcdn-a.akamaihd.net/steamcommunity/public/images/apps/98600/3464b768bd1b079473f8bf70fbbdf5ccd7f603af.jpg"
  },
  {
    "name": "ACH_GALACTICBULLDOZER",
    "defaultvalue": 0,
    "displayName": "Galactic Bulldozer",
    "hidden": 0,
    "description": "You destroyed 100 buildings.",
    "icon": "https://steamcdn-a.akamaihd.net/steamcommunity/public/images/apps/98600/799cb9b4e26030816bd41fa66361eeb1e63a80e9.jpg",
    "icongray": "https://steamcdn-a.akamaihd.net/steamcommunity/public/images/apps/98600/c14e970337a85fcad12e6a8da66275ea0444c91f.jpg"
  },
  {
    "name": "ACH_EARTHCRUSHER",
    "defaultvalue": 0,
    "displayName": "Earth Crusher",
    "hidden": 0,
    "description": "You levelled every city with all stars.",
    "icon": "https://steamcdn-a.akamaihd.net/steamcommunity/public/images/apps/98600/e35d84c63448d7d85c114b825721d75ccc1d33ad.jpg",
    "icongray": "https://steamcdn-a.akamaihd.net/steamcommunity/public/images/apps/98600/b878558cbb6e55f65e9845b2b08f371fb963f12a.jpg"
  },
  {
    "name": "ACH_CARCOLLECTOR",
    "defaultvalue": 0,
    "displayName": "Car Collector I",
    "hidden": 0,
    "description": "Wrecked 20 cars.",
    "icon": "https://steamcdn-a.akamaihd.net/steamcommunity/public/images/apps/98600/d107c036f39ed4a54a4157e8406306e0ed4df7b0.jpg",
    "icongray": "https://steamcdn-a.akamaihd.net/steamcommunity/public/images/apps/98600/d9330f6736ced36a3a087d5ef330dc3f43d06b5f.jpg"
  },
  {
    "name": "ACH_CARCOLLECTOR2",
    "defaultvalue": 0,
    "displayName": "Car Collector II",
    "hidden": 0,
    "description": "Wrecked 100 cars.",
    "icon": "https://steamcdn-a.akamaihd.net/steamcommunity/public/images/apps/98600/38d3bc64b1e2b86667c6c41580b6e545d52e6690.jpg",
    "icongray": "https://steamcdn-a.akamaihd.net/steamcommunity/public/images/apps/98600/2bbca3c55360d6c8a8626e852491bccf56320e42.jpg"
  },
  {
    "name": "ACH_CARCOLLECTOR3",
    "defaultvalue": 0,
    "displayName": "Car Collector III",
    "hidden": 0,
    "description": "Wrecked 500 cars.",
    "icon": "https://steamcdn-a.akamaihd.net/steamcommunity/public/images/apps/98600/0bb9eb6cbdc8edc456a9cc82983ae8a5bf66782b.jpg",
    "icongray": "https://steamcdn-a.akamaihd.net/steamcommunity/public/images/apps/98600/d5a9328fdeb8eb5d125e7dbd8319a20f6fb7dd40.jpg"
  },
  {
    "name": "ACH_AMATEURDRIVER",
    "defaultvalue": 0,
    "displayName": "Amateur Driver",
    "hidden": 0,
    "description": "You drove a car for 10s.",
    "icon": "https://steamcdn-a.akamaihd.net/steamcommunity/public/images/apps/98600/23c6344778337ddae8358517784bf09bae5f314e.jpg",
    "icongray": "https://steamcdn-a.akamaihd.net/steamcommunity/public/images/apps/98600/1e222fccf7dcd7e13386f7fd6c0674a1bd04060a.jpg"
  },
  {
    "name": "ACH_PROFESSIONALDRIVER",
    "defaultvalue": 0,
    "displayName": "Professional Driver",
    "hidden": 0,
    "description": "You drove a car for 20s.",
    "icon": "https://steamcdn-a.akamaihd.net/steamcommunity/public/images/apps/98600/9e35d2d03fd5219f9198d4b46e775311de59a56b.jpg",
    "icongray": "https://steamcdn-a.akamaihd.net/steamcommunity/public/images/apps/98600/f27ff967ca489c4a8c98b4992ba8479941da81af.jpg"
  },
  {
    "name": "ACH_EXPERTDRIVER",
    "defaultvalue": 0,
    "displayName": "Expert Driver",
    "hidden": 0,
    "description": "You drove a car for 60s.",
    "icon": "https://steamcdn-a.akamaihd.net/steamcommunity/public/images/apps/98600/4a58754126f1e0488f02ca555bbb62c831ef5b1d.jpg",
    "icongray": "https://steamcdn-a.akamaihd.net/steamcommunity/public/images/apps/98600/74eafeb38cc7dbebc1d611c60c0da311b839f0e2.jpg"
  },
  {
    "name": "ACH_OILYWHEELS",
    "defaultvalue": 0,
    "displayName": "Oily wheels",
    "hidden": 0,
    "description": "You drifted with a car 10s.",
    "icon": "https://steamcdn-a.akamaihd.net/steamcommunity/public/images/apps/98600/26827bce51d8088163685634c965939c04878a73.jpg",
    "icongray": "https://steamcdn-a.akamaihd.net/steamcommunity/public/images/apps/98600/a35145692ddbd9c8b7bbdbdacc2985302e0c41ca.jpg"
  },
  {
    "name": "ACH_SLIDER",
    "defaultvalue": 0,
    "displayName": "Slider",
    "hidden": 0,
    "description": "You drifted with a car 30s.",
    "icon": "https://steamcdn-a.akamaihd.net/steamcommunity/public/images/apps/98600/5effda2c115aa87882800f6504222c2d1755c5e6.jpg",
    "icongray": "https://steamcdn-a.akamaihd.net/steamcommunity/public/images/apps/98600/da6d6e24d268d972fe2739fdd26fec972ed90557.jpg"
  },
  {
    "name": "ACH_DRIFTKING",
    "defaultvalue": 0,
    "displayName": "Drift King",
    "hidden": 0,
    "description": "You drifted with a car 60s.",
    "icon": "https://steamcdn-a.akamaihd.net/steamcommunity/public/images/apps/98600/abf07ee56444e334e9c124ff46cc2936a8df2f65.jpg",
    "icongray": "https://steamcdn-a.akamaihd.net/steamcommunity/public/images/apps/98600/f851f202d1623dcd03377f613b352d33bc622d8c.jpg"
  },
  {
    "name": "ACH_CITYEATER",
    "defaultvalue": 0,
    "displayName": "City Eater",
    "hidden": 0,
    "description": "You levelled a city.",
    "icon": "https://steamcdn-a.akamaihd.net/steamcommunity/public/images/apps/98600/63cdbf9294c75a9e94c25f9066231e5c3df3548d.jpg",
    "icongray": "https://steamcdn-a.akamaihd.net/steamcommunity/public/images/apps/98600/a8ae8cc83cc793e6b0fdaa05082b1e5b79671ad6.jpg"
  },
  {
    "name": "ACH_CITYMUNCHER",
    "defaultvalue": 0,
    "displayName": "City Muncher",
    "hidden": 0,
    "description": "You levelled a city with all stars.",
    "icon": "https://steamcdn-a.akamaihd.net/steamcommunity/public/images/apps/98600/0ff9a7240714ade0e18cc638d437cb673ed2ca1f.jpg",
    "icongray": "https://steamcdn-a.akamaihd.net/steamcommunity/public/images/apps/98600/69a637ffe3fa098c142416d7111dc52e4dfdc9ef.jpg"
  },
  {
    "name": "ACH_CITYDOMINATOR",
    "defaultvalue": 0,
    "displayName": "City Dominator",
    "hidden": 0,
    "description": "You levelled every city.",
    "icon": "https://steamcdn-a.akamaihd.net/steamcommunity/public/images/apps/98600/ce2717c8d4753061cf180b6ea13f6949ad90f348.jpg",
    "icongray": "https://steamcdn-a.akamaihd.net/steamcommunity/public/images/apps/98600/ba95090b8bc6450591f03306e4f58f9f059115e6.jpg"
  },
  {
    "name": "ACH_CARJUMP",
    "defaultvalue": 0,
    "displayName": "Car Jump I",
    "hidden": 0,
    "description": "You jumped 400m.",
    "icon": "https://steamcdn-a.akamaihd.net/steamcommunity/public/images/apps/98600/dc0d37f9dab47a8845df992da46e16e3cf359b0d.jpg",
    "icongray": "https://steamcdn-a.akamaihd.net/steamcommunity/public/images/apps/98600/647cd818387b4eaf200005e444ccfc37419c5f08.jpg"
  },
  {
    "name": "ACH_CARJUMP2",
    "defaultvalue": 0,
    "displayName": "Car Jump II",
    "hidden": 0,
    "description": "You jumped 500m.",
    "icon": "https://steamcdn-a.akamaihd.net/steamcommunity/public/images/apps/98600/845e70e2380f467461884c0fe0f0e328c1349ab9.jpg",
    "icongray": "https://steamcdn-a.akamaihd.net/steamcommunity/public/images/apps/98600/7fa078551224b416e93013ef47b80fe37ab048aa.jpg"
  },
  {
    "name": "ACH_CARJUMP3",
    "defaultvalue": 0,
    "displayName": "Car Jump III",
    "hidden": 0,
    "description": "You jumped 600m.",
    "icon": "https://steamcdn-a.akamaihd.net/steamcommunity/public/images/apps/98600/a9ecc86e1d80b667a8b588a59d7d2534e3d84792.jpg",
    "icongray": "https://steamcdn-a.akamaihd.net/steamcommunity/public/images/apps/98600/92337e0b353dc15d2a88e5b42670e40e5a28859f.jpg"
  },
  {
    "name": "ACH_RAINMAKER",
    "defaultvalue": 0,
    "displayName": "Rainmaker",
    "hidden": 0,
    "description": "Started 10 Asteroid Hails (Level and Weapon Pack)",
    "icon": "https://steamcdn-a.akamaihd.net/steamcommunity/public/images/apps/98600/7c28a588804906eb7416d6a5bc5f0fec121dbc02.jpg",
    "icongray": "https://steamcdn-a.akamaihd.net/steamcommunity/public/images/apps/98600/a20a12e9522fe3f571af70639aad7cab56a97e98.jpg"
  },
  {
    "name": "ACH_SQUADLEADER1",
    "defaultvalue": 0,
    "displayName": "Squad Leader I",
    "hidden": 0,
    "description": "Drove 3 cars with Car Swarm for 5s. (Level and Weapon Pack)",
    "icon": "https://steamcdn-a.akamaihd.net/steamcommunity/public/images/apps/98600/1992d45670acdf4775d1c821a0e25e10cf36c1b0.jpg",
    "icongray": "https://steamcdn-a.akamaihd.net/steamcommunity/public/images/apps/98600/dcaac44dba62a4786a5c0a4c322c70a1578f7910.jpg"
  },
  {
    "name": "ACH_SQUADLEADER2",
    "defaultvalue": 0,
    "displayName": "Squad Leader II",
    "hidden": 0,
    "description": "Drove 3 cars with Car Swarm for 10s. (Level and Weapon Pack)",
    "icon": "https://steamcdn-a.akamaihd.net/steamcommunity/public/images/apps/98600/655612eec49bf6e4cf91fb9db7c911b8db7730fb.jpg",
    "icongray": "https://steamcdn-a.akamaihd.net/steamcommunity/public/images/apps/98600/896b0d2c30568ff224d673ba9ec665cd3bb9fe40.jpg"
  },
  {
    "name": "ACH_SQUADLEADER3",
    "defaultvalue": 0,
    "displayName": "Squad Leader III",
    "hidden": 0,
    "description": "Drove 3 cars with Car Swarm for 15s. (Level and Weapon Pack)",
    "icon": "https://steamcdn-a.akamaihd.net/steamcommunity/public/images/apps/98600/42ba24fa94e8c16716f4cd7f8675ac3115751102.jpg",
    "icongray": "https://steamcdn-a.akamaihd.net/steamcommunity/public/images/apps/98600/10537c8ab3143063a0485d0f79417f2afebfb535.jpg"
  },
  {
    "name": "ACH_MAGNETISM1",
    "defaultvalue": 0,
    "displayName": "Magnetism I",
    "hidden": 0,
    "description": "Earned 50,000 dollars with Car Magnet while it's active. (Level and Weapon Pack)",
    "icon": "https://steamcdn-a.akamaihd.net/steamcommunity/public/images/apps/98600/2a45373983548e6091436e20b5956c5a48d8768c.jpg",
    "icongray": "https://steamcdn-a.akamaihd.net/steamcommunity/public/images/apps/98600/a27e9f1e1ec6fd65f22291ba95cd48c2c1a6ecbc.jpg"
  },
  {
    "name": "ACH_MAGNETISM2",
    "defaultvalue": 0,
    "displayName": "Magnetism II",
    "hidden": 0,
    "description": "Earned 500,000 dollars with Car Magnet while it's active. (Level and Weapon Pack)",
    "icon": "https://steamcdn-a.akamaihd.net/steamcommunity/public/images/apps/98600/958d8a4323054d27e18991517c93d8ccf0d94678.jpg",
    "icongray": "https://steamcdn-a.akamaihd.net/steamcommunity/public/images/apps/98600/c82eaee0e3a80b67867d9678d52a2a654f574351.jpg"
  },
  {
    "name": "ACH_MAGNETISM3",
    "defaultvalue": 0,
    "displayName": "Magnetism III",
    "hidden": 0,
    "description": "Earned 1,500,000 dollars with Car Magnet while it's active. (Level and Weapon Pack)",
    "icon": "https://steamcdn-a.akamaihd.net/steamcommunity/public/images/apps/98600/eeab78e58180047bbb5e1138efdd9994477be20d.jpg",
    "icongray": "https://steamcdn-a.akamaihd.net/steamcommunity/public/images/apps/98600/139de47f1696d45eee4e87ee7fa408d7ad6c92e9.jpg"
  },
  {
    "name": "ACH_DLC1_COMPLETE",
    "defaultvalue": 0,
    "displayName": "Back to Work - Complete",
    "hidden": 0,
    "description": "Completed all cities in the Back to Work campaign (Level and Weapon Pack)",
    "icon": "https://steamcdn-a.akamaihd.net/steamcommunity/public/images/apps/98600/7c9acae2defd94056bab14c7e0fc4857fda51b2d.jpg",
    "icongray": "https://steamcdn-a.akamaihd.net/steamcommunity/public/images/apps/98600/417262cedf2ffd638d51182d4461eb20ab51466a.jpg"
  },
  {
    "name": "ACH_DLC1_COMPLETE_ALLSTARS",
    "defaultvalue": 0,
    "displayName": "Back to Work - All Stars",
    "hidden": 0,
    "description": "Got all stars in the Back to Work campaign (Level and Weapon Pack)",
    "icon": "https://steamcdn-a.akamaihd.net/steamcommunity/public/images/apps/98600/cc71c0f541a944c5c5ad7e5d9e174b029c7d6cba.jpg",
    "icongray": "https://steamcdn-a.akamaihd.net/steamcommunity/public/images/apps/98600/23f843788c93b1c96c4b4e5c763e1876347b44ec.jpg"
  },
  {
    "name": "ACH_DLC1_COMPLETE_ONECITY",
    "defaultvalue": 0,
    "displayName": "Back to Work - One City",
    "hidden": 0,
    "description": "Destroyed a city in the Back to Work campaign (Level and Weapon Pack)",
    "icon": "https://steamcdn-a.akamaihd.net/steamcommunity/public/images/apps/98600/19cd98352fd999d17270b7b75ab5379d9c1abcc6.jpg",
    "icongray": "https://steamcdn-a.akamaihd.net/steamcommunity/public/images/apps/98600/dde4335cd68b2e3136f296aa5cbca36895308772.jpg"
  },
  {
    "name": "ACH_PUBLISH_A_LEVEL",
    "defaultvalue": 0,
    "displayName": "Construction, Inc.",
    "hidden": 0,
    "description": "You created and published your own level to the Steam Workshop",
    "icon": "https://steamcdn-a.akamaihd.net/steamcommunity/public/images/apps/98600/0520f04f3e75f8edc01cde79c29a56c3ef4cc46c.jpg",
    "icongray": "https://steamcdn-a.akamaihd.net/steamcommunity/public/images/apps/98600/3ad63403667c98cddfa7933fefd33b8fd226594a.jpg"
  },
  {
    "name": "ACH_PLAY_PUBLISHED_LEVEL",
    "defaultvalue": 0,
    "displayName": "Downloading, Inc.",
    "hidden": 0,
    "description": "You downloaded and completed a published Steam Workshop level",
    "icon": "https://steamcdn-a.akamaihd.net/steamcommunity/public/images/apps/98600/b308d0a584373343369ded84cf148a3009c79864.jpg",
    "icongray": "https://steamcdn-a.akamaihd.net/steamcommunity/public/images/apps/98600/9ab86bcb5c4fb73ddefe88fefd4c2e24db811c49.jpg"
  }
]