﻿{
  "Dlcs": {
    "528290": {
      "Name": "Just Hero Soundtrack",
      "ImageUrl": "https://steamcdn-a.akamaihd.net/steam/apps/528290/header.jpg?t=1475085067"
    }
  },
  "Name": "Just Hero",
  "AppId": "527760",
  "ImageUrl": "https://steamcdn-a.akamaihd.net/steam/apps/527760/header.jpg?t=1573469104",
  "Languages": [
    "english"
  ],
  "Platforms": {
    "windows": true,
    "mac": false,
    "linux": false
  }
}