﻿{
  "Dlcs": {},
  "Name": "Zomby Soldier",
  "AppId": "769340",
  "ImageUrl": "https://steamcdn-a.akamaihd.net/steam/apps/769340/header.jpg?t=1520508594",
  "Languages": [
    "english"
  ],
  "Platforms": {
    "windows": true,
    "mac": false,
    "linux": false
  }
}