﻿{
  "Dlcs": {},
  "Name": "Rage Runner",
  "AppId": "279520",
  "ImageUrl": "https://steamcdn-a.akamaihd.net/steam/apps/279520/header.jpg?t=1593002815",
  "Languages": [
    "english",
    "french",
    "dutch",
    "japanese"
  ],
  "Platforms": {
    "windows": true,
    "mac": true,
    "linux": false
  }
}