﻿[
  {
    "name": "TIME_PLAYED",
    "defaultvalue": 0,
    "displayName": "Time played"
  },
  {
    "name": "GAME_COUNT",
    "defaultvalue": 0,
    "displayName": "Game count"
  },
  {
    "name": "WARP_COUNT",
    "defaultvalue": 0,
    "displayName": "Warp count"
  },
  {
    "name": "DESTROYED_TURRETS",
    "defaultvalue": 0,
    "displayName": "Destroyed turrets"
  },
  {
    "name": "DESTROYED_TOWERS",
    "defaultvalue": 0,
    "displayName": "Destroyed towers"
  },
  {
    "name": "DESTROYED_CREEPS",
    "defaultvalue": 0,
    "displayName": "Destroyed creeps"
  },
  {
    "name": "UNLOCKED_FIRE",
    "defaultvalue": 0,
    "displayName": "Unlocked fire skills"
  },
  {
    "name": "UNLOCKED_CRYO",
    "defaultvalue": 0,
    "displayName": "Unlocked cryo skills"
  },
  {
    "name": "UNLOCKED_ELECTRO",
    "defaultvalue": 0,
    "displayName": "Unlocked electro skills"
  },
  {
    "name": "UNLOCKED_VOID",
    "defaultvalue": 0,
    "displayName": "Unlocked void skills"
  },
  {
    "name": "VS_AI_WON",
    "defaultvalue": 0,
    "displayName": "Versus AI games won"
  },
  {
    "name": "EXCALIBUR_RANKED_WON",
    "defaultvalue": 0,
    "displayName": "Ranked won as Excalibur"
  },
  {
    "name": "FUSION_RANKED_WON",
    "defaultvalue": 0,
    "displayName": "Ranked won as Fusion"
  },
  {
    "name": "WALLK2_RANKED_WON",
    "defaultvalue": 0,
    "displayName": "Ranked won as WallK2"
  },
  {
    "name": "ZELHATCL_RANKED_WON",
    "defaultvalue": 0,
    "displayName": "Ranked won as Zel'Hatcl"
  },
  {
    "name": "KARKASS_RANKED_WON",
    "defaultvalue": 0,
    "displayName": "Ranked won as Karkass"
  },
  {
    "name": "ACCOUNT_LEVEL",
    "defaultvalue": 0,
    "displayName": "Account level"
  }
]