﻿{
  "Dlcs": {},
  "Name": "Square Head Zombies - FPS Game",
  "AppId": "711930",
  "ImageUrl": "https://steamcdn-a.akamaihd.net/steam/apps/711930/header.jpg?t=1599233979",
  "Languages": [
    "english"
  ],
  "Platforms": {
    "windows": true,
    "mac": false,
    "linux": false
  }
}