﻿[
  {
    "name": "finish_without_damage",
    "defaultvalue": 0,
    "displayName": "No Damage",
    "hidden": 0,
    "description": "Finish Any Level Without Suffer Damage",
    "icon": "https://steamcdn-a.akamaihd.net/steamcommunity/public/images/apps/711930/dda664b778ee5471caf5d31f9a9006a9c480ef29.jpg",
    "icongray": "https://steamcdn-a.akamaihd.net/steamcommunity/public/images/apps/711930/5247ce6ae3f2f16818cbab6bf53683a3831e8c30.jpg"
  },
  {
    "name": "finish_level_5",
    "defaultvalue": 0,
    "displayName": "Finish Level 5",
    "hidden": 0,
    "description": "Finish Level 5",
    "icon": "https://steamcdn-a.akamaihd.net/steamcommunity/public/images/apps/711930/e201b32b57c49dcb692defb1ba81e8e2d387c80d.jpg",
    "icongray": "https://steamcdn-a.akamaihd.net/steamcommunity/public/images/apps/711930/f1df2928a3162ff02c0086d9760e92393ab8b2c0.jpg"
  },
  {
    "name": "finish_level_10",
    "defaultvalue": 0,
    "displayName": "Finish Level 10",
    "hidden": 0,
    "description": "Finish Level 10",
    "icon": "https://steamcdn-a.akamaihd.net/steamcommunity/public/images/apps/711930/1100370938728d496ca31bfb035bc2b2a5f12b79.jpg",
    "icongray": "https://steamcdn-a.akamaihd.net/steamcommunity/public/images/apps/711930/48ec5d67425a43e8b1a613cba9225b23b5b3cc18.jpg"
  },
  {
    "name": "play_game_for_1_hour",
    "defaultvalue": 0,
    "displayName": "Play Game For 1 Hour",
    "hidden": 0,
    "description": "Play Game For 1 Hour",
    "icon": "https://steamcdn-a.akamaihd.net/steamcommunity/public/images/apps/711930/0d590938822bddef1d92505a885733aae85608fd.jpg",
    "icongray": "https://steamcdn-a.akamaihd.net/steamcommunity/public/images/apps/711930/b0b9afbe5cb3dc90afdc82cb68dfe57343282a29.jpg"
  },
  {
    "name": "finish_level_15",
    "defaultvalue": 0,
    "displayName": "Finish Level 15",
    "hidden": 0,
    "description": "Finish Level 15",
    "icon": "https://steamcdn-a.akamaihd.net/steamcommunity/public/images/apps/711930/9fadd6eb8e0063158b2e542f835490836e193fcf.jpg",
    "icongray": "https://steamcdn-a.akamaihd.net/steamcommunity/public/images/apps/711930/48ec5d67425a43e8b1a613cba9225b23b5b3cc18.jpg"
  },
  {
    "name": "finish_level_20",
    "defaultvalue": 0,
    "displayName": "Finish Level 20",
    "hidden": 0,
    "description": "Finish Level 20",
    "icon": "https://steamcdn-a.akamaihd.net/steamcommunity/public/images/apps/711930/3f5c6a61609e4e033230b85b9103a68ba6334a5f.jpg",
    "icongray": "https://steamcdn-a.akamaihd.net/steamcommunity/public/images/apps/711930/5247ce6ae3f2f16818cbab6bf53683a3831e8c30.jpg"
  }
]