﻿{
  "Dlcs": {},
  "Name": "Porcunipine",
  "AppId": "352620",
  "ImageUrl": "https://steamcdn-a.akamaihd.net/steam/apps/352620/header.jpg?t=1591106994",
  "Languages": [
    "english",
    "portuguese"
  ],
  "Platforms": {
    "windows": true,
    "mac": true,
    "linux": false
  }
}