﻿{
  "Dlcs": {
    "364400": {
      "Name": "JumpJet Rex - Soundtrack",
      "ImageUrl": "https://steamcdn-a.akamaihd.net/steam/apps/364400/header.jpg?t=1447372927"
    }
  },
  "Name": "JumpJet Rex",
  "AppId": "329460",
  "ImageUrl": "https://steamcdn-a.akamaihd.net/steam/apps/329460/header.jpg?t=1450395777",
  "Languages": [
    "english",
    "french",
    "italian",
    "german",
    "spanish",
    "russian"
  ],
  "Platforms": {
    "windows": true,
    "mac": true,
    "linux": true
  }
}