﻿[
  {
    "name": "backlogasaurus",
    "defaultvalue": 0,
    "displayName": "Backlogasaurus",
    "hidden": 0,
    "description": "Play the game instead of letting it go extinct in your backlog",
    "icon": "https://steamcdn-a.akamaihd.net/steamcommunity/public/images/apps/329460/a982a5ccfd24835cf2d106faf5cbc14c14da6be6.jpg",
    "icongray": "https://steamcdn-a.akamaihd.net/steamcommunity/public/images/apps/329460/bd9b7a3bb69cb45b2d3f9d80c82ee2d03da6e302.jpg"
  },
  {
    "name": "rekt",
    "defaultvalue": 0,
    "displayName": "JumpJet Rekt",
    "hidden": 0,
    "description": "Die 500 times",
    "icon": "https://steamcdn-a.akamaihd.net/steamcommunity/public/images/apps/329460/a982a5ccfd24835cf2d106faf5cbc14c14da6be6.jpg",
    "icongray": "https://steamcdn-a.akamaihd.net/steamcommunity/public/images/apps/329460/bd9b7a3bb69cb45b2d3f9d80c82ee2d03da6e302.jpg"
  },
  {
    "name": "tristar",
    "defaultvalue": 0,
    "displayName": "Tristaratops",
    "hidden": 0,
    "description": "Get 3 stars on 30 levels",
    "icon": "https://steamcdn-a.akamaihd.net/steamcommunity/public/images/apps/329460/a982a5ccfd24835cf2d106faf5cbc14c14da6be6.jpg",
    "icongray": "https://steamcdn-a.akamaihd.net/steamcommunity/public/images/apps/329460/bd9b7a3bb69cb45b2d3f9d80c82ee2d03da6e302.jpg"
  },
  {
    "name": "trycera",
    "defaultvalue": 0,
    "displayName": "Tryceratops",
    "hidden": 0,
    "description": "Retry a level 30 times",
    "icon": "https://steamcdn-a.akamaihd.net/steamcommunity/public/images/apps/329460/a982a5ccfd24835cf2d106faf5cbc14c14da6be6.jpg",
    "icongray": "https://steamcdn-a.akamaihd.net/steamcommunity/public/images/apps/329460/bd9b7a3bb69cb45b2d3f9d80c82ee2d03da6e302.jpg"
  },
  {
    "name": "wrecks",
    "defaultvalue": 0,
    "displayName": "Tyrannosaurus Wrecks",
    "hidden": 0,
    "description": "Destroy 100 robots",
    "icon": "https://steamcdn-a.akamaihd.net/steamcommunity/public/images/apps/329460/a982a5ccfd24835cf2d106faf5cbc14c14da6be6.jpg",
    "icongray": "https://steamcdn-a.akamaihd.net/steamcommunity/public/images/apps/329460/bd9b7a3bb69cb45b2d3f9d80c82ee2d03da6e302.jpg"
  },
  {
    "name": "pompeii",
    "defaultvalue": 0,
    "displayName": "Pompeii",
    "hidden": 0,
    "description": "Cover a level in ash",
    "icon": "https://steamcdn-a.akamaihd.net/steamcommunity/public/images/apps/329460/a982a5ccfd24835cf2d106faf5cbc14c14da6be6.jpg",
    "icongray": "https://steamcdn-a.akamaihd.net/steamcommunity/public/images/apps/329460/bd9b7a3bb69cb45b2d3f9d80c82ee2d03da6e302.jpg"
  },
  {
    "name": "coinosaur",
    "defaultvalue": 0,
    "displayName": "Coinosaur",
    "hidden": 0,
    "description": "Collect every coin in a level",
    "icon": "https://steamcdn-a.akamaihd.net/steamcommunity/public/images/apps/329460/a982a5ccfd24835cf2d106faf5cbc14c14da6be6.jpg",
    "icongray": "https://steamcdn-a.akamaihd.net/steamcommunity/public/images/apps/329460/bd9b7a3bb69cb45b2d3f9d80c82ee2d03da6e302.jpg"
  },
  {
    "name": "ocdinosaur",
    "defaultvalue": 0,
    "displayName": "OCDinosaur",
    "hidden": 0,
    "description": "Collect every coin in every level",
    "icon": "https://steamcdn-a.akamaihd.net/steamcommunity/public/images/apps/329460/a982a5ccfd24835cf2d106faf5cbc14c14da6be6.jpg",
    "icongray": "https://steamcdn-a.akamaihd.net/steamcommunity/public/images/apps/329460/bd9b7a3bb69cb45b2d3f9d80c82ee2d03da6e302.jpg"
  },
  {
    "name": "shopaholic",
    "defaultvalue": 0,
    "displayName": "Shopaholic",
    "hidden": 0,
    "description": "Spend 100,000 gold in the shop",
    "icon": "https://steamcdn-a.akamaihd.net/steamcommunity/public/images/apps/329460/a982a5ccfd24835cf2d106faf5cbc14c14da6be6.jpg",
    "icongray": "https://steamcdn-a.akamaihd.net/steamcommunity/public/images/apps/329460/bd9b7a3bb69cb45b2d3f9d80c82ee2d03da6e302.jpg"
  },
  {
    "name": "bigmoney",
    "defaultvalue": 0,
    "displayName": "Big Money",
    "hidden": 0,
    "description": "Spend 1,000,000 gold in the shop",
    "icon": "https://steamcdn-a.akamaihd.net/steamcommunity/public/images/apps/329460/a982a5ccfd24835cf2d106faf5cbc14c14da6be6.jpg",
    "icongray": "https://steamcdn-a.akamaihd.net/steamcommunity/public/images/apps/329460/bd9b7a3bb69cb45b2d3f9d80c82ee2d03da6e302.jpg"
  },
  {
    "name": "casual",
    "defaultvalue": 0,
    "displayName": "Filthy Casual",
    "hidden": 0,
    "description": "Complete adventure mode on easy",
    "icon": "https://steamcdn-a.akamaihd.net/steamcommunity/public/images/apps/329460/a982a5ccfd24835cf2d106faf5cbc14c14da6be6.jpg",
    "icongray": "https://steamcdn-a.akamaihd.net/steamcommunity/public/images/apps/329460/bd9b7a3bb69cb45b2d3f9d80c82ee2d03da6e302.jpg"
  },
  {
    "name": "normal",
    "defaultvalue": 0,
    "displayName": "Beat the Game",
    "hidden": 0,
    "description": "Complete adventure mode on normal.",
    "icon": "https://steamcdn-a.akamaihd.net/steamcommunity/public/images/apps/329460/a982a5ccfd24835cf2d106faf5cbc14c14da6be6.jpg",
    "icongray": "https://steamcdn-a.akamaihd.net/steamcommunity/public/images/apps/329460/bd9b7a3bb69cb45b2d3f9d80c82ee2d03da6e302.jpg"
  },
  {
    "name": "heads",
    "defaultvalue": 0,
    "displayName": "Headhunter",
    "hidden": 0,
    "description": "Buy 20 different heads for Rex",
    "icon": "https://steamcdn-a.akamaihd.net/steamcommunity/public/images/apps/329460/a982a5ccfd24835cf2d106faf5cbc14c14da6be6.jpg",
    "icongray": "https://steamcdn-a.akamaihd.net/steamcommunity/public/images/apps/329460/bd9b7a3bb69cb45b2d3f9d80c82ee2d03da6e302.jpg"
  },
  {
    "name": "skins",
    "defaultvalue": 0,
    "displayName": "Rainbow Rex",
    "hidden": 0,
    "description": "Buy 30 different skin colors for Rex",
    "icon": "https://steamcdn-a.akamaihd.net/steamcommunity/public/images/apps/329460/a982a5ccfd24835cf2d106faf5cbc14c14da6be6.jpg",
    "icongray": "https://steamcdn-a.akamaihd.net/steamcommunity/public/images/apps/329460/bd9b7a3bb69cb45b2d3f9d80c82ee2d03da6e302.jpg"
  },
  {
    "name": "streams",
    "defaultvalue": 0,
    "displayName": "Color Blast",
    "hidden": 0,
    "description": "Buy 30 different jet stream colors for Rex",
    "icon": "https://steamcdn-a.akamaihd.net/steamcommunity/public/images/apps/329460/a982a5ccfd24835cf2d106faf5cbc14c14da6be6.jpg",
    "icongray": "https://steamcdn-a.akamaihd.net/steamcommunity/public/images/apps/329460/bd9b7a3bb69cb45b2d3f9d80c82ee2d03da6e302.jpg"
  },
  {
    "name": "shoes",
    "defaultvalue": 0,
    "displayName": "Shoe Shopping",
    "hidden": 0,
    "description": "Buy 20 pairs of jumpboots for Rex",
    "icon": "https://steamcdn-a.akamaihd.net/steamcommunity/public/images/apps/329460/a982a5ccfd24835cf2d106faf5cbc14c14da6be6.jpg",
    "icongray": "https://steamcdn-a.akamaihd.net/steamcommunity/public/images/apps/329460/bd9b7a3bb69cb45b2d3f9d80c82ee2d03da6e302.jpg"
  },
  {
    "name": "boss2",
    "defaultvalue": 0,
    "displayName": "Brobot",
    "hidden": 0,
    "description": "Defeat the second boss",
    "icon": "https://steamcdn-a.akamaihd.net/steamcommunity/public/images/apps/329460/a982a5ccfd24835cf2d106faf5cbc14c14da6be6.jpg",
    "icongray": "https://steamcdn-a.akamaihd.net/steamcommunity/public/images/apps/329460/bd9b7a3bb69cb45b2d3f9d80c82ee2d03da6e302.jpg"
  },
  {
    "name": "boss1",
    "defaultvalue": 0,
    "displayName": "Snowhere to Run",
    "hidden": 0,
    "description": "Defeat the first boss",
    "icon": "https://steamcdn-a.akamaihd.net/steamcommunity/public/images/apps/329460/a982a5ccfd24835cf2d106faf5cbc14c14da6be6.jpg",
    "icongray": "https://steamcdn-a.akamaihd.net/steamcommunity/public/images/apps/329460/bd9b7a3bb69cb45b2d3f9d80c82ee2d03da6e302.jpg"
  },
  {
    "name": "boss3",
    "defaultvalue": 0,
    "displayName": "Planted",
    "hidden": 0,
    "description": "Defeat the third boss",
    "icon": "https://steamcdn-a.akamaihd.net/steamcommunity/public/images/apps/329460/a982a5ccfd24835cf2d106faf5cbc14c14da6be6.jpg",
    "icongray": "https://steamcdn-a.akamaihd.net/steamcommunity/public/images/apps/329460/bd9b7a3bb69cb45b2d3f9d80c82ee2d03da6e302.jpg"
  },
  {
    "name": "boss4",
    "defaultvalue": 0,
    "displayName": "NegaRekt",
    "hidden": 0,
    "description": "Defeat the fourth boss",
    "icon": "https://steamcdn-a.akamaihd.net/steamcommunity/public/images/apps/329460/a982a5ccfd24835cf2d106faf5cbc14c14da6be6.jpg",
    "icongray": "https://steamcdn-a.akamaihd.net/steamcommunity/public/images/apps/329460/bd9b7a3bb69cb45b2d3f9d80c82ee2d03da6e302.jpg"
  },
  {
    "name": "rexbox",
    "defaultvalue": 0,
    "displayName": "RexBox",
    "hidden": 0,
    "description": "Collect all the hidden items",
    "icon": "https://steamcdn-a.akamaihd.net/steamcommunity/public/images/apps/329460/a982a5ccfd24835cf2d106faf5cbc14c14da6be6.jpg",
    "icongray": "https://steamcdn-a.akamaihd.net/steamcommunity/public/images/apps/329460/bd9b7a3bb69cb45b2d3f9d80c82ee2d03da6e302.jpg"
  },
  {
    "name": "fatstacks",
    "defaultvalue": 0,
    "displayName": "Fat Stacks",
    "hidden": 0,
    "description": "With a 4x combo collect a ruby",
    "icon": "https://steamcdn-a.akamaihd.net/steamcommunity/public/images/apps/329460/a982a5ccfd24835cf2d106faf5cbc14c14da6be6.jpg",
    "icongray": "https://steamcdn-a.akamaihd.net/steamcommunity/public/images/apps/329460/bd9b7a3bb69cb45b2d3f9d80c82ee2d03da6e302.jpg"
  },
  {
    "name": "ragequit",
    "defaultvalue": 0,
    "displayName": "Ragequit Rex",
    "hidden": 0,
    "description": "Complete the RageQuit Rex mode",
    "icon": "https://steamcdn-a.akamaihd.net/steamcommunity/public/images/apps/329460/a982a5ccfd24835cf2d106faf5cbc14c14da6be6.jpg",
    "icongray": "https://steamcdn-a.akamaihd.net/steamcommunity/public/images/apps/329460/bd9b7a3bb69cb45b2d3f9d80c82ee2d03da6e302.jpg"
  },
  {
    "name": "turbosaur",
    "defaultvalue": 0,
    "displayName": "Turbosaur",
    "hidden": 0,
    "description": "Complete the SpeedRun mode and post a time to the leaderboard",
    "icon": "https://steamcdn-a.akamaihd.net/steamcommunity/public/images/apps/329460/a982a5ccfd24835cf2d106faf5cbc14c14da6be6.jpg",
    "icongray": "https://steamcdn-a.akamaihd.net/steamcommunity/public/images/apps/329460/bd9b7a3bb69cb45b2d3f9d80c82ee2d03da6e302.jpg"
  },
  {
    "name": "master",
    "defaultvalue": 0,
    "displayName": "Dinonaut Master",
    "hidden": 0,
    "description": "Beat Adventure mode on normal, getting every star and hidden package, under 3 hours",
    "icon": "https://steamcdn-a.akamaihd.net/steamcommunity/public/images/apps/329460/a982a5ccfd24835cf2d106faf5cbc14c14da6be6.jpg",
    "icongray": "https://steamcdn-a.akamaihd.net/steamcommunity/public/images/apps/329460/bd9b7a3bb69cb45b2d3f9d80c82ee2d03da6e302.jpg"
  },
  {
    "name": "ragemaster",
    "defaultvalue": 0,
    "displayName": "Rage Master",
    "hidden": 0,
    "description": "Beat Ragequit Rex without losing any lives.",
    "icon": "https://steamcdn-a.akamaihd.net/steamcommunity/public/images/apps/329460/a982a5ccfd24835cf2d106faf5cbc14c14da6be6.jpg",
    "icongray": "https://steamcdn-a.akamaihd.net/steamcommunity/public/images/apps/329460/bd9b7a3bb69cb45b2d3f9d80c82ee2d03da6e302.jpg"
  },
  {
    "name": "speedmaster",
    "defaultvalue": 0,
    "displayName": "Speed Master",
    "hidden": 0,
    "description": "Beat Speedrun Mode in under 90 minutes.",
    "icon": "https://steamcdn-a.akamaihd.net/steamcommunity/public/images/apps/329460/a982a5ccfd24835cf2d106faf5cbc14c14da6be6.jpg",
    "icongray": "https://steamcdn-a.akamaihd.net/steamcommunity/public/images/apps/329460/bd9b7a3bb69cb45b2d3f9d80c82ee2d03da6e302.jpg"
  },
  {
    "name": "snowplow",
    "defaultvalue": 0,
    "displayName": "Snow Plow",
    "hidden": 0,
    "description": "Destroy 25 snowballs in Snowblind without dying",
    "icon": "https://steamcdn-a.akamaihd.net/steamcommunity/public/images/apps/329460/a982a5ccfd24835cf2d106faf5cbc14c14da6be6.jpg",
    "icongray": "https://steamcdn-a.akamaihd.net/steamcommunity/public/images/apps/329460/bd9b7a3bb69cb45b2d3f9d80c82ee2d03da6e302.jpg"
  },
  {
    "name": "frontin",
    "defaultvalue": 0,
    "displayName": "Frontin'",
    "hidden": 0,
    "description": "Use death to your advantage in Cold Front",
    "icon": "https://steamcdn-a.akamaihd.net/steamcommunity/public/images/apps/329460/a982a5ccfd24835cf2d106faf5cbc14c14da6be6.jpg",
    "icongray": "https://steamcdn-a.akamaihd.net/steamcommunity/public/images/apps/329460/bd9b7a3bb69cb45b2d3f9d80c82ee2d03da6e302.jpg"
  },
  {
    "name": "stayput",
    "defaultvalue": 0,
    "displayName": "Stay Put",
    "hidden": 0,
    "description": "Stun the patroller in p1ng 3 times in one run",
    "icon": "https://steamcdn-a.akamaihd.net/steamcommunity/public/images/apps/329460/a982a5ccfd24835cf2d106faf5cbc14c14da6be6.jpg",
    "icongray": "https://steamcdn-a.akamaihd.net/steamcommunity/public/images/apps/329460/bd9b7a3bb69cb45b2d3f9d80c82ee2d03da6e302.jpg"
  },
  {
    "name": "scrollcut",
    "defaultvalue": 0,
    "displayName": "Scrollcut",
    "hidden": 0,
    "description": "Use the shortcut for a photo finish in Scrollway",
    "icon": "https://steamcdn-a.akamaihd.net/steamcommunity/public/images/apps/329460/a982a5ccfd24835cf2d106faf5cbc14c14da6be6.jpg",
    "icongray": "https://steamcdn-a.akamaihd.net/steamcommunity/public/images/apps/329460/bd9b7a3bb69cb45b2d3f9d80c82ee2d03da6e302.jpg"
  },
  {
    "name": "skillshot",
    "defaultvalue": 0,
    "displayName": "Skillshot",
    "hidden": 0,
    "description": "Use your projectile to trigger 75% of the switches in Power Core",
    "icon": "https://steamcdn-a.akamaihd.net/steamcommunity/public/images/apps/329460/a982a5ccfd24835cf2d106faf5cbc14c14da6be6.jpg",
    "icongray": "https://steamcdn-a.akamaihd.net/steamcommunity/public/images/apps/329460/bd9b7a3bb69cb45b2d3f9d80c82ee2d03da6e302.jpg"
  },
  {
    "name": "spitfire",
    "defaultvalue": 0,
    "displayName": "Spitfire",
    "hidden": 0,
    "description": "Destroy 100 fireseeds in Jungle Jump",
    "icon": "https://steamcdn-a.akamaihd.net/steamcommunity/public/images/apps/329460/a982a5ccfd24835cf2d106faf5cbc14c14da6be6.jpg",
    "icongray": "https://steamcdn-a.akamaihd.net/steamcommunity/public/images/apps/329460/bd9b7a3bb69cb45b2d3f9d80c82ee2d03da6e302.jpg"
  },
  {
    "name": "dribble",
    "defaultvalue": 0,
    "displayName": "Dribble",
    "hidden": 0,
    "description": "Get a 5x bounce combo on the first boss",
    "icon": "https://steamcdn-a.akamaihd.net/steamcommunity/public/images/apps/329460/a982a5ccfd24835cf2d106faf5cbc14c14da6be6.jpg",
    "icongray": "https://steamcdn-a.akamaihd.net/steamcommunity/public/images/apps/329460/bd9b7a3bb69cb45b2d3f9d80c82ee2d03da6e302.jpg"
  },
  {
    "name": "chunky",
    "defaultvalue": 0,
    "displayName": "Chunky",
    "hidden": 0,
    "description": "Defeat the Yeti using only snow chunks",
    "icon": "https://steamcdn-a.akamaihd.net/steamcommunity/public/images/apps/329460/a982a5ccfd24835cf2d106faf5cbc14c14da6be6.jpg",
    "icongray": "https://steamcdn-a.akamaihd.net/steamcommunity/public/images/apps/329460/bd9b7a3bb69cb45b2d3f9d80c82ee2d03da6e302.jpg"
  },
  {
    "name": "seedslam",
    "defaultvalue": 0,
    "displayName": "Seed Slam",
    "hidden": 0,
    "description": "Find Seedmours weak spot!",
    "icon": "https://steamcdn-a.akamaihd.net/steamcommunity/public/images/apps/329460/a982a5ccfd24835cf2d106faf5cbc14c14da6be6.jpg",
    "icongray": "https://steamcdn-a.akamaihd.net/steamcommunity/public/images/apps/329460/bd9b7a3bb69cb45b2d3f9d80c82ee2d03da6e302.jpg"
  },
  {
    "name": "targetpractice",
    "defaultvalue": 0,
    "displayName": "Target Practice",
    "hidden": 0,
    "description": "Get a 100pt combo on Rex's target practice machine in the Dinonaut Base.",
    "icon": "https://steamcdn-a.akamaihd.net/steamcommunity/public/images/apps/329460/a982a5ccfd24835cf2d106faf5cbc14c14da6be6.jpg",
    "icongray": "https://steamcdn-a.akamaihd.net/steamcommunity/public/images/apps/329460/bd9b7a3bb69cb45b2d3f9d80c82ee2d03da6e302.jpg"
  },
  {
    "name": "threepointer",
    "defaultvalue": 0,
    "displayName": "3 Pointer",
    "hidden": 0,
    "description": "Score 3 points in Holoball in the Rexercise Room",
    "icon": "https://steamcdn-a.akamaihd.net/steamcommunity/public/images/apps/329460/a982a5ccfd24835cf2d106faf5cbc14c14da6be6.jpg",
    "icongray": "https://steamcdn-a.akamaihd.net/steamcommunity/public/images/apps/329460/bd9b7a3bb69cb45b2d3f9d80c82ee2d03da6e302.jpg"
  },
  {
    "name": "happyfamily",
    "defaultvalue": 0,
    "displayName": "Happy Family",
    "hidden": 0,
    "description": "Beat a level in Co-op mode",
    "icon": "https://steamcdn-a.akamaihd.net/steamcommunity/public/images/apps/329460/a982a5ccfd24835cf2d106faf5cbc14c14da6be6.jpg",
    "icongray": "https://steamcdn-a.akamaihd.net/steamcommunity/public/images/apps/329460/bd9b7a3bb69cb45b2d3f9d80c82ee2d03da6e302.jpg"
  },
  {
    "name": "bettertogether",
    "defaultvalue": 0,
    "displayName": "Better Together",
    "hidden": 0,
    "description": "Complete adventure mode in co-op",
    "icon": "https://steamcdn-a.akamaihd.net/steamcommunity/public/images/apps/329460/a982a5ccfd24835cf2d106faf5cbc14c14da6be6.jpg",
    "icongray": "https://steamcdn-a.akamaihd.net/steamcommunity/public/images/apps/329460/bd9b7a3bb69cb45b2d3f9d80c82ee2d03da6e302.jpg"
  },
  {
    "name": "masterone",
    "defaultvalue": 0,
    "displayName": "Masteradon",
    "hidden": 0,
    "description": "Master one level",
    "icon": "https://steamcdn-a.akamaihd.net/steamcommunity/public/images/apps/329460/a982a5ccfd24835cf2d106faf5cbc14c14da6be6.jpg",
    "icongray": "https://steamcdn-a.akamaihd.net/steamcommunity/public/images/apps/329460/bd9b7a3bb69cb45b2d3f9d80c82ee2d03da6e302.jpg"
  },
  {
    "name": "masterall",
    "defaultvalue": 0,
    "displayName": "Masteralladon",
    "hidden": 0,
    "description": "Master all levels",
    "icon": "https://steamcdn-a.akamaihd.net/steamcommunity/public/images/apps/329460/a982a5ccfd24835cf2d106faf5cbc14c14da6be6.jpg",
    "icongray": "https://steamcdn-a.akamaihd.net/steamcommunity/public/images/apps/329460/bd9b7a3bb69cb45b2d3f9d80c82ee2d03da6e302.jpg"
  },
  {
    "name": "proper",
    "defaultvalue": 0,
    "displayName": "Beat the Game (Properly)",
    "hidden": 0,
    "description": "Live to fly another day.",
    "icon": "https://steamcdn-a.akamaihd.net/steamcommunity/public/images/apps/329460/a982a5ccfd24835cf2d106faf5cbc14c14da6be6.jpg",
    "icongray": "https://steamcdn-a.akamaihd.net/steamcommunity/public/images/apps/329460/bd9b7a3bb69cb45b2d3f9d80c82ee2d03da6e302.jpg"
  },
  {
    "name": "rexinpiece",
    "defaultvalue": 0,
    "displayName": "Rex In Peace",
    "hidden": 0,
    "description": "Pay the ultimate price.",
    "icon": "https://steamcdn-a.akamaihd.net/steamcommunity/public/images/apps/329460/a982a5ccfd24835cf2d106faf5cbc14c14da6be6.jpg",
    "icongray": "https://steamcdn-a.akamaihd.net/steamcommunity/public/images/apps/329460/bd9b7a3bb69cb45b2d3f9d80c82ee2d03da6e302.jpg"
  },
  {
    "name": "basics",
    "defaultvalue": 0,
    "displayName": "Basic Training",
    "hidden": 0,
    "description": "Complete Boot Camp",
    "icon": "https://steamcdn-a.akamaihd.net/steamcommunity/public/images/apps/329460/a982a5ccfd24835cf2d106faf5cbc14c14da6be6.jpg",
    "icongray": "https://steamcdn-a.akamaihd.net/steamcommunity/public/images/apps/329460/bd9b7a3bb69cb45b2d3f9d80c82ee2d03da6e302.jpg"
  },
  {
    "name": "quickshooting",
    "defaultvalue": 0,
    "displayName": "Quick Shooting",
    "hidden": 0,
    "description": "Kill the Big Globowski in under 30 seconds",
    "icon": "https://steamcdn-a.akamaihd.net/steamcommunity/public/images/apps/329460/a982a5ccfd24835cf2d106faf5cbc14c14da6be6.jpg",
    "icongray": "https://steamcdn-a.akamaihd.net/steamcommunity/public/images/apps/329460/bd9b7a3bb69cb45b2d3f9d80c82ee2d03da6e302.jpg"
  },
  {
    "name": "combonaut",
    "defaultvalue": 0,
    "displayName": "Combonaut",
    "hidden": 0,
    "description": "Have a 4x coin combo multiplier lasting over 30 seconds",
    "icon": "https://steamcdn-a.akamaihd.net/steamcommunity/public/images/apps/329460/a982a5ccfd24835cf2d106faf5cbc14c14da6be6.jpg",
    "icongray": "https://steamcdn-a.akamaihd.net/steamcommunity/public/images/apps/329460/bd9b7a3bb69cb45b2d3f9d80c82ee2d03da6e302.jpg"
  },
  {
    "name": "nojumper",
    "defaultvalue": 0,
    "displayName": "No Jumper",
    "hidden": 0,
    "description": "Beat the target time for a level without using Jump",
    "icon": "https://steamcdn-a.akamaihd.net/steamcommunity/public/images/apps/329460/a982a5ccfd24835cf2d106faf5cbc14c14da6be6.jpg",
    "icongray": "https://steamcdn-a.akamaihd.net/steamcommunity/public/images/apps/329460/bd9b7a3bb69cb45b2d3f9d80c82ee2d03da6e302.jpg"
  },
  {
    "name": "nothinspecial",
    "defaultvalue": 0,
    "displayName": "Nothin' Special",
    "hidden": 0,
    "description": "Beat the target time for a level without using Dash, Drop or Rocket",
    "icon": "https://steamcdn-a.akamaihd.net/steamcommunity/public/images/apps/329460/a982a5ccfd24835cf2d106faf5cbc14c14da6be6.jpg",
    "icongray": "https://steamcdn-a.akamaihd.net/steamcommunity/public/images/apps/329460/bd9b7a3bb69cb45b2d3f9d80c82ee2d03da6e302.jpg"
  },
  {
    "name": "speedpong",
    "defaultvalue": 0,
    "displayName": "Speed P1ng",
    "hidden": 0,
    "description": "Beat P1ng in less than 10 seconds",
    "icon": "https://steamcdn-a.akamaihd.net/steamcommunity/public/images/apps/329460/a982a5ccfd24835cf2d106faf5cbc14c14da6be6.jpg",
    "icongray": "https://steamcdn-a.akamaihd.net/steamcommunity/public/images/apps/329460/bd9b7a3bb69cb45b2d3f9d80c82ee2d03da6e302.jpg"
  },
  {
    "name": "masterfighter",
    "defaultvalue": 0,
    "displayName": "Master Fighter",
    "hidden": 0,
    "description": "Get 3 stars on all 4 bosses",
    "icon": "https://steamcdn-a.akamaihd.net/steamcommunity/public/images/apps/329460/a982a5ccfd24835cf2d106faf5cbc14c14da6be6.jpg",
    "icongray": "https://steamcdn-a.akamaihd.net/steamcommunity/public/images/apps/329460/bd9b7a3bb69cb45b2d3f9d80c82ee2d03da6e302.jpg"
  }
]