﻿{
  "Dlcs": {},
  "Name": "BioShock™",
  "AppId": "7670",
  "ImageUrl": "https://steamcdn-a.akamaihd.net/steam/apps/7670/header.jpg?t=1568739889",
  "Languages": [
    "english",
    "french",
    "german",
    "italian",
    "spanish"
  ],
  "Platforms": {
    "windows": true,
    "mac": false,
    "linux": false
  }
}