﻿{
  "Dlcs": {},
  "Name": "Gemini Rue",
  "AppId": "80310",
  "ImageUrl": "https://steamcdn-a.akamaihd.net/steam/apps/80310/header.jpg?t=1573405936",
  "Languages": [
    "english"
  ],
  "Platforms": {
    "windows": true,
    "mac": true,
    "linux": true
  }
}