﻿[
  {
    "name": "PLAY_AOF",
    "defaultvalue": 0,
    "displayName": "Master of the Universe",
    "hidden": 0,
    "description": "Complete the Game!",
    "icon": "https://steamcdn-a.akamaihd.net/steamcommunity/public/images/apps/339860/0ec7385b8ea1d2678e3c2885b73eb5f8aebecfcf.jpg",
    "icongray": "https://steamcdn-a.akamaihd.net/steamcommunity/public/images/apps/339860/03646172d210a7f703a8cec2502a8e37d2a5fda8.jpg"
  },
  {
    "name": "NEW_ACHIEVEMENT_2_1",
    "defaultvalue": 0,
    "displayName": "Power Level",
    "hidden": 0,
    "description": "Reach Level 100",
    "icon": "https://steamcdn-a.akamaihd.net/steamcommunity/public/images/apps/339860/b3c92365af90c07dc9d325b2fd6c8af8ff4375ac.jpg",
    "icongray": "https://steamcdn-a.akamaihd.net/steamcommunity/public/images/apps/339860/fbb5bdd45fe33f4a25344f7c78a3207aa258067f.jpg"
  },
  {
    "name": "NEW_ACHIEVEMENT_2_2",
    "defaultvalue": 0,
    "displayName": "Swag",
    "hidden": 0,
    "description": "Equip Highest in Game Gear",
    "icon": "https://steamcdn-a.akamaihd.net/steamcommunity/public/images/apps/339860/8fb80bab9f73761026824d60a6ddc67055ca2b8d.jpg",
    "icongray": "https://steamcdn-a.akamaihd.net/steamcommunity/public/images/apps/339860/fa3e67971644653703337f4ccf023c8c6e853e06.jpg"
  }
]