﻿{
  "Dlcs": {},
  "Name": "Spheroids",
  "AppId": "586430",
  "ImageUrl": "https://steamcdn-a.akamaihd.net/steam/apps/586430/header.jpg?t=1572342431",
  "Languages": [
    "english"
  ],
  "Platforms": {
    "windows": true,
    "mac": false,
    "linux": false
  }
}