﻿{
  "Dlcs": {},
  "Name": "Grim Seventh",
  "AppId": "510730",
  "ImageUrl": "https://steamcdn-a.akamaihd.net/steam/apps/510730/header.jpg?t=1490902956",
  "Languages": [
    "english"
  ],
  "Platforms": {
    "windows": true,
    "mac": false,
    "linux": false
  }
}