﻿{
  "Dlcs": {},
  "Name": "The Deep Paths: Labyrinth Of Andokost",
  "AppId": "375500",
  "ImageUrl": "https://steamcdn-a.akamaihd.net/steam/apps/375500/header.jpg?t=1485843822",
  "Languages": [
    "english"
  ],
  "Platforms": {
    "windows": true,
    "mac": true,
    "linux": false
  }
}