﻿{
  "Dlcs": {
    "946130": {
      "Name": "",
      "ImageUrl": ""
    },
    "988760": {
      "Name": "Druid - Wallpapers",
      "ImageUrl": "https://steamcdn-a.akamaihd.net/steam/apps/988760/header.jpg?t=1543421739"
    }
  },
  "Name": "Druid",
  "AppId": "552390",
  "ImageUrl": "https://steamcdn-a.akamaihd.net/steam/apps/552390/header.jpg?t=1596456473",
  "Languages": [
    "english",
    "russian",
    "german",
    "polish",
    "korean",
    "schinese",
    "hungarian",
    "turkish"
  ],
  "Platforms": {
    "windows": true,
    "mac": true,
    "linux": true
  }
}