﻿{
  "Dlcs": {},
  "Name": "Space Fighter",
  "AppId": "691540",
  "ImageUrl": "https://steamcdn-a.akamaihd.net/steam/apps/691540/header.jpg?t=1509040179",
  "Languages": [
    "english"
  ],
  "Platforms": {
    "windows": true,
    "mac": true,
    "linux": true
  }
}