﻿{
  "Dlcs": {},
  "Name": "Mausoleum of the Medusa",
  "AppId": "547260",
  "ImageUrl": "https://steamcdn-a.akamaihd.net/steam/apps/547260/header.jpg?t=1477932476",
  "Languages": [
    "english"
  ],
  "Platforms": {
    "windows": true,
    "mac": true,
    "linux": true
  }
}