﻿[
  {
    "name": "ach_001",
    "defaultvalue": 0,
    "displayName": "Shiny",
    "hidden": 0,
    "description": "Earn a total of 8 stars.",
    "icon": "https://steamcdn-a.akamaihd.net/steamcommunity/public/images/apps/431230/e33671777ee990291449f00b15dd1af9611a1648.jpg",
    "icongray": "https://steamcdn-a.akamaihd.net/steamcommunity/public/images/apps/431230/88d86b7469582df5df0bec0c29ae9c6307eea79f.jpg"
  },
  {
    "name": "ach_002",
    "defaultvalue": 0,
    "displayName": "Starry",
    "hidden": 0,
    "description": "Earn a total of 15 stars.",
    "icon": "https://steamcdn-a.akamaihd.net/steamcommunity/public/images/apps/431230/4eaed402c2902d5c011bbd1e8931f435435d10ef.jpg",
    "icongray": "https://steamcdn-a.akamaihd.net/steamcommunity/public/images/apps/431230/0c5fd27684db7562237304a9a6f8dab94dc1e5cc.jpg"
  },
  {
    "name": "ach_003",
    "defaultvalue": 0,
    "displayName": "Starrific",
    "hidden": 0,
    "description": "Earn a total of 35 stars.",
    "icon": "https://steamcdn-a.akamaihd.net/steamcommunity/public/images/apps/431230/a79ce21eaf5e11413b21b70837b2f3caaa59b665.jpg",
    "icongray": "https://steamcdn-a.akamaihd.net/steamcommunity/public/images/apps/431230/7507516a233bfca9c87ea8f6a1e74dc0592484e3.jpg"
  },
  {
    "name": "ach_004",
    "defaultvalue": 0,
    "displayName": "Startacular",
    "hidden": 0,
    "description": "Earn a total of 56 Stars.",
    "icon": "https://steamcdn-a.akamaihd.net/steamcommunity/public/images/apps/431230/8f5d4e6fd9ecb9968b996bf929e6166a9e256e6d.jpg",
    "icongray": "https://steamcdn-a.akamaihd.net/steamcommunity/public/images/apps/431230/9ca25366feb5a57abfc565f20fd3a3c2d66a2b40.jpg"
  },
  {
    "name": "ach_005",
    "defaultvalue": 0,
    "displayName": "Once Upon The End",
    "hidden": 0,
    "description": "Defeat the Ringmaster.",
    "icon": "https://steamcdn-a.akamaihd.net/steamcommunity/public/images/apps/431230/45b429b2460b083a710dd968fc76a773a8b10773.jpg",
    "icongray": "https://steamcdn-a.akamaihd.net/steamcommunity/public/images/apps/431230/e5e85b9d2935cf30943a8e881bdce3c529fff147.jpg"
  },
  {
    "name": "ach_006",
    "defaultvalue": 0,
    "displayName": "Perfect Defense",
    "hidden": 0,
    "description": "Defeat the Ringmaster and earn 4 stars for that level.",
    "icon": "https://steamcdn-a.akamaihd.net/steamcommunity/public/images/apps/431230/f71a299214bb9c8b4b83766eacfa12c52bf6db96.jpg",
    "icongray": "https://steamcdn-a.akamaihd.net/steamcommunity/public/images/apps/431230/5fdb57ec43021ff844717df6f8230587bbc58ca7.jpg"
  },
  {
    "name": "ach_007",
    "defaultvalue": 0,
    "displayName": "Tough Tale",
    "hidden": 0,
    "description": "Complete 12 Story levels (Hard Mode).",
    "icon": "https://steamcdn-a.akamaihd.net/steamcommunity/public/images/apps/431230/cec06f7f5dfe0d356ccd4ba265601bb94cee548f.jpg",
    "icongray": "https://steamcdn-a.akamaihd.net/steamcommunity/public/images/apps/431230/cf3f4c74706d879b3334b5bb89bd1f8327a8cdd4.jpg"
  },
  {
    "name": "ach_008",
    "defaultvalue": 0,
    "displayName": "Tribrilliant",
    "hidden": 0,
    "description": "Get 3 stars in 12 story levels (Hard Mode).",
    "icon": "https://steamcdn-a.akamaihd.net/steamcommunity/public/images/apps/431230/c66b9e32e8711571b86e4bde0fdcb7fc125a5667.jpg",
    "icongray": "https://steamcdn-a.akamaihd.net/steamcommunity/public/images/apps/431230/a095a4d4204b5357a81e1639f219d86b76f0aa6c.jpg"
  },
  {
    "name": "ach_009",
    "defaultvalue": 0,
    "displayName": "Stepped Up",
    "hidden": 0,
    "description": "Complete 7 Challenge levels.",
    "icon": "https://steamcdn-a.akamaihd.net/steamcommunity/public/images/apps/431230/3ba5a20fa7f48918b48548df20e705b7e453993e.jpg",
    "icongray": "https://steamcdn-a.akamaihd.net/steamcommunity/public/images/apps/431230/e2833a3332f0c888520138825093818379e4d011.jpg"
  },
  {
    "name": "ach_010",
    "defaultvalue": 0,
    "displayName": "Distant Dreams",
    "hidden": 0,
    "description": "Complete 12 Challenge levels.",
    "icon": "https://steamcdn-a.akamaihd.net/steamcommunity/public/images/apps/431230/8a72d0afeeb4f3ceb0188428940d2f753d3e2332.jpg",
    "icongray": "https://steamcdn-a.akamaihd.net/steamcommunity/public/images/apps/431230/6cd12e70e5dd1440d5ba4728c3a4077d6d5e857a.jpg"
  },
  {
    "name": "ach_011",
    "defaultvalue": 0,
    "displayName": "Lionheart",
    "hidden": 0,
    "description": "Complete 12 Challenge levels (Hard mode).",
    "icon": "https://steamcdn-a.akamaihd.net/steamcommunity/public/images/apps/431230/5af9900a7746233d7e6d0f9946ee855fd7be7202.jpg",
    "icongray": "https://steamcdn-a.akamaihd.net/steamcommunity/public/images/apps/431230/7a568415edca447465fb6b770c8439724ed94ad7.jpg"
  },
  {
    "name": "ach_012",
    "defaultvalue": 0,
    "displayName": "Treasure Hunter",
    "hidden": 0,
    "description": "Complete 25 quests.",
    "icon": "https://steamcdn-a.akamaihd.net/steamcommunity/public/images/apps/431230/38c42c0e8d76b2b84409788e5d50b7758988ee87.jpg",
    "icongray": "https://steamcdn-a.akamaihd.net/steamcommunity/public/images/apps/431230/74b5ca2680be5adc4c1578a0e329268e47f48890.jpg"
  },
  {
    "name": "ach_013",
    "defaultvalue": 0,
    "displayName": "Snare Care",
    "hidden": 0,
    "description": "Kill 30 units with Trap in a single level.",
    "icon": "https://steamcdn-a.akamaihd.net/steamcommunity/public/images/apps/431230/09568cebbf6ec59661f6f463885d6f9b8a8fceaf.jpg",
    "icongray": "https://steamcdn-a.akamaihd.net/steamcommunity/public/images/apps/431230/c8162a53e8777d7268290e930fb71a0ab96c8db8.jpg"
  },
  {
    "name": "ach_014",
    "defaultvalue": 0,
    "displayName": "Bring Them To Life",
    "hidden": 0,
    "description": "Revive 1000 units with Regen.",
    "icon": "https://steamcdn-a.akamaihd.net/steamcommunity/public/images/apps/431230/6ad58594aee404eebd8cbae07a9c566dda69e79e.jpg",
    "icongray": "https://steamcdn-a.akamaihd.net/steamcommunity/public/images/apps/431230/c1b724f862282b27b67cc1634cc17bbcc1a3cffa.jpg"
  },
  {
    "name": "ach_015",
    "defaultvalue": 0,
    "displayName": "Comet Plummet ",
    "hidden": 0,
    "description": "Kill 100 enemies with Starfall.",
    "icon": "https://steamcdn-a.akamaihd.net/steamcommunity/public/images/apps/431230/bb459e0ec514fb6fa4d2f4bda32763680ce1a928.jpg",
    "icongray": "https://steamcdn-a.akamaihd.net/steamcommunity/public/images/apps/431230/74f442c400efb8aba5ce998fe370f0ce0109c711.jpg"
  },
  {
    "name": "ach_016",
    "defaultvalue": 0,
    "displayName": "Collector",
    "hidden": 0,
    "description": "Have 12 units in your collection.",
    "icon": "https://steamcdn-a.akamaihd.net/steamcommunity/public/images/apps/431230/364aeebeea2d3cb6bc5c7c82028285de42c4163b.jpg",
    "icongray": "https://steamcdn-a.akamaihd.net/steamcommunity/public/images/apps/431230/8117d0f5c223d51886035081e39a7ba8bdb2ad55.jpg"
  }
]