﻿{
  "Dlcs": {
    "346280": {
      "Name": "Heckabomb - Soundtrack",
      "ImageUrl": "https://steamcdn-a.akamaihd.net/steam/apps/346280/header.jpg?t=1447368105"
    }
  },
  "Name": "Heckabomb",
  "AppId": "344300",
  "ImageUrl": "https://steamcdn-a.akamaihd.net/steam/apps/344300/header.jpg?t=1447367672",
  "Languages": [
    "english"
  ],
  "Platforms": {
    "windows": true,
    "mac": false,
    "linux": false
  }
}