﻿{
  "Dlcs": {},
  "Name": "Q.U.I.R.K.™",
  "AppId": "577210",
  "ImageUrl": "https://steamcdn-a.akamaihd.net/steam/apps/577210/header.jpg?t=1564524976",
  "Languages": [
    "english"
  ],
  "Platforms": {
    "windows": true,
    "mac": true,
    "linux": false
  }
}