﻿[
  {
    "name": "eaLevel2",
    "defaultvalue": 0,
    "displayName": "Stone Cold Killa ",
    "hidden": 0,
    "description": "Reached level 2! ",
    "icon": "https://steamcdn-a.akamaihd.net/steamcommunity/public/images/apps/577210/a725373266d86f531eddd2846f016baf24d2f807.jpg",
    "icongray": "https://steamcdn-a.akamaihd.net/steamcommunity/public/images/apps/577210/42e77367168b552ea52e56e6bc91eb3c8f2d9994.jpg"
  },
  {
    "name": "eaLevel3",
    "defaultvalue": 0,
    "displayName": "Grapple This",
    "hidden": 0,
    "description": "Reached level 3! ",
    "icon": "https://steamcdn-a.akamaihd.net/steamcommunity/public/images/apps/577210/f7c968a330ce4cccdbf44d55c6bbe215fe99ebbe.jpg",
    "icongray": "https://steamcdn-a.akamaihd.net/steamcommunity/public/images/apps/577210/41415c38f2cb890a48ba152efcba4088174a1207.jpg"
  },
  {
    "name": "eaLevel4",
    "defaultvalue": 0,
    "displayName": "Window To The World",
    "hidden": 0,
    "description": "Reached level 4! ",
    "icon": "https://steamcdn-a.akamaihd.net/steamcommunity/public/images/apps/577210/90ab6bc54169d3fc6c9d5edbd59690ddd6340140.jpg",
    "icongray": "https://steamcdn-a.akamaihd.net/steamcommunity/public/images/apps/577210/7d9cbbfb58115140e69ce94017799dbc917995cf.jpg"
  },
  {
    "name": "eaLevel5",
    "defaultvalue": 0,
    "displayName": "It Burns! ",
    "hidden": 0,
    "description": "Reached level 5! ",
    "icon": "https://steamcdn-a.akamaihd.net/steamcommunity/public/images/apps/577210/1d4ed707da0037dc8819c5a49b69476487bc5e64.jpg",
    "icongray": "https://steamcdn-a.akamaihd.net/steamcommunity/public/images/apps/577210/0600d2ef1bfa0d69c14696ae4f94a4bb104a3f17.jpg"
  },
  {
    "name": "eaLevel6",
    "defaultvalue": 0,
    "displayName": "I'm Rubber You're Glue",
    "hidden": 0,
    "description": "Reached level 6! ",
    "icon": "https://steamcdn-a.akamaihd.net/steamcommunity/public/images/apps/577210/18ebc73742b9c6605b4ffb26342afa184e21a07a.jpg",
    "icongray": "https://steamcdn-a.akamaihd.net/steamcommunity/public/images/apps/577210/e0d7255c288acfea8e64c96370e3e45812d7d2e6.jpg"
  },
  {
    "name": "eaLevel7",
    "defaultvalue": 0,
    "displayName": "I Say Potato",
    "hidden": 0,
    "description": "Reached level 7!",
    "icon": "https://steamcdn-a.akamaihd.net/steamcommunity/public/images/apps/577210/f6020da2f4563c8c6a9b0771afdb03d1b6a94b46.jpg",
    "icongray": "https://steamcdn-a.akamaihd.net/steamcommunity/public/images/apps/577210/d2db063454c1701bd83f153df469a1500e933e4f.jpg"
  },
  {
    "name": "eaLevel8",
    "defaultvalue": 0,
    "displayName": "Blue Steel",
    "hidden": 0,
    "description": "Reached level 8!",
    "icon": "https://steamcdn-a.akamaihd.net/steamcommunity/public/images/apps/577210/e7e38da3936ffda808b21b05db4f483de695ab95.jpg",
    "icongray": "https://steamcdn-a.akamaihd.net/steamcommunity/public/images/apps/577210/28a9c12edf696defe6891f5554b09568e9520a2c.jpg"
  },
  {
    "name": "eaLevel9",
    "defaultvalue": 0,
    "displayName": "The Quirk is a Lie",
    "hidden": 0,
    "description": "Reached level 9! ",
    "icon": "https://steamcdn-a.akamaihd.net/steamcommunity/public/images/apps/577210/5658ae2bf78f7453f78a481e9f433eeef4bac41d.jpg",
    "icongray": "https://steamcdn-a.akamaihd.net/steamcommunity/public/images/apps/577210/b546184e1ca4f2c3f131375872dff3b5142e1863.jpg"
  },
  {
    "name": "eaLevel10",
    "defaultvalue": 0,
    "displayName": "Ice, Ice Baby ",
    "hidden": 0,
    "description": "Reached level 10! ",
    "icon": "https://steamcdn-a.akamaihd.net/steamcommunity/public/images/apps/577210/850636325103fca44dd0414d215745315c1e7719.jpg",
    "icongray": "https://steamcdn-a.akamaihd.net/steamcommunity/public/images/apps/577210/28a9c12edf696defe6891f5554b09568e9520a2c.jpg"
  },
  {
    "name": "eaLevel11",
    "defaultvalue": 0,
    "displayName": "Up, Up and Away",
    "hidden": 0,
    "description": "Reached level 11! ",
    "icon": "https://steamcdn-a.akamaihd.net/steamcommunity/public/images/apps/577210/ea85d23b3e74e5e8b610518bbcb035ebaa297967.jpg",
    "icongray": "https://steamcdn-a.akamaihd.net/steamcommunity/public/images/apps/577210/eebcb514fde7b3bf25ab87364299f50963264789.jpg"
  },
  {
    "name": "eaLevel12",
    "defaultvalue": 0,
    "displayName": "Big Bah-Dah-Boom",
    "hidden": 0,
    "description": "Reached level 12! ",
    "icon": "https://steamcdn-a.akamaihd.net/steamcommunity/public/images/apps/577210/48217079b04e9778e59a6d967df5dcdc333c6aa8.jpg",
    "icongray": "https://steamcdn-a.akamaihd.net/steamcommunity/public/images/apps/577210/4cf27ce564996ca05d3d8235645d0c2a9902f662.jpg"
  },
  {
    "name": "eaLevel13",
    "defaultvalue": 0,
    "displayName": "Bounce in My Step",
    "hidden": 0,
    "description": "Reached lucky level 13! ",
    "icon": "https://steamcdn-a.akamaihd.net/steamcommunity/public/images/apps/577210/00b5cd8843e3b2c273affed28e6d825ccfc58cdf.jpg",
    "icongray": "https://steamcdn-a.akamaihd.net/steamcommunity/public/images/apps/577210/d99c85edb38cf7aee6347108db2f0c96824b682d.jpg"
  },
  {
    "name": "eaLevel14",
    "defaultvalue": 0,
    "displayName": "Splish Splash",
    "hidden": 0,
    "description": "Reached level 14! ",
    "icon": "https://steamcdn-a.akamaihd.net/steamcommunity/public/images/apps/577210/034e7831236559aede2f7827b253f43fe1754303.jpg",
    "icongray": "https://steamcdn-a.akamaihd.net/steamcommunity/public/images/apps/577210/247fe17b5d9dbf1707995ade7ad23288fdb59031.jpg"
  },
  {
    "name": "eaLevel15",
    "defaultvalue": 0,
    "displayName": "You Move Me",
    "hidden": 0,
    "description": "Reached level 15! ",
    "icon": "https://steamcdn-a.akamaihd.net/steamcommunity/public/images/apps/577210/21ac4065f4423927a5f141547200e32b581ffc75.jpg",
    "icongray": "https://steamcdn-a.akamaihd.net/steamcommunity/public/images/apps/577210/d0b59b91837537d22a12e9d2cb1c3bbf5ee15444.jpg"
  },
  {
    "name": "eaLevel16",
    "defaultvalue": 0,
    "displayName": "I can't Bee-lieve it",
    "hidden": 0,
    "description": "Reached level 16!",
    "icon": "https://steamcdn-a.akamaihd.net/steamcommunity/public/images/apps/577210/5a11f8553e507350b245a90403c02bbb193f9b23.jpg",
    "icongray": "https://steamcdn-a.akamaihd.net/steamcommunity/public/images/apps/577210/4c4afa37cf50c2e86761493072be45b6c995f996.jpg"
  },
  {
    "name": "eaLevel17",
    "defaultvalue": 0,
    "displayName": "I'll be back",
    "hidden": 0,
    "description": "Reached level 17!",
    "icon": "https://steamcdn-a.akamaihd.net/steamcommunity/public/images/apps/577210/49ab94fbc33f1cf9c8d6b4c21599ae8d55be8a9e.jpg",
    "icongray": "https://steamcdn-a.akamaihd.net/steamcommunity/public/images/apps/577210/fe7ded2fec4abaa705bc9ed0ca260d27668e1724.jpg"
  },
  {
    "name": "eaLevel18",
    "defaultvalue": 0,
    "displayName": "One-Way Ticket",
    "hidden": 0,
    "description": "Reached level 18!",
    "icon": "https://steamcdn-a.akamaihd.net/steamcommunity/public/images/apps/577210/66f9bbe1495dc5cb2c693f998b06e143e0a5b6a4.jpg",
    "icongray": "https://steamcdn-a.akamaihd.net/steamcommunity/public/images/apps/577210/9e723b5924bc84866ba5f17c5d8ddb1311ab3b6e.jpg"
  },
  {
    "name": "eaLevel19",
    "defaultvalue": 0,
    "displayName": "I Want to Pump You Up",
    "hidden": 0,
    "description": "Reached level 19! ",
    "icon": "https://steamcdn-a.akamaihd.net/steamcommunity/public/images/apps/577210/e79c1de5252e124e17b809b574605224d5ad2bc8.jpg",
    "icongray": "https://steamcdn-a.akamaihd.net/steamcommunity/public/images/apps/577210/7784c79dc4540ed476e21459d52acbe742cfd919.jpg"
  },
  {
    "name": "eaLevel20",
    "defaultvalue": 0,
    "displayName": "Fromagier ",
    "hidden": 0,
    "description": "Reached level 20! ",
    "icon": "https://steamcdn-a.akamaihd.net/steamcommunity/public/images/apps/577210/79311ae59a977c5896a4d7958651625c1cdfacb3.jpg",
    "icongray": "https://steamcdn-a.akamaihd.net/steamcommunity/public/images/apps/577210/ced385fbb8cefcb7b42a70cd8274b3a5a53a85c5.jpg"
  },
  {
    "name": "eaLevel21",
    "defaultvalue": 0,
    "displayName": "Cover Me",
    "hidden": 0,
    "description": "Reached level 21!",
    "icon": "https://steamcdn-a.akamaihd.net/steamcommunity/public/images/apps/577210/df4b8e62ce798868ce9178dda6d502f9175f8731.jpg",
    "icongray": "https://steamcdn-a.akamaihd.net/steamcommunity/public/images/apps/577210/c407c993388e658c19bed385e28c25e3d7e887a3.jpg"
  },
  {
    "name": "eaLevel22",
    "defaultvalue": 0,
    "displayName": "Stop! Hammer Time",
    "hidden": 0,
    "description": "Reached level 22!",
    "icon": "https://steamcdn-a.akamaihd.net/steamcommunity/public/images/apps/577210/b0e04b5e7b0e4aaa65056d348386babe809376af.jpg",
    "icongray": "https://steamcdn-a.akamaihd.net/steamcommunity/public/images/apps/577210/3602efed19db38449dbe77d8a495606c62004f05.jpg"
  },
  {
    "name": "eaLevel23",
    "defaultvalue": 0,
    "displayName": "Can't Touch This",
    "hidden": 0,
    "description": "Reached level 23! ",
    "icon": "https://steamcdn-a.akamaihd.net/steamcommunity/public/images/apps/577210/9a4dceba164d6d6f479b552bc0ff0b0e1046690a.jpg",
    "icongray": "https://steamcdn-a.akamaihd.net/steamcommunity/public/images/apps/577210/f83360ee9507dee7588938f73a71007711bd70b2.jpg"
  },
  {
    "name": "eaLevel24",
    "defaultvalue": 0,
    "displayName": "Incoming!",
    "hidden": 0,
    "description": "Reached level 24!",
    "icon": "https://steamcdn-a.akamaihd.net/steamcommunity/public/images/apps/577210/e16806066d980bec9121bd2860b1a7be8793da79.jpg",
    "icongray": "https://steamcdn-a.akamaihd.net/steamcommunity/public/images/apps/577210/3f722fbbec21ca36b5bb0dc46b58f362bfe3b02f.jpg"
  },
  {
    "name": "eaLevel25",
    "defaultvalue": 0,
    "displayName": "Like a box of Chocolates",
    "hidden": 0,
    "description": "Reached level 25! ",
    "icon": "https://steamcdn-a.akamaihd.net/steamcommunity/public/images/apps/577210/9f32cd9316e845dd8ddc982a8092a2e3a92d6df8.jpg",
    "icongray": "https://steamcdn-a.akamaihd.net/steamcommunity/public/images/apps/577210/d9005f380149e5946c7d45e2f5bf00cd13ef1f86.jpg"
  },
  {
    "name": "eaMeta0",
    "defaultvalue": 0,
    "displayName": "Hydrogen Trophy",
    "hidden": 0,
    "description": "Played 1 Match!",
    "icon": "https://steamcdn-a.akamaihd.net/steamcommunity/public/images/apps/577210/ad58d2ffce2511ce4cbe027b51a02190ae2bbf74.jpg",
    "icongray": "https://steamcdn-a.akamaihd.net/steamcommunity/public/images/apps/577210/5ca84bec5cc4b160211cfc1acc2c549783d00c51.jpg"
  },
  {
    "name": "eaMeta1",
    "defaultvalue": 0,
    "displayName": "Helium Trophy",
    "hidden": 0,
    "description": "Played 10 matches! ",
    "icon": "https://steamcdn-a.akamaihd.net/steamcommunity/public/images/apps/577210/db2970dfcd8f3670531b13ca1cb053ab63356847.jpg",
    "icongray": "https://steamcdn-a.akamaihd.net/steamcommunity/public/images/apps/577210/737e2b825e5973f4b33915e303dbeb1b82bf2743.jpg"
  },
  {
    "name": "eaMeta2",
    "defaultvalue": 0,
    "displayName": "Lithium Trophy",
    "hidden": 0,
    "description": "Played 50 matches! ",
    "icon": "https://steamcdn-a.akamaihd.net/steamcommunity/public/images/apps/577210/037f8419a0188b02848ee9f74af780699c228840.jpg",
    "icongray": "https://steamcdn-a.akamaihd.net/steamcommunity/public/images/apps/577210/942c578c2d12acc3ea5a2bd23020cd2801a1bd9f.jpg"
  },
  {
    "name": "eaMeta3",
    "defaultvalue": 0,
    "displayName": "Beryllium Trophy",
    "hidden": 0,
    "description": "Played 100 matches!",
    "icon": "https://steamcdn-a.akamaihd.net/steamcommunity/public/images/apps/577210/a49d5e469ea67d78c584dd09f14caaa2d47cce80.jpg",
    "icongray": "https://steamcdn-a.akamaihd.net/steamcommunity/public/images/apps/577210/3fe811ad220f2aed08bb3ffe1e5514aa97508a1d.jpg"
  },
  {
    "name": "eaMeta4",
    "defaultvalue": 0,
    "displayName": "Boron Trophy",
    "hidden": 0,
    "description": "Played 150 matches! ",
    "icon": "https://steamcdn-a.akamaihd.net/steamcommunity/public/images/apps/577210/755edad769b26cbb1a23f4e5018d7b0cc7ef5e6b.jpg",
    "icongray": "https://steamcdn-a.akamaihd.net/steamcommunity/public/images/apps/577210/399922ae78981537726eeab3fca49c73631205bf.jpg"
  },
  {
    "name": "eaMeta5",
    "defaultvalue": 0,
    "displayName": "Carbon Trophy",
    "hidden": 0,
    "description": "Played 200 matches! ",
    "icon": "https://steamcdn-a.akamaihd.net/steamcommunity/public/images/apps/577210/2f966e8a0d81ef4133d417901715163baf940ecf.jpg",
    "icongray": "https://steamcdn-a.akamaihd.net/steamcommunity/public/images/apps/577210/ee70e44c5ec3e42dc30e1b078c6d9683eab63c3d.jpg"
  },
  {
    "name": "eaMeta6",
    "defaultvalue": 0,
    "displayName": "Nitrogen Trophy",
    "hidden": 0,
    "description": "Played 300 matches! ",
    "icon": "https://steamcdn-a.akamaihd.net/steamcommunity/public/images/apps/577210/5f88abe2b2d72927202318dbccf52e428f553409.jpg",
    "icongray": "https://steamcdn-a.akamaihd.net/steamcommunity/public/images/apps/577210/77370436d759578d0545ee75cca0e9bda7b3bba3.jpg"
  },
  {
    "name": "eaMeta7",
    "defaultvalue": 0,
    "displayName": "Oxygen Trophy",
    "hidden": 0,
    "description": "Played 400 matches!",
    "icon": "https://steamcdn-a.akamaihd.net/steamcommunity/public/images/apps/577210/f13138751b5671934acbd828fc056e8858136e7c.jpg",
    "icongray": "https://steamcdn-a.akamaihd.net/steamcommunity/public/images/apps/577210/9a187a82a7f34bb41f454251bdc7b8dfb5bac14d.jpg"
  },
  {
    "name": "eaMeta8",
    "defaultvalue": 0,
    "displayName": "Flourine Trophy",
    "hidden": 0,
    "description": "Played 500 matches! ",
    "icon": "https://steamcdn-a.akamaihd.net/steamcommunity/public/images/apps/577210/5efd6f7ef164e43a3c67ebaabcdbaaf9fc4bab4f.jpg",
    "icongray": "https://steamcdn-a.akamaihd.net/steamcommunity/public/images/apps/577210/201a7d337d3f988913ee738f83b9700796c225cf.jpg"
  },
  {
    "name": "eaMeta9",
    "defaultvalue": 0,
    "displayName": "Neon Trophy",
    "hidden": 0,
    "description": "Played 600 matches! ",
    "icon": "https://steamcdn-a.akamaihd.net/steamcommunity/public/images/apps/577210/e23516d5c9eb64ad0ac6151b264891c7d89abe93.jpg",
    "icongray": "https://steamcdn-a.akamaihd.net/steamcommunity/public/images/apps/577210/2852a1447db5eeac3237b52368a59d42f28e4112.jpg"
  },
  {
    "name": "eaMeta10",
    "defaultvalue": 0,
    "displayName": "Sodium Trophy",
    "hidden": 0,
    "description": "Played 700 matches! ",
    "icon": "https://steamcdn-a.akamaihd.net/steamcommunity/public/images/apps/577210/2ebd9ff6122cc5c456fcde9225bd0f3158019151.jpg",
    "icongray": "https://steamcdn-a.akamaihd.net/steamcommunity/public/images/apps/577210/02c3b80c13eb862d026107317c6c032789c4a866.jpg"
  },
  {
    "name": "eaMeta11",
    "defaultvalue": 0,
    "displayName": "Magnesium Trophy",
    "hidden": 0,
    "description": "Played 800 games! ",
    "icon": "https://steamcdn-a.akamaihd.net/steamcommunity/public/images/apps/577210/b2cf45daa241d863b36d703df6204f8d2f99c68e.jpg",
    "icongray": "https://steamcdn-a.akamaihd.net/steamcommunity/public/images/apps/577210/8e8f6d90464ec59d3a3499098175de392abd9337.jpg"
  },
  {
    "name": "eaLevel26",
    "defaultvalue": 0,
    "displayName": "That's How I Roll ",
    "hidden": 0,
    "description": "Reached Level 26!",
    "icon": "https://steamcdn-a.akamaihd.net/steamcommunity/public/images/apps/577210/90b8a13624cbbfdc5437dacba8d57a353a5577f6.jpg",
    "icongray": "https://steamcdn-a.akamaihd.net/steamcommunity/public/images/apps/577210/b5804c8d1034349cad575846df69e1c86f9c4090.jpg"
  },
  {
    "name": "eaLevel27",
    "defaultvalue": 0,
    "displayName": "To Seige or Not to Seige",
    "hidden": 0,
    "description": "Reached Level 27!",
    "icon": "https://steamcdn-a.akamaihd.net/steamcommunity/public/images/apps/577210/58bf0a971fd987d3c9bee899f7caf600a78120b7.jpg",
    "icongray": "https://steamcdn-a.akamaihd.net/steamcommunity/public/images/apps/577210/97ef778023d169f411f535fba4bf9a02b540e470.jpg"
  },
  {
    "name": "eaLevel28",
    "defaultvalue": 0,
    "displayName": "Winter is Coming",
    "hidden": 0,
    "description": "Reached Level 28! ",
    "icon": "https://steamcdn-a.akamaihd.net/steamcommunity/public/images/apps/577210/816fdb0263f9fc02e3bc5910e57f9dc40aedd098.jpg",
    "icongray": "https://steamcdn-a.akamaihd.net/steamcommunity/public/images/apps/577210/4575d7f1795bac68830373b24c666558655efae9.jpg"
  },
  {
    "name": "eaLevel29",
    "defaultvalue": 0,
    "displayName": "Rain of Fire",
    "hidden": 0,
    "description": "Reached Level 29!",
    "icon": "https://steamcdn-a.akamaihd.net/steamcommunity/public/images/apps/577210/639b0e68f021089fd912ca4ea8beefcd8698ef43.jpg",
    "icongray": "https://steamcdn-a.akamaihd.net/steamcommunity/public/images/apps/577210/dbb669dca4092dcff19afebdd9ae6bcfc3422c1c.jpg"
  },
  {
    "name": "eaLevel30",
    "defaultvalue": 0,
    "displayName": "Round and Round ",
    "hidden": 0,
    "description": "Reached Level 30!",
    "icon": "https://steamcdn-a.akamaihd.net/steamcommunity/public/images/apps/577210/8168baae02f1972a107046f9f68f72f0e65d2641.jpg",
    "icongray": "https://steamcdn-a.akamaihd.net/steamcommunity/public/images/apps/577210/538777c73a894a03d640c45ba3aa44810b581124.jpg"
  },
  {
    "name": "eaLevel31",
    "defaultvalue": 0,
    "displayName": "Friendly Fire ",
    "hidden": 0,
    "description": "Reached Level 31!",
    "icon": "https://steamcdn-a.akamaihd.net/steamcommunity/public/images/apps/577210/f8321a17186e8412cad38a2b9bdae3affbd96a06.jpg",
    "icongray": "https://steamcdn-a.akamaihd.net/steamcommunity/public/images/apps/577210/af2ecf54c11ce05ee7ab340c8ddf3ed098a96467.jpg"
  },
  {
    "name": "eaLevel32",
    "defaultvalue": 0,
    "displayName": "Zoom!",
    "hidden": 0,
    "description": "Reached Level 32! ",
    "icon": "https://steamcdn-a.akamaihd.net/steamcommunity/public/images/apps/577210/eb9cd543b431b5e605d37a0e131a28ccf8ed7600.jpg",
    "icongray": "https://steamcdn-a.akamaihd.net/steamcommunity/public/images/apps/577210/93c5af73cb7f750b5129035a149325e42e3e2492.jpg"
  },
  {
    "name": "eaLevel33",
    "defaultvalue": 0,
    "displayName": "Say Hello to my Little Friend",
    "hidden": 0,
    "description": "Reached Level 33!",
    "icon": "https://steamcdn-a.akamaihd.net/steamcommunity/public/images/apps/577210/0f42256c49c38389cdd7c1eb83c0decb121d56cb.jpg",
    "icongray": "https://steamcdn-a.akamaihd.net/steamcommunity/public/images/apps/577210/59007023ca45e4d39cd436c6eba3e4f94741b9a1.jpg"
  },
  {
    "name": "eaLevel34",
    "defaultvalue": 0,
    "displayName": "Block Through the Heart ",
    "hidden": 0,
    "description": "Reached Level 34!",
    "icon": "https://steamcdn-a.akamaihd.net/steamcommunity/public/images/apps/577210/324d91d8041b6f7d27e708648bfc868ea3f3763a.jpg",
    "icongray": "https://steamcdn-a.akamaihd.net/steamcommunity/public/images/apps/577210/ccdf536e8f7b7783744f43f9321ef6680dd3cff1.jpg"
  },
  {
    "name": "eaLevel35",
    "defaultvalue": 0,
    "displayName": "I like to Move it Move it ",
    "hidden": 0,
    "description": "Reached Level 35! ",
    "icon": "https://steamcdn-a.akamaihd.net/steamcommunity/public/images/apps/577210/47bf2131f2b89c95ca1fe44654aff6285f7e231d.jpg",
    "icongray": "https://steamcdn-a.akamaihd.net/steamcommunity/public/images/apps/577210/15566e50c02f10a790359077138625e7d008daa3.jpg"
  }
]