﻿[
  {
    "name": "DEATH_BY_SUICIDE",
    "defaultvalue": 0,
    "displayName": "gORE",
    "hidden": 0,
    "description": "Do yourself a seppuku.",
    "icon": "https://steamcdn-a.akamaihd.net/steamcommunity/public/images/apps/790130/11ac6e2a9486754ff145d9d775174a12eadf0d30.jpg",
    "icongray": "https://steamcdn-a.akamaihd.net/steamcommunity/public/images/apps/790130/484283529727bbd9dfea038d51f1c6a02ea920cf.jpg"
  },
  {
    "name": "DEATH_X_TIMES",
    "defaultvalue": 0,
    "displayName": "chORE",
    "hidden": 0,
    "description": "Die. Die a lot. In a single level. ",
    "icon": "https://steamcdn-a.akamaihd.net/steamcommunity/public/images/apps/790130/34485d22c5d60593cae59458b8099b5f5c1858fd.jpg",
    "icongray": "https://steamcdn-a.akamaihd.net/steamcommunity/public/images/apps/790130/1c6dd0a30666a2aabd27a9164ed54c7a433bbec2.jpg"
  },
  {
    "name": "DEATH_BY_ROVER",
    "defaultvalue": 0,
    "displayName": "sORE",
    "hidden": 0,
    "description": "Ten tons of fun. On top of you.",
    "icon": "https://steamcdn-a.akamaihd.net/steamcommunity/public/images/apps/790130/06dfc421bf5be38df89b0f8d64ee807a0da6f752.jpg",
    "icongray": "https://steamcdn-a.akamaihd.net/steamcommunity/public/images/apps/790130/a607ac39cbb5baaa43bf8ebb81989c8c486bbf26.jpg"
  },
  {
    "name": "RESTORE_X_HEALTH",
    "defaultvalue": 0,
    "displayName": "doctORE",
    "hidden": 0,
    "description": "Heal. Heal a lot. In a single level.",
    "icon": "https://steamcdn-a.akamaihd.net/steamcommunity/public/images/apps/790130/cc38e1cf3ba0fe793473d6936b598c3a7a5cb6f9.jpg",
    "icongray": "https://steamcdn-a.akamaihd.net/steamcommunity/public/images/apps/790130/3c82b20b366f1b37e7e3148010027d1de5f6abb3.jpg"
  },
  {
    "name": "SAVE_FRIEND_FROM_DEVOURER",
    "defaultvalue": 0,
    "displayName": "saviORE",
    "hidden": 0,
    "description": "Save a friend from a hungry enemy. ",
    "icon": "https://steamcdn-a.akamaihd.net/steamcommunity/public/images/apps/790130/e6c5a76eff68b5141d1c2f4d4c4a32c9a1895ca5.jpg",
    "icongray": "https://steamcdn-a.akamaihd.net/steamcommunity/public/images/apps/790130/677c35bff290676543e1a87d01beb850950455ea.jpg"
  },
  {
    "name": "PUSH_BUG",
    "defaultvalue": 0,
    "displayName": "murdORE",
    "hidden": 0,
    "description": "Push a bug off a ledge. That simple.",
    "icon": "https://steamcdn-a.akamaihd.net/steamcommunity/public/images/apps/790130/8268661dc25e52596a2550694ad9f04bf1d7c9be.jpg",
    "icongray": "https://steamcdn-a.akamaihd.net/steamcommunity/public/images/apps/790130/889f39866f60ff2631aa8c44b21e8951382770a5.jpg"
  },
  {
    "name": "PLAYERS_ON_FIRE",
    "defaultvalue": 0,
    "displayName": "fiORE!",
    "hidden": 0,
    "description": "Get spicy, then get your friends spicy, too.",
    "icon": "https://steamcdn-a.akamaihd.net/steamcommunity/public/images/apps/790130/2bba8f6c93bfe748745c608125412422dac3ad35.jpg",
    "icongray": "https://steamcdn-a.akamaihd.net/steamcommunity/public/images/apps/790130/81f74c4bc6a04d267bd287e7f20f74614cbe0a3a.jpg"
  },
  {
    "name": "BEAT_LEVEL_NO_OVERHEAT",
    "defaultvalue": 0,
    "displayName": "fOREver",
    "hidden": 0,
    "description": "Finish a level without your weapons getting tired and hot.",
    "icon": "https://steamcdn-a.akamaihd.net/steamcommunity/public/images/apps/790130/0d4cedfc23bf53cedf7611af6a58339b90e5d36f.jpg",
    "icongray": "https://steamcdn-a.akamaihd.net/steamcommunity/public/images/apps/790130/866acfd313a64bc149fb4907cfee923641da2d70.jpg"
  },
  {
    "name": "BEAT_LEVEL_TUTORIAL",
    "defaultvalue": 0,
    "displayName": "OREintation",
    "hidden": 0,
    "description": "You've passed basic training.",
    "icon": "https://steamcdn-a.akamaihd.net/steamcommunity/public/images/apps/790130/b02c0d2d07c86d5ecf861b592fe2c0bc03612cbc.jpg",
    "icongray": "https://steamcdn-a.akamaihd.net/steamcommunity/public/images/apps/790130/34d32e2e4d3913ce1c4d0e050cfde3405ecd197c.jpg"
  },
  {
    "name": "BEAT_LEVEL_ANY_SINGLE_PLAYER",
    "defaultvalue": 0,
    "displayName": "OREphan",
    "hidden": 0,
    "description": "One man (or woman) wolf pack. ",
    "icon": "https://steamcdn-a.akamaihd.net/steamcommunity/public/images/apps/790130/2c2eca349c8f82ade5ae1039dd7a4d4b8c244726.jpg",
    "icongray": "https://steamcdn-a.akamaihd.net/steamcommunity/public/images/apps/790130/15a49740ab58fc2c60847d252cb3bbde5c95b2fb.jpg"
  },
  {
    "name": "BEAT_LEVEL_ANY_SAME_WEAPON",
    "defaultvalue": 0,
    "displayName": "unOREthodox",
    "hidden": 0,
    "description": "Stick with what you're good at, I guess?",
    "icon": "https://steamcdn-a.akamaihd.net/steamcommunity/public/images/apps/790130/2ecd851d70d866de1f9e1c475d1a354353d33053.jpg",
    "icongray": "https://steamcdn-a.akamaihd.net/steamcommunity/public/images/apps/790130/6287828abefebd2b2e62931f65554d1f8d994343.jpg"
  },
  {
    "name": "BEAT_LEVEL_BOSS_2_PLAYER",
    "defaultvalue": 0,
    "displayName": "labORErs",
    "hidden": 0,
    "description": "You beat the big bad and saved the planet as just a duo.",
    "icon": "https://steamcdn-a.akamaihd.net/steamcommunity/public/images/apps/790130/17abead7532c000e18cc1ab59cf2eb84a98c48e1.jpg",
    "icongray": "https://steamcdn-a.akamaihd.net/steamcommunity/public/images/apps/790130/a6f8af01832e4dddb3445dd8ffb1d13b8d48f3c2.jpg"
  },
  {
    "name": "BEAT_LEVEL_BOSS_3_PLAYER",
    "defaultvalue": 0,
    "displayName": "vapOREized",
    "hidden": 0,
    "description": "You beat the big bad and saved the planet as a triplet.",
    "icon": "https://steamcdn-a.akamaihd.net/steamcommunity/public/images/apps/790130/91986c79690931f048c769c9d72c4ee4c1cde788.jpg",
    "icongray": "https://steamcdn-a.akamaihd.net/steamcommunity/public/images/apps/790130/f51fd1cb8e8451536828a06ddaef6928f5dff2b8.jpg"
  },
  {
    "name": "BEAT_LEVEL_BOSS_4_PLAYER",
    "defaultvalue": 0,
    "displayName": "slaughtOREd",
    "hidden": 0,
    "description": "Kill the boss and save the planet with three of your bestest friends.",
    "icon": "https://steamcdn-a.akamaihd.net/steamcommunity/public/images/apps/790130/16614de333ce565018f80bfab80e8c16c2c3c4ec.jpg",
    "icongray": "https://steamcdn-a.akamaihd.net/steamcommunity/public/images/apps/790130/b89d17423baf6b247f30739643348d007e9f60f0.jpg"
  },
  {
    "name": "BEAT_LEVEL_BOSS_SINGLE_PLAYER",
    "defaultvalue": 0,
    "displayName": "honOREd",
    "hidden": 0,
    "description": "You beat the boss and saved the planet solo.",
    "icon": "https://steamcdn-a.akamaihd.net/steamcommunity/public/images/apps/790130/664bdf01e81e1132b1a03961960156d230e39bbf.jpg",
    "icongray": "https://steamcdn-a.akamaihd.net/steamcommunity/public/images/apps/790130/3ac6d181fce8926e2a054b825e28614509b3b90d.jpg"
  },
  {
    "name": "BEAT_LEVEL_BOSS_X_MISSIONS",
    "defaultvalue": 0,
    "displayName": "high scORE",
    "hidden": 0,
    "description": "Beat the boss with plenty of attempts left to spare.",
    "icon": "https://steamcdn-a.akamaihd.net/steamcommunity/public/images/apps/790130/657bc464fb826a5a59173808cfc1fecc7ed0e3d6.jpg",
    "icongray": "https://steamcdn-a.akamaihd.net/steamcommunity/public/images/apps/790130/f27a779bc4ef6f369ae35899e09085b5f62c1821.jpg"
  },
  {
    "name": "BEAT_LEVEL_X_ROVER_HEALTH",
    "defaultvalue": 0,
    "displayName": "sORE",
    "hidden": 0,
    "description": "You almost lost your best friend. Good thing you're a professional at this stuff.",
    "icon": "https://steamcdn-a.akamaihd.net/steamcommunity/public/images/apps/790130/a075c9b51f1e8d98e438ef17c690d64ad2f406fe.jpg",
    "icongray": "https://steamcdn-a.akamaihd.net/steamcommunity/public/images/apps/790130/691c86bc4862e9b440a0aa353622d0b2e707db35.jpg"
  },
  {
    "name": "KILL_X_FRIENDLIES",
    "defaultvalue": 0,
    "displayName": "rancORE",
    "hidden": 0,
    "description": "You're a friend murderer. You're a bad person. But so are we for giving you friendly-fire, so good job, I guess?",
    "icon": "https://steamcdn-a.akamaihd.net/steamcommunity/public/images/apps/790130/27716b2541e60780df936d629866be75efe9740f.jpg",
    "icongray": "https://steamcdn-a.akamaihd.net/steamcommunity/public/images/apps/790130/1c64a64d6bb7e4657cc6b325238675e9f646c428.jpg"
  },
  {
    "name": "KILL_ENEMY_SLOWED",
    "defaultvalue": 0,
    "displayName": "fOREplay",
    "hidden": 0,
    "description": "You killed that one nice and SLOW.",
    "icon": "https://steamcdn-a.akamaihd.net/steamcommunity/public/images/apps/790130/a56204f5597a5d4f2d7bfcaeebfaca40d6752917.jpg",
    "icongray": "https://steamcdn-a.akamaihd.net/steamcommunity/public/images/apps/790130/878572469dd1c497b86f038df5d30161a39c5dad.jpg"
  },
  {
    "name": "REACH_BOSS_LEVEL",
    "defaultvalue": 0,
    "displayName": "cORE",
    "hidden": 0,
    "description": "You journeyed to the center of the planet. Good luck!",
    "icon": "https://steamcdn-a.akamaihd.net/steamcommunity/public/images/apps/790130/e65bcd695b9db0d2c42a959ba83c9c64e8247224.jpg",
    "icongray": "https://steamcdn-a.akamaihd.net/steamcommunity/public/images/apps/790130/00e1669c346647a9b3c9dd181b7616e1096479ba.jpg"
  },
  {
    "name": "REACH_SECRET_PANDORA",
    "defaultvalue": 0,
    "displayName": "explORE Pandora Drifts",
    "hidden": 0,
    "description": "You discovered the secrets hidden in Pandora Drifts. ",
    "icon": "https://steamcdn-a.akamaihd.net/steamcommunity/public/images/apps/790130/fb5a745cd21f4434d4d4918c4af779c701abcaca.jpg",
    "icongray": "https://steamcdn-a.akamaihd.net/steamcommunity/public/images/apps/790130/eafe4c0f28091ce43ff0d5a27dfe605e2d304a5e.jpg"
  },
  {
    "name": "REACH_SECRET_GLACIER",
    "defaultvalue": 0,
    "displayName": "explORE Glacier Depot",
    "hidden": 0,
    "description": "You discovered the secrets hidden in Glacier Depot.",
    "icon": "https://steamcdn-a.akamaihd.net/steamcommunity/public/images/apps/790130/fb5a745cd21f4434d4d4918c4af779c701abcaca.jpg",
    "icongray": "https://steamcdn-a.akamaihd.net/steamcommunity/public/images/apps/790130/eafe4c0f28091ce43ff0d5a27dfe605e2d304a5e.jpg"
  },
  {
    "name": "REACH_SECRET_RADIANT",
    "defaultvalue": 0,
    "displayName": "explORE Radiant Coast",
    "hidden": 0,
    "description": "You discovered the secrets hidden in Radiant Coast.",
    "icon": "https://steamcdn-a.akamaihd.net/steamcommunity/public/images/apps/790130/fb5a745cd21f4434d4d4918c4af779c701abcaca.jpg",
    "icongray": "https://steamcdn-a.akamaihd.net/steamcommunity/public/images/apps/790130/eafe4c0f28091ce43ff0d5a27dfe605e2d304a5e.jpg"
  },
  {
    "name": "REACH_SECRET_FIELDS",
    "defaultvalue": 0,
    "displayName": "explORE Searing Lava Fields",
    "hidden": 0,
    "description": "You discovered the secrets hidden in Searing Lava Fields.",
    "icon": "https://steamcdn-a.akamaihd.net/steamcommunity/public/images/apps/790130/fb5a745cd21f4434d4d4918c4af779c701abcaca.jpg",
    "icongray": "https://steamcdn-a.akamaihd.net/steamcommunity/public/images/apps/790130/f1919e400120dd4c9967bb135b0985812fb0f362.jpg"
  },
  {
    "name": "REACH_SECRET_FOUNDRY",
    "defaultvalue": 0,
    "displayName": "explORE The Foundry",
    "hidden": 0,
    "description": "You discovered the secrets hidden in The Foundry.",
    "icon": "https://steamcdn-a.akamaihd.net/steamcommunity/public/images/apps/790130/fb5a745cd21f4434d4d4918c4af779c701abcaca.jpg",
    "icongray": "https://steamcdn-a.akamaihd.net/steamcommunity/public/images/apps/790130/eafe4c0f28091ce43ff0d5a27dfe605e2d304a5e.jpg"
  },
  {
    "name": "BUY_EVERYTHING",
    "defaultvalue": 0,
    "displayName": "OREdinance",
    "hidden": 0,
    "description": "You're a very big spender.",
    "icon": "https://steamcdn-a.akamaihd.net/steamcommunity/public/images/apps/790130/bb9bd2eec0a1814b9f5ddc69462c319bc9768e22.jpg",
    "icongray": "https://steamcdn-a.akamaihd.net/steamcommunity/public/images/apps/790130/5a4a4c65303855264675bfcfc43a3125ec88096a.jpg"
  },
  {
    "name": "MINE_X_ORE",
    "defaultvalue": 0,
    "displayName": "OREgasm",
    "hidden": 0,
    "description": "You drained those hotspots of a massive amount of money.",
    "icon": "https://steamcdn-a.akamaihd.net/steamcommunity/public/images/apps/790130/3b0782dc30ce4913e1e9bcb63ec496ae58dc6dbc.jpg",
    "icongray": "https://steamcdn-a.akamaihd.net/steamcommunity/public/images/apps/790130/0457dfaf20cc9e634c6cc6e307f0979d418f20a6.jpg"
  }
]