﻿[
  {
    "name": "ACHIEVEMENT_CAREER_01",
    "defaultvalue": 0,
    "displayName": "WAYPOINT SERIES 1",
    "hidden": 0,
    "description": "Place 3rd or higher in the Waypoint  Series 1 in the MotoCareer",
    "icon": "https://steamcdn-a.akamaihd.net/steamcommunity/public/images/apps/55140/797a0bd4710779e3e41a74e799393121a5a1bb4c.jpg",
    "icongray": "https://steamcdn-a.akamaihd.net/steamcommunity/public/images/apps/55140/459795768a2df3e074b4ae9360040b7d768c766e.jpg"
  },
  {
    "name": "ACHIEVEMENT_CAREER_02",
    "defaultvalue": 0,
    "displayName": "WAYPOINT SERIES 2",
    "hidden": 0,
    "description": "Place 3rd or higher in the Waypoint Series 2 in the MotoCareer",
    "icon": "https://steamcdn-a.akamaihd.net/steamcommunity/public/images/apps/55140/1496bab5d68a9fb6657c48820356a34d0a67528a.jpg",
    "icongray": "https://steamcdn-a.akamaihd.net/steamcommunity/public/images/apps/55140/944c694455aef8e3162d63c5db9c75c60e586d90.jpg"
  },
  {
    "name": "ACHIEVEMENT_CAREER_03",
    "defaultvalue": 0,
    "displayName": "WAYPOINT SERIES 3",
    "hidden": 0,
    "description": "Place 3rd or higher in the Waypoint Series 3 in the MotoCareer",
    "icon": "https://steamcdn-a.akamaihd.net/steamcommunity/public/images/apps/55140/f3a461230b5efc7d1cb0a266892b96d8683cc357.jpg",
    "icongray": "https://steamcdn-a.akamaihd.net/steamcommunity/public/images/apps/55140/baf80e1eae4b84beb3112b0dbee4f6db7218f879.jpg"
  },
  {
    "name": "ACHIEVEMENT_CAREER_04",
    "defaultvalue": 0,
    "displayName": "NATIONAL SERIES 1",
    "hidden": 0,
    "description": "Place 3rd or higher in the National Series 1 in the MotoCareer",
    "icon": "https://steamcdn-a.akamaihd.net/steamcommunity/public/images/apps/55140/750f527ead649232c4fc21a2c4ad8d909c54c011.jpg",
    "icongray": "https://steamcdn-a.akamaihd.net/steamcommunity/public/images/apps/55140/fb53b58557ce274a4b3a8f041a79d9f3ccd4a51b.jpg"
  },
  {
    "name": "ACHIEVEMENT_CAREER_05",
    "defaultvalue": 0,
    "displayName": "NATIONAL SERIES 2",
    "hidden": 0,
    "description": "Place 3rd or higher in the National Series 2 in the MotoCareer",
    "icon": "https://steamcdn-a.akamaihd.net/steamcommunity/public/images/apps/55140/e6999dff56d0b53dd9999c6155d7f89595052a7b.jpg",
    "icongray": "https://steamcdn-a.akamaihd.net/steamcommunity/public/images/apps/55140/5b9d89998e5b1bf9d34b9032ff01af278b2d8886.jpg"
  },
  {
    "name": "ACHIEVEMENT_CAREER_06",
    "defaultvalue": 0,
    "displayName": "NATIONAL SERIES 3",
    "hidden": 0,
    "description": "Place 3rd or higher in the National Series 3 in the MotoCareer",
    "icon": "https://steamcdn-a.akamaihd.net/steamcommunity/public/images/apps/55140/d517379ea52ccefbeddf38302b0ed892587a2718.jpg",
    "icongray": "https://steamcdn-a.akamaihd.net/steamcommunity/public/images/apps/55140/d1a1258a51df162a57a55a91d5f374f17f8c8a10.jpg"
  },
  {
    "name": "ACHIEVEMENT_CAREER_07",
    "defaultvalue": 0,
    "displayName": "SUPERCROSS SERIES 1",
    "hidden": 0,
    "description": "Place 3rd or higher in the Supercross Series 1 in the MotoCareer",
    "icon": "https://steamcdn-a.akamaihd.net/steamcommunity/public/images/apps/55140/85610a1b0e85a6715dfdfe4dddba351942767222.jpg",
    "icongray": "https://steamcdn-a.akamaihd.net/steamcommunity/public/images/apps/55140/9a05f3803da053af85cccd48867e40e01a39f1bd.jpg"
  },
  {
    "name": "ACHIEVEMENT_CAREER_08",
    "defaultvalue": 0,
    "displayName": "SUPERCROSS SERIES 2",
    "hidden": 0,
    "description": "Place 3rd or higher in the Supercross Series 2 in the MotoCareer",
    "icon": "https://steamcdn-a.akamaihd.net/steamcommunity/public/images/apps/55140/bb117dec63d5c04ef1f106a2b7bcd242aa09fa99.jpg",
    "icongray": "https://steamcdn-a.akamaihd.net/steamcommunity/public/images/apps/55140/cc53716caf2fe82f39ef9a14029ce7e8933308f8.jpg"
  },
  {
    "name": "ACHIEVEMENT_CAREER_09",
    "defaultvalue": 0,
    "displayName": "SUPERCROSS SERIES 3",
    "hidden": 0,
    "description": "Place 3rd or higher in the Supercross Series 3 in the MotoCareer",
    "icon": "https://steamcdn-a.akamaihd.net/steamcommunity/public/images/apps/55140/81e385d06e3f0d3f17d5be6644a3a8c0d9eb18a5.jpg",
    "icongray": "https://steamcdn-a.akamaihd.net/steamcommunity/public/images/apps/55140/3fb7d828a438ccd90f38815b7240394105ccd76a.jpg"
  },
  {
    "name": "ACHIEVEMENT_CAREER_10",
    "defaultvalue": 0,
    "displayName": "FREESTYLE SERIES 1",
    "hidden": 0,
    "description": "Place 3rd or higher in the Freestyle Series 1 in the MotoCareer",
    "icon": "https://steamcdn-a.akamaihd.net/steamcommunity/public/images/apps/55140/b071050cd0eeeb7e2ef9e969be6ee77979e063ab.jpg",
    "icongray": "https://steamcdn-a.akamaihd.net/steamcommunity/public/images/apps/55140/f8e2840cf73be244a07effd039e9a52dae11be7e.jpg"
  },
  {
    "name": "ACHIEVEMENT_CAREER_11",
    "defaultvalue": 0,
    "displayName": "FREESTYLE SERIES 2",
    "hidden": 0,
    "description": "Place 3rd or higher in the Freestyle Series 2 in the MotoCareer",
    "icon": "https://steamcdn-a.akamaihd.net/steamcommunity/public/images/apps/55140/bc679c1471d524e9017911ad86f2640f216ee8e7.jpg",
    "icongray": "https://steamcdn-a.akamaihd.net/steamcommunity/public/images/apps/55140/147176ed3461f4ea5feda65419589c9549681e62.jpg"
  },
  {
    "name": "ACHIEVEMENT_CAREER_12",
    "defaultvalue": 0,
    "displayName": "FREESTYLE SERIES 3",
    "hidden": 0,
    "description": "Place 3rd or higher in the Freestyle Series 3 in the MotoCareer",
    "icon": "https://steamcdn-a.akamaihd.net/steamcommunity/public/images/apps/55140/a462d05a6f916983efc828ba3832f0d38ca0e3fe.jpg",
    "icongray": "https://steamcdn-a.akamaihd.net/steamcommunity/public/images/apps/55140/b70cd5bc8e11683fdffd15b2461eb79fa039e860.jpg"
  },
  {
    "name": "ACHIEVEMENT_CAREER_13",
    "defaultvalue": 0,
    "displayName": "OMNICROSS SERIES 1",
    "hidden": 0,
    "description": "Place 3rd or higher in the Omnicross Series 1 in the MotoCareer",
    "icon": "https://steamcdn-a.akamaihd.net/steamcommunity/public/images/apps/55140/8b55dc102ca5d0c9fc457bc9541f81408ddead73.jpg",
    "icongray": "https://steamcdn-a.akamaihd.net/steamcommunity/public/images/apps/55140/912f07387aa99c9b16d67ac9c6fc3066a4f84e43.jpg"
  },
  {
    "name": "ACHIEVEMENT_CAREER_14",
    "defaultvalue": 0,
    "displayName": "OMNICROSS SERIES 2",
    "hidden": 0,
    "description": "Place 3rd or higher in the Omnicross Series 2 in the MotoCareer",
    "icon": "https://steamcdn-a.akamaihd.net/steamcommunity/public/images/apps/55140/66ae7cdc739ffc77786aba7b984feb74f0ae6d56.jpg",
    "icongray": "https://steamcdn-a.akamaihd.net/steamcommunity/public/images/apps/55140/89a8a0ce481129ebd60b01212de24df309c4c820.jpg"
  },
  {
    "name": "ACHIEVEMENT_CAREER_15",
    "defaultvalue": 0,
    "displayName": "OMNICROSS SERIES 3",
    "hidden": 0,
    "description": "Place 3rd or higher in the Omnicross Series 3 in the MotoCareer",
    "icon": "https://steamcdn-a.akamaihd.net/steamcommunity/public/images/apps/55140/a9a835826d71e21605ccc31bcfaec38c0684cc3a.jpg",
    "icongray": "https://steamcdn-a.akamaihd.net/steamcommunity/public/images/apps/55140/58213184f3a49086557c0263af77cd03f0d1583b.jpg"
  },
  {
    "name": "ACHIEVEMENT_CAREER_16",
    "defaultvalue": 0,
    "displayName": "CHAMPION SPORT TRACK SERIES 1",
    "hidden": 0,
    "description": "Place 3rd or higher in the Champion Sport Track Series 1 in the MotoCareer",
    "icon": "https://steamcdn-a.akamaihd.net/steamcommunity/public/images/apps/55140/f7a1c2cba544265204acc2d95682ba556d506439.jpg",
    "icongray": "https://steamcdn-a.akamaihd.net/steamcommunity/public/images/apps/55140/86534487a2ea2542075bfb3f2fdcaf7012474119.jpg"
  },
  {
    "name": "ACHIEVEMENT_CAREER_17",
    "defaultvalue": 0,
    "displayName": "CHAMPION SPORT TRACK SERIES 2",
    "hidden": 0,
    "description": "Place 3rd or higher in the Champion Sport Track Series 2 in the MotoCareer",
    "icon": "https://steamcdn-a.akamaihd.net/steamcommunity/public/images/apps/55140/d88e1e277aee4b75f19392aa9b28811f164605a4.jpg",
    "icongray": "https://steamcdn-a.akamaihd.net/steamcommunity/public/images/apps/55140/f48a1fcadf0d0c32f2702c0895b1076fbde5ed23.jpg"
  },
  {
    "name": "ACHIEVEMENT_CAREER_18",
    "defaultvalue": 0,
    "displayName": "CHAMPION SPORT TRACK SERIES 3",
    "hidden": 0,
    "description": "Place 3rd or higher in the Champion Sport Track Series 3 in the MotoCareer",
    "icon": "https://steamcdn-a.akamaihd.net/steamcommunity/public/images/apps/55140/d5da1e9a2e1cc1fa6cf419f178125ee4a4af3429.jpg",
    "icongray": "https://steamcdn-a.akamaihd.net/steamcommunity/public/images/apps/55140/190e47f3d633517ed60931a23b15deb4e5dc9235.jpg"
  },
  {
    "name": "ACHIEVEMENT_CAREER_19",
    "defaultvalue": 0,
    "displayName": "IRONMAN OF OFFROAD",
    "hidden": 0,
    "description": "Win all Series in the MotoCareer",
    "icon": "https://steamcdn-a.akamaihd.net/steamcommunity/public/images/apps/55140/833dd5ea35e4346a5477490fc2e465dcd0badb09.jpg",
    "icongray": "https://steamcdn-a.akamaihd.net/steamcommunity/public/images/apps/55140/0b03ab4969f37916fcff3416b14defa208bd6e50.jpg"
  },
  {
    "name": "ACHIEVEMENT_CAREER_20",
    "defaultvalue": 0,
    "displayName": "CHAMPION OF CHAMPIONS",
    "hidden": 0,
    "description": "Win all Face-Off Challenges in the MotoCareer",
    "icon": "https://steamcdn-a.akamaihd.net/steamcommunity/public/images/apps/55140/693e61d119935ac25f896f7a357234d6817969d3.jpg",
    "icongray": "https://steamcdn-a.akamaihd.net/steamcommunity/public/images/apps/55140/dc309a34be7b30f795ee301cc511d518ad4deb28.jpg"
  },
  {
    "name": "ACHIEVEMENT_CAREER_21",
    "defaultvalue": 0,
    "displayName": "GREATEST OF ALL TIME",
    "hidden": 0,
    "description": "Place 1st in all events in the MotoCareer",
    "icon": "https://steamcdn-a.akamaihd.net/steamcommunity/public/images/apps/55140/2266f490463d18c2df935280e6ad2cd2f91c0d71.jpg",
    "icongray": "https://steamcdn-a.akamaihd.net/steamcommunity/public/images/apps/55140/22f9beb72618332ead8ce4f05c41bf16c4b02407.jpg"
  },
  {
    "name": "ACHIEVEMENT_CAREER_22",
    "defaultvalue": 0,
    "displayName": "GOLD STANDARD",
    "hidden": 0,
    "description": "Earn a Gold medal in any MotoCareer Free Ride Challenge",
    "icon": "https://steamcdn-a.akamaihd.net/steamcommunity/public/images/apps/55140/6766d1c623dfaba6d982f6234c2d3c05b6787774.jpg",
    "icongray": "https://steamcdn-a.akamaihd.net/steamcommunity/public/images/apps/55140/b54fe86281299ef06ed7d7c994d381c5da9b4c73.jpg"
  },
  {
    "name": "ACHIEVEMENT_CAREER_23",
    "defaultvalue": 0,
    "displayName": "PRECIOUS MEDALS",
    "hidden": 0,
    "description": "Earn a Gold medal in all MotoCareer Free Ride Challenges",
    "icon": "https://steamcdn-a.akamaihd.net/steamcommunity/public/images/apps/55140/69bf744c7e438de604f69906c7e278a3e81ba16d.jpg",
    "icongray": "https://steamcdn-a.akamaihd.net/steamcommunity/public/images/apps/55140/8e3376c0993b6ddfb265b60624a4f0d55918f79e.jpg"
  },
  {
    "name": "ACHIEVEMENT_ONLINE_01",
    "defaultvalue": 0,
    "displayName": "STEP INTO THE ARENA",
    "hidden": 0,
    "description": "Complete an Online Playlist match",
    "icon": "https://steamcdn-a.akamaihd.net/steamcommunity/public/images/apps/55140/6b82ec81026460f56cc677de4a5c9900049108ae.jpg",
    "icongray": "https://steamcdn-a.akamaihd.net/steamcommunity/public/images/apps/55140/10237695b0b68dead747d626f07ec078111a8098.jpg"
  },
  {
    "name": "ACHIEVEMENT_ONLINE_02",
    "defaultvalue": 0,
    "displayName": "TO THE VICTOR...",
    "hidden": 0,
    "description": "Place 1st in an Online Playlist match with 11 human opponents",
    "icon": "https://steamcdn-a.akamaihd.net/steamcommunity/public/images/apps/55140/f333173959f4e86cebee1c917020b7dd4b498d36.jpg",
    "icongray": "https://steamcdn-a.akamaihd.net/steamcommunity/public/images/apps/55140/78426733498b02e2d4c55a91a3a440693e517d10.jpg"
  },
  {
    "name": "ACHIEVEMENT_ONLINE_03",
    "defaultvalue": 0,
    "displayName": "ENDURANCE",
    "hidden": 0,
    "description": "Complete 25 Online Playlist matches",
    "icon": "https://steamcdn-a.akamaihd.net/steamcommunity/public/images/apps/55140/7bade0ed55a1012bf0bd3e0690410627b30cefbd.jpg",
    "icongray": "https://steamcdn-a.akamaihd.net/steamcommunity/public/images/apps/55140/757eb06103acf710a99fc67847cb4f13fad21ac3.jpg"
  },
  {
    "name": "ACHIEVEMENT_ONLINE_04",
    "defaultvalue": 0,
    "displayName": "LONG LIVE THE KING",
    "hidden": 0,
    "description": "Place 1st in 25 Online Playlist matches",
    "icon": "https://steamcdn-a.akamaihd.net/steamcommunity/public/images/apps/55140/afc9e6cd0a0e7f7f0e94831fd06d908cd8607cdb.jpg",
    "icongray": "https://steamcdn-a.akamaihd.net/steamcommunity/public/images/apps/55140/fabdbf419e7ea56081f5565d7e2aeaf16f75d1f6.jpg"
  },
  {
    "name": "ACHIEVEMENT_ONLINE_05",
    "defaultvalue": 0,
    "displayName": "LEVELER",
    "hidden": 0,
    "description": "Finish ahead of any opponent with an Experience Level higher than yours in an Online Playlist match",
    "icon": "https://steamcdn-a.akamaihd.net/steamcommunity/public/images/apps/55140/e2c1df8a711d22ceea37efb05614680858ff9d07.jpg",
    "icongray": "https://steamcdn-a.akamaihd.net/steamcommunity/public/images/apps/55140/519d65e0c5931c69ea4ae118d7de0597a8555710.jpg"
  },
  {
    "name": "ACHIEVEMENT_ONLINE_06",
    "defaultvalue": 0,
    "displayName": "YOU'RE IT",
    "hidden": 0,
    "description": "Win a Tag Mini-Game in an Online Playlist match",
    "icon": "https://steamcdn-a.akamaihd.net/steamcommunity/public/images/apps/55140/955ff13ad66cb4672476f41d15a59b22226ee9ad.jpg",
    "icongray": "https://steamcdn-a.akamaihd.net/steamcommunity/public/images/apps/55140/f64dcf04ddc30e300915d24853dcbd320524ccc8.jpg"
  },
  {
    "name": "ACHIEVEMENT_ONLINE_07",
    "defaultvalue": 0,
    "displayName": "SNAKE IN THE GRASS",
    "hidden": 0,
    "description": "Win a Snake Mini-Game in an Online Playlist match",
    "icon": "https://steamcdn-a.akamaihd.net/steamcommunity/public/images/apps/55140/803b48d58e676ee4d79159c19b769d4185aa8020.jpg",
    "icongray": "https://steamcdn-a.akamaihd.net/steamcommunity/public/images/apps/55140/c59793616d91a641f883e10246805da62c986092.jpg"
  },
  {
    "name": "ACHIEVEMENT_TUTORIAL_01",
    "defaultvalue": 0,
    "displayName": "MOTO SKILLS",
    "hidden": 0,
    "description": "Complete MotoSkills 1, 2 and 3",
    "icon": "https://steamcdn-a.akamaihd.net/steamcommunity/public/images/apps/55140/bd6a497484ea8064f86c5de0e0c04a411577b179.jpg",
    "icongray": "https://steamcdn-a.akamaihd.net/steamcommunity/public/images/apps/55140/17a779247367ba2c8e8bf3e5ad9b18116504286e.jpg"
  },
  {
    "name": "ACHIEVEMENT_TUTORIAL_02",
    "defaultvalue": 0,
    "displayName": "MASTER SKILLS",
    "hidden": 0,
    "description": "Complete MotoSkills 4, 5 and 6",
    "icon": "https://steamcdn-a.akamaihd.net/steamcommunity/public/images/apps/55140/c50e3550cf51c1ac5082f79e3bf508aa838bd1e4.jpg",
    "icongray": "https://steamcdn-a.akamaihd.net/steamcommunity/public/images/apps/55140/676b8553ec37cbc319f51954abbd46980bca780b.jpg"
  },
  {
    "name": "ACHIEVEMENT_TRICKS_01",
    "defaultvalue": 0,
    "displayName": "TRICKSTER",
    "hidden": 0,
    "description": "Perform any airborne Trick and land successfully",
    "icon": "https://steamcdn-a.akamaihd.net/steamcommunity/public/images/apps/55140/3078c44be81210393dc6edc05acdb0df56b8bb35.jpg",
    "icongray": "https://steamcdn-a.akamaihd.net/steamcommunity/public/images/apps/55140/a6b180d8115070615117179b0de59fc6942d50f5.jpg"
  },
  {
    "name": "ACHIEVEMENT_TRICKS_02",
    "defaultvalue": 0,
    "displayName": "HAT-TRICK!",
    "hidden": 0,
    "description": "Perform three consecutive, unique airborne Tricks in one jump",
    "icon": "https://steamcdn-a.akamaihd.net/steamcommunity/public/images/apps/55140/cf0f294314ff9b952c3105ae78c9fd30d1af7373.jpg",
    "icongray": "https://steamcdn-a.akamaihd.net/steamcommunity/public/images/apps/55140/1f6dfa25f346e812252a96a1b0daa4e1408935b7.jpg"
  },
  {
    "name": "ACHIEVEMENT_FREESTYLE_01",
    "defaultvalue": 0,
    "displayName": "PERFECTION",
    "hidden": 0,
    "description": "Earn a judge's score of 10.0 in a Freestyle Event",
    "icon": "https://steamcdn-a.akamaihd.net/steamcommunity/public/images/apps/55140/32b5a5d2df096de17fd8860fa82880d54a15d275.jpg",
    "icongray": "https://steamcdn-a.akamaihd.net/steamcommunity/public/images/apps/55140/f221f6ce1c0adaead0b7ce730071b11306279659.jpg"
  },
  {
    "name": "ACHIEVEMENT_FREESTYLE_02",
    "defaultvalue": 0,
    "displayName": "FREESTYLIN'",
    "hidden": 0,
    "description": "Win a Freestyle Event in the MotoCareer without repeating a trick",
    "icon": "https://steamcdn-a.akamaihd.net/steamcommunity/public/images/apps/55140/b8c4fc829acc8b2daa2c9269e7c211779255bd7a.jpg",
    "icongray": "https://steamcdn-a.akamaihd.net/steamcommunity/public/images/apps/55140/2b3e07fb69348345af1029396082de09c6747041.jpg"
  },
  {
    "name": "ACHIEVEMENT_MISC_01",
    "defaultvalue": 0,
    "displayName": "COMING ON STRONG",
    "hidden": 0,
    "description": "Lap an Opponent in a Race",
    "icon": "https://steamcdn-a.akamaihd.net/steamcommunity/public/images/apps/55140/9613f55c856dbd33d202206df23ab8c4186c88c4.jpg",
    "icongray": "https://steamcdn-a.akamaihd.net/steamcommunity/public/images/apps/55140/77c0634902155f85f5e1c6496e56b95bb29b2cbf.jpg"
  },
  {
    "name": "ACHIEVEMENT_MISC_02",
    "defaultvalue": 0,
    "displayName": "ACE IN THE HOLE",
    "hidden": 0,
    "description": "Win 10 Holeshots",
    "icon": "https://steamcdn-a.akamaihd.net/steamcommunity/public/images/apps/55140/848449b8e2a03a4247bea0f3fa20d7f426ad691f.jpg",
    "icongray": "https://steamcdn-a.akamaihd.net/steamcommunity/public/images/apps/55140/5738a1bafca5350964784299249675e0cb2e7ab0.jpg"
  },
  {
    "name": "ACHIEVEMENT_MISC_03",
    "defaultvalue": 0,
    "displayName": "SHOWBOAT",
    "hidden": 0,
    "description": "Pull off three unique tricks in a Race Event",
    "icon": "https://steamcdn-a.akamaihd.net/steamcommunity/public/images/apps/55140/55aa78281d0dff5cb32b4f6d5a1d5969f9348a00.jpg",
    "icongray": "https://steamcdn-a.akamaihd.net/steamcommunity/public/images/apps/55140/15c955d331363544f7c61a4b76342555c0f91929.jpg"
  },
  {
    "name": "ACHIEVEMENT_MISC_04",
    "defaultvalue": 0,
    "displayName": "TUNING IN",
    "hidden": 0,
    "description": "Adjust a Tuning Slider and save the new setting",
    "icon": "https://steamcdn-a.akamaihd.net/steamcommunity/public/images/apps/55140/871e2a140be1fa80d97faa2417da6a6f58a099cb.jpg",
    "icongray": "https://steamcdn-a.akamaihd.net/steamcommunity/public/images/apps/55140/465125c235f0a85642ec9e70988d327901acec66.jpg"
  },
  {
    "name": "ACHIEVEMENT_MISC_05",
    "defaultvalue": 0,
    "displayName": "KEEPING IT CLEAN",
    "hidden": 0,
    "description": "Complete a Race in a Machine with all body panels still attached to your vehicle",
    "icon": "https://steamcdn-a.akamaihd.net/steamcommunity/public/images/apps/55140/fd84bd75e3e409024db04059f8b6630302d22d7e.jpg",
    "icongray": "https://steamcdn-a.akamaihd.net/steamcommunity/public/images/apps/55140/5d183e218d8378d6a1e75824f2c07c4723087876.jpg"
  },
  {
    "name": "ACHIEVEMENT_MISC_06",
    "defaultvalue": 0,
    "displayName": "SKELETAL REMAINS",
    "hidden": 0,
    "description": "Complete a Race in a Machine with no body panels remaining on your vehicle",
    "icon": "https://steamcdn-a.akamaihd.net/steamcommunity/public/images/apps/55140/343f5cd39ae34f01ce3dda5c5704c393e2563a64.jpg",
    "icongray": "https://steamcdn-a.akamaihd.net/steamcommunity/public/images/apps/55140/d0f515dacb8b9cd9862a2f602b3b4cfb0ce6f498.jpg"
  },
  {
    "name": "ACHIEVEMENT_MISC_07",
    "defaultvalue": 0,
    "displayName": "WRECK-LESS",
    "hidden": 0,
    "description": "Avoid a Wreck in a Race",
    "icon": "https://steamcdn-a.akamaihd.net/steamcommunity/public/images/apps/55140/c4961c2e113483ba320586053ab124c3b39137e6.jpg",
    "icongray": "https://steamcdn-a.akamaihd.net/steamcommunity/public/images/apps/55140/2a035dbba2245d57f28d2f27c9d1077c2abc1d6f.jpg"
  },
  {
    "name": "ACHIEVEMENT_MISC_08",
    "defaultvalue": 0,
    "displayName": "CLOSE CALLS!",
    "hidden": 0,
    "description": "Avoid 100 Wrecks",
    "icon": "https://steamcdn-a.akamaihd.net/steamcommunity/public/images/apps/55140/068fa9d47ebd03b72bc178d5eaacc0287b7b8768.jpg",
    "icongray": "https://steamcdn-a.akamaihd.net/steamcommunity/public/images/apps/55140/a90b1fae9442f769dc6d62beac997b6a3c4ac293.jpg"
  },
  {
    "name": "ACHIEVEMENT_MISC_09",
    "defaultvalue": 0,
    "displayName": "YOU ARE LEGEND",
    "hidden": 0,
    "description": "Place 1st in any Race on All-Time difficulty",
    "icon": "https://steamcdn-a.akamaihd.net/steamcommunity/public/images/apps/55140/d4ed891c53177566f4a7281d1a5fa67c1da14784.jpg",
    "icongray": "https://steamcdn-a.akamaihd.net/steamcommunity/public/images/apps/55140/9831bac5fcf003ba4479a71e07ba6192ce617f25.jpg"
  },
  {
    "name": "ACHIEVEMENT_MISC_10",
    "defaultvalue": 0,
    "displayName": "LONG JUMPER",
    "hidden": 0,
    "description": "Land a jump distance of 300 feet or greater",
    "icon": "https://steamcdn-a.akamaihd.net/steamcommunity/public/images/apps/55140/adad4540c9f64a3b337af2d8175f9e3ac0437b58.jpg",
    "icongray": "https://steamcdn-a.akamaihd.net/steamcommunity/public/images/apps/55140/f023ca0bb1021e1620173738499ed9045f42381a.jpg"
  },
  {
    "name": "ACHIEVEMENT_MISC_11",
    "defaultvalue": 0,
    "displayName": "WHEELIE KING",
    "hidden": 0,
    "description": "Hold a Wheelie trick for 150 feet or longer",
    "icon": "https://steamcdn-a.akamaihd.net/steamcommunity/public/images/apps/55140/ebec5c6329e1cdd0160d2735ae733c937aa7597a.jpg",
    "icongray": "https://steamcdn-a.akamaihd.net/steamcommunity/public/images/apps/55140/d379cbaded51c97b50f1d87cf37c6666f90870a7.jpg"
  },
  {
    "name": "ACHIEVEMENT_MISC_12",
    "defaultvalue": 0,
    "displayName": "STOPPIE MASTER",
    "hidden": 0,
    "description": "Hold a Stoppie trick for 75 feet or longer",
    "icon": "https://steamcdn-a.akamaihd.net/steamcommunity/public/images/apps/55140/c3c5a0ca7dbfc65673d07e907f9203a2a58849fc.jpg",
    "icongray": "https://steamcdn-a.akamaihd.net/steamcommunity/public/images/apps/55140/51f6a4d17ab15e964deeb92b8bf0c6fc80c747b0.jpg"
  }
]