﻿{
  "Dlcs": {},
  "Name": "NakedMan VS The Clothes",
  "AppId": "592130",
  "ImageUrl": "https://steamcdn-a.akamaihd.net/steam/apps/592130/header.jpg?t=1487340820",
  "Languages": [
    "english"
  ],
  "Platforms": {
    "windows": true,
    "mac": false,
    "linux": false
  }
}