﻿{
  "Dlcs": {
    "438810": {
      "Name": "Tic-Toc-Tower - Teslagrad DLC",
      "ImageUrl": "https://steamcdn-a.akamaihd.net/steam/apps/438810/header.jpg?t=1477578153"
    }
  },
  "Name": "Tic-Toc-Tower",
  "AppId": "389310",
  "ImageUrl": "https://steamcdn-a.akamaihd.net/steam/apps/389310/header.jpg?t=1590133715",
  "Languages": [
    "english",
    "french",
    "spanish",
    "dutch",
    "japanese"
  ],
  "Platforms": {
    "windows": true,
    "mac": true,
    "linux": true
  }
}