﻿[
  {
    "name": "The_Noose",
    "defaultvalue": 0,
    "displayName": "The Noose",
    "hidden": 0,
    "description": "Complete the full game 2 times",
    "icon": "https://steamcdn-a.akamaihd.net/steamcommunity/public/images/apps/113200/19ce7f093ec3002c68e97df384317675c211160b.jpg",
    "icongray": "https://steamcdn-a.akamaihd.net/steamcommunity/public/images/apps/113200/94513bc7b3d9148f788bb25edb12a7bb9b55dcb7.jpg"
  },
  {
    "name": "The_Nail",
    "defaultvalue": 0,
    "displayName": "The Nail",
    "hidden": 0,
    "description": "Complete the full game 3 times",
    "icon": "https://steamcdn-a.akamaihd.net/steamcommunity/public/images/apps/113200/9fb2d97770a477a4430f7ad2ef8c92d0944b31ca.jpg",
    "icongray": "https://steamcdn-a.akamaihd.net/steamcommunity/public/images/apps/113200/91e83eeb047477e84f9ab900c4d683998dc72563.jpg"
  },
  {
    "name": "The_Quarter",
    "defaultvalue": 0,
    "displayName": "The Quarter",
    "hidden": 0,
    "description": "Complete the full game 4 times",
    "icon": "https://steamcdn-a.akamaihd.net/steamcommunity/public/images/apps/113200/6f6ab40626ada80b35ba3fe7a6cc46e29481800b.jpg",
    "icongray": "https://steamcdn-a.akamaihd.net/steamcommunity/public/images/apps/113200/75b41de3e64c6aa12b307f9fb6c0c9712617e725.jpg"
  },
  {
    "name": "The_Fetus",
    "defaultvalue": 0,
    "displayName": "The Fetus",
    "hidden": 0,
    "description": "Complete the full game 5 times",
    "icon": "https://steamcdn-a.akamaihd.net/steamcommunity/public/images/apps/113200/aed0e18f5d821865380e627342f3c6ee787b70a0.jpg",
    "icongray": "https://steamcdn-a.akamaihd.net/steamcommunity/public/images/apps/113200/d297603a1d378531a0bd07eec47e71694c981b72.jpg"
  },
  {
    "name": "Terrible",
    "defaultvalue": 0,
    "displayName": "Everythings Terrible!",
    "hidden": 0,
    "description": "Complete the full game 6 times",
    "icon": "https://steamcdn-a.akamaihd.net/steamcommunity/public/images/apps/113200/17ee29385b37ceb1071c208b5c349446275b2131.jpg",
    "icongray": "https://steamcdn-a.akamaihd.net/steamcommunity/public/images/apps/113200/d89ae527c253df885e4524b707511af2e710674d.jpg"
  },
  {
    "name": "The_Wafer",
    "defaultvalue": 0,
    "displayName": "The Wafer",
    "hidden": 0,
    "description": "Complete the full game 7 times",
    "icon": "https://steamcdn-a.akamaihd.net/steamcommunity/public/images/apps/113200/b04e41baabcb3b747fc408c9893e1e4fa50f1826.jpg",
    "icongray": "https://steamcdn-a.akamaihd.net/steamcommunity/public/images/apps/113200/d7148dcbc30c008606d069ff8bd0c7c26bac655e.jpg"
  },
  {
    "name": "Money_Power",
    "defaultvalue": 0,
    "displayName": "Money = Power",
    "hidden": 0,
    "description": "Complete the full game 8 times",
    "icon": "https://steamcdn-a.akamaihd.net/steamcommunity/public/images/apps/113200/0e8f99fe6780fe2ae621c1c9195d1861a42ab6b2.jpg",
    "icongray": "https://steamcdn-a.akamaihd.net/steamcommunity/public/images/apps/113200/67882bc140249661de3c9f5ef6f7df980c4f6dbc.jpg"
  },
  {
    "name": "It_Lives",
    "defaultvalue": 0,
    "displayName": "It Lives!",
    "hidden": 0,
    "description": "Complete the full game 9 times",
    "icon": "https://steamcdn-a.akamaihd.net/steamcommunity/public/images/apps/113200/d99edbf7d0a2706cf4e5f4ef22534ee1b7fe27ad.jpg",
    "icongray": "https://steamcdn-a.akamaihd.net/steamcommunity/public/images/apps/113200/64b3ac9a2edb1c268465e6aa5f71c3a6fbf12349.jpg"
  },
  {
    "name": "The_Spider",
    "defaultvalue": 0,
    "displayName": "The Radioactive Spider",
    "hidden": 0,
    "description": "Complete the basement",
    "icon": "https://steamcdn-a.akamaihd.net/steamcommunity/public/images/apps/113200/d7150b41724fd5a333ac5921e0456ad4bce2afd8.jpg",
    "icongray": "https://steamcdn-a.akamaihd.net/steamcommunity/public/images/apps/113200/5aaa1c425f989c27039730f58b75ea8864394b6c.jpg"
  },
  {
    "name": "Monstros_Tooth",
    "defaultvalue": 0,
    "displayName": "Monstros Tooth",
    "hidden": 0,
    "description": "Defeat all bosses in the basement",
    "icon": "https://steamcdn-a.akamaihd.net/steamcommunity/public/images/apps/113200/3777136dfbe55a1d425a7054d0c239e91265dafa.jpg",
    "icongray": "https://steamcdn-a.akamaihd.net/steamcommunity/public/images/apps/113200/fb2cb9023bdde22c1d9fe40703ddade82062c36a.jpg"
  },
  {
    "name": "The_Spelunker",
    "defaultvalue": 0,
    "displayName": "The Spelunker",
    "hidden": 0,
    "description": "Complete the Caves",
    "icon": "https://steamcdn-a.akamaihd.net/steamcommunity/public/images/apps/113200/a3a1c8a3fbe5e827b83166098cd34dc4976ce3dd.jpg",
    "icongray": "https://steamcdn-a.akamaihd.net/steamcommunity/public/images/apps/113200/bc41d0226d7d09b76fbfe7c25ee5bd5df8ddf753.jpg"
  },
  {
    "name": "Lil_Chubby",
    "defaultvalue": 0,
    "displayName": "Lil Chubby",
    "hidden": 0,
    "description": "Defeat all bosses in the caves",
    "icon": "https://steamcdn-a.akamaihd.net/steamcommunity/public/images/apps/113200/e6b8931e0a7daf31c1b8f8ff91789faa5eb5dd2e.jpg",
    "icongray": "https://steamcdn-a.akamaihd.net/steamcommunity/public/images/apps/113200/0cfec733c5fcf225f727ff3d7203b0397e8cf465.jpg"
  },
  {
    "name": "Killed_Mom",
    "defaultvalue": 0,
    "displayName": "I Killed Mom!",
    "hidden": 0,
    "description": "kill mom...",
    "icon": "https://steamcdn-a.akamaihd.net/steamcommunity/public/images/apps/113200/05201c832582d39c7cb22502b9f9fc0033720850.jpg",
    "icongray": "https://steamcdn-a.akamaihd.net/steamcommunity/public/images/apps/113200/06d75eab0438afbebc411d410906f735290fd41b.jpg"
  },
  {
    "name": "Lokis_Horns",
    "defaultvalue": 0,
    "displayName": "Lokis Horns",
    "hidden": 0,
    "description": "Defeat all bosses in the depths",
    "icon": "https://steamcdn-a.akamaihd.net/steamcommunity/public/images/apps/113200/752e01201a94d37cfb6124e09306fbec027e7c78.jpg",
    "icongray": "https://steamcdn-a.akamaihd.net/steamcommunity/public/images/apps/113200/bdb2ff169b0461974a790c4b6075eb96bf8cc94d.jpg"
  },
  {
    "name": "The_Bag",
    "defaultvalue": 0,
    "displayName": "The Bag",
    "hidden": 0,
    "description": "Complete the full game with Cain",
    "icon": "https://steamcdn-a.akamaihd.net/steamcommunity/public/images/apps/113200/2465b7fa3b0dc2f602b01ce30ce3422f9d288dfb.jpg",
    "icongray": "https://steamcdn-a.akamaihd.net/steamcommunity/public/images/apps/113200/245a872b0cf6053ce0e72b239e81cc700b72fcb5.jpg"
  },
  {
    "name": "The_Robo-Baby",
    "defaultvalue": 0,
    "displayName": "The Robo-Baby",
    "hidden": 0,
    "description": "Complete the full game with Judas",
    "icon": "https://steamcdn-a.akamaihd.net/steamcommunity/public/images/apps/113200/d22d3e5b9a70d61be599e54fb686db9fbf3f77b6.jpg",
    "icongray": "https://steamcdn-a.akamaihd.net/steamcommunity/public/images/apps/113200/e47176e4ba9918d961d2a0c92f58b28a314cd5df.jpg"
  },
  {
    "name": "The_Cross",
    "defaultvalue": 0,
    "displayName": "The Cross",
    "hidden": 0,
    "description": "Complete the full game with Maggy",
    "icon": "https://steamcdn-a.akamaihd.net/steamcommunity/public/images/apps/113200/e2092d6977804615466d9b8b863f73481933013b.jpg",
    "icongray": "https://steamcdn-a.akamaihd.net/steamcommunity/public/images/apps/113200/93c20d1fcbb2dfc5a9020f4c4f665864507fb671.jpg"
  },
  {
    "name": "The_D6",
    "defaultvalue": 0,
    "displayName": "The D6",
    "hidden": 1,
    "icon": "https://steamcdn-a.akamaihd.net/steamcommunity/public/images/apps/113200/699ddad3a30eb55dbf328f2502f0573c5c74328c.jpg",
    "icongray": "https://steamcdn-a.akamaihd.net/steamcommunity/public/images/apps/113200/3b50486dd274e18420d98582f462305da5a83e77.jpg"
  },
  {
    "name": "Golden_God",
    "defaultvalue": 0,
    "displayName": "Golden God!",
    "hidden": 0,
    "description": "100% the game",
    "icon": "https://steamcdn-a.akamaihd.net/steamcommunity/public/images/apps/113200/a8dcbfa2735d4cbf3efad268ce283e2f62ef8596.jpg",
    "icongray": "https://steamcdn-a.akamaihd.net/steamcommunity/public/images/apps/113200/ee473cf83a3a25c23caee7369f162596c511aca2.jpg"
  },
  {
    "name": "Pill_Bottle",
    "defaultvalue": 0,
    "displayName": "Moms Pill Bottle",
    "hidden": 0,
    "description": "mom needs her pills! donate blood.",
    "icon": "https://steamcdn-a.akamaihd.net/steamcommunity/public/images/apps/113200/15eb6742ca030ab1bead0686717d592f954aa715.jpg",
    "icongray": "https://steamcdn-a.akamaihd.net/steamcommunity/public/images/apps/113200/995d431526c18eda2b3dd3513f4d431eef7f9aa6.jpg"
  },
  {
    "name": "Common_Cold",
    "defaultvalue": 0,
    "displayName": "The Common Cold",
    "hidden": 0,
    "description": "Dirty needles... eww",
    "icon": "https://steamcdn-a.akamaihd.net/steamcommunity/public/images/apps/113200/e52e248bbd59b717bc28b7ecbedb09cc1ab490da.jpg",
    "icongray": "https://steamcdn-a.akamaihd.net/steamcommunity/public/images/apps/113200/7829adfc393a9bd90f71e4ecb19d47f47f212aee.jpg"
  },
  {
    "name": "The_Parasite",
    "defaultvalue": 0,
    "displayName": "The Parasite",
    "hidden": 0,
    "description": "Kids shouldnt play with dead things...",
    "icon": "https://steamcdn-a.akamaihd.net/steamcommunity/public/images/apps/113200/1b89f8c5315cbf874a30373137fcaae9e5979443.jpg",
    "icongray": "https://steamcdn-a.akamaihd.net/steamcommunity/public/images/apps/113200/264537054004fc783a005293ffb1fd3042c2bc18.jpg"
  },
  {
    "name": "Mr_Mega",
    "defaultvalue": 0,
    "displayName": "Mr. Mega!",
    "hidden": 0,
    "description": "Kids shouldnt play with matches...",
    "icon": "https://steamcdn-a.akamaihd.net/steamcommunity/public/images/apps/113200/714d0d49172f7f5a6eaf09c77cb4c3189864d5bf.jpg",
    "icongray": "https://steamcdn-a.akamaihd.net/steamcommunity/public/images/apps/113200/cb0338702f7ed9443d64309343e02839293b37e1.jpg"
  },
  {
    "name": "Moms_Contact",
    "defaultvalue": 0,
    "displayName": "Moms Contact",
    "hidden": 0,
    "description": "stay out of moms things!",
    "icon": "https://steamcdn-a.akamaihd.net/steamcommunity/public/images/apps/113200/965f33a7863be80d9ea516df1e9e19a3e584946c.jpg",
    "icongray": "https://steamcdn-a.akamaihd.net/steamcommunity/public/images/apps/113200/c0ba86af34e3fe357b69ed83d302f3384a71cf29.jpg"
  },
  {
    "name": "The_Bean",
    "defaultvalue": 0,
    "displayName": "The Bean",
    "hidden": 0,
    "description": "you dont wanna know where this bean has been...",
    "icon": "https://steamcdn-a.akamaihd.net/steamcommunity/public/images/apps/113200/88591c3f429e15d28fcf95e33bd91385b9cd2c7f.jpg",
    "icongray": "https://steamcdn-a.akamaihd.net/steamcommunity/public/images/apps/113200/f6382e0739e52732a0f1c3b450ab0e02bc02bdef.jpg"
  },
  {
    "name": "The_Halo",
    "defaultvalue": 0,
    "displayName": "The Halo",
    "hidden": 0,
    "description": "Give mom a taste of her own medicine! ",
    "icon": "https://steamcdn-a.akamaihd.net/steamcommunity/public/images/apps/113200/eb4a01f49e47def407c5cc4ff775db3e58363695.jpg",
    "icongray": "https://steamcdn-a.akamaihd.net/steamcommunity/public/images/apps/113200/0e256a99685b57e13e4eaa157225e17f93a48847.jpg"
  },
  {
    "name": "The_Bandage",
    "defaultvalue": 0,
    "displayName": "The Bandage",
    "hidden": 0,
    "description": "Make a Super Meat Boy!",
    "icon": "https://steamcdn-a.akamaihd.net/steamcommunity/public/images/apps/113200/52d92bf8cdc14f3f31917b329f3c9be2ec8fea2d.jpg",
    "icongray": "https://steamcdn-a.akamaihd.net/steamcommunity/public/images/apps/113200/1b5e20d96b7749696ba6f7cdb78647575b613dc0.jpg"
  },
  {
    "name": "The_Rock",
    "defaultvalue": 0,
    "displayName": "The Rock",
    "hidden": 0,
    "description": "i like to break things... ",
    "icon": "https://steamcdn-a.akamaihd.net/steamcommunity/public/images/apps/113200/9f73f9119a96f7237778b32aba6ce4369585f3b1.jpg",
    "icongray": "https://steamcdn-a.akamaihd.net/steamcommunity/public/images/apps/113200/d3d3e33daa3fa5bbadee1b8677702066ff5d5c1e.jpg"
  },
  {
    "name": "The_Necronomicon",
    "defaultvalue": 0,
    "displayName": "The Necronomicon",
    "hidden": 0,
    "description": "Call death upon all of them!",
    "icon": "https://steamcdn-a.akamaihd.net/steamcommunity/public/images/apps/113200/a8bddef46babec4250a824d7e45d56d58e65ec75.jpg",
    "icongray": "https://steamcdn-a.akamaihd.net/steamcommunity/public/images/apps/113200/026dfb3b0292bfe0704c366f6f7190695b75a7ce.jpg"
  },
  {
    "name": "The_Gamekid",
    "defaultvalue": 0,
    "displayName": "The Gamekid",
    "hidden": 0,
    "description": "i lost mine in the arcade...",
    "icon": "https://steamcdn-a.akamaihd.net/steamcommunity/public/images/apps/113200/2fc1cb05c2504bb4ca71cdc2c03719d09b03db6d.jpg",
    "icongray": "https://steamcdn-a.akamaihd.net/steamcommunity/public/images/apps/113200/1af58838edd760872184faf1447f8d70c6eac548.jpg"
  },
  {
    "name": "Book_of_Sin",
    "defaultvalue": 0,
    "displayName": "The Book of Sin",
    "hidden": 0,
    "description": "Destroy the 7 Sins! ",
    "icon": "https://steamcdn-a.akamaihd.net/steamcommunity/public/images/apps/113200/8110136b81966ed82cf69829c10450771d80b166.jpg",
    "icongray": "https://steamcdn-a.akamaihd.net/steamcommunity/public/images/apps/113200/f3fec015fe1ce7b85bc82a076272e80d664e23ae.jpg"
  },
  {
    "name": "The_Shears",
    "defaultvalue": 0,
    "displayName": "The Shears",
    "hidden": 0,
    "description": "ive lost my head one too many times...",
    "icon": "https://steamcdn-a.akamaihd.net/steamcommunity/public/images/apps/113200/cac48099adfc1696076cf962f9960353c5395432.jpg",
    "icongray": "https://steamcdn-a.akamaihd.net/steamcommunity/public/images/apps/113200/a9de73f8e89d0db5c3c98faed30b582721730754.jpg"
  },
  {
    "name": "Steven",
    "defaultvalue": 0,
    "displayName": "My head hurts...",
    "hidden": 1,
    "icon": "https://steamcdn-a.akamaihd.net/steamcommunity/public/images/apps/113200/306fc0e886b973decb6098f6fa494e6b454e838a.jpg",
    "icongray": "https://steamcdn-a.akamaihd.net/steamcommunity/public/images/apps/113200/e47c7ad1f9260482cf4e80723342190e3acf1d41.jpg"
  },
  {
    "name": "Chad",
    "defaultvalue": 0,
    "displayName": "I need a hug...",
    "hidden": 1,
    "icon": "https://steamcdn-a.akamaihd.net/steamcommunity/public/images/apps/113200/1adb0e578580bb38785675a7d46c09446129d3af.jpg",
    "icongray": "https://steamcdn-a.akamaihd.net/steamcommunity/public/images/apps/113200/1bdd03b9db41c03f9ead81693e51e9c347cffd29.jpg"
  },
  {
    "name": "Gish",
    "defaultvalue": 0,
    "displayName": "I have sticker fingers...",
    "hidden": 1,
    "icon": "https://steamcdn-a.akamaihd.net/steamcommunity/public/images/apps/113200/80d4d8baf84cb69366cc0cf14347ef04939a569f.jpg",
    "icongray": "https://steamcdn-a.akamaihd.net/steamcommunity/public/images/apps/113200/ccbd3c48a1584f3e17c81c0962ee40b9bc199143.jpg"
  },
  {
    "name": "Cain",
    "defaultvalue": 0,
    "displayName": "Cains Eyepatch",
    "hidden": 0,
    "description": "Collect 50+ pennies in one play through",
    "icon": "https://steamcdn-a.akamaihd.net/steamcommunity/public/images/apps/113200/930221d64749ae177c9baf41b8ae1c29c43db379.jpg",
    "icongray": "https://steamcdn-a.akamaihd.net/steamcommunity/public/images/apps/113200/0d5f5b523f7d5823c77ef4761ae6b100a7f0babb.jpg"
  },
  {
    "name": "Maggy",
    "defaultvalue": 0,
    "displayName": "Maggys Wig",
    "hidden": 0,
    "description": "Collect 7+ container hearts in one play through",
    "icon": "https://steamcdn-a.akamaihd.net/steamcommunity/public/images/apps/113200/b66ea229aa4d1bfc602a5df98ff33a0fbea5b2a8.jpg",
    "icongray": "https://steamcdn-a.akamaihd.net/steamcommunity/public/images/apps/113200/47214d7daf6257cdc094fef613e70cc782537bc8.jpg"
  },
  {
    "name": "Judas",
    "defaultvalue": 0,
    "displayName": "Judas's Fez",
    "hidden": 0,
    "description": "Complete the full game ",
    "icon": "https://steamcdn-a.akamaihd.net/steamcommunity/public/images/apps/113200/b53bb5e5edf67d416a1b2545b9d903a0f641a022.jpg",
    "icongray": "https://steamcdn-a.akamaihd.net/steamcommunity/public/images/apps/113200/3eae102b74eccf5f70b301b351bbe25acd27d2fc.jpg"
  },
  {
    "name": "Baby",
    "defaultvalue": 0,
    "displayName": "???",
    "hidden": 1,
    "icon": "https://steamcdn-a.akamaihd.net/steamcommunity/public/images/apps/113200/3d6ffb17b122c741406f63875975cce004fbc955.jpg",
    "icongray": "https://steamcdn-a.akamaihd.net/steamcommunity/public/images/apps/113200/b5fa8479fd2939fa9805fccae36e81647e539970.jpg"
  },
  {
    "name": "Basement_Boy",
    "defaultvalue": 0,
    "displayName": "Basement Boy",
    "hidden": 0,
    "description": "Complete the basement without taking damage",
    "icon": "https://steamcdn-a.akamaihd.net/steamcommunity/public/images/apps/113200/0a3fbaabfdf7581252638365d893466eaa33e9c8.jpg",
    "icongray": "https://steamcdn-a.akamaihd.net/steamcommunity/public/images/apps/113200/4039ee9c3b2ff22f9824f3a899ccc8fbcca48697.jpg"
  },
  {
    "name": "Cave_Boy",
    "defaultvalue": 0,
    "displayName": "Spelunker Boy",
    "hidden": 0,
    "description": "Complete the caves without taking damage",
    "icon": "https://steamcdn-a.akamaihd.net/steamcommunity/public/images/apps/113200/ebcd82bc9e2b7cda633023c8b5dbb5e4b8163fa1.jpg",
    "icongray": "https://steamcdn-a.akamaihd.net/steamcommunity/public/images/apps/113200/73aab83212fd449e836ca524de9e165d9ce49646.jpg"
  },
  {
    "name": "Depths_Boy",
    "defaultvalue": 0,
    "displayName": "Dark Boy",
    "hidden": 0,
    "description": "Complete the depths without taking damage",
    "icon": "https://steamcdn-a.akamaihd.net/steamcommunity/public/images/apps/113200/0dd7c65fa2aed72d7cf447e4edc10218e196207f.jpg",
    "icongray": "https://steamcdn-a.akamaihd.net/steamcommunity/public/images/apps/113200/cd8b52e216e5dd0b88dc43562c1409f607e8c8cf.jpg"
  },
  {
    "name": "Womb_Boy",
    "defaultvalue": 0,
    "displayName": "Mamas Boy",
    "hidden": 0,
    "description": "Complete the womb without taking damage",
    "icon": "https://steamcdn-a.akamaihd.net/steamcommunity/public/images/apps/113200/4d4085622cba214ee613d4d10d776a3b13de0745.jpg",
    "icongray": "https://steamcdn-a.akamaihd.net/steamcommunity/public/images/apps/113200/623b287b5726d375241cacb82a91ecd624f27592.jpg"
  },
  {
    "name": "The_Monster_Manual",
    "defaultvalue": 0,
    "displayName": "The Monster Manual",
    "hidden": 0,
    "description": "Complete Sheol with Judas",
    "icon": "https://steamcdn-a.akamaihd.net/steamcommunity/public/images/apps/113200/c7e31c75b3f3863a7c3219c2a8fd1ded14094e04.jpg",
    "icongray": "https://steamcdn-a.akamaihd.net/steamcommunity/public/images/apps/113200/caef6fe5b8c10fb9ba67989b5330aa0daec06263.jpg"
  },
  {
    "name": "The_Razor_Blade",
    "defaultvalue": 0,
    "displayName": "The Razor Blade",
    "hidden": 0,
    "description": "Complete the womb with Eve",
    "icon": "https://steamcdn-a.akamaihd.net/steamcommunity/public/images/apps/113200/6a8573ba6a16b36984a24c9bbf702ec3e750943f.jpg",
    "icongray": "https://steamcdn-a.akamaihd.net/steamcommunity/public/images/apps/113200/a50bed7a336e6fb1c43b7c75e2527036ae6bd48d.jpg"
  },
  {
    "name": "The_Guardian_Angel",
    "defaultvalue": 0,
    "displayName": "The Guardian Angel",
    "hidden": 0,
    "description": "Complete Sheol with Maggy",
    "icon": "https://steamcdn-a.akamaihd.net/steamcommunity/public/images/apps/113200/60674d77d76bc55ef31f55905cad576bd3dc8c97.jpg",
    "icongray": "https://steamcdn-a.akamaihd.net/steamcommunity/public/images/apps/113200/83ef846c7bf4fe13869e2adbbc54bf2dce71c8de.jpg"
  },
  {
    "name": "The_Demon_Baby",
    "defaultvalue": 0,
    "displayName": "The Demon Baby",
    "hidden": 0,
    "description": "Complete Sheol with Eve",
    "icon": "https://steamcdn-a.akamaihd.net/steamcommunity/public/images/apps/113200/4e152cef21b451da5f79ecb41c2de846ab1f3060.jpg",
    "icongray": "https://steamcdn-a.akamaihd.net/steamcommunity/public/images/apps/113200/ab86619a52ce4ca3b6f91d954133a0f0684fb621.jpg"
  },
  {
    "name": "Moms_Knife",
    "defaultvalue": 0,
    "displayName": "Moms Knife",
    "hidden": 0,
    "description": "Complete Sheol with Isaac",
    "icon": "https://steamcdn-a.akamaihd.net/steamcommunity/public/images/apps/113200/9c6035e8977fdf941ff2b43725da9b78af95cb80.jpg",
    "icongray": "https://steamcdn-a.akamaihd.net/steamcommunity/public/images/apps/113200/a121574031f998381c3497fe9196a80936f1be40.jpg"
  },
  {
    "name": "Forget_Me_Now",
    "defaultvalue": 0,
    "displayName": "Forget Me Now",
    "hidden": 1,
    "icon": "https://steamcdn-a.akamaihd.net/steamcommunity/public/images/apps/113200/f25e48793848b55a0817c0123835b17cfc566a01.jpg",
    "icongray": "https://steamcdn-a.akamaihd.net/steamcommunity/public/images/apps/113200/711dabb3ad673457e12eeea1ff0530c8885424b8.jpg"
  },
  {
    "name": "Eve",
    "defaultvalue": 0,
    "displayName": "Eve's Dead Bird",
    "hidden": 0,
    "description": "Make 2 deals with the devil in one play through",
    "icon": "https://steamcdn-a.akamaihd.net/steamcommunity/public/images/apps/113200/38e61b46c37e9b832d230bf1724e70ff78ffd765.jpg",
    "icongray": "https://steamcdn-a.akamaihd.net/steamcommunity/public/images/apps/113200/49cb6b34e9f91bc15abb9671ec8ca4c95ce7050d.jpg"
  },
  {
    "name": "bombs",
    "defaultvalue": 0,
    "displayName": "The Bomb Bag",
    "hidden": 0,
    "description": "Complete Sheol with Cain",
    "icon": "https://steamcdn-a.akamaihd.net/steamcommunity/public/images/apps/113200/7e3a51b16456abfe80c921ec5d2b45c60507cc4c.jpg",
    "icongray": "https://steamcdn-a.akamaihd.net/steamcommunity/public/images/apps/113200/e979ba6cd698aba253f2ddd73dd60fb5a87b5402.jpg"
  },
  {
    "name": "a_gift_from_krampus",
    "defaultvalue": 0,
    "displayName": "A Gift From Krampus",
    "hidden": 1,
    "icon": "https://steamcdn-a.akamaihd.net/steamcommunity/public/images/apps/113200/7420d35f2c8dc08ee5e73d7ae96b7092f04a1f7b.jpg",
    "icongray": "https://steamcdn-a.akamaihd.net/steamcommunity/public/images/apps/113200/8760beb10fdd53ee802dc9a7257ce6198e721b14.jpg"
  },
  {
    "name": "_abel",
    "defaultvalue": 0,
    "displayName": "Abel",
    "hidden": 0,
    "description": "Complete the final chapter with Cain",
    "icon": "https://steamcdn-a.akamaihd.net/steamcommunity/public/images/apps/113200/2fd5e7aae53d92cf375a573df45a4fba95f835c5.jpg",
    "icongray": "https://steamcdn-a.akamaihd.net/steamcommunity/public/images/apps/113200/dc28845ad533a87ac282ed65b1bdfe33668f8933.jpg"
  },
  {
    "name": "_bloodlust",
    "defaultvalue": 0,
    "displayName": "Blood Lust",
    "hidden": 0,
    "description": "Kill moms heart with Samson",
    "icon": "https://steamcdn-a.akamaihd.net/steamcommunity/public/images/apps/113200/6dfaa87f3af1da85e622781105af80565cb636ae.jpg",
    "icongray": "https://steamcdn-a.akamaihd.net/steamcommunity/public/images/apps/113200/b4f8a47bb9daf5644d3004b821c9aace362f841f.jpg"
  },
  {
    "name": "_d20",
    "defaultvalue": 0,
    "displayName": "The D20",
    "hidden": 0,
    "description": "Complete the final chapter with Isaac",
    "icon": "https://steamcdn-a.akamaihd.net/steamcommunity/public/images/apps/113200/1d424461d0357e9d311019021d848377886660f7.jpg",
    "icongray": "https://steamcdn-a.akamaihd.net/steamcommunity/public/images/apps/113200/a0b84ad32779cabe6587e9f21d1d8af81f67e952.jpg"
  },
  {
    "name": "_cross",
    "defaultvalue": 0,
    "displayName": "The Cross",
    "hidden": 0,
    "description": "Complete the final chapter with Maggy",
    "icon": "https://steamcdn-a.akamaihd.net/steamcommunity/public/images/apps/113200/e69b6f52e7afc69db69a9ab011b856b5bca6d8d3.jpg",
    "icongray": "https://steamcdn-a.akamaihd.net/steamcommunity/public/images/apps/113200/5978a35ce2c2bafd821ba1cb5f02f70aab7f89d7.jpg"
  },
  {
    "name": "_horn",
    "defaultvalue": 0,
    "displayName": "The Curved Horn",
    "hidden": 0,
    "description": "Complete the final chapter with Judas",
    "icon": "https://steamcdn-a.akamaihd.net/steamcommunity/public/images/apps/113200/d1f05a6dce308ff407d0a852cc91f112391c306f.jpg",
    "icongray": "https://steamcdn-a.akamaihd.net/steamcommunity/public/images/apps/113200/46708192d21383382ced04ac1ee30903d6217758.jpg"
  },
  {
    "name": "_knife2",
    "defaultvalue": 0,
    "displayName": "The Sacrificial Knife",
    "hidden": 0,
    "description": "Complete the final chapter with Eve",
    "icon": "https://steamcdn-a.akamaihd.net/steamcommunity/public/images/apps/113200/531a391f8e87d75780416fc3a908576ced06f901.jpg",
    "icongray": "https://steamcdn-a.akamaihd.net/steamcommunity/public/images/apps/113200/462b157816df567aa024ce4751430e52c53b8ba6.jpg"
  },
  {
    "name": "_rainbow",
    "defaultvalue": 0,
    "displayName": "The Rainbow Baby",
    "hidden": 0,
    "description": "Complete the final chapter with ???",
    "icon": "https://steamcdn-a.akamaihd.net/steamcommunity/public/images/apps/113200/be83adeb130a0897fbc10faaca76a367c632a38e.jpg",
    "icongray": "https://steamcdn-a.akamaihd.net/steamcommunity/public/images/apps/113200/3512e27db914ff5afe183a3ee993a1cfd5a6901c.jpg"
  },
  {
    "name": "_bloodpenny",
    "defaultvalue": 0,
    "displayName": "The Bloody Penny",
    "hidden": 0,
    "description": "Complete the final chapter with Samson",
    "icon": "https://steamcdn-a.akamaihd.net/steamcommunity/public/images/apps/113200/dae2e9249075accbde4df70d725126282c97576f.jpg",
    "icongray": "https://steamcdn-a.akamaihd.net/steamcommunity/public/images/apps/113200/dc73b01514995006b9859e429e6d5a1c180fab72.jpg"
  },
  {
    "name": "_bloodrights",
    "defaultvalue": 0,
    "displayName": "Blood Rights",
    "hidden": 0,
    "description": "Kill Satan with Samson",
    "icon": "https://steamcdn-a.akamaihd.net/steamcommunity/public/images/apps/113200/371b2ecb240676fa5034f4365203594222ea18ae.jpg",
    "icongray": "https://steamcdn-a.akamaihd.net/steamcommunity/public/images/apps/113200/0f48ad36553143e1f89dc609e08f6f330ce32c11.jpg"
  },
  {
    "name": "_platinum",
    "defaultvalue": 0,
    "displayName": "Platinum God!",
    "hidden": 0,
    "description": "100% the game",
    "icon": "https://steamcdn-a.akamaihd.net/steamcommunity/public/images/apps/113200/46a7a13620cb215cfd872dbbfd585648ca574c7f.jpg",
    "icongray": "https://steamcdn-a.akamaihd.net/steamcommunity/public/images/apps/113200/ca7ac4010dfdd4b6a0157a66cb997efa50643168.jpg"
  },
  {
    "name": "_samson",
    "defaultvalue": 0,
    "displayName": "Samson",
    "hidden": 0,
    "description": "Kill mom but pass on 2 treasure room items",
    "icon": "https://steamcdn-a.akamaihd.net/steamcommunity/public/images/apps/113200/b1f7193968ca2d9ab100ec50bd65dabab1c44b0d.jpg",
    "icongray": "https://steamcdn-a.akamaihd.net/steamcommunity/public/images/apps/113200/556460f2922aca50baf1023927d85dcfb5130cdf.jpg"
  },
  {
    "name": "_candle",
    "defaultvalue": 0,
    "displayName": "The Burnt Penny",
    "hidden": 0,
    "description": "Complete Challenge 3",
    "icon": "https://steamcdn-a.akamaihd.net/steamcommunity/public/images/apps/113200/90862e90a5026cb027130f9e0e11f8d844894f07.jpg",
    "icongray": "https://steamcdn-a.akamaihd.net/steamcommunity/public/images/apps/113200/481c5b8279a2101d1083d4c72d45c05ffd5aaa54.jpg"
  },
  {
    "name": "_toe",
    "defaultvalue": 0,
    "displayName": "The Candle",
    "hidden": 0,
    "description": "Complete Challenge 1",
    "icon": "https://steamcdn-a.akamaihd.net/steamcommunity/public/images/apps/113200/dc5bd206425c848f1f5147d438671f62c4ae4c90.jpg",
    "icongray": "https://steamcdn-a.akamaihd.net/steamcommunity/public/images/apps/113200/c79e6390326d21ff35517b185bb43832c3619d64.jpg"
  },
  {
    "name": "_burntpenny",
    "defaultvalue": 0,
    "displayName": "The Lucky Toe",
    "hidden": 0,
    "description": "Complete Challenge 2",
    "icon": "https://steamcdn-a.akamaihd.net/steamcommunity/public/images/apps/113200/9b0da8d4a8865a6180e16575a3fc2915bea541a8.jpg",
    "icongray": "https://steamcdn-a.akamaihd.net/steamcommunity/public/images/apps/113200/17c899ad72135b26aee1ea46cfaa2747ec4beb12.jpg"
  },
  {
    "name": "_tail",
    "defaultvalue": 0,
    "displayName": "Guppys Tail",
    "hidden": 0,
    "description": "Complete Challenge 4",
    "icon": "https://steamcdn-a.akamaihd.net/steamcommunity/public/images/apps/113200/fe6c9f55d04b410bf4a10e052163e4b7b552fa36.jpg",
    "icongray": "https://steamcdn-a.akamaihd.net/steamcommunity/public/images/apps/113200/07b07d7c81ba48abfd634c2a4e10633e186ee5e6.jpg"
  },
  {
    "name": "_megafetus",
    "defaultvalue": 0,
    "displayName": "Mega Fetus",
    "hidden": 0,
    "description": "Complete Challenge 6",
    "icon": "https://steamcdn-a.akamaihd.net/steamcommunity/public/images/apps/113200/ef9d552ceb9ecf0c434f985b7a4f62cf96204b10.jpg",
    "icongray": "https://steamcdn-a.akamaihd.net/steamcommunity/public/images/apps/113200/6777a6a880b0f09257e57bf185eff0ecba73b96f.jpg"
  },
  {
    "name": "_fish",
    "defaultvalue": 0,
    "displayName": "The Fish Head",
    "hidden": 0,
    "description": "Complete Challenge 5",
    "icon": "https://steamcdn-a.akamaihd.net/steamcommunity/public/images/apps/113200/d99734bc7d378dd939c952ae7c7825b5faa4e597.jpg",
    "icongray": "https://steamcdn-a.akamaihd.net/steamcommunity/public/images/apps/113200/23abb085d1f195049e5a9104ace12844fcb976fb.jpg"
  },
  {
    "name": "_superfan",
    "defaultvalue": 0,
    "displayName": "Super SMB Fan",
    "hidden": 0,
    "description": "Complete Challenge 7",
    "icon": "https://steamcdn-a.akamaihd.net/steamcommunity/public/images/apps/113200/e4074894bf216f0768985e3e252e984ce1e45a17.jpg",
    "icongray": "https://steamcdn-a.akamaihd.net/steamcommunity/public/images/apps/113200/ff0698ffd590f69226263e021e43c03ea52d86d9.jpg"
  },
  {
    "name": "_spiderbutt",
    "defaultvalue": 0,
    "displayName": "The Spider Butt",
    "hidden": 0,
    "description": "Complete Challenge 8",
    "icon": "https://steamcdn-a.akamaihd.net/steamcommunity/public/images/apps/113200/35b4b0536c1a6c961c59adfd01de81de66f95a9a.jpg",
    "icongray": "https://steamcdn-a.akamaihd.net/steamcommunity/public/images/apps/113200/5e8d8f3953dafc60e75957aa27cc21f8bce1538b.jpg"
  },
  {
    "name": "_counterfeit",
    "defaultvalue": 0,
    "displayName": "The Counterfeit Coin",
    "hidden": 0,
    "description": "Complete Challenge 9",
    "icon": "https://steamcdn-a.akamaihd.net/steamcommunity/public/images/apps/113200/25bdb8c93641cc25d58baa77a9635662d9e0ad27.jpg",
    "icongray": "https://steamcdn-a.akamaihd.net/steamcommunity/public/images/apps/113200/97215e0608171b34f8a4e3baeaec53ec0c5fc188.jpg"
  },
  {
    "name": "_hairball",
    "defaultvalue": 0,
    "displayName": "Guppys Hairball",
    "hidden": 1,
    "icon": "https://steamcdn-a.akamaihd.net/steamcommunity/public/images/apps/113200/a723b2a0fe1e2aa22fb1afdc74b5c878773fa62e.jpg",
    "icongray": "https://steamcdn-a.akamaihd.net/steamcommunity/public/images/apps/113200/9b4d5f0929a16320be5ff5f96dd2002dfc1aa178.jpg"
  },
  {
    "name": "_eggsack",
    "defaultvalue": 0,
    "displayName": "Daddys love",
    "hidden": 1,
    "icon": "https://steamcdn-a.akamaihd.net/steamcommunity/public/images/apps/113200/b2ee52e127df829de46339daca2ecc9ca7594312.jpg",
    "icongray": "https://steamcdn-a.akamaihd.net/steamcommunity/public/images/apps/113200/9c11f6a753d5cc5642a00784d7a9ce42bf41336c.jpg"
  },
  {
    "name": "_dadskey",
    "defaultvalue": 0,
    "displayName": "Dads Key",
    "hidden": 1,
    "icon": "https://steamcdn-a.akamaihd.net/steamcommunity/public/images/apps/113200/286d4f8ed24277d7fdd65b2f3d681b25b4f9ae52.jpg",
    "icongray": "https://steamcdn-a.akamaihd.net/steamcommunity/public/images/apps/113200/00f2aa6e3bcf3cdc6967e0fc476d54652b179b7e.jpg"
  },
  {
    "name": "_polaroid",
    "defaultvalue": 0,
    "displayName": "The Polaroid",
    "hidden": 1,
    "icon": "https://steamcdn-a.akamaihd.net/steamcommunity/public/images/apps/113200/32613009e3c27bc73f82bb7f35cd3cc72268937b.jpg",
    "icongray": "https://steamcdn-a.akamaihd.net/steamcommunity/public/images/apps/113200/9366a1957b831b54acbe745bfaf2585a55892080.jpg"
  },
  {
    "name": "_head",
    "defaultvalue": 0,
    "displayName": "Isaacs Head",
    "hidden": 1,
    "icon": "https://steamcdn-a.akamaihd.net/steamcommunity/public/images/apps/113200/3ba45acb3f8124b756b9a08dc9ab93c99ecf5775.jpg",
    "icongray": "https://steamcdn-a.akamaihd.net/steamcommunity/public/images/apps/113200/4258b27f4ff4920b17bcffd3d33aa297db208e40.jpg"
  },
  {
    "name": "_faith",
    "defaultvalue": 0,
    "displayName": "Maggys Faith",
    "hidden": 1,
    "icon": "https://steamcdn-a.akamaihd.net/steamcommunity/public/images/apps/113200/2595349524b28a34de63b4fb60b17f5727209ac8.jpg",
    "icongray": "https://steamcdn-a.akamaihd.net/steamcommunity/public/images/apps/113200/70e46c9b35af048cc442bdee18f0556551881c8f.jpg"
  },
  {
    "name": "_eye",
    "defaultvalue": 0,
    "displayName": "Cains Eye",
    "hidden": 1,
    "icon": "https://steamcdn-a.akamaihd.net/steamcommunity/public/images/apps/113200/82ddcdacec1dc275f9443349de974023ac56bb61.jpg",
    "icongray": "https://steamcdn-a.akamaihd.net/steamcommunity/public/images/apps/113200/43333a74313b58edf7dcfd9fec047164d590a88b.jpg"
  },
  {
    "name": "_tongue",
    "defaultvalue": 0,
    "displayName": "Judas' Tongue ",
    "hidden": 1,
    "icon": "https://steamcdn-a.akamaihd.net/steamcommunity/public/images/apps/113200/522e2c8a896a8248e3980e971c1f1d539a5a78a3.jpg",
    "icongray": "https://steamcdn-a.akamaihd.net/steamcommunity/public/images/apps/113200/fade6b1f815132bc3c310df7b8f27e6acb2250d8.jpg"
  },
  {
    "name": "_birdfoot",
    "defaultvalue": 0,
    "displayName": "Eves Bird Foot",
    "hidden": 1,
    "icon": "https://steamcdn-a.akamaihd.net/steamcommunity/public/images/apps/113200/78e5f16c8d7a08c3829a8ef7e4b95cb6352d42a3.jpg",
    "icongray": "https://steamcdn-a.akamaihd.net/steamcommunity/public/images/apps/113200/8dc2572846e50e42ccbdff9e8ceba1064724df1c.jpg"
  },
  {
    "name": "_soul",
    "defaultvalue": 0,
    "displayName": "???s Soul",
    "hidden": 1,
    "icon": "https://steamcdn-a.akamaihd.net/steamcommunity/public/images/apps/113200/721598c273a7bed9bd5cac40657704e3c5369954.jpg",
    "icongray": "https://steamcdn-a.akamaihd.net/steamcommunity/public/images/apps/113200/40616e23d8652aa6f27a080227cb82582a8a4655.jpg"
  },
  {
    "name": "_lock",
    "defaultvalue": 0,
    "displayName": "Samsons Lock",
    "hidden": 1,
    "icon": "https://steamcdn-a.akamaihd.net/steamcommunity/public/images/apps/113200/8d878bfab6a41ef314082db2e35df220afb902ac.jpg",
    "icongray": "https://steamcdn-a.akamaihd.net/steamcommunity/public/images/apps/113200/8033ddba44c8ee3965d703965e7ff4cbeb980992.jpg"
  },
  {
    "name": "_hand",
    "defaultvalue": 0,
    "displayName": "The Left Hand",
    "hidden": 1,
    "icon": "https://steamcdn-a.akamaihd.net/steamcommunity/public/images/apps/113200/377c10eeaabb2b2686e2d7bceac654b0b49110f2.jpg",
    "icongray": "https://steamcdn-a.akamaihd.net/steamcommunity/public/images/apps/113200/d29dbcdc294a4e3ba6a30d36cd84c0a37cfdb126.jpg"
  },
  {
    "name": "emom",
    "defaultvalue": 0,
    "displayName": "Eternal Mom",
    "hidden": 0,
    "description": "Beat Mom in Hardmode",
    "icon": "https://steamcdn-a.akamaihd.net/steamcommunity/public/images/apps/113200/da16da58d713bea700100a46575a170c3e2412b4.jpg",
    "icongray": "https://steamcdn-a.akamaihd.net/steamcommunity/public/images/apps/113200/dd5e684c442165bf608741cf9a15c0fc4abca5ac.jpg"
  },
  {
    "name": "eheart",
    "defaultvalue": 0,
    "displayName": "Eternal Heart",
    "hidden": 0,
    "description": "Beat Moms Heart in Hardmode",
    "icon": "https://steamcdn-a.akamaihd.net/steamcommunity/public/images/apps/113200/9324c73d63e8ad0954cb03a299c4b7cfdb3a67a2.jpg",
    "icongray": "https://steamcdn-a.akamaihd.net/steamcommunity/public/images/apps/113200/169ea8fbaef95e53854e1bc479e246ed35db8d92.jpg"
  },
  {
    "name": "esatan",
    "defaultvalue": 0,
    "displayName": "Eternal Satan",
    "hidden": 0,
    "description": "Beat Satan in Hardmode",
    "icon": "https://steamcdn-a.akamaihd.net/steamcommunity/public/images/apps/113200/85aa008304fec5a1839ae95d5ad3f8d05d831cf2.jpg",
    "icongray": "https://steamcdn-a.akamaihd.net/steamcommunity/public/images/apps/113200/7a11cf28496f6dae5908f160ec7a705a5ec2c4f8.jpg"
  },
  {
    "name": "eisaac",
    "defaultvalue": 0,
    "displayName": "Eternal Cathedral",
    "hidden": 0,
    "description": "Beat the boss in the Cathedral in Hardmode",
    "icon": "https://steamcdn-a.akamaihd.net/steamcommunity/public/images/apps/113200/117d84eb49b50a44e6ecc590fad84d56fe9ddc5e.jpg",
    "icongray": "https://steamcdn-a.akamaihd.net/steamcommunity/public/images/apps/113200/ee56c57ae6bb701001f1d9b33bd09ecc89b16278.jpg"
  },
  {
    "name": "hardgame",
    "defaultvalue": 0,
    "displayName": "Hard Game",
    "hidden": 0,
    "description": "Beat the Game in Hardmode!",
    "icon": "https://steamcdn-a.akamaihd.net/steamcommunity/public/images/apps/113200/638feb9501f571a9fbf871e7affbfa80e6ae80f8.jpg",
    "icongray": "https://steamcdn-a.akamaihd.net/steamcommunity/public/images/apps/113200/3c59986201332d4ef1a8e0f4a2eeb347ae2b6bf6.jpg"
  },
  {
    "name": "elife",
    "defaultvalue": 0,
    "displayName": "Eternal Life",
    "hidden": 0,
    "description": "Gain 7 Health upgrades from Eternal Hearts",
    "icon": "https://steamcdn-a.akamaihd.net/steamcommunity/public/images/apps/113200/129999ab8991a13acf4030c9c227108b2c0cdec7.jpg",
    "icongray": "https://steamcdn-a.akamaihd.net/steamcommunity/public/images/apps/113200/d00f7d893d8ae0d39e42b6c48ac3114b15e515d1.jpg"
  },
  {
    "name": "pisaac",
    "defaultvalue": 0,
    "displayName": "Eternal Isaac",
    "hidden": 0,
    "description": "Beat the game as Isaac in Hardmode",
    "icon": "https://steamcdn-a.akamaihd.net/steamcommunity/public/images/apps/113200/9777ac0e60380a7286ec31e2b86c8f1ef5123164.jpg",
    "icongray": "https://steamcdn-a.akamaihd.net/steamcommunity/public/images/apps/113200/c49cb77bed0d7ec0179d337f69ad8473308adc4b.jpg"
  },
  {
    "name": "pcain",
    "defaultvalue": 0,
    "displayName": "Eternal Cain",
    "hidden": 0,
    "description": "Beat the game as Cain in Hardmode",
    "icon": "https://steamcdn-a.akamaihd.net/steamcommunity/public/images/apps/113200/d62a67a97c5169d32c602f16e725d7d4edf220fc.jpg",
    "icongray": "https://steamcdn-a.akamaihd.net/steamcommunity/public/images/apps/113200/af56b86c02f4e4de8e857f283ff3e83d4e8a9c51.jpg"
  },
  {
    "name": "pmaggy",
    "defaultvalue": 0,
    "displayName": "Eternal Maggy",
    "hidden": 0,
    "description": "Beat the game as Magdalen in Hardmode",
    "icon": "https://steamcdn-a.akamaihd.net/steamcommunity/public/images/apps/113200/c4575ec5d5b9c3362e19fe23b99e809836092367.jpg",
    "icongray": "https://steamcdn-a.akamaihd.net/steamcommunity/public/images/apps/113200/72c039a04f270be39d5f3cbd5f974770055fa48f.jpg"
  },
  {
    "name": "pjudas",
    "defaultvalue": 0,
    "displayName": "Eternal Judas",
    "hidden": 0,
    "description": "Beat the game as Judas in Hardmode",
    "icon": "https://steamcdn-a.akamaihd.net/steamcommunity/public/images/apps/113200/a60dcd55c1784217665208a81359f9dc7448c870.jpg",
    "icongray": "https://steamcdn-a.akamaihd.net/steamcommunity/public/images/apps/113200/02df3aa917ff3d44db24a0a6617d14863d43bce8.jpg"
  },
  {
    "name": "psam",
    "defaultvalue": 0,
    "displayName": "Eternal Samson",
    "hidden": 0,
    "description": "Beat the game as Samson in Hardmode",
    "icon": "https://steamcdn-a.akamaihd.net/steamcommunity/public/images/apps/113200/227f2d36f073e60505c049a59c09ed5bc3f8903b.jpg",
    "icongray": "https://steamcdn-a.akamaihd.net/steamcommunity/public/images/apps/113200/862c330589209a2e47ca5d363ef7676f668a5680.jpg"
  },
  {
    "name": "peve",
    "defaultvalue": 0,
    "displayName": "Eternal Eve",
    "hidden": 0,
    "description": "Beat the game as Eve in Hardmode",
    "icon": "https://steamcdn-a.akamaihd.net/steamcommunity/public/images/apps/113200/57c6bcd2f8f6465e3105c4ea22f38693829925ab.jpg",
    "icongray": "https://steamcdn-a.akamaihd.net/steamcommunity/public/images/apps/113200/5a5bda0bd678132934c0638098ae98d68e6e43ac.jpg"
  },
  {
    "name": "pblue",
    "defaultvalue": 0,
    "displayName": "Eternal ???",
    "hidden": 0,
    "description": "Beat the game as ??? in Hardmode, and good luck!",
    "icon": "https://steamcdn-a.akamaihd.net/steamcommunity/public/images/apps/113200/e9e20be5b031ab3410ebf50a932ccd48fff77cdc.jpg",
    "icongray": "https://steamcdn-a.akamaihd.net/steamcommunity/public/images/apps/113200/f7d60678f55351e6f469cc22d97d270f4ae20575.jpg"
  },
  {
    "name": "ppers",
    "defaultvalue": 0,
    "displayName": "Eternal Personalities",
    "hidden": 0,
    "description": "Beat the game as all characters in Hardmode.",
    "icon": "https://steamcdn-a.akamaihd.net/steamcommunity/public/images/apps/113200/43ac7d887f0c727e04c1c3495c8591580b7c8862.jpg",
    "icongray": "https://steamcdn-a.akamaihd.net/steamcommunity/public/images/apps/113200/3a8e56b0fef5b971d492dc142216c30b2255c5f3.jpg"
  },
  {
    "name": "egod",
    "defaultvalue": 0,
    "displayName": "Eternal God",
    "hidden": 0,
    "description": "100% the game and hardmode (get all the achievements)",
    "icon": "https://steamcdn-a.akamaihd.net/steamcommunity/public/images/apps/113200/759468022d30ce9a9010e6662f210c7e476618a3.jpg",
    "icongray": "https://steamcdn-a.akamaihd.net/steamcommunity/public/images/apps/113200/07a14ffea874f81dc6f0e5a8dbe11e50186263c7.jpg"
  }
]