﻿[
  {
    "name": "FIREBALL_SURVIVOR_1",
    "defaultvalue": 0,
    "displayName": "Fireball Survivor (Rookie)",
    "hidden": 0,
    "description": "You avoided fireballs for over 20 seconds!",
    "icon": "https://steamcdn-a.akamaihd.net/steamcommunity/public/images/apps/655630/523e423301d2cdda3c1667212e7dd7661834dcfb.jpg",
    "icongray": "https://steamcdn-a.akamaihd.net/steamcommunity/public/images/apps/655630/ecdde6cd9919498b78a17f8867f155542f82841c.jpg"
  },
  {
    "name": "FIREBALL_SURVIVOR_2",
    "defaultvalue": 0,
    "displayName": "Fireball Survivor (Expert)",
    "hidden": 0,
    "description": "You avoided fireballs for over 30 seconds! Look at you! Great job!",
    "icon": "https://steamcdn-a.akamaihd.net/steamcommunity/public/images/apps/655630/9c7e80a0d2e625638c079b48ec5f83d9e6ba2d7c.jpg",
    "icongray": "https://steamcdn-a.akamaihd.net/steamcommunity/public/images/apps/655630/3dbbe824e045609f0380a5d1b26aab1ce500f338.jpg"
  },
  {
    "name": "FIREBALL_SURVIVOR_3",
    "defaultvalue": 0,
    "displayName": "Fireball Survivor (Pro)",
    "hidden": 0,
    "description": "You avoided fireballs for over 40 seconds! WOW!",
    "icon": "https://steamcdn-a.akamaihd.net/steamcommunity/public/images/apps/655630/2006597e9caec49a1755067a7d034851692cad96.jpg",
    "icongray": "https://steamcdn-a.akamaihd.net/steamcommunity/public/images/apps/655630/f6042d34a04f0ca73745f1493087c6924371e0ef.jpg"
  },
  {
    "name": "BLUE_WIN",
    "defaultvalue": 0,
    "displayName": "Always Blue!",
    "hidden": 0,
    "description": "Player 1 won the game!",
    "icon": "https://steamcdn-a.akamaihd.net/steamcommunity/public/images/apps/655630/b904a5c53676b0b088c9968386038dd067c50aa9.jpg",
    "icongray": "https://steamcdn-a.akamaihd.net/steamcommunity/public/images/apps/655630/b8434a6f0dbc990fab4cc623b877db75d0c67945.jpg"
  },
  {
    "name": "GREEN_WIN",
    "defaultvalue": 0,
    "displayName": "It's Easy Being Green",
    "hidden": 0,
    "description": "Player 2 won the game!",
    "icon": "https://steamcdn-a.akamaihd.net/steamcommunity/public/images/apps/655630/8b3077b815c283d918c6f82fcd7f8abe1e5e97af.jpg",
    "icongray": "https://steamcdn-a.akamaihd.net/steamcommunity/public/images/apps/655630/4944f27804b44c1db7efc426b13c70ba29b59cff.jpg"
  },
  {
    "name": "RED_WIN",
    "defaultvalue": 0,
    "displayName": "If You're Not Red You're Dead",
    "hidden": 0,
    "description": "Player 3 won the game!",
    "icon": "https://steamcdn-a.akamaihd.net/steamcommunity/public/images/apps/655630/6d4ef36d1fc2c2f37e2dd274e23f5cedf17858ee.jpg",
    "icongray": "https://steamcdn-a.akamaihd.net/steamcommunity/public/images/apps/655630/b9571b885bcfe3a57cccbec481891a5e3ff62ea4.jpg"
  },
  {
    "name": "YELLOW_WIN",
    "defaultvalue": 0,
    "displayName": "Don't Underestimate the Yellow Fellow",
    "hidden": 0,
    "description": "Player 4 won the game!",
    "icon": "https://steamcdn-a.akamaihd.net/steamcommunity/public/images/apps/655630/7ff0f399df20a071bd9e80e8040ae893c7ac7d04.jpg",
    "icongray": "https://steamcdn-a.akamaihd.net/steamcommunity/public/images/apps/655630/2cae70afca7018a4bef6d7e436f10f9499370bec.jpg"
  },
  {
    "name": "SHUT_OUT",
    "defaultvalue": 0,
    "displayName": "Shut Out!",
    "hidden": 0,
    "description": "Nobody else got any points... How embarrassing!",
    "icon": "https://steamcdn-a.akamaihd.net/steamcommunity/public/images/apps/655630/a10ffd847bc68e89789618389e39d4ed954df2b4.jpg",
    "icongray": "https://steamcdn-a.akamaihd.net/steamcommunity/public/images/apps/655630/45dc7e49077f7275e372006cef534faac0a20b4f.jpg"
  },
  {
    "name": "SLOW_BALL_1",
    "defaultvalue": 0,
    "displayName": "Slow Ball-er (Rookie)",
    "hidden": 0,
    "description": "You defended your goal against the slow balls for 30 seconds!",
    "icon": "https://steamcdn-a.akamaihd.net/steamcommunity/public/images/apps/655630/20a2b84d965eb575aa389cef490e04d38cb7dcb3.jpg",
    "icongray": "https://steamcdn-a.akamaihd.net/steamcommunity/public/images/apps/655630/fbc9ce821cc4f25ba7b337eb92ca799844d0d545.jpg"
  },
  {
    "name": "SLOW_BALL_2",
    "defaultvalue": 0,
    "displayName": "Slow Ball-er (Expert)",
    "hidden": 0,
    "description": "You defended your goal against the slow balls for 45 seconds! Gosh, you're great!",
    "icon": "https://steamcdn-a.akamaihd.net/steamcommunity/public/images/apps/655630/79f07eebc68035a562521cd299908c0ec684da62.jpg",
    "icongray": "https://steamcdn-a.akamaihd.net/steamcommunity/public/images/apps/655630/16d1102e91f1607d2c560b937dd7a817b423ce55.jpg"
  },
  {
    "name": "SLOW_BALL_3",
    "defaultvalue": 0,
    "displayName": "Slow Ball-er (Pro)",
    "hidden": 0,
    "description": "You defended your goal against the slow balls for a minute! Daaaaaaaaaaaaang!",
    "icon": "https://steamcdn-a.akamaihd.net/steamcommunity/public/images/apps/655630/ef199ad18de0e0ed5b69a59b2c9d044d4bcfb433.jpg",
    "icongray": "https://steamcdn-a.akamaihd.net/steamcommunity/public/images/apps/655630/63e1f509e2826529d63db8e7282a16f2e8e4e334.jpg"
  },
  {
    "name": "SPEED_RACER_1",
    "defaultvalue": 0,
    "displayName": "Speed Racer (Rookie)",
    "hidden": 0,
    "description": "You won a race in under a minute!",
    "icon": "https://steamcdn-a.akamaihd.net/steamcommunity/public/images/apps/655630/ab8e0fa46eb9ad31e5627bbc16a9edf7ad8d058f.jpg",
    "icongray": "https://steamcdn-a.akamaihd.net/steamcommunity/public/images/apps/655630/ce223a79836bccc91be922ee7c87ef928519d641.jpg"
  },
  {
    "name": "SPEED_RACER_2",
    "defaultvalue": 0,
    "displayName": "Speed Racer (Expert)",
    "hidden": 0,
    "description": "You won a race in under 45 seconds! Wow so fast great job!",
    "icon": "https://steamcdn-a.akamaihd.net/steamcommunity/public/images/apps/655630/05d4cea36ef9ded3ccd4fcd8525912fde02653e2.jpg",
    "icongray": "https://steamcdn-a.akamaihd.net/steamcommunity/public/images/apps/655630/68f868ec464ab8da6002cbf59ff6584a878ad4a0.jpg"
  },
  {
    "name": "SPEED_RACER_3",
    "defaultvalue": 0,
    "displayName": "Speed Racer (Pro)",
    "hidden": 0,
    "description": "You won a 3 or 4 player race in under 30 seconds! You probably cheated!",
    "icon": "https://steamcdn-a.akamaihd.net/steamcommunity/public/images/apps/655630/6f73a0d8ae3e0df622552c31b9849197b5a78e49.jpg",
    "icongray": "https://steamcdn-a.akamaihd.net/steamcommunity/public/images/apps/655630/7683737e80c3708b80f96e22abb915a34bdab52d.jpg"
  },
  {
    "name": "WALL_DODGER_1",
    "defaultvalue": 0,
    "displayName": "Wall Dodge (Rookie)",
    "hidden": 0,
    "description": "You lasted 35 seconds without being pushed off the screen!",
    "icon": "https://steamcdn-a.akamaihd.net/steamcommunity/public/images/apps/655630/52278c91746639ec1090de432ef4801f6b8a1309.jpg",
    "icongray": "https://steamcdn-a.akamaihd.net/steamcommunity/public/images/apps/655630/ad4c7fc242a0dda13b1843aeeda1b1053e22fce3.jpg"
  },
  {
    "name": "WALL_DODGER_2",
    "defaultvalue": 0,
    "displayName": "Wall Dodge (Expert)",
    "hidden": 0,
    "description": "You lasted 40 seconds without being pushed off the screen! Whoa",
    "icon": "https://steamcdn-a.akamaihd.net/steamcommunity/public/images/apps/655630/46d1a8a1e605cdae635c17c0bfa4c1b9ef41dcc4.jpg",
    "icongray": "https://steamcdn-a.akamaihd.net/steamcommunity/public/images/apps/655630/4365ffc45fb4b95649e02837bdc9c4a1bb5c4e78.jpg"
  },
  {
    "name": "WALL_DODGER_3",
    "defaultvalue": 0,
    "displayName": "Wall Dodge (Pro)",
    "hidden": 0,
    "description": "You lasted 45 seconds without being pushed off the screen! You win at this.",
    "icon": "https://steamcdn-a.akamaihd.net/steamcommunity/public/images/apps/655630/72291a170e800d5c6557e99881d403dac29c3554.jpg",
    "icongray": "https://steamcdn-a.akamaihd.net/steamcommunity/public/images/apps/655630/88f495dbdc80221fb523626f2614378313079670.jpg"
  },
  {
    "name": "THANKS",
    "defaultvalue": 0,
    "displayName": "Thanks For Playing!",
    "hidden": 0,
    "description": "You started playing Paddle Battle! Look at how much you've achieved already!",
    "icon": "https://steamcdn-a.akamaihd.net/steamcommunity/public/images/apps/655630/48f33bdb4c81a382a2886d6ebb437d8e3d2a7f29.jpg",
    "icongray": "https://steamcdn-a.akamaihd.net/steamcommunity/public/images/apps/655630/5dddb6f1f971492d6db38e192ad89042c10ad44c.jpg"
  }
]