﻿{
  "Dlcs": {},
  "Name": "VR conference",
  "AppId": "668490",
  "ImageUrl": "https://steamcdn-a.akamaihd.net/steam/apps/668490/header.jpg?t=1574081163",
  "Languages": [
    "english"
  ],
  "Platforms": {
    "windows": true,
    "mac": false,
    "linux": false
  }
}