﻿{
  "Dlcs": {},
  "Name": "7 Wonders of the Ancient World",
  "AppId": "275810",
  "ImageUrl": "https://steamcdn-a.akamaihd.net/steam/apps/275810/header.jpg?t=1447360236",
  "Languages": [
    "english"
  ],
  "Platforms": {
    "windows": true,
    "mac": false,
    "linux": false
  }
}