﻿{
  "Dlcs": {},
  "Name": "VRCapture",
  "AppId": "544420",
  "ImageUrl": "https://steamcdn-a.akamaihd.net/steam/apps/544420/header.jpg?t=1495679285",
  "Languages": [
    "english",
    "french",
    "russian",
    "schinese",
    "tchinese"
  ],
  "Platforms": {
    "windows": true,
    "mac": false,
    "linux": false
  }
}