﻿{
  "Dlcs": {},
  "Name": "Gardens Inc. – From Rakes to Riches",
  "AppId": "279420",
  "ImageUrl": "https://steamcdn-a.akamaihd.net/steam/apps/279420/header.jpg?t=1447360405",
  "Languages": [
    "english",
    "french",
    "german",
    "dutch"
  ],
  "Platforms": {
    "windows": true,
    "mac": false,
    "linux": false
  }
}