{
  "Releases": [
    "Windows"
  ],
  "Name": "Tom Clancy\u2019s Ghost Recon Breakpoint",
  "AppId": "Saffron",
  "Namespace": "2dbd2f64abdc4bbab077424d5c85e01b",
  "ItemId": "8d3837f092ae4349aa0a0238de07f549",
  "ImageUrl": "https://cdn1.epicgames.com/2dbd2f64abdc4bbab077424d5c85e01b/item/TargetPrimaryPromo-2580x1450-989ed2e98944eebffc504e23c958260d.jpg",
  "Dlcs": {
    "bec74c69cdf94cf183e3097f4725f96d": {
      "Name": "Saffron Season Pass Year 1",
      "ItemId": "35b2b1dc50404368ac36c2571a7f97cf"
    }
  }
}