﻿{
  "Dlcs": {},
  "Name": "Radical Spectrum: Volume 1",
  "AppId": "486150",
  "ImageUrl": "https://steamcdn-a.akamaihd.net/steam/apps/486150/header.jpg?t=1468024720",
  "Languages": [
    "english"
  ],
  "Platforms": {
    "windows": true,
    "mac": true,
    "linux": false
  }
}