﻿{
  "Dlcs": {
    "856900": {
      "Name": "Citadel of Chaos (Fighting Fantasy Classics)",
      "ImageUrl": "https://steamcdn-a.akamaihd.net/steam/apps/856900/header.jpg?t=1550549029"
    },
    "856910": {
      "Name": "City of Thieves (Fighting Fantasy Classics)",
      "ImageUrl": "https://steamcdn-a.akamaihd.net/steam/apps/856910/header.jpg?t=1550548740"
    },
    "856920": {
      "Name": "Deathtrap Dungeon (Fighting Fantasy Classics)",
      "ImageUrl": "https://steamcdn-a.akamaihd.net/steam/apps/856920/header.jpg?t=1550549439"
    },
    "856930": {
      "Name": "Caverns of the Snow Witch (Fighting Fantasy Classics)",
      "ImageUrl": "https://steamcdn-a.akamaihd.net/steam/apps/856930/header.jpg?t=1528240814"
    },
    "856940": {
      "Name": "Island of the Lizard King (Fighting Fantasy Classics)",
      "ImageUrl": "https://steamcdn-a.akamaihd.net/steam/apps/856940/header.jpg?t=1550549334"
    },
    "856950": {
      "Name": "The Forest of Doom (Fighting Fantasy Classics)",
      "ImageUrl": "https://steamcdn-a.akamaihd.net/steam/apps/856950/header.jpg?t=1528241045"
    },
    "856960": {
      "Name": "The Warlock of Firetop Mountain (Fighting Fantasy Classics)",
      "ImageUrl": "https://steamcdn-a.akamaihd.net/steam/apps/856960/header.jpg?t=1528241025"
    },
    "897180": {
      "Name": "House of Hell (Fighting Fantasy Classics)",
      "ImageUrl": "https://steamcdn-a.akamaihd.net/steam/apps/897180/header.jpg?t=1531876822"
    },
    "897190": {
      "Name": "Trial of Champions (Fighting Fantasy Classics)",
      "ImageUrl": "https://steamcdn-a.akamaihd.net/steam/apps/897190/header.jpg?t=1550544611"
    }
  },
  "Name": "Fighting Fantasy Classics",
  "AppId": "856880",
  "ImageUrl": "https://steamcdn-a.akamaihd.net/steam/apps/856880/header.jpg?t=1579243279",
  "Languages": [
    "english"
  ],
  "Platforms": {
    "windows": true,
    "mac": true,
    "linux": false
  }
}