﻿{
  "Dlcs": {},
  "Name": "Sid Meier's Pirates!",
  "AppId": "3920",
  "ImageUrl": "https://steamcdn-a.akamaihd.net/steam/apps/3920/header.jpg?t=1568748025",
  "Languages": [
    "english"
  ],
  "Platforms": {
    "windows": true,
    "mac": false,
    "linux": false
  }
}