﻿[
  {
    "name": "NEW_ACHIEVEMENT_1_0",
    "defaultvalue": 0,
    "displayName": "Gold Fever",
    "hidden": 0,
    "description": "Win all Collectors Slaloms to unlock this achievement.",
    "icon": "https://steamcdn-a.akamaihd.net/steamcommunity/public/images/apps/371420/55c2262f0544d9598edaf975537ff1d97488059a.jpg",
    "icongray": "https://steamcdn-a.akamaihd.net/steamcommunity/public/images/apps/371420/01558b83a8bed9e6f9c714f5b643e76d7787b9be.jpg"
  },
  {
    "name": "NEW_ACHIEVEMENT_1_1",
    "defaultvalue": 0,
    "displayName": "Grand Prix",
    "hidden": 0,
    "description": "Win the Large Cup.",
    "icon": "https://steamcdn-a.akamaihd.net/steamcommunity/public/images/apps/371420/b88e78dd047cfa6eee6d2b5f53902e3678d8ec91.jpg",
    "icongray": "https://steamcdn-a.akamaihd.net/steamcommunity/public/images/apps/371420/c6b0c5df5ce0635905e6bfb398f745feef82b4b0.jpg"
  },
  {
    "name": "NEW_ACHIEVEMENT_1_2",
    "defaultvalue": 0,
    "displayName": "World Famous",
    "hidden": 0,
    "description": "Win the World Class League.",
    "icon": "https://steamcdn-a.akamaihd.net/steamcommunity/public/images/apps/371420/5970cc5c8d3efdb2c8617d476cc9edda2df636c2.jpg",
    "icongray": "https://steamcdn-a.akamaihd.net/steamcommunity/public/images/apps/371420/e18b2868104c6751c2f6741c1bdef1a485c77035.jpg"
  },
  {
    "name": "NEW_ACHIEVEMENT_1_3",
    "defaultvalue": 0,
    "displayName": "Early Bird",
    "hidden": 0,
    "description": "Win all Time Attacks on daily tracks.",
    "icon": "https://steamcdn-a.akamaihd.net/steamcommunity/public/images/apps/371420/99da846b387c50bdb86ae30026c47736ba2aae1c.jpg",
    "icongray": "https://steamcdn-a.akamaihd.net/steamcommunity/public/images/apps/371420/7a1abd74dd185ac5deb9d936e9e463189db9c261.jpg"
  },
  {
    "name": "NEW_ACHIEVEMENT_1_4",
    "defaultvalue": 0,
    "displayName": "Night Owl",
    "hidden": 0,
    "description": "Win all Time Attacks on nightly tracks.",
    "icon": "https://steamcdn-a.akamaihd.net/steamcommunity/public/images/apps/371420/cda58115fac3159a3aa2135fc18b7cf0ba2a844c.jpg",
    "icongray": "https://steamcdn-a.akamaihd.net/steamcommunity/public/images/apps/371420/fa5a3b913d036c3d854ed6c5051d74bbbe00a296.jpg"
  },
  {
    "name": "NEW_ACHIEVEMENT_1_5",
    "defaultvalue": 0,
    "displayName": "Go Hard In The Paint",
    "hidden": 0,
    "description": "Win all races in the Amateur League.",
    "icon": "https://steamcdn-a.akamaihd.net/steamcommunity/public/images/apps/371420/a1a2a69905fcb5077ca6d117b25cc78799607215.jpg",
    "icongray": "https://steamcdn-a.akamaihd.net/steamcommunity/public/images/apps/371420/d37082e3f07cbe0b588f198593c33d64ea2cd99f.jpg"
  },
  {
    "name": "NEW_ACHIEVEMENT_1_6",
    "defaultvalue": 0,
    "displayName": "Bling-bling 22's",
    "hidden": 0,
    "description": "Win all races in the Semi-Pro League.",
    "icon": "https://steamcdn-a.akamaihd.net/steamcommunity/public/images/apps/371420/32f91bc7c59fac4cf982703055b044d548af6ae9.jpg",
    "icongray": "https://steamcdn-a.akamaihd.net/steamcommunity/public/images/apps/371420/23274c0d0313288b850b433e67a1a3b65f3dab21.jpg"
  },
  {
    "name": "NEW_ACHIEVEMENT_1_7",
    "defaultvalue": 0,
    "displayName": "Wings Of Glory",
    "hidden": 0,
    "description": "Win all races in the Pro League.",
    "icon": "https://steamcdn-a.akamaihd.net/steamcommunity/public/images/apps/371420/ca2cddc7bfdf2b778c29db1959e02845096a9040.jpg",
    "icongray": "https://steamcdn-a.akamaihd.net/steamcommunity/public/images/apps/371420/e2a992ae2034b742f86079ec175b90efced913cf.jpg"
  },
  {
    "name": "NEW_ACHIEVEMENT_1_8",
    "defaultvalue": 0,
    "displayName": "Exhausted?",
    "hidden": 0,
    "description": "Win a Single Race.",
    "icon": "https://steamcdn-a.akamaihd.net/steamcommunity/public/images/apps/371420/3ee9e8656d9d0a9cfd744b2eff7858f90ad23649.jpg",
    "icongray": "https://steamcdn-a.akamaihd.net/steamcommunity/public/images/apps/371420/414a12b45af22b251bbc5349f7069e0f62b0e42d.jpg"
  },
  {
    "name": "NEW_ACHIEVEMENT_1_9",
    "defaultvalue": 0,
    "displayName": "Teddy Got Lonely",
    "hidden": 0,
    "description": "Win the Little Cup.",
    "icon": "https://steamcdn-a.akamaihd.net/steamcommunity/public/images/apps/371420/b8ef332c653ceda55d018d41485460b52deeb2c1.jpg",
    "icongray": "https://steamcdn-a.akamaihd.net/steamcommunity/public/images/apps/371420/925cd445d1efcd46c636bfdb8ba5207a1447ac70.jpg"
  },
  {
    "name": "NEW_ACHIEVEMENT_1_10",
    "defaultvalue": 0,
    "displayName": "BFF",
    "hidden": 0,
    "description": "Win the Medium Cup.",
    "icon": "https://steamcdn-a.akamaihd.net/steamcommunity/public/images/apps/371420/e75358eb8785a6ddafed6700a915cac817355942.jpg",
    "icongray": "https://steamcdn-a.akamaihd.net/steamcommunity/public/images/apps/371420/05e27d6dc914fe19e723bd20aa9cf1f8e6a51ff0.jpg"
  },
  {
    "name": "NEW_ACHIEVEMENT_1_11",
    "defaultvalue": 0,
    "displayName": "Champ",
    "hidden": 0,
    "description": "Win a Single Race on an Expert level.",
    "icon": "https://steamcdn-a.akamaihd.net/steamcommunity/public/images/apps/371420/af2351399c245682907fcfbc288e0909ec0e2b48.jpg",
    "icongray": "https://steamcdn-a.akamaihd.net/steamcommunity/public/images/apps/371420/cf4a9b729cf443f5b82188f4d219ad352d1ea336.jpg"
  },
  {
    "name": "NEW_ACHIEVEMENT_1_12",
    "defaultvalue": 0,
    "displayName": "Byway is my way",
    "hidden": 0,
    "description": "Use a shortcut on any of the tracks.",
    "icon": "https://steamcdn-a.akamaihd.net/steamcommunity/public/images/apps/371420/e8a27396bcec66235377cf1ad441f5fbb12d1a53.jpg",
    "icongray": "https://steamcdn-a.akamaihd.net/steamcommunity/public/images/apps/371420/33552d7e7d8d3a271e0287cafe6321e5db92a1cf.jpg"
  },
  {
    "name": "NEW_ACHIEVEMENT_1_13",
    "defaultvalue": 0,
    "displayName": "Pure Racing",
    "hidden": 0,
    "description": "Finish a race without using any powerups.",
    "icon": "https://steamcdn-a.akamaihd.net/steamcommunity/public/images/apps/371420/5f3a99a20e2cca77c773bfc28535d680ae16b07b.jpg",
    "icongray": "https://steamcdn-a.akamaihd.net/steamcommunity/public/images/apps/371420/e33f16c5f2cb7d1f20669aea379bcd1cc1597aaf.jpg"
  }
]