﻿{
  "Dlcs": {
    "883800": {
      "Name": "TapSonic World Champion VR: DLC - TWC Collection v1",
      "ImageUrl": "https://steamcdn-a.akamaihd.net/steam/apps/883800/header.jpg?t=1534231272"
    },
    "908040": {
      "Name": "TapSonic World Champion VR with EOS",
      "ImageUrl": "https://steamcdn-a.akamaihd.net/steam/apps/908040/header.jpg?t=1540347772"
    }
  },
  "Name": "TapSonic World Champion VR",
  "AppId": "837640",
  "ImageUrl": "https://steamcdn-a.akamaihd.net/steam/apps/837640/header.jpg?t=1540341806",
  "Languages": [
    "english"
  ],
  "Platforms": {
    "windows": true,
    "mac": false,
    "linux": false
  }
}