﻿{
  "Dlcs": {},
  "Name": "Warhammer 40,000: Kill Team",
  "AppId": "275610",
  "ImageUrl": "https://steamcdn-a.akamaihd.net/steam/apps/275610/header.jpg?t=1572898608",
  "Languages": [
    "english",
    "french",
    "italian",
    "german",
    "spanish"
  ],
  "Platforms": {
    "windows": true,
    "mac": false,
    "linux": false
  }
}