{
  "Releases": [
    "Windows"
  ],
  "Name": "Satisfactory Early Access",
  "AppId": "CrabEA",
  "Namespace": "crab",
  "ItemId": "b915dfe8dcf74770841c82a4162dc954",
  "ImageUrl": "https://cdn1.epicgames.com/crab/item/1920x1080_blog_post_logo-1920x1080-76293790eea7cac48894e08d72ae6ee5.png",
  "Dlcs": {}
}