﻿{
  "Dlcs": {},
  "Name": "Vistascapes VR",
  "AppId": "488360",
  "ImageUrl": "https://steamcdn-a.akamaihd.net/steam/apps/488360/header.jpg?t=1573249270",
  "Languages": [
    "english"
  ],
  "Platforms": {
    "windows": true,
    "mac": false,
    "linux": false
  }
}