﻿{
  "Dlcs": {
    "398860": {
      "Name": "STASIS Deluxe Edition Upgrade",
      "ImageUrl": "https://steamcdn-a.akamaihd.net/steam/apps/398860/header.jpg?t=1447377761"
    }
  },
  "Name": "STASIS",
  "AppId": "380150",
  "ImageUrl": "https://steamcdn-a.akamaihd.net/steam/apps/380150/header.jpg?t=1598431570",
  "Languages": [
    "english",
    "french",
    "german",
    "spanish",
    "polish",
    "russian",
    "italian",
    "turkish"
  ],
  "Platforms": {
    "windows": true,
    "mac": true,
    "linux": false
  }
}