﻿[
  {
    "name": "NEW_ACHIEVEMENT_1_0",
    "defaultvalue": 0,
    "displayName": "Jupiter Dies",
    "hidden": 0,
    "description": "Corner the cat",
    "icon": "https://steamcdn-a.akamaihd.net/steamcommunity/public/images/apps/380150/970c0d0fe5cd412891ec03d808cd1a05a9118403.jpg",
    "icongray": "https://steamcdn-a.akamaihd.net/steamcommunity/public/images/apps/380150/3d1c270fddc2019cbd47414d854d9b04a35efc7d.jpg"
  },
  {
    "name": "NEW_ACHIEVEMENT_1_1",
    "defaultvalue": 0,
    "displayName": "Jump?!",
    "hidden": 0,
    "description": "Escape the fallen tram",
    "icon": "https://steamcdn-a.akamaihd.net/steamcommunity/public/images/apps/380150/970c0d0fe5cd412891ec03d808cd1a05a9118403.jpg",
    "icongray": "https://steamcdn-a.akamaihd.net/steamcommunity/public/images/apps/380150/3d1c270fddc2019cbd47414d854d9b04a35efc7d.jpg"
  },
  {
    "name": "NEW_ACHIEVEMENT_1_2",
    "defaultvalue": 0,
    "displayName": "Why Are There Methane Tanks under the Crew Quarters?",
    "hidden": 0,
    "description": "Clear the debris blocking the elevator",
    "icon": "https://steamcdn-a.akamaihd.net/steamcommunity/public/images/apps/380150/970c0d0fe5cd412891ec03d808cd1a05a9118403.jpg",
    "icongray": "https://steamcdn-a.akamaihd.net/steamcommunity/public/images/apps/380150/3d1c270fddc2019cbd47414d854d9b04a35efc7d.jpg"
  },
  {
    "name": "NEW_ACHIEVEMENT_1_3",
    "defaultvalue": 0,
    "displayName": "Subject is Alive, Deceased, Alive",
    "hidden": 0,
    "description": "Survive surgery",
    "icon": "https://steamcdn-a.akamaihd.net/steamcommunity/public/images/apps/380150/970c0d0fe5cd412891ec03d808cd1a05a9118403.jpg",
    "icongray": "https://steamcdn-a.akamaihd.net/steamcommunity/public/images/apps/380150/b0090ee509953e24fc5ad1c1855ef54b1cdcbd83.jpg"
  },
  {
    "name": "NEW_ACHIEVEMENT_1_4",
    "defaultvalue": 0,
    "displayName": "Gardening",
    "hidden": 0,
    "description": "Clear the vines in hydroponics",
    "icon": "https://steamcdn-a.akamaihd.net/steamcommunity/public/images/apps/380150/970c0d0fe5cd412891ec03d808cd1a05a9118403.jpg",
    "icongray": "https://steamcdn-a.akamaihd.net/steamcommunity/public/images/apps/380150/3d1c270fddc2019cbd47414d854d9b04a35efc7d.jpg"
  },
  {
    "name": "NEW_ACHIEVEMENT_1_5",
    "defaultvalue": 0,
    "displayName": "Mercy",
    "hidden": 0,
    "description": "End the suffering of the pregnant women",
    "icon": "https://steamcdn-a.akamaihd.net/steamcommunity/public/images/apps/380150/970c0d0fe5cd412891ec03d808cd1a05a9118403.jpg",
    "icongray": "https://steamcdn-a.akamaihd.net/steamcommunity/public/images/apps/380150/3d1c270fddc2019cbd47414d854d9b04a35efc7d.jpg"
  },
  {
    "name": "NEW_ACHIEVEMENT_1_6",
    "defaultvalue": 0,
    "displayName": "Stomp",
    "hidden": 0,
    "description": "Foot stomp a hybrid",
    "icon": "https://steamcdn-a.akamaihd.net/steamcommunity/public/images/apps/380150/970c0d0fe5cd412891ec03d808cd1a05a9118403.jpg",
    "icongray": "https://steamcdn-a.akamaihd.net/steamcommunity/public/images/apps/380150/3d1c270fddc2019cbd47414d854d9b04a35efc7d.jpg"
  },
  {
    "name": "NEW_ACHIEVEMENT_1_7",
    "defaultvalue": 0,
    "displayName": "A History Lesson",
    "hidden": 0,
    "description": "Enjoy a tour of the visitor center ",
    "icon": "https://steamcdn-a.akamaihd.net/steamcommunity/public/images/apps/380150/970c0d0fe5cd412891ec03d808cd1a05a9118403.jpg",
    "icongray": "https://steamcdn-a.akamaihd.net/steamcommunity/public/images/apps/380150/3d1c270fddc2019cbd47414d854d9b04a35efc7d.jpg"
  },
  {
    "name": "NEW_ACHIEVEMENT_1_8",
    "defaultvalue": 0,
    "displayName": "Dissolved",
    "hidden": 0,
    "description": "Death",
    "icon": "https://steamcdn-a.akamaihd.net/steamcommunity/public/images/apps/380150/bf25c8bb256e03b9d2648e97bb91fb739e005671.jpg",
    "icongray": "https://steamcdn-a.akamaihd.net/steamcommunity/public/images/apps/380150/3d1c270fddc2019cbd47414d854d9b04a35efc7d.jpg"
  },
  {
    "name": "NEW_ACHIEVEMENT_1_9",
    "defaultvalue": 0,
    "displayName": "Eaten",
    "hidden": 0,
    "description": "Death",
    "icon": "https://steamcdn-a.akamaihd.net/steamcommunity/public/images/apps/380150/bf25c8bb256e03b9d2648e97bb91fb739e005671.jpg",
    "icongray": "https://steamcdn-a.akamaihd.net/steamcommunity/public/images/apps/380150/3d1c270fddc2019cbd47414d854d9b04a35efc7d.jpg"
  },
  {
    "name": "NEW_ACHIEVEMENT_1_10",
    "defaultvalue": 0,
    "displayName": "Melted",
    "hidden": 0,
    "description": "Death",
    "icon": "https://steamcdn-a.akamaihd.net/steamcommunity/public/images/apps/380150/bf25c8bb256e03b9d2648e97bb91fb739e005671.jpg",
    "icongray": "https://steamcdn-a.akamaihd.net/steamcommunity/public/images/apps/380150/3d1c270fddc2019cbd47414d854d9b04a35efc7d.jpg"
  },
  {
    "name": "NEW_ACHIEVEMENT_1_11",
    "defaultvalue": 0,
    "displayName": "Gassed",
    "hidden": 0,
    "description": "Death",
    "icon": "https://steamcdn-a.akamaihd.net/steamcommunity/public/images/apps/380150/bf25c8bb256e03b9d2648e97bb91fb739e005671.jpg",
    "icongray": "https://steamcdn-a.akamaihd.net/steamcommunity/public/images/apps/380150/3d1c270fddc2019cbd47414d854d9b04a35efc7d.jpg"
  },
  {
    "name": "NEW_ACHIEVEMENT_1_12",
    "defaultvalue": 0,
    "displayName": "Blown up",
    "hidden": 0,
    "description": "Death",
    "icon": "https://steamcdn-a.akamaihd.net/steamcommunity/public/images/apps/380150/bf25c8bb256e03b9d2648e97bb91fb739e005671.jpg",
    "icongray": "https://steamcdn-a.akamaihd.net/steamcommunity/public/images/apps/380150/3d1c270fddc2019cbd47414d854d9b04a35efc7d.jpg"
  },
  {
    "name": "NEW_ACHIEVEMENT_1_13",
    "defaultvalue": 0,
    "displayName": "Shredded",
    "hidden": 0,
    "description": "Death",
    "icon": "https://steamcdn-a.akamaihd.net/steamcommunity/public/images/apps/380150/bf25c8bb256e03b9d2648e97bb91fb739e005671.jpg",
    "icongray": "https://steamcdn-a.akamaihd.net/steamcommunity/public/images/apps/380150/3d1c270fddc2019cbd47414d854d9b04a35efc7d.jpg"
  },
  {
    "name": "NEW_ACHIEVEMENT_1_14",
    "defaultvalue": 0,
    "displayName": "Crossfire",
    "hidden": 0,
    "description": "Death",
    "icon": "https://steamcdn-a.akamaihd.net/steamcommunity/public/images/apps/380150/bf25c8bb256e03b9d2648e97bb91fb739e005671.jpg",
    "icongray": "https://steamcdn-a.akamaihd.net/steamcommunity/public/images/apps/380150/3d1c270fddc2019cbd47414d854d9b04a35efc7d.jpg"
  },
  {
    "name": "NEW_ACHIEVEMENT_1_15",
    "defaultvalue": 0,
    "displayName": "Fried",
    "hidden": 0,
    "description": "Death",
    "icon": "https://steamcdn-a.akamaihd.net/steamcommunity/public/images/apps/380150/bf25c8bb256e03b9d2648e97bb91fb739e005671.jpg",
    "icongray": "https://steamcdn-a.akamaihd.net/steamcommunity/public/images/apps/380150/3d1c270fddc2019cbd47414d854d9b04a35efc7d.jpg"
  },
  {
    "name": "NEW_ACHIEVEMENT_1_16",
    "defaultvalue": 0,
    "displayName": "Bang",
    "hidden": 0,
    "description": "Death",
    "icon": "https://steamcdn-a.akamaihd.net/steamcommunity/public/images/apps/380150/bf25c8bb256e03b9d2648e97bb91fb739e005671.jpg",
    "icongray": "https://steamcdn-a.akamaihd.net/steamcommunity/public/images/apps/380150/3d1c270fddc2019cbd47414d854d9b04a35efc7d.jpg"
  },
  {
    "name": "NEW_ACHIEVEMENT_1_17",
    "defaultvalue": 0,
    "displayName": "A Hole in My Head",
    "hidden": 0,
    "description": "Suicide",
    "icon": "https://steamcdn-a.akamaihd.net/steamcommunity/public/images/apps/380150/66cb98d2aa75cd2f26478b8a8c19f59bb5a0ba31.jpg",
    "icongray": "https://steamcdn-a.akamaihd.net/steamcommunity/public/images/apps/380150/3d1c270fddc2019cbd47414d854d9b04a35efc7d.jpg"
  },
  {
    "name": "NEW_ACHIEVEMENT_1_18",
    "defaultvalue": 0,
    "displayName": "Bleeding Belly",
    "hidden": 0,
    "description": "Suicide",
    "icon": "https://steamcdn-a.akamaihd.net/steamcommunity/public/images/apps/380150/66cb98d2aa75cd2f26478b8a8c19f59bb5a0ba31.jpg",
    "icongray": "https://steamcdn-a.akamaihd.net/steamcommunity/public/images/apps/380150/3d1c270fddc2019cbd47414d854d9b04a35efc7d.jpg"
  },
  {
    "name": "NEW_ACHIEVEMENT_1_19",
    "defaultvalue": 0,
    "displayName": "Cold Steel",
    "hidden": 0,
    "description": "Suicide",
    "icon": "https://steamcdn-a.akamaihd.net/steamcommunity/public/images/apps/380150/66cb98d2aa75cd2f26478b8a8c19f59bb5a0ba31.jpg",
    "icongray": "https://steamcdn-a.akamaihd.net/steamcommunity/public/images/apps/380150/3d1c270fddc2019cbd47414d854d9b04a35efc7d.jpg"
  },
  {
    "name": "NEW_ACHIEVEMENT_1_20",
    "defaultvalue": 0,
    "displayName": "Slug Gun Fun",
    "hidden": 0,
    "description": "Suicide",
    "icon": "https://steamcdn-a.akamaihd.net/steamcommunity/public/images/apps/380150/66cb98d2aa75cd2f26478b8a8c19f59bb5a0ba31.jpg",
    "icongray": "https://steamcdn-a.akamaihd.net/steamcommunity/public/images/apps/380150/3d1c270fddc2019cbd47414d854d9b04a35efc7d.jpg"
  },
  {
    "name": "NEW_ACHIEVEMENT_1_21",
    "defaultvalue": 0,
    "displayName": "I Have No Mouth but I Must Scream",
    "hidden": 0,
    "description": "Suicide",
    "icon": "https://steamcdn-a.akamaihd.net/steamcommunity/public/images/apps/380150/66cb98d2aa75cd2f26478b8a8c19f59bb5a0ba31.jpg",
    "icongray": "https://steamcdn-a.akamaihd.net/steamcommunity/public/images/apps/380150/3d1c270fddc2019cbd47414d854d9b04a35efc7d.jpg"
  },
  {
    "name": "NEW_ACHIEVEMENT_1_22",
    "defaultvalue": 0,
    "displayName": "It Burns",
    "hidden": 0,
    "description": "Suicide",
    "icon": "https://steamcdn-a.akamaihd.net/steamcommunity/public/images/apps/380150/66cb98d2aa75cd2f26478b8a8c19f59bb5a0ba31.jpg",
    "icongray": "https://steamcdn-a.akamaihd.net/steamcommunity/public/images/apps/380150/3d1c270fddc2019cbd47414d854d9b04a35efc7d.jpg"
  },
  {
    "name": "NEW_ACHIEVEMENT_1_23",
    "defaultvalue": 0,
    "displayName": "Hangman",
    "hidden": 0,
    "description": "Suicide",
    "icon": "https://steamcdn-a.akamaihd.net/steamcommunity/public/images/apps/380150/66cb98d2aa75cd2f26478b8a8c19f59bb5a0ba31.jpg",
    "icongray": "https://steamcdn-a.akamaihd.net/steamcommunity/public/images/apps/380150/3d1c270fddc2019cbd47414d854d9b04a35efc7d.jpg"
  },
  {
    "name": "NEW_ACHIEVEMENT_1_24",
    "defaultvalue": 0,
    "displayName": "Plasma Overload",
    "hidden": 0,
    "description": "Suicide",
    "icon": "https://steamcdn-a.akamaihd.net/steamcommunity/public/images/apps/380150/66cb98d2aa75cd2f26478b8a8c19f59bb5a0ba31.jpg",
    "icongray": "https://steamcdn-a.akamaihd.net/steamcommunity/public/images/apps/380150/3d1c270fddc2019cbd47414d854d9b04a35efc7d.jpg"
  },
  {
    "name": "NEW_ACHIEVEMENT_1_25",
    "defaultvalue": 0,
    "displayName": "Opening Break Shot",
    "hidden": 0,
    "description": "Suicide",
    "icon": "https://steamcdn-a.akamaihd.net/steamcommunity/public/images/apps/380150/66cb98d2aa75cd2f26478b8a8c19f59bb5a0ba31.jpg",
    "icongray": "https://steamcdn-a.akamaihd.net/steamcommunity/public/images/apps/380150/3d1c270fddc2019cbd47414d854d9b04a35efc7d.jpg"
  },
  {
    "name": "NEW_ACHIEVEMENT_1_26",
    "defaultvalue": 0,
    "displayName": "I Love You Ellen",
    "hidden": 1,
    "icon": "https://steamcdn-a.akamaihd.net/steamcommunity/public/images/apps/380150/3bb7ca38c290399c704b70e20f513f4575cc7d20.jpg",
    "icongray": "https://steamcdn-a.akamaihd.net/steamcommunity/public/images/apps/380150/3d1c270fddc2019cbd47414d854d9b04a35efc7d.jpg"
  }
]