﻿{
  "Dlcs": {},
  "Name": "Desert Ride Coaster",
  "AppId": "554140",
  "ImageUrl": "https://steamcdn-a.akamaihd.net/steam/apps/554140/header.jpg?t=1481159137",
  "Languages": [
    "english"
  ],
  "Platforms": {
    "windows": true,
    "mac": false,
    "linux": false
  }
}