﻿[
  {
    "name": "ACH_ENDING_ESCAPE",
    "defaultvalue": 0,
    "displayName": "Escape from Notrium",
    "hidden": 0,
    "description": "Repair the escape pod.",
    "icon": "https://steamcdn-a.akamaihd.net/steamcommunity/public/images/apps/349100/c0a56eb1bf94473a8e69ea488ec4b03fa311ccb4.jpg",
    "icongray": "https://steamcdn-a.akamaihd.net/steamcommunity/public/images/apps/349100/3850ea99e1e4a90a5de1ec170c706fa82b02515e.jpg"
  },
  {
    "name": "ACH_ENDING_QUEEN",
    "defaultvalue": 0,
    "displayName": "Alien Queen",
    "hidden": 0,
    "description": "Destroy the alien queens.",
    "icon": "https://steamcdn-a.akamaihd.net/steamcommunity/public/images/apps/349100/c4c4cb8722fd5d3730b032abe979dcf2a9830f0b.jpg",
    "icongray": "https://steamcdn-a.akamaihd.net/steamcommunity/public/images/apps/349100/cbbe19738d257ab2ad1fb82b8988ab859aaf4a3c.jpg"
  },
  {
    "name": "ACH_ENDING_RADIO",
    "defaultvalue": 0,
    "displayName": "Phone Home",
    "hidden": 0,
    "description": "Repair the radio.",
    "icon": "https://steamcdn-a.akamaihd.net/steamcommunity/public/images/apps/349100/c949e5217e0b3f39e11b0addea406aa1bba614af.jpg",
    "icongray": "https://steamcdn-a.akamaihd.net/steamcommunity/public/images/apps/349100/b41189a0efac3ecac5390cec1afb27d4d0567cc0.jpg"
  },
  {
    "name": "ACH_ENDING_RIDDLE",
    "defaultvalue": 0,
    "displayName": "The Riddle",
    "hidden": 0,
    "description": "Solve the mysterious paper.",
    "icon": "https://steamcdn-a.akamaihd.net/steamcommunity/public/images/apps/349100/b1411ecabba9a96b7e27aab4e9ba3250ac80f9ec.jpg",
    "icongray": "https://steamcdn-a.akamaihd.net/steamcommunity/public/images/apps/349100/c542ef12e78fe808383494f64ed5accdfc7171cd.jpg"
  },
  {
    "name": "ACH_ENDING_CORP",
    "defaultvalue": 0,
    "displayName": "Megacorporation",
    "hidden": 0,
    "description": "Capture the corporation mothership.",
    "icon": "https://steamcdn-a.akamaihd.net/steamcommunity/public/images/apps/349100/84dd345f66fdd8cf007c2c6a8b231dbd3877ddd1.jpg",
    "icongray": "https://steamcdn-a.akamaihd.net/steamcommunity/public/images/apps/349100/ab1247c5aa19af1a5d3e68aec2479757fedfb9df.jpg"
  },
  {
    "name": "ACH_ENDING_PLANT",
    "defaultvalue": 0,
    "displayName": "Green Ruler",
    "hidden": 0,
    "description": "Conquer the Planetoid.",
    "icon": "https://steamcdn-a.akamaihd.net/steamcommunity/public/images/apps/349100/8607fc951f7e24729c1a496dbbbd8d6354e3ffd7.jpg",
    "icongray": "https://steamcdn-a.akamaihd.net/steamcommunity/public/images/apps/349100/995001d7785917be3c8c40314179536d023093b8.jpg"
  },
  {
    "name": "ACH_SURVIVE_25",
    "defaultvalue": 0,
    "displayName": "Still Alive",
    "hidden": 0,
    "description": "Survive for 25 days.",
    "icon": "https://steamcdn-a.akamaihd.net/steamcommunity/public/images/apps/349100/d60c68b87f65c188066ade3bb105566b40f797eb.jpg",
    "icongray": "https://steamcdn-a.akamaihd.net/steamcommunity/public/images/apps/349100/597c07967eb84fe480a40656392fc825675fdbc2.jpg"
  },
  {
    "name": "ACH_SURVIVE_50",
    "defaultvalue": 0,
    "displayName": "Survivor",
    "hidden": 0,
    "description": "Survive for 50 days.",
    "icon": "https://steamcdn-a.akamaihd.net/steamcommunity/public/images/apps/349100/5774e9cddafb82e091ba7151e3f1997ed644fc8a.jpg",
    "icongray": "https://steamcdn-a.akamaihd.net/steamcommunity/public/images/apps/349100/15a4802c82ab2351312d7b52c3c49fa348eb8c26.jpg"
  },
  {
    "name": "ACH_SURVIVE_75",
    "defaultvalue": 0,
    "displayName": "Tougher than Steel",
    "hidden": 0,
    "description": "Survive for 75 days.",
    "icon": "https://steamcdn-a.akamaihd.net/steamcommunity/public/images/apps/349100/baf3560863564dfb5bd34d84c0fbc8455ddee786.jpg",
    "icongray": "https://steamcdn-a.akamaihd.net/steamcommunity/public/images/apps/349100/559cf06397454520e7a1129968570391b3699aed.jpg"
  },
  {
    "name": "ACH_SURVIVE_100",
    "defaultvalue": 0,
    "displayName": "Last Man Standing",
    "hidden": 0,
    "description": "Survive for 100 days.",
    "icon": "https://steamcdn-a.akamaihd.net/steamcommunity/public/images/apps/349100/3ddaae056776b626f0d28f2d30b4e2d59a7bff78.jpg",
    "icongray": "https://steamcdn-a.akamaihd.net/steamcommunity/public/images/apps/349100/f83de9a481b931fcc07e5f7ed91d52eecbfe9f4c.jpg"
  },
  {
    "name": "ACH_KILLS_100",
    "defaultvalue": 0,
    "displayName": "Hunter",
    "hidden": 0,
    "description": "Hunt down 100 aliens.",
    "icon": "https://steamcdn-a.akamaihd.net/steamcommunity/public/images/apps/349100/07a344b8c63499002b260400934788229d29ab7f.jpg",
    "icongray": "https://steamcdn-a.akamaihd.net/steamcommunity/public/images/apps/349100/5ae37003e81449c7284bd3ae8410f2a481fb7a56.jpg"
  },
  {
    "name": "ACH_KILLS_200",
    "defaultvalue": 0,
    "displayName": "Murderous Frenzy",
    "hidden": 0,
    "description": "Kill 200 monsters.",
    "icon": "https://steamcdn-a.akamaihd.net/steamcommunity/public/images/apps/349100/872025ea103112eb0809f4908f2a2d4101f9c640.jpg",
    "icongray": "https://steamcdn-a.akamaihd.net/steamcommunity/public/images/apps/349100/1a67f3a73b2f63c632a9fafd982e38be6b485e9c.jpg"
  },
  {
    "name": "ACH_KILLED",
    "defaultvalue": 0,
    "displayName": "Mortal",
    "hidden": 1,
    "icon": "https://steamcdn-a.akamaihd.net/steamcommunity/public/images/apps/349100/93dd07c48fe1774f40d9f6d171d26b97d850efcd.jpg",
    "icongray": "https://steamcdn-a.akamaihd.net/steamcommunity/public/images/apps/349100/fc9827da7c0a708d0718cb48b7c443ce06daea76.jpg"
  },
  {
    "name": "ACH_KILLS_300",
    "defaultvalue": 0,
    "displayName": "Destroyer",
    "hidden": 0,
    "description": "Destroy 300 enemies.",
    "icon": "https://steamcdn-a.akamaihd.net/steamcommunity/public/images/apps/349100/71c246ece1999c971c0b152849fcf974e46070c2.jpg",
    "icongray": "https://steamcdn-a.akamaihd.net/steamcommunity/public/images/apps/349100/44c491e149dc3a64e83417bcf18539c79d60bfd6.jpg"
  }
]