﻿{
  "Dlcs": {},
  "Name": "DEFECTIVE",
  "AppId": "692590",
  "ImageUrl": "https://steamcdn-a.akamaihd.net/steam/apps/692590/header.jpg?t=1557568250",
  "Languages": [
    "english"
  ],
  "Platforms": {
    "windows": true,
    "mac": false,
    "linux": false
  }
}