﻿[
  {
    "name": "stat_kill_roamer",
    "defaultvalue": 0,
    "displayName": "Roamers Killed"
  },
  {
    "name": "stat_kill_spitter",
    "defaultvalue": 0,
    "displayName": "Spitters Killed"
  },
  {
    "name": "stat_num_games",
    "defaultvalue": 0,
    "displayName": "Games Played"
  },
  {
    "name": "stat_average_level_speed",
    "defaultvalue": 0,
    "displayName": "Average Speed to Complete a Level"
  },
  {
    "name": "stat_kill_shadowman",
    "defaultvalue": 0,
    "displayName": "Shadowman Killed"
  },
  {
    "name": "stat_level_1_complete",
    "defaultvalue": 0,
    "displayName": "Number of Level 1 Completed"
  },
  {
    "name": "stat_level_2_complete",
    "defaultvalue": 0,
    "displayName": "Number of Level 2 Completed"
  },
  {
    "name": "stat_level_3_complete",
    "defaultvalue": 0,
    "displayName": "Number of Level 3 Completed"
  },
  {
    "name": "stat_level_4_complete",
    "defaultvalue": 0,
    "displayName": "Number of Level 4 Completed"
  },
  {
    "name": "stat_level_5_complete",
    "defaultvalue": 0,
    "displayName": "Number of Level 5 Completed"
  },
  {
    "name": "stat_case_unlocked",
    "defaultvalue": 0,
    "displayName": "Number of cases unlocked"
  },
  {
    "name": "stat_avg_level_1",
    "defaultvalue": 0,
    "displayName": "Average Level 1 Completed"
  },
  {
    "name": "stat_avg_level_2",
    "defaultvalue": 0,
    "displayName": "Average Level 2 Completed"
  },
  {
    "name": "stat_kill_spider",
    "defaultvalue": 0,
    "displayName": "Spiders Killed"
  },
  {
    "name": "stat_kill_creepy",
    "defaultvalue": 0,
    "displayName": "Creepy Kid Killed"
  },
  {
    "name": "flag_story_a",
    "defaultvalue": 0,
    "displayName": "Story A Flags"
  },
  {
    "name": "stat_character_cash",
    "defaultvalue": 0,
    "displayName": "Character Cash"
  },
  {
    "name": "stat_character_sprint_level",
    "defaultvalue": 0,
    "displayName": "Character Sprint Level"
  },
  {
    "name": "stat_character_health_level",
    "defaultvalue": 0,
    "displayName": "Character Health Level"
  },
  {
    "name": "stat_character_sneak_level",
    "defaultvalue": 0,
    "displayName": "Character Sneak Level"
  },
  {
    "name": "stat_character_flares_level",
    "defaultvalue": 0,
    "displayName": "Character Flares Level"
  },
  {
    "name": "stat_character_pistol_ammo_level",
    "defaultvalue": 0,
    "displayName": "Character Pistol Ammo Level"
  },
  {
    "name": "stat_character_keys_level",
    "defaultvalue": 0,
    "displayName": "Character Keys Level"
  },
  {
    "name": "stat_character_sanity_level",
    "defaultvalue": 0,
    "displayName": "Character Sanity Level"
  },
  {
    "name": "flag_story_b",
    "defaultvalue": 0,
    "displayName": "Story B Flags"
  },
  {
    "name": "flag_story_c",
    "defaultvalue": 0,
    "displayName": "Story C Flags"
  },
  {
    "name": "flag_story_d",
    "defaultvalue": 0,
    "displayName": "Story D Flags"
  },
  {
    "name": "stat_thread_a_complete",
    "defaultvalue": 0,
    "displayName": "Thread A Completed"
  },
  {
    "name": "stat_thread_b_complete",
    "defaultvalue": 0,
    "displayName": "Thread B Completed"
  },
  {
    "name": "stat_thread_c_complete",
    "defaultvalue": 0,
    "displayName": "Thread C Completed"
  },
  {
    "name": "stat_thread_d_complete",
    "defaultvalue": 0,
    "displayName": "Thread D Completed"
  },
  {
    "name": "stat_level_6_complete",
    "defaultvalue": 0,
    "displayName": "Number of Level 6 Completed"
  },
  {
    "name": "stat_level_7_complete",
    "defaultvalue": 0,
    "displayName": "Number of Level 7 Completed"
  },
  {
    "name": "stat_level_8_complete",
    "defaultvalue": 0,
    "displayName": "Number of Level 8 Completed"
  },
  {
    "name": "stat_level_9_complete",
    "defaultvalue": 0,
    "displayName": "Number of Level 9 Completed"
  },
  {
    "name": "stat_kill_junkie",
    "defaultvalue": 0,
    "displayName": "Junkies Killed"
  },
  {
    "name": "stat_kill_hound",
    "defaultvalue": 0,
    "displayName": "Hound Killed"
  },
  {
    "name": "flag_killed_all",
    "defaultvalue": 0,
    "displayName": "Kill one of each creature"
  },
  {
    "name": "flag_killed_roamer",
    "defaultvalue": 0,
    "displayName": "Kill all types of roamer"
  },
  {
    "name": "stat_escape_sleeper",
    "defaultvalue": 0,
    "displayName": "Escaped the sleeper"
  },
  {
    "name": "stat_kill_skull",
    "defaultvalue": 0,
    "displayName": "Skull Killed"
  },
  {
    "name": "stat_kill_weirdo",
    "defaultvalue": 0,
    "displayName": "Weirdo Killed"
  },
  {
    "name": "stat_secret_room_found",
    "defaultvalue": 0,
    "displayName": "Secret Rooms Found"
  },
  {
    "name": "stat_war_room_found",
    "defaultvalue": 0,
    "displayName": "War Room Found"
  },
  {
    "name": "stat_character_deaths",
    "defaultvalue": 0,
    "displayName": "Number of deaths"
  },
  {
    "name": "stat_character_insane",
    "defaultvalue": 0,
    "displayName": "Number of times insane"
  }
]