﻿[
  {
    "name": "achievement_points",
    "defaultvalue": 0,
    "displayName": "I am One in a Million, and There Are Six Thousand People in the World Exactly Like Me",
    "hidden": 0,
    "description": "Awarded for racking up over 999,999.999 points total.",
    "icon": "https://steamcdn-a.akamaihd.net/steamcommunity/public/images/apps/15560/5bead5cafa322954e72c21954fa25a2d714fb808.jpg",
    "icongray": "https://steamcdn-a.akamaihd.net/steamcommunity/public/images/apps/15560/2a8d4c0b5b21bac1f3596df02a97df78b392265f.jpg"
  },
  {
    "name": "achievement_128",
    "defaultvalue": 0,
    "displayName": "I Have Jumped Beyond the Powers of Two, and Have Lived to Tell the Tale",
    "hidden": 0,
    "description": "Awarded for completing your 128th jump.",
    "icon": "https://steamcdn-a.akamaihd.net/steamcommunity/public/images/apps/15560/c174a3bc204fd315b64d5409fa65a450a918403a.jpg",
    "icongray": "https://steamcdn-a.akamaihd.net/steamcommunity/public/images/apps/15560/6fef3d1487cf2151c81afb386b5b63f245eaaed9.jpg"
  },
  {
    "name": "achievement_4096",
    "defaultvalue": 0,
    "displayName": "I Avoid Sleep Wherever Possible, So I Played AaaaaAAaaaAAAaaAAAAaAAAAA!!! a Whole Lot",
    "hidden": 0,
    "description": "Awarded for completing 4,096 jumps.",
    "icon": "https://steamcdn-a.akamaihd.net/steamcommunity/public/images/apps/15560/00a610fa9ccc755126289b3b14b69ccbed83e7ea.jpg",
    "icongray": "https://steamcdn-a.akamaihd.net/steamcommunity/public/images/apps/15560/1093274531b4af3b38b60d2579e3d93b3cb0b5c0.jpg"
  },
  {
    "name": "achievement_plates",
    "defaultvalue": 0,
    "displayName": "I Have Broken More Glass Than a Finely Corpulent Opera Singer, and Love Myself For It",
    "hidden": 0,
    "description": "Awarded for breaking 1,000 scoring plates.",
    "icon": "https://steamcdn-a.akamaihd.net/steamcommunity/public/images/apps/15560/8fe588fba5f6d6439ceab4e07f46198eeda5984d.jpg",
    "icongray": "https://steamcdn-a.akamaihd.net/steamcommunity/public/images/apps/15560/3b37ed86a075abf0aec381d842d553c27a621bfe.jpg"
  },
  {
    "name": "achievement_kisses",
    "defaultvalue": 0,
    "displayName": "I am at Risk of Contracting Mononucleosis, Which is Known Colloquially as the Kissing Disease",
    "hidden": 0,
    "description": "This achievement is an award which is awarded for achieving 10,000 kisses total.",
    "icon": "https://steamcdn-a.akamaihd.net/steamcommunity/public/images/apps/15560/7629328e30a44cf5cc8d53f28ea456454c23e48f.jpg",
    "icongray": "https://steamcdn-a.akamaihd.net/steamcommunity/public/images/apps/15560/732dfd906bc4af62776e79d66b010732cfebbeb4.jpg"
  },
  {
    "name": "achievement_fives",
    "defaultvalue": 0,
    "displayName": "The Rhylos and Skaery Memorial Achievement, for Which We Will Honor Them",
    "hidden": 0,
    "description": "All fives. All five stars. On all levels. 81 levels. Yeah.",
    "icon": "https://steamcdn-a.akamaihd.net/steamcommunity/public/images/apps/15560/218f6c24e5cbc6fad4f7fbba44ed794f0f8c5b4d.jpg",
    "icongray": "https://steamcdn-a.akamaihd.net/steamcommunity/public/images/apps/15560/b4b5baf660e6f4908508404ae5af8d9dcd4f6477.jpg"
  },
  {
    "name": "achievement_allawesome",
    "defaultvalue": 0,
    "displayName": "I Have Completed Every Single of the New Levels and Can Honestly Say That I am Awesome",
    "hidden": 0,
    "description": "Complete the 43 new levels in Awesome. You know, the lower levels? When you click on the down arrow from the level selection screen. Those levels.",
    "icon": "https://steamcdn-a.akamaihd.net/steamcommunity/public/images/apps/15560/75a6dd8cb565cafc940e7164e14d3323cfe65c36.jpg",
    "icongray": "https://steamcdn-a.akamaihd.net/steamcommunity/public/images/apps/15560/61393251d8bd3f5cb33ba45c092b85032d4d9698.jpg"
  },
  {
    "name": "achievement_68kisses",
    "defaultvalue": 0,
    "displayName": "One Fewer Than a Lewd Innuendo Because We Are Totally Past That Phase",
    "hidden": 0,
    "description": "Get exactly 68 kisses in one level. Not 67, unless you then get the 68th. 70 is right out.",
    "icon": "https://steamcdn-a.akamaihd.net/steamcommunity/public/images/apps/15560/964fd980880881841a8bb9177c3065e967f54eb0.jpg",
    "icongray": "https://steamcdn-a.akamaihd.net/steamcommunity/public/images/apps/15560/1b9417fc01a67587cd88501d26c92ac7474f6a1a.jpg"
  },
  {
    "name": "achievement_keyendurance",
    "defaultvalue": 0,
    "displayName": "OooooOOoooOOOooOOOOoOOOOO!!! -- O Ooooooooo Ooooooooo ooo Ooooooo",
    "hidden": 0,
    "description": "Geez. So, like, you're parachuting, and your velocity has decreased to the point where you're probably not going to die, right? So, what do you do? Have a sandwich? What if you held the O key down long enough? You could get this achievement. Or, you could say, \"Oh, I don't want to do that.\" That is also okay. Also, Ichiro says that if you e-mail Owlchemy Labs customer support with the phrase \"Alex is nude,\" it'd be a good way to mess with them. Pretty lousy thing for us to say, given that Owlchemy spent a lot of time working on this game, right? That's life. It's real. It's raw!",
    "icon": "https://steamcdn-a.akamaihd.net/steamcommunity/public/images/apps/15560/dde2fc26cd569b3603198eb4d496be3085a8917a.jpg",
    "icongray": "https://steamcdn-a.akamaihd.net/steamcommunity/public/images/apps/15560/6da9833b78d928b8a4fb70c1fe9a9eb1d72dbd5a.jpg"
  },
  {
    "name": "achievement_winter_2011",
    "defaultvalue": 0,
    "displayName": "I Have Come to The Point in My Life Where I Appreciate Christmas Mall Music",
    "hidden": 1,
    "icon": "https://steamcdn-a.akamaihd.net/steamcommunity/public/images/apps/15560/5cc540ab728aba9e909804f9c51efcd9ef6bca45.jpg",
    "icongray": "https://steamcdn-a.akamaihd.net/steamcommunity/public/images/apps/15560/474e6ec34edcd7d3a6b32a6c940cee3d8a3f6279.jpg"
  }
]