﻿{
  "Dlcs": {},
  "Name": "Icarus Six Sixty Six",
  "AppId": "724910",
  "ImageUrl": "https://steamcdn-a.akamaihd.net/steam/apps/724910/header.jpg?t=1515089085",
  "Languages": [
    "english"
  ],
  "Platforms": {
    "windows": true,
    "mac": false,
    "linux": false
  }
}