﻿[
  {
    "name": "ACH_FAMILY_FIGHT",
    "defaultvalue": 0,
    "displayName": "Family Fight!",
    "hidden": 0,
    "description": "",
    "icon": "https://steamcdn-a.akamaihd.net/steamcommunity/public/images/apps/244950/d92c87de7de43329a3b8286afff595b0eb1c6fa5.jpg",
    "icongray": "https://steamcdn-a.akamaihd.net/steamcommunity/public/images/apps/244950/2c64f4ebd077fb706aa5a917d40afc5931d57a5d.jpg"
  },
  {
    "name": "ACH_ANTLER_CONJURED",
    "defaultvalue": 0,
    "displayName": "Conjured Antler Ancestor",
    "hidden": 0,
    "description": "",
    "icon": "https://steamcdn-a.akamaihd.net/steamcommunity/public/images/apps/244950/23213bcd3af95209f9fc7dc63f735bfebdb21a7a.jpg",
    "icongray": "https://steamcdn-a.akamaihd.net/steamcommunity/public/images/apps/244950/e764ed309a88d50b366a5c1651fd17787b902bff.jpg"
  },
  {
    "name": "ACH_SPIRIT_CONJURED",
    "defaultvalue": 0,
    "displayName": "Conjured the Rainbow Spirit",
    "hidden": 0,
    "description": "",
    "icon": "https://steamcdn-a.akamaihd.net/steamcommunity/public/images/apps/244950/d3ee6ada9ff91617fde172140e6b9aff85dcdaa4.jpg",
    "icongray": "https://steamcdn-a.akamaihd.net/steamcommunity/public/images/apps/244950/cd99e627f36994edff300026666f62949544246c.jpg"
  },
  {
    "name": "ACH_BATKING_CONJURED",
    "defaultvalue": 0,
    "displayName": "Conjured the Bat King",
    "hidden": 0,
    "description": "",
    "icon": "https://steamcdn-a.akamaihd.net/steamcommunity/public/images/apps/244950/23b4dae51bee51f67e4906487d4b8504861da301.jpg",
    "icongray": "https://steamcdn-a.akamaihd.net/steamcommunity/public/images/apps/244950/9da38f91decbca5341fb1adbc3bba7be7828ab53.jpg"
  },
  {
    "name": "ACH_LAND_OF_DEAD",
    "defaultvalue": 0,
    "displayName": "Not afraid to die!",
    "hidden": 0,
    "description": "",
    "icon": "https://steamcdn-a.akamaihd.net/steamcommunity/public/images/apps/244950/9097356a9f58e31f58d6cb52e30392c262f95c43.jpg",
    "icongray": "https://steamcdn-a.akamaihd.net/steamcommunity/public/images/apps/244950/b99a76d1ddadc1aff13133dc275fdcedac39442b.jpg"
  },
  {
    "name": "ACH_EXPERT_DROPPER",
    "defaultvalue": 0,
    "displayName": "Drop Expert!",
    "hidden": 0,
    "description": "NEW_ACHIEVEMENT_DESC_5_5",
    "icon": "https://steamcdn-a.akamaihd.net/steamcommunity/public/images/apps/244950/9aa904372731750b5c5a392e81f3a90732ac764f.jpg",
    "icongray": "https://steamcdn-a.akamaihd.net/steamcommunity/public/images/apps/244950/4221d281060a22ea46306205d08762568c0d8b9f.jpg"
  },
  {
    "name": "ACH_CHEATER",
    "defaultvalue": 0,
    "displayName": "You're a cheater!",
    "hidden": 0,
    "description": "",
    "icon": "https://steamcdn-a.akamaihd.net/steamcommunity/public/images/apps/244950/90bc695b19d4d826dc68a1c2b92d255ce11c68aa.jpg",
    "icongray": "https://steamcdn-a.akamaihd.net/steamcommunity/public/images/apps/244950/88fa6a4fdd38b4f71bab8358941b746972e0b857.jpg"
  }
]