﻿[
  {
    "name": "1",
    "defaultvalue": 0,
    "displayName": "Ulfung Savior!",
    "hidden": 0,
    "description": "Defend Ulfung Village.",
    "icon": "https://steamcdn-a.akamaihd.net/steamcommunity/public/images/apps/404590/c0e7f44f449a1e3d19d579467cab7e3c3e81ca40.jpg",
    "icongray": "https://steamcdn-a.akamaihd.net/steamcommunity/public/images/apps/404590/b20a0034cf516b7d205754df7211ae49a5ab2f29.jpg"
  },
  {
    "name": "2",
    "defaultvalue": 0,
    "displayName": "Jokul Challenger",
    "hidden": 0,
    "description": "Defeat the Jokul.",
    "icon": "https://steamcdn-a.akamaihd.net/steamcommunity/public/images/apps/404590/c1c61bcd382a3ac1daf137f2e6cd312fd1e9f9fb.jpg",
    "icongray": "https://steamcdn-a.akamaihd.net/steamcommunity/public/images/apps/404590/91890a61f5d3c81c1535f7bd314cc7983d344ab2.jpg"
  },
  {
    "name": "3",
    "defaultvalue": 0,
    "displayName": "Hunter",
    "hidden": 0,
    "description": "Complete any Hunt map.",
    "icon": "https://steamcdn-a.akamaihd.net/steamcommunity/public/images/apps/404590/4645b010bcc1935f6115e15a57cf031e97ab1f47.jpg",
    "icongray": "https://steamcdn-a.akamaihd.net/steamcommunity/public/images/apps/404590/485c6cb992f49b89678abda80a4b1e8abfa63f25.jpg"
  },
  {
    "name": "4",
    "defaultvalue": 0,
    "displayName": "Liberator of Flotnar",
    "hidden": 0,
    "description": "Liberate Flotnar village.",
    "icon": "https://steamcdn-a.akamaihd.net/steamcommunity/public/images/apps/404590/246c54b298ff0f275d457cb9fb8d483c4b199065.jpg",
    "icongray": "https://steamcdn-a.akamaihd.net/steamcommunity/public/images/apps/404590/ccd47fb4c37970aa2d80cea2edd832d5af395868.jpg"
  },
  {
    "name": "5",
    "defaultvalue": 0,
    "displayName": "Pyro Ploy!",
    "hidden": 0,
    "description": "Burn the Imperial Fleet.",
    "icon": "https://steamcdn-a.akamaihd.net/steamcommunity/public/images/apps/404590/b3bcf2e84c76d153a8260320184e149e2f25a55b.jpg",
    "icongray": "https://steamcdn-a.akamaihd.net/steamcommunity/public/images/apps/404590/6ce6120a13097908686a8acada2435489a278f2a.jpg"
  },
  {
    "name": "6",
    "defaultvalue": 0,
    "displayName": "Imp Hunter",
    "hidden": 0,
    "description": "Complete the Imp Hunt.",
    "icon": "https://steamcdn-a.akamaihd.net/steamcommunity/public/images/apps/404590/77396128c6d6a76ff4128333b97af11a0b3a6339.jpg",
    "icongray": "https://steamcdn-a.akamaihd.net/steamcommunity/public/images/apps/404590/ba81d93dce9265ebe6ce2d4385aebb6e9ab8cda0.jpg"
  },
  {
    "name": "7",
    "defaultvalue": 0,
    "displayName": "Moongarm",
    "hidden": 0,
    "description": "Complete the game as the Warrior.",
    "icon": "https://steamcdn-a.akamaihd.net/steamcommunity/public/images/apps/404590/530a1f456932d2ba1f8493da17baf9a001ce7244.jpg",
    "icongray": "https://steamcdn-a.akamaihd.net/steamcommunity/public/images/apps/404590/4b10513b6575ea6c2a7c48d61c41bdfd7c4c1aa5.jpg"
  },
  {
    "name": "8",
    "defaultvalue": 0,
    "displayName": "Moonbikkja",
    "hidden": 0,
    "description": "Complete the game as the Shieldmaiden.",
    "icon": "https://steamcdn-a.akamaihd.net/steamcommunity/public/images/apps/404590/e5d0a7e8244b891901cb621bd439e6521b2b4e3a.jpg",
    "icongray": "https://steamcdn-a.akamaihd.net/steamcommunity/public/images/apps/404590/77032bd009c62217f36d28161d837107541f612b.jpg"
  },
  {
    "name": "9",
    "defaultvalue": 0,
    "displayName": "Son of Odin",
    "hidden": 0,
    "description": "Complete Game+.",
    "icon": "https://steamcdn-a.akamaihd.net/steamcommunity/public/images/apps/404590/6e9bcd31edeec3913df22265606d9bc39d05b948.jpg",
    "icongray": "https://steamcdn-a.akamaihd.net/steamcommunity/public/images/apps/404590/ad56b1acfac56c4579a48682204d58b299dfcfff.jpg"
  },
  {
    "name": "10",
    "defaultvalue": 0,
    "displayName": "Tomtecide",
    "hidden": 0,
    "description": "Killed 500 Tomte.",
    "icon": "https://steamcdn-a.akamaihd.net/steamcommunity/public/images/apps/404590/6ba091b2e7bc5e79093836b4da650a1c5a3ef9d8.jpg",
    "icongray": "https://steamcdn-a.akamaihd.net/steamcommunity/public/images/apps/404590/8e4f78467558cf7d54a427b6170a809c5a27a859.jpg"
  },
  {
    "name": "11",
    "defaultvalue": 0,
    "displayName": "Lord of the Ring",
    "hidden": 0,
    "description": "Keep Draupnir for yourself.",
    "icon": "https://steamcdn-a.akamaihd.net/steamcommunity/public/images/apps/404590/000f0d70c0df54a748da335755a1cf10cca8b79c.jpg",
    "icongray": "https://steamcdn-a.akamaihd.net/steamcommunity/public/images/apps/404590/224a3bdaca109982f0644fac8330a181aa10069a.jpg"
  },
  {
    "name": "12",
    "defaultvalue": 0,
    "displayName": "Otherworld Traveler",
    "hidden": 0,
    "description": "Travel to Utgard.",
    "icon": "https://steamcdn-a.akamaihd.net/steamcommunity/public/images/apps/404590/cd5974620deb5f48ab7ec6ea63129d5093323bf1.jpg",
    "icongray": "https://steamcdn-a.akamaihd.net/steamcommunity/public/images/apps/404590/2331e14bec17af1afee42b23850a5108cca413e6.jpg"
  },
  {
    "name": "13",
    "defaultvalue": 0,
    "displayName": "Master Smith",
    "hidden": 0,
    "description": "Unlock level 5 of the Smithy.",
    "icon": "https://steamcdn-a.akamaihd.net/steamcommunity/public/images/apps/404590/982a00ed3ac2f77e5f13ea7e48c432b5c4d20ee9.jpg",
    "icongray": "https://steamcdn-a.akamaihd.net/steamcommunity/public/images/apps/404590/24cb51785e61adc24b15e820dcb9391a8b9578ac.jpg"
  },
  {
    "name": "14",
    "defaultvalue": 0,
    "displayName": "Master Shipwright",
    "hidden": 0,
    "description": "Unlock level 4 of the Shipmaster.",
    "icon": "https://steamcdn-a.akamaihd.net/steamcommunity/public/images/apps/404590/de9a89cb8fdfe0ccb05ab74df28f717308292e7c.jpg",
    "icongray": "https://steamcdn-a.akamaihd.net/steamcommunity/public/images/apps/404590/0a9a5cedd1892cb73fec498063ee8adbaf4d4308.jpg"
  },
  {
    "name": "15",
    "defaultvalue": 0,
    "displayName": "Jotun's Bane",
    "hidden": 0,
    "description": "Kill 100 Jotun.",
    "icon": "https://steamcdn-a.akamaihd.net/steamcommunity/public/images/apps/404590/53a4f0f44b2f7ce44933a812d95be286d6cec124.jpg",
    "icongray": "https://steamcdn-a.akamaihd.net/steamcommunity/public/images/apps/404590/b6c219f20aeebb62571f02c2ec3b0b32a01b7b90.jpg"
  },
  {
    "name": "16",
    "defaultvalue": 0,
    "displayName": "Crowd Clearer",
    "hidden": 0,
    "description": "Kill four foes in a single melee attack.",
    "icon": "https://steamcdn-a.akamaihd.net/steamcommunity/public/images/apps/404590/cae8b72a0404b72cd8bea88def94563cd4a3a752.jpg",
    "icongray": "https://steamcdn-a.akamaihd.net/steamcommunity/public/images/apps/404590/b927deabe4137093ff5894e0d07118dbbfcc1207.jpg"
  },
  {
    "name": "17",
    "defaultvalue": 0,
    "displayName": "Berserker!",
    "hidden": 0,
    "description": "Rage continuously for over 20 seconds.",
    "icon": "https://steamcdn-a.akamaihd.net/steamcommunity/public/images/apps/404590/1d040dc6694dba287202383987720a961b4ab381.jpg",
    "icongray": "https://steamcdn-a.akamaihd.net/steamcommunity/public/images/apps/404590/62072de27acca36f27f8fdd9a706d01cf1fa851d.jpg"
  },
  {
    "name": "18",
    "defaultvalue": 0,
    "displayName": "Ragnar Lodbrok",
    "hidden": 0,
    "description": "Become chieftain of all the clans.",
    "icon": "https://steamcdn-a.akamaihd.net/steamcommunity/public/images/apps/404590/0b010ca51018d768f73ab9af8cb760764e31abb2.jpg",
    "icongray": "https://steamcdn-a.akamaihd.net/steamcommunity/public/images/apps/404590/5b5b7b9ad9827935cf49ede60f4cc0f564c97150.jpg"
  },
  {
    "name": "19",
    "defaultvalue": 0,
    "displayName": "Metal Mayhem",
    "hidden": 0,
    "description": "Survive the Mire-Witch's spell.",
    "icon": "https://steamcdn-a.akamaihd.net/steamcommunity/public/images/apps/404590/ca2395ae2ef1c4f4360e1384cf1666786e3ed7ef.jpg",
    "icongray": "https://steamcdn-a.akamaihd.net/steamcommunity/public/images/apps/404590/99b4275e00a81b5122b14d10b9f0b929f1a6f4be.jpg"
  },
  {
    "name": "40",
    "defaultvalue": 0,
    "displayName": "Blessings of the Aesir",
    "hidden": 0,
    "description": "Complete all Trials.",
    "icon": "https://steamcdn-a.akamaihd.net/steamcommunity/public/images/apps/404590/7018e3b2f513b2d9221bced5ea115a85aae3f1d2.jpg",
    "icongray": "https://steamcdn-a.akamaihd.net/steamcommunity/public/images/apps/404590/8818e98551c0c3cda9c55331d18c825dfdadc3da.jpg"
  },
  {
    "name": "21",
    "defaultvalue": 0,
    "displayName": "True Viking",
    "hidden": 0,
    "description": "Complete the game on the highest difficulty.",
    "icon": "https://steamcdn-a.akamaihd.net/steamcommunity/public/images/apps/404590/3a7e0b0bd1d9d58f0011bc654f9516eb2b2b1db9.jpg",
    "icongray": "https://steamcdn-a.akamaihd.net/steamcommunity/public/images/apps/404590/4c2f06916aab46503d5f68578140b89feaf9dfdc.jpg"
  },
  {
    "name": "22",
    "defaultvalue": 0,
    "displayName": "Bloody Viking",
    "hidden": 0,
    "description": "Earn 1,000,000 Blood.",
    "icon": "https://steamcdn-a.akamaihd.net/steamcommunity/public/images/apps/404590/b93e31d1baebac01c9100193ea05a0b6c14374b2.jpg",
    "icongray": "https://steamcdn-a.akamaihd.net/steamcommunity/public/images/apps/404590/78831a1c885a89d0a010a0eee6bed6ede7ef952b.jpg"
  },
  {
    "name": "23",
    "defaultvalue": 0,
    "displayName": "Follower of Loki",
    "hidden": 0,
    "description": "Unlock all Gifts in Loki's gift tree.",
    "icon": "https://steamcdn-a.akamaihd.net/steamcommunity/public/images/apps/404590/ef53f47ba5f32cc48417693e9104cc528ad093e7.jpg",
    "icongray": "https://steamcdn-a.akamaihd.net/steamcommunity/public/images/apps/404590/682fe8d2eb235d1eadc82fda2294053aeaccd2b1.jpg"
  },
  {
    "name": "24",
    "defaultvalue": 0,
    "displayName": "Follower of Odin",
    "hidden": 0,
    "description": "Unlock all Gifts in Odin's gift tree.",
    "icon": "https://steamcdn-a.akamaihd.net/steamcommunity/public/images/apps/404590/08e84eb4b577f8feece56e77b1de7d25668c2c91.jpg",
    "icongray": "https://steamcdn-a.akamaihd.net/steamcommunity/public/images/apps/404590/28c3f92d08a38631db0220e619cf3cd1ad9bef17.jpg"
  },
  {
    "name": "25",
    "defaultvalue": 0,
    "displayName": "Follower of Skathi",
    "hidden": 0,
    "description": "Unlock all Gifts in Skathi's gift tree.",
    "icon": "https://steamcdn-a.akamaihd.net/steamcommunity/public/images/apps/404590/86f43959a8efa50111bd7b947eacba10d88f166d.jpg",
    "icongray": "https://steamcdn-a.akamaihd.net/steamcommunity/public/images/apps/404590/ae1afd7377ca5843b1b76ef00c03bb97e00d189e.jpg"
  },
  {
    "name": "26",
    "defaultvalue": 0,
    "displayName": "Follower of Tyr",
    "hidden": 0,
    "description": "Unlock all Gifts in Tyr's gift tree.",
    "icon": "https://steamcdn-a.akamaihd.net/steamcommunity/public/images/apps/404590/18bb70ddcdfb6cd1daadb1e0c6bd6322b5789178.jpg",
    "icongray": "https://steamcdn-a.akamaihd.net/steamcommunity/public/images/apps/404590/d7af6f43350d08b32c8d8a282d1cd5ae8f7cc6ac.jpg"
  },
  {
    "name": "27",
    "defaultvalue": 0,
    "displayName": "Follower of Thor",
    "hidden": 0,
    "description": "Unlock all Gifts in Thor's gift tree.",
    "icon": "https://steamcdn-a.akamaihd.net/steamcommunity/public/images/apps/404590/e419cd42c3b70167ea1e40f0cce714768245f4b7.jpg",
    "icongray": "https://steamcdn-a.akamaihd.net/steamcommunity/public/images/apps/404590/91781ea25e0962321c1bf27f3b6e2430f71bfde3.jpg"
  },
  {
    "name": "28",
    "defaultvalue": 0,
    "displayName": "Dawn of Winter",
    "hidden": 0,
    "description": "Complete Campaign 1.",
    "icon": "https://steamcdn-a.akamaihd.net/steamcommunity/public/images/apps/404590/3e3793bf001c9de539a54a09dbdf6e30bccd3935.jpg",
    "icongray": "https://steamcdn-a.akamaihd.net/steamcommunity/public/images/apps/404590/8cb02552151dc5233efcd650785db49c56ef4096.jpg"
  },
  {
    "name": "29",
    "defaultvalue": 0,
    "displayName": "Rise of the Wolves",
    "hidden": 0,
    "description": "Complete Campaign 2.",
    "icon": "https://steamcdn-a.akamaihd.net/steamcommunity/public/images/apps/404590/e81f8aa3971d92752a386c81b2c0c05aac8afce4.jpg",
    "icongray": "https://steamcdn-a.akamaihd.net/steamcommunity/public/images/apps/404590/6746e8e19ca8d4b940d7ba324b5eab93dd6f4bc5.jpg"
  },
  {
    "name": "30",
    "defaultvalue": 0,
    "displayName": "Distant Shores",
    "hidden": 0,
    "description": "Complete Campaign 3.",
    "icon": "https://steamcdn-a.akamaihd.net/steamcommunity/public/images/apps/404590/272b65938cbe566c32e865838d616de05b88693b.jpg",
    "icongray": "https://steamcdn-a.akamaihd.net/steamcommunity/public/images/apps/404590/b5d465afb6228b8698fc84cfd604bee5a46813f0.jpg"
  },
  {
    "name": "31",
    "defaultvalue": 0,
    "displayName": "Winter Hunter",
    "hidden": 0,
    "description": "All Hunt maps complete.",
    "icon": "https://steamcdn-a.akamaihd.net/steamcommunity/public/images/apps/404590/597ac8d380a5bf5f7010bb8a4f72f851252848f4.jpg",
    "icongray": "https://steamcdn-a.akamaihd.net/steamcommunity/public/images/apps/404590/6a821003c00728b119adb2e16d6c55f33b4aa9bd.jpg"
  },
  {
    "name": "32",
    "defaultvalue": 0,
    "displayName": "Gotta Find 'Em All",
    "hidden": 0,
    "description": "Found all Legendary Items.",
    "icon": "https://steamcdn-a.akamaihd.net/steamcommunity/public/images/apps/404590/5374206cf60262adc4b77e4d680796a7e35f96d7.jpg",
    "icongray": "https://steamcdn-a.akamaihd.net/steamcommunity/public/images/apps/404590/d71e4d6c984c997af66fcc798f21382f6da242ac.jpg"
  },
  {
    "name": "33",
    "defaultvalue": 0,
    "displayName": "Baker's Dozen",
    "hidden": 0,
    "description": "Perform 1000 rolls.",
    "icon": "https://steamcdn-a.akamaihd.net/steamcommunity/public/images/apps/404590/d85704350c871898f6a2e9fef4693315985978a6.jpg",
    "icongray": "https://steamcdn-a.akamaihd.net/steamcommunity/public/images/apps/404590/315aa8e7cf91c179f6bd12255b43a145de8e2425.jpg"
  },
  {
    "name": "34",
    "defaultvalue": 0,
    "displayName": "Gold Standard Trader",
    "hidden": 0,
    "description": "Earn 50,000 gold by selling resources.",
    "icon": "https://steamcdn-a.akamaihd.net/steamcommunity/public/images/apps/404590/773b5383fe7a2f18c77177e2eec3fd5b1da4842c.jpg",
    "icongray": "https://steamcdn-a.akamaihd.net/steamcommunity/public/images/apps/404590/fbda19bac87bf5e996fdac6cb9ad42497553aad7.jpg"
  },
  {
    "name": "35",
    "defaultvalue": 0,
    "displayName": "Ultimate Challenger!",
    "hidden": 0,
    "description": "Complete all Challenges on all maps.",
    "icon": "https://steamcdn-a.akamaihd.net/steamcommunity/public/images/apps/404590/757db6b01c90cc7fd260d8c28ab061308f6e7bc5.jpg",
    "icongray": "https://steamcdn-a.akamaihd.net/steamcommunity/public/images/apps/404590/002a21576e74cd89ca19a29c3993293b6f4f822f.jpg"
  },
  {
    "name": "36",
    "defaultvalue": 0,
    "displayName": "Rune Bound",
    "hidden": 0,
    "description": "Equip three runes on a single item.",
    "icon": "https://steamcdn-a.akamaihd.net/steamcommunity/public/images/apps/404590/85a9a6958423181581127dfd1ac6c6baa1354453.jpg",
    "icongray": "https://steamcdn-a.akamaihd.net/steamcommunity/public/images/apps/404590/8489ec11997ecef3b45fcd1d0743cd60a8b08bc6.jpg"
  },
  {
    "name": "37",
    "defaultvalue": 0,
    "displayName": "Ringer of Runes",
    "hidden": 0,
    "description": "Collect one of every rune.",
    "icon": "https://steamcdn-a.akamaihd.net/steamcommunity/public/images/apps/404590/6815efa14cd1c347b28e23afe7f89c5426f0c16d.jpg",
    "icongray": "https://steamcdn-a.akamaihd.net/steamcommunity/public/images/apps/404590/24704a060725c3f058c051fe9977ccc635b3cf32.jpg"
  },
  {
    "name": "38",
    "defaultvalue": 0,
    "displayName": "Valhalla Mode",
    "hidden": 0,
    "description": "Accomplish campaign in Valhalla Mode",
    "icon": "https://steamcdn-a.akamaihd.net/steamcommunity/public/images/apps/404590/82144423735167695a7b31062a5dc2805407c8a0.jpg",
    "icongray": "https://steamcdn-a.akamaihd.net/steamcommunity/public/images/apps/404590/ea75a4443571a64420a4403f36bcb4729a590fd1.jpg"
  },
  {
    "name": "39",
    "defaultvalue": 0,
    "displayName": "Valhalla Champion",
    "hidden": 0,
    "description": "Accomplish campaign in Valhalla Mode on highest difficulty.",
    "icon": "https://steamcdn-a.akamaihd.net/steamcommunity/public/images/apps/404590/4a2e9b9a8dc3d2f5d7663ea0ae70abe335c9a35a.jpg",
    "icongray": "https://steamcdn-a.akamaihd.net/steamcommunity/public/images/apps/404590/a75166b27e66f943c895271293c3714ebebbf87f.jpg"
  }
]