﻿{
  "Dlcs": {},
  "Name": "No Lights",
  "AppId": "682910",
  "ImageUrl": "https://steamcdn-a.akamaihd.net/steam/apps/682910/header.jpg?t=1520797101",
  "Languages": [
    "english"
  ],
  "Platforms": {
    "windows": true,
    "mac": true,
    "linux": true
  }
}