﻿{
  "Dlcs": {
    "713700": {
      "Name": "Defense Clicker - Ressource Collector",
      "ImageUrl": "https://steamcdn-a.akamaihd.net/steam/apps/713700/header.jpg?t=1553883761"
    },
    "748500": {
      "Name": "Defense Clicker - Auto Clicker Pet (Ice Elemental)",
      "ImageUrl": "https://steamcdn-a.akamaihd.net/steam/apps/748500/header.jpg?t=1553883872"
    }
  },
  "Name": "Defense Clicker",
  "AppId": "707590",
  "ImageUrl": "https://steamcdn-a.akamaihd.net/steam/apps/707590/header.jpg?t=1553883631",
  "Languages": [
    "english"
  ],
  "Platforms": {
    "windows": true,
    "mac": false,
    "linux": false
  }
}