﻿{
  "Dlcs": {},
  "Name": "Red Bull Doodle Art - Global VR Gallery",
  "AppId": "642840",
  "ImageUrl": "https://steamcdn-a.akamaihd.net/steam/apps/642840/header.jpg?t=1498891148",
  "Languages": [
    "english"
  ],
  "Platforms": {
    "windows": true,
    "mac": false,
    "linux": false
  }
}