﻿{
  "Dlcs": {},
  "Name": "Monsterland",
  "AppId": "406920",
  "ImageUrl": "https://steamcdn-a.akamaihd.net/steam/apps/406920/header.jpg?t=1599034859",
  "Languages": [
    "english"
  ],
  "Platforms": {
    "windows": true,
    "mac": false,
    "linux": false
  }
}