﻿[
  {
    "name": "ACH_CHICKENSLAUGHTER",
    "defaultvalue": 0,
    "displayName": "Chicken Slaughter",
    "hidden": 0,
    "description": "Kill all chickens in one round",
    "icon": "https://steamcdn-a.akamaihd.net/steamcommunity/public/images/apps/36000/34fdaca29baa653d31d166679dfca95154d3c105.jpg",
    "icongray": "https://steamcdn-a.akamaihd.net/steamcommunity/public/images/apps/36000/f82231b9e141e5e1df0982ce4f3ae6ba0a6539f0.jpg"
  },
  {
    "name": "ACH_HEADSHOTS",
    "defaultvalue": 0,
    "displayName": "Headless Horseman",
    "hidden": 0,
    "description": "Make 15 headshots in one round",
    "icon": "https://steamcdn-a.akamaihd.net/steamcommunity/public/images/apps/36000/bd85863b93edb66268325753e362986c4bdb7895.jpg",
    "icongray": "https://steamcdn-a.akamaihd.net/steamcommunity/public/images/apps/36000/49bf02712c04f50002acca4df84a4f260372e6f9.jpg"
  },
  {
    "name": "ACH_FASTWAVES",
    "defaultvalue": 0,
    "displayName": "Time Traveler",
    "hidden": 0,
    "description": "Kill all enemy waves in 7 minutes",
    "icon": "https://steamcdn-a.akamaihd.net/steamcommunity/public/images/apps/36000/2d32388ddd1b790c9b086bb62a4d852dc35185d0.jpg",
    "icongray": "https://steamcdn-a.akamaihd.net/steamcommunity/public/images/apps/36000/4010eab06d5b1db8d4e65f43e6f24520a0ee9fbd.jpg"
  },
  {
    "name": "ACH_AIRRAID",
    "defaultvalue": 0,
    "displayName": "Death From Above",
    "hidden": 0,
    "description": "Kill 5 enemies with an air raid",
    "icon": "https://steamcdn-a.akamaihd.net/steamcommunity/public/images/apps/36000/b3f6171547255d1712aeaa75f2de6ea298b1cc16.jpg",
    "icongray": "https://steamcdn-a.akamaihd.net/steamcommunity/public/images/apps/36000/1f45e4fa0535194cad274681aea087670b15eebc.jpg"
  },
  {
    "name": "ACH_VETERAN",
    "defaultvalue": 0,
    "displayName": "Foreign Legionair",
    "hidden": 0,
    "description": "Beat the Village in the extreme difficulty",
    "icon": "https://steamcdn-a.akamaihd.net/steamcommunity/public/images/apps/36000/9a04cdb37d224073e83ccc9a3869151fabba42f4.jpg",
    "icongray": "https://steamcdn-a.akamaihd.net/steamcommunity/public/images/apps/36000/7c944ec94584849f979e8b29f37ce28c6d41469d.jpg"
  },
  {
    "name": "ACH_TERMINATOR",
    "defaultvalue": 0,
    "displayName": "My Little Friend",
    "hidden": 0,
    "description": "Find the minigun",
    "icon": "https://steamcdn-a.akamaihd.net/steamcommunity/public/images/apps/36000/b3f6d26b6b85c671b78d12b6caa72ccc35c85a36.jpg",
    "icongray": "https://steamcdn-a.akamaihd.net/steamcommunity/public/images/apps/36000/4d904cf67da70842a59edeabd085ef701e85fb6f.jpg"
  },
  {
    "name": "ACH_CIVSALIVE",
    "defaultvalue": 0,
    "displayName": "Damage Control",
    "hidden": 0,
    "description": "Win the game with all civilians alive",
    "icon": "https://steamcdn-a.akamaihd.net/steamcommunity/public/images/apps/36000/efc4da12d9ff04785a3cad116a6eede846033370.jpg",
    "icongray": "https://steamcdn-a.akamaihd.net/steamcommunity/public/images/apps/36000/a2b6fa530a4716dc6de9c7be5bafd14370eae4ef.jpg"
  },
  {
    "name": "ACH_KILLCHAIN",
    "defaultvalue": 0,
    "displayName": "Blood Hunger",
    "hidden": 0,
    "description": "Make a kill chain of 10 kills",
    "icon": "https://steamcdn-a.akamaihd.net/steamcommunity/public/images/apps/36000/5d78c2cb3044212699a7859e67162f61041bb082.jpg",
    "icongray": "https://steamcdn-a.akamaihd.net/steamcommunity/public/images/apps/36000/c51b812f230888522eb4c21f02880af72e5c9746.jpg"
  },
  {
    "name": "ACH_ROCKETS",
    "defaultvalue": 0,
    "displayName": "Rocket Man",
    "hidden": 0,
    "description": "Kill 4 enemies with one rocket",
    "icon": "https://steamcdn-a.akamaihd.net/steamcommunity/public/images/apps/36000/6b317642d1df88af9680374c7c5a01ca5882dc65.jpg",
    "icongray": "https://steamcdn-a.akamaihd.net/steamcommunity/public/images/apps/36000/af67a0e57388d4a6cfe1c8be811cdc7d43ed7d5e.jpg"
  },
  {
    "name": "ACH_REPAIRS",
    "defaultvalue": 0,
    "displayName": "Handyman",
    "hidden": 0,
    "description": "Repair the town hall  5 times in one round",
    "icon": "https://steamcdn-a.akamaihd.net/steamcommunity/public/images/apps/36000/63c63dac34c8f0ea657aa9ad9596299a22e30948.jpg",
    "icongray": "https://steamcdn-a.akamaihd.net/steamcommunity/public/images/apps/36000/4067ecbda6ba970029b3406a3b1dd1d5ff7bf68e.jpg"
  },
  {
    "name": "ACH_WARHERO",
    "defaultvalue": 0,
    "displayName": "War Hero",
    "hidden": 0,
    "description": "Finish the campaign on any difficulty",
    "icon": "https://steamcdn-a.akamaihd.net/steamcommunity/public/images/apps/36000/913e1fd7a4c14209ce2c190e8d85a464dea503ba.jpg",
    "icongray": "https://steamcdn-a.akamaihd.net/steamcommunity/public/images/apps/36000/dcde522934f4ee95a6f976503834fb351912e9df.jpg"
  },
  {
    "name": "ACH_BUCKLEUP",
    "defaultvalue": 0,
    "displayName": "Buckle Up",
    "hidden": 0,
    "description": "Escort the bus safely without it taking damage",
    "icon": "https://steamcdn-a.akamaihd.net/steamcommunity/public/images/apps/36000/89edcce22684cb503394cd61dd5f6a29b1c08180.jpg",
    "icongray": "https://steamcdn-a.akamaihd.net/steamcommunity/public/images/apps/36000/9b6b2db2988f84e5a5fe58d47a30858850bf01a8.jpg"
  },
  {
    "name": "ACH_DING",
    "defaultvalue": 0,
    "displayName": "Ding!",
    "hidden": 0,
    "description": "Reach level 20",
    "icon": "https://steamcdn-a.akamaihd.net/steamcommunity/public/images/apps/36000/cb4bf0843c5f7d9d80c75e4e50ab79cdc5474639.jpg",
    "icongray": "https://steamcdn-a.akamaihd.net/steamcommunity/public/images/apps/36000/8b703c23295b80b20da242edcce9a7afa777b6bc.jpg"
  },
  {
    "name": "ACH_FAMAS",
    "defaultvalue": 0,
    "displayName": "3.8 kg of Love",
    "hidden": 0,
    "description": "Purchase the Foreign Legion FAMAS",
    "icon": "https://steamcdn-a.akamaihd.net/steamcommunity/public/images/apps/36000/8251bc7d01ab2bb187626cf4d3a41aefd3b54bc5.jpg",
    "icongray": "https://steamcdn-a.akamaihd.net/steamcommunity/public/images/apps/36000/8265706eb03d198ff93ffba08f9a1fcbc698a21d.jpg"
  },
  {
    "name": "ACH_PRETTYPRINCESS",
    "defaultvalue": 0,
    "displayName": "Aww, Pretty Princess",
    "hidden": 0,
    "description": "Purchase an outfit, helmet and accessory",
    "icon": "https://steamcdn-a.akamaihd.net/steamcommunity/public/images/apps/36000/150cff4e3593676a0f10677ee7ac1fde6435874f.jpg",
    "icongray": "https://steamcdn-a.akamaihd.net/steamcommunity/public/images/apps/36000/1569c2b150b387a38b673ae947f63ed2efb08e02.jpg"
  },
  {
    "name": "ACH_PLOTTWIST",
    "defaultvalue": 0,
    "displayName": "What a plot twist!",
    "hidden": 1,
    "icon": "https://steamcdn-a.akamaihd.net/steamcommunity/public/images/apps/36000/6f251e56ab981b9b619095b6ebf9365b0d7b8aaa.jpg",
    "icongray": "https://steamcdn-a.akamaihd.net/steamcommunity/public/images/apps/36000/07726d6e8bdb306fca1dc7a5085083450e6a34d4.jpg"
  },
  {
    "name": "ACH_THEELITE",
    "defaultvalue": 0,
    "displayName": "The Elite",
    "hidden": 0,
    "description": "Kill 1337 enemies in total",
    "icon": "https://steamcdn-a.akamaihd.net/steamcommunity/public/images/apps/36000/cde25a6111f2afd1e1f8690c6d3e3876530b2dd1.jpg",
    "icongray": "https://steamcdn-a.akamaihd.net/steamcommunity/public/images/apps/36000/ae19a76375f8070a36b7364467c226ccf172df41.jpg"
  },
  {
    "name": "ACH_SURVIVOR",
    "defaultvalue": 0,
    "displayName": "Survivor",
    "hidden": 0,
    "description": "Survive 30 minutes in endless mode",
    "icon": "https://steamcdn-a.akamaihd.net/steamcommunity/public/images/apps/36000/c1a44f96c1ec5e4d4a0319b1d64d7bdbdb386d31.jpg",
    "icongray": "https://steamcdn-a.akamaihd.net/steamcommunity/public/images/apps/36000/799183fb2428b09ffde10226be72f9f9614e58d6.jpg"
  },
  {
    "name": "ACH_CHICKEN_BBQ",
    "defaultvalue": 0,
    "displayName": "Chicken BBQ",
    "hidden": 0,
    "description": "Kill 25 chickens",
    "icon": "https://steamcdn-a.akamaihd.net/steamcommunity/public/images/apps/36000/d77d3a395e1728aad17eeb21f97b839bcb314253.jpg",
    "icongray": "https://steamcdn-a.akamaihd.net/steamcommunity/public/images/apps/36000/d9b7f87d0325b8e5fa5395261a10072d75624ba1.jpg"
  },
  {
    "name": "ACH_CHICKEN_KEBAB",
    "defaultvalue": 0,
    "displayName": "Chicken Kebab Party",
    "hidden": 0,
    "description": "Kill 2500 chickens",
    "icon": "https://steamcdn-a.akamaihd.net/steamcommunity/public/images/apps/36000/14ae404a275858b7595d6e024dd0aaff32846fea.jpg",
    "icongray": "https://steamcdn-a.akamaihd.net/steamcommunity/public/images/apps/36000/8ffd318be61f1c402db72c1a12b846b7cfd9f5de.jpg"
  },
  {
    "name": "ACH_KILLING_WITH_A_SMILE",
    "defaultvalue": 0,
    "displayName": "Killing with a Smile",
    "hidden": 0,
    "description": "Play a game with only the Smiley Badge equipped",
    "icon": "https://steamcdn-a.akamaihd.net/steamcommunity/public/images/apps/36000/c8862f053122db9b624195b3f99bb207ad4b6a44.jpg",
    "icongray": "https://steamcdn-a.akamaihd.net/steamcommunity/public/images/apps/36000/cff0dd89cc719d0a7f4fcf7b17bfcfc80f83cc53.jpg"
  },
  {
    "name": "ACH_LET_THERE_BE_LIGHT",
    "defaultvalue": 0,
    "displayName": "Let there be Light",
    "hidden": 0,
    "description": "Play a game with only the Night Vision Goggles equipped",
    "icon": "https://steamcdn-a.akamaihd.net/steamcommunity/public/images/apps/36000/8c8b67c9afb5be7c476464c2ae6efbf5a08d68d9.jpg",
    "icongray": "https://steamcdn-a.akamaihd.net/steamcommunity/public/images/apps/36000/1c48127ffc693af379eadf39833c5f210c0b6bf7.jpg"
  },
  {
    "name": "ACH_FULL_METAL_JACKET",
    "defaultvalue": 0,
    "displayName": "Full Metal Jacket",
    "hidden": 0,
    "description": "Play a game with only the Peace Badge and Bullets equipped",
    "icon": "https://steamcdn-a.akamaihd.net/steamcommunity/public/images/apps/36000/d90a23bb99924da937c4633168c1410b3904efc8.jpg",
    "icongray": "https://steamcdn-a.akamaihd.net/steamcommunity/public/images/apps/36000/e5f3714e937dddf760ea661135dae41f1a83bfee.jpg"
  }
]