﻿{
  "Dlcs": {},
  "Name": "War Trigger 2",
  "AppId": "732730",
  "ImageUrl": "https://steamcdn-a.akamaihd.net/steam/apps/732730/header.jpg?t=1580238117",
  "Languages": [
    "english"
  ],
  "Platforms": {
    "windows": true,
    "mac": true,
    "linux": false
  }
}