﻿{
  "Dlcs": {},
  "Name": "BeeFense",
  "AppId": "609990",
  "ImageUrl": "https://steamcdn-a.akamaihd.net/steam/apps/609990/header.jpg?t=1565173917",
  "Languages": [
    "english",
    "french",
    "german",
    "spanish"
  ],
  "Platforms": {
    "windows": true,
    "mac": false,
    "linux": false
  }
}