﻿[
  {
    "name": "ONE_LV_1000",
    "defaultvalue": 0,
    "displayName": "Unskilled",
    "hidden": 0,
    "description": "Win the level with more than 1000 points",
    "icon": "https://steamcdn-a.akamaihd.net/steamcommunity/public/images/apps/485730/e25d2fc9fca3e09f539dfb4822ed5450cb742a9d.jpg",
    "icongray": "https://steamcdn-a.akamaihd.net/steamcommunity/public/images/apps/485730/c46b736af391780e281532c63c31e835acef11e3.jpg"
  },
  {
    "name": "ONE_LV_1200",
    "defaultvalue": 0,
    "displayName": "Usual player",
    "hidden": 0,
    "description": "Win the level with more than 1200 points",
    "icon": "https://steamcdn-a.akamaihd.net/steamcommunity/public/images/apps/485730/63fe78bdce4433db96ddb2f10cf5e521d96bdd14.jpg",
    "icongray": "https://steamcdn-a.akamaihd.net/steamcommunity/public/images/apps/485730/c46b736af391780e281532c63c31e835acef11e3.jpg"
  },
  {
    "name": "ONE_LV_1600",
    "defaultvalue": 0,
    "displayName": "Good player",
    "hidden": 0,
    "description": "Win the level with more than 1600 points",
    "icon": "https://steamcdn-a.akamaihd.net/steamcommunity/public/images/apps/485730/03114e00dfd71c6d39239b17127b82a96550f023.jpg",
    "icongray": "https://steamcdn-a.akamaihd.net/steamcommunity/public/images/apps/485730/c46b736af391780e281532c63c31e835acef11e3.jpg"
  },
  {
    "name": "TIME_150",
    "defaultvalue": 0,
    "displayName": "SlowMan",
    "hidden": 0,
    "description": "Win the level with more than 150 Time Bonus points",
    "icon": "https://steamcdn-a.akamaihd.net/steamcommunity/public/images/apps/485730/4eddc3d345447d63636c8413f8ae526575a9756e.jpg",
    "icongray": "https://steamcdn-a.akamaihd.net/steamcommunity/public/images/apps/485730/c46b736af391780e281532c63c31e835acef11e3.jpg"
  },
  {
    "name": "TIME_250",
    "defaultvalue": 0,
    "displayName": "Still too slow for me",
    "hidden": 0,
    "description": "Win the level with more than 250 Time Bonus points",
    "icon": "https://steamcdn-a.akamaihd.net/steamcommunity/public/images/apps/485730/3d759756cfc39245334a03645e481850f15c5ca2.jpg",
    "icongray": "https://steamcdn-a.akamaihd.net/steamcommunity/public/images/apps/485730/c46b736af391780e281532c63c31e835acef11e3.jpg"
  },
  {
    "name": "TIME_350",
    "defaultvalue": 0,
    "displayName": "How did you do this?",
    "hidden": 0,
    "description": "Win the level with more than 350 Time Bonus points",
    "icon": "https://steamcdn-a.akamaihd.net/steamcommunity/public/images/apps/485730/9e8e4bef60ad854c32ca77d1e6758236167def0b.jpg",
    "icongray": "https://steamcdn-a.akamaihd.net/steamcommunity/public/images/apps/485730/c46b736af391780e281532c63c31e835acef11e3.jpg"
  },
  {
    "name": "LVLS_10",
    "defaultvalue": 0,
    "displayName": "My mom did this better",
    "hidden": 0,
    "description": "Complete 10 levels in Ranking Mode",
    "icon": "https://steamcdn-a.akamaihd.net/steamcommunity/public/images/apps/485730/14cc4626254d1daf565b419fefd929a604fbbf37.jpg",
    "icongray": "https://steamcdn-a.akamaihd.net/steamcommunity/public/images/apps/485730/c46b736af391780e281532c63c31e835acef11e3.jpg"
  },
  {
    "name": "LVLS_20",
    "defaultvalue": 0,
    "displayName": "Everyone can do 20",
    "hidden": 0,
    "description": "Complete 20 levels in Ranking Mode",
    "icon": "https://steamcdn-a.akamaihd.net/steamcommunity/public/images/apps/485730/d6a9e75cdf213dacdca7d2724827ca53cf536330.jpg",
    "icongray": "https://steamcdn-a.akamaihd.net/steamcommunity/public/images/apps/485730/c46b736af391780e281532c63c31e835acef11e3.jpg"
  },
  {
    "name": "LVLS_30",
    "defaultvalue": 0,
    "displayName": "Still not impressed",
    "hidden": 0,
    "description": "Complete 30 levels in Ranking Mode",
    "icon": "https://steamcdn-a.akamaihd.net/steamcommunity/public/images/apps/485730/df2be2e6e8a2c7985cbe7236d2a02219ed5a40bb.jpg",
    "icongray": "https://steamcdn-a.akamaihd.net/steamcommunity/public/images/apps/485730/c46b736af391780e281532c63c31e835acef11e3.jpg"
  },
  {
    "name": "LVLS_40",
    "defaultvalue": 0,
    "displayName": "Dude, you did this!",
    "hidden": 0,
    "description": "Complete all 40 levels in Ranking Mode",
    "icon": "https://steamcdn-a.akamaihd.net/steamcommunity/public/images/apps/485730/e57f07468de047ecf4009023a9b5afab7d5f0573.jpg",
    "icongray": "https://steamcdn-a.akamaihd.net/steamcommunity/public/images/apps/485730/c46b736af391780e281532c63c31e835acef11e3.jpg"
  },
  {
    "name": "QM_PL_10",
    "defaultvalue": 0,
    "displayName": "It's just a 10",
    "hidden": 0,
    "description": "Play 10 Quick Matches",
    "icon": "https://steamcdn-a.akamaihd.net/steamcommunity/public/images/apps/485730/d5762157b5e8fc3834108f5491aeed5996edd7b9.jpg",
    "icongray": "https://steamcdn-a.akamaihd.net/steamcommunity/public/images/apps/485730/c46b736af391780e281532c63c31e835acef11e3.jpg"
  },
  {
    "name": "QM_PL_50",
    "defaultvalue": 0,
    "displayName": "I hope you won't stop",
    "hidden": 0,
    "description": "Play 50 Quick Matches",
    "icon": "https://steamcdn-a.akamaihd.net/steamcommunity/public/images/apps/485730/c1ba2646723f1d3cdcb3e58526347e083c115854.jpg",
    "icongray": "https://steamcdn-a.akamaihd.net/steamcommunity/public/images/apps/485730/c46b736af391780e281532c63c31e835acef11e3.jpg"
  },
  {
    "name": "QM_PL_100",
    "defaultvalue": 0,
    "displayName": "Good job, dude!",
    "hidden": 0,
    "description": "Play 100 Quick Matches",
    "icon": "https://steamcdn-a.akamaihd.net/steamcommunity/public/images/apps/485730/290dfd4c100ec04f74f5d183c1f1c6c1f9006590.jpg",
    "icongray": "https://steamcdn-a.akamaihd.net/steamcommunity/public/images/apps/485730/c46b736af391780e281532c63c31e835acef11e3.jpg"
  },
  {
    "name": "QM_WN_10",
    "defaultvalue": 0,
    "displayName": "Oh, you won something!",
    "hidden": 0,
    "description": "Win 10 Quick Matches",
    "icon": "https://steamcdn-a.akamaihd.net/steamcommunity/public/images/apps/485730/4faf24380a94134161f541824019bac2bec2297d.jpg",
    "icongray": "https://steamcdn-a.akamaihd.net/steamcommunity/public/images/apps/485730/c46b736af391780e281532c63c31e835acef11e3.jpg"
  },
  {
    "name": "QM_WN_25",
    "defaultvalue": 0,
    "displayName": "Now you know how to play",
    "hidden": 0,
    "description": "Win 25 Quick Matches",
    "icon": "https://steamcdn-a.akamaihd.net/steamcommunity/public/images/apps/485730/6dc32136909510332182b088f7086c605c7d5a65.jpg",
    "icongray": "https://steamcdn-a.akamaihd.net/steamcommunity/public/images/apps/485730/c46b736af391780e281532c63c31e835acef11e3.jpg"
  },
  {
    "name": "QM_WN_50",
    "defaultvalue": 0,
    "displayName": "Great! You spent a lot of time on it",
    "hidden": 0,
    "description": "Win 50 Quick Matches",
    "icon": "https://steamcdn-a.akamaihd.net/steamcommunity/public/images/apps/485730/f0a7710dc37e59c2230fc728e69b65cf3d2e40e9.jpg",
    "icongray": "https://steamcdn-a.akamaihd.net/steamcommunity/public/images/apps/485730/c46b736af391780e281532c63c31e835acef11e3.jpg"
  }
]