﻿{
  "Dlcs": {},
  "Name": "Better Off Tread",
  "AppId": "656070",
  "ImageUrl": "https://steamcdn-a.akamaihd.net/steam/apps/656070/header.jpg?t=1547070763",
  "Languages": [
    "english"
  ],
  "Platforms": {
    "windows": true,
    "mac": true,
    "linux": false
  }
}