﻿[
  {
    "name": "TRICK_VR_TREAT",
    "defaultvalue": 0,
    "displayName": "Trick VR Treat",
    "hidden": 0,
    "description": "Earned by completing Hard Mode with pumpkin heads. (Available till Nov 9). Will unlock a pumpkin hat in the near future.",
    "icon": "https://steamcdn-a.akamaihd.net/steamcommunity/public/images/apps/473910/2f63ce04fce9411b790a3567c781428982931319.jpg",
    "icongray": "https://steamcdn-a.akamaihd.net/steamcommunity/public/images/apps/473910/9fc628a20b3a435ae2dc5f794a300b46ae6a9fa7.jpg"
  },
  {
    "name": "SANTA_SLAY",
    "defaultvalue": 0,
    "displayName": "Santa Slay",
    "hidden": 0,
    "description": "Earned by slaying Santa during the winter holiday event.",
    "icon": "https://steamcdn-a.akamaihd.net/steamcommunity/public/images/apps/473910/9719ba8b168d44ada3f5a75efef6ddf12abcb363.jpg",
    "icongray": "https://steamcdn-a.akamaihd.net/steamcommunity/public/images/apps/473910/424043d65063a976f243d8557891d9b555cc16a1.jpg"
  },
  {
    "name": "TREE_TRIMMER",
    "defaultvalue": 0,
    "displayName": "Tree Trimmer",
    "hidden": 1,
    "icon": "https://steamcdn-a.akamaihd.net/steamcommunity/public/images/apps/473910/eb4f9da73fb08fc9a83fcaaffbe53c5571588271.jpg",
    "icongray": "https://steamcdn-a.akamaihd.net/steamcommunity/public/images/apps/473910/77e52eee4f8f537e1d45cbada700e066745d1b03.jpg"
  },
  {
    "name": "VICTOR_TESTING_BOOM",
    "defaultvalue": 0,
    "displayName": "Victor Is Testing This ",
    "hidden": 1,
    "icon": "https://steamcdn-a.akamaihd.net/steamcommunity/public/images/apps/473910/e333f679ddbd87ac2576d40e13cc279e74deb4a9.jpg",
    "icongray": "https://steamcdn-a.akamaihd.net/steamcommunity/public/images/apps/473910/e333f679ddbd87ac2576d40e13cc279e74deb4a9.jpg"
  }
]