﻿{
  "Dlcs": {},
  "Name": "Mortal Online",
  "AppId": "287920",
  "ImageUrl": "https://steamcdn-a.akamaihd.net/steam/apps/287920/header.jpg?t=1567677513",
  "Languages": [
    "english"
  ],
  "Platforms": {
    "windows": true,
    "mac": false,
    "linux": false
  }
}