﻿{
  "Dlcs": {
    "1019280": {
      "Name": "Wild Terra Online - Esquire Pack",
      "ImageUrl": "https://steamcdn-a.akamaihd.net/steam/apps/1019280/header.jpg?t=1573122210"
    },
    "1019290": {
      "Name": "Wild Terra Online - Lord Pack",
      "ImageUrl": "https://steamcdn-a.akamaihd.net/steam/apps/1019290/header.jpg?t=1573122214"
    },
    "1019300": {
      "Name": "Wild Terra Online - Regent Pack",
      "ImageUrl": "https://steamcdn-a.akamaihd.net/steam/apps/1019300/header.jpg?t=1573122216"
    }
  },
  "Name": "Wild Terra Online",
  "AppId": "500710",
  "ImageUrl": "https://steamcdn-a.akamaihd.net/steam/apps/500710/header.jpg?t=1574361316",
  "Languages": [
    "english",
    "german",
    "spanish",
    "bulgarian",
    "polish",
    "portuguese",
    "russian",
    "turkish",
    "schinese",
    "romanian",
    "dutch",
    "french"
  ],
  "Platforms": {
    "windows": true,
    "mac": true,
    "linux": true
  }
}