﻿[
  {
    "name": "Shocked",
    "defaultvalue": 0,
    "displayName": "Shocked",
    "hidden": 0,
    "description": "Witness 20 murders",
    "icon": "https://steamcdn-a.akamaihd.net/steamcommunity/public/images/apps/500790/9fa75c5881ba41ff22f3ace8a83b49fdfafa3a50.jpg",
    "icongray": "https://steamcdn-a.akamaihd.net/steamcommunity/public/images/apps/500790/42349a6bb41775bef53a59083fba591d75702812.jpg"
  },
  {
    "name": "Freaked_Out",
    "defaultvalue": 0,
    "displayName": "Freaked Out",
    "hidden": 0,
    "description": "Witness 100 murders",
    "icon": "https://steamcdn-a.akamaihd.net/steamcommunity/public/images/apps/500790/2a1973e4fbf11a4339d4194756127bc39def0290.jpg",
    "icongray": "https://steamcdn-a.akamaihd.net/steamcommunity/public/images/apps/500790/42349a6bb41775bef53a59083fba591d75702812.jpg"
  },
  {
    "name": "Deranged",
    "defaultvalue": 0,
    "displayName": "Deranged",
    "hidden": 0,
    "description": "Witness 200 murders",
    "icon": "https://steamcdn-a.akamaihd.net/steamcommunity/public/images/apps/500790/1258038348a04752efd51b53522a7a25049c23fb.jpg",
    "icongray": "https://steamcdn-a.akamaihd.net/steamcommunity/public/images/apps/500790/42349a6bb41775bef53a59083fba591d75702812.jpg"
  },
  {
    "name": "Outbreak",
    "defaultvalue": 0,
    "displayName": "Outbreak",
    "hidden": 0,
    "description": "Witness 20 immobilizations",
    "icon": "https://steamcdn-a.akamaihd.net/steamcommunity/public/images/apps/500790/00eb835ba78f0e01966deb222ef8e2f6df4b08ba.jpg",
    "icongray": "https://steamcdn-a.akamaihd.net/steamcommunity/public/images/apps/500790/42349a6bb41775bef53a59083fba591d75702812.jpg"
  },
  {
    "name": "Epidemic",
    "defaultvalue": 0,
    "displayName": "Epidemic",
    "hidden": 0,
    "description": "Witness 100 immobilizations",
    "icon": "https://steamcdn-a.akamaihd.net/steamcommunity/public/images/apps/500790/3e32cb9cc87bc32621a1d10f77f2d4746e0d1b46.jpg",
    "icongray": "https://steamcdn-a.akamaihd.net/steamcommunity/public/images/apps/500790/42349a6bb41775bef53a59083fba591d75702812.jpg"
  },
  {
    "name": "Pandemic",
    "defaultvalue": 0,
    "displayName": "Pandemic",
    "hidden": 0,
    "description": "Witness 200 immobilizations",
    "icon": "https://steamcdn-a.akamaihd.net/steamcommunity/public/images/apps/500790/4ea6ea9835fa8dc4cdf2573f1a4e619680712d34.jpg",
    "icongray": "https://steamcdn-a.akamaihd.net/steamcommunity/public/images/apps/500790/42349a6bb41775bef53a59083fba591d75702812.jpg"
  },
  {
    "name": "Recruit",
    "defaultvalue": 0,
    "displayName": "Recruit",
    "hidden": 0,
    "description": "Play 20 battles",
    "icon": "https://steamcdn-a.akamaihd.net/steamcommunity/public/images/apps/500790/d60dd05b7d868da69c3f47ed3d5f5426f63ae074.jpg",
    "icongray": "https://steamcdn-a.akamaihd.net/steamcommunity/public/images/apps/500790/42349a6bb41775bef53a59083fba591d75702812.jpg"
  },
  {
    "name": "Sergeant",
    "defaultvalue": 0,
    "displayName": "Sergeant",
    "hidden": 0,
    "description": "Play 100 battles",
    "icon": "https://steamcdn-a.akamaihd.net/steamcommunity/public/images/apps/500790/15446acb8693b752031692e675b5d7f4d012b8fe.jpg",
    "icongray": "https://steamcdn-a.akamaihd.net/steamcommunity/public/images/apps/500790/42349a6bb41775bef53a59083fba591d75702812.jpg"
  },
  {
    "name": "Veteran",
    "defaultvalue": 0,
    "displayName": "Veteran",
    "hidden": 0,
    "description": "Play 200 battles",
    "icon": "https://steamcdn-a.akamaihd.net/steamcommunity/public/images/apps/500790/bf69b5293c28655c3b5565d33560806601c83c6b.jpg",
    "icongray": "https://steamcdn-a.akamaihd.net/steamcommunity/public/images/apps/500790/42349a6bb41775bef53a59083fba591d75702812.jpg"
  },
  {
    "name": "Flammable",
    "defaultvalue": 0,
    "displayName": "Flammable",
    "hidden": 0,
    "description": "Cause 20 explosions",
    "icon": "https://steamcdn-a.akamaihd.net/steamcommunity/public/images/apps/500790/15c0c62fe6235a8a24c280217efecf0c24340280.jpg",
    "icongray": "https://steamcdn-a.akamaihd.net/steamcommunity/public/images/apps/500790/42349a6bb41775bef53a59083fba591d75702812.jpg"
  },
  {
    "name": "Explosive",
    "defaultvalue": 0,
    "displayName": "Explosive",
    "hidden": 0,
    "description": "Cause 100 explosions",
    "icon": "https://steamcdn-a.akamaihd.net/steamcommunity/public/images/apps/500790/e2af429371e90c2adb86626954b7358ff49a4f0f.jpg",
    "icongray": "https://steamcdn-a.akamaihd.net/steamcommunity/public/images/apps/500790/42349a6bb41775bef53a59083fba591d75702812.jpg"
  },
  {
    "name": "Michael_Bay",
    "defaultvalue": 0,
    "displayName": "Michael Bay",
    "hidden": 0,
    "description": "Cause 200 explosions",
    "icon": "https://steamcdn-a.akamaihd.net/steamcommunity/public/images/apps/500790/82dd8cc9b5d92ecd6a763dab890365c7f5439036.jpg",
    "icongray": "https://steamcdn-a.akamaihd.net/steamcommunity/public/images/apps/500790/42349a6bb41775bef53a59083fba591d75702812.jpg"
  },
  {
    "name": "Harmful",
    "defaultvalue": 0,
    "displayName": "Harmful",
    "hidden": 0,
    "description": "Have 10 hives activated",
    "icon": "https://steamcdn-a.akamaihd.net/steamcommunity/public/images/apps/500790/3561cd1fcdbdf81533b04c27c1ee20ab01cb6740.jpg",
    "icongray": "https://steamcdn-a.akamaihd.net/steamcommunity/public/images/apps/500790/42349a6bb41775bef53a59083fba591d75702812.jpg"
  },
  {
    "name": "Hazardous",
    "defaultvalue": 0,
    "displayName": "Hazardous",
    "hidden": 0,
    "description": "Have 50 hives activated",
    "icon": "https://steamcdn-a.akamaihd.net/steamcommunity/public/images/apps/500790/0e792d4256c868d159752f510de05ec57599eb9d.jpg",
    "icongray": "https://steamcdn-a.akamaihd.net/steamcommunity/public/images/apps/500790/42349a6bb41775bef53a59083fba591d75702812.jpg"
  },
  {
    "name": "Fatal",
    "defaultvalue": 0,
    "displayName": "Fatal",
    "hidden": 0,
    "description": "Have 100 hives activated",
    "icon": "https://steamcdn-a.akamaihd.net/steamcommunity/public/images/apps/500790/83e2caeaab4079e0c889d154aa37b96c51659c48.jpg",
    "icongray": "https://steamcdn-a.akamaihd.net/steamcommunity/public/images/apps/500790/42349a6bb41775bef53a59083fba591d75702812.jpg"
  },
  {
    "name": "Sadist",
    "defaultvalue": 0,
    "displayName": "Sadist",
    "hidden": 0,
    "description": "Witness 10 suicides",
    "icon": "https://steamcdn-a.akamaihd.net/steamcommunity/public/images/apps/500790/f42cb98d0bd21db86bd45afe505eee829c45bdfe.jpg",
    "icongray": "https://steamcdn-a.akamaihd.net/steamcommunity/public/images/apps/500790/42349a6bb41775bef53a59083fba591d75702812.jpg"
  },
  {
    "name": "Flagellant",
    "defaultvalue": 0,
    "displayName": "Flagellant",
    "hidden": 0,
    "description": "Witness 50 suicides",
    "icon": "https://steamcdn-a.akamaihd.net/steamcommunity/public/images/apps/500790/62781eae15e2cd96e4a7275a652d47f05d38368b.jpg",
    "icongray": "https://steamcdn-a.akamaihd.net/steamcommunity/public/images/apps/500790/42349a6bb41775bef53a59083fba591d75702812.jpg"
  },
  {
    "name": "Masochist",
    "defaultvalue": 0,
    "displayName": "Masochist",
    "hidden": 0,
    "description": "Witness 100 suicides",
    "icon": "https://steamcdn-a.akamaihd.net/steamcommunity/public/images/apps/500790/70c62d44f7047055c4199369dfac72d4c2766b56.jpg",
    "icongray": "https://steamcdn-a.akamaihd.net/steamcommunity/public/images/apps/500790/42349a6bb41775bef53a59083fba591d75702812.jpg"
  },
  {
    "name": "Punk",
    "defaultvalue": 0,
    "displayName": "Punk",
    "hidden": 0,
    "description": "Destroy 10 armor plates",
    "icon": "https://steamcdn-a.akamaihd.net/steamcommunity/public/images/apps/500790/a23923e300385c734da87ab2692c2ad6cc40bfc8.jpg",
    "icongray": "https://steamcdn-a.akamaihd.net/steamcommunity/public/images/apps/500790/42349a6bb41775bef53a59083fba591d75702812.jpg"
  },
  {
    "name": "Thug",
    "defaultvalue": 0,
    "displayName": "Thug",
    "hidden": 0,
    "description": "Destroy 50 armor plates",
    "icon": "https://steamcdn-a.akamaihd.net/steamcommunity/public/images/apps/500790/4f0509cdc613ff3317214b3f2e6925d8509522e0.jpg",
    "icongray": "https://steamcdn-a.akamaihd.net/steamcommunity/public/images/apps/500790/42349a6bb41775bef53a59083fba591d75702812.jpg"
  },
  {
    "name": "Hooligan",
    "defaultvalue": 0,
    "displayName": "Hooligan",
    "hidden": 0,
    "description": "Destroy 100 armor plates",
    "icon": "https://steamcdn-a.akamaihd.net/steamcommunity/public/images/apps/500790/0cae156cce78b826c7e4924d0ea916d83a304d84.jpg",
    "icongray": "https://steamcdn-a.akamaihd.net/steamcommunity/public/images/apps/500790/42349a6bb41775bef53a59083fba591d75702812.jpg"
  },
  {
    "name": "Runner",
    "defaultvalue": 0,
    "displayName": "Runner",
    "hidden": 0,
    "description": "Witness 20 escapes",
    "icon": "https://steamcdn-a.akamaihd.net/steamcommunity/public/images/apps/500790/ce9c30b32eb6aee73da8a75c0c5f17f78cc808ee.jpg",
    "icongray": "https://steamcdn-a.akamaihd.net/steamcommunity/public/images/apps/500790/42349a6bb41775bef53a59083fba591d75702812.jpg"
  },
  {
    "name": "Evader",
    "defaultvalue": 0,
    "displayName": "Evader",
    "hidden": 0,
    "description": "Witness 100 escapes",
    "icon": "https://steamcdn-a.akamaihd.net/steamcommunity/public/images/apps/500790/f0b866316a937bf9a0d211b6832ab47a565081b5.jpg",
    "icongray": "https://steamcdn-a.akamaihd.net/steamcommunity/public/images/apps/500790/42349a6bb41775bef53a59083fba591d75702812.jpg"
  },
  {
    "name": "Escape_Artist",
    "defaultvalue": 0,
    "displayName": "Escape Artist",
    "hidden": 0,
    "description": "Witness 200 escapes",
    "icon": "https://steamcdn-a.akamaihd.net/steamcommunity/public/images/apps/500790/a1d46b60ea429596b4082dd725f091fc1ef374cf.jpg",
    "icongray": "https://steamcdn-a.akamaihd.net/steamcommunity/public/images/apps/500790/42349a6bb41775bef53a59083fba591d75702812.jpg"
  },
  {
    "name": "p10",
    "defaultvalue": 0,
    "displayName": "Collector",
    "hidden": 0,
    "description": "Collect 10 power ups",
    "icon": "https://steamcdn-a.akamaihd.net/steamcommunity/public/images/apps/500790/625eb919e89197990662286c0e662b4fbc128dce.jpg",
    "icongray": "https://steamcdn-a.akamaihd.net/steamcommunity/public/images/apps/500790/42349a6bb41775bef53a59083fba591d75702812.jpg"
  },
  {
    "name": "p50",
    "defaultvalue": 0,
    "displayName": "Cheater",
    "hidden": 0,
    "description": "Collect 50 power ups",
    "icon": "https://steamcdn-a.akamaihd.net/steamcommunity/public/images/apps/500790/877283342fc35fab389b825ad0927896a2351708.jpg",
    "icongray": "https://steamcdn-a.akamaihd.net/steamcommunity/public/images/apps/500790/42349a6bb41775bef53a59083fba591d75702812.jpg"
  },
  {
    "name": "p100",
    "defaultvalue": 0,
    "displayName": "Hacker",
    "hidden": 0,
    "description": "Collect 100 power ups",
    "icon": "https://steamcdn-a.akamaihd.net/steamcommunity/public/images/apps/500790/3df93468fef7727fec08321ecc6a1f48cb61f621.jpg",
    "icongray": "https://steamcdn-a.akamaihd.net/steamcommunity/public/images/apps/500790/42349a6bb41775bef53a59083fba591d75702812.jpg"
  },
  {
    "name": "Icicle1",
    "defaultvalue": 0,
    "displayName": "Pricked",
    "hidden": 0,
    "description": "Drop 10 icicles",
    "icon": "https://steamcdn-a.akamaihd.net/steamcommunity/public/images/apps/500790/2ed2a913189e4823a3e6a422e120d9e5e7c6b3aa.jpg",
    "icongray": "https://steamcdn-a.akamaihd.net/steamcommunity/public/images/apps/500790/42349a6bb41775bef53a59083fba591d75702812.jpg"
  },
  {
    "name": "Icicle2",
    "defaultvalue": 0,
    "displayName": "Stabbed",
    "hidden": 0,
    "description": "Drop 50 icicles",
    "icon": "https://steamcdn-a.akamaihd.net/steamcommunity/public/images/apps/500790/d0d6246d298889dea010903acac538d198018bd3.jpg",
    "icongray": "https://steamcdn-a.akamaihd.net/steamcommunity/public/images/apps/500790/42349a6bb41775bef53a59083fba591d75702812.jpg"
  },
  {
    "name": "Icicle3",
    "defaultvalue": 0,
    "displayName": "Impaled",
    "hidden": 0,
    "description": "Drop 100 icicles",
    "icon": "https://steamcdn-a.akamaihd.net/steamcommunity/public/images/apps/500790/13b587a72ddff8e867c4d3e6d1426ff8b8c85148.jpg",
    "icongray": "https://steamcdn-a.akamaihd.net/steamcommunity/public/images/apps/500790/42349a6bb41775bef53a59083fba591d75702812.jpg"
  },
  {
    "name": "Bouncing_Hive1",
    "defaultvalue": 0,
    "displayName": "Encumbered",
    "hidden": 0,
    "description": "Witness 10 Spore Cluster Activations",
    "icon": "https://steamcdn-a.akamaihd.net/steamcommunity/public/images/apps/500790/e2c55f2772df3529f6a4b1491c0d85f8322dbe8a.jpg",
    "icongray": "https://steamcdn-a.akamaihd.net/steamcommunity/public/images/apps/500790/42349a6bb41775bef53a59083fba591d75702812.jpg"
  },
  {
    "name": "Bouncing_Hive2",
    "defaultvalue": 0,
    "displayName": "Restrained",
    "hidden": 0,
    "description": "Witness 50 Spore Cluster Activations",
    "icon": "https://steamcdn-a.akamaihd.net/steamcommunity/public/images/apps/500790/3d31b18032eaa047175efe2ec508279ae4025958.jpg",
    "icongray": "https://steamcdn-a.akamaihd.net/steamcommunity/public/images/apps/500790/42349a6bb41775bef53a59083fba591d75702812.jpg"
  },
  {
    "name": "Bouncing_Hive3",
    "defaultvalue": 0,
    "displayName": "Immobilized",
    "hidden": 0,
    "description": "Witness 100 Spore Cluster Activations",
    "icon": "https://steamcdn-a.akamaihd.net/steamcommunity/public/images/apps/500790/46a033b400c6677b49fecf300a8fb1c494f0752e.jpg",
    "icongray": "https://steamcdn-a.akamaihd.net/steamcommunity/public/images/apps/500790/42349a6bb41775bef53a59083fba591d75702812.jpg"
  },
  {
    "name": "Fake_Walls1",
    "defaultvalue": 0,
    "displayName": "Sneaky",
    "hidden": 0,
    "description": "Witness 20 Fake Wall Activations",
    "icon": "https://steamcdn-a.akamaihd.net/steamcommunity/public/images/apps/500790/e9e0be86cfa78e5199e41cf663462ae7a0bd9f07.jpg",
    "icongray": "https://steamcdn-a.akamaihd.net/steamcommunity/public/images/apps/500790/42349a6bb41775bef53a59083fba591d75702812.jpg"
  },
  {
    "name": "Fake_Walls2",
    "defaultvalue": 0,
    "displayName": "Cunning",
    "hidden": 0,
    "description": "Witness 100 Fake Wall Activations",
    "icon": "https://steamcdn-a.akamaihd.net/steamcommunity/public/images/apps/500790/0ae11a8700977f0ec9406acd79909bfbbb3c24d3.jpg",
    "icongray": "https://steamcdn-a.akamaihd.net/steamcommunity/public/images/apps/500790/42349a6bb41775bef53a59083fba591d75702812.jpg"
  },
  {
    "name": "Fake_Walls3",
    "defaultvalue": 0,
    "displayName": "Devious",
    "hidden": 0,
    "description": "Witness 200 Fake Wall Activations",
    "icon": "https://steamcdn-a.akamaihd.net/steamcommunity/public/images/apps/500790/8eb4298ea852b0f6c85a9ad920b6e6e2613e6707.jpg",
    "icongray": "https://steamcdn-a.akamaihd.net/steamcommunity/public/images/apps/500790/42349a6bb41775bef53a59083fba591d75702812.jpg"
  },
  {
    "name": "Flamethrower1",
    "defaultvalue": 0,
    "displayName": "Firebug",
    "hidden": 0,
    "description": "Witness 20 Flamethrower Activations",
    "icon": "https://steamcdn-a.akamaihd.net/steamcommunity/public/images/apps/500790/e4919a230e2d5930214c69bb90f0e510e2f4af46.jpg",
    "icongray": "https://steamcdn-a.akamaihd.net/steamcommunity/public/images/apps/500790/42349a6bb41775bef53a59083fba591d75702812.jpg"
  },
  {
    "name": "Flamethrower2",
    "defaultvalue": 0,
    "displayName": "Arsonist",
    "hidden": 0,
    "description": "Witness 100 Flamethrower Activations",
    "icon": "https://steamcdn-a.akamaihd.net/steamcommunity/public/images/apps/500790/8fec275b35fbf370458c0bdaeb04cfa9f5108bc3.jpg",
    "icongray": "https://steamcdn-a.akamaihd.net/steamcommunity/public/images/apps/500790/42349a6bb41775bef53a59083fba591d75702812.jpg"
  },
  {
    "name": "Flamethrower3",
    "defaultvalue": 0,
    "displayName": "Pyromaniac",
    "hidden": 0,
    "description": "Witness 200 Flamethrower Activations",
    "icon": "https://steamcdn-a.akamaihd.net/steamcommunity/public/images/apps/500790/a83b3d532ab79ac29ae9c629e2dc260214b94abe.jpg",
    "icongray": "https://steamcdn-a.akamaihd.net/steamcommunity/public/images/apps/500790/42349a6bb41775bef53a59083fba591d75702812.jpg"
  },
  {
    "name": "Challenge3",
    "defaultvalue": 0,
    "displayName": "Completionist v1",
    "hidden": 0,
    "description": "Complete the 1st challenge",
    "icon": "https://steamcdn-a.akamaihd.net/steamcommunity/public/images/apps/500790/821ed91d7a5375472392087fd21f4acccb3f8a04.jpg",
    "icongray": "https://steamcdn-a.akamaihd.net/steamcommunity/public/images/apps/500790/42349a6bb41775bef53a59083fba591d75702812.jpg"
  },
  {
    "name": "Challenge5",
    "defaultvalue": 0,
    "displayName": "Completionist v2",
    "hidden": 0,
    "description": "Complete the 2nd challenge",
    "icon": "https://steamcdn-a.akamaihd.net/steamcommunity/public/images/apps/500790/88457540acfe7924017b8f1c562362f8b5a4d06d.jpg",
    "icongray": "https://steamcdn-a.akamaihd.net/steamcommunity/public/images/apps/500790/42349a6bb41775bef53a59083fba591d75702812.jpg"
  },
  {
    "name": "Challenge1",
    "defaultvalue": 0,
    "displayName": "Completionist v3",
    "hidden": 0,
    "description": "Complete the 3rd challenge",
    "icon": "https://steamcdn-a.akamaihd.net/steamcommunity/public/images/apps/500790/dd6a8301e1bb50e0b6347377ecc888e829aabbf2.jpg",
    "icongray": "https://steamcdn-a.akamaihd.net/steamcommunity/public/images/apps/500790/42349a6bb41775bef53a59083fba591d75702812.jpg"
  },
  {
    "name": "Challenge2",
    "defaultvalue": 0,
    "displayName": "Completionist v4",
    "hidden": 0,
    "description": "Complete the 4th challenge",
    "icon": "https://steamcdn-a.akamaihd.net/steamcommunity/public/images/apps/500790/05826c832dbecdd2ae5df66fbccd75725dea1d52.jpg",
    "icongray": "https://steamcdn-a.akamaihd.net/steamcommunity/public/images/apps/500790/42349a6bb41775bef53a59083fba591d75702812.jpg"
  },
  {
    "name": "Challenge4",
    "defaultvalue": 0,
    "displayName": "Completionist v5",
    "hidden": 0,
    "description": "Complete the 5th challenge",
    "icon": "https://steamcdn-a.akamaihd.net/steamcommunity/public/images/apps/500790/e65817d816719cbd9c3f75c4c4651e9b514e48c8.jpg",
    "icongray": "https://steamcdn-a.akamaihd.net/steamcommunity/public/images/apps/500790/42349a6bb41775bef53a59083fba591d75702812.jpg"
  },
  {
    "name": "Challenge6",
    "defaultvalue": 0,
    "displayName": "Completionist v6",
    "hidden": 0,
    "description": "Complete the 6th challenge",
    "icon": "https://steamcdn-a.akamaihd.net/steamcommunity/public/images/apps/500790/9dd30e3bdc66556108324824de25728404930c50.jpg",
    "icongray": "https://steamcdn-a.akamaihd.net/steamcommunity/public/images/apps/500790/42349a6bb41775bef53a59083fba591d75702812.jpg"
  },
  {
    "name": "Challenge7",
    "defaultvalue": 0,
    "displayName": "Completionist v7",
    "hidden": 0,
    "description": "Complete the 7th challenge",
    "icon": "https://steamcdn-a.akamaihd.net/steamcommunity/public/images/apps/500790/f3dc73822c26d3ee3ae460acab332a572be800ff.jpg",
    "icongray": "https://steamcdn-a.akamaihd.net/steamcommunity/public/images/apps/500790/42349a6bb41775bef53a59083fba591d75702812.jpg"
  },
  {
    "name": "Challenge8",
    "defaultvalue": 0,
    "displayName": "Completionist v8",
    "hidden": 0,
    "description": "Complete the 8th challenge",
    "icon": "https://steamcdn-a.akamaihd.net/steamcommunity/public/images/apps/500790/812b0b0a7a31590f3775343d745cd98526f046a7.jpg",
    "icongray": "https://steamcdn-a.akamaihd.net/steamcommunity/public/images/apps/500790/42349a6bb41775bef53a59083fba591d75702812.jpg"
  },
  {
    "name": "Challenge9",
    "defaultvalue": 0,
    "displayName": "Completionist v9",
    "hidden": 0,
    "description": "Complete the 9th challenge",
    "icon": "https://steamcdn-a.akamaihd.net/steamcommunity/public/images/apps/500790/09d16a065d1793d9a761a5bc80036452a77493f9.jpg",
    "icongray": "https://steamcdn-a.akamaihd.net/steamcommunity/public/images/apps/500790/42349a6bb41775bef53a59083fba591d75702812.jpg"
  },
  {
    "name": "Challenge10",
    "defaultvalue": 0,
    "displayName": "Completionist v10",
    "hidden": 0,
    "description": "Complete the 10th challenge",
    "icon": "https://steamcdn-a.akamaihd.net/steamcommunity/public/images/apps/500790/a36ea1e18e21a2db370264c09317cf700517ef64.jpg",
    "icongray": "https://steamcdn-a.akamaihd.net/steamcommunity/public/images/apps/500790/42349a6bb41775bef53a59083fba591d75702812.jpg"
  },
  {
    "name": "Challenge11",
    "defaultvalue": 0,
    "displayName": "Completionist v11",
    "hidden": 0,
    "description": "Complete the 11th challenge",
    "icon": "https://steamcdn-a.akamaihd.net/steamcommunity/public/images/apps/500790/66ad8e474e6663a20e6fd939aeb27649d4f2e299.jpg",
    "icongray": "https://steamcdn-a.akamaihd.net/steamcommunity/public/images/apps/500790/42349a6bb41775bef53a59083fba591d75702812.jpg"
  },
  {
    "name": "Challenge12",
    "defaultvalue": 0,
    "displayName": "Completionist v12",
    "hidden": 0,
    "description": "Complete the 12th challenge",
    "icon": "https://steamcdn-a.akamaihd.net/steamcommunity/public/images/apps/500790/4fad1380f9b01d75b675e6438e1416d4641e3489.jpg",
    "icongray": "https://steamcdn-a.akamaihd.net/steamcommunity/public/images/apps/500790/42349a6bb41775bef53a59083fba591d75702812.jpg"
  },
  {
    "name": "Challenge13",
    "defaultvalue": 0,
    "displayName": "Completionist v13",
    "hidden": 0,
    "description": "Complete the 13th challenge",
    "icon": "https://steamcdn-a.akamaihd.net/steamcommunity/public/images/apps/500790/c365adf55ba211af396d2dd1b4f6a528a1a05d89.jpg",
    "icongray": "https://steamcdn-a.akamaihd.net/steamcommunity/public/images/apps/500790/42349a6bb41775bef53a59083fba591d75702812.jpg"
  },
  {
    "name": "Challenge14",
    "defaultvalue": 0,
    "displayName": "Completionist v14",
    "hidden": 0,
    "description": "Complete the 14th challenge",
    "icon": "https://steamcdn-a.akamaihd.net/steamcommunity/public/images/apps/500790/a3c2bc4ade7919da1a629cbf35a5d612b1b05db3.jpg",
    "icongray": "https://steamcdn-a.akamaihd.net/steamcommunity/public/images/apps/500790/42349a6bb41775bef53a59083fba591d75702812.jpg"
  },
  {
    "name": "Challenge15",
    "defaultvalue": 0,
    "displayName": "Completionist v15",
    "hidden": 0,
    "description": "Complete the 15th challenge",
    "icon": "https://steamcdn-a.akamaihd.net/steamcommunity/public/images/apps/500790/e5d0704cb3b23f08f3a288fd0f25cce2103a8387.jpg",
    "icongray": "https://steamcdn-a.akamaihd.net/steamcommunity/public/images/apps/500790/42349a6bb41775bef53a59083fba591d75702812.jpg"
  }
]