﻿[
  {
    "name": "murders",
    "defaultvalue": 0,
    "displayName": "murders"
  },
  {
    "name": "immobilizations",
    "defaultvalue": 0,
    "displayName": "immobilizations"
  },
  {
    "name": "gamesPlayed",
    "defaultvalue": 0,
    "displayName": "gamesPlayed"
  },
  {
    "name": "explosions",
    "defaultvalue": 0,
    "displayName": "explosions"
  },
  {
    "name": "hivesActivated",
    "defaultvalue": 0,
    "displayName": "hivesActivated"
  },
  {
    "name": "suicides",
    "defaultvalue": 0,
    "displayName": "suicides"
  },
  {
    "name": "destroyPlates",
    "defaultvalue": 0,
    "displayName": "destroyPlates"
  },
  {
    "name": "escapes",
    "defaultvalue": 0,
    "displayName": "escapes"
  },
  {
    "name": "powerUpTaken",
    "defaultvalue": 0,
    "displayName": "powerUpTaken"
  },
  {
    "name": "knockbacks",
    "defaultvalue": 0,
    "displayName": "knockbacks"
  },
  {
    "name": "icicles",
    "defaultvalue": 0,
    "displayName": "icicles"
  },
  {
    "name": "bouncingHives",
    "defaultvalue": 0,
    "displayName": "bouncingHives"
  },
  {
    "name": "fakeWalls",
    "defaultvalue": 0,
    "displayName": "fakeWalls"
  },
  {
    "name": "flamethrower",
    "defaultvalue": 0,
    "displayName": "flamethrower"
  },
  {
    "name": "challenge1",
    "defaultvalue": 0,
    "displayName": "challenge1"
  },
  {
    "name": "challenge2",
    "defaultvalue": 0,
    "displayName": "challenge2"
  },
  {
    "name": "challenge3",
    "defaultvalue": 0,
    "displayName": "challenge3"
  },
  {
    "name": "challenge4",
    "defaultvalue": 0,
    "displayName": "challenge4"
  },
  {
    "name": "challenge5",
    "defaultvalue": 0,
    "displayName": "challenge5"
  },
  {
    "name": "challenge6",
    "defaultvalue": 0,
    "displayName": "challenge6"
  },
  {
    "name": "challenge7",
    "defaultvalue": 0,
    "displayName": "challenge7"
  },
  {
    "name": "challenge8",
    "defaultvalue": 0,
    "displayName": "challenge8"
  },
  {
    "name": "challenge9",
    "defaultvalue": 0,
    "displayName": "challenge9"
  },
  {
    "name": "challenge10",
    "defaultvalue": 0,
    "displayName": "challenge10"
  },
  {
    "name": "challenge11",
    "defaultvalue": 0,
    "displayName": "challenge11"
  },
  {
    "name": "challenge12",
    "defaultvalue": 0,
    "displayName": "challenge12"
  },
  {
    "name": "challenge13",
    "defaultvalue": 0,
    "displayName": "challenge13"
  },
  {
    "name": "challenge14",
    "defaultvalue": 0,
    "displayName": "challenge14"
  },
  {
    "name": "challenge15",
    "defaultvalue": 0,
    "displayName": "challenge15"
  }
]