﻿{
  "Dlcs": {},
  "Name": "Rise of the Triad: Dark War",
  "AppId": "358410",
  "ImageUrl": "https://steamcdn-a.akamaihd.net/steam/apps/358410/header.jpg?t=1567627639",
  "Languages": [
    "english"
  ],
  "Platforms": {
    "windows": true,
    "mac": true,
    "linux": false
  }
}