﻿{
  "Dlcs": {},
  "Name": "强军",
  "AppId": "825380",
  "ImageUrl": "https://steamcdn-a.akamaihd.net/steam/apps/825380/header.jpg?t=1534872591",
  "Languages": [
    "schinese"
  ],
  "Platforms": {
    "windows": true,
    "mac": false,
    "linux": false
  }
}