﻿{
  "Dlcs": {},
  "Name": "Spooky Night",
  "AppId": "557670",
  "ImageUrl": "https://steamcdn-a.akamaihd.net/steam/apps/557670/header.jpg?t=1584633505",
  "Languages": [
    "english"
  ],
  "Platforms": {
    "windows": true,
    "mac": false,
    "linux": false
  }
}