﻿[
  {
    "name": "liao_attaked_by_lpd",
    "defaultvalue": 0,
    "displayName": "Who Knows What the Future Will Bring",
    "hidden": 1,
    "icon": "https://steamcdn-a.akamaihd.net/steamcommunity/public/images/apps/570840/ddfe9e1f06070cac857742d91960b9336808fd44.jpg",
    "icongray": "https://steamcdn-a.akamaihd.net/steamcommunity/public/images/apps/570840/d2e84f1abc585ccf5e1c9c6313f4f6d153e39959.jpg"
  },
  {
    "name": "tig_modern_end",
    "defaultvalue": 0,
    "displayName": "Modern Tiger",
    "hidden": 1,
    "icon": "https://steamcdn-a.akamaihd.net/steamcommunity/public/images/apps/570840/6e4bdaddb2125d2c9508a5b7de2b03b74c8cd397.jpg",
    "icongray": "https://steamcdn-a.akamaihd.net/steamcommunity/public/images/apps/570840/dd5fdccc8653135cd3959937c68e8e3924945a5b.jpg"
  },
  {
    "name": "tig_traditional_end",
    "defaultvalue": 0,
    "displayName": "Come home with me?",
    "hidden": 1,
    "icon": "https://steamcdn-a.akamaihd.net/steamcommunity/public/images/apps/570840/d6ee2836ee4dced16a4ca12f6cbf116f56b5efd3.jpg",
    "icongray": "https://steamcdn-a.akamaihd.net/steamcommunity/public/images/apps/570840/aa7b2f5ac08bc9050ae6a1c382d53efb39d4d22b.jpg"
  },
  {
    "name": "lpd_good_end",
    "defaultvalue": 0,
    "displayName": "Remote Control",
    "hidden": 1,
    "icon": "https://steamcdn-a.akamaihd.net/steamcommunity/public/images/apps/570840/1812bf49860d295bf2466adf851c7fd919d29ec4.jpg",
    "icongray": "https://steamcdn-a.akamaihd.net/steamcommunity/public/images/apps/570840/8b6ba40be6bb550c087d6da34a39224284ad8005.jpg"
  },
  {
    "name": "lpdcat_good_end",
    "defaultvalue": 0,
    "displayName": "Big Kitties in the House",
    "hidden": 1,
    "icon": "https://steamcdn-a.akamaihd.net/steamcommunity/public/images/apps/570840/e37542418f990dfeb42d78e6577b0f765a912b79.jpg",
    "icongray": "https://steamcdn-a.akamaihd.net/steamcommunity/public/images/apps/570840/f576f773e5790023166adb75158ab17ac88449b4.jpg"
  },
  {
    "name": "general_life_end",
    "defaultvalue": 0,
    "displayName": "A Return to the Ordinary",
    "hidden": 1,
    "icon": "https://steamcdn-a.akamaihd.net/steamcommunity/public/images/apps/570840/929780c1c0d0c86faaba1df8f7b8e12102681b06.jpg",
    "icongray": "https://steamcdn-a.akamaihd.net/steamcommunity/public/images/apps/570840/d2ba834fe1179e070c55eea1cd33d0c81789877b.jpg"
  },
  {
    "name": "collect_all_info",
    "defaultvalue": 0,
    "displayName": "Fully Understood",
    "hidden": 1,
    "icon": "https://steamcdn-a.akamaihd.net/steamcommunity/public/images/apps/570840/51d110a0941901401e513b748d35628edddd70da.jpg",
    "icongray": "https://steamcdn-a.akamaihd.net/steamcommunity/public/images/apps/570840/e624c600d32eb89da76d379a6aa41cbcca6be1a1.jpg"
  },
  {
    "name": "collect_all_cg",
    "defaultvalue": 0,
    "displayName": "All Those Memories",
    "hidden": 1,
    "icon": "https://steamcdn-a.akamaihd.net/steamcommunity/public/images/apps/570840/182c57df08ba2e385cabc41a722b963bf531ea77.jpg",
    "icongray": "https://steamcdn-a.akamaihd.net/steamcommunity/public/images/apps/570840/3c9018f2fa00ab52962d8f9deb1fa86a2d52214d.jpg"
  },
  {
    "name": "collect_all_died_end",
    "defaultvalue": 0,
    "displayName": "Two Cats, Three Lives",
    "hidden": 1,
    "icon": "https://steamcdn-a.akamaihd.net/steamcommunity/public/images/apps/570840/c74059eb4b7c66d157b5c5b6fa7ec90fb7caaf01.jpg",
    "icongray": "https://steamcdn-a.akamaihd.net/steamcommunity/public/images/apps/570840/2627976cb78be246746b23913d06929e33edb464.jpg"
  },
  {
    "name": "collect_all_bad_end",
    "defaultvalue": 0,
    "displayName": "Not Every Story Has a Happy Ending",
    "hidden": 1,
    "icon": "https://steamcdn-a.akamaihd.net/steamcommunity/public/images/apps/570840/53c5a97719c21ac47b40792f5ed0682dc7572e98.jpg",
    "icongray": "https://steamcdn-a.akamaihd.net/steamcommunity/public/images/apps/570840/ca6e30c6502dda528854fd6abd130107906da54e.jpg"
  },
  {
    "name": "collect_all",
    "defaultvalue": 0,
    "displayName": "Nekojishi",
    "hidden": 1,
    "icon": "https://steamcdn-a.akamaihd.net/steamcommunity/public/images/apps/570840/c1ed34f4028955cfc2a5889b4c2475da0a779efa.jpg",
    "icongray": "https://steamcdn-a.akamaihd.net/steamcommunity/public/images/apps/570840/fbb49e7cca8b731bef7eb2c2c47b0b37590ecfd5.jpg"
  },
  {
    "name": "no_no_no",
    "defaultvalue": 0,
    "displayName": "The Life of a Broke College Student",
    "hidden": 1,
    "icon": "https://steamcdn-a.akamaihd.net/steamcommunity/public/images/apps/570840/8e9f5167b397a9d7431f13d2f8c026f108d33f42.jpg",
    "icongray": "https://steamcdn-a.akamaihd.net/steamcommunity/public/images/apps/570840/f88e5062a40effa4043743cc81e62da6e248e015.jpg"
  },
  {
    "name": "buy_buy_buy",
    "defaultvalue": 0,
    "displayName": "BUY, BUY, BUY!",
    "hidden": 1,
    "icon": "https://steamcdn-a.akamaihd.net/steamcommunity/public/images/apps/570840/df103cabd4091475299e5f7afb503b4be3bee67d.jpg",
    "icongray": "https://steamcdn-a.akamaihd.net/steamcommunity/public/images/apps/570840/9df67b71af1b7e9d427765be667abbd09c1532db.jpg"
  },
  {
    "name": "tig_high",
    "defaultvalue": 0,
    "displayName": "To Hold Your Hand",
    "hidden": 1,
    "icon": "https://steamcdn-a.akamaihd.net/steamcommunity/public/images/apps/570840/2970f72070cbcc1e29761307540fa8ebd53f7dec.jpg",
    "icongray": "https://steamcdn-a.akamaihd.net/steamcommunity/public/images/apps/570840/71dbb39fd5dcbd6abb89a56bc5857f93aa5f5dd2.jpg"
  },
  {
    "name": "lpd_high",
    "defaultvalue": 0,
    "displayName": "Help you… You help me",
    "hidden": 1,
    "icon": "https://steamcdn-a.akamaihd.net/steamcommunity/public/images/apps/570840/3ee71da7a2632cf0675f0e484f8a2461cb0ace82.jpg",
    "icongray": "https://steamcdn-a.akamaihd.net/steamcommunity/public/images/apps/570840/1f880d54860d36fcd98d10a5d116c0d83705d007.jpg"
  },
  {
    "name": "lpdcat_high",
    "defaultvalue": 0,
    "displayName": "A Long Road",
    "hidden": 1,
    "icon": "https://steamcdn-a.akamaihd.net/steamcommunity/public/images/apps/570840/3e59e3688d3b8d5eac6cc96c8b6d51a75192d6e9.jpg",
    "icongray": "https://steamcdn-a.akamaihd.net/steamcommunity/public/images/apps/570840/b23df780fb0ba83d925e9c9d089f851b37f456d4.jpg"
  },
  {
    "name": "almost_survive_lpd",
    "defaultvalue": 0,
    "displayName": "I Thought We Were Friends",
    "hidden": 1,
    "icon": "https://steamcdn-a.akamaihd.net/steamcommunity/public/images/apps/570840/5d1e50e1e2f78a12b0d834c6bffb8afb03c2705a.jpg",
    "icongray": "https://steamcdn-a.akamaihd.net/steamcommunity/public/images/apps/570840/a1432ce851f51c075c27e6af9c36a6efede1950a.jpg"
  },
  {
    "name": "lpd_hate_you",
    "defaultvalue": 0,
    "displayName": "You Deserve This",
    "hidden": 1,
    "icon": "https://steamcdn-a.akamaihd.net/steamcommunity/public/images/apps/570840/23156a8dfb892cf7590da4169796cbe84e46401a.jpg",
    "icongray": "https://steamcdn-a.akamaihd.net/steamcommunity/public/images/apps/570840/bc0f47833684c1ec4fe29eaf7c92269b260e2017.jpg"
  },
  {
    "name": "lpdcat_sorry_to_kill_you",
    "defaultvalue": 0,
    "displayName": "I’m so sorry…",
    "hidden": 1,
    "icon": "https://steamcdn-a.akamaihd.net/steamcommunity/public/images/apps/570840/00e13be764dd4eb376b50608e569a46b6e0afdbc.jpg",
    "icongray": "https://steamcdn-a.akamaihd.net/steamcommunity/public/images/apps/570840/86bd52dc43b8aad69df728b97db4ff3bc88a94a2.jpg"
  },
  {
    "name": "sorry_to_kill_lpdcat",
    "defaultvalue": 0,
    "displayName": "The Decision Point",
    "hidden": 1,
    "icon": "https://steamcdn-a.akamaihd.net/steamcommunity/public/images/apps/570840/6dcec6321bc7503f9b468adcbdb6622639443a82.jpg",
    "icongray": "https://steamcdn-a.akamaihd.net/steamcommunity/public/images/apps/570840/8b9da4eab6f0b115f6f9ad0aef69f7889e8c2f9e.jpg"
  },
  {
    "name": "i_hate_lpdcat",
    "defaultvalue": 0,
    "displayName": "I Didn’t Love Him Anyway",
    "hidden": 1,
    "icon": "https://steamcdn-a.akamaihd.net/steamcommunity/public/images/apps/570840/d6889d8f6d3a8c96a2bf1e5b18778924825d729c.jpg",
    "icongray": "https://steamcdn-a.akamaihd.net/steamcommunity/public/images/apps/570840/8ecc136d9971504388553b6e241e1c2882807bbb.jpg"
  },
  {
    "name": "regret_in_general_end",
    "defaultvalue": 0,
    "displayName": "Do You Miss Him?",
    "hidden": 1,
    "icon": "https://steamcdn-a.akamaihd.net/steamcommunity/public/images/apps/570840/cfb78f34fc6fd091b36add6cdb9c48e64502d648.jpg",
    "icongray": "https://steamcdn-a.akamaihd.net/steamcommunity/public/images/apps/570840/e8ebe17712d760df0f5fc7aef26b96cc73622f49.jpg"
  },
  {
    "name": "all_sponsor_show",
    "defaultvalue": 0,
    "displayName": "Special Guests",
    "hidden": 1,
    "icon": "https://steamcdn-a.akamaihd.net/steamcommunity/public/images/apps/570840/47555ee1895aa7d85e597fdc8d60d7ce3509d887.jpg",
    "icongray": "https://steamcdn-a.akamaihd.net/steamcommunity/public/images/apps/570840/44b3aca671e25cd91dd00636ac2d968f32e6204b.jpg"
  },
  {
    "name": "thicker_than_blood",
    "defaultvalue": 0,
    "displayName": "Thicker Than Blood",
    "hidden": 1,
    "icon": "https://steamcdn-a.akamaihd.net/steamcommunity/public/images/apps/570840/548ae799ec4dd6753d496d69191d907a1bd5dd18.jpg",
    "icongray": "https://steamcdn-a.akamaihd.net/steamcommunity/public/images/apps/570840/3a105bee799456ef416e7e09b6dd565caa79e94f.jpg"
  }
]