﻿{
  "Dlcs": {
    "430400": {
      "Name": "The Slaughter: Act One Soundtrack",
      "ImageUrl": "https://steamcdn-a.akamaihd.net/steam/apps/430400/header.jpg?t=1454005677"
    }
  },
  "Name": "The Slaughter: Act One",
  "AppId": "356390",
  "ImageUrl": "https://steamcdn-a.akamaihd.net/steam/apps/356390/header.jpg?t=1593012964",
  "Languages": [
    "english"
  ],
  "Platforms": {
    "windows": true,
    "mac": true,
    "linux": true
  }
}