﻿{
  "Dlcs": {},
  "Name": "Sam & Max 302: The Tomb of Sammun-Mak",
  "AppId": "31230",
  "ImageUrl": "https://steamcdn-a.akamaihd.net/steam/apps/31230/header.jpg?t=1583185702",
  "Languages": [
    "english"
  ],
  "Platforms": {
    "windows": true,
    "mac": true,
    "linux": false
  }
}