﻿{
  "Dlcs": {},
  "Name": "公主的逃脱日常",
  "AppId": "779560",
  "ImageUrl": "https://steamcdn-a.akamaihd.net/steam/apps/779560/header.jpg?t=1520473112",
  "Languages": [
    "schinese"
  ],
  "Platforms": {
    "windows": true,
    "mac": false,
    "linux": false
  }
}