﻿[
  {
    "name": "CRAFT_CAMPFIRE",
    "defaultvalue": 0,
    "displayName": "Craft a Campfire",
    "hidden": 0,
    "description": "Craft a Campfire",
    "icon": "https://steamcdn-a.akamaihd.net/steamcommunity/public/images/apps/695360/c1278a49ac5898c67f344f99bd8ed88240fed682.jpg",
    "icongray": "https://steamcdn-a.akamaihd.net/steamcommunity/public/images/apps/695360/080f73b9170f86fb2fcc86f64cadeb3715c0cebf.jpg"
  },
  {
    "name": "PLACE_CAMPFIRE",
    "defaultvalue": 0,
    "displayName": "Place a Campfire",
    "hidden": 0,
    "description": "Place a Campfire",
    "icon": "https://steamcdn-a.akamaihd.net/steamcommunity/public/images/apps/695360/c1278a49ac5898c67f344f99bd8ed88240fed682.jpg",
    "icongray": "https://steamcdn-a.akamaihd.net/steamcommunity/public/images/apps/695360/d83d98a8ef87c08baf1cfcd719a68d2b901d1f26.jpg"
  },
  {
    "name": "CRAFT_BED",
    "defaultvalue": 0,
    "displayName": "Craft a Bed",
    "hidden": 0,
    "description": "Craft a Bed",
    "icon": "https://steamcdn-a.akamaihd.net/steamcommunity/public/images/apps/695360/c897c8c21634bae485a56effb91344886aa58e55.jpg",
    "icongray": "https://steamcdn-a.akamaihd.net/steamcommunity/public/images/apps/695360/a0309cdf9a19cb9cd0bb02f0315a8e5ffe82ce06.jpg"
  },
  {
    "name": "PLACE_BED",
    "defaultvalue": 0,
    "displayName": "Place a Bed",
    "hidden": 0,
    "description": "Place a Bed",
    "icon": "https://steamcdn-a.akamaihd.net/steamcommunity/public/images/apps/695360/c897c8c21634bae485a56effb91344886aa58e55.jpg",
    "icongray": "https://steamcdn-a.akamaihd.net/steamcommunity/public/images/apps/695360/a0309cdf9a19cb9cd0bb02f0315a8e5ffe82ce06.jpg"
  },
  {
    "name": "COLLECT_100_STONE",
    "defaultvalue": 0,
    "displayName": "Collect 100 Stone",
    "hidden": 0,
    "description": "Collect 100 Stone",
    "icon": "https://steamcdn-a.akamaihd.net/steamcommunity/public/images/apps/695360/124caa4068e6aaf046cae96eecccce1af1e4dfab.jpg",
    "icongray": "https://steamcdn-a.akamaihd.net/steamcommunity/public/images/apps/695360/728acc2d916195d4d72eec64bcdfa602a8fe6e6e.jpg"
  },
  {
    "name": "COLLECT_100_WOOD",
    "defaultvalue": 0,
    "displayName": "Collect 100 Wood",
    "hidden": 0,
    "description": "Collect 100 Wood",
    "icon": "https://steamcdn-a.akamaihd.net/steamcommunity/public/images/apps/695360/fd4426a1daaabeb50d3c6df83ca4823915128007.jpg",
    "icongray": "https://steamcdn-a.akamaihd.net/steamcommunity/public/images/apps/695360/4ba994a1a093e3f5ffe19aaaa5105a6c945a46d2.jpg"
  },
  {
    "name": "COLLECT_100_THATCH",
    "defaultvalue": 0,
    "displayName": "Collect 100 Thatch",
    "hidden": 0,
    "description": "Collect 100 Thatch",
    "icon": "https://steamcdn-a.akamaihd.net/steamcommunity/public/images/apps/695360/bf8dddcf7a231a6e87911d36cbb78eebfdfee317.jpg",
    "icongray": "https://steamcdn-a.akamaihd.net/steamcommunity/public/images/apps/695360/ad56f695b56f13029c9915e749954d6753fcafb2.jpg"
  },
  {
    "name": "COLLECT_20_HEMP",
    "defaultvalue": 0,
    "displayName": "Collect 20 Hemp",
    "hidden": 0,
    "description": "Collect 20 Hemp",
    "icon": "https://steamcdn-a.akamaihd.net/steamcommunity/public/images/apps/695360/e16b88c1e110c853eef70669d799cab2b604a4f1.jpg",
    "icongray": "https://steamcdn-a.akamaihd.net/steamcommunity/public/images/apps/695360/adb42d14ef1dd510f132a1c4c5c43591d970ebc5.jpg"
  },
  {
    "name": "CREATE_BASE_COMPONENT",
    "defaultvalue": 0,
    "displayName": "Craft a structure piece",
    "hidden": 0,
    "description": "Craft a structure piece",
    "icon": "https://steamcdn-a.akamaihd.net/steamcommunity/public/images/apps/695360/a0afdf89211904cd3f1ec283069a28d822fb03be.jpg",
    "icongray": "https://steamcdn-a.akamaihd.net/steamcommunity/public/images/apps/695360/6904a15e1cd348fbc93965ce84e9b222b0e71fe1.jpg"
  },
  {
    "name": "CRAFT_CLOTHING",
    "defaultvalue": 0,
    "displayName": "Craft a Piece of Clothing",
    "hidden": 0,
    "description": "Craft a Piece of Clothing",
    "icon": "https://steamcdn-a.akamaihd.net/steamcommunity/public/images/apps/695360/eae02eabf7dd0813f270fac263f0a51efe8a914d.jpg",
    "icongray": "https://steamcdn-a.akamaihd.net/steamcommunity/public/images/apps/695360/7b61af7350df3621087fa397f69ec2f6b58ad851.jpg"
  },
  {
    "name": "CRAFT_FURNACE",
    "defaultvalue": 0,
    "displayName": "Craft a Furance",
    "hidden": 0,
    "description": "Craft a Furnace",
    "icon": "https://steamcdn-a.akamaihd.net/steamcommunity/public/images/apps/695360/287b9391b75b661aac455193ecbd251e0ee044f9.jpg",
    "icongray": "https://steamcdn-a.akamaihd.net/steamcommunity/public/images/apps/695360/a71853628b1c67646d9dd4d7324394010e310ffe.jpg"
  },
  {
    "name": "MAX_LEVEL",
    "defaultvalue": 0,
    "displayName": "Reach the max level (99)",
    "hidden": 0,
    "description": "Reach the max level (99)",
    "icon": "https://steamcdn-a.akamaihd.net/steamcommunity/public/images/apps/695360/39aaf9eafb03ad8e0827deda57c5a7f65fef21dd.jpg",
    "icongray": "https://steamcdn-a.akamaihd.net/steamcommunity/public/images/apps/695360/81b8b69aa068ff608bbe497a6d0a1fe56a8d0db1.jpg"
  }
]