﻿[
  {
    "name": "TotalPlays",
    "defaultvalue": 0,
    "displayName": ""
  },
  {
    "name": "TotalDeaths",
    "defaultvalue": 0,
    "displayName": ""
  },
  {
    "name": "TotalHits",
    "defaultvalue": 0,
    "displayName": ""
  },
  {
    "name": "TotalWins",
    "defaultvalue": 0,
    "displayName": ""
  }
]