﻿{
  "Dlcs": {},
  "Name": "Where The Water Tastes Like Wine: Fireside Chats",
  "AppId": "947120",
  "ImageUrl": "https://steamcdn-a.akamaihd.net/steam/apps/947120/header.jpg?t=1552494123",
  "Languages": [
    "english"
  ],
  "Platforms": {
    "windows": true,
    "mac": true,
    "linux": true
  }
}