﻿{
  "Dlcs": {},
  "Name": "Escape: Sierra Leone",
  "AppId": "440450",
  "ImageUrl": "https://steamcdn-a.akamaihd.net/steam/apps/440450/header.jpg?t=1482452925",
  "Languages": [
    "english"
  ],
  "Platforms": {
    "windows": true,
    "mac": false,
    "linux": false
  }
}