﻿{
  "Dlcs": {},
  "Name": "Aviators",
  "AppId": "513310",
  "ImageUrl": "https://steamcdn-a.akamaihd.net/steam/apps/513310/header.jpg?t=1484853646",
  "Languages": [
    "english"
  ],
  "Platforms": {
    "windows": true,
    "mac": true,
    "linux": false
  }
}