﻿[
  {
    "name": "TROP01",
    "defaultvalue": 0,
    "displayName": "The Hardboiled Chicken",
    "hidden": 0,
    "description": "Complete all six chapters in Part 1",
    "icon": "https://steamcdn-a.akamaihd.net/steamcommunity/public/images/apps/470210/24dd29d5d6ee9e3afec19cd11270b05fa22f5903.jpg",
    "icongray": "https://steamcdn-a.akamaihd.net/steamcommunity/public/images/apps/470210/1a6c1dfe7cbca3deaf5e90acbd06cf87de6017f6.jpg"
  },
  {
    "name": "TROP02",
    "defaultvalue": 0,
    "displayName": "The Search and Rescue Strikeforce",
    "hidden": 0,
    "description": "As host, complete a rescue mission for all four locations in Part 2",
    "icon": "https://steamcdn-a.akamaihd.net/steamcommunity/public/images/apps/470210/f48a03b2b20f7c6d7636bc2f0923301dcb76961a.jpg",
    "icongray": "https://steamcdn-a.akamaihd.net/steamcommunity/public/images/apps/470210/9199417cb50f3e97ecf2b1d1c0cd0c88182a6f9a.jpg"
  },
  {
    "name": "TROP03",
    "defaultvalue": 0,
    "displayName": "The Road Less Traveled",
    "hidden": 0,
    "description": "Rescue Hardboiled Chicken for Part 2 in the game",
    "icon": "https://steamcdn-a.akamaihd.net/steamcommunity/public/images/apps/470210/9985645017bd9b7bd8d452f5060333d3912f40fb.jpg",
    "icongray": "https://steamcdn-a.akamaihd.net/steamcommunity/public/images/apps/470210/cae7e4b64451e4d56b3b09c3c0aca620865f643c.jpg"
  },
  {
    "name": "TROP04",
    "defaultvalue": 0,
    "displayName": "Signs of Evolution",
    "hidden": 0,
    "description": "Find all 18 signs in all 6 chapters in Part 1",
    "icon": "https://steamcdn-a.akamaihd.net/steamcommunity/public/images/apps/470210/30fc37a116b582b5a8dc69e11a54ff9f96fc06d8.jpg",
    "icongray": "https://steamcdn-a.akamaihd.net/steamcommunity/public/images/apps/470210/a90c9dacfb2f2925572521cc1b7f32640c83c791.jpg"
  },
  {
    "name": "TROP05",
    "defaultvalue": 0,
    "displayName": "Signs of Hardboiled Chicken",
    "hidden": 0,
    "description": "Find 9 signs in any three chapters in Part 1",
    "icon": "https://steamcdn-a.akamaihd.net/steamcommunity/public/images/apps/470210/82de060f3b598d4b1233d6fec2f138d3d606681f.jpg",
    "icongray": "https://steamcdn-a.akamaihd.net/steamcommunity/public/images/apps/470210/54a8042a0b793e39dd9a42b0fb4cbf3027e42933.jpg"
  },
  {
    "name": "TROP06",
    "defaultvalue": 0,
    "displayName": "Signs of Revolution",
    "hidden": 0,
    "description": "Find all 3 signs of a single chapter in Part 1",
    "icon": "https://steamcdn-a.akamaihd.net/steamcommunity/public/images/apps/470210/1fae1aaf9d0246dd40b1064efeb74c2f4d89a0cd.jpg",
    "icongray": "https://steamcdn-a.akamaihd.net/steamcommunity/public/images/apps/470210/815ce77db76fab3781750065ef83a7c796e282e0.jpg"
  },
  {
    "name": "TROP07",
    "defaultvalue": 0,
    "displayName": "UFO Hit and Run",
    "hidden": 0,
    "description": "Kill all enemies during Hardboiled's final, successful escape in Chapter 6",
    "icon": "https://steamcdn-a.akamaihd.net/steamcommunity/public/images/apps/470210/68b45b39ae5402b34e45fdf38db21d5b2bb2f5c5.jpg",
    "icongray": "https://steamcdn-a.akamaihd.net/steamcommunity/public/images/apps/470210/e823ae0fe17067e8d3180815d54ab02d6b78d720.jpg"
  },
  {
    "name": "TROP08",
    "defaultvalue": 0,
    "displayName": "Space Owl Droppings",
    "hidden": 0,
    "description": "Drop six Space Owls into the liquid ooze in Chapter 6",
    "icon": "https://steamcdn-a.akamaihd.net/steamcommunity/public/images/apps/470210/174a50477d97af600ac3d193afb0a136c43976fa.jpg",
    "icongray": "https://steamcdn-a.akamaihd.net/steamcommunity/public/images/apps/470210/307f4664dc375aa5f40cbf7b5d5a9f8db84d26e1.jpg"
  },
  {
    "name": "TROP09",
    "defaultvalue": 0,
    "displayName": "Half Minute Hexapod",
    "hidden": 0,
    "description": "Defeat the swinging hexapod, once you see its health bar, in under 30 seconds in Chapter 5",
    "icon": "https://steamcdn-a.akamaihd.net/steamcommunity/public/images/apps/470210/89cf569d5f4148d6b5f234ed61f42b1bf9f19997.jpg",
    "icongray": "https://steamcdn-a.akamaihd.net/steamcommunity/public/images/apps/470210/722bb53474ea6af5ab217355fb5c3b400b7a7c39.jpg"
  },
  {
    "name": "TROP10",
    "defaultvalue": 0,
    "displayName": "The Spider's Nose",
    "hidden": 0,
    "description": "Stand on the Hexapod's Nose while it is firing its missiles in Chapter 4",
    "icon": "https://steamcdn-a.akamaihd.net/steamcommunity/public/images/apps/470210/4efe187a0a24a5a5715b31b7e59e08689a379610.jpg",
    "icongray": "https://steamcdn-a.akamaihd.net/steamcommunity/public/images/apps/470210/1ff6a2d0435f645ba9bf61ef0752e1072acbf585.jpg"
  },
  {
    "name": "TROP11",
    "defaultvalue": 0,
    "displayName": "Goose Brother Blast",
    "hidden": 0,
    "description": "Detonate a bomb near either G-man in the final show-down in Chapter 2",
    "icon": "https://steamcdn-a.akamaihd.net/steamcommunity/public/images/apps/470210/6c7a8678d8ebd65b7ad9d92f4219ace156879dae.jpg",
    "icongray": "https://steamcdn-a.akamaihd.net/steamcommunity/public/images/apps/470210/f71062f4b804028ae7761e3d3c4d6e994dd3eda2.jpg"
  },
  {
    "name": "TROP12",
    "defaultvalue": 0,
    "displayName": "The Obeyor",
    "hidden": 0,
    "description": "Make enemies kill 15 co-workers in Chapter 2",
    "icon": "https://steamcdn-a.akamaihd.net/steamcommunity/public/images/apps/470210/f20166f39cc2b13f99608cf83be3ab9b004bc912.jpg",
    "icongray": "https://steamcdn-a.akamaihd.net/steamcommunity/public/images/apps/470210/198b74f89df56eea52c8489ddd6ce95152cc99ca.jpg"
  },
  {
    "name": "TROP13",
    "defaultvalue": 0,
    "displayName": "The Infiltrator",
    "hidden": 0,
    "description": "Melee kill 15 Enemies in a row without triggering the alarm in Chapter 2",
    "icon": "https://steamcdn-a.akamaihd.net/steamcommunity/public/images/apps/470210/ffee88701031afb52580b6db70bfb68f346881e6.jpg",
    "icongray": "https://steamcdn-a.akamaihd.net/steamcommunity/public/images/apps/470210/841b60842f1146e10d5192825d6857d565bc0792.jpg"
  },
  {
    "name": "TROP14",
    "defaultvalue": 0,
    "displayName": "The Headhunter",
    "hidden": 0,
    "description": "Headshot kill 15 enemies in a row in Chapter 1",
    "icon": "https://steamcdn-a.akamaihd.net/steamcommunity/public/images/apps/470210/46021dc1acc261e1f9658b34d22905b9b22697e4.jpg",
    "icongray": "https://steamcdn-a.akamaihd.net/steamcommunity/public/images/apps/470210/24f5dea22e22b73390476606f13c76a1ec4c59ed.jpg"
  },
  {
    "name": "TROP15",
    "defaultvalue": 0,
    "displayName": "The Informant",
    "hidden": 0,
    "description": "Get someone to tell you what's up ahead in Chapter 1",
    "icon": "https://steamcdn-a.akamaihd.net/steamcommunity/public/images/apps/470210/2bcc6e2a4b88b3c61922928307e3ae8370749d02.jpg",
    "icongray": "https://steamcdn-a.akamaihd.net/steamcommunity/public/images/apps/470210/690035d6aff718944bcea93aeb3aa4337a25587e.jpg"
  },
  {
    "name": "TROP16",
    "defaultvalue": 0,
    "displayName": "Shoot Yourself, Putzki",
    "hidden": 0,
    "description": "Make Putzki shoot himself in Chapter 1",
    "icon": "https://steamcdn-a.akamaihd.net/steamcommunity/public/images/apps/470210/cb002ebd280bed748cf8aa607e3190048be917b9.jpg",
    "icongray": "https://steamcdn-a.akamaihd.net/steamcommunity/public/images/apps/470210/840fb83b7cb76dd04b9674318c5758432075eed6.jpg"
  },
  {
    "name": "TROP17",
    "defaultvalue": 0,
    "displayName": "The Great Unlocker",
    "hidden": 0,
    "description": "Unlock 100 costume items or weapons in Part 2",
    "icon": "https://steamcdn-a.akamaihd.net/steamcommunity/public/images/apps/470210/87cc20e793330be8140b527bd7f08fce7f229cae.jpg",
    "icongray": "https://steamcdn-a.akamaihd.net/steamcommunity/public/images/apps/470210/7085568d77260bd34ff71073aaa96f419c657236.jpg"
  },
  {
    "name": "TROP18",
    "defaultvalue": 0,
    "displayName": "Awesome Achiever",
    "hidden": 0,
    "description": "Attain 3 star scores for all four locations in Part 2",
    "icon": "https://steamcdn-a.akamaihd.net/steamcommunity/public/images/apps/470210/96ca3f405061a226c499c42bcdc0169dd1a1ecb8.jpg",
    "icongray": "https://steamcdn-a.akamaihd.net/steamcommunity/public/images/apps/470210/630ba29d8dac96890d9ac0b2d43224f7aa980941.jpg"
  },
  {
    "name": "TROP19",
    "defaultvalue": 0,
    "displayName": "Sharp Shooter",
    "hidden": 0,
    "description": "Attain a 80% or higher accuracy score on a mission in Part 2",
    "icon": "https://steamcdn-a.akamaihd.net/steamcommunity/public/images/apps/470210/a1de2e54e9e024b28d47e25b97fcb730a401d9f9.jpg",
    "icongray": "https://steamcdn-a.akamaihd.net/steamcommunity/public/images/apps/470210/e031759eb9d7e631b9b507fb2dc0c13e90c7f094.jpg"
  },
  {
    "name": "TROP20",
    "defaultvalue": 0,
    "displayName": "Construction Complete",
    "hidden": 0,
    "description": "As host, collect all nine artifacts in Part 2",
    "icon": "https://steamcdn-a.akamaihd.net/steamcommunity/public/images/apps/470210/190f3e37b1770c7eba9833dceae153f20dad841c.jpg",
    "icongray": "https://steamcdn-a.akamaihd.net/steamcommunity/public/images/apps/470210/fc11cd896052dfbed032c8cd80bd4c5f595463d0.jpg"
  },
  {
    "name": "TROP21",
    "defaultvalue": 0,
    "displayName": "UFO Hostage Missions",
    "hidden": 0,
    "description": "Unlock all 4 hostages in the UFO in Part 2",
    "icon": "https://steamcdn-a.akamaihd.net/steamcommunity/public/images/apps/470210/0a423ff9766786b2bd9e1660928492eeed434999.jpg",
    "icongray": "https://steamcdn-a.akamaihd.net/steamcommunity/public/images/apps/470210/c1a8c4a33d2ac52768555c1d533c51e23f2418ee.jpg"
  },
  {
    "name": "TROP22",
    "defaultvalue": 0,
    "displayName": "Jungle Hostage Missions",
    "hidden": 0,
    "description": "Unlock all 4 hostages in Jungliana in Part 2",
    "icon": "https://steamcdn-a.akamaihd.net/steamcommunity/public/images/apps/470210/fece30f0d4fdda3e1f981f8d08ec5ea90c4275ab.jpg",
    "icongray": "https://steamcdn-a.akamaihd.net/steamcommunity/public/images/apps/470210/1224a8c8d4d26b0db9503c74e4ce8c26b041b661.jpg"
  },
  {
    "name": "TROP23",
    "defaultvalue": 0,
    "displayName": "Factory Hostage Missions",
    "hidden": 0,
    "description": "Unlock all 4 hostages in Putzki's Pork Plant in Part 2",
    "icon": "https://steamcdn-a.akamaihd.net/steamcommunity/public/images/apps/470210/903583ff7547d7f5d5d6edd0f3400eff6fee0c8d.jpg",
    "icongray": "https://steamcdn-a.akamaihd.net/steamcommunity/public/images/apps/470210/fbd05883950fb2348a57970ad12956ab70a72c12.jpg"
  },
  {
    "name": "TROP24",
    "defaultvalue": 0,
    "displayName": "Castle Hostage Missions",
    "hidden": 0,
    "description": "Unlock all 4 hostages in Putzki's Castle in Part 2",
    "icon": "https://steamcdn-a.akamaihd.net/steamcommunity/public/images/apps/470210/2528d5d70dd318a5fbb432633a351265272ad08e.jpg",
    "icongray": "https://steamcdn-a.akamaihd.net/steamcommunity/public/images/apps/470210/566eeafb6b67e33831ec34dc465a38c00708e28d.jpg"
  },
  {
    "name": "TROP25",
    "defaultvalue": 0,
    "displayName": "Big Spender",
    "hidden": 0,
    "description": "Spend more than 50,000 bucks in Part 2",
    "icon": "https://steamcdn-a.akamaihd.net/steamcommunity/public/images/apps/470210/88a0819a36f2e627590649bcbac727a44db0de13.jpg",
    "icongray": "https://steamcdn-a.akamaihd.net/steamcommunity/public/images/apps/470210/924ba1a75c374de78ed7a280d30db9df19863e08.jpg"
  },
  {
    "name": "TROP26",
    "defaultvalue": 0,
    "displayName": "Penguins go Pop",
    "hidden": 0,
    "description": "Headshot kill 100 enemies in the game",
    "icon": "https://steamcdn-a.akamaihd.net/steamcommunity/public/images/apps/470210/1dd4ad087c05cebe87209a24f5766abbc44a07ff.jpg",
    "icongray": "https://steamcdn-a.akamaihd.net/steamcommunity/public/images/apps/470210/68dd5a402d25d616bcce9c9979a968339a8961b5.jpg"
  },
  {
    "name": "TROP27",
    "defaultvalue": 0,
    "displayName": "Crimes of Passion",
    "hidden": 0,
    "description": "Melee weapon kill 100 Enemies in the game",
    "icon": "https://steamcdn-a.akamaihd.net/steamcommunity/public/images/apps/470210/966f64166252d97393f1146710701e06ded826a6.jpg",
    "icongray": "https://steamcdn-a.akamaihd.net/steamcommunity/public/images/apps/470210/cbe980f28cf373fd3fc2e44556332676bf0f8bce.jpg"
  },
  {
    "name": "TROP28",
    "defaultvalue": 0,
    "displayName": "Bouncing Grenade Mayhem",
    "hidden": 0,
    "description": "Kill 4 Enemies with a single grenade shot in the game",
    "icon": "https://steamcdn-a.akamaihd.net/steamcommunity/public/images/apps/470210/eb65831f0387036a2b0ee241a4b000e0b9ef54c3.jpg",
    "icongray": "https://steamcdn-a.akamaihd.net/steamcommunity/public/images/apps/470210/8ff8dab5c8892b2e519b05f6717cf111baac2d10.jpg"
  }
]