﻿{
  "Dlcs": {},
  "Name": "Doodler",
  "AppId": "479310",
  "ImageUrl": "https://steamcdn-a.akamaihd.net/steam/apps/479310/header.jpg?t=1524521011",
  "Languages": [
    "english"
  ],
  "Platforms": {
    "windows": true,
    "mac": false,
    "linux": false
  }
}