﻿[
  {
    "name": "MWO_ACHIEVEMENT_0",
    "defaultvalue": 0,
    "displayName": "Internal Injuries",
    "hidden": 0,
    "description": "Destroy 10 components",
    "icon": "https://steamcdn-a.akamaihd.net/steamcommunity/public/images/apps/342200/4b4c08f2e548ec39a7f033cf0584582a3e883fb2.jpg",
    "icongray": "https://steamcdn-a.akamaihd.net/steamcommunity/public/images/apps/342200/e3495cc0f4c126e5ad6a3b5018a88d8fc253ed4e.jpg"
  },
  {
    "name": "MWO_ACHIEVEMENT_1",
    "defaultvalue": 0,
    "displayName": "Breakin'",
    "hidden": 0,
    "description": "Destroy 100 components",
    "icon": "https://steamcdn-a.akamaihd.net/steamcommunity/public/images/apps/342200/fd240fa76b37267eb0b645ddde5743febc7ecd5d.jpg",
    "icongray": "https://steamcdn-a.akamaihd.net/steamcommunity/public/images/apps/342200/ca7ad19b3b1c84645efcda59394dfa3ab55d24e1.jpg"
  },
  {
    "name": "MWO_ACHIEVEMENT_2",
    "defaultvalue": 0,
    "displayName": "'Mech SMASH!",
    "hidden": 0,
    "description": "Destroy 1,000 components",
    "icon": "https://steamcdn-a.akamaihd.net/steamcommunity/public/images/apps/342200/977f2d3deb2e007783dd11e4c437f201c91d8249.jpg",
    "icongray": "https://steamcdn-a.akamaihd.net/steamcommunity/public/images/apps/342200/123430250ab2120dd115a316de3a6b176bdfd310.jpg"
  },
  {
    "name": "MWO_ACHIEVEMENT_4",
    "defaultvalue": 0,
    "displayName": "Pyrrhic Victory",
    "hidden": 0,
    "description": "Win a match with only one person on your team alive",
    "icon": "https://steamcdn-a.akamaihd.net/steamcommunity/public/images/apps/342200/251b8866a5f72a2c764ad4a8760580cae0bd103c.jpg",
    "icongray": "https://steamcdn-a.akamaihd.net/steamcommunity/public/images/apps/342200/6c850b7295eacb55547412fc064de212510fddc1.jpg"
  },
  {
    "name": "MWO_ACHIEVEMENT_7",
    "defaultvalue": 0,
    "displayName": "Little Helper",
    "hidden": 0,
    "description": "Get 500 assists in Light 'Mechs",
    "icon": "https://steamcdn-a.akamaihd.net/steamcommunity/public/images/apps/342200/f7036555f5abf747f6473ed5999ecbddefc447d9.jpg",
    "icongray": "https://steamcdn-a.akamaihd.net/steamcommunity/public/images/apps/342200/b80d510ff6a8b27e1044b6c3bc3c9d2e32c83fe5.jpg"
  },
  {
    "name": "MWO_ACHIEVEMENT_8",
    "defaultvalue": 0,
    "displayName": "A Light Push",
    "hidden": 0,
    "description": "Get 2500 assists in Light 'Mechs",
    "icon": "https://steamcdn-a.akamaihd.net/steamcommunity/public/images/apps/342200/f1cc0f434ada77fc520481b48f657a490dd5a830.jpg",
    "icongray": "https://steamcdn-a.akamaihd.net/steamcommunity/public/images/apps/342200/cd1c134983edc76ee3ae08791dbdad5c3e4a09d2.jpg"
  },
  {
    "name": "MWO_ACHIEVEMENT_13",
    "defaultvalue": 0,
    "displayName": "A Moderate Giver",
    "hidden": 0,
    "description": "Get 500 assists in Medium 'Mechs",
    "icon": "https://steamcdn-a.akamaihd.net/steamcommunity/public/images/apps/342200/20a1ef2f108ca0ae209ff09516a91d313dc41864.jpg",
    "icongray": "https://steamcdn-a.akamaihd.net/steamcommunity/public/images/apps/342200/088dc692a1750b42bb962815e02c1e0cf8c759dd.jpg"
  },
  {
    "name": "MWO_ACHIEVEMENT_14",
    "defaultvalue": 0,
    "displayName": "Sharing in Moderation",
    "hidden": 0,
    "description": "Get 2500 assists in Medium 'Mechs",
    "icon": "https://steamcdn-a.akamaihd.net/steamcommunity/public/images/apps/342200/5b32186844f8e52e347ddcf1079e6a7990b141b1.jpg",
    "icongray": "https://steamcdn-a.akamaihd.net/steamcommunity/public/images/apps/342200/b2087d8e663c7edfb152db0a5d8ac6b62bb09223.jpg"
  },
  {
    "name": "MWO_ACHIEVEMENT_19",
    "defaultvalue": 0,
    "displayName": "Big Brother/Sister",
    "hidden": 0,
    "description": "Get 500 assists in Heavy 'Mechs",
    "icon": "https://steamcdn-a.akamaihd.net/steamcommunity/public/images/apps/342200/0ba7c89f9f10c24803987e929e5e2a336be99173.jpg",
    "icongray": "https://steamcdn-a.akamaihd.net/steamcommunity/public/images/apps/342200/62e43edeedf9ef5ae6c902484e22664f3253aebb.jpg"
  },
  {
    "name": "MWO_ACHIEVEMENT_20",
    "defaultvalue": 0,
    "displayName": "A Big Helping",
    "hidden": 0,
    "description": "Get 2500 assists in Heavy 'Mechs",
    "icon": "https://steamcdn-a.akamaihd.net/steamcommunity/public/images/apps/342200/71d943c7b1b1bb2596ea8d4d2be5ece4139db958.jpg",
    "icongray": "https://steamcdn-a.akamaihd.net/steamcommunity/public/images/apps/342200/c9711205bee609b3e9b0a1dc4626f17047fbb360.jpg"
  },
  {
    "name": "MWO_ACHIEVEMENT_25",
    "defaultvalue": 0,
    "displayName": "Giant Helper",
    "hidden": 0,
    "description": "Get 500 assists in Assault 'Mechs",
    "icon": "https://steamcdn-a.akamaihd.net/steamcommunity/public/images/apps/342200/5c7c4a4ba61f01fb36f47cf2c4a84d45147bc4ab.jpg",
    "icongray": "https://steamcdn-a.akamaihd.net/steamcommunity/public/images/apps/342200/1704fafbac59b7f5601b069bf77f7475c4570580.jpg"
  },
  {
    "name": "MWO_ACHIEVEMENT_26",
    "defaultvalue": 0,
    "displayName": "Friendly Giant",
    "hidden": 0,
    "description": "Get 2500 assists in Assault 'Mechs",
    "icon": "https://steamcdn-a.akamaihd.net/steamcommunity/public/images/apps/342200/4ba44c1f7249f3991645b0d851400c87f1080b79.jpg",
    "icongray": "https://steamcdn-a.akamaihd.net/steamcommunity/public/images/apps/342200/403328bd426be85dd730512b149adc9c0079859d.jpg"
  },
  {
    "name": "MWO_ACHIEVEMENT_299",
    "defaultvalue": 0,
    "displayName": "Basic Tutorial Complete",
    "hidden": 0,
    "description": "Complete the basic tutorial",
    "icon": "https://steamcdn-a.akamaihd.net/steamcommunity/public/images/apps/342200/608074f935684f5912d02b960355a9daba857e48.jpg",
    "icongray": "https://steamcdn-a.akamaihd.net/steamcommunity/public/images/apps/342200/29e9a7112f1e8513c50f16b0f9ae4a0442ecbb2f.jpg"
  },
  {
    "name": "MWO_ACHIEVEMENT_32",
    "defaultvalue": 0,
    "displayName": "Sharing is Caring",
    "hidden": 0,
    "description": "Get 5 assists in a single match",
    "icon": "https://steamcdn-a.akamaihd.net/steamcommunity/public/images/apps/342200/b677fc9c8eaa321ab83259fac034b151ef610811.jpg",
    "icongray": "https://steamcdn-a.akamaihd.net/steamcommunity/public/images/apps/342200/6f4452a9c51d45e4fa05f2d4a5bfd35ae607d312.jpg"
  },
  {
    "name": "MWO_ACHIEVEMENT_33",
    "defaultvalue": 0,
    "displayName": "Share the Love",
    "hidden": 0,
    "description": "Get 10 assists in a single match",
    "icon": "https://steamcdn-a.akamaihd.net/steamcommunity/public/images/apps/342200/6e0a512c560c257a65d4a2602c014419ce5730f3.jpg",
    "icongray": "https://steamcdn-a.akamaihd.net/steamcommunity/public/images/apps/342200/16ac75fb0259830c5dc1d01ad600a8f0d76a5b5c.jpg"
  },
  {
    "name": "MWO_ACHIEVEMENT_34",
    "defaultvalue": 0,
    "displayName": "Philanthropist",
    "hidden": 0,
    "description": "Get 12 assists in a single match",
    "icon": "https://steamcdn-a.akamaihd.net/steamcommunity/public/images/apps/342200/b82e26b4fbd36af2111e97eb54050d641af962ed.jpg",
    "icongray": "https://steamcdn-a.akamaihd.net/steamcommunity/public/images/apps/342200/7ffbcedd307270ea4509f15133461a6b80e9c40e.jpg"
  },
  {
    "name": "MWO_ACHIEVEMENT_35",
    "defaultvalue": 0,
    "displayName": "Hat-Trick!",
    "hidden": 0,
    "description": "Get 3 kills in a match",
    "icon": "https://steamcdn-a.akamaihd.net/steamcommunity/public/images/apps/342200/1b2784bbbcdb34178b154ab81026555f210e5d1b.jpg",
    "icongray": "https://steamcdn-a.akamaihd.net/steamcommunity/public/images/apps/342200/06e537b00cb936b555c95ce650af080ef1230c4e.jpg"
  },
  {
    "name": "MWO_ACHIEVEMENT_36",
    "defaultvalue": 0,
    "displayName": "Johnny Five",
    "hidden": 0,
    "description": "Get 5 kills in a match",
    "icon": "https://steamcdn-a.akamaihd.net/steamcommunity/public/images/apps/342200/a97b4c8b81fbb2eb8105f044eec6b9eb9abb89fa.jpg",
    "icongray": "https://steamcdn-a.akamaihd.net/steamcommunity/public/images/apps/342200/d612570de73e5b6546b6922fca978e4b505f4e64.jpg"
  },
  {
    "name": "MWO_ACHIEVEMENT_37",
    "defaultvalue": 0,
    "displayName": "Ace of Spades",
    "hidden": 0,
    "description": "Get 8 kills in a match",
    "icon": "https://steamcdn-a.akamaihd.net/steamcommunity/public/images/apps/342200/d695c976e9941915a4f69d61fc125c2c60979a86.jpg",
    "icongray": "https://steamcdn-a.akamaihd.net/steamcommunity/public/images/apps/342200/afd9b86085fc1f6a6f43a988563c3601fabbd478.jpg"
  },
  {
    "name": "MWO_ACHIEVEMENT_39",
    "defaultvalue": 0,
    "displayName": "Creeping Death",
    "hidden": 0,
    "description": "Get 3 kills in a single match where your health never goes below 90%",
    "icon": "https://steamcdn-a.akamaihd.net/steamcommunity/public/images/apps/342200/9d57dd14564fc7d2f57f621535c06e5a0a123e39.jpg",
    "icongray": "https://steamcdn-a.akamaihd.net/steamcommunity/public/images/apps/342200/6d85f78fd0f2c579f59e100cd48334acebe976dd.jpg"
  },
  {
    "name": "MWO_ACHIEVEMENT_40",
    "defaultvalue": 0,
    "displayName": "Less Green, More Mean",
    "hidden": 0,
    "description": "Get your first 5 victories in Trial 'Mechs",
    "icon": "https://steamcdn-a.akamaihd.net/steamcommunity/public/images/apps/342200/bb20ff1d79caab7b6b6839f40a40cb80c8212503.jpg",
    "icongray": "https://steamcdn-a.akamaihd.net/steamcommunity/public/images/apps/342200/5ad17eb64c0cdb726339fd65f80ef72c29c5ae8f.jpg"
  },
  {
    "name": "MWO_ACHIEVEMENT_41",
    "defaultvalue": 0,
    "displayName": "It Has Begun",
    "hidden": 0,
    "description": "Get your first victory",
    "icon": "https://steamcdn-a.akamaihd.net/steamcommunity/public/images/apps/342200/5c40c986c567db157642bbe23419b6dfa0c95d6d.jpg",
    "icongray": "https://steamcdn-a.akamaihd.net/steamcommunity/public/images/apps/342200/fb4c9567fc9fa06f467eda1350dc617d31cf221a.jpg"
  },
  {
    "name": "MWO_ACHIEVEMENT_50",
    "defaultvalue": 0,
    "displayName": "Seriously!?",
    "hidden": 0,
    "description": "Do top damage in a single match and get zero kills",
    "icon": "https://steamcdn-a.akamaihd.net/steamcommunity/public/images/apps/342200/e73ff452e74709dd6b7aa288fc8e42146312982d.jpg",
    "icongray": "https://steamcdn-a.akamaihd.net/steamcommunity/public/images/apps/342200/3a0fde0bad0d61000ef39c4e52edf7ba8877b29f.jpg"
  },
  {
    "name": "MWO_ACHIEVEMENT_52",
    "defaultvalue": 0,
    "displayName": "H-H-Headshot!",
    "hidden": 0,
    "description": "Kill an opponent with a Headshot",
    "icon": "https://steamcdn-a.akamaihd.net/steamcommunity/public/images/apps/342200/fbd9cb0000b711c3e67d162d372e34fab8fbe2f9.jpg",
    "icongray": "https://steamcdn-a.akamaihd.net/steamcommunity/public/images/apps/342200/23b8cd64375b83c94ef0c86030543ff1bba5fe61.jpg"
  },
  {
    "name": "MWO_ACHIEVEMENT_53",
    "defaultvalue": 0,
    "displayName": "Headhunter",
    "hidden": 0,
    "description": "Kill 10 opponents with Headshots",
    "icon": "https://steamcdn-a.akamaihd.net/steamcommunity/public/images/apps/342200/f14e375fbf6815175e4fe4f658704aeac9e407b1.jpg",
    "icongray": "https://steamcdn-a.akamaihd.net/steamcommunity/public/images/apps/342200/b8bb0da5ca1d777b5017000df81214f17ff919f9.jpg"
  },
  {
    "name": "MWO_ACHIEVEMENT_372",
    "defaultvalue": 0,
    "displayName": "The Debutante",
    "hidden": 0,
    "description": "Complete a match in 1v1 Solaris",
    "icon": "https://steamcdn-a.akamaihd.net/steamcommunity/public/images/apps/342200/2c21d3f1dad7499c97c0e2c1fcbf30cc3ad1d1f1.jpg",
    "icongray": "https://steamcdn-a.akamaihd.net/steamcommunity/public/images/apps/342200/2e9adeb492d3b80f97c3d664d7aafd0507f023bd.jpg"
  },
  {
    "name": "MWO_ACHIEVEMENT_373",
    "defaultvalue": 0,
    "displayName": "Pairs",
    "hidden": 0,
    "description": "Complete a match in 2v2 Solaris",
    "icon": "https://steamcdn-a.akamaihd.net/steamcommunity/public/images/apps/342200/8b15257a3b7a4412a990ac7aca1d045516ecfb5d.jpg",
    "icongray": "https://steamcdn-a.akamaihd.net/steamcommunity/public/images/apps/342200/fdc5b0bbb9ba2f41e61871a7eae0969dfa82dad6.jpg"
  },
  {
    "name": "MWO_ACHIEVEMENT_374",
    "defaultvalue": 0,
    "displayName": "They Love Me",
    "hidden": 0,
    "description": "Earn a sponsor in 1v1 Solaris",
    "icon": "https://steamcdn-a.akamaihd.net/steamcommunity/public/images/apps/342200/c3ba1b60c3321d83b4cc4b374a63a3ef2dd63706.jpg",
    "icongray": "https://steamcdn-a.akamaihd.net/steamcommunity/public/images/apps/342200/599f751806950624b6006409b65cda48d19a8347.jpg"
  },
  {
    "name": "MWO_ACHIEVEMENT_375",
    "defaultvalue": 0,
    "displayName": "They Really Love Me",
    "hidden": 0,
    "description": "Earn all 10 sponsors in a single divison in 1v1 Solaris",
    "icon": "https://steamcdn-a.akamaihd.net/steamcommunity/public/images/apps/342200/daa6aa1d1f03b4370bbc00116431a36b519cf3ab.jpg",
    "icongray": "https://steamcdn-a.akamaihd.net/steamcommunity/public/images/apps/342200/390b5dcd2d125563fc7c288d3f35e9ce22346631.jpg"
  },
  {
    "name": "MWO_ACHIEVEMENT_376",
    "defaultvalue": 0,
    "displayName": "Featherweight",
    "hidden": 0,
    "description": "Win 5 matches in 1v1 Solaris",
    "icon": "https://steamcdn-a.akamaihd.net/steamcommunity/public/images/apps/342200/6599c9dd8bfe091e1a9eed7b20ec42228a8bad54.jpg",
    "icongray": "https://steamcdn-a.akamaihd.net/steamcommunity/public/images/apps/342200/910adde8d8ddf85536988cc2ffbdb0de66b7596e.jpg"
  },
  {
    "name": "MWO_ACHIEVEMENT_377",
    "defaultvalue": 0,
    "displayName": "Lightweight",
    "hidden": 0,
    "description": "Win 15 matches in 1v1 Solaris",
    "icon": "https://steamcdn-a.akamaihd.net/steamcommunity/public/images/apps/342200/cfecd0954cf08d7b1d903655e01dcf1178cbc922.jpg",
    "icongray": "https://steamcdn-a.akamaihd.net/steamcommunity/public/images/apps/342200/918d97b5681cce5b889d326899299fa311b5ddf4.jpg"
  },
  {
    "name": "MWO_ACHIEVEMENT_378",
    "defaultvalue": 0,
    "displayName": "Middleweight",
    "hidden": 0,
    "description": "Win 50 matches in 1v1 Solaris",
    "icon": "https://steamcdn-a.akamaihd.net/steamcommunity/public/images/apps/342200/d58aa3ee8df660e70b46b3c479646b42976e418a.jpg",
    "icongray": "https://steamcdn-a.akamaihd.net/steamcommunity/public/images/apps/342200/cf2d865f7d018603120a3db4be46d8d1abb56617.jpg"
  },
  {
    "name": "MWO_ACHIEVEMENT_379",
    "defaultvalue": 0,
    "displayName": "Heavyweight",
    "hidden": 0,
    "description": "Win 100 matches in 1v1 Solaris",
    "icon": "https://steamcdn-a.akamaihd.net/steamcommunity/public/images/apps/342200/a1556fade7763d3fd7406b886c1d3b0a529882cb.jpg",
    "icongray": "https://steamcdn-a.akamaihd.net/steamcommunity/public/images/apps/342200/8833363fa18a0eefc1a36d3ef70b90cab441bcf7.jpg"
  },
  {
    "name": "MWO_ACHIEVEMENT_380",
    "defaultvalue": 0,
    "displayName": "Solaris Champion",
    "hidden": 0,
    "description": "Be #1 in any Solaris division after 50 1v1 matches",
    "icon": "https://steamcdn-a.akamaihd.net/steamcommunity/public/images/apps/342200/679372aac80416dafcda636fda68c44b5a3da12b.jpg",
    "icongray": "https://steamcdn-a.akamaihd.net/steamcommunity/public/images/apps/342200/ce7444a3b63fcf98b3b68234f4fd3027d6b60d65.jpg"
  },
  {
    "name": "MWO_ACHIEVEMENT_381",
    "defaultvalue": 0,
    "displayName": "So Vain",
    "hidden": 0,
    "description": "Equip a bolt-on to any 'Mech",
    "icon": "https://steamcdn-a.akamaihd.net/steamcommunity/public/images/apps/342200/6502403e988c5fda10f02a5eefd8ab4d133c2a42.jpg",
    "icongray": "https://steamcdn-a.akamaihd.net/steamcommunity/public/images/apps/342200/1f054ae8bbf82281a6ec30952908dfc6dbdd305b.jpg"
  },
  {
    "name": "MWO_ACHIEVEMENT_382",
    "defaultvalue": 0,
    "displayName": "Mirror Mirror",
    "hidden": 0,
    "description": "Equip a bolt-on in every bolt-on slot of a single 'Mech",
    "icon": "https://steamcdn-a.akamaihd.net/steamcommunity/public/images/apps/342200/b401d9b7cb477052b19ffb6783ea38ea51b485de.jpg",
    "icongray": "https://steamcdn-a.akamaihd.net/steamcommunity/public/images/apps/342200/849c92aa0f4c98cda351f2ce3c22799b839e0ce5.jpg"
  }
]