﻿[
  {
    "name": "MWO_STAT_COMPONENTS_DESTROYED",
    "defaultvalue": 0,
    "displayName": "Destroyed Components"
  },
  {
    "name": "MWO_STAT_LIGHT_ASSISTS",
    "defaultvalue": 0,
    "displayName": "Light 'Mech Assists"
  },
  {
    "name": "MWO_STAT_MEDIUM_ASSISTS",
    "defaultvalue": 0,
    "displayName": "Medium 'Mech Assists"
  },
  {
    "name": "MWO_STAT_HEAVY_ASSISTS",
    "defaultvalue": 0,
    "displayName": "Heavy 'Mech Assists"
  },
  {
    "name": "MWO_STAT_ASSAULT_ASSISTS",
    "defaultvalue": 0,
    "displayName": "Assault 'Mech Assists"
  },
  {
    "name": "MWO_STAT_HEADSHOTS",
    "defaultvalue": 0,
    "displayName": "Headshots"
  },
  {
    "name": "MWO_STAT_SOLARIS_1V1_WINS",
    "defaultvalue": 0,
    "displayName": "Solaris 1v1 Wins"
  }
]