﻿[
  {
    "name": "A Full Deck",
    "defaultvalue": 0,
    "displayName": "A Full Deck",
    "hidden": 1,
    "icon": "https://steamcdn-a.akamaihd.net/steamcommunity/public/images/apps/552590/07cd3774c790f7dc974e9a46e0a370754c5130ba.jpg",
    "icongray": "https://steamcdn-a.akamaihd.net/steamcommunity/public/images/apps/552590/07cd3774c790f7dc974e9a46e0a370754c5130ba.jpg"
  },
  {
    "name": "The Gang's All Here",
    "defaultvalue": 0,
    "displayName": "The Gang's All Here",
    "hidden": 1,
    "icon": "https://steamcdn-a.akamaihd.net/steamcommunity/public/images/apps/552590/165f6c21af32abf651b26bf0616ac18fc4bf9e46.jpg",
    "icongray": "https://steamcdn-a.akamaihd.net/steamcommunity/public/images/apps/552590/165f6c21af32abf651b26bf0616ac18fc4bf9e46.jpg"
  },
  {
    "name": "The End of the Beginning",
    "defaultvalue": 0,
    "displayName": "The End of the Beginning",
    "hidden": 1,
    "icon": "https://steamcdn-a.akamaihd.net/steamcommunity/public/images/apps/552590/ebbfcfc0f656750543b4028b9fba594f365df283.jpg",
    "icongray": "https://steamcdn-a.akamaihd.net/steamcommunity/public/images/apps/552590/ebbfcfc0f656750543b4028b9fba594f365df283.jpg"
  },
  {
    "name": "Sixpence None the Wiser",
    "defaultvalue": 0,
    "displayName": "Sixpence None the Wiser",
    "hidden": 1,
    "icon": "https://steamcdn-a.akamaihd.net/steamcommunity/public/images/apps/552590/31f7a21b6ba75edd271c131a36eca833705b30f8.jpg",
    "icongray": "https://steamcdn-a.akamaihd.net/steamcommunity/public/images/apps/552590/31f7a21b6ba75edd271c131a36eca833705b30f8.jpg"
  },
  {
    "name": "To Defeat the Spiders Curse",
    "defaultvalue": 0,
    "displayName": "To Defeat the Spider's Curse…",
    "hidden": 1,
    "icon": "https://steamcdn-a.akamaihd.net/steamcommunity/public/images/apps/552590/219dc46e30cd6198cfea6f22bc28793ca14a785e.jpg",
    "icongray": "https://steamcdn-a.akamaihd.net/steamcommunity/public/images/apps/552590/219dc46e30cd6198cfea6f22bc28793ca14a785e.jpg"
  },
  {
    "name": "The Devil and the Blue",
    "defaultvalue": 0,
    "displayName": "The Devil and the Blue",
    "hidden": 1,
    "icon": "https://steamcdn-a.akamaihd.net/steamcommunity/public/images/apps/552590/dbf5348e76ba67508daedb2c8aec97e12998a5cb.jpg",
    "icongray": "https://steamcdn-a.akamaihd.net/steamcommunity/public/images/apps/552590/dbf5348e76ba67508daedb2c8aec97e12998a5cb.jpg"
  },
  {
    "name": "Tequila, Down the Hatch",
    "defaultvalue": 0,
    "displayName": "Tequila, Down the Hatch",
    "hidden": 1,
    "icon": "https://steamcdn-a.akamaihd.net/steamcommunity/public/images/apps/552590/11be01dbc1692a7759a7aa8b62623ce54bd9dc01.jpg",
    "icongray": "https://steamcdn-a.akamaihd.net/steamcommunity/public/images/apps/552590/11be01dbc1692a7759a7aa8b62623ce54bd9dc01.jpg"
  },
  {
    "name": "An Electric Performance!",
    "defaultvalue": 0,
    "displayName": "An Electric Performance!",
    "hidden": 1,
    "icon": "https://steamcdn-a.akamaihd.net/steamcommunity/public/images/apps/552590/cfaf8d0d0cc5729302314d603c0a3cdd50148c07.jpg",
    "icongray": "https://steamcdn-a.akamaihd.net/steamcommunity/public/images/apps/552590/cfaf8d0d0cc5729302314d603c0a3cdd50148c07.jpg"
  },
  {
    "name": "A (Stylish) Sense of Dread",
    "defaultvalue": 0,
    "displayName": "A (Stylish) Sense of Dread",
    "hidden": 1,
    "icon": "https://steamcdn-a.akamaihd.net/steamcommunity/public/images/apps/552590/3bf8d603d5fd8b1ffe5a08de8a5d626735a6edc7.jpg",
    "icongray": "https://steamcdn-a.akamaihd.net/steamcommunity/public/images/apps/552590/3bf8d603d5fd8b1ffe5a08de8a5d626735a6edc7.jpg"
  },
  {
    "name": "The Light Fantastic",
    "defaultvalue": 0,
    "displayName": "The Light Fantastic",
    "hidden": 1,
    "icon": "https://steamcdn-a.akamaihd.net/steamcommunity/public/images/apps/552590/c6af280954e58c6603801e051365a5a1c7c1b1e2.jpg",
    "icongray": "https://steamcdn-a.akamaihd.net/steamcommunity/public/images/apps/552590/c6af280954e58c6603801e051365a5a1c7c1b1e2.jpg"
  },
  {
    "name": "Out of the Frying Pan",
    "defaultvalue": 0,
    "displayName": "Out of the Frying Pan…",
    "hidden": 1,
    "icon": "https://steamcdn-a.akamaihd.net/steamcommunity/public/images/apps/552590/e4fc67e78e8d669135c6ed9b24d97ad8e9f2b00d.jpg",
    "icongray": "https://steamcdn-a.akamaihd.net/steamcommunity/public/images/apps/552590/e4fc67e78e8d669135c6ed9b24d97ad8e9f2b00d.jpg"
  },
  {
    "name": "The Kind in Red",
    "defaultvalue": 0,
    "displayName": "The King in Red",
    "hidden": 1,
    "icon": "https://steamcdn-a.akamaihd.net/steamcommunity/public/images/apps/552590/bce10d9bf0f38374dd5e1e1fa3f4a08f8a6825d8.jpg",
    "icongray": "https://steamcdn-a.akamaihd.net/steamcommunity/public/images/apps/552590/bce10d9bf0f38374dd5e1e1fa3f4a08f8a6825d8.jpg"
  },
  {
    "name": "Into the Fire",
    "defaultvalue": 0,
    "displayName": "…Into the Fire",
    "hidden": 1,
    "icon": "https://steamcdn-a.akamaihd.net/steamcommunity/public/images/apps/552590/1f53285d99184e7fa90a94365104d144a50bbdb9.jpg",
    "icongray": "https://steamcdn-a.akamaihd.net/steamcommunity/public/images/apps/552590/1f53285d99184e7fa90a94365104d144a50bbdb9.jpg"
  },
  {
    "name": "Finding Forever",
    "defaultvalue": 0,
    "displayName": "Finding Forever",
    "hidden": 1,
    "icon": "https://steamcdn-a.akamaihd.net/steamcommunity/public/images/apps/552590/95bf8b873bfb05e7899ec554962ca4b2053ea87c.jpg",
    "icongray": "https://steamcdn-a.akamaihd.net/steamcommunity/public/images/apps/552590/95bf8b873bfb05e7899ec554962ca4b2053ea87c.jpg"
  },
  {
    "name": "The Tale of the Sexy Brutale",
    "defaultvalue": 0,
    "displayName": "The Tale of the Sexy Brutale",
    "hidden": 1,
    "icon": "https://steamcdn-a.akamaihd.net/steamcommunity/public/images/apps/552590/48722d1101082748b29964c27386dfb80305d030.jpg",
    "icongray": "https://steamcdn-a.akamaihd.net/steamcommunity/public/images/apps/552590/48722d1101082748b29964c27386dfb80305d030.jpg"
  },
  {
    "name": "How Scenical! How Scenical!",
    "defaultvalue": 0,
    "displayName": "How Scenical! How Scenical!",
    "hidden": 1,
    "icon": "https://steamcdn-a.akamaihd.net/steamcommunity/public/images/apps/552590/b8d561abfa90163e1391a1766cc8dd34291de1d4.jpg",
    "icongray": "https://steamcdn-a.akamaihd.net/steamcommunity/public/images/apps/552590/b8d561abfa90163e1391a1766cc8dd34291de1d4.jpg"
  },
  {
    "name": "Stories and Studies of Strange Things",
    "defaultvalue": 0,
    "displayName": "Stories and Studies of Strange Things",
    "hidden": 1,
    "icon": "https://steamcdn-a.akamaihd.net/steamcommunity/public/images/apps/552590/a0d93c3ada07e917d5984b12d82fd8dc0b282dbb.jpg",
    "icongray": "https://steamcdn-a.akamaihd.net/steamcommunity/public/images/apps/552590/a0d93c3ada07e917d5984b12d82fd8dc0b282dbb.jpg"
  },
  {
    "name": "The Door of Old Habits",
    "defaultvalue": 0,
    "displayName": "The Door of Old Habits...",
    "hidden": 1,
    "icon": "https://steamcdn-a.akamaihd.net/steamcommunity/public/images/apps/552590/9d71388dd6b0f7113fd4160ca17ccf468a25a216.jpg",
    "icongray": "https://steamcdn-a.akamaihd.net/steamcommunity/public/images/apps/552590/9d71388dd6b0f7113fd4160ca17ccf468a25a216.jpg"
  }
]