﻿[
  {
    "name": "ACH_BREED_3",
    "defaultvalue": 0,
    "displayName": "Young Animal-Authority",
    "hidden": 0,
    "description": "Complete 100 successful breedings",
    "icon": "https://steamcdn-a.akamaihd.net/steamcommunity/public/images/apps/694130/66c0fbfa7657b82c5700ac1b009248ccd763fa58.jpg",
    "icongray": "https://steamcdn-a.akamaihd.net/steamcommunity/public/images/apps/694130/0ff3ad875cf4ed24be71b56cad5770abbec42e22.jpg"
  },
  {
    "name": "ACH_BREED_SPECIES_3",
    "defaultvalue": 0,
    "displayName": "Breeding-Authority",
    "hidden": 0,
    "description": "Breed 30 different species of animals",
    "icon": "https://steamcdn-a.akamaihd.net/steamcommunity/public/images/apps/694130/255066b2b00710f98ec2becf03a3a3b45b842f48.jpg",
    "icongray": "https://steamcdn-a.akamaihd.net/steamcommunity/public/images/apps/694130/d07ef9ab5dd8576c202848995ce7d88b3b8c53b4.jpg"
  },
  {
    "name": "ACH_PLACE_ANIMALS_6",
    "defaultvalue": 0,
    "displayName": "Herd-Myth",
    "hidden": 0,
    "description": "Place 400 animals",
    "icon": "https://steamcdn-a.akamaihd.net/steamcommunity/public/images/apps/694130/7b5c39a9da3c4b0e17bbb5e2d34ec18765cbfac4.jpg",
    "icongray": "https://steamcdn-a.akamaihd.net/steamcommunity/public/images/apps/694130/a383902f523a41a0b10f4302a4d7d07e644cfc41.jpg"
  },
  {
    "name": "ACH_BUILD_ENCLOSURES_GRASS_1",
    "defaultvalue": 0,
    "displayName": "Grassland-Specialist",
    "hidden": 0,
    "description": "Build 5 grassland enclosures in your zoo",
    "icon": "https://steamcdn-a.akamaihd.net/steamcommunity/public/images/apps/694130/e832ea26dd0aa5719e8eb4adb86ecc158c3109e2.jpg",
    "icongray": "https://steamcdn-a.akamaihd.net/steamcommunity/public/images/apps/694130/48b8ea2ec85ca9dba0f6a0fea2ae5f4cffea04a7.jpg"
  },
  {
    "name": "ACH_BUILD_ENCLOSURES_ROCKS_2",
    "defaultvalue": 0,
    "displayName": "Rock-Expert",
    "hidden": 0,
    "description": "Build 10 rock enclosures in your zoo",
    "icon": "https://steamcdn-a.akamaihd.net/steamcommunity/public/images/apps/694130/86f26159298c29788e48be3d6f77ee4e9819f499.jpg",
    "icongray": "https://steamcdn-a.akamaihd.net/steamcommunity/public/images/apps/694130/5b546598aaeb6c323b4aab16aa6c18ee7917b6ba.jpg"
  },
  {
    "name": "ACH_BUILD_ENCLOSURES_FORREST_3",
    "defaultvalue": 0,
    "displayName": "Forest-Guru",
    "hidden": 0,
    "description": "Build 15 forest-enclosures in your zoo",
    "icon": "https://steamcdn-a.akamaihd.net/steamcommunity/public/images/apps/694130/e2bf6d895c766399483a5ed77c4de3eb13b78e9a.jpg",
    "icongray": "https://steamcdn-a.akamaihd.net/steamcommunity/public/images/apps/694130/a4f14b0caf2098f99019cd7e6ff713f114d9ab89.jpg"
  },
  {
    "name": "ACH_BUILD_ENCLOSURES_ICE_4",
    "defaultvalue": 0,
    "displayName": "Ice-Master",
    "hidden": 0,
    "description": "Build 20 ice enclosures in your zoo",
    "icon": "https://steamcdn-a.akamaihd.net/steamcommunity/public/images/apps/694130/77e38d25c16152d2e8b4d28c156940376030b81f.jpg",
    "icongray": "https://steamcdn-a.akamaihd.net/steamcommunity/public/images/apps/694130/5b17764e6a5177670e7268e9ece82121cede8f16.jpg"
  },
  {
    "name": "ACH_BUILD_ENCLOSURES_WATER_5",
    "defaultvalue": 0,
    "displayName": "Water-Guru",
    "hidden": 0,
    "description": "Place 25 water-enclosures in your zoo",
    "icon": "https://steamcdn-a.akamaihd.net/steamcommunity/public/images/apps/694130/86388a6e4f5e05f8568693a21db34e146bccacb7.jpg",
    "icongray": "https://steamcdn-a.akamaihd.net/steamcommunity/public/images/apps/694130/069966565342fb3b8d2817b7af84b8c01497ce05.jpg"
  },
  {
    "name": "ACH_BUILD_ENCLOSURES_JUNGLE_6",
    "defaultvalue": 0,
    "displayName": "Jungle-Myth",
    "hidden": 0,
    "description": "Build 35 jungle enclosures in your zoo",
    "icon": "https://steamcdn-a.akamaihd.net/steamcommunity/public/images/apps/694130/b405f0a666f580aae947053aa903b44cefb6aa58.jpg",
    "icongray": "https://steamcdn-a.akamaihd.net/steamcommunity/public/images/apps/694130/cf6c89d4a4c405a2a8a851b45f3fa1fa0389d423.jpg"
  },
  {
    "name": "ACH_BUILD_ENCLOSURES_SAVANNA_7",
    "defaultvalue": 0,
    "displayName": "Savanna-Legend",
    "hidden": 0,
    "description": "Build 50 savanna enclosures in your zoo",
    "icon": "https://steamcdn-a.akamaihd.net/steamcommunity/public/images/apps/694130/0b2e7529bbca2fd46d39d5261ea180f75a528d40.jpg",
    "icongray": "https://steamcdn-a.akamaihd.net/steamcommunity/public/images/apps/694130/1256e01638a768e256f4ac0a7c7d576bd5947ad5.jpg"
  },
  {
    "name": "ACH_PLACE_ANIMAL_SPECIES_3",
    "defaultvalue": 0,
    "displayName": "Species-Guru",
    "hidden": 0,
    "description": "Have 30 different species of animals in your zoo",
    "icon": "https://steamcdn-a.akamaihd.net/steamcommunity/public/images/apps/694130/0ac4b23bebc674d7d4023f9e13b975fa14292428.jpg",
    "icongray": "https://steamcdn-a.akamaihd.net/steamcommunity/public/images/apps/694130/0367f0937db35792c5d344f16b2dd5858f3c34ac.jpg"
  },
  {
    "name": "ACH_BUILD_DIFFERENT_DECORATIONS_1",
    "defaultvalue": 0,
    "displayName": "Decoration-Specialist",
    "hidden": 0,
    "description": "Place 25 different decorations in your zoo",
    "icon": "https://steamcdn-a.akamaihd.net/steamcommunity/public/images/apps/694130/f36eb8bc8d0ba961ba72da3c15717a056e3679ed.jpg",
    "icongray": "https://steamcdn-a.akamaihd.net/steamcommunity/public/images/apps/694130/b478fa92e956644096c9a31d50395e065f6079ed.jpg"
  },
  {
    "name": "ACH_BUILD_DIFFERENT_SHOPS_2",
    "defaultvalue": 0,
    "displayName": "Decoration-Expert",
    "hidden": 0,
    "description": "Place 10 different shops in your zoo",
    "icon": "https://steamcdn-a.akamaihd.net/steamcommunity/public/images/apps/694130/93b1ecd0ed6cfaf82d3346b2a255778220c7c309.jpg",
    "icongray": "https://steamcdn-a.akamaihd.net/steamcommunity/public/images/apps/694130/bce275d1e4d45d71ce1346e42671b3f1b5a3aae8.jpg"
  },
  {
    "name": "ACH_PLACE_PLANTS_7",
    "defaultvalue": 0,
    "displayName": "Botany-Legend",
    "hidden": 0,
    "description": "Place 6,000 plants in your zoo",
    "icon": "https://steamcdn-a.akamaihd.net/steamcommunity/public/images/apps/694130/24c7fa2b1e43aaf82ae2494e3767fd3aaa9ad9a7.jpg",
    "icongray": "https://steamcdn-a.akamaihd.net/steamcommunity/public/images/apps/694130/f92f5517cd74da9e90ad82776acd3e2d1770a248.jpg"
  },
  {
    "name": "ACH_FEED_ANIMALS_6",
    "defaultvalue": 0,
    "displayName": "Feed-Myth",
    "hidden": 0,
    "description": "Feed 5,000,000 animals in your zoo",
    "icon": "https://steamcdn-a.akamaihd.net/steamcommunity/public/images/apps/694130/eda55e270414de03dbd12c5987b4816784884307.jpg",
    "icongray": "https://steamcdn-a.akamaihd.net/steamcommunity/public/images/apps/694130/3c80a8a5b9ea078ad76eea9d3229b428196dae5d.jpg"
  },
  {
    "name": "ACH_GATHER_FRIEND_STARS_2",
    "defaultvalue": 0,
    "displayName": "Star-Expert",
    "hidden": 0,
    "description": "Collect 200 friendship stars",
    "icon": "https://steamcdn-a.akamaihd.net/steamcommunity/public/images/apps/694130/8d9202578f88de6b459c41f7c90214b25b48b85a.jpg",
    "icongray": "https://steamcdn-a.akamaihd.net/steamcommunity/public/images/apps/694130/7760615426464535696ea6bea569ec90a3f050f8.jpg"
  },
  {
    "name": "ACH_PLAY_DAYS_IN_ROW_2",
    "defaultvalue": 0,
    "displayName": "Stamina-Expert",
    "hidden": 0,
    "description": "Play for 7 days in a row",
    "icon": "https://steamcdn-a.akamaihd.net/steamcommunity/public/images/apps/694130/972782e28c6125a0c6b8f9f819509ed3318ff3b2.jpg",
    "icongray": "https://steamcdn-a.akamaihd.net/steamcommunity/public/images/apps/694130/6ef0d23b43ac22e257f5324bb80350b72be90132.jpg"
  },
  {
    "name": "ACH_RELEASE_ANIMALS_5",
    "defaultvalue": 0,
    "displayName": "Wildlife-Guru",
    "hidden": 0,
    "description": "Return 1,000 grown animals to the wild",
    "icon": "https://steamcdn-a.akamaihd.net/steamcommunity/public/images/apps/694130/1b50dfba7a6394d9b4e1bd9d4afa983d6ca6addf.jpg",
    "icongray": "https://steamcdn-a.akamaihd.net/steamcommunity/public/images/apps/694130/9a2fd8d3c5892d571b7bed2cc4b918755d24cc62.jpg"
  },
  {
    "name": "ACH_VISITORS_AT_ONCE_2",
    "defaultvalue": 0,
    "displayName": "Attraction-Expert",
    "hidden": 0,
    "description": "Ensure you have 100 visitors in your park at the same time",
    "icon": "https://steamcdn-a.akamaihd.net/steamcommunity/public/images/apps/694130/5594e158f70fc69703d57b54d6d8261409be833c.jpg",
    "icongray": "https://steamcdn-a.akamaihd.net/steamcommunity/public/images/apps/694130/21e43a0d6172af0070975b7026645f4b40509e9f.jpg"
  },
  {
    "name": "ACH_WATER_PLANTS_7",
    "defaultvalue": 0,
    "displayName": "Garden-Legend",
    "hidden": 0,
    "description": "Water 10,000,000 plants in your zoo",
    "icon": "https://steamcdn-a.akamaihd.net/steamcommunity/public/images/apps/694130/28964636fe3d08604e13e4cef09531de5ced9a77.jpg",
    "icongray": "https://steamcdn-a.akamaihd.net/steamcommunity/public/images/apps/694130/83ea2b8869f9f36290bbd3f7f51082207256bdf2.jpg"
  }
]