﻿{
  "Dlcs": {},
  "Name": "Iron Grip: Warlord",
  "AppId": "31700",
  "ImageUrl": "https://steamcdn-a.akamaihd.net/steam/apps/31700/header.jpg?t=1447353019",
  "Languages": [
    "english"
  ],
  "Platforms": {
    "windows": true,
    "mac": false,
    "linux": false
  }
}