﻿{
  "Dlcs": {
    "738960": {
      "Name": "Tiny Barbarian DX OST",
      "ImageUrl": "https://steamcdn-a.akamaihd.net/steam/apps/738960/header.jpg?t=1583468334"
    }
  },
  "Name": "Tiny Barbarian DX",
  "AppId": "253350",
  "ImageUrl": "https://steamcdn-a.akamaihd.net/steam/apps/253350/header.jpg?t=1583175119",
  "Languages": [
    "english"
  ],
  "Platforms": {
    "windows": true,
    "mac": true,
    "linux": true
  }
}