﻿[
  {
    "name": "COMPLETE_WORLD_1",
    "defaultvalue": 0,
    "displayName": "Turning into liquid is a thing",
    "hidden": 0,
    "description": "Complete World 1.",
    "icon": "https://steamcdn-a.akamaihd.net/steamcommunity/public/images/apps/498330/bccf7e5eb25656c8e3cb7816f3477422eac45005.jpg",
    "icongray": "https://steamcdn-a.akamaihd.net/steamcommunity/public/images/apps/498330/fac7950601be4f04de5ed4e02ce72c955b64bfef.jpg"
  },
  {
    "name": "COMPLETE_WORLD_2",
    "defaultvalue": 0,
    "displayName": "Flying is also a thing",
    "hidden": 0,
    "description": "Complete World 2.",
    "icon": "https://steamcdn-a.akamaihd.net/steamcommunity/public/images/apps/498330/b23327cc3c37559d7361dddb8a7be0a82a2ded8b.jpg",
    "icongray": "https://steamcdn-a.akamaihd.net/steamcommunity/public/images/apps/498330/fac7950601be4f04de5ed4e02ce72c955b64bfef.jpg"
  },
  {
    "name": "COMPLETE_WORLD_3",
    "defaultvalue": 0,
    "displayName": "New things to interact with",
    "hidden": 0,
    "description": "Complete World 3.",
    "icon": "https://steamcdn-a.akamaihd.net/steamcommunity/public/images/apps/498330/a29efbb5cc505e4e645959c1cc6bf68e85d88680.jpg",
    "icongray": "https://steamcdn-a.akamaihd.net/steamcommunity/public/images/apps/498330/fac7950601be4f04de5ed4e02ce72c955b64bfef.jpg"
  },
  {
    "name": "COMPLETE_WORLD_4",
    "defaultvalue": 0,
    "displayName": "A gray square",
    "hidden": 0,
    "description": "Complete World 4.",
    "icon": "https://steamcdn-a.akamaihd.net/steamcommunity/public/images/apps/498330/8abeb3efe9dea8a2f7a73c316183a91bc6830b24.jpg",
    "icongray": "https://steamcdn-a.akamaihd.net/steamcommunity/public/images/apps/498330/fac7950601be4f04de5ed4e02ce72c955b64bfef.jpg"
  },
  {
    "name": "COMPLETE_WORLD_5",
    "defaultvalue": 0,
    "displayName": "Movement is impossible",
    "hidden": 0,
    "description": "Complete World 5.",
    "icon": "https://steamcdn-a.akamaihd.net/steamcommunity/public/images/apps/498330/daf8315b65bde133b787eb0d3562f9db41e7db0f.jpg",
    "icongray": "https://steamcdn-a.akamaihd.net/steamcommunity/public/images/apps/498330/fac7950601be4f04de5ed4e02ce72c955b64bfef.jpg"
  },
  {
    "name": "COMPLETE_WORLD_6",
    "defaultvalue": 0,
    "displayName": "Nothing lasts forever",
    "hidden": 0,
    "description": "Complete World 6.",
    "icon": "https://steamcdn-a.akamaihd.net/steamcommunity/public/images/apps/498330/38c0727e3229a5ff077db1096a632279fa74a157.jpg",
    "icongray": "https://steamcdn-a.akamaihd.net/steamcommunity/public/images/apps/498330/fac7950601be4f04de5ed4e02ce72c955b64bfef.jpg"
  },
  {
    "name": "COMPLETE_WORLD_7",
    "defaultvalue": 0,
    "displayName": "Please don't do this",
    "hidden": 0,
    "description": "Complete World 7.",
    "icon": "https://steamcdn-a.akamaihd.net/steamcommunity/public/images/apps/498330/7b0af8ad764c98e0815285169112a358f9b7f9c6.jpg",
    "icongray": "https://steamcdn-a.akamaihd.net/steamcommunity/public/images/apps/498330/fac7950601be4f04de5ed4e02ce72c955b64bfef.jpg"
  },
  {
    "name": "COMPLETE_WORLD_8",
    "defaultvalue": 0,
    "displayName": "It's all gone",
    "hidden": 0,
    "description": "Complete World 8.",
    "icon": "https://steamcdn-a.akamaihd.net/steamcommunity/public/images/apps/498330/c475919965e7500aeda96ea91410da472e196ea8.jpg",
    "icongray": "https://steamcdn-a.akamaihd.net/steamcommunity/public/images/apps/498330/fac7950601be4f04de5ed4e02ce72c955b64bfef.jpg"
  },
  {
    "name": "COMPLETE_WORLD_9",
    "defaultvalue": 0,
    "displayName": "The Exit",
    "hidden": 0,
    "description": "Complete the game.",
    "icon": "https://steamcdn-a.akamaihd.net/steamcommunity/public/images/apps/498330/5483413006d6a1febec64a85455134d1049615f9.jpg",
    "icongray": "https://steamcdn-a.akamaihd.net/steamcommunity/public/images/apps/498330/fac7950601be4f04de5ed4e02ce72c955b64bfef.jpg"
  },
  {
    "name": "ALWAYS_THERE",
    "defaultvalue": 0,
    "displayName": "Always There",
    "hidden": 1,
    "icon": "https://steamcdn-a.akamaihd.net/steamcommunity/public/images/apps/498330/067bb1fadba9cbcf9a2bca54373f025f6e18d5a2.jpg",
    "icongray": "https://steamcdn-a.akamaihd.net/steamcommunity/public/images/apps/498330/fac7950601be4f04de5ed4e02ce72c955b64bfef.jpg"
  },
  {
    "name": "PACIFIST_RUN",
    "defaultvalue": 0,
    "displayName": "Pacifist Run",
    "hidden": 0,
    "description": "Complete the entire game without destroying any moving enemies, in a single run.",
    "icon": "https://steamcdn-a.akamaihd.net/steamcommunity/public/images/apps/498330/122e324cd7cb3aed2a06ad0b4526c90a2120d478.jpg",
    "icongray": "https://steamcdn-a.akamaihd.net/steamcommunity/public/images/apps/498330/fac7950601be4f04de5ed4e02ce72c955b64bfef.jpg"
  },
  {
    "name": "GOD_MODE",
    "defaultvalue": 0,
    "displayName": "God Mode",
    "hidden": 0,
    "description": "Complete the entire game without dying, in a single run.",
    "icon": "https://steamcdn-a.akamaihd.net/steamcommunity/public/images/apps/498330/122e324cd7cb3aed2a06ad0b4526c90a2120d478.jpg",
    "icongray": "https://steamcdn-a.akamaihd.net/steamcommunity/public/images/apps/498330/fac7950601be4f04de5ed4e02ce72c955b64bfef.jpg"
  },
  {
    "name": "COMPLETE_LP1_1",
    "defaultvalue": 0,
    "displayName": "Boost",
    "hidden": 0,
    "description": "Complete Companion Phase 1.",
    "icon": "https://steamcdn-a.akamaihd.net/steamcommunity/public/images/apps/498330/9ea52917c89842e55e06bab9056804eb1153fdb6.jpg",
    "icongray": "https://steamcdn-a.akamaihd.net/steamcommunity/public/images/apps/498330/4f8449159f4d6d6ac212c5a402fc0952409a8ddd.jpg"
  },
  {
    "name": "COMPLETE_LP1_2",
    "defaultvalue": 0,
    "displayName": "Jump",
    "hidden": 0,
    "description": "Complete Companion Phase 2.",
    "icon": "https://steamcdn-a.akamaihd.net/steamcommunity/public/images/apps/498330/36a892de75353d797e96a31df0b5472ed6b8c0d6.jpg",
    "icongray": "https://steamcdn-a.akamaihd.net/steamcommunity/public/images/apps/498330/8127f776fe185c5058809255f1009e3c3cc55285.jpg"
  },
  {
    "name": "COMPLETE_LP1_3",
    "defaultvalue": 0,
    "displayName": "Ghost",
    "hidden": 0,
    "description": "Complete Companion Phase 3.",
    "icon": "https://steamcdn-a.akamaihd.net/steamcommunity/public/images/apps/498330/b443c1e181f5427bf47de6bdc1c7cea9772b83f8.jpg",
    "icongray": "https://steamcdn-a.akamaihd.net/steamcommunity/public/images/apps/498330/a0d3f7266c068516a5b699df20d8dc9cd9370672.jpg"
  },
  {
    "name": "COMPLETE_LP2",
    "defaultvalue": 0,
    "displayName": "The Reset",
    "hidden": 0,
    "description": "Complete the The Reset level pack.",
    "icon": "https://steamcdn-a.akamaihd.net/steamcommunity/public/images/apps/498330/1845bdbc090dbe939b9672990172db7f8d71f7c2.jpg",
    "icongray": "https://steamcdn-a.akamaihd.net/steamcommunity/public/images/apps/498330/1a4f90ccabdc19c1e0c7e1dffe1e58e86e41acc0.jpg"
  }
]