﻿{
  "Dlcs": {},
  "Name": "Microtransaction Simulator",
  "AppId": "689090",
  "ImageUrl": "https://steamcdn-a.akamaihd.net/steam/apps/689090/header.jpg?t=1585503738",
  "Languages": [
    "english"
  ],
  "Platforms": {
    "windows": true,
    "mac": true,
    "linux": true
  }
}