﻿{
  "Dlcs": {
    "285370": {
      "Name": "",
      "ImageUrl": ""
    }
  },
  "Name": "Tower of Guns",
  "AppId": "266110",
  "ImageUrl": "https://steamcdn-a.akamaihd.net/steam/apps/266110/header.jpg?t=1589074882",
  "Languages": [
    "english"
  ],
  "Platforms": {
    "windows": true,
    "mac": true,
    "linux": true
  }
}