﻿{
  "Dlcs": {},
  "Name": "War Planet Online: Global Conquest",
  "AppId": "719640",
  "ImageUrl": "https://steamcdn-a.akamaihd.net/steam/apps/719640/header.jpg?t=1562087825",
  "Languages": [
    "english",
    "french",
    "italian",
    "german",
    "spanish",
    "arabic",
    "japanese",
    "korean",
    "portuguese",
    "russian",
    "schinese",
    "thai",
    "tchinese",
    "turkish"
  ],
  "Platforms": {
    "windows": true,
    "mac": false,
    "linux": false
  }
}