﻿[
  {
    "name": "ACHIEVEMENT_0",
    "defaultvalue": 0,
    "displayName": "Tutorial",
    "hidden": 0,
    "description": "Finish the tutorial",
    "icon": "https://steamcdn-a.akamaihd.net/steamcommunity/public/images/apps/253650/1dd9d0e727545059b7d979681761c8e11deb72f9.jpg",
    "icongray": "https://steamcdn-a.akamaihd.net/steamcommunity/public/images/apps/253650/bd05290c08318462d2e617464af8b5e0d224e04d.jpg"
  },
  {
    "name": "ACHIEVEMENT_1",
    "defaultvalue": 0,
    "displayName": "10 species",
    "hidden": 0,
    "description": "Eat 10 species",
    "icon": "https://steamcdn-a.akamaihd.net/steamcommunity/public/images/apps/253650/c1b1047654dbba58e8a7c7db720db65add981431.jpg",
    "icongray": "https://steamcdn-a.akamaihd.net/steamcommunity/public/images/apps/253650/e4617e37d7272f73701a98ce5b2108f00c74e391.jpg"
  },
  {
    "name": "ACHIEVEMENT_2",
    "defaultvalue": 0,
    "displayName": "50 species",
    "hidden": 0,
    "description": "Eat 50 species",
    "icon": "https://steamcdn-a.akamaihd.net/steamcommunity/public/images/apps/253650/9c7ea49114dab8e154daecf13f4c25d60bfac682.jpg",
    "icongray": "https://steamcdn-a.akamaihd.net/steamcommunity/public/images/apps/253650/230c6a890bd17eb6d7eb1382d15a7b74fce53304.jpg"
  },
  {
    "name": "ACHIEVEMENT_3",
    "defaultvalue": 0,
    "displayName": "100 species",
    "hidden": 0,
    "description": "Eat 100 species",
    "icon": "https://steamcdn-a.akamaihd.net/steamcommunity/public/images/apps/253650/ba29739962d5187ca4fc7607b5edb7b20efa0b94.jpg",
    "icongray": "https://steamcdn-a.akamaihd.net/steamcommunity/public/images/apps/253650/2919bd2780dd3b010872e2d8bd58dcbf0fb64e4d.jpg"
  },
  {
    "name": "ACHIEVEMENT_4",
    "defaultvalue": 0,
    "displayName": "Element Master",
    "hidden": 0,
    "description": "Discover three basic elements",
    "icon": "https://steamcdn-a.akamaihd.net/steamcommunity/public/images/apps/253650/7cc40f46112c8ad777207872868111f013bfd81c.jpg",
    "icongray": "https://steamcdn-a.akamaihd.net/steamcommunity/public/images/apps/253650/187f879f34fc122a25b1c46b1af5a015a349e57b.jpg"
  },
  {
    "name": "ACHIEVEMENT_5",
    "defaultvalue": 0,
    "displayName": "Nebula",
    "hidden": 0,
    "description": "Discover a Nebula",
    "icon": "https://steamcdn-a.akamaihd.net/steamcommunity/public/images/apps/253650/ef1d50fe7a3fa13dbf4627dd44c95b86d5e8cafa.jpg",
    "icongray": "https://steamcdn-a.akamaihd.net/steamcommunity/public/images/apps/253650/b48ac8a20a00837b7eb7a0cdef2544d635071eaf.jpg"
  },
  {
    "name": "ACHIEVEMENT_6",
    "defaultvalue": 0,
    "displayName": "JellyFish",
    "hidden": 0,
    "description": "Discover a JellyFish",
    "icon": "https://steamcdn-a.akamaihd.net/steamcommunity/public/images/apps/253650/9669d59e1435dd416b463173db0ad190d174e9c9.jpg",
    "icongray": "https://steamcdn-a.akamaihd.net/steamcommunity/public/images/apps/253650/f5d77da7611c07ffa4641c4dfd0b25a1b482a0f0.jpg"
  },
  {
    "name": "ACHIEVEMENT_7",
    "defaultvalue": 0,
    "displayName": "Glowing squid",
    "hidden": 0,
    "description": "Discover a Glowing squid",
    "icon": "https://steamcdn-a.akamaihd.net/steamcommunity/public/images/apps/253650/2dc2d11e3d70a07eea367fb5a2659a8e60860cea.jpg",
    "icongray": "https://steamcdn-a.akamaihd.net/steamcommunity/public/images/apps/253650/72b972ed2b4027af37619339f50219307e8b8318.jpg"
  },
  {
    "name": "ACHIEVEMENT_8",
    "defaultvalue": 0,
    "displayName": "Glass squid",
    "hidden": 0,
    "description": "Discover a Glass squid",
    "icon": "https://steamcdn-a.akamaihd.net/steamcommunity/public/images/apps/253650/7400544ad1b7927b4b1f1b87cf38a825fbafa3b5.jpg",
    "icongray": "https://steamcdn-a.akamaihd.net/steamcommunity/public/images/apps/253650/abb6170a1bc4f6b7eea1eaf37829804ae025da4e.jpg"
  },
  {
    "name": "ACHIEVEMENT_9",
    "defaultvalue": 0,
    "displayName": "Skeleton",
    "hidden": 0,
    "description": "Discover a Skeleton",
    "icon": "https://steamcdn-a.akamaihd.net/steamcommunity/public/images/apps/253650/8fee938136f41063d70b5143ca81d1e5336bb2b1.jpg",
    "icongray": "https://steamcdn-a.akamaihd.net/steamcommunity/public/images/apps/253650/ee26058007f901a932ff27bfd703516ce537e98a.jpg"
  },
  {
    "name": "ACHIEVEMENT_10",
    "defaultvalue": 0,
    "displayName": "Trucheon",
    "hidden": 0,
    "description": "Discover a ",
    "icon": "https://steamcdn-a.akamaihd.net/steamcommunity/public/images/apps/253650/c5f7bcb09ecfe26564fcccfe4919b78f1917fdcd.jpg",
    "icongray": "https://steamcdn-a.akamaihd.net/steamcommunity/public/images/apps/253650/1a9cb47cd6b8eab8084b7423d8f89d2cfcdd7425.jpg"
  },
  {
    "name": "ACHIEVEMENT_11",
    "defaultvalue": 0,
    "displayName": "Phantom",
    "hidden": 0,
    "description": "Discover a Phantom",
    "icon": "https://steamcdn-a.akamaihd.net/steamcommunity/public/images/apps/253650/5f39d38315a35dbdf60269ef919975de41d8b1ea.jpg",
    "icongray": "https://steamcdn-a.akamaihd.net/steamcommunity/public/images/apps/253650/18685d0394eb49ce592975bb53e2c7e4c7917c7b.jpg"
  },
  {
    "name": "ACHIEVEMENT_12",
    "defaultvalue": 0,
    "displayName": "Anemone",
    "hidden": 0,
    "description": "Discover a Anemone",
    "icon": "https://steamcdn-a.akamaihd.net/steamcommunity/public/images/apps/253650/1d5619f8b15ce222f77229550b1f0034157da9a5.jpg",
    "icongray": "https://steamcdn-a.akamaihd.net/steamcommunity/public/images/apps/253650/be9462efd58cf02eddbbefbe1d530362f27c6027.jpg"
  },
  {
    "name": "ACHIEVEMENT_13",
    "defaultvalue": 0,
    "displayName": "Malaria",
    "hidden": 0,
    "description": "Discover a Malaria",
    "icon": "https://steamcdn-a.akamaihd.net/steamcommunity/public/images/apps/253650/8db65984efc698478e7522886bb6ff62fbc6e0ef.jpg",
    "icongray": "https://steamcdn-a.akamaihd.net/steamcommunity/public/images/apps/253650/2a3d4d4d68448155c9b0b6988e8d63f0b8ccf936.jpg"
  },
  {
    "name": "ACHIEVEMENT_14",
    "defaultvalue": 0,
    "displayName": "Fish",
    "hidden": 0,
    "description": "Discover a Fish",
    "icon": "https://steamcdn-a.akamaihd.net/steamcommunity/public/images/apps/253650/429377329d7f3d8eaf3db83bffab8314f273b170.jpg",
    "icongray": "https://steamcdn-a.akamaihd.net/steamcommunity/public/images/apps/253650/c89e52d08818c551c476e8a1ed2b70b931bb46ed.jpg"
  },
  {
    "name": "ACHIEVEMENT_15",
    "defaultvalue": 0,
    "displayName": "Bloodbelly",
    "hidden": 0,
    "description": "Discover a Bloodbelly",
    "icon": "https://steamcdn-a.akamaihd.net/steamcommunity/public/images/apps/253650/d90e40a588ba05034b77ebd4bc0b140cbd6abb06.jpg",
    "icongray": "https://steamcdn-a.akamaihd.net/steamcommunity/public/images/apps/253650/e5a9bf9fc4c58de3e696afd0c76f9edbc5219e0d.jpg"
  },
  {
    "name": "ACHIEVEMENT_16",
    "defaultvalue": 0,
    "displayName": "Giant - Octury",
    "hidden": 0,
    "description": "Unlock and finish \"Octury Deep\" zone",
    "icon": "https://steamcdn-a.akamaihd.net/steamcommunity/public/images/apps/253650/ad283375a28519c41eafe4ac203a2f987cf922b8.jpg",
    "icongray": "https://steamcdn-a.akamaihd.net/steamcommunity/public/images/apps/253650/5978a327b60ca8a3a489ab94a75cc1cac9310374.jpg"
  },
  {
    "name": "ACHIEVEMENT_18",
    "defaultvalue": 0,
    "displayName": "Giant - Squidworm",
    "hidden": 0,
    "description": "Unlock and finish \"Squidworm\" zone",
    "icon": "https://steamcdn-a.akamaihd.net/steamcommunity/public/images/apps/253650/9b77c8f496c3ed0048f9288b0e91491c5e04de75.jpg",
    "icongray": "https://steamcdn-a.akamaihd.net/steamcommunity/public/images/apps/253650/1c4ca886696c5db71111c12bb5f427a18fc1d99c.jpg"
  },
  {
    "name": "ACHIEVEMENT_19",
    "defaultvalue": 0,
    "displayName": "Stage 1",
    "hidden": 0,
    "description": "Evolve to stage 1",
    "icon": "https://steamcdn-a.akamaihd.net/steamcommunity/public/images/apps/253650/6c4dd27f1270aae75495f59293f8850f70050c3a.jpg",
    "icongray": "https://steamcdn-a.akamaihd.net/steamcommunity/public/images/apps/253650/9a77b94a39bc406ddbce3a025e40a6be9c8cf6e4.jpg"
  },
  {
    "name": "ACHIEVEMENT_20",
    "defaultvalue": 0,
    "displayName": "Stage 2",
    "hidden": 0,
    "description": "Evolve to stage 2",
    "icon": "https://steamcdn-a.akamaihd.net/steamcommunity/public/images/apps/253650/7425b7ac2e5fe483edd567f9568fd25c9cb90bf8.jpg",
    "icongray": "https://steamcdn-a.akamaihd.net/steamcommunity/public/images/apps/253650/b6cded0bab50b4567ff2bd386a933d4a8e0e72aa.jpg"
  },
  {
    "name": "ACHIEVEMENT_21",
    "defaultvalue": 0,
    "displayName": "Stage 3",
    "hidden": 0,
    "description": "Evolve to stage 3",
    "icon": "https://steamcdn-a.akamaihd.net/steamcommunity/public/images/apps/253650/2e980456e0239c52f1d57288ee8ecb6fcf1401be.jpg",
    "icongray": "https://steamcdn-a.akamaihd.net/steamcommunity/public/images/apps/253650/3cbeca4f4f0da4f4102593a967ae812e43def817.jpg"
  },
  {
    "name": "ACHIEVEMENT_22",
    "defaultvalue": 0,
    "displayName": "Stage Master",
    "hidden": 0,
    "description": "Evolve to stage 4",
    "icon": "https://steamcdn-a.akamaihd.net/steamcommunity/public/images/apps/253650/7bbef67b4ff662589b023e28c005bc8cc03c7b7f.jpg",
    "icongray": "https://steamcdn-a.akamaihd.net/steamcommunity/public/images/apps/253650/f2f82bd6786930a11be39e1c8a247163754cfc97.jpg"
  }
]