﻿{
  "Dlcs": {},
  "Name": "Time Ramesside (A New Reckoning)",
  "AppId": "290650",
  "ImageUrl": "https://steamcdn-a.akamaihd.net/steam/apps/290650/header.jpg?t=1449103758",
  "Languages": [
    "english"
  ],
  "Platforms": {
    "windows": true,
    "mac": false,
    "linux": false
  }
}