﻿[
  {
    "name": "ACH_Finish_Chapter01",
    "defaultvalue": 0,
    "displayName": "Winter is coming",
    "hidden": 1,
    "icon": "https://steamcdn-a.akamaihd.net/steamcommunity/public/images/apps/208730/bb19449feb72e25dd45c459b46b029d0adddfb16.jpg",
    "icongray": "https://steamcdn-a.akamaihd.net/steamcommunity/public/images/apps/208730/1a57c7fd28b64220597e433a5dfe8b2d2cedc909.jpg"
  },
  {
    "name": "ACH_Finish_Chapter02",
    "defaultvalue": 0,
    "displayName": "Family is hope...",
    "hidden": 1,
    "icon": "https://steamcdn-a.akamaihd.net/steamcommunity/public/images/apps/208730/f58342004140e42570ec6329857c0b303bdea415.jpg",
    "icongray": "https://steamcdn-a.akamaihd.net/steamcommunity/public/images/apps/208730/301b31e4e5a1ca678b4c7b3cbb5a8add69a35c15.jpg"
  },
  {
    "name": "ACH_Finish_Chapter03",
    "defaultvalue": 0,
    "displayName": "Dark wings, dark words",
    "hidden": 1,
    "icon": "https://steamcdn-a.akamaihd.net/steamcommunity/public/images/apps/208730/a01a570bc5df27b4e61aecf2ac68638f65874aed.jpg",
    "icongray": "https://steamcdn-a.akamaihd.net/steamcommunity/public/images/apps/208730/e6ed425e8e83df611e82845f4ea8b7460a3308fa.jpg"
  },
  {
    "name": "ACH_Finish_Chapter04",
    "defaultvalue": 0,
    "displayName": "Hear me roar",
    "hidden": 1,
    "icon": "https://steamcdn-a.akamaihd.net/steamcommunity/public/images/apps/208730/a959e56d4a276079df1e8ddf1a26f26fb2b5b683.jpg",
    "icongray": "https://steamcdn-a.akamaihd.net/steamcommunity/public/images/apps/208730/bbf7c829fa4ebd6330a169c2f72dfdaa231d9f80.jpg"
  },
  {
    "name": "ACH_Finish_Chapter05",
    "defaultvalue": 0,
    "displayName": "Proud to be faithful",
    "hidden": 1,
    "icon": "https://steamcdn-a.akamaihd.net/steamcommunity/public/images/apps/208730/ea3face062a202dd0fc25d2d1021e406a8628b57.jpg",
    "icongray": "https://steamcdn-a.akamaihd.net/steamcommunity/public/images/apps/208730/0efdfc6cf2b77a223c55c3590d149a8f7ba70e7b.jpg"
  },
  {
    "name": "ACH_Finish_Chapter06",
    "defaultvalue": 0,
    "displayName": "Dead men sing no songs",
    "hidden": 1,
    "icon": "https://steamcdn-a.akamaihd.net/steamcommunity/public/images/apps/208730/3f32b0bfdd63a35c043d06f403a7d5ec9df0509d.jpg",
    "icongray": "https://steamcdn-a.akamaihd.net/steamcommunity/public/images/apps/208730/cc04cc1f11654caece1c809f37a58c599fffafd7.jpg"
  },
  {
    "name": "ACH_Finish_Chapter07",
    "defaultvalue": 0,
    "displayName": "Here we stand",
    "hidden": 1,
    "icon": "https://steamcdn-a.akamaihd.net/steamcommunity/public/images/apps/208730/99ececf9702d70df712fe104ab9463feaece3548.jpg",
    "icongray": "https://steamcdn-a.akamaihd.net/steamcommunity/public/images/apps/208730/2955f13ed630468023d4da65cea06e2d467b07cc.jpg"
  },
  {
    "name": "ACH_Finish_Chapter08",
    "defaultvalue": 0,
    "displayName": "Family, duty, honor",
    "hidden": 1,
    "icon": "https://steamcdn-a.akamaihd.net/steamcommunity/public/images/apps/208730/677dfe5735c20278f5424f54f8108b282d4db4c2.jpg",
    "icongray": "https://steamcdn-a.akamaihd.net/steamcommunity/public/images/apps/208730/cf1a209f4f577a4b99019fdc667e0ee3f8fec628.jpg"
  },
  {
    "name": "ACH_Finish_Chapter09",
    "defaultvalue": 0,
    "displayName": "Unbowed, unbent, unbroken",
    "hidden": 1,
    "icon": "https://steamcdn-a.akamaihd.net/steamcommunity/public/images/apps/208730/d2d68f19c1dd7aaa33f5e9fcf193e8536f1b1ea8.jpg",
    "icongray": "https://steamcdn-a.akamaihd.net/steamcommunity/public/images/apps/208730/6421a9216023a2f78a727b7e26c26918cf471932.jpg"
  },
  {
    "name": "ACH_Finish_Chapter10",
    "defaultvalue": 0,
    "displayName": "Fire and blood",
    "hidden": 1,
    "icon": "https://steamcdn-a.akamaihd.net/steamcommunity/public/images/apps/208730/cac3ecf7a20e1c71ab20a83728e5a22390e14d00.jpg",
    "icongray": "https://steamcdn-a.akamaihd.net/steamcommunity/public/images/apps/208730/c552a2c25404acbf5e9bf61dfaeac378a96084e2.jpg"
  },
  {
    "name": "ACH_Finish_Chapter11",
    "defaultvalue": 0,
    "displayName": "Come try me",
    "hidden": 1,
    "icon": "https://steamcdn-a.akamaihd.net/steamcommunity/public/images/apps/208730/1e16890325618877a7a164ca900eb965d27a09ca.jpg",
    "icongray": "https://steamcdn-a.akamaihd.net/steamcommunity/public/images/apps/208730/613ba6c65e93a16e501aec77af8bdafed0f7c569.jpg"
  },
  {
    "name": "ACH_Finish_Chapter12",
    "defaultvalue": 0,
    "displayName": "As high as honor",
    "hidden": 1,
    "icon": "https://steamcdn-a.akamaihd.net/steamcommunity/public/images/apps/208730/8a4e9f84a879002299b91454a0fb33a7c1d85733.jpg",
    "icongray": "https://steamcdn-a.akamaihd.net/steamcommunity/public/images/apps/208730/3225d016bd765bd575949906746fadcba6d18d4e.jpg"
  },
  {
    "name": "ACH_Finish_Chapter13",
    "defaultvalue": 0,
    "displayName": "Growing strong",
    "hidden": 1,
    "icon": "https://steamcdn-a.akamaihd.net/steamcommunity/public/images/apps/208730/d29aa6a34a66df9d93186fbbcb7a8a1c1e32db0d.jpg",
    "icongray": "https://steamcdn-a.akamaihd.net/steamcommunity/public/images/apps/208730/46b4b284832281f3c7d91cc3464d8e9cefb82663.jpg"
  },
  {
    "name": "ACH_Finish_Chapter14",
    "defaultvalue": 0,
    "displayName": "Valar morghulis",
    "hidden": 1,
    "icon": "https://steamcdn-a.akamaihd.net/steamcommunity/public/images/apps/208730/1821709e4104e5606d44511dabc4bcbc04ea06d9.jpg",
    "icongray": "https://steamcdn-a.akamaihd.net/steamcommunity/public/images/apps/208730/af425d9335bddb3120dccd16d220f1fba645d624.jpg"
  },
  {
    "name": "ACH_Finish_Chapter15",
    "defaultvalue": 0,
    "displayName": "The night is dark...",
    "hidden": 1,
    "icon": "https://steamcdn-a.akamaihd.net/steamcommunity/public/images/apps/208730/72a476ff79ec3d602f27af5ff71fc343706b9087.jpg",
    "icongray": "https://steamcdn-a.akamaihd.net/steamcommunity/public/images/apps/208730/a88d7d4b7369ec90fe093dbc9da602fa801c278a.jpg"
  },
  {
    "name": "ACH_Finish_Chapter16A",
    "defaultvalue": 0,
    "displayName": "Red priest of R'hllor",
    "hidden": 1,
    "icon": "https://steamcdn-a.akamaihd.net/steamcommunity/public/images/apps/208730/67c849b617792198f97a1547313b84b1d7236401.jpg",
    "icongray": "https://steamcdn-a.akamaihd.net/steamcommunity/public/images/apps/208730/2009b01a93e43a0e01502cd6fba652ab40d380ac.jpg"
  },
  {
    "name": "ACH_Finish_Chapter16M",
    "defaultvalue": 0,
    "displayName": "Sworn brother",
    "hidden": 1,
    "icon": "https://steamcdn-a.akamaihd.net/steamcommunity/public/images/apps/208730/a61eba6cd402ce98972b754eb1843863d1c2c186.jpg",
    "icongray": "https://steamcdn-a.akamaihd.net/steamcommunity/public/images/apps/208730/cb8ca077962c14cd629683df9b25c9b24c9176df.jpg"
  },
  {
    "name": "ACH_Chp01_Full_Training",
    "defaultvalue": 0,
    "displayName": "Disciplinarian",
    "hidden": 1,
    "icon": "https://steamcdn-a.akamaihd.net/steamcommunity/public/images/apps/208730/14bf5e39fa6531b27a2c5658a18d045763c72569.jpg",
    "icongray": "https://steamcdn-a.akamaihd.net/steamcommunity/public/images/apps/208730/f313dca320ce3982ae405227bb32db6b3d1a906f.jpg"
  },
  {
    "name": "ACH_Chp02_With_Nobles",
    "defaultvalue": 0,
    "displayName": "Know your place",
    "hidden": 1,
    "icon": "https://steamcdn-a.akamaihd.net/steamcommunity/public/images/apps/208730/c93173c1347628dace9432e33379f3a7f35a6ab9.jpg",
    "icongray": "https://steamcdn-a.akamaihd.net/steamcommunity/public/images/apps/208730/8bf5d952daca97f0ebcce8ba64870248d2f6f92e.jpg"
  },
  {
    "name": "ACH_Chp02_With_People",
    "defaultvalue": 0,
    "displayName": "Man of the people",
    "hidden": 1,
    "icon": "https://steamcdn-a.akamaihd.net/steamcommunity/public/images/apps/208730/839f913723bc0af3499f7fa72351782a61b0ffc4.jpg",
    "icongray": "https://steamcdn-a.akamaihd.net/steamcommunity/public/images/apps/208730/12ea0f372048c7b71d6afde0ebc0814460b935fe.jpg"
  },
  {
    "name": "ACH_Chp04_Not_Lose_Bastard",
    "defaultvalue": 0,
    "displayName": "End of the line",
    "hidden": 1,
    "icon": "https://steamcdn-a.akamaihd.net/steamcommunity/public/images/apps/208730/3500be104a8d02dd028468beba48e951f1f0bd74.jpg",
    "icongray": "https://steamcdn-a.akamaihd.net/steamcommunity/public/images/apps/208730/7b15bd2cdb07d570a86caa1acaf5c5cee4091e87.jpg"
  },
  {
    "name": "ACH_Chp05_Find_All_Corrupt",
    "defaultvalue": 0,
    "displayName": "Bloodhound",
    "hidden": 1,
    "icon": "https://steamcdn-a.akamaihd.net/steamcommunity/public/images/apps/208730/b32bbb6c1831ad4dab1e5c0d7acdcf419137ad8a.jpg",
    "icongray": "https://steamcdn-a.akamaihd.net/steamcommunity/public/images/apps/208730/c34540c5124ce47c626e24c39e1a544c998dd2f9.jpg"
  },
  {
    "name": "ACH_Chp05_Not_Kill_Sentries",
    "defaultvalue": 0,
    "displayName": "Once more unto the breach",
    "hidden": 1,
    "icon": "https://steamcdn-a.akamaihd.net/steamcommunity/public/images/apps/208730/0cbc3d25ae2c2f8ebd82bdab2a5dfd58cac9e38f.jpg",
    "icongray": "https://steamcdn-a.akamaihd.net/steamcommunity/public/images/apps/208730/29fbfc99a49388b2c15d69536a90920cf6377279.jpg"
  },
  {
    "name": "ACH_Chp06_Save_Orys",
    "defaultvalue": 0,
    "displayName": "Am I not merciful?",
    "hidden": 1,
    "icon": "https://steamcdn-a.akamaihd.net/steamcommunity/public/images/apps/208730/44520e4e2cf2e6841ab12a75a21ca20b2c006a16.jpg",
    "icongray": "https://steamcdn-a.akamaihd.net/steamcommunity/public/images/apps/208730/6b4aca83d345d314d644b09533ad5668f8d226a1.jpg"
  },
  {
    "name": "ACH_Chp06_Grave_Key",
    "defaultvalue": 0,
    "displayName": "Desecration",
    "hidden": 1,
    "icon": "https://steamcdn-a.akamaihd.net/steamcommunity/public/images/apps/208730/8fe8fe5dbc80633e430f5fb225fa0475cc56e887.jpg",
    "icongray": "https://steamcdn-a.akamaihd.net/steamcommunity/public/images/apps/208730/36acb1b62b39ad4ef7dd542f8a1b743cd975d951.jpg"
  },
  {
    "name": "ACH_Chp07_Kill_Soldiers",
    "defaultvalue": 0,
    "displayName": "The butcher comes to dinner",
    "hidden": 1,
    "icon": "https://steamcdn-a.akamaihd.net/steamcommunity/public/images/apps/208730/ab6e676fc849cc8a0cded5953825b654bb337348.jpg",
    "icongray": "https://steamcdn-a.akamaihd.net/steamcommunity/public/images/apps/208730/6bf85d740bf989be2b97420fcb8640e7690e8157.jpg"
  },
  {
    "name": "ACH_Chp07_Full_Torture",
    "defaultvalue": 0,
    "displayName": "'Tis but a scratch !",
    "hidden": 1,
    "icon": "https://steamcdn-a.akamaihd.net/steamcommunity/public/images/apps/208730/eec7f1dc128df76ee2d88905c1f0216abac6830e.jpg",
    "icongray": "https://steamcdn-a.akamaihd.net/steamcommunity/public/images/apps/208730/66c8139fa0a71139c47bac1570c7cff0af1df659.jpg"
  },
  {
    "name": "ACH_Chp09_Duel_Timing",
    "defaultvalue": 0,
    "displayName": "Swift and deadly",
    "hidden": 1,
    "icon": "https://steamcdn-a.akamaihd.net/steamcommunity/public/images/apps/208730/17c0ab9063f2752660d82686838a0945492fb475.jpg",
    "icongray": "https://steamcdn-a.akamaihd.net/steamcommunity/public/images/apps/208730/a8fc77df573965f884d5bf0b0c76125a811560be.jpg"
  },
  {
    "name": "ACH_Chp10_Optimum_Victory",
    "defaultvalue": 0,
    "displayName": "Unrivaled strategist",
    "hidden": 1,
    "icon": "https://steamcdn-a.akamaihd.net/steamcommunity/public/images/apps/208730/eb3c602b5c76e255f6283535c4574c15f2319780.jpg",
    "icongray": "https://steamcdn-a.akamaihd.net/steamcommunity/public/images/apps/208730/7fe070a8e8aed3d69594f88271705c579dccb5e0.jpg"
  },
  {
    "name": "ACH_Chp11_Stealth",
    "defaultvalue": 0,
    "displayName": "Quiet as a shadow",
    "hidden": 1,
    "icon": "https://steamcdn-a.akamaihd.net/steamcommunity/public/images/apps/208730/49bd2a193dca91dfb37a0ea93e1567394b15fa62.jpg",
    "icongray": "https://steamcdn-a.akamaihd.net/steamcommunity/public/images/apps/208730/43817eb414afa26ce152f77266612b6be8eeab28.jpg"
  },
  {
    "name": "ACH_Chp12_Help_Reapers",
    "defaultvalue": 0,
    "displayName": "Lesser of two evils",
    "hidden": 1,
    "icon": "https://steamcdn-a.akamaihd.net/steamcommunity/public/images/apps/208730/b94f9a7d569fc027741f7faac7f149d38d5c375a.jpg",
    "icongray": "https://steamcdn-a.akamaihd.net/steamcommunity/public/images/apps/208730/febc3cbb87e62e8c1dbe7b0f847de5340e3ff7d8.jpg"
  },
  {
    "name": "ACH_Chp13_Kill_Mors_Wife",
    "defaultvalue": 0,
    "displayName": "My darkest hour",
    "hidden": 1,
    "icon": "https://steamcdn-a.akamaihd.net/steamcommunity/public/images/apps/208730/807b0a1f3505a5c3ce482f8832c374b36af1a04d.jpg",
    "icongray": "https://steamcdn-a.akamaihd.net/steamcommunity/public/images/apps/208730/87f320b9d679aa241fc68342a4d353b65baa2581.jpg"
  },
  {
    "name": "ACH_Chp14_Lose_Final_Fight",
    "defaultvalue": 0,
    "displayName": "The true face of the Spider",
    "hidden": 1,
    "icon": "https://steamcdn-a.akamaihd.net/steamcommunity/public/images/apps/208730/916d8f1ccc544f1dddb15c22877fa2e7144cfc19.jpg",
    "icongray": "https://steamcdn-a.akamaihd.net/steamcommunity/public/images/apps/208730/1b79b250c31db83ca2248fd26e760d8fe7c2d8a1.jpg"
  },
  {
    "name": "ACH_All_Secondaries_Quests",
    "defaultvalue": 0,
    "displayName": "Thorough",
    "hidden": 0,
    "description": "Complete all the secondary objectives of the story",
    "icon": "https://steamcdn-a.akamaihd.net/steamcommunity/public/images/apps/208730/e8bb5ca95688a51f55958643ce196c14ad9d02d5.jpg",
    "icongray": "https://steamcdn-a.akamaihd.net/steamcommunity/public/images/apps/208730/3c92047b7029377a24646b151d9dfe0c30fe1eb3.jpg"
  },
  {
    "name": "ACH_QA_Complete_Arena",
    "defaultvalue": 0,
    "displayName": "The Greatest",
    "hidden": 1,
    "icon": "https://steamcdn-a.akamaihd.net/steamcommunity/public/images/apps/208730/c7c90884b069a7be9f041e7704a024c8850ee91e.jpg",
    "icongray": "https://steamcdn-a.akamaihd.net/steamcommunity/public/images/apps/208730/feb5edee2a531963931e18eb36ca749bb2ffe91d.jpg"
  },
  {
    "name": "ACH_QB_Recruits",
    "defaultvalue": 0,
    "displayName": "Endless watch",
    "hidden": 1,
    "icon": "https://steamcdn-a.akamaihd.net/steamcommunity/public/images/apps/208730/3409383296ea4168cc6593736cb5a8271390a8ff.jpg",
    "icongray": "https://steamcdn-a.akamaihd.net/steamcommunity/public/images/apps/208730/083bd341f76d32f630232588edc699a214de129a.jpg"
  },
  {
    "name": "ACH_QC_Collection",
    "defaultvalue": 0,
    "displayName": "Collector",
    "hidden": 1,
    "icon": "https://steamcdn-a.akamaihd.net/steamcommunity/public/images/apps/208730/0020482f89b1d61768b66989603dbb4f7a35a059.jpg",
    "icongray": "https://steamcdn-a.akamaihd.net/steamcommunity/public/images/apps/208730/2a3aa779ebd29c14dd542d10563b39bae7f2b807.jpg"
  },
  {
    "name": "ACH_QE_Back_To_Chataya",
    "defaultvalue": 0,
    "displayName": "Pimp",
    "hidden": 1,
    "icon": "https://steamcdn-a.akamaihd.net/steamcommunity/public/images/apps/208730/d1ff0529f7c341840ad8555a9c65c35f071ac7c2.jpg",
    "icongray": "https://steamcdn-a.akamaihd.net/steamcommunity/public/images/apps/208730/847f71a2525b297ba7757c9ad34ab0a2d7ab8f46.jpg"
  },
  {
    "name": "ACH_QF_All_Statuettes",
    "defaultvalue": 0,
    "displayName": "Devout follower",
    "hidden": 1,
    "icon": "https://steamcdn-a.akamaihd.net/steamcommunity/public/images/apps/208730/e451221cca8b02c71e37f4b281942bdda129f405.jpg",
    "icongray": "https://steamcdn-a.akamaihd.net/steamcommunity/public/images/apps/208730/7eb6d18102f57129046f5a94a72965ecb44a5642.jpg"
  },
  {
    "name": "ACH_Secrets_Zoman",
    "defaultvalue": 0,
    "displayName": "Fetch!",
    "hidden": 0,
    "description": "Use Mors' dog's sense of smell to find 5 secret objects",
    "icon": "https://steamcdn-a.akamaihd.net/steamcommunity/public/images/apps/208730/5f114d467e7b388576051eb3da9c873bd13fdb54.jpg",
    "icongray": "https://steamcdn-a.akamaihd.net/steamcommunity/public/images/apps/208730/a144e9a038f26c7cb755c971794da0d421aa0b75.jpg"
  },
  {
    "name": "ACH_Secrets_Rhllor",
    "defaultvalue": 0,
    "displayName": "R'hllor sees all",
    "hidden": 0,
    "description": "Find 10 secrets with the vision of R'hllor",
    "icon": "https://steamcdn-a.akamaihd.net/steamcommunity/public/images/apps/208730/25d93d52a557ad21027cc8ae81f6973c485dedf6.jpg",
    "icongray": "https://steamcdn-a.akamaihd.net/steamcommunity/public/images/apps/208730/e022269816608745f41d6ed3edb2ab18047ac15a.jpg"
  },
  {
    "name": "ACH_Dragons",
    "defaultvalue": 0,
    "displayName": "Golden touch",
    "hidden": 0,
    "description": "Acquire 1 golden dragon",
    "icon": "https://steamcdn-a.akamaihd.net/steamcommunity/public/images/apps/208730/737d58d0bb3a0459fd4783f6165c9d4b87b2928b.jpg",
    "icongray": "https://steamcdn-a.akamaihd.net/steamcommunity/public/images/apps/208730/6775dddddfe234a293495462883600c9a8dfeec9.jpg"
  },
  {
    "name": "ACH_Kills_Zoman",
    "defaultvalue": 0,
    "displayName": "Man's best friend",
    "hidden": 0,
    "description": "Kill 10 enemies with Mors' dog in skinchanger mode",
    "icon": "https://steamcdn-a.akamaihd.net/steamcommunity/public/images/apps/208730/f8c9b3d4d044e6848aa23c9898edefc1d7effdef.jpg",
    "icongray": "https://steamcdn-a.akamaihd.net/steamcommunity/public/images/apps/208730/29105c5ce7633082a5887c6a17723db61b969b05.jpg"
  },
  {
    "name": "ACH_Kills",
    "defaultvalue": 0,
    "displayName": "True warrior",
    "hidden": 0,
    "description": "Kill 400 enemies",
    "icon": "https://steamcdn-a.akamaihd.net/steamcommunity/public/images/apps/208730/834cecaf7577cad6f4e206aebb5e76ffd85f6b65.jpg",
    "icongray": "https://steamcdn-a.akamaihd.net/steamcommunity/public/images/apps/208730/a9088b8df98054b774ebf604725c1a3a863585b5.jpg"
  },
  {
    "name": "ACH_Kills_Finishs",
    "defaultvalue": 0,
    "displayName": "Merciless",
    "hidden": 0,
    "description": "Mete out 5 deathblows",
    "icon": "https://steamcdn-a.akamaihd.net/steamcommunity/public/images/apps/208730/9e1cd03194aea0c94f2d2a40447807bc956b2d29.jpg",
    "icongray": "https://steamcdn-a.akamaihd.net/steamcommunity/public/images/apps/208730/9621eddb899597f6cdc34a82a4ccc0b50c510190.jpg"
  },
  {
    "name": "ACH_Never_KO",
    "defaultvalue": 0,
    "displayName": "Great teamwork",
    "hidden": 0,
    "description": "Finish the game without a single ally (except Mors and Alester) being KO'd",
    "icon": "https://steamcdn-a.akamaihd.net/steamcommunity/public/images/apps/208730/94dace9015bc3c061e96690590cf056740d78e39.jpg",
    "icongray": "https://steamcdn-a.akamaihd.net/steamcommunity/public/images/apps/208730/230d6d13da538edbf8190c580082d4fed25591a5.jpg"
  },
  {
    "name": "ACH_Max_Level",
    "defaultvalue": 0,
    "displayName": "Warlord",
    "hidden": 0,
    "description": "Reach the maximum level",
    "icon": "https://steamcdn-a.akamaihd.net/steamcommunity/public/images/apps/208730/e677ee9f60d1999a48b276ef3ce3e0028659f0aa.jpg",
    "icongray": "https://steamcdn-a.akamaihd.net/steamcommunity/public/images/apps/208730/14796824d099a9636a58e06f79e0f3fcc0fa57fe.jpg"
  },
  {
    "name": "ACH_Complete_Tree",
    "defaultvalue": 0,
    "displayName": "Master-at-arms",
    "hidden": 0,
    "description": "Learn all skills within a character's stance tree",
    "icon": "https://steamcdn-a.akamaihd.net/steamcommunity/public/images/apps/208730/ed34df1d572c85d51eac9fa2630593b0da5a524e.jpg",
    "icongray": "https://steamcdn-a.akamaihd.net/steamcommunity/public/images/apps/208730/b9b55c568389f63a46c003f178c946906572c9b7.jpg"
  },
  {
    "name": "ACH_Complete_Tree_Rhllor",
    "defaultvalue": 0,
    "displayName": "Master of light and flame",
    "hidden": 0,
    "description": "Gain all the skills linked to R'hllor's fire with Alester",
    "icon": "https://steamcdn-a.akamaihd.net/steamcommunity/public/images/apps/208730/78ac0d037657c5eaa2295c836677064c118bc73a.jpg",
    "icongray": "https://steamcdn-a.akamaihd.net/steamcommunity/public/images/apps/208730/4202fb87bdf55e34291784a7225065330cf62015.jpg"
  },
  {
    "name": "ACH_Complete_Tree_Zoman",
    "defaultvalue": 0,
    "displayName": "Clever dog",
    "hidden": 0,
    "description": "Gain all the skills linked to the dog with Mors",
    "icon": "https://steamcdn-a.akamaihd.net/steamcommunity/public/images/apps/208730/4c2362efbb8ed715fbf54a7aa28ebda6cd6b87f8.jpg",
    "icongray": "https://steamcdn-a.akamaihd.net/steamcommunity/public/images/apps/208730/88f31c738e330b2eb215bb2ed609c2b5c227ba76.jpg"
  }
]