﻿[
  {
    "name": "HasWonAsTech",
    "defaultvalue": 0,
    "displayName": "Ensign",
    "hidden": 0,
    "description": "Win the game as a TEC player.",
    "icon": "https://steamcdn-a.akamaihd.net/steamcommunity/public/images/apps/204880/80813ccddd1626f855a083f82f8129f38383fbfa.jpg",
    "icongray": "https://steamcdn-a.akamaihd.net/steamcommunity/public/images/apps/204880/d33f8690bcccd391ec4bcd2ab7c4c29e5ad91bb5.jpg"
  },
  {
    "name": "HasWonAsPsi",
    "defaultvalue": 0,
    "displayName": "Acolyte",
    "hidden": 0,
    "description": "Win the game as an Advent player.",
    "icon": "https://steamcdn-a.akamaihd.net/steamcommunity/public/images/apps/204880/b505eaca8b8b58e5f4bbc69b7c1f3e4012d61193.jpg",
    "icongray": "https://steamcdn-a.akamaihd.net/steamcommunity/public/images/apps/204880/912b2f05a2db31edd07a9df50d3d8cfca35f3658.jpg"
  },
  {
    "name": "HasWonAsPhase",
    "defaultvalue": 0,
    "displayName": "Initiate",
    "hidden": 0,
    "description": "Win the game as a Vasari player.",
    "icon": "https://steamcdn-a.akamaihd.net/steamcommunity/public/images/apps/204880/35aa6c6d0960b54ebb29bdec1cce0e4857b47e1a.jpg",
    "icongray": "https://steamcdn-a.akamaihd.net/steamcommunity/public/images/apps/204880/a780a62445beb4c2b1f60d489d74070a420903eb.jpg"
  },
  {
    "name": "HasWonAsRandom",
    "defaultvalue": 0,
    "displayName": "Master of Any Domain",
    "hidden": 0,
    "description": "Win the game as a Random player.",
    "icon": "https://steamcdn-a.akamaihd.net/steamcommunity/public/images/apps/204880/b8e9de279c5a88766cfcef18aed01de73dbd7608.jpg",
    "icongray": "https://steamcdn-a.akamaihd.net/steamcommunity/public/images/apps/204880/70e202209b17586f17f81353a972092388887db4.jpg"
  },
  {
    "name": "HasWonAgainst1AI",
    "defaultvalue": 0,
    "displayName": "Plug Puller",
    "hidden": 0,
    "description": "Win the game by yourself against at least one Hard AI player.",
    "icon": "https://steamcdn-a.akamaihd.net/steamcommunity/public/images/apps/204880/b9b43631b4e20958c2e110f11cf2a67fa3023fca.jpg",
    "icongray": "https://steamcdn-a.akamaihd.net/steamcommunity/public/images/apps/204880/25dfce0ff45ae841f731d7d648bab39f80c426f9.jpg"
  },
  {
    "name": "HasWonAgainst2AI",
    "defaultvalue": 0,
    "displayName": "Toaster Roaster",
    "hidden": 0,
    "description": "Win the game by yourself against at least two Hard AI players.",
    "icon": "https://steamcdn-a.akamaihd.net/steamcommunity/public/images/apps/204880/b9b43631b4e20958c2e110f11cf2a67fa3023fca.jpg",
    "icongray": "https://steamcdn-a.akamaihd.net/steamcommunity/public/images/apps/204880/25dfce0ff45ae841f731d7d648bab39f80c426f9.jpg"
  },
  {
    "name": "HasWonAgainst3AI",
    "defaultvalue": 0,
    "displayName": "Comp Stomper",
    "hidden": 0,
    "description": "Win the game by yourself against at least three Hard AI players.",
    "icon": "https://steamcdn-a.akamaihd.net/steamcommunity/public/images/apps/204880/b9b43631b4e20958c2e110f11cf2a67fa3023fca.jpg",
    "icongray": "https://steamcdn-a.akamaihd.net/steamcommunity/public/images/apps/204880/25dfce0ff45ae841f731d7d648bab39f80c426f9.jpg"
  },
  {
    "name": "HasWonAgainst4AI",
    "defaultvalue": 0,
    "displayName": "Actually HAL, I can do that.",
    "hidden": 0,
    "description": "Win the game by yourself against at least four Hard AI players.",
    "icon": "https://steamcdn-a.akamaihd.net/steamcommunity/public/images/apps/204880/b9b43631b4e20958c2e110f11cf2a67fa3023fca.jpg",
    "icongray": "https://steamcdn-a.akamaihd.net/steamcommunity/public/images/apps/204880/25dfce0ff45ae841f731d7d648bab39f80c426f9.jpg"
  },
  {
    "name": "HasWonWithNoCapitalShips",
    "defaultvalue": 0,
    "displayName": "Fear of Icebergs",
    "hidden": 0,
    "description": "Win the game without building any Capital Ships.",
    "icon": "https://steamcdn-a.akamaihd.net/steamcommunity/public/images/apps/204880/b65bd5e8f8022727586065f842fb576ccfe48cdb.jpg",
    "icongray": "https://steamcdn-a.akamaihd.net/steamcommunity/public/images/apps/204880/3391286591c02062bb0276c8aed9b8094d362cd6.jpg"
  },
  {
    "name": "HasWonWithNoSquads",
    "defaultvalue": 0,
    "displayName": "No Exhaust Port Found",
    "hidden": 0,
    "description": "Win the game without building any strike craft.",
    "icon": "https://steamcdn-a.akamaihd.net/steamcommunity/public/images/apps/204880/d0fcd9fb3f2e9f59c1d7ecc700bb619da1795486.jpg",
    "icongray": "https://steamcdn-a.akamaihd.net/steamcommunity/public/images/apps/204880/347e9e64037d0883b4235925a9e9ae3234583af6.jpg"
  },
  {
    "name": "HasWonWithNoTacticalModules",
    "defaultvalue": 0,
    "displayName": "Best Defense is a Good Offense",
    "hidden": 0,
    "description": "Win the game without building any Tactical Structures.",
    "icon": "https://steamcdn-a.akamaihd.net/steamcommunity/public/images/apps/204880/5a106a3fbdaf8f3aaefe6569405d543fa394e902.jpg",
    "icongray": "https://steamcdn-a.akamaihd.net/steamcommunity/public/images/apps/204880/d2fdf3bfae5627aa096a3d85e18cebb7882724d1.jpg"
  },
  {
    "name": "HasWonWithNoFrigates",
    "defaultvalue": 0,
    "displayName": "Go Big or Go Home",
    "hidden": 0,
    "description": "Win the game without building any Frigates, Cruisers or Corvettes. You will probably need Capital Ships for this! (Not achievable with Quick Start.)",
    "icon": "https://steamcdn-a.akamaihd.net/steamcommunity/public/images/apps/204880/3107a52cde6b4b92b055f45235cf365e6da1b4e9.jpg",
    "icongray": "https://steamcdn-a.akamaihd.net/steamcommunity/public/images/apps/204880/5de7f7e8c09e71b11a63d2ac7e72a8edd03f8b9c.jpg"
  },
  {
    "name": "HasResearchedAllCombatTech",
    "defaultvalue": 0,
    "displayName": "TEC Military Researcher",
    "hidden": 0,
    "description": "Research every subject in the Military Tree while researching no subjects in the Civilian, Defense or Diplomacy Trees.",
    "icon": "https://steamcdn-a.akamaihd.net/steamcommunity/public/images/apps/204880/9d2a86454cb0ded9fda4466cc4d1f549b319925c.jpg",
    "icongray": "https://steamcdn-a.akamaihd.net/steamcommunity/public/images/apps/204880/3eac707fd363f40ad774a851b46dbe2af6d6cf92.jpg"
  },
  {
    "name": "HasResearchedAllCombatPsi",
    "defaultvalue": 0,
    "displayName": "Advent Hostility Researcher",
    "hidden": 0,
    "description": "Research every subject in the Hostility Tree while researching no subjects in the Harmony, Security, or Understanding Trees.",
    "icon": "https://steamcdn-a.akamaihd.net/steamcommunity/public/images/apps/204880/9d2a86454cb0ded9fda4466cc4d1f549b319925c.jpg",
    "icongray": "https://steamcdn-a.akamaihd.net/steamcommunity/public/images/apps/204880/3eac707fd363f40ad774a851b46dbe2af6d6cf92.jpg"
  },
  {
    "name": "HasResearchedAllCombatPhase",
    "defaultvalue": 0,
    "displayName": "Vasari Warfare Researcher",
    "hidden": 0,
    "description": "Research every subject in the Warfare Tree while researching no subjects in the Empire, Fortification or Manipulation Trees.",
    "icon": "https://steamcdn-a.akamaihd.net/steamcommunity/public/images/apps/204880/01a9a925a86303f93cd3cc6000015eb5679b8414.jpg",
    "icongray": "https://steamcdn-a.akamaihd.net/steamcommunity/public/images/apps/204880/3eac707fd363f40ad774a851b46dbe2af6d6cf92.jpg"
  },
  {
    "name": "HasResearchedAllNonCombatTech",
    "defaultvalue": 0,
    "displayName": "TEC Civilian Researcher",
    "hidden": 0,
    "description": "Research every subject in the Civilian Tree while researching no subjects in the Military, Defense or Diplomacy trees.",
    "icon": "https://steamcdn-a.akamaihd.net/steamcommunity/public/images/apps/204880/01a9a925a86303f93cd3cc6000015eb5679b8414.jpg",
    "icongray": "https://steamcdn-a.akamaihd.net/steamcommunity/public/images/apps/204880/3eac707fd363f40ad774a851b46dbe2af6d6cf92.jpg"
  },
  {
    "name": "HasResearchedAllNonCombatPsi",
    "defaultvalue": 0,
    "displayName": "Advent Harmony Researcher",
    "hidden": 0,
    "description": "Research every subject in the Harmony Tree while researching no subjects in the Hostility, Security or Understanding Trees.",
    "icon": "https://steamcdn-a.akamaihd.net/steamcommunity/public/images/apps/204880/01a9a925a86303f93cd3cc6000015eb5679b8414.jpg",
    "icongray": "https://steamcdn-a.akamaihd.net/steamcommunity/public/images/apps/204880/3eac707fd363f40ad774a851b46dbe2af6d6cf92.jpg"
  },
  {
    "name": "HasResearchedAllNonCombatPhase",
    "defaultvalue": 0,
    "displayName": "Vasari Empire Researcher",
    "hidden": 0,
    "description": "Research every subject in the Empire Tree while researching no subjects in the Warfare, Fortification or Manipulation Trees.",
    "icon": "https://steamcdn-a.akamaihd.net/steamcommunity/public/images/apps/204880/01a9a925a86303f93cd3cc6000015eb5679b8414.jpg",
    "icongray": "https://steamcdn-a.akamaihd.net/steamcommunity/public/images/apps/204880/3eac707fd363f40ad774a851b46dbe2af6d6cf92.jpg"
  },
  {
    "name": "HasFoundEveryArtifact",
    "defaultvalue": 0,
    "displayName": "Archaeologist",
    "hidden": 0,
    "description": "Find and own every artifact at the same time.",
    "icon": "https://steamcdn-a.akamaihd.net/steamcommunity/public/images/apps/204880/cd5569337896378925dbf3f4d75106c089f88efa.jpg",
    "icongray": "https://steamcdn-a.akamaihd.net/steamcommunity/public/images/apps/204880/30cd0bd6d81fb34e4b5b29f3a23e7ffafe71cc46.jpg"
  },
  {
    "name": "HasBuiltEveryCapitalShipTypeTech",
    "defaultvalue": 0,
    "displayName": "TEC Fleet Diversification",
    "hidden": 0,
    "description": "Have at least one of every TEC Capital Ship built at the same time.",
    "icon": "https://steamcdn-a.akamaihd.net/steamcommunity/public/images/apps/204880/b7fea7e8adbfd4a4f3fd661aabf09004090919a7.jpg",
    "icongray": "https://steamcdn-a.akamaihd.net/steamcommunity/public/images/apps/204880/7cdf972517a767785c396b96a4cfa94d100f3804.jpg"
  },
  {
    "name": "HasBuiltEveryCapitalShipTypePsi",
    "defaultvalue": 0,
    "displayName": "Advent Fleet Diversification",
    "hidden": 0,
    "description": "Have at least one of every Advent Capital Ship built at the same time.",
    "icon": "https://steamcdn-a.akamaihd.net/steamcommunity/public/images/apps/204880/04aa136f373190303583c0c7d30dbed99a9df478.jpg",
    "icongray": "https://steamcdn-a.akamaihd.net/steamcommunity/public/images/apps/204880/0517dcade28f55ae83f2d10910ceb59713477901.jpg"
  },
  {
    "name": "HasBuiltEveryCapitalShipTypePhase",
    "defaultvalue": 0,
    "displayName": "Vasari Fleet Diversification",
    "hidden": 0,
    "description": "Have at least one of every Vasari Capital Ship built at the same time.",
    "icon": "https://steamcdn-a.akamaihd.net/steamcommunity/public/images/apps/204880/83fd681eae82ac4de44b4ff86eef9d4e6f198659.jpg",
    "icongray": "https://steamcdn-a.akamaihd.net/steamcommunity/public/images/apps/204880/19e01c06a0df09ce8c32c58d2718e749bcf99fa9.jpg"
  },
  {
    "name": "HasReachedMaxCapitalShipLevel",
    "defaultvalue": 0,
    "displayName": "Capital Ship Captain",
    "hidden": 0,
    "description": "Get a Capital Ship to maximum experience level.",
    "icon": "https://steamcdn-a.akamaihd.net/steamcommunity/public/images/apps/204880/fb3f94a7d8457322f37ef9a4a6ef344f02c6b26f.jpg",
    "icongray": "https://steamcdn-a.akamaihd.net/steamcommunity/public/images/apps/204880/65b85f005326dc3e4ce3333daeb77a25a7733875.jpg"
  },
  {
    "name": "HasBuiltSquads",
    "defaultvalue": 0,
    "displayName": "Squadron Leader",
    "hidden": 0,
    "description": "Own at least 100 Squadrons at once.",
    "icon": "https://steamcdn-a.akamaihd.net/steamcommunity/public/images/apps/204880/d0fcd9fb3f2e9f59c1d7ecc700bb619da1795486.jpg",
    "icongray": "https://steamcdn-a.akamaihd.net/steamcommunity/public/images/apps/204880/1904b94f5b6aa6bf19c52c997313ef87bf3b29f2.jpg"
  },
  {
    "name": "HasMaxedCapitalShipSlots",
    "defaultvalue": 0,
    "displayName": "Capital Ship Armada",
    "hidden": 0,
    "description": "Own the maximum number of Capital Ships possible. Your fleet research must also be max level.",
    "icon": "https://steamcdn-a.akamaihd.net/steamcommunity/public/images/apps/204880/fb3f94a7d8457322f37ef9a4a6ef344f02c6b26f.jpg",
    "icongray": "https://steamcdn-a.akamaihd.net/steamcommunity/public/images/apps/204880/65b85f005326dc3e4ce3333daeb77a25a7733875.jpg"
  },
  {
    "name": "HasMaxedShipSlots",
    "defaultvalue": 0,
    "displayName": "Ship Swarm",
    "hidden": 0,
    "description": "Own the maximum number of ships your fleet points can support. Your fleet research must also be at max level.",
    "icon": "https://steamcdn-a.akamaihd.net/steamcommunity/public/images/apps/204880/ee7b1251d452539aaa35d7e16d1576cb5200e09f.jpg",
    "icongray": "https://steamcdn-a.akamaihd.net/steamcommunity/public/images/apps/204880/a4b0be386f6eb2876b9f7295a19b81e2c386759d.jpg"
  },
  {
    "name": "HasDoneQuests",
    "defaultvalue": 0,
    "displayName": "Outstanding Resume",
    "hidden": 0,
    "description": "Complete at least 30 missions in a single game.",
    "icon": "https://steamcdn-a.akamaihd.net/steamcommunity/public/images/apps/204880/f026946a73fa13a1d8247ef706c6a37295f64baf.jpg",
    "icongray": "https://steamcdn-a.akamaihd.net/steamcommunity/public/images/apps/204880/60fcdc50b62c70a2e3b93a730079be8c346f218e.jpg"
  },
  {
    "name": "HasTravelledStarLane",
    "defaultvalue": 0,
    "displayName": "Star Explorer",
    "hidden": 0,
    "description": "Travel to another star system.",
    "icon": "https://steamcdn-a.akamaihd.net/steamcommunity/public/images/apps/204880/c79ee1f241ab6730f148bb81e4f8cd9b1926facd.jpg",
    "icongray": "https://steamcdn-a.akamaihd.net/steamcommunity/public/images/apps/204880/1145e9709f8ae51b4a40acfe0c37d404193a1d19.jpg"
  },
  {
    "name": "HasTravelledWormHole",
    "defaultvalue": 0,
    "displayName": "Escape From Max",
    "hidden": 0,
    "description": "Travel through a wormhole to discover where it leads to.",
    "icon": "https://steamcdn-a.akamaihd.net/steamcommunity/public/images/apps/204880/c79ee1f241ab6730f148bb81e4f8cd9b1926facd.jpg",
    "icongray": "https://steamcdn-a.akamaihd.net/steamcommunity/public/images/apps/204880/1145e9709f8ae51b4a40acfe0c37d404193a1d19.jpg"
  },
  {
    "name": "HasGivenCredits",
    "defaultvalue": 0,
    "displayName": "Money Lender",
    "hidden": 0,
    "description": "Give 25,000 Credits to other players in a single game.",
    "icon": "https://steamcdn-a.akamaihd.net/steamcommunity/public/images/apps/204880/dbe67d9d5698b526e9fbe08468218ea8ec103cf9.jpg",
    "icongray": "https://steamcdn-a.akamaihd.net/steamcommunity/public/images/apps/204880/f74cc2b365ce6174eac5521e59e4159e4bef1c45.jpg"
  },
  {
    "name": "HasGivenMetal",
    "defaultvalue": 0,
    "displayName": "Metal Lender",
    "hidden": 0,
    "description": "Give 20,000 Metal to other players in a single game.",
    "icon": "https://steamcdn-a.akamaihd.net/steamcommunity/public/images/apps/204880/e36f74412fcc53d2cf9749c3ca3e3537797dcd37.jpg",
    "icongray": "https://steamcdn-a.akamaihd.net/steamcommunity/public/images/apps/204880/090cecdf39a31113c9d0008c6021b52cfe6e0d71.jpg"
  },
  {
    "name": "HasGivenCrystal",
    "defaultvalue": 0,
    "displayName": "Crystal Lender",
    "hidden": 0,
    "description": "Give 20,000 Crystal to other players in a single game.",
    "icon": "https://steamcdn-a.akamaihd.net/steamcommunity/public/images/apps/204880/9101f3ecba10d2bdffc805407648296a434d3d9f.jpg",
    "icongray": "https://steamcdn-a.akamaihd.net/steamcommunity/public/images/apps/204880/06936b7414383458336a872591c166de7f8d34ab.jpg"
  },
  {
    "name": "HasFormedAllianceCeaseFire",
    "defaultvalue": 0,
    "displayName": "Road to Peace",
    "hidden": 0,
    "description": "Form a Cease Fire with another player.",
    "icon": "https://steamcdn-a.akamaihd.net/steamcommunity/public/images/apps/204880/5191521f1a99fe987d9208e55ce47c951a3a116e.jpg",
    "icongray": "https://steamcdn-a.akamaihd.net/steamcommunity/public/images/apps/204880/0de8a76d48aa72d41f0237960f0ba0f0ee7f73cc.jpg"
  },
  {
    "name": "HasFormedAlliancePeaceTreaty",
    "defaultvalue": 0,
    "displayName": "Pacifist",
    "hidden": 0,
    "description": "Form a Peace Treaty with another player.",
    "icon": "https://steamcdn-a.akamaihd.net/steamcommunity/public/images/apps/204880/5191521f1a99fe987d9208e55ce47c951a3a116e.jpg",
    "icongray": "https://steamcdn-a.akamaihd.net/steamcommunity/public/images/apps/204880/0de8a76d48aa72d41f0237960f0ba0f0ee7f73cc.jpg"
  },
  {
    "name": "HasFormedAllianceTrade",
    "defaultvalue": 0,
    "displayName": "Mutual Trader",
    "hidden": 0,
    "description": "Form a Trade Alliance with another player.",
    "icon": "https://steamcdn-a.akamaihd.net/steamcommunity/public/images/apps/204880/5191521f1a99fe987d9208e55ce47c951a3a116e.jpg",
    "icongray": "https://steamcdn-a.akamaihd.net/steamcommunity/public/images/apps/204880/0de8a76d48aa72d41f0237960f0ba0f0ee7f73cc.jpg"
  },
  {
    "name": "HasFormedAllianceInternalVision",
    "defaultvalue": 0,
    "displayName": "Planet Visionary",
    "hidden": 0,
    "description": "Form a Planet Vision alliance with another player.",
    "icon": "https://steamcdn-a.akamaihd.net/steamcommunity/public/images/apps/204880/5191521f1a99fe987d9208e55ce47c951a3a116e.jpg",
    "icongray": "https://steamcdn-a.akamaihd.net/steamcommunity/public/images/apps/204880/0de8a76d48aa72d41f0237960f0ba0f0ee7f73cc.jpg"
  },
  {
    "name": "HasFormedAllianceExternalVision",
    "defaultvalue": 0,
    "displayName": "Ship Visionary",
    "hidden": 0,
    "description": "Form a Ship Vision alliance with another player.",
    "icon": "https://steamcdn-a.akamaihd.net/steamcommunity/public/images/apps/204880/5191521f1a99fe987d9208e55ce47c951a3a116e.jpg",
    "icongray": "https://steamcdn-a.akamaihd.net/steamcommunity/public/images/apps/204880/0de8a76d48aa72d41f0237960f0ba0f0ee7f73cc.jpg"
  },
  {
    "name": "HasPopulation",
    "defaultvalue": 0,
    "displayName": "Family Planning",
    "hidden": 0,
    "description": "Your empire must support at least 6,000 population at once.",
    "icon": "https://steamcdn-a.akamaihd.net/steamcommunity/public/images/apps/204880/612912118364c3ad60685d7ac9657c91cb5d0b56.jpg",
    "icongray": "https://steamcdn-a.akamaihd.net/steamcommunity/public/images/apps/204880/cd57e96aa50da1ffce1741ba61fcd7e31c1dc63a.jpg"
  },
  {
    "name": "HasMadeTaxIncome",
    "defaultvalue": 0,
    "displayName": "Tax Collector",
    "hidden": 0,
    "description": "Collect 200,000 Credits from taxes in a single game.",
    "icon": "https://steamcdn-a.akamaihd.net/steamcommunity/public/images/apps/204880/abee34267c2e584a8296ef406137a0d09946060c.jpg",
    "icongray": "https://steamcdn-a.akamaihd.net/steamcommunity/public/images/apps/204880/b0153330a724ec9ea134f7fb3ccbf73e09c6968e.jpg"
  },
  {
    "name": "HasMadeTradeIncome",
    "defaultvalue": 0,
    "displayName": "Export Maven",
    "hidden": 0,
    "description": "Collect 20,000 Credits from trade ships in a single game.",
    "icon": "https://steamcdn-a.akamaihd.net/steamcommunity/public/images/apps/204880/fc8194c9e62db69d5e54f9265391bbea12c6b973.jpg",
    "icongray": "https://steamcdn-a.akamaihd.net/steamcommunity/public/images/apps/204880/117118c47ad68165f4c68ffc694419b89abbdad5.jpg"
  },
  {
    "name": "HasMadeMetalIncome",
    "defaultvalue": 0,
    "displayName": "Metal Miner",
    "hidden": 0,
    "description": "Collect 35,000 Metal from resource extractors in a single game.",
    "icon": "https://steamcdn-a.akamaihd.net/steamcommunity/public/images/apps/204880/3192a546035c767422d07fd8ac4805bae40e4584.jpg",
    "icongray": "https://steamcdn-a.akamaihd.net/steamcommunity/public/images/apps/204880/46000067bc2d04d6272ef2d7a32381235472a512.jpg"
  },
  {
    "name": "HasMadeCrystalIncome",
    "defaultvalue": 0,
    "displayName": "Crystal Miner",
    "hidden": 0,
    "description": "Collect 35,000 Crystal from resource extractors in a single game.",
    "icon": "https://steamcdn-a.akamaihd.net/steamcommunity/public/images/apps/204880/c681048b3bb9cc99355198804fda509ad3dbc280.jpg",
    "icongray": "https://steamcdn-a.akamaihd.net/steamcommunity/public/images/apps/204880/be8afda15b39a84b7567456404990d0695399e7c.jpg"
  },
  {
    "name": "HasMadeRefineryIncome",
    "defaultvalue": 0,
    "displayName": "Refining Magnate",
    "hidden": 0,
    "description": "Collect 20,000 Metal or Crystal from refinery ships in a single game.",
    "icon": "https://steamcdn-a.akamaihd.net/steamcommunity/public/images/apps/204880/abee34267c2e584a8296ef406137a0d09946060c.jpg",
    "icongray": "https://steamcdn-a.akamaihd.net/steamcommunity/public/images/apps/204880/f74cc2b365ce6174eac5521e59e4159e4bef1c45.jpg"
  },
  {
    "name": "HasUsedCulture",
    "defaultvalue": 0,
    "displayName": "Pop Idol",
    "hidden": 0,
    "description": "Spread your Culture to 75% of the galaxy.",
    "icon": "https://steamcdn-a.akamaihd.net/steamcommunity/public/images/apps/204880/c79ee1f241ab6730f148bb81e4f8cd9b1926facd.jpg",
    "icongray": "https://steamcdn-a.akamaihd.net/steamcommunity/public/images/apps/204880/1145e9709f8ae51b4a40acfe0c37d404193a1d19.jpg"
  },
  {
    "name": "HasBombedPlanet",
    "defaultvalue": 0,
    "displayName": "Expert Bombadier",
    "hidden": 0,
    "description": "Do 15,750 damage to planets.",
    "icon": "https://steamcdn-a.akamaihd.net/steamcommunity/public/images/apps/204880/30db07e40d682c2d0dbcf894d369292137bf80ae.jpg",
    "icongray": "https://steamcdn-a.akamaihd.net/steamcommunity/public/images/apps/204880/8814ac95fae58d4536862df5a3a53038aa3eebdc.jpg"
  },
  {
    "name": "HasKilledFrigates",
    "defaultvalue": 0,
    "displayName": "Frigate Killer",
    "hidden": 0,
    "description": "Destroy 1,000 enemy frigates in a single game.",
    "icon": "https://steamcdn-a.akamaihd.net/steamcommunity/public/images/apps/204880/30db07e40d682c2d0dbcf894d369292137bf80ae.jpg",
    "icongray": "https://steamcdn-a.akamaihd.net/steamcommunity/public/images/apps/204880/8814ac95fae58d4536862df5a3a53038aa3eebdc.jpg"
  },
  {
    "name": "HasKilledCapitalShips",
    "defaultvalue": 0,
    "displayName": "Capital Ship Assassin",
    "hidden": 0,
    "description": "Destroy 30 enemy capital ships in a single game.",
    "icon": "https://steamcdn-a.akamaihd.net/steamcommunity/public/images/apps/204880/30db07e40d682c2d0dbcf894d369292137bf80ae.jpg",
    "icongray": "https://steamcdn-a.akamaihd.net/steamcommunity/public/images/apps/204880/8814ac95fae58d4536862df5a3a53038aa3eebdc.jpg"
  },
  {
    "name": "HasKilledModules",
    "defaultvalue": 0,
    "displayName": "Wrecking Crew",
    "hidden": 0,
    "description": "Destroy 200 enemy planet structures in a single game.",
    "icon": "https://steamcdn-a.akamaihd.net/steamcommunity/public/images/apps/204880/30db07e40d682c2d0dbcf894d369292137bf80ae.jpg",
    "icongray": "https://steamcdn-a.akamaihd.net/steamcommunity/public/images/apps/204880/8814ac95fae58d4536862df5a3a53038aa3eebdc.jpg"
  },
  {
    "name": "HasKilledFighters",
    "defaultvalue": 0,
    "displayName": "Pilot's Bane",
    "hidden": 0,
    "description": "Destroy 2,500 enemy strike craft in a single game.",
    "icon": "https://steamcdn-a.akamaihd.net/steamcommunity/public/images/apps/204880/30db07e40d682c2d0dbcf894d369292137bf80ae.jpg",
    "icongray": "https://steamcdn-a.akamaihd.net/steamcommunity/public/images/apps/204880/8814ac95fae58d4536862df5a3a53038aa3eebdc.jpg"
  },
  {
    "name": "HasKilledPirates",
    "defaultvalue": 0,
    "displayName": "Pirate Exterminator",
    "hidden": 0,
    "description": "Destroy 1,000 Pirate ships in a single game.",
    "icon": "https://steamcdn-a.akamaihd.net/steamcommunity/public/images/apps/204880/30db07e40d682c2d0dbcf894d369292137bf80ae.jpg",
    "icongray": "https://steamcdn-a.akamaihd.net/steamcommunity/public/images/apps/204880/8814ac95fae58d4536862df5a3a53038aa3eebdc.jpg"
  },
  {
    "name": "HasKilledTradeShips",
    "defaultvalue": 0,
    "displayName": "Anti-Globalization",
    "hidden": 0,
    "description": "Destroy 100 trade ships in a single game.",
    "icon": "https://steamcdn-a.akamaihd.net/steamcommunity/public/images/apps/204880/30db07e40d682c2d0dbcf894d369292137bf80ae.jpg",
    "icongray": "https://steamcdn-a.akamaihd.net/steamcommunity/public/images/apps/204880/8814ac95fae58d4536862df5a3a53038aa3eebdc.jpg"
  },
  {
    "name": "HasKilledRefineryShips",
    "defaultvalue": 0,
    "displayName": "Dead Canaries",
    "hidden": 0,
    "description": "Destroy 50 refinery ships in a single game.",
    "icon": "https://steamcdn-a.akamaihd.net/steamcommunity/public/images/apps/204880/30db07e40d682c2d0dbcf894d369292137bf80ae.jpg",
    "icongray": "https://steamcdn-a.akamaihd.net/steamcommunity/public/images/apps/204880/8814ac95fae58d4536862df5a3a53038aa3eebdc.jpg"
  },
  {
    "name": "HasKilledModuleConstructors",
    "defaultvalue": 0,
    "displayName": "Union Buster",
    "hidden": 0,
    "description": "Destroy 50 construction ships in a single game.",
    "icon": "https://steamcdn-a.akamaihd.net/steamcommunity/public/images/apps/204880/30db07e40d682c2d0dbcf894d369292137bf80ae.jpg",
    "icongray": "https://steamcdn-a.akamaihd.net/steamcommunity/public/images/apps/204880/8814ac95fae58d4536862df5a3a53038aa3eebdc.jpg"
  },
  {
    "name": "HasColonizedPiratePlanet",
    "defaultvalue": 0,
    "displayName": "Pirate Baron",
    "hidden": 0,
    "description": "Colonize a Pirate base.",
    "icon": "https://steamcdn-a.akamaihd.net/steamcommunity/public/images/apps/204880/dfa9ca0a890b530b6339581b467962fecc767cdc.jpg",
    "icongray": "https://steamcdn-a.akamaihd.net/steamcommunity/public/images/apps/204880/8441d00daad5d8bd33159e2b0a9ac4aae1177e1c.jpg"
  },
  {
    "name": "HasFoundSpacePonies",
    "defaultvalue": 0,
    "displayName": "Space Ponies!",
    "hidden": 0,
    "description": "Um...What?",
    "icon": "https://steamcdn-a.akamaihd.net/steamcommunity/public/images/apps/204880/b9e08a13c2cc0988ead0be721946f5d30f0d9ec6.jpg",
    "icongray": "https://steamcdn-a.akamaihd.net/steamcommunity/public/images/apps/204880/4571fbddb4ab008d65040b2547379033852e8695.jpg"
  },
  {
    "name": "HasColonizedPlanets",
    "defaultvalue": 0,
    "displayName": "Colonizer",
    "hidden": 0,
    "description": "Have 30 planets colonized at the same time.",
    "icon": "https://steamcdn-a.akamaihd.net/steamcommunity/public/images/apps/204880/d68597bb7bd792e54ecc22eb804abe0a237cb0c1.jpg",
    "icongray": "https://steamcdn-a.akamaihd.net/steamcommunity/public/images/apps/204880/ab9d181a55b914b3604daf38ac34691885a9d882.jpg"
  },
  {
    "name": "HasBoughtMetal",
    "defaultvalue": 0,
    "displayName": "Metal Speculator",
    "hidden": 0,
    "description": "Buy 10,000 Metal from the Black Market.",
    "icon": "https://steamcdn-a.akamaihd.net/steamcommunity/public/images/apps/204880/dbe67d9d5698b526e9fbe08468218ea8ec103cf9.jpg",
    "icongray": "https://steamcdn-a.akamaihd.net/steamcommunity/public/images/apps/204880/b0153330a724ec9ea134f7fb3ccbf73e09c6968e.jpg"
  },
  {
    "name": "HasSoldMetalToMarket",
    "defaultvalue": 0,
    "displayName": "Metal Merchant",
    "hidden": 0,
    "description": "Sell 10,000 Metal directly to the Black Market.",
    "icon": "https://steamcdn-a.akamaihd.net/steamcommunity/public/images/apps/204880/3192a546035c767422d07fd8ac4805bae40e4584.jpg",
    "icongray": "https://steamcdn-a.akamaihd.net/steamcommunity/public/images/apps/204880/46000067bc2d04d6272ef2d7a32381235472a512.jpg"
  },
  {
    "name": "HasBoughtCrystal",
    "defaultvalue": 0,
    "displayName": "Crystal Speculator",
    "hidden": 0,
    "description": "Buy 10,000 Crystal from the Black Market.",
    "icon": "https://steamcdn-a.akamaihd.net/steamcommunity/public/images/apps/204880/dbe67d9d5698b526e9fbe08468218ea8ec103cf9.jpg",
    "icongray": "https://steamcdn-a.akamaihd.net/steamcommunity/public/images/apps/204880/b0153330a724ec9ea134f7fb3ccbf73e09c6968e.jpg"
  },
  {
    "name": "HasSoldCrystalToMarket",
    "defaultvalue": 0,
    "displayName": "Crystal Merchant",
    "hidden": 0,
    "description": "Sell 10,000 Crystal from the Black Market.",
    "icon": "https://steamcdn-a.akamaihd.net/steamcommunity/public/images/apps/204880/c681048b3bb9cc99355198804fda509ad3dbc280.jpg",
    "icongray": "https://steamcdn-a.akamaihd.net/steamcommunity/public/images/apps/204880/be8afda15b39a84b7567456404990d0695399e7c.jpg"
  },
  {
    "name": "HasSoldResourcesToPlayers",
    "defaultvalue": 0,
    "displayName": "Resource Opportunist",
    "hidden": 0,
    "description": "Gain 15,000 Credits from other players buying up your resources.",
    "icon": "https://steamcdn-a.akamaihd.net/steamcommunity/public/images/apps/204880/1ca96fc5e00b17bc96568a8f83b7fe2dadb74915.jpg",
    "icongray": "https://steamcdn-a.akamaihd.net/steamcommunity/public/images/apps/204880/4b8920cf3d7046453ba806afc5570900364143af.jpg"
  },
  {
    "name": "HasIncreasedBounty",
    "defaultvalue": 0,
    "displayName": "He's no good to me dead!",
    "hidden": 0,
    "description": "Spend 66,000 Credits increasing the bounty on other players in a single game.",
    "icon": "https://steamcdn-a.akamaihd.net/steamcommunity/public/images/apps/204880/dfa9ca0a890b530b6339581b467962fecc767cdc.jpg",
    "icongray": "https://steamcdn-a.akamaihd.net/steamcommunity/public/images/apps/204880/8441d00daad5d8bd33159e2b0a9ac4aae1177e1c.jpg"
  },
  {
    "name": "HasPreviewedRandomGalaxy",
    "defaultvalue": 0,
    "displayName": "World Builder",
    "hidden": 0,
    "description": "Create your own custom galaxy and preview the results.",
    "icon": "https://steamcdn-a.akamaihd.net/steamcommunity/public/images/apps/204880/9c92d153c4733676414ca05ddf42016490dba274.jpg",
    "icongray": "https://steamcdn-a.akamaihd.net/steamcommunity/public/images/apps/204880/c2ba63ce6a6b968a3922831e488b7579bde2e51d.jpg"
  },
  {
    "name": "HasAllPlanetTypes",
    "defaultvalue": 0,
    "displayName": "Equal Opportunity",
    "hidden": 0,
    "description": "Occupy the 10 planet types simultaneously (Forbidden Worlds DLC required).",
    "icon": "https://steamcdn-a.akamaihd.net/steamcommunity/public/images/apps/204880/d68597bb7bd792e54ecc22eb804abe0a237cb0c1.jpg",
    "icongray": "https://steamcdn-a.akamaihd.net/steamcommunity/public/images/apps/204880/ab9d181a55b914b3604daf38ac34691885a9d882.jpg"
  },
  {
    "name": "HasFerrusPlanetWithFullIndustry",
    "defaultvalue": 0,
    "displayName": "Drill Baby Drill",
    "hidden": 0,
    "description": "Fully specialize a Ferrous planet in industry (Forbidden Worlds DLC required).",
    "icon": "https://steamcdn-a.akamaihd.net/steamcommunity/public/images/apps/204880/d68597bb7bd792e54ecc22eb804abe0a237cb0c1.jpg",
    "icongray": "https://steamcdn-a.akamaihd.net/steamcommunity/public/images/apps/204880/ab9d181a55b914b3604daf38ac34691885a9d882.jpg"
  },
  {
    "name": "HasOceanicPlanetWithFullSocial",
    "defaultvalue": 0,
    "displayName": "Vacation Getaway",
    "hidden": 0,
    "description": "Fully specialize a Oceanic planet in social upgrades (Forbidden Worlds DLC required).",
    "icon": "https://steamcdn-a.akamaihd.net/steamcommunity/public/images/apps/204880/d68597bb7bd792e54ecc22eb804abe0a237cb0c1.jpg",
    "icongray": "https://steamcdn-a.akamaihd.net/steamcommunity/public/images/apps/204880/ab9d181a55b914b3604daf38ac34691885a9d882.jpg"
  },
  {
    "name": "HasDestroyedPlanets",
    "defaultvalue": 0,
    "displayName": "Destroyer of Worlds",
    "hidden": 0,
    "description": "Destroy 20 planets in a single game.",
    "icon": "https://steamcdn-a.akamaihd.net/steamcommunity/public/images/apps/204880/d68597bb7bd792e54ecc22eb804abe0a237cb0c1.jpg",
    "icongray": "https://steamcdn-a.akamaihd.net/steamcommunity/public/images/apps/204880/ab9d181a55b914b3604daf38ac34691885a9d882.jpg"
  },
  {
    "name": "HasDifferentPlanetBonuses",
    "defaultvalue": 0,
    "displayName": "Intrepid Explorer",
    "hidden": 0,
    "description": "Control 20 different planet bonuses in a single game.",
    "icon": "https://steamcdn-a.akamaihd.net/steamcommunity/public/images/apps/204880/d68597bb7bd792e54ecc22eb804abe0a237cb0c1.jpg",
    "icongray": "https://steamcdn-a.akamaihd.net/steamcommunity/public/images/apps/204880/ab9d181a55b914b3604daf38ac34691885a9d882.jpg"
  }
]