﻿{
  "Dlcs": {
    "212894": {
      "Name": "Dishonored: The Brigmore Witches",
      "ImageUrl": "https://steamcdn-a.akamaihd.net/steam/apps/212894/header.jpg?t=1497057173"
    },
    "212893": {
      "Name": "Dishonored - Void Walker Arsenal",
      "ImageUrl": "https://steamcdn-a.akamaihd.net/steam/apps/212893/header.jpg?t=1478194735"
    },
    "208575": {
      "Name": "Dishonored - The Knife of Dunwall",
      "ImageUrl": "https://steamcdn-a.akamaihd.net/steam/apps/208575/header.jpg?t=1497057138"
    },
    "208570": {
      "Name": "Dishonored: Dunwall City Trials",
      "ImageUrl": "https://steamcdn-a.akamaihd.net/steam/apps/208570/header.jpg?t=1497057115"
    },
    "455050": {
      "Name": "",
      "ImageUrl": ""
    }
  },
  "Name": "Dishonored",
  "AppId": "205100",
  "ImageUrl": "https://steamcdn-a.akamaihd.net/steam/apps/205100/header.jpg?t=1598321484",
  "Languages": [
    "english",
    "german",
    "french",
    "italian",
    "spanish"
  ],
  "Platforms": {
    "windows": true,
    "mac": false,
    "linux": false
  }
}