﻿{
  "Dlcs": {},
  "Name": "Lunnye Devitsy",
  "AppId": "233510",
  "ImageUrl": "https://steamcdn-a.akamaihd.net/steam/apps/233510/header.jpg?t=1478644465",
  "Languages": [
    "english"
  ],
  "Platforms": {
    "windows": true,
    "mac": false,
    "linux": false
  }
}