﻿{
  "Dlcs": {},
  "Name": "Penumbra Overture",
  "AppId": "22180",
  "ImageUrl": "https://steamcdn-a.akamaihd.net/steam/apps/22180/header.jpg?t=1591002035",
  "Languages": [
    "english"
  ],
  "Platforms": {
    "windows": true,
    "mac": true,
    "linux": true
  }
}