﻿[
  {
    "name": "ACH_STAGE_4",
    "defaultvalue": 0,
    "displayName": "Stage 4",
    "hidden": 0,
    "description": "Unlock Stage 4",
    "icon": "https://steamcdn-a.akamaihd.net/steamcommunity/public/images/apps/653210/e697ce950284652c81edaa9cd6314260ba8d4ca3.jpg",
    "icongray": "https://steamcdn-a.akamaihd.net/steamcommunity/public/images/apps/653210/d08838582e27f6fbab8299d9b70244d39f521e97.jpg"
  },
  {
    "name": "ACH_STAGE_5",
    "defaultvalue": 0,
    "displayName": "Stage 5",
    "hidden": 0,
    "description": "Unlock Stage 5",
    "icon": "https://steamcdn-a.akamaihd.net/steamcommunity/public/images/apps/653210/fec3420d825288dd90f89410872d5b20c5ee6ba0.jpg",
    "icongray": "https://steamcdn-a.akamaihd.net/steamcommunity/public/images/apps/653210/9c5dae7f4f378624b5c4f9207e4bc296f6995f0d.jpg"
  },
  {
    "name": "ACH_GAME",
    "defaultvalue": 0,
    "displayName": "Prisoner I",
    "hidden": 0,
    "description": "Complete the full game",
    "icon": "https://steamcdn-a.akamaihd.net/steamcommunity/public/images/apps/653210/4291111b7abeaa0e72a3991fbce8235b63ba4f19.jpg",
    "icongray": "https://steamcdn-a.akamaihd.net/steamcommunity/public/images/apps/653210/365e575631501631042278e3674fdafb217134e6.jpg"
  },
  {
    "name": "ACH_GAME_5",
    "defaultvalue": 0,
    "displayName": "Prisoner II",
    "hidden": 0,
    "description": "Complete the full game 5 times",
    "icon": "https://steamcdn-a.akamaihd.net/steamcommunity/public/images/apps/653210/3cb2fa045961d35e8d93affe9d45ca99eb87818a.jpg",
    "icongray": "https://steamcdn-a.akamaihd.net/steamcommunity/public/images/apps/653210/511601416aaea1400310fce3d7942ed609b367de.jpg"
  },
  {
    "name": "ACH_GAME_10",
    "defaultvalue": 0,
    "displayName": "Prisoner III",
    "hidden": 0,
    "description": "Complete the full game 10 times",
    "icon": "https://steamcdn-a.akamaihd.net/steamcommunity/public/images/apps/653210/f9284064b7dcf1dfe5c7eee3331842b3b102c8bd.jpg",
    "icongray": "https://steamcdn-a.akamaihd.net/steamcommunity/public/images/apps/653210/4d78e5494aea3bb0c8a486316db078e872a96a68.jpg"
  },
  {
    "name": "ACH_TRIAL_1",
    "defaultvalue": 0,
    "displayName": "Trial of Death",
    "hidden": 0,
    "description": "Complete Trial of Death",
    "icon": "https://steamcdn-a.akamaihd.net/steamcommunity/public/images/apps/653210/b03731df21dcc178260240cea629f213a581d4ff.jpg",
    "icongray": "https://steamcdn-a.akamaihd.net/steamcommunity/public/images/apps/653210/f296b2465c0484746f8979a3419deaab5d94c3c0.jpg"
  },
  {
    "name": "ACH_TRIAL_2",
    "defaultvalue": 0,
    "displayName": "Trial of Life",
    "hidden": 0,
    "description": "Complete Trial of Life",
    "icon": "https://steamcdn-a.akamaihd.net/steamcommunity/public/images/apps/653210/a49a13ec80ddc407f447b97b72282bdfed2931c1.jpg",
    "icongray": "https://steamcdn-a.akamaihd.net/steamcommunity/public/images/apps/653210/2401912c3f18bb69cea9edf0ce62b9b29e3b33e7.jpg"
  },
  {
    "name": "ACH_TRIAL_3",
    "defaultvalue": 0,
    "displayName": "Uber Complex",
    "hidden": 0,
    "description": "Complete Uber Complex",
    "icon": "https://steamcdn-a.akamaihd.net/steamcommunity/public/images/apps/653210/0ab415e8415907d4af2864007559a6126b823512.jpg",
    "icongray": "https://steamcdn-a.akamaihd.net/steamcommunity/public/images/apps/653210/d2decf46b1571fa99f4a7f094e7b5258648cb9c2.jpg"
  },
  {
    "name": "ACH_TRIAL_4",
    "defaultvalue": 0,
    "displayName": "Trial of Time",
    "hidden": 0,
    "description": "Complete Trial of Time",
    "icon": "https://steamcdn-a.akamaihd.net/steamcommunity/public/images/apps/653210/6c7706f9cf74cd4dabba3b3470649302acca99e1.jpg",
    "icongray": "https://steamcdn-a.akamaihd.net/steamcommunity/public/images/apps/653210/a603d94650c9d34cf25ae12dd7928cbfd5065000.jpg"
  },
  {
    "name": "ACH_TRIAL_5",
    "defaultvalue": 0,
    "displayName": "Trial of Darkness",
    "hidden": 0,
    "description": "Complete Trial of Darkness",
    "icon": "https://steamcdn-a.akamaihd.net/steamcommunity/public/images/apps/653210/3478e7eb74fa18f89efb774cd416688960ba1398.jpg",
    "icongray": "https://steamcdn-a.akamaihd.net/steamcommunity/public/images/apps/653210/6f1122f1233472c1bacc7f6d7b0d7e5cbe4ae665.jpg"
  },
  {
    "name": "ACH_ACTIVE_TRIALS_2",
    "defaultvalue": 0,
    "displayName": "Engineer of the Complex I",
    "hidden": 0,
    "description": "Complete the full game with 2 active trials",
    "icon": "https://steamcdn-a.akamaihd.net/steamcommunity/public/images/apps/653210/aae007de38d1eee0a238aeba33809d640209410f.jpg",
    "icongray": "https://steamcdn-a.akamaihd.net/steamcommunity/public/images/apps/653210/e7469c7b04001cb786cc0664ffc5f37024b8f00e.jpg"
  },
  {
    "name": "ACH_ACTIVE_TRIALS_3",
    "defaultvalue": 0,
    "displayName": "Engineer of the Complex II",
    "hidden": 0,
    "description": "Complete the full game with 3 active trials",
    "icon": "https://steamcdn-a.akamaihd.net/steamcommunity/public/images/apps/653210/3dabc63be9a941a5d7e3ef77b47573933ae40f59.jpg",
    "icongray": "https://steamcdn-a.akamaihd.net/steamcommunity/public/images/apps/653210/8e91b0890bce68bdd3675ca9ca73c68d241e61a6.jpg"
  },
  {
    "name": "ACH_ACTIVE_TRIALS_4",
    "defaultvalue": 0,
    "displayName": "Engineer of the Complex III",
    "hidden": 0,
    "description": "Complete the full game with 4 active trials",
    "icon": "https://steamcdn-a.akamaihd.net/steamcommunity/public/images/apps/653210/3d1e54a4831e93ae3583e72be8d4fbdff6a3b4d2.jpg",
    "icongray": "https://steamcdn-a.akamaihd.net/steamcommunity/public/images/apps/653210/07a57c867dd04e4b2c9d06cfa2266ac35dd1285d.jpg"
  },
  {
    "name": "ACH_ACTIVE_TRIALS_5",
    "defaultvalue": 0,
    "displayName": "Engineer of the Complex IV",
    "hidden": 0,
    "description": "Complete the full game with 5 active trials",
    "icon": "https://steamcdn-a.akamaihd.net/steamcommunity/public/images/apps/653210/66d8e6b4263d88392de0a2563d9f28111f13e595.jpg",
    "icongray": "https://steamcdn-a.akamaihd.net/steamcommunity/public/images/apps/653210/4920a5e427deef21b41593c0e3cd992e6adaa419.jpg"
  },
  {
    "name": "ACH_SEC_ROOM_1",
    "defaultvalue": 0,
    "displayName": "Explorer of the Complex I",
    "hidden": 0,
    "description": "Find a Secret Room",
    "icon": "https://steamcdn-a.akamaihd.net/steamcommunity/public/images/apps/653210/1ddec01271d0069d2a2d7de15053d5cd34d7bfa8.jpg",
    "icongray": "https://steamcdn-a.akamaihd.net/steamcommunity/public/images/apps/653210/4c033ef659249be7a5fc4a07a0d768958fb81670.jpg"
  },
  {
    "name": "ACH_SEC_ROOM_2",
    "defaultvalue": 0,
    "displayName": "Explorer of the Complex II",
    "hidden": 0,
    "description": "Find 10 Secret Rooms",
    "icon": "https://steamcdn-a.akamaihd.net/steamcommunity/public/images/apps/653210/15a94f4d5b7abc6296d440bcef08978c1aa4e679.jpg",
    "icongray": "https://steamcdn-a.akamaihd.net/steamcommunity/public/images/apps/653210/955b74fcea9577480fa620ed30ac20c80141c14f.jpg"
  },
  {
    "name": "ACH_SEC_ROOM_3",
    "defaultvalue": 0,
    "displayName": "Explorer of the Complex III",
    "hidden": 0,
    "description": "Find 25 Secret Rooms in the New Complex",
    "icon": "https://steamcdn-a.akamaihd.net/steamcommunity/public/images/apps/653210/f599275775ef8edfdd308a5326fcabd80787bd0d.jpg",
    "icongray": "https://steamcdn-a.akamaihd.net/steamcommunity/public/images/apps/653210/b7665315a077529d4c080cc3ee2feb5c2a487675.jpg"
  },
  {
    "name": "ACH_ROOM_PASS_100",
    "defaultvalue": 0,
    "displayName": "Blade Runner I",
    "hidden": 0,
    "description": "Pass 100 rooms",
    "icon": "https://steamcdn-a.akamaihd.net/steamcommunity/public/images/apps/653210/be7fd3d78f34e93caa5c4436f35a2e8052fea585.jpg",
    "icongray": "https://steamcdn-a.akamaihd.net/steamcommunity/public/images/apps/653210/678965f4c8de0af74d3f535cace28bb24adb75ff.jpg"
  },
  {
    "name": "ACH_ROOM_PASS_250",
    "defaultvalue": 0,
    "displayName": "Blade Runner II",
    "hidden": 0,
    "description": "Pass 250 rooms",
    "icon": "https://steamcdn-a.akamaihd.net/steamcommunity/public/images/apps/653210/796108ff6c1b7db768462953fe2d5140b90a7cca.jpg",
    "icongray": "https://steamcdn-a.akamaihd.net/steamcommunity/public/images/apps/653210/0b9ffe004bd5e25739c2362ec7e2b6867215c31a.jpg"
  },
  {
    "name": "ACH_ROOM_PASS_500",
    "defaultvalue": 0,
    "displayName": "Blade Runner III",
    "hidden": 0,
    "description": "Pass 500 rooms",
    "icon": "https://steamcdn-a.akamaihd.net/steamcommunity/public/images/apps/653210/f599275775ef8edfdd308a5326fcabd80787bd0d.jpg",
    "icongray": "https://steamcdn-a.akamaihd.net/steamcommunity/public/images/apps/653210/c4387ea150f6061fb554e5bd7ce03e81d79ecd5b.jpg"
  },
  {
    "name": "ACH_ROOM_EXTRA",
    "defaultvalue": 0,
    "displayName": "Mystery rooms",
    "hidden": 0,
    "description": "Pass 25 extra rooms",
    "icon": "https://steamcdn-a.akamaihd.net/steamcommunity/public/images/apps/653210/217370e159ae09d7eed28fb17ccfb8f8a341cbf4.jpg",
    "icongray": "https://steamcdn-a.akamaihd.net/steamcommunity/public/images/apps/653210/105241b07e53cc2f57a6a7f8d6c58f73019a17bd.jpg"
  },
  {
    "name": "ACH_ROOM_EXTRA_WAY",
    "defaultvalue": 0,
    "displayName": "Easy way",
    "hidden": 0,
    "description": "Find the secret way in extra room",
    "icon": "https://steamcdn-a.akamaihd.net/steamcommunity/public/images/apps/653210/ee1a96d3e15e4793cac1101416e8221bc9db52f3.jpg",
    "icongray": "https://steamcdn-a.akamaihd.net/steamcommunity/public/images/apps/653210/023949d430c6ed98ff003919981392792c9c557e.jpg"
  },
  {
    "name": "ACH_ALL",
    "defaultvalue": 0,
    "displayName": "Lord of the Complex",
    "hidden": 0,
    "description": "Complete all achievements",
    "icon": "https://steamcdn-a.akamaihd.net/steamcommunity/public/images/apps/653210/b16afc9d819b775bb177c9112d85ad098a3e6a7c.jpg",
    "icongray": "https://steamcdn-a.akamaihd.net/steamcommunity/public/images/apps/653210/03e071f724df6d2b77c90974f24e1e806876eb57.jpg"
  },
  {
    "name": "ACH_STAGE_6",
    "defaultvalue": 0,
    "displayName": "Stage 6",
    "hidden": 0,
    "description": "Unlock Stage 6",
    "icon": "https://steamcdn-a.akamaihd.net/steamcommunity/public/images/apps/653210/9780fcfc452a7f2735631c4d94096b93446fbc13.jpg",
    "icongray": "https://steamcdn-a.akamaihd.net/steamcommunity/public/images/apps/653210/324099fa70c7481b145d3bb6f736255a3f7d8c8f.jpg"
  },
  {
    "name": "ACH_MYSTERY_1",
    "defaultvalue": 0,
    "displayName": "Activator I",
    "hidden": 0,
    "description": "Activate the Mystery Mechanism",
    "icon": "https://steamcdn-a.akamaihd.net/steamcommunity/public/images/apps/653210/3b99b1ef098ccdf5ba932962342c0117a996defb.jpg",
    "icongray": "https://steamcdn-a.akamaihd.net/steamcommunity/public/images/apps/653210/f57f2539b47e4f91682aca0f3636aec3a3939dc8.jpg"
  },
  {
    "name": "ACH_MYSTERY_2",
    "defaultvalue": 0,
    "displayName": "Activator II",
    "hidden": 0,
    "description": "Activate the 50 Mystery Mechanisms",
    "icon": "https://steamcdn-a.akamaihd.net/steamcommunity/public/images/apps/653210/4c18939d84707a46f4584c09a5bfbc96ea7c6de0.jpg",
    "icongray": "https://steamcdn-a.akamaihd.net/steamcommunity/public/images/apps/653210/d7572352e9e3503fed535034e633ff5f79f53b25.jpg"
  },
  {
    "name": "ACH_ENDLESS_1",
    "defaultvalue": 0,
    "displayName": "Eternal Wanderer I",
    "hidden": 0,
    "description": "Reach the 25 rooms in Endless Complex",
    "icon": "https://steamcdn-a.akamaihd.net/steamcommunity/public/images/apps/653210/187a6377fc2d92986c245519d0f3b474028391d6.jpg",
    "icongray": "https://steamcdn-a.akamaihd.net/steamcommunity/public/images/apps/653210/b2a5fa289fbea9c5ee4db91bd8b85a6641c3dee6.jpg"
  },
  {
    "name": "ACH_ENDLESS_2",
    "defaultvalue": 0,
    "displayName": "Eternal Wanderer II",
    "hidden": 0,
    "description": "Reach the 50 rooms in Endless Complex",
    "icon": "https://steamcdn-a.akamaihd.net/steamcommunity/public/images/apps/653210/6b90a6500fef4028b1ebb1e0bb857589ea58a4bf.jpg",
    "icongray": "https://steamcdn-a.akamaihd.net/steamcommunity/public/images/apps/653210/391278a068ea5755328eed1a2b914d18d2785050.jpg"
  },
  {
    "name": "ACH_ENDLESS_3",
    "defaultvalue": 0,
    "displayName": "Eternal Wanderer III",
    "hidden": 0,
    "description": "Reach the 75 rooms in Endless Complex",
    "icon": "https://steamcdn-a.akamaihd.net/steamcommunity/public/images/apps/653210/1937b62eb4a17b665b1ddd442712708e44785154.jpg",
    "icongray": "https://steamcdn-a.akamaihd.net/steamcommunity/public/images/apps/653210/c65e0e1632d34a6fe416fb2e33ff4d2fa361da88.jpg"
  },
  {
    "name": "ACH_ENDLESS_4",
    "defaultvalue": 0,
    "displayName": "Eternal Wanderer IV",
    "hidden": 0,
    "description": "Reach the 100 rooms in Endless Complex",
    "icon": "https://steamcdn-a.akamaihd.net/steamcommunity/public/images/apps/653210/096b4ceed6732e0b824d0ed7eb2b40d3932144b2.jpg",
    "icongray": "https://steamcdn-a.akamaihd.net/steamcommunity/public/images/apps/653210/7c302b61f3e69d56aace4b4f75f3a42234ebd4fe.jpg"
  },
  {
    "name": "ACH_SKINS_1",
    "defaultvalue": 0,
    "displayName": "Collector I",
    "hidden": 0,
    "description": "Collect 3 character skins",
    "icon": "https://steamcdn-a.akamaihd.net/steamcommunity/public/images/apps/653210/5023969157f8ff2a9d3776bb10f3027077950745.jpg",
    "icongray": "https://steamcdn-a.akamaihd.net/steamcommunity/public/images/apps/653210/91060e0074236b6bc2a1568e134d8178144dcddf.jpg"
  },
  {
    "name": "ACH_SKINS_2",
    "defaultvalue": 0,
    "displayName": "Collector II",
    "hidden": 0,
    "description": "Collect 6 character skins",
    "icon": "https://steamcdn-a.akamaihd.net/steamcommunity/public/images/apps/653210/57853238295c9f2582a0edd6b1c96112af6756f9.jpg",
    "icongray": "https://steamcdn-a.akamaihd.net/steamcommunity/public/images/apps/653210/9772b41d191e3ed1fabf8c267cee8f1a8c4743ef.jpg"
  },
  {
    "name": "ACH_SKINS_3",
    "defaultvalue": 0,
    "displayName": "Collector III",
    "hidden": 0,
    "description": "Collect all character skins",
    "icon": "https://steamcdn-a.akamaihd.net/steamcommunity/public/images/apps/653210/fdd8792d8e8c1e7ff9dfc44ee0031f68dadf4cfe.jpg",
    "icongray": "https://steamcdn-a.akamaihd.net/steamcommunity/public/images/apps/653210/f55c2cfae53e2456a08164f204d49d24dee38b27.jpg"
  }
]