﻿[
  {
    "name": "KEEPINGITREEL",
    "defaultvalue": 0,
    "displayName": "Keeping it reel",
    "hidden": 0,
    "description": "Find the hidden tape deck",
    "icon": "https://steamcdn-a.akamaihd.net/steamcommunity/public/images/apps/227000/9de280bdd42c1e62bc1aa3b621b24b36e0721dc0.jpg",
    "icongray": "https://steamcdn-a.akamaihd.net/steamcommunity/public/images/apps/227000/e035d29d6fd21cee9c5cdb236e86018e85f194dd.jpg"
  },
  {
    "name": "DEFRAGMENTED",
    "defaultvalue": 0,
    "displayName": "Defragmented",
    "hidden": 0,
    "description": "Wake a slumbering giant",
    "icon": "https://steamcdn-a.akamaihd.net/steamcommunity/public/images/apps/227000/eabfc5c80155bdce8b775c9e766b3ccc6fade48f.jpg",
    "icongray": "https://steamcdn-a.akamaihd.net/steamcommunity/public/images/apps/227000/e035d29d6fd21cee9c5cdb236e86018e85f194dd.jpg"
  },
  {
    "name": "CALLMEDAVID",
    "defaultvalue": 0,
    "displayName": "Call me David",
    "hidden": 0,
    "description": "Use brawn instead of brains",
    "icon": "https://steamcdn-a.akamaihd.net/steamcommunity/public/images/apps/227000/0440925adf10c708cb3d3678c80c206cb5cd5f26.jpg",
    "icongray": "https://steamcdn-a.akamaihd.net/steamcommunity/public/images/apps/227000/e035d29d6fd21cee9c5cdb236e86018e85f194dd.jpg"
  },
  {
    "name": "PEEPINGTOM",
    "defaultvalue": 0,
    "displayName": "Peeping tom",
    "hidden": 0,
    "description": "Look at all the sensor coordinates",
    "icon": "https://steamcdn-a.akamaihd.net/steamcommunity/public/images/apps/227000/faf7ab1593c87b80e8769d51d417d48a5830f873.jpg",
    "icongray": "https://steamcdn-a.akamaihd.net/steamcommunity/public/images/apps/227000/e035d29d6fd21cee9c5cdb236e86018e85f194dd.jpg"
  },
  {
    "name": "ROBOMITZVAH",
    "defaultvalue": 0,
    "displayName": "Robotmitzvah",
    "hidden": 0,
    "description": "Pass Ever-Faithful's test on the first try",
    "icon": "https://steamcdn-a.akamaihd.net/steamcommunity/public/images/apps/227000/9afb9d2bab569ea2e964bcbf571c1a207ddcd209.jpg",
    "icongray": "https://steamcdn-a.akamaihd.net/steamcommunity/public/images/apps/227000/e035d29d6fd21cee9c5cdb236e86018e85f194dd.jpg"
  },
  {
    "name": "KNOTCUTTER",
    "defaultvalue": 0,
    "displayName": "Knotcutter",
    "hidden": 0,
    "description": "An easy solution to an impossible problem",
    "icon": "https://steamcdn-a.akamaihd.net/steamcommunity/public/images/apps/227000/eb6a1d5db067372d6966e7c6a3c4a6f47eb920dc.jpg",
    "icongray": "https://steamcdn-a.akamaihd.net/steamcommunity/public/images/apps/227000/e035d29d6fd21cee9c5cdb236e86018e85f194dd.jpg"
  },
  {
    "name": "WINGMAN",
    "defaultvalue": 0,
    "displayName": "Wingman",
    "hidden": 0,
    "description": "Train Crispin for his big date",
    "icon": "https://steamcdn-a.akamaihd.net/steamcommunity/public/images/apps/227000/d50e70398d09bae2f09399b212a611ed09f85ef4.jpg",
    "icongray": "https://steamcdn-a.akamaihd.net/steamcommunity/public/images/apps/227000/e035d29d6fd21cee9c5cdb236e86018e85f194dd.jpg"
  },
  {
    "name": "MULTITASKER",
    "defaultvalue": 0,
    "displayName": "Gear head",
    "hidden": 0,
    "description": "Clean two gears using different methods",
    "icon": "https://steamcdn-a.akamaihd.net/steamcommunity/public/images/apps/227000/d74808de24ba5ffc49cd94f47e6f9b3049552776.jpg",
    "icongray": "https://steamcdn-a.akamaihd.net/steamcommunity/public/images/apps/227000/e035d29d6fd21cee9c5cdb236e86018e85f194dd.jpg"
  },
  {
    "name": "LAWYERHERO",
    "defaultvalue": 0,
    "displayName": "Lawyer robot hero",
    "hidden": 0,
    "description": "Pass a legal test on the first try",
    "icon": "https://steamcdn-a.akamaihd.net/steamcommunity/public/images/apps/227000/95c394d54ae13a860c7b7713f4fa5717892c2523.jpg",
    "icongray": "https://steamcdn-a.akamaihd.net/steamcommunity/public/images/apps/227000/e035d29d6fd21cee9c5cdb236e86018e85f194dd.jpg"
  },
  {
    "name": "KNOWITALL",
    "defaultvalue": 0,
    "displayName": "Know it all",
    "hidden": 0,
    "description": "Find every entry in the information kiosk",
    "icon": "https://steamcdn-a.akamaihd.net/steamcommunity/public/images/apps/227000/a43bcd7d43b3c59240ea1ef9ac929d2dd3768c7a.jpg",
    "icongray": "https://steamcdn-a.akamaihd.net/steamcommunity/public/images/apps/227000/e035d29d6fd21cee9c5cdb236e86018e85f194dd.jpg"
  },
  {
    "name": "GHOSTWHISPERER",
    "defaultvalue": 0,
    "displayName": "Ghost whisperer",
    "hidden": 0,
    "description": "Find Memento Moribuilt",
    "icon": "https://steamcdn-a.akamaihd.net/steamcommunity/public/images/apps/227000/0ac3d54f6c603a2bca4dba3c1ed0870fb0eb34dc.jpg",
    "icongray": "https://steamcdn-a.akamaihd.net/steamcommunity/public/images/apps/227000/e035d29d6fd21cee9c5cdb236e86018e85f194dd.jpg"
  },
  {
    "name": "KEEPINGTHEFAITH",
    "defaultvalue": 0,
    "displayName": "KEEPINGTHEFAITH",
    "hidden": 0,
    "description": "Help a lost pilgrim find his way",
    "icon": "https://steamcdn-a.akamaihd.net/steamcommunity/public/images/apps/227000/41fc77600bf7116bdc5003ff145944b1d494dced.jpg",
    "icongray": "https://steamcdn-a.akamaihd.net/steamcommunity/public/images/apps/227000/e035d29d6fd21cee9c5cdb236e86018e85f194dd.jpg"
  },
  {
    "name": "MELTEDHEART",
    "defaultvalue": 0,
    "displayName": "Melted heart",
    "hidden": 0,
    "description": "Change Factotum's mind",
    "icon": "https://steamcdn-a.akamaihd.net/steamcommunity/public/images/apps/227000/b98d69509ef6c99afa7483ce06a2e4c3d691d9b9.jpg",
    "icongray": "https://steamcdn-a.akamaihd.net/steamcommunity/public/images/apps/227000/e035d29d6fd21cee9c5cdb236e86018e85f194dd.jpg"
  },
  {
    "name": "THREEMUSKETEERS",
    "defaultvalue": 0,
    "displayName": "Three musketeers",
    "hidden": 0,
    "description": "Reunite Surly Company",
    "icon": "https://steamcdn-a.akamaihd.net/steamcommunity/public/images/apps/227000/13a7f5eea18a2c20a57a04854cb50a3f970b44d7.jpg",
    "icongray": "https://steamcdn-a.akamaihd.net/steamcommunity/public/images/apps/227000/e035d29d6fd21cee9c5cdb236e86018e85f194dd.jpg"
  },
  {
    "name": "COURTING",
    "defaultvalue": 0,
    "displayName": "Gone courting",
    "hidden": 0,
    "description": "Unlock the courthouse",
    "icon": "https://steamcdn-a.akamaihd.net/steamcommunity/public/images/apps/227000/e52b52eeb32fe82c8d8b4bcf21798f44957c2193.jpg",
    "icongray": "https://steamcdn-a.akamaihd.net/steamcommunity/public/images/apps/227000/e035d29d6fd21cee9c5cdb236e86018e85f194dd.jpg"
  },
  {
    "name": "CUSTARD",
    "defaultvalue": 0,
    "displayName": "Smells of rotten custard",
    "hidden": 0,
    "description": "Unlock Horatio's past",
    "icon": "https://steamcdn-a.akamaihd.net/steamcommunity/public/images/apps/227000/058d9bd81e63ec29d90d7d9c0edc682643ce38d6.jpg",
    "icongray": "https://steamcdn-a.akamaihd.net/steamcommunity/public/images/apps/227000/e035d29d6fd21cee9c5cdb236e86018e85f194dd.jpg"
  },
  {
    "name": "OPENSESAME",
    "defaultvalue": 0,
    "displayName": "Open sesame",
    "hidden": 0,
    "description": "Unlock the tower door, without outside help",
    "icon": "https://steamcdn-a.akamaihd.net/steamcommunity/public/images/apps/227000/0270b2c63031c9148a2780627efba8fdb8a606b2.jpg",
    "icongray": "https://steamcdn-a.akamaihd.net/steamcommunity/public/images/apps/227000/e035d29d6fd21cee9c5cdb236e86018e85f194dd.jpg"
  },
  {
    "name": "MACHINA",
    "defaultvalue": 0,
    "displayName": "Machina ex Machina",
    "hidden": 0,
    "description": "Get help from a new friend",
    "icon": "https://steamcdn-a.akamaihd.net/steamcommunity/public/images/apps/227000/c4880bd0f07f62b1f6a5b973ecc12e6ba7532419.jpg",
    "icongray": "https://steamcdn-a.akamaihd.net/steamcommunity/public/images/apps/227000/e035d29d6fd21cee9c5cdb236e86018e85f194dd.jpg"
  },
  {
    "name": "SACRIFICE",
    "defaultvalue": 0,
    "displayName": "Sacrifice",
    "hidden": 0,
    "description": "Victory at what cost?",
    "icon": "https://steamcdn-a.akamaihd.net/steamcommunity/public/images/apps/227000/9c3b4013ddcb037acf0901c94363bcf86dff185b.jpg",
    "icongray": "https://steamcdn-a.akamaihd.net/steamcommunity/public/images/apps/227000/e035d29d6fd21cee9c5cdb236e86018e85f194dd.jpg"
  },
  {
    "name": "CHARGEDUP",
    "defaultvalue": 0,
    "displayName": "Charged up",
    "hidden": 0,
    "description": "That hit the spot. But for how much longer?",
    "icon": "https://steamcdn-a.akamaihd.net/steamcommunity/public/images/apps/227000/bb2fca8cc48238e3336d4cdf13ba2563194fd448.jpg",
    "icongray": "https://steamcdn-a.akamaihd.net/steamcommunity/public/images/apps/227000/e035d29d6fd21cee9c5cdb236e86018e85f194dd.jpg"
  },
  {
    "name": "NEEDLE",
    "defaultvalue": 0,
    "displayName": "Needle in a haystack",
    "hidden": 0,
    "description": "Use technology to do the impossible",
    "icon": "https://steamcdn-a.akamaihd.net/steamcommunity/public/images/apps/227000/1f05c7ac15f7f77e7b1b6c00473b640ee0551cca.jpg",
    "icongray": "https://steamcdn-a.akamaihd.net/steamcommunity/public/images/apps/227000/e035d29d6fd21cee9c5cdb236e86018e85f194dd.jpg"
  },
  {
    "name": "SCRAPER",
    "defaultvalue": 0,
    "displayName": "I told you to stop",
    "hidden": 0,
    "description": "Stop Scraper once and for all",
    "icon": "https://steamcdn-a.akamaihd.net/steamcommunity/public/images/apps/227000/be1cefa27b482d10d070ebe534c4f10df22c963c.jpg",
    "icongray": "https://steamcdn-a.akamaihd.net/steamcommunity/public/images/apps/227000/e035d29d6fd21cee9c5cdb236e86018e85f194dd.jpg"
  },
  {
    "name": "NOTBLUFFING",
    "defaultvalue": 0,
    "displayName": "Not bluffing",
    "hidden": 0,
    "description": "She pushed you too far",
    "icon": "https://steamcdn-a.akamaihd.net/steamcommunity/public/images/apps/227000/dc9c1aa6d831cb7f772bd550ef766164021ae36c.jpg",
    "icongray": "https://steamcdn-a.akamaihd.net/steamcommunity/public/images/apps/227000/e035d29d6fd21cee9c5cdb236e86018e85f194dd.jpg"
  },
  {
    "name": "TOOMUCHPOWER",
    "defaultvalue": 0,
    "displayName": "Too much power",
    "hidden": 0,
    "description": "Resort to blackmail, and emerge the victor",
    "icon": "https://steamcdn-a.akamaihd.net/steamcommunity/public/images/apps/227000/0bc2b4c1b0a5f65efd654bb7fbdcdba9e79263c3.jpg",
    "icongray": "https://steamcdn-a.akamaihd.net/steamcommunity/public/images/apps/227000/e035d29d6fd21cee9c5cdb236e86018e85f194dd.jpg"
  },
  {
    "name": "THANATOS",
    "defaultvalue": 0,
    "displayName": "Thanatos",
    "hidden": 0,
    "description": "Fulfill your true mission",
    "icon": "https://steamcdn-a.akamaihd.net/steamcommunity/public/images/apps/227000/9da217b19ec0b76ed1746afafa5e0892bb63111e.jpg",
    "icongray": "https://steamcdn-a.akamaihd.net/steamcommunity/public/images/apps/227000/e035d29d6fd21cee9c5cdb236e86018e85f194dd.jpg"
  },
  {
    "name": "FLY",
    "defaultvalue": 0,
    "displayName": "I always wanted to fly. . .",
    "hidden": 0,
    "description": "Take a leap of faith",
    "icon": "https://steamcdn-a.akamaihd.net/steamcommunity/public/images/apps/227000/ac163d8c7d73f935ee18a8551734ea35d5da7b65.jpg",
    "icongray": "https://steamcdn-a.akamaihd.net/steamcommunity/public/images/apps/227000/e035d29d6fd21cee9c5cdb236e86018e85f194dd.jpg"
  },
  {
    "name": "FUTILE",
    "defaultvalue": 0,
    "displayName": "Resistance is futile",
    "hidden": 0,
    "description": "Join your foe for the greater good",
    "icon": "https://steamcdn-a.akamaihd.net/steamcommunity/public/images/apps/227000/a0c741203aae0db1716a6f49839c190661024b38.jpg",
    "icongray": "https://steamcdn-a.akamaihd.net/steamcommunity/public/images/apps/227000/e035d29d6fd21cee9c5cdb236e86018e85f194dd.jpg"
  },
  {
    "name": "LIVEFREE",
    "defaultvalue": 0,
    "displayName": "Live free or die",
    "hidden": 0,
    "description": "Stay true to yourself",
    "icon": "https://steamcdn-a.akamaihd.net/steamcommunity/public/images/apps/227000/162b3f77d6dac24e6bac4bb5eb537333480e6fb0.jpg",
    "icongray": "https://steamcdn-a.akamaihd.net/steamcommunity/public/images/apps/227000/e035d29d6fd21cee9c5cdb236e86018e85f194dd.jpg"
  },
  {
    "name": "TOGETHER",
    "defaultvalue": 0,
    "displayName": "We're all in this together",
    "hidden": 0,
    "description": "Finish the game with all possible robots.",
    "icon": "https://steamcdn-a.akamaihd.net/steamcommunity/public/images/apps/227000/43e367509d382b6a84659e46ea6a6de39dc3f492.jpg",
    "icongray": "https://steamcdn-a.akamaihd.net/steamcommunity/public/images/apps/227000/e035d29d6fd21cee9c5cdb236e86018e85f194dd.jpg"
  }
]