﻿{
  "Dlcs": {},
  "Name": "You Doesn't Exist",
  "AppId": "688650",
  "ImageUrl": "https://steamcdn-a.akamaihd.net/steam/apps/688650/header.jpg?t=1506418875",
  "Languages": [
    "english"
  ],
  "Platforms": {
    "windows": true,
    "mac": false,
    "linux": true
  }
}