﻿{
  "Dlcs": {},
  "Name": "Ghostly Horizon",
  "AppId": "700590",
  "ImageUrl": "https://steamcdn-a.akamaihd.net/steam/apps/700590/header.jpg?t=1535130372",
  "Languages": [
    "english"
  ],
  "Platforms": {
    "windows": true,
    "mac": true,
    "linux": false
  }
}