﻿{
  "Dlcs": {},
  "Name": "The Chaos Engine",
  "AppId": "242530",
  "ImageUrl": "https://steamcdn-a.akamaihd.net/steam/apps/242530/header.jpg?t=1574864269",
  "Languages": [
    "english",
    "french",
    "german",
    "spanish",
    "polish",
    "portuguese",
    "russian"
  ],
  "Platforms": {
    "windows": true,
    "mac": true,
    "linux": true
  }
}