﻿[
  {
    "name": "nCoins",
    "defaultvalue": 0,
    "displayName": "金幣數量"
  },
  {
    "name": "charAmount",
    "defaultvalue": 0,
    "displayName": "角色總數"
  },
  {
    "name": "charStarAmount",
    "defaultvalue": 0,
    "displayName": "角色總星數"
  },
  {
    "name": "lv50_CharAmount",
    "defaultvalue": 0,
    "displayName": "滿足50等級的角色數"
  },
  {
    "name": "equipDismantle",
    "defaultvalue": 0,
    "displayName": "進行N次裝備分解"
  },
  {
    "name": "equipCraft",
    "defaultvalue": 0,
    "displayName": "進行N次裝備合成"
  },
  {
    "name": "equipEvolution",
    "defaultvalue": 0,
    "displayName": "進行N次裝備進化"
  },
  {
    "name": "treasurRefine",
    "defaultvalue": 0,
    "displayName": "進行N次寶具洗煉"
  },
  {
    "name": "talentAllUnlock",
    "defaultvalue": 0,
    "displayName": "N隻角色開啟全部星賦盤"
  },
  {
    "name": "haremStory",
    "defaultvalue": 0,
    "displayName": "後宮劇情數"
  },
  {
    "name": "haremStoryView",
    "defaultvalue": 0,
    "displayName": "後宮劇情觀看次數"
  },
  {
    "name": "inviteFriend",
    "defaultvalue": 0,
    "displayName": "邀請N名好友"
  },
  {
    "name": "friendRequestAccepted",
    "defaultvalue": 0,
    "displayName": "接受邀請"
  },
  {
    "name": "sentGift",
    "defaultvalue": 0,
    "displayName": "進行N次好友贈禮"
  },
  {
    "name": "buyGoods",
    "defaultvalue": 0,
    "displayName": "商品購買N次"
  },
  {
    "name": "leaveShopWithoutGood",
    "defaultvalue": 0,
    "displayName": "N次點進商店都沒有購買就離開"
  },
  {
    "name": "goddessWorship",
    "defaultvalue": 0,
    "displayName": "女神膜拜N次"
  },
  {
    "name": "leagueFeastReceive",
    "defaultvalue": 0,
    "displayName": "領取饗宴N次"
  },
  {
    "name": "leagueInstituteResearch",
    "defaultvalue": 0,
    "displayName": "進行研究N次"
  },
  {
    "name": "leagueMissionComplete",
    "defaultvalue": 0,
    "displayName": "完成聯盟任務N次"
  },
  {
    "name": "arenaFight",
    "defaultvalue": 0,
    "displayName": "競技場參與N次戰鬥"
  },
  {
    "name": "reachTopOfTower",
    "defaultvalue": 0,
    "displayName": "試煉之塔到達最頂N次"
  },
  {
    "name": "summonTimes",
    "defaultvalue": 0,
    "displayName": "轉蛋次數"
  },
  {
    "name": "mainStoryChapterFinish",
    "defaultvalue": 0,
    "displayName": "主線劇情章節完成第N章"
  },
  {
    "name": "raidFight",
    "defaultvalue": 0,
    "displayName": "協力戰參戰N次"
  },
  {
    "name": "raidFightWith1P",
    "defaultvalue": 0,
    "displayName": "單人進行協力戰N次"
  },
  {
    "name": "raidFightWith4P",
    "defaultvalue": 0,
    "displayName": "四人進行協力戰N次"
  },
  {
    "name": "exchangWithContributions",
    "defaultvalue": 0,
    "displayName": "貢獻懸賞-貢獻度兌換次數"
  },
  {
    "name": "loginDays",
    "defaultvalue": 0,
    "displayName": "累計登入天數"
  },
  {
    "name": "playTime",
    "defaultvalue": 0,
    "displayName": "持續遊戲時間"
  },
  {
    "name": "slimeKiller",
    "defaultvalue": 0,
    "displayName": "擊殺N隻指定種類的怪物 RACE編號：1"
  },
  {
    "name": "monsterKiller",
    "defaultvalue": 0,
    "displayName": "擊殺N隻怪物"
  },
  {
    "name": "BossKiller",
    "defaultvalue": 0,
    "displayName": "擊殺N隻BOSS"
  },
  {
    "name": "changerHomePageChar",
    "defaultvalue": 0,
    "displayName": "更換桌面角色N次"
  },
  {
    "name": "changerLeader",
    "defaultvalue": 0,
    "displayName": "更換隊長N次"
  },
  {
    "name": "achievementFinish",
    "defaultvalue": 0,
    "displayName": "完成N個成就"
  }
]