﻿[
  {
    "name": "PLAY_MATCH_1",
    "defaultvalue": 0,
    "displayName": "First",
    "hidden": 0,
    "description": "Finish your first match!",
    "icon": "https://steamcdn-a.akamaihd.net/steamcommunity/public/images/apps/370770/20d1285cfe2d3319aa2685e0423683345ac1c711.jpg",
    "icongray": "https://steamcdn-a.akamaihd.net/steamcommunity/public/images/apps/370770/9b3fc6067927b1d201624e961b7106cc047b642c.jpg"
  },
  {
    "name": "PLAY_MATCH_10",
    "defaultvalue": 0,
    "displayName": "Don’t Stop",
    "hidden": 0,
    "description": "Play 10 matches.",
    "icon": "https://steamcdn-a.akamaihd.net/steamcommunity/public/images/apps/370770/b7fcb15a1b311753952b02f3a5ab9a96f9a4ec45.jpg",
    "icongray": "https://steamcdn-a.akamaihd.net/steamcommunity/public/images/apps/370770/2d659fb7b11412fe1713010462f354f15a903b6e.jpg"
  },
  {
    "name": "PLAY_MATCH_30",
    "defaultvalue": 0,
    "displayName": "Getting the hang of it",
    "hidden": 0,
    "description": "Play 30 matches.",
    "icon": "https://steamcdn-a.akamaihd.net/steamcommunity/public/images/apps/370770/46a66ef729555f6d09942ac960e2ee78a83ac8e0.jpg",
    "icongray": "https://steamcdn-a.akamaihd.net/steamcommunity/public/images/apps/370770/d1f10de3abd35c953d107e2070124934311a0b9d.jpg"
  },
  {
    "name": "PLAY_MATCH_100",
    "defaultvalue": 0,
    "displayName": "Just… One… More…",
    "hidden": 0,
    "description": "Play 100 matches.",
    "icon": "https://steamcdn-a.akamaihd.net/steamcommunity/public/images/apps/370770/c7055cb221daf6497ada8b3bdbda76fcb7088ca7.jpg",
    "icongray": "https://steamcdn-a.akamaihd.net/steamcommunity/public/images/apps/370770/b8a3de11a2020f92f4fe8b7bba867c8450b0d86e.jpg"
  },
  {
    "name": "DOUBLE_KILL_50",
    "defaultvalue": 0,
    "displayName": "Double the fall!",
    "hidden": 0,
    "description": "Do 50 Double Kills across multiple matches.",
    "icon": "https://steamcdn-a.akamaihd.net/steamcommunity/public/images/apps/370770/5d7617805dbcd461aefe90ea73d38e9edff34cbb.jpg",
    "icongray": "https://steamcdn-a.akamaihd.net/steamcommunity/public/images/apps/370770/91105abe40dba0aa38fe881b89f249e7ab59dccf.jpg"
  },
  {
    "name": "GODLIKE_1",
    "defaultvalue": 0,
    "displayName": "Godlike!",
    "hidden": 0,
    "description": "Attain the glorious status of Godlike during a match.",
    "icon": "https://steamcdn-a.akamaihd.net/steamcommunity/public/images/apps/370770/b0ee54cef4b2b5ba4eb21ccb98ca04dcaefc8d83.jpg",
    "icongray": "https://steamcdn-a.akamaihd.net/steamcommunity/public/images/apps/370770/7de8273d8fa9ecd7dba09efe17380a9e7b041ee6.jpg"
  },
  {
    "name": "ACTIVATE_POWERUP_5",
    "defaultvalue": 0,
    "displayName": "Banana",
    "hidden": 0,
    "description": "Use Devices 5 times.",
    "icon": "https://steamcdn-a.akamaihd.net/steamcommunity/public/images/apps/370770/31e91a12f8f2b1e4f86b86e13a199277b14f4b25.jpg",
    "icongray": "https://steamcdn-a.akamaihd.net/steamcommunity/public/images/apps/370770/9172ead040779bb8da7acc1db958a01e66883803.jpg"
  },
  {
    "name": "ACTIVATE_POWERUP_20",
    "defaultvalue": 0,
    "displayName": "Green Shell",
    "hidden": 0,
    "description": "Use Devices 20 times.",
    "icon": "https://steamcdn-a.akamaihd.net/steamcommunity/public/images/apps/370770/c52350e53fe84eebf82c970f03fa02cf47146e0b.jpg",
    "icongray": "https://steamcdn-a.akamaihd.net/steamcommunity/public/images/apps/370770/6799336bedbb7a8202cf1c98a0c7e2f297821e77.jpg"
  },
  {
    "name": "ACTIVATE_POWERUP_100",
    "defaultvalue": 0,
    "displayName": "Red Shell",
    "hidden": 0,
    "description": "Use Devices 100 times.",
    "icon": "https://steamcdn-a.akamaihd.net/steamcommunity/public/images/apps/370770/e6f7deec09f3a2e902e2665c38d60fcb1a6cde2f.jpg",
    "icongray": "https://steamcdn-a.akamaihd.net/steamcommunity/public/images/apps/370770/e7a1e335d8885571708784fc38989a7fcc06f2b7.jpg"
  },
  {
    "name": "ACTIVATE_POWERUP_500",
    "defaultvalue": 0,
    "displayName": "Blue Shell",
    "hidden": 0,
    "description": "Use Devices 500 times.",
    "icon": "https://steamcdn-a.akamaihd.net/steamcommunity/public/images/apps/370770/f784894d8498d6a7f5e878541e1f479b6b711609.jpg",
    "icongray": "https://steamcdn-a.akamaihd.net/steamcommunity/public/images/apps/370770/29d3da5205a8e0c5c14cda20a0d5f4327b506e54.jpg"
  },
  {
    "name": "ENERGIES_COLLECTED_50",
    "defaultvalue": 0,
    "displayName": "Gatherer",
    "hidden": 0,
    "description": "Deposit a total of 50 energy in your vault across multiple matches.",
    "icon": "https://steamcdn-a.akamaihd.net/steamcommunity/public/images/apps/370770/b415944201a2f5914d7a3b9c646826be6d1b9b9d.jpg",
    "icongray": "https://steamcdn-a.akamaihd.net/steamcommunity/public/images/apps/370770/4c21ae49d07b51da1db9c2fe556b092c93f6cc54.jpg"
  },
  {
    "name": "ENERGIES_COLLECTED_500",
    "defaultvalue": 0,
    "displayName": "Accumulator",
    "hidden": 0,
    "description": "Deposit a total of 500 energy in the vault.",
    "icon": "https://steamcdn-a.akamaihd.net/steamcommunity/public/images/apps/370770/72c782ab276d0f4950b1c864b943c8db02af57fb.jpg",
    "icongray": "https://steamcdn-a.akamaihd.net/steamcommunity/public/images/apps/370770/8e228eff4c033635e3452f0586c84dd2a556d2ec.jpg"
  },
  {
    "name": "ENERGIES_COLLECTED_5000",
    "defaultvalue": 0,
    "displayName": "Collector’s",
    "hidden": 0,
    "description": "Deposit a total of 5000 energy in the vault.",
    "icon": "https://steamcdn-a.akamaihd.net/steamcommunity/public/images/apps/370770/20fb0d1c44580d2d0fd95617a42c701f4945e273.jpg",
    "icongray": "https://steamcdn-a.akamaihd.net/steamcommunity/public/images/apps/370770/a52719890a71d57ec916d0ec3afa172f18372a0e.jpg"
  },
  {
    "name": "ENERGIES_COLLECTED_32292",
    "defaultvalue": 0,
    "displayName": "The MJ of Collector’s",
    "hidden": 0,
    "description": "Deposit a total of 32.292 energies the vault.",
    "icon": "https://steamcdn-a.akamaihd.net/steamcommunity/public/images/apps/370770/1db063578131954ce55c923e3019837812e6cd3c.jpg",
    "icongray": "https://steamcdn-a.akamaihd.net/steamcommunity/public/images/apps/370770/28dc604dc0f6cecf4d3c1a3d9acb9de78799a24c.jpg"
  },
  {
    "name": "GOALS_SCORED_1",
    "defaultvalue": 0,
    "displayName": "Gooooooal!",
    "hidden": 0,
    "description": "Score your first goal in Cocoball.",
    "icon": "https://steamcdn-a.akamaihd.net/steamcommunity/public/images/apps/370770/4ea91bdecfae6cb15f66524051e916fae0792b52.jpg",
    "icongray": "https://steamcdn-a.akamaihd.net/steamcommunity/public/images/apps/370770/8c0881a84c39fdb947d5d36099652923d2ce15ca.jpg"
  },
  {
    "name": "GOALS_SCORED_25",
    "defaultvalue": 0,
    "displayName": "Aim and Shoot",
    "hidden": 0,
    "description": "Score 25 Goals in Cocoball.",
    "icon": "https://steamcdn-a.akamaihd.net/steamcommunity/public/images/apps/370770/3e642ed0fc07dd8912d8e946ddfbe8502bf1a979.jpg",
    "icongray": "https://steamcdn-a.akamaihd.net/steamcommunity/public/images/apps/370770/a6fbf2d81bd85f7190c706de91076ef0691a5673.jpg"
  },
  {
    "name": "GOALS_SCORED_1281",
    "defaultvalue": 0,
    "displayName": "Cocoball’s Pelé",
    "hidden": 0,
    "description": "Score 1281 Goals in Cocoball.",
    "icon": "https://steamcdn-a.akamaihd.net/steamcommunity/public/images/apps/370770/b7eff9e8b70648875ac9bb0078fc1c462c001db1.jpg",
    "icongray": "https://steamcdn-a.akamaihd.net/steamcommunity/public/images/apps/370770/6744db89cd01b814c15d33647c1b0e698bda04ab.jpg"
  },
  {
    "name": "PLAY_MATCH_WITH_PARTY_5",
    "defaultvalue": 0,
    "displayName": "Social",
    "hidden": 0,
    "description": "Play 5 games while in a Party.",
    "icon": "https://steamcdn-a.akamaihd.net/steamcommunity/public/images/apps/370770/526f6248bca63a5c6a3c31f7900a3dd2ea4d4d54.jpg",
    "icongray": "https://steamcdn-a.akamaihd.net/steamcommunity/public/images/apps/370770/e298fd18e856e2b407d9de3c09b09a9b71577a07.jpg"
  },
  {
    "name": "PLAY_MATCH_WITH_PARTY_10",
    "defaultvalue": 0,
    "displayName": "Friendly",
    "hidden": 0,
    "description": "Play 10 games while in a Party.",
    "icon": "https://steamcdn-a.akamaihd.net/steamcommunity/public/images/apps/370770/98bd69f6069809ddc98a3dd8d450c2ee80fe3339.jpg",
    "icongray": "https://steamcdn-a.akamaihd.net/steamcommunity/public/images/apps/370770/9d306047d4ba8a7f14c5e90d7d3bf26e45817ed0.jpg"
  },
  {
    "name": "WIN_TEAMDEATHMATCH_10",
    "defaultvalue": 0,
    "displayName": "Winner: TDM",
    "hidden": 0,
    "description": "Win 10 Team Deathmatch matches.",
    "icon": "https://steamcdn-a.akamaihd.net/steamcommunity/public/images/apps/370770/30c3360c6f581d0846171aba25540f39aa6f63bf.jpg",
    "icongray": "https://steamcdn-a.akamaihd.net/steamcommunity/public/images/apps/370770/2b1178f89792712b384696a1906506a72a829d10.jpg"
  },
  {
    "name": "WIN_COCOBALL_10",
    "defaultvalue": 0,
    "displayName": "Winner: Cocoball",
    "hidden": 0,
    "description": "Win 10 Cocoball matches.",
    "icon": "https://steamcdn-a.akamaihd.net/steamcommunity/public/images/apps/370770/a7c5f0608453b3e217342f0728991b318b5953ab.jpg",
    "icongray": "https://steamcdn-a.akamaihd.net/steamcommunity/public/images/apps/370770/b3449761ba3681303d0b9babf4bcd8471381a173.jpg"
  },
  {
    "name": "WIN_COLLECTORS_10",
    "defaultvalue": 0,
    "displayName": "Winner: Collector’s",
    "hidden": 0,
    "description": "Win 10 Collector’s matches.",
    "icon": "https://steamcdn-a.akamaihd.net/steamcommunity/public/images/apps/370770/96223a2b101b19822d8894d2b2f763ec78266fc1.jpg",
    "icongray": "https://steamcdn-a.akamaihd.net/steamcommunity/public/images/apps/370770/0303fac67e31345a6d1d967153f8c9d5c363cafb.jpg"
  },
  {
    "name": "ULTIMATE_KILL_10",
    "defaultvalue": 0,
    "displayName": "Super Weapon",
    "hidden": 0,
    "description": "Kill 10 Enemies with the Super weapon.",
    "icon": "https://steamcdn-a.akamaihd.net/steamcommunity/public/images/apps/370770/fa4752b6003bfa911a9f371a5587ecc78e057f03.jpg",
    "icongray": "https://steamcdn-a.akamaihd.net/steamcommunity/public/images/apps/370770/df9e05c7001b904b649770d9466388dbb4aa7373.jpg"
  },
  {
    "name": "FASTFIRE_WEAPON_KILL_10",
    "defaultvalue": 0,
    "displayName": "Fast-Fire",
    "hidden": 0,
    "description": "Kill 10 Enemies with any Fast-Fire weapon.",
    "icon": "https://steamcdn-a.akamaihd.net/steamcommunity/public/images/apps/370770/0daba7480c8f5540a33f20513b191bdec64ac6f9.jpg",
    "icongray": "https://steamcdn-a.akamaihd.net/steamcommunity/public/images/apps/370770/f53e9111329a2f90eac7004291eda3de1405ba14.jpg"
  },
  {
    "name": "MULTISHOT_WEAPON_KILL_10",
    "defaultvalue": 0,
    "displayName": "Multishot",
    "hidden": 0,
    "description": "Kill 10 Enemies with any Multishot weapon.",
    "icon": "https://steamcdn-a.akamaihd.net/steamcommunity/public/images/apps/370770/8ac88b5692c89f54516864e38eb311389ef896a1.jpg",
    "icongray": "https://steamcdn-a.akamaihd.net/steamcommunity/public/images/apps/370770/8317dc890115dce5504a66c29d8dd096e761ada6.jpg"
  },
  {
    "name": "LAUNCHER_WEAPON_KILL_10",
    "defaultvalue": 0,
    "displayName": "Launcher",
    "hidden": 0,
    "description": "Kill 10 Enemies with any Launcher weapon.",
    "icon": "https://steamcdn-a.akamaihd.net/steamcommunity/public/images/apps/370770/217d1fee774c61cc13742ff39e47e01e38da8ec2.jpg",
    "icongray": "https://steamcdn-a.akamaihd.net/steamcommunity/public/images/apps/370770/ab419fc9ff1167d36170992061531da6a37c6894.jpg"
  },
  {
    "name": "CONTINUOUS_WEAPON_KILL_10",
    "defaultvalue": 0,
    "displayName": "Continuous",
    "hidden": 0,
    "description": "Kill 10 Enemies with any Continuous weapon.",
    "icon": "https://steamcdn-a.akamaihd.net/steamcommunity/public/images/apps/370770/aa8b2ca01a2ed74fbfb011064bf4bea65de227bc.jpg",
    "icongray": "https://steamcdn-a.akamaihd.net/steamcommunity/public/images/apps/370770/7ae3dbbb9a6e8f45a77b4829496f084808950eab.jpg"
  },
  {
    "name": "EXPLOSIVE_WEAPON_KILL_10",
    "defaultvalue": 0,
    "displayName": "Explosive",
    "hidden": 0,
    "description": "Kill 10 Enemies with any Explosive weapon.",
    "icon": "https://steamcdn-a.akamaihd.net/steamcommunity/public/images/apps/370770/7d444302a299f0050705bcd1855e91f7ada37fe0.jpg",
    "icongray": "https://steamcdn-a.akamaihd.net/steamcommunity/public/images/apps/370770/aba4192be64773d9bf4926058afdeb5537b4dfbe.jpg"
  },
  {
    "name": "PRECISION_WEAPON_KILL_10",
    "defaultvalue": 0,
    "displayName": "Precision",
    "hidden": 0,
    "description": "Kill 10 Enemies with any Precision weapon.",
    "icon": "https://steamcdn-a.akamaihd.net/steamcommunity/public/images/apps/370770/f2cf3a5dab262b92d217fbb798a7d936404bdf1d.jpg",
    "icongray": "https://steamcdn-a.akamaihd.net/steamcommunity/public/images/apps/370770/c35b13a9655728fcfe17153965fede3abba3e248.jpg"
  },
  {
    "name": "GOALS_SCORED_100",
    "defaultvalue": 0,
    "displayName": "A Flock of Goals",
    "hidden": 0,
    "description": "Score 100 Goals in Cocoball.",
    "icon": "https://steamcdn-a.akamaihd.net/steamcommunity/public/images/apps/370770/7468981102d0b4fdd392402f0d6986af4b10a105.jpg",
    "icongray": "https://steamcdn-a.akamaihd.net/steamcommunity/public/images/apps/370770/3d822f1320e87ec9402e757fb3f575992030ce3e.jpg"
  }
]