﻿{
  "Dlcs": {},
  "Name": "RoBros",
  "AppId": "647000",
  "ImageUrl": "https://steamcdn-a.akamaihd.net/steam/apps/647000/header.jpg?t=1497920447",
  "Languages": [
    "english"
  ],
  "Platforms": {
    "windows": true,
    "mac": false,
    "linux": false
  }
}