﻿{
  "Dlcs": {},
  "Name": "Warbands: Bushido",
  "AppId": "556820",
  "ImageUrl": "https://steamcdn-a.akamaihd.net/steam/apps/556820/header.jpg?t=1595249524",
  "Languages": [
    "english",
    "russian",
    "french",
    "german",
    "spanish"
  ],
  "Platforms": {
    "windows": true,
    "mac": true,
    "linux": true
  }
}