﻿{
  "Dlcs": {},
  "Name": "Airport Simulator 2014",
  "AppId": "267600",
  "ImageUrl": "https://steamcdn-a.akamaihd.net/steam/apps/267600/header.jpg?t=1447359652",
  "Languages": [
    "english",
    "french",
    "italian",
    "german"
  ],
  "Platforms": {
    "windows": true,
    "mac": false,
    "linux": false
  }
}