﻿{
  "Dlcs": {},
  "Name": "Heroes Must Die",
  "AppId": "464050",
  "ImageUrl": "https://steamcdn-a.akamaihd.net/steam/apps/464050/header.jpg?t=1482167587",
  "Languages": [
    "english"
  ],
  "Platforms": {
    "windows": true,
    "mac": true,
    "linux": false
  }
}