﻿[
  {
    "name": "PEACE_AND_POSITIVITY",
    "defaultvalue": 0,
    "displayName": "Peace and Positivity",
    "hidden": 0,
    "description": "Reach a perfect score of 100% in Happiness and Productivity.",
    "icon": "https://steamcdn-a.akamaihd.net/steamcommunity/public/images/apps/661460/16d9adb3e92e48211f4d99cf5e528771cbe772f7.jpg",
    "icongray": "https://steamcdn-a.akamaihd.net/steamcommunity/public/images/apps/661460/00f5378c0e6a0980c4e6ae12e0c30cc7b0a861cc.jpg"
  },
  {
    "name": "BURN_BURN_BURN",
    "defaultvalue": 0,
    "displayName": "BURN, BURN, BURN!",
    "hidden": 0,
    "description": "Burn multiple paper people at once using gasoline.",
    "icon": "https://steamcdn-a.akamaihd.net/steamcommunity/public/images/apps/661460/16d9adb3e92e48211f4d99cf5e528771cbe772f7.jpg",
    "icongray": "https://steamcdn-a.akamaihd.net/steamcommunity/public/images/apps/661460/00f5378c0e6a0980c4e6ae12e0c30cc7b0a861cc.jpg"
  },
  {
    "name": "FOR_SCIENCE",
    "defaultvalue": 0,
    "displayName": "For Science",
    "hidden": 0,
    "description": "Let all of the paper people burn in the furnace for one round.",
    "icon": "https://steamcdn-a.akamaihd.net/steamcommunity/public/images/apps/661460/16d9adb3e92e48211f4d99cf5e528771cbe772f7.jpg",
    "icongray": "https://steamcdn-a.akamaihd.net/steamcommunity/public/images/apps/661460/00f5378c0e6a0980c4e6ae12e0c30cc7b0a861cc.jpg"
  },
  {
    "name": "WE_GET_IT_YOU_VAPE",
    "defaultvalue": 0,
    "displayName": "We Get It, You Vape",
    "hidden": 0,
    "description": "Smoke a blunt while a paper person is looking at you.",
    "icon": "https://steamcdn-a.akamaihd.net/steamcommunity/public/images/apps/661460/16d9adb3e92e48211f4d99cf5e528771cbe772f7.jpg",
    "icongray": "https://steamcdn-a.akamaihd.net/steamcommunity/public/images/apps/661460/00f5378c0e6a0980c4e6ae12e0c30cc7b0a861cc.jpg"
  },
  {
    "name": "SPECIMEN_COLLECTOR_1",
    "defaultvalue": 0,
    "displayName": "Specimen Collector 1",
    "hidden": 0,
    "description": "Collect your first paper person.",
    "icon": "https://steamcdn-a.akamaihd.net/steamcommunity/public/images/apps/661460/16d9adb3e92e48211f4d99cf5e528771cbe772f7.jpg",
    "icongray": "https://steamcdn-a.akamaihd.net/steamcommunity/public/images/apps/661460/00f5378c0e6a0980c4e6ae12e0c30cc7b0a861cc.jpg"
  },
  {
    "name": "SPECIMEN_COLLECTOR_2",
    "defaultvalue": 0,
    "displayName": "Specimen Collector 10",
    "hidden": 0,
    "description": "Collect 10 paper people.",
    "icon": "https://steamcdn-a.akamaihd.net/steamcommunity/public/images/apps/661460/16d9adb3e92e48211f4d99cf5e528771cbe772f7.jpg",
    "icongray": "https://steamcdn-a.akamaihd.net/steamcommunity/public/images/apps/661460/00f5378c0e6a0980c4e6ae12e0c30cc7b0a861cc.jpg"
  },
  {
    "name": "SPECIMEN_COLLECTOR_3",
    "defaultvalue": 0,
    "displayName": "Specimen Collector 100",
    "hidden": 0,
    "description": "Collect 100 paper people.",
    "icon": "https://steamcdn-a.akamaihd.net/steamcommunity/public/images/apps/661460/16d9adb3e92e48211f4d99cf5e528771cbe772f7.jpg",
    "icongray": "https://steamcdn-a.akamaihd.net/steamcommunity/public/images/apps/661460/00f5378c0e6a0980c4e6ae12e0c30cc7b0a861cc.jpg"
  },
  {
    "name": "SPECIMEN_COLLECTOR_4",
    "defaultvalue": 0,
    "displayName": "Specimen Collector 1000",
    "hidden": 0,
    "description": "Collect 1000 paper people.",
    "icon": "https://steamcdn-a.akamaihd.net/steamcommunity/public/images/apps/661460/16d9adb3e92e48211f4d99cf5e528771cbe772f7.jpg",
    "icongray": "https://steamcdn-a.akamaihd.net/steamcommunity/public/images/apps/661460/00f5378c0e6a0980c4e6ae12e0c30cc7b0a861cc.jpg"
  }
]