﻿{
  "Dlcs": {
    "809260": {
      "Name": "Bear With Me - Collector's Edition Upgrade",
      "ImageUrl": "https://steamcdn-a.akamaihd.net/steam/apps/809260/header.jpg?t=1520007861"
    }
  },
  "Name": "Bear With Me - Episode One",
  "AppId": "492630",
  "ImageUrl": "https://steamcdn-a.akamaihd.net/steam/apps/492630/header.jpg?t=1542188157",
  "Languages": [
    "english",
    "french",
    "italian",
    "german",
    "spanish",
    "russian"
  ],
  "Platforms": {
    "windows": true,
    "mac": true,
    "linux": true
  }
}