﻿{
  "Dlcs": {},
  "Name": "Zombie City Defense 2",
  "AppId": "473970",
  "ImageUrl": "https://steamcdn-a.akamaihd.net/steam/apps/473970/header.jpg?t=1471651066",
  "Languages": [
    "english",
    "russian"
  ],
  "Platforms": {
    "windows": true,
    "mac": true,
    "linux": true
  }
}