﻿[
  {
    "name": "Restorer",
    "defaultvalue": 0,
    "displayName": "Restorer",
    "hidden": 0,
    "description": "Restore an item",
    "icon": "https://steamcdn-a.akamaihd.net/steamcommunity/public/images/apps/204440/d01c59c1008066dd0440ccc1d290ca3cfbf7ced5.jpg",
    "icongray": "https://steamcdn-a.akamaihd.net/steamcommunity/public/images/apps/204440/35b6458dc16b83c49b12a03878c7ab3484b1ae2a.jpg"
  },
  {
    "name": "Perfectionist",
    "defaultvalue": 0,
    "displayName": "Perfectionist",
    "hidden": 0,
    "description": "Restore all items before they are sold",
    "icon": "https://steamcdn-a.akamaihd.net/steamcommunity/public/images/apps/204440/99308179cfdfc3f55feb289efe416d886ba53fa6.jpg",
    "icongray": "https://steamcdn-a.akamaihd.net/steamcommunity/public/images/apps/204440/15b48db833fb2383ea8b657164a131107a110f05.jpg"
  },
  {
    "name": "Tinkerer",
    "defaultvalue": 0,
    "displayName": "Tinkerer",
    "hidden": 0,
    "description": "Combine two items to create something new",
    "icon": "https://steamcdn-a.akamaihd.net/steamcommunity/public/images/apps/204440/bc8644f8c52d6e6917493723ef82534faff49141.jpg",
    "icongray": "https://steamcdn-a.akamaihd.net/steamcommunity/public/images/apps/204440/a00b5ba77038259d3dbdbf7e1f7a2bd0b03646de.jpg"
  },
  {
    "name": "Haggler",
    "defaultvalue": 0,
    "displayName": "Haggler",
    "hidden": 0,
    "description": "Buy an item at less than 75% of the asking price",
    "icon": "https://steamcdn-a.akamaihd.net/steamcommunity/public/images/apps/204440/a3686fdc84a6f7bb9dce43f3a1757bcfb2b96302.jpg",
    "icongray": "https://steamcdn-a.akamaihd.net/steamcommunity/public/images/apps/204440/e2fe395319aa0afbca07e12b0cd3efe367cf8964.jpg"
  },
  {
    "name": "Auctioneer",
    "defaultvalue": 0,
    "displayName": "Auctioneer",
    "hidden": 0,
    "description": "Make a 300% profit in an auction",
    "icon": "https://steamcdn-a.akamaihd.net/steamcommunity/public/images/apps/204440/4c616ff23382b9e7b9fc11f3c68757f2af16e94f.jpg",
    "icongray": "https://steamcdn-a.akamaihd.net/steamcommunity/public/images/apps/204440/28eb243e58011194e3a5f131d159210d598e299c.jpg"
  },
  {
    "name": "Charismatic",
    "defaultvalue": 0,
    "displayName": "Charismatic",
    "hidden": 0,
    "description": "End a day with two or more characters liking you (in green)",
    "icon": "https://steamcdn-a.akamaihd.net/steamcommunity/public/images/apps/204440/82e380a73734b1fc9d533a70155cf4733aa9ea88.jpg",
    "icongray": "https://steamcdn-a.akamaihd.net/steamcommunity/public/images/apps/204440/b32dc6e36ed0c149ebe585c8edcace93db5d752f.jpg"
  },
  {
    "name": "Trendy",
    "defaultvalue": 0,
    "displayName": "Trendy",
    "hidden": 0,
    "description": "Buy and sell an item from the Hot Category",
    "icon": "https://steamcdn-a.akamaihd.net/steamcommunity/public/images/apps/204440/45c6e8fc5592d47e3ff693d4926d096025a18efc.jpg",
    "icongray": "https://steamcdn-a.akamaihd.net/steamcommunity/public/images/apps/204440/c45079c6956dc6b12697783f614e3264e6b962a1.jpg"
  },
  {
    "name": "CraftyCollector",
    "defaultvalue": 0,
    "displayName": "Crafty Collector",
    "hidden": 0,
    "description": "Create 10 new items using the combine tool",
    "icon": "https://steamcdn-a.akamaihd.net/steamcommunity/public/images/apps/204440/61c63b35ec5e33e07eff039f818f55fac931466e.jpg",
    "icongray": "https://steamcdn-a.akamaihd.net/steamcommunity/public/images/apps/204440/3ba3dbf1368103031f3335f9705206de072e3724.jpg"
  },
  {
    "name": "FireSale",
    "defaultvalue": 0,
    "displayName": "Fire Sale",
    "hidden": 0,
    "description": "Auction 20 items for a profit",
    "icon": "https://steamcdn-a.akamaihd.net/steamcommunity/public/images/apps/204440/451b0d2dbd1b161711e230fd533ffa8e24b79673.jpg",
    "icongray": "https://steamcdn-a.akamaihd.net/steamcommunity/public/images/apps/204440/300ced80a90013c35838708d5039a91d14a749a6.jpg"
  },
  {
    "name": "TrendSetter",
    "defaultvalue": 0,
    "displayName": "Trend Setter",
    "hidden": 0,
    "description": "Buy and sell 20 items from the Hot Category",
    "icon": "https://steamcdn-a.akamaihd.net/steamcommunity/public/images/apps/204440/e795e71e4146fc8b644d64d1a6eb974ac176f74d.jpg",
    "icongray": "https://steamcdn-a.akamaihd.net/steamcommunity/public/images/apps/204440/324db425dda70de2b9b247d0d55bc6760c921861.jpg"
  },
  {
    "name": "ContractPicker",
    "defaultvalue": 0,
    "displayName": "Contract Picker",
    "hidden": 0,
    "description": "Complete 5 unique hidden object scenes",
    "icon": "https://steamcdn-a.akamaihd.net/steamcommunity/public/images/apps/204440/45bc84b6b1081e2b37e4409ae2f1eff729ca710e.jpg",
    "icongray": "https://steamcdn-a.akamaihd.net/steamcommunity/public/images/apps/204440/de9091836326b9e2a98764e976ad1d2d1196432c.jpg"
  },
  {
    "name": "SharpEye",
    "defaultvalue": 0,
    "displayName": "Sharp Eye",
    "hidden": 0,
    "description": "Complete each hidden object game without using the scanner",
    "icon": "https://steamcdn-a.akamaihd.net/steamcommunity/public/images/apps/204440/bc83da66547e6f9c508ed81d3613007336406f11.jpg",
    "icongray": "https://steamcdn-a.akamaihd.net/steamcommunity/public/images/apps/204440/6e86e44653f4df74ee652022a6484fe2317fe8c8.jpg"
  },
  {
    "name": "ThoroughPicker",
    "defaultvalue": 0,
    "displayName": "Thorough Picker",
    "hidden": 0,
    "description": "Complete each hidden object game without using any hints",
    "icon": "https://steamcdn-a.akamaihd.net/steamcommunity/public/images/apps/204440/ecc3f0c53993d4faa7e8f56b53b82813d443fb91.jpg",
    "icongray": "https://steamcdn-a.akamaihd.net/steamcommunity/public/images/apps/204440/9a8ecc714bbe2f68ecbd7c2344f7694d7f5b58b3.jpg"
  },
  {
    "name": "KeyKeeper",
    "defaultvalue": 0,
    "displayName": "Key Keeper",
    "hidden": 0,
    "description": "Collect 40 keys to unlock Unlimited Hidden Object Mode",
    "icon": "https://steamcdn-a.akamaihd.net/steamcommunity/public/images/apps/204440/c8b1fac035afff72fb7cb1c29378bf4db2d5bd9a.jpg",
    "icongray": "https://steamcdn-a.akamaihd.net/steamcommunity/public/images/apps/204440/914c7f915a9ea255f8d9704ad5304212af3fa0dc.jpg"
  },
  {
    "name": "KeyMaster",
    "defaultvalue": 0,
    "displayName": "Key Master",
    "hidden": 0,
    "description": "Find all 60 keys",
    "icon": "https://steamcdn-a.akamaihd.net/steamcommunity/public/images/apps/204440/ea2b21c765ac95b08d93e350ab24fdc18d71e79c.jpg",
    "icongray": "https://steamcdn-a.akamaihd.net/steamcommunity/public/images/apps/204440/7a87e82ea81a4597b335ca6f6c456bfaa8be7b8d.jpg"
  },
  {
    "name": "Explorer",
    "defaultvalue": 0,
    "displayName": "Explorer",
    "hidden": 0,
    "description": "Explore every scene, hidden object game, and close up in the first 6 location",
    "icon": "https://steamcdn-a.akamaihd.net/steamcommunity/public/images/apps/204440/f71fa18c616ac22d8c36d9d2ec200221bbd39c65.jpg",
    "icongray": "https://steamcdn-a.akamaihd.net/steamcommunity/public/images/apps/204440/c6bcc6004bce63f2c8fea8a02e5121f33e42f328.jpg"
  },
  {
    "name": "Wanderlust",
    "defaultvalue": 0,
    "displayName": "Wanderlust",
    "hidden": 0,
    "description": "Unlock all locations in the game",
    "icon": "https://steamcdn-a.akamaihd.net/steamcommunity/public/images/apps/204440/42cb57a190b91cdff22405ddd89660b9c0a26a58.jpg",
    "icongray": "https://steamcdn-a.akamaihd.net/steamcommunity/public/images/apps/204440/0944db25865c60e4b584c81b105df88159d8a15c.jpg"
  },
  {
    "name": "TheGeek",
    "defaultvalue": 0,
    "displayName": "The Geek",
    "hidden": 0,
    "description": "End a day with Patrick Merman in a green mood",
    "icon": "https://steamcdn-a.akamaihd.net/steamcommunity/public/images/apps/204440/fd7558ee9ac4626aa2a498c3b28d2306b1ebcaca.jpg",
    "icongray": "https://steamcdn-a.akamaihd.net/steamcommunity/public/images/apps/204440/f3e5cd0214f12232100089491b9b953f5dbd0f7b.jpg"
  },
  {
    "name": "BusinessSavvy",
    "defaultvalue": 0,
    "displayName": "Business Savvy",
    "hidden": 0,
    "description": "Make a profit 5 days in a row",
    "icon": "https://steamcdn-a.akamaihd.net/steamcommunity/public/images/apps/204440/c38fa50a0e337f29fdd3443d6c142537d45d38cf.jpg",
    "icongray": "https://steamcdn-a.akamaihd.net/steamcommunity/public/images/apps/204440/5c74713a92e1b4739279ec8780c84c29276006f2.jpg"
  },
  {
    "name": "MoneyInTheBank",
    "defaultvalue": 0,
    "displayName": "Money In The Bank",
    "hidden": 0,
    "description": "Reduce your store inventory to one page anytime after the 20th day",
    "icon": "https://steamcdn-a.akamaihd.net/steamcommunity/public/images/apps/204440/6a1f4e7b51fd96d894ce5e0e5f6561c75b92f8e4.jpg",
    "icongray": "https://steamcdn-a.akamaihd.net/steamcommunity/public/images/apps/204440/39a8a54acf878e9014728710d2c86c73347c856a.jpg"
  },
  {
    "name": "BulkDiscount",
    "defaultvalue": 0,
    "displayName": "Bulk Discount",
    "hidden": 0,
    "description": "Buy a group of items at less than 65% of the asking price",
    "icon": "https://steamcdn-a.akamaihd.net/steamcommunity/public/images/apps/204440/91a4b337aa4e9186b5ee7b4d0bccf16d619c181c.jpg",
    "icongray": "https://steamcdn-a.akamaihd.net/steamcommunity/public/images/apps/204440/65c700dc970751ae8aa33c9bcba5e7fafee44b21.jpg"
  },
  {
    "name": "LeaderOfThePack",
    "defaultvalue": 0,
    "displayName": "Leader Of The Pack",
    "hidden": 0,
    "description": "Reach the Number 1 Rank!",
    "icon": "https://steamcdn-a.akamaihd.net/steamcommunity/public/images/apps/204440/3e56c6c81244e9bac7e234a907cea9a67d7f9420.jpg",
    "icongray": "https://steamcdn-a.akamaihd.net/steamcommunity/public/images/apps/204440/031ce85cac0f53d89d0b2a1943f5debca9d2f6d3.jpg"
  },
  {
    "name": "Lucky7",
    "defaultvalue": 0,
    "displayName": "Lucky7",
    "hidden": 0,
    "description": "Maintain the leader position for 7 days",
    "icon": "https://steamcdn-a.akamaihd.net/steamcommunity/public/images/apps/204440/4da520a3215c90880760eff709171fae5d83d17d.jpg",
    "icongray": "https://steamcdn-a.akamaihd.net/steamcommunity/public/images/apps/204440/35324c1c4b72d8e3285318a8c72337b5500aedc9.jpg"
  },
  {
    "name": "KnowledgeSeeker",
    "defaultvalue": 0,
    "displayName": "Knowledge Seeker",
    "hidden": 0,
    "description": "Consult the Expert 20 times",
    "icon": "https://steamcdn-a.akamaihd.net/steamcommunity/public/images/apps/204440/6fd2f259aebb6a4f96d7b217efc60e65c13e5a35.jpg",
    "icongray": "https://steamcdn-a.akamaihd.net/steamcommunity/public/images/apps/204440/92b38afa709fe24be4997ab462d2928c32f62f16.jpg"
  },
  {
    "name": "QuickProfit",
    "defaultvalue": 0,
    "displayName": "Quick Profit",
    "hidden": 0,
    "description": "Complete a hidden object scene in under a minute",
    "icon": "https://steamcdn-a.akamaihd.net/steamcommunity/public/images/apps/204440/3fbd4febfae2bdc77e4e1f3337870f45b645ed18.jpg",
    "icongray": "https://steamcdn-a.akamaihd.net/steamcommunity/public/images/apps/204440/1843a7a301d97d31b42c8c455a348e6f70b63438.jpg"
  },
  {
    "name": "Alluring",
    "defaultvalue": 0,
    "displayName": "Alluring",
    "hidden": 0,
    "description": "Change a character's mood to green in one transaction",
    "icon": "https://steamcdn-a.akamaihd.net/steamcommunity/public/images/apps/204440/d0e03013b454ee03279b01e9067ff70810397476.jpg",
    "icongray": "https://steamcdn-a.akamaihd.net/steamcommunity/public/images/apps/204440/f465c906d8edac8e5556d1590a592133ed4ea299.jpg"
  },
  {
    "name": "CellarPicker",
    "defaultvalue": 0,
    "displayName": "Cellar Picker",
    "hidden": 0,
    "description": "Sell 5 items from Lizzie Davis' crawl space",
    "icon": "https://steamcdn-a.akamaihd.net/steamcommunity/public/images/apps/204440/eed667ff1da64bb81cdfc6616557aa41d4385ec8.jpg",
    "icongray": "https://steamcdn-a.akamaihd.net/steamcommunity/public/images/apps/204440/92acfa69b804c0fa6c873cc3cbd9b45968882408.jpg"
  },
  {
    "name": "AngerManagement",
    "defaultvalue": 0,
    "displayName": "Anger Management",
    "hidden": 0,
    "description": "Bring an owner's mood from angry (red) to happy (green) in one day",
    "icon": "https://steamcdn-a.akamaihd.net/steamcommunity/public/images/apps/204440/fcddc13a6cced7ad156121149efb4f744a059670.jpg",
    "icongray": "https://steamcdn-a.akamaihd.net/steamcommunity/public/images/apps/204440/cbf5b9ea076ef377c366f315aac79587901843f9.jpg"
  },
  {
    "name": "JunkYardArt",
    "defaultvalue": 0,
    "displayName": "Junk Yard Art",
    "hidden": 0,
    "description": "Buy a Maffler Man",
    "icon": "https://steamcdn-a.akamaihd.net/steamcommunity/public/images/apps/204440/875e2911e067726544c3bc4836b37a9d8fd4d303.jpg",
    "icongray": "https://steamcdn-a.akamaihd.net/steamcommunity/public/images/apps/204440/72952745bd41ffad856ade306f7422d7259a0297.jpg"
  },
  {
    "name": "TalentShow",
    "defaultvalue": 0,
    "displayName": "Talent Show",
    "hidden": 0,
    "description": "Buy an Accordion",
    "icon": "https://steamcdn-a.akamaihd.net/steamcommunity/public/images/apps/204440/189b6e730a33e420ab57ee39efad45a4bf9b50eb.jpg",
    "icongray": "https://steamcdn-a.akamaihd.net/steamcommunity/public/images/apps/204440/d15ada6b994de21b1f7949868b7f8895ada7637b.jpg"
  },
  {
    "name": "ReelToReel",
    "defaultvalue": 0,
    "displayName": "Reel To Reel",
    "hidden": 0,
    "description": "Buy a Movie Projector",
    "icon": "https://steamcdn-a.akamaihd.net/steamcommunity/public/images/apps/204440/8bbf267732bedb91b4f3e614b3c2cd6fec9bf21f.jpg",
    "icongray": "https://steamcdn-a.akamaihd.net/steamcommunity/public/images/apps/204440/238e25b8bdfaf3fd9caa861fe3301b20577891a8.jpg"
  },
  {
    "name": "HighStakesPurchase",
    "defaultvalue": 0,
    "displayName": "High Stakes Purchase",
    "hidden": 0,
    "description": "Buy a Vampire Hunting Kit",
    "icon": "https://steamcdn-a.akamaihd.net/steamcommunity/public/images/apps/204440/9bcbcee8c381f3f56d095d867d513cfe05ef6034.jpg",
    "icongray": "https://steamcdn-a.akamaihd.net/steamcommunity/public/images/apps/204440/57be284fd59487a44f3f243c065d453d46120939.jpg"
  },
  {
    "name": "Crusader",
    "defaultvalue": 0,
    "displayName": "Crusader",
    "hidden": 0,
    "description": "Combine a Suit of Armor with a Sword",
    "icon": "https://steamcdn-a.akamaihd.net/steamcommunity/public/images/apps/204440/9d56cf5b69c53c105aae0585e2f0d5ff64cf2a09.jpg",
    "icongray": "https://steamcdn-a.akamaihd.net/steamcommunity/public/images/apps/204440/6adb8fc52519138035bbcc08eeb66a9b0f50e059.jpg"
  },
  {
    "name": "StayingSingle",
    "defaultvalue": 0,
    "displayName": "Staying Single",
    "hidden": 0,
    "description": "Buy a Motorized Scooter from Hambone Richards",
    "icon": "https://steamcdn-a.akamaihd.net/steamcommunity/public/images/apps/204440/067fc94770bcfbb3e887f83bafc347511f1774cc.jpg",
    "icongray": "https://steamcdn-a.akamaihd.net/steamcommunity/public/images/apps/204440/46d4ea493316cead9d30933967d1f3b7bb755394.jpg"
  },
  {
    "name": "SafetyFirst",
    "defaultvalue": 0,
    "displayName": "Safety First",
    "hidden": 0,
    "description": "Buy CJ Baxter's safe",
    "icon": "https://steamcdn-a.akamaihd.net/steamcommunity/public/images/apps/204440/0cee82e7c0fbbc34fad64ae4784c1f4e7474ab16.jpg",
    "icongray": "https://steamcdn-a.akamaihd.net/steamcommunity/public/images/apps/204440/94a0653d214594e44feb579b5cf93c377db2a215.jpg"
  },
  {
    "name": "Sunshine",
    "defaultvalue": 0,
    "displayName": "Sunshine",
    "hidden": 0,
    "description": "Buy a Sun Clock",
    "icon": "https://steamcdn-a.akamaihd.net/steamcommunity/public/images/apps/204440/e821650f989493959ace1c12aae57072e227dc5c.jpg",
    "icongray": "https://steamcdn-a.akamaihd.net/steamcommunity/public/images/apps/204440/9c004992a409c88d12b623e637f74b2f57e3d5f3.jpg"
  },
  {
    "name": "RockinDaddy",
    "defaultvalue": 0,
    "displayName": "Rockin Daddy",
    "hidden": 0,
    "description": "Buy a Jukebox",
    "icon": "https://steamcdn-a.akamaihd.net/steamcommunity/public/images/apps/204440/c8d8d630039b680751bad089261c5019ff95548c.jpg",
    "icongray": "https://steamcdn-a.akamaihd.net/steamcommunity/public/images/apps/204440/798c8f05a2743ae544570e10254dac9ee2d345e6.jpg"
  },
  {
    "name": "Sasqwatch",
    "defaultvalue": 0,
    "displayName": "Sasqwatch",
    "hidden": 0,
    "description": "Buy a Bigfoot Photo",
    "icon": "https://steamcdn-a.akamaihd.net/steamcommunity/public/images/apps/204440/b6afdd0532ed71eb07914cc1b4c418eef0cea6bb.jpg",
    "icongray": "https://steamcdn-a.akamaihd.net/steamcommunity/public/images/apps/204440/94a0653d214594e44feb579b5cf93c377db2a215.jpg"
  },
  {
    "name": "WeatherForecast",
    "defaultvalue": 0,
    "displayName": "Weather Forecast",
    "hidden": 0,
    "description": "Buy a Snow Globe",
    "icon": "https://steamcdn-a.akamaihd.net/steamcommunity/public/images/apps/204440/e0c804edf9b4292aec5c9e3e528295fecd61b521.jpg",
    "icongray": "https://steamcdn-a.akamaihd.net/steamcommunity/public/images/apps/204440/0b2bbb37fed5e910ff173075b922c5e0f6d5f874.jpg"
  },
  {
    "name": "InTheTrenches",
    "defaultvalue": 0,
    "displayName": "In The Trenches",
    "hidden": 0,
    "description": "Buy a WWII Helmet",
    "icon": "https://steamcdn-a.akamaihd.net/steamcommunity/public/images/apps/204440/628c8355b230ae094a2856049e8c6f7b44db3e6a.jpg",
    "icongray": "https://steamcdn-a.akamaihd.net/steamcommunity/public/images/apps/204440/0ac49a7518e7311126f4ad96e1af9e9f0490c34e.jpg"
  }
]