﻿{
  "Dlcs": {},
  "Name": "STYLY：VR PLATFORM FOR ULTRA EXPERIENCE",
  "AppId": "693990",
  "ImageUrl": "https://steamcdn-a.akamaihd.net/steam/apps/693990/header.jpg?t=1564647150",
  "Languages": [
    "english"
  ],
  "Platforms": {
    "windows": true,
    "mac": false,
    "linux": false
  }
}