﻿{
  "Dlcs": {},
  "Name": "iStorm",
  "AppId": "610940",
  "ImageUrl": "https://steamcdn-a.akamaihd.net/steam/apps/610940/header.jpg?t=1492405422",
  "Languages": [
    "english"
  ],
  "Platforms": {
    "windows": true,
    "mac": false,
    "linux": false
  }
}