﻿{
  "Dlcs": {},
  "Name": "Gnomes Garden 3: The thief of castles",
  "AppId": "546200",
  "ImageUrl": "https://steamcdn-a.akamaihd.net/steam/apps/546200/header.jpg?t=1589794042",
  "Languages": [
    "english",
    "french",
    "german",
    "russian"
  ],
  "Platforms": {
    "windows": true,
    "mac": false,
    "linux": false
  }
}