﻿{
  "Dlcs": {
    "669590": {
      "Name": "Aporia: Beyond The Valley - Soundtrack",
      "ImageUrl": "https://steamcdn-a.akamaihd.net/steam/apps/669590/header.jpg?t=1506958337"
    }
  },
  "Name": "Aporia: Beyond The Valley",
  "AppId": "573130",
  "ImageUrl": "https://steamcdn-a.akamaihd.net/steam/apps/573130/header.jpg?t=1582132149",
  "Languages": [
    "english"
  ],
  "Platforms": {
    "windows": true,
    "mac": false,
    "linux": false
  }
}