﻿[
  {
    "name": "fire_safety",
    "defaultvalue": 0,
    "displayName": "Fire Safety",
    "hidden": 0,
    "description": "Complete the Tutorial",
    "icon": "https://steamcdn-a.akamaihd.net/steamcommunity/public/images/apps/351630/729cade741ddb3869ccd56150d220295c6a2121f.jpg",
    "icongray": "https://steamcdn-a.akamaihd.net/steamcommunity/public/images/apps/351630/71e58478dce8c1abc0e2eadf28ec6dab0aa438bd.jpg"
  },
  {
    "name": "sweet_burn_spit_fire",
    "defaultvalue": 0,
    "displayName": "Sweet Burn Spitfire",
    "hidden": 0,
    "description": "Burn trees for 1000 damage with this creep.",
    "icon": "https://steamcdn-a.akamaihd.net/steamcommunity/public/images/apps/351630/03182372786e2c2b433884d59c0b40b287b86cad.jpg",
    "icongray": "https://steamcdn-a.akamaihd.net/steamcommunity/public/images/apps/351630/4084a6de6e1aa6cf6a203ec67fc7119d80420b75.jpg"
  },
  {
    "name": "sweet_burn_fire_rain",
    "defaultvalue": 0,
    "displayName": "Sweet Burn Fire Rain",
    "hidden": 0,
    "description": "Burn trees for 1000 damage with this creep.",
    "icon": "https://steamcdn-a.akamaihd.net/steamcommunity/public/images/apps/351630/8c72050c910b527a8fa962009be4d8ffa7ce7bd8.jpg",
    "icongray": "https://steamcdn-a.akamaihd.net/steamcommunity/public/images/apps/351630/858f93677b55839e493666a6009919cc067568ae.jpg"
  },
  {
    "name": "sweet_burn_quick_fire",
    "defaultvalue": 0,
    "displayName": "Sweet Burn Quickfire",
    "hidden": 0,
    "description": "Burn trees for 1000 damage with this creep.",
    "icon": "https://steamcdn-a.akamaihd.net/steamcommunity/public/images/apps/351630/ab009207b294a7ded0118e118a831df877b3f353.jpg",
    "icongray": "https://steamcdn-a.akamaihd.net/steamcommunity/public/images/apps/351630/b122e133eb69e2f9cef6b9273d2af3de71e02cff.jpg"
  },
  {
    "name": "sweet_burn_char_fire",
    "defaultvalue": 0,
    "displayName": "Sweet Burn Charcoal",
    "hidden": 0,
    "description": "Burn trees for 1000 damage with this creep.",
    "icon": "https://steamcdn-a.akamaihd.net/steamcommunity/public/images/apps/351630/bada50685c158cb6f09a7dc3a864b41892536103.jpg",
    "icongray": "https://steamcdn-a.akamaihd.net/steamcommunity/public/images/apps/351630/74ef0d47eea32a52d43565353d37af1b13e99dbc.jpg"
  },
  {
    "name": "sweet_burn_blue_flame",
    "defaultvalue": 0,
    "displayName": "Sweet Burn Blue Giant",
    "hidden": 0,
    "description": "Burn trees for 1000 damage with this creep.",
    "icon": "https://steamcdn-a.akamaihd.net/steamcommunity/public/images/apps/351630/5be85b7f4f4b0ff3818a60b396ed24873af1319e.jpg",
    "icongray": "https://steamcdn-a.akamaihd.net/steamcommunity/public/images/apps/351630/43a41f166a04371028e4528e20cbdb9fa5895ab6.jpg"
  },
  {
    "name": "sweet_burn_blue_embers",
    "defaultvalue": 0,
    "displayName": "Sweet Burn Triple Fission",
    "hidden": 0,
    "description": "Burn trees for 1000 damage with this creep.",
    "icon": "https://steamcdn-a.akamaihd.net/steamcommunity/public/images/apps/351630/88dcf20cbbbdf979916a5e72f03cadc6ee1ad3eb.jpg",
    "icongray": "https://steamcdn-a.akamaihd.net/steamcommunity/public/images/apps/351630/b464ea5cfe073d75bb700ea67ce2ebd2f4b51b4e.jpg"
  },
  {
    "name": "sweet_burn_bouncing_ember",
    "defaultvalue": 0,
    "displayName": "Sweet Burn Spotfire",
    "hidden": 0,
    "description": "Burn trees for 1000 damage with this creep.",
    "icon": "https://steamcdn-a.akamaihd.net/steamcommunity/public/images/apps/351630/0130f3e00b49a19c5974d43133b26c4bd117b58f.jpg",
    "icongray": "https://steamcdn-a.akamaihd.net/steamcommunity/public/images/apps/351630/9ed4f93ff52b870be8b28d20763a9a1d96e67ea2.jpg"
  },
  {
    "name": "sweet_burn_leap_fire",
    "defaultvalue": 0,
    "displayName": "Sweet Burn Naga",
    "hidden": 0,
    "description": "Burn trees for 1000 damage with this creep.",
    "icon": "https://steamcdn-a.akamaihd.net/steamcommunity/public/images/apps/351630/58dd0a352f74fa290daa51fd1dea43ee971072c5.jpg",
    "icongray": "https://steamcdn-a.akamaihd.net/steamcommunity/public/images/apps/351630/4735e9eb0f7c26e1fd8dd177753fce975ec19683.jpg"
  },
  {
    "name": "sweet_burn_starburst",
    "defaultvalue": 0,
    "displayName": "Sweet Burn Starburst",
    "hidden": 0,
    "description": "Burn trees for 1000 damage with this creep.",
    "icon": "https://steamcdn-a.akamaihd.net/steamcommunity/public/images/apps/351630/eadf0f667956a6f648e7618e4fb78954adabf519.jpg",
    "icongray": "https://steamcdn-a.akamaihd.net/steamcommunity/public/images/apps/351630/bc9eb9464845717380c5c1898235687520603575.jpg"
  },
  {
    "name": "sweet_burn_phoenix",
    "defaultvalue": 0,
    "displayName": "Sweet Burn Phoenix",
    "hidden": 0,
    "description": "Burn trees for 1000 damage with this creep.",
    "icon": "https://steamcdn-a.akamaihd.net/steamcommunity/public/images/apps/351630/4392bb1b756f2061f18d20451f74bf78767c497b.jpg",
    "icongray": "https://steamcdn-a.akamaihd.net/steamcommunity/public/images/apps/351630/9da542d627d01bba6ffd904f291ff10eaa46234a.jpg"
  },
  {
    "name": "sweet_burn_ghoul",
    "defaultvalue": 0,
    "displayName": "Sweet Burn Ghoul",
    "hidden": 0,
    "description": "Burn trees for 1000 damage with this creep.",
    "icon": "https://steamcdn-a.akamaihd.net/steamcommunity/public/images/apps/351630/8cde3fd7ff03f8d412137de2add522b464e5051c.jpg",
    "icongray": "https://steamcdn-a.akamaihd.net/steamcommunity/public/images/apps/351630/4c7da38d6bf7ad9cecd0d9d78b00f678c542f4b3.jpg"
  },
  {
    "name": "sweet_burn_spectre",
    "defaultvalue": 0,
    "displayName": "Sweet Burn Specter",
    "hidden": 0,
    "description": "Burn trees for 1000 damage with this creep.",
    "icon": "https://steamcdn-a.akamaihd.net/steamcommunity/public/images/apps/351630/61e06707680ce26f5c8da79b543c9b6cf4aad535.jpg",
    "icongray": "https://steamcdn-a.akamaihd.net/steamcommunity/public/images/apps/351630/e590b51cf72b03718a3690603e85e3fbfaa80066.jpg"
  },
  {
    "name": "blaster_fire_extinguisher",
    "defaultvalue": 0,
    "displayName": "Blaster Fire Extinguisher",
    "hidden": 0,
    "description": "Extinguish 1000 creeps with this tower.",
    "icon": "https://steamcdn-a.akamaihd.net/steamcommunity/public/images/apps/351630/2e92193be6015054bcb943a69b3626d90aaa6c04.jpg",
    "icongray": "https://steamcdn-a.akamaihd.net/steamcommunity/public/images/apps/351630/15a5183050f34542a6404c6884d2e2b37c5e7e18.jpg"
  },
  {
    "name": "plasma_fire_extinguisher",
    "defaultvalue": 0,
    "displayName": "Plasma Fire Extinguisher",
    "hidden": 0,
    "description": "Extinguish 1000 creeps with this tower.",
    "icon": "https://steamcdn-a.akamaihd.net/steamcommunity/public/images/apps/351630/ecea1b6473471f12468fa40ee365acfefa9be5b6.jpg",
    "icongray": "https://steamcdn-a.akamaihd.net/steamcommunity/public/images/apps/351630/65493483f4aca0eeaf6c5458087a89d488b49845.jpg"
  },
  {
    "name": "solar_fire_extinguisher",
    "defaultvalue": 0,
    "displayName": "Solar Fire Extinguisher",
    "hidden": 0,
    "description": "Extinguish 1000 creeps with this tower.",
    "icon": "https://steamcdn-a.akamaihd.net/steamcommunity/public/images/apps/351630/f817fde114c2fc97507f712976cfaea0aa7010b1.jpg",
    "icongray": "https://steamcdn-a.akamaihd.net/steamcommunity/public/images/apps/351630/149e25b23ca06ec962272795ed9140e681092437.jpg"
  },
  {
    "name": "particle_fire_extinguisher",
    "defaultvalue": 0,
    "displayName": "Particle Fire Extiguisher",
    "hidden": 0,
    "description": "Extinguish 1000 creeps with this tower.",
    "icon": "https://steamcdn-a.akamaihd.net/steamcommunity/public/images/apps/351630/1a8d96408ed96f78f077947d4e12a7178efa792b.jpg",
    "icongray": "https://steamcdn-a.akamaihd.net/steamcommunity/public/images/apps/351630/9ac9aec68080ef1116203620ed7bd6486ac30c7f.jpg"
  },
  {
    "name": "hadron_fire_extinguisher",
    "defaultvalue": 0,
    "displayName": "Hadron Fire Extinguisher ",
    "hidden": 0,
    "description": "Extinguish 1000 creeps with this tower.",
    "icon": "https://steamcdn-a.akamaihd.net/steamcommunity/public/images/apps/351630/c5de00c06fedba4f5df7f94d9e1bb3ef9a3290a2.jpg",
    "icongray": "https://steamcdn-a.akamaihd.net/steamcommunity/public/images/apps/351630/69ccff1437e4d3f173d6a6311834a0b7a483d678.jpg"
  },
  {
    "name": "mortar_fire_extinguisher",
    "defaultvalue": 0,
    "displayName": "Mortar Fire Extinguisher",
    "hidden": 0,
    "description": "Extinguish 1000 creeps with this tower.",
    "icon": "https://steamcdn-a.akamaihd.net/steamcommunity/public/images/apps/351630/1920fc77cd20ff1e9252d45ebd804db9b1ee4430.jpg",
    "icongray": "https://steamcdn-a.akamaihd.net/steamcommunity/public/images/apps/351630/a13f1535ec8073326a41f0fd239f9c52cbc715a6.jpg"
  },
  {
    "name": "quake_fire_extinguisher",
    "defaultvalue": 0,
    "displayName": "Quake Fire Extinguisher",
    "hidden": 0,
    "description": "Extinguish 1000 creeps with this tower.",
    "icon": "https://steamcdn-a.akamaihd.net/steamcommunity/public/images/apps/351630/07239a65ca2781de8b453fa6f4256bacee847afa.jpg",
    "icongray": "https://steamcdn-a.akamaihd.net/steamcommunity/public/images/apps/351630/bbca251ac972c627032114899191234749a03913.jpg"
  },
  {
    "name": "fissure_fire_extinguisher",
    "defaultvalue": 0,
    "displayName": "Fissure Fire Extinguisher",
    "hidden": 0,
    "description": "Extinguish 1000 creeps with this tower.",
    "icon": "https://steamcdn-a.akamaihd.net/steamcommunity/public/images/apps/351630/869e0458dc79e4484552236a66ef3529a5c6ff0c.jpg",
    "icongray": "https://steamcdn-a.akamaihd.net/steamcommunity/public/images/apps/351630/ebdfef829f022aabe8bdd662420024485308139c.jpg"
  },
  {
    "name": "seeker_fire_extinguisher",
    "defaultvalue": 0,
    "displayName": "Seeker Fire Extinguisher",
    "hidden": 0,
    "description": "Extinguish 1000 creeps with this tower.",
    "icon": "https://steamcdn-a.akamaihd.net/steamcommunity/public/images/apps/351630/90e389562b7b2dc1fb2a93e2a9854e8f78838e3a.jpg",
    "icongray": "https://steamcdn-a.akamaihd.net/steamcommunity/public/images/apps/351630/0bf045df76981f18e2a41b4e5995be8fc985a70f.jpg"
  },
  {
    "name": "executioner_fire_extinguisher",
    "defaultvalue": 0,
    "displayName": "Executioner Fire Extinguisher",
    "hidden": 0,
    "description": "Extinguish 1000 creeps with this tower.",
    "icon": "https://steamcdn-a.akamaihd.net/steamcommunity/public/images/apps/351630/efaf9bcb02a993bf26bac6b08da25720948a8049.jpg",
    "icongray": "https://steamcdn-a.akamaihd.net/steamcommunity/public/images/apps/351630/b5e7fad574069326b9a854809e449bc6229571de.jpg"
  },
  {
    "name": "hurricane_fire_extinguisher",
    "defaultvalue": 0,
    "displayName": "Hurricane Fire Extinguisher",
    "hidden": 0,
    "description": "Extinguish 1000 creeps with this tower.",
    "icon": "https://steamcdn-a.akamaihd.net/steamcommunity/public/images/apps/351630/d8a200c08dd58270fd3256e23e84d5a6984c7b9c.jpg",
    "icongray": "https://steamcdn-a.akamaihd.net/steamcommunity/public/images/apps/351630/d7fe7d07a14b5456ab8058f2f27065a4ec59b737.jpg"
  },
  {
    "name": "anti-air_fire_extinguisher",
    "defaultvalue": 0,
    "displayName": "Anti-Air Fire Extinguisher",
    "hidden": 0,
    "description": "Extinguish 1000 creeps with this tower.",
    "icon": "https://steamcdn-a.akamaihd.net/steamcommunity/public/images/apps/351630/56cdef104eb78bbc465a294e8f126e1a635f831a.jpg",
    "icongray": "https://steamcdn-a.akamaihd.net/steamcommunity/public/images/apps/351630/3cc76392518821a35a29d565d97096554d569593.jpg"
  },
  {
    "name": "tesla_fire_extinguisher",
    "defaultvalue": 0,
    "displayName": "Tesla Fire Extinguisher",
    "hidden": 0,
    "description": "Extinguish 1000 creeps with this tower.",
    "icon": "https://steamcdn-a.akamaihd.net/steamcommunity/public/images/apps/351630/762eee89978d7646a8f386efdc787f2ee2f9364e.jpg",
    "icongray": "https://steamcdn-a.akamaihd.net/steamcommunity/public/images/apps/351630/a661ce009de371747823cf653c076eb5476c9a9f.jpg"
  },
  {
    "name": "capacitor_fire_extinguisher",
    "defaultvalue": 0,
    "displayName": "Capacitor Fire Extinguisher",
    "hidden": 0,
    "description": "Extinguish 1000 creeps with this tower.",
    "icon": "https://steamcdn-a.akamaihd.net/steamcommunity/public/images/apps/351630/1a74f232d17a990d84ca0d84ff11a5cc6b856798.jpg",
    "icongray": "https://steamcdn-a.akamaihd.net/steamcommunity/public/images/apps/351630/e8e1ca3888e6f72af31b79dca3ae6fde252cabb6.jpg"
  },
  {
    "name": "tomb_fire_extinguisher",
    "defaultvalue": 0,
    "displayName": "Tomb Fire Extinguisher",
    "hidden": 0,
    "description": "Extinguish 1000 creeps with this tower.",
    "icon": "https://steamcdn-a.akamaihd.net/steamcommunity/public/images/apps/351630/367ca8b62c6fafaaae4148c0582383eb4044c5aa.jpg",
    "icongray": "https://steamcdn-a.akamaihd.net/steamcommunity/public/images/apps/351630/ad6e71c7ccf9f1d39b84de76f18d2493eecfa405.jpg"
  },
  {
    "name": "intro_to_pomology",
    "defaultvalue": 0,
    "displayName": "Intro to Pomology",
    "hidden": 0,
    "description": "Grow 1 fruit in your orchard.",
    "icon": "https://steamcdn-a.akamaihd.net/steamcommunity/public/images/apps/351630/c7fe9d252e6e06821e766dede0742a0ff1bb8e7e.jpg",
    "icongray": "https://steamcdn-a.akamaihd.net/steamcommunity/public/images/apps/351630/44d1750fe136190dba2c2f4999ffb49d71260346.jpg"
  },
  {
    "name": "pomology_expert",
    "defaultvalue": 0,
    "displayName": "Pomology Expert ",
    "hidden": 0,
    "description": "Grow 3 types of fruit in your orchard",
    "icon": "https://steamcdn-a.akamaihd.net/steamcommunity/public/images/apps/351630/e7cc4ecaf836bf0a2f0ddbbc08e6646e41c86882.jpg",
    "icongray": "https://steamcdn-a.akamaihd.net/steamcommunity/public/images/apps/351630/f5098ac8b8ddebda7ba2fe5f1895fc4ac8697b20.jpg"
  },
  {
    "name": "master_pomologist",
    "defaultvalue": 0,
    "displayName": "Master Pomologist",
    "hidden": 0,
    "description": "Grow 6 types of fruit in your orchard",
    "icon": "https://steamcdn-a.akamaihd.net/steamcommunity/public/images/apps/351630/c31c0f48056aa807d8678cc85dc508cb82cef42f.jpg",
    "icongray": "https://steamcdn-a.akamaihd.net/steamcommunity/public/images/apps/351630/857ec4c850044acc5956ccde0576bf91c808ac84.jpg"
  }
]