﻿{
  "Dlcs": {},
  "Name": "Astral Heroes",
  "AppId": "488910",
  "ImageUrl": "https://steamcdn-a.akamaihd.net/steam/apps/488910/header.jpg?t=1585481236",
  "Languages": [
    "english",
    "russian",
    "french",
    "spanish",
    "ukrainian"
  ],
  "Platforms": {
    "windows": true,
    "mac": false,
    "linux": false
  }
}