﻿{
  "Dlcs": {},
  "Name": "Rescue Team 5",
  "AppId": "416320",
  "ImageUrl": "https://steamcdn-a.akamaihd.net/steam/apps/416320/header.jpg?t=1595333074",
  "Languages": [
    "english",
    "german",
    "polish",
    "russian",
    "french",
    "italian",
    "spanish",
    "dutch"
  ],
  "Platforms": {
    "windows": true,
    "mac": true,
    "linux": false
  }
}