﻿{
  "Dlcs": {},
  "Name": "7 Wonders: Ancient Alien Makeover",
  "AppId": "223000",
  "ImageUrl": "https://steamcdn-a.akamaihd.net/steam/apps/223000/header.jpg?t=1447356839",
  "Languages": [
    "english"
  ],
  "Platforms": {
    "windows": true,
    "mac": false,
    "linux": false
  }
}