﻿[
  {
    "name": "4Stars",
    "defaultvalue": 0,
    "displayName": "Starry night",
    "hidden": 0,
    "description": "Complete a Wonder with a 4-Star rating.",
    "icon": "https://steamcdn-a.akamaihd.net/steamcommunity/public/images/apps/223000/f67cba04fdf28aad7e2f44d30247ae89160d8570.jpg",
    "icongray": "https://steamcdn-a.akamaihd.net/steamcommunity/public/images/apps/223000/9ae8f674ca940456d213a254e8cf0a2709598009.jpg"
  },
  {
    "name": "7Levels",
    "defaultvalue": 0,
    "displayName": "Big 7",
    "hidden": 0,
    "description": "Complete a Wonder in exactly 7 levels.",
    "icon": "https://steamcdn-a.akamaihd.net/steamcommunity/public/images/apps/223000/42fc9f448575588d652b69ad41e2b07cabd16055.jpg",
    "icongray": "https://steamcdn-a.akamaihd.net/steamcommunity/public/images/apps/223000/a15f0b882d579a56fbbdf433d0921b3efe093aba.jpg"
  },
  {
    "name": "All4Stars",
    "defaultvalue": 0,
    "displayName": "Super Star",
    "hidden": 0,
    "description": "Complete all Wonders with a 4-Star rating.",
    "icon": "https://steamcdn-a.akamaihd.net/steamcommunity/public/images/apps/223000/4788371f7f32a9cbb02d888b9f92472a77d3b5be.jpg",
    "icongray": "https://steamcdn-a.akamaihd.net/steamcommunity/public/images/apps/223000/37d8c9ae30260679bc8901b8a435056937535ade.jpg"
  },
  {
    "name": "AllColorCells",
    "defaultvalue": 0,
    "displayName": "Cosmic vortex",
    "hidden": 0,
    "description": "Unlock all bonus mini-games.",
    "icon": "https://steamcdn-a.akamaihd.net/steamcommunity/public/images/apps/223000/7e7e76f152cc68c0921fd0dbfa3ba75495ea3b2d.jpg",
    "icongray": "https://steamcdn-a.akamaihd.net/steamcommunity/public/images/apps/223000/b536da51ff2b635bc9508a161564f76739f03a92.jpg"
  },
  {
    "name": "AllMinLevels",
    "defaultvalue": 0,
    "displayName": "Minimalist",
    "hidden": 0,
    "description": "Complete 4 Wonders in the minimum amount of levels required.",
    "icon": "https://steamcdn-a.akamaihd.net/steamcommunity/public/images/apps/223000/691d1c786061b21f218a003d78eb74ecd227149f.jpg",
    "icongray": "https://steamcdn-a.akamaihd.net/steamcommunity/public/images/apps/223000/51f620e285e0bb6a890593f0ebdcfd5ec67bd345.jpg"
  },
  {
    "name": "AllStructures",
    "defaultvalue": 0,
    "displayName": "Live it full",
    "hidden": 0,
    "description": "Unlock all buildings for your village.",
    "icon": "https://steamcdn-a.akamaihd.net/steamcommunity/public/images/apps/223000/d7873cefdb7a84036f674493fe7c5036db55619c.jpg",
    "icongray": "https://steamcdn-a.akamaihd.net/steamcommunity/public/images/apps/223000/72aa2b92df2fec3bb5adb42dce7dfcb1209042b0.jpg"
  },
  {
    "name": "AllWonders",
    "defaultvalue": 0,
    "displayName": "Wonder for all",
    "hidden": 0,
    "description": "Complete all Wonders.",
    "icon": "https://steamcdn-a.akamaihd.net/steamcommunity/public/images/apps/223000/3690fe5f8910577106d72e09ccbc2e9618c3d9e4.jpg",
    "icongray": "https://steamcdn-a.akamaihd.net/steamcommunity/public/images/apps/223000/cf826ed49a29cc0d581790c18709bb578f6daea5.jpg"
  },
  {
    "name": "AllWondersTime",
    "defaultvalue": 0,
    "displayName": "Time Keeper",
    "hidden": 0,
    "description": "Complete all Wonders on any timed difficulty mode.",
    "icon": "https://steamcdn-a.akamaihd.net/steamcommunity/public/images/apps/223000/911dc69cb3a82bbd18c4ee14e2d71546755ee52c.jpg",
    "icongray": "https://steamcdn-a.akamaihd.net/steamcommunity/public/images/apps/223000/af57b5a37cb6a9c6dab48df7eeb545d73d19220d.jpg"
  },
  {
    "name": "BlastCrosses",
    "defaultvalue": 0,
    "displayName": "X-plosion",
    "hidden": 0,
    "description": "Blast 300 Cross bonuses.",
    "icon": "https://steamcdn-a.akamaihd.net/steamcommunity/public/images/apps/223000/d5d850c5e207c145c0dd06f92347f4e5c182b60b.jpg",
    "icongray": "https://steamcdn-a.akamaihd.net/steamcommunity/public/images/apps/223000/8009dc174bf12f39d639b319d150e8bdd09a41d1.jpg"
  },
  {
    "name": "BlastLines",
    "defaultvalue": 0,
    "displayName": "Between the lines",
    "hidden": 0,
    "description": "Blast 500 Line bonuses.",
    "icon": "https://steamcdn-a.akamaihd.net/steamcommunity/public/images/apps/223000/ee456a3c020527467e053f111a6f6ec9f4a06d4e.jpg",
    "icongray": "https://steamcdn-a.akamaihd.net/steamcommunity/public/images/apps/223000/f5776dd0349be6bb7c914e63ba01a541170fa714.jpg"
  },
  {
    "name": "BlastWormholes",
    "defaultvalue": 0,
    "displayName": "Through the wormhole",
    "hidden": 0,
    "description": "Blast 400 Wormhole bonuses.",
    "icon": "https://steamcdn-a.akamaihd.net/steamcommunity/public/images/apps/223000/965628dd99a050c7a74f7033d11c4c59e6c7a779.jpg",
    "icongray": "https://steamcdn-a.akamaihd.net/steamcommunity/public/images/apps/223000/597fdb8eb4e75f97232461a80c227a073955b333.jpg"
  },
  {
    "name": "BonusMatch",
    "defaultvalue": 0,
    "displayName": "Time to Spare",
    "hidden": 0,
    "description": "Match the Time Bonus.",
    "icon": "https://steamcdn-a.akamaihd.net/steamcommunity/public/images/apps/223000/1eb046e697e7a57fb1d1d9c5d249b5a7fe2c2032.jpg",
    "icongray": "https://steamcdn-a.akamaihd.net/steamcommunity/public/images/apps/223000/4c57a91c0c9529358985d147c2cc13cc0c03f4de.jpg"
  },
  {
    "name": "Coins",
    "defaultvalue": 0,
    "displayName": "In the Money",
    "hidden": 0,
    "description": "Collect 15 coins in the game.",
    "icon": "https://steamcdn-a.akamaihd.net/steamcommunity/public/images/apps/223000/e834b0736c09cccdc42a16afd002d2caecada3bc.jpg",
    "icongray": "https://steamcdn-a.akamaihd.net/steamcommunity/public/images/apps/223000/aa6a1c3c4fe14b3834f584e68b7f67f97f40534c.jpg"
  },
  {
    "name": "Domino",
    "defaultvalue": 0,
    "displayName": "Diamond Pick",
    "hidden": 0,
    "description": "Complete all levels in the Diamond Domino Mine game.",
    "icon": "https://steamcdn-a.akamaihd.net/steamcommunity/public/images/apps/223000/ce2526900bf72cd02dd6a8665ba5b6680d51b829.jpg",
    "icongray": "https://steamcdn-a.akamaihd.net/steamcommunity/public/images/apps/223000/ee8f861443df358a6915224ac7998602f2059d95.jpg"
  },
  {
    "name": "ExtraBonuses",
    "defaultvalue": 0,
    "displayName": "Power of 4",
    "hidden": 0,
    "description": "Earn 4 Extra Power-ups.",
    "icon": "https://steamcdn-a.akamaihd.net/steamcommunity/public/images/apps/223000/9130824dda9a8e6e045bb1a3174da61b675f5c57.jpg",
    "icongray": "https://steamcdn-a.akamaihd.net/steamcommunity/public/images/apps/223000/87dc8243fcb784ae90bd5f569a0faf3ac9de5010.jpg"
  },
  {
    "name": "MakeCrosses",
    "defaultvalue": 0,
    "displayName": "Cross it off",
    "hidden": 0,
    "description": "Have 5 Cross bonuses on the board at one time.",
    "icon": "https://steamcdn-a.akamaihd.net/steamcommunity/public/images/apps/223000/b58f59aa7e00e8a30d3f567d866886ce024c97c5.jpg",
    "icongray": "https://steamcdn-a.akamaihd.net/steamcommunity/public/images/apps/223000/7a382bde7e50875ad979a0ea9e478070e30ececc.jpg"
  },
  {
    "name": "MaxResources",
    "defaultvalue": 0,
    "displayName": "Thrifty Shopper",
    "hidden": 0,
    "description": "Collect the maximum amount of resources in a level.",
    "icon": "https://steamcdn-a.akamaihd.net/steamcommunity/public/images/apps/223000/61f488081fc0c75794f7c734cb5a6c5b9053605f.jpg",
    "icongray": "https://steamcdn-a.akamaihd.net/steamcommunity/public/images/apps/223000/8ee858d598abb5e912a1f8ca59618fb38f41b551.jpg"
  },
  {
    "name": "NoExtra",
    "defaultvalue": 0,
    "displayName": "Down to basics",
    "hidden": 0,
    "description": "Complete a Wonder without using an Extra Power-up.",
    "icon": "https://steamcdn-a.akamaihd.net/steamcommunity/public/images/apps/223000/eac783ff0071b48a529ae9a276e012703089a2e6.jpg",
    "icongray": "https://steamcdn-a.akamaihd.net/steamcommunity/public/images/apps/223000/a953e971fed3854c550ae9400e2a9a215a806da8.jpg"
  },
  {
    "name": "NoShuffle",
    "defaultvalue": 0,
    "displayName": "The way it is",
    "hidden": 0,
    "description": "Complete a Wonder without using a shuffle.",
    "icon": "https://steamcdn-a.akamaihd.net/steamcommunity/public/images/apps/223000/373e5a191572f8bd4a1f48dfa4c3c34fff9550c3.jpg",
    "icongray": "https://steamcdn-a.akamaihd.net/steamcommunity/public/images/apps/223000/83ef87a8484c0d3902892bd1e92050e5bacaddc0.jpg"
  },
  {
    "name": "NoTimeOut",
    "defaultvalue": 0,
    "displayName": "Golden Clock",
    "hidden": 0,
    "description": "Complete all Wonders with no time outs.",
    "icon": "https://steamcdn-a.akamaihd.net/steamcommunity/public/images/apps/223000/31a224eb01ec4bb4917bfe7305f180adbeca9b27.jpg",
    "icongray": "https://steamcdn-a.akamaihd.net/steamcommunity/public/images/apps/223000/c619a1c3d9302478e35749dac1087848d68d4e02.jpg"
  },
  {
    "name": "Portal",
    "defaultvalue": 0,
    "displayName": "5 Gamer",
    "hidden": 0,
    "description": "Unlock 5 bonus mini-games.",
    "icon": "https://steamcdn-a.akamaihd.net/steamcommunity/public/images/apps/223000/5f5f9df389a57cd0869e1b873ed772974351c827.jpg",
    "icongray": "https://steamcdn-a.akamaihd.net/steamcommunity/public/images/apps/223000/87d01c5c979353ef5b0452445f9d47e654ae91b7.jpg"
  },
  {
    "name": "Redecorator",
    "defaultvalue": 0,
    "displayName": "Redecorator",
    "hidden": 0,
    "description": "Relocate any building or decoration to another location.",
    "icon": "https://steamcdn-a.akamaihd.net/steamcommunity/public/images/apps/223000/05d00ec46302cb1b6e58cf6269210efdb3200470.jpg",
    "icongray": "https://steamcdn-a.akamaihd.net/steamcommunity/public/images/apps/223000/ef62847bb7529c38f3e717a7f05488cc65ab7022.jpg"
  },
  {
    "name": "ResearchLab",
    "defaultvalue": 0,
    "displayName": "Research Prize",
    "hidden": 0,
    "description": "Complete all levels in the Research Lab game.",
    "icon": "https://steamcdn-a.akamaihd.net/steamcommunity/public/images/apps/223000/6dbeffac385c38a32bc17224a2320db7eb15f6d5.jpg",
    "icongray": "https://steamcdn-a.akamaihd.net/steamcommunity/public/images/apps/223000/6049b29722892120964634f205cd0f4237d4939b.jpg"
  },
  {
    "name": "Structure",
    "defaultvalue": 0,
    "displayName": "Lay the cornerstone",
    "hidden": 0,
    "description": "Construct the first building in your village.",
    "icon": "https://steamcdn-a.akamaihd.net/steamcommunity/public/images/apps/223000/fd1bbcf8e66ebee736d6575a9f5772dbcd601ad2.jpg",
    "icongray": "https://steamcdn-a.akamaihd.net/steamcommunity/public/images/apps/223000/22841ab1e2bfde18a434c6a5c1fedf4073db167e.jpg"
  },
  {
    "name": "Tree",
    "defaultvalue": 0,
    "displayName": "Tree Hugger",
    "hidden": 0,
    "description": "Populate your village with 5 trees.",
    "icon": "https://steamcdn-a.akamaihd.net/steamcommunity/public/images/apps/223000/ab2a89da2375b17e2420a878f1d832e483d040c4.jpg",
    "icongray": "https://steamcdn-a.akamaihd.net/steamcommunity/public/images/apps/223000/6d4d81ebfc2cf9586029f77dc71016e0ead3b03b.jpg"
  },
  {
    "name": "Wonder",
    "defaultvalue": 0,
    "displayName": "Good start",
    "hidden": 0,
    "description": "Complete the first Wonder.",
    "icon": "https://steamcdn-a.akamaihd.net/steamcommunity/public/images/apps/223000/a8c3cfe863e6423e226663ad9c2ed477af35f0eb.jpg",
    "icongray": "https://steamcdn-a.akamaihd.net/steamcommunity/public/images/apps/223000/560f193b461e2931d5b6f1f8b4378a81ebef8634.jpg"
  }
]