﻿{
  "Dlcs": {
    "693510": {
      "Name": "Dead Horizon Extras",
      "ImageUrl": "https://steamcdn-a.akamaihd.net/steam/apps/693510/header.jpg?t=1506833638"
    }
  },
  "Name": "Dead Horizon",
  "AppId": "671700",
  "ImageUrl": "https://steamcdn-a.akamaihd.net/steam/apps/671700/header.jpg?t=1506162612",
  "Languages": [
    "english"
  ],
  "Platforms": {
    "windows": true,
    "mac": true,
    "linux": true
  }
}