﻿[
  {
    "name": "objective_id_1",
    "defaultvalue": 0,
    "displayName": "Getting Started",
    "hidden": 0,
    "description": "Complete the 'Getting Started' objective by resetting the world!",
    "icon": "https://steamcdn-a.akamaihd.net/steamcommunity/public/images/apps/402840/3cf7176c140a022af3714b69ed23e8f6196e7a10.jpg",
    "icongray": "https://steamcdn-a.akamaihd.net/steamcommunity/public/images/apps/402840/6683693572b3a5ce8ac3267654f688a7a4ecf8c6.jpg"
  },
  {
    "name": "objective_id_2",
    "defaultvalue": 0,
    "displayName": "Centennial",
    "hidden": 0,
    "description": "Complete the 'Centennial' objective by beating area 100",
    "icon": "https://steamcdn-a.akamaihd.net/steamcommunity/public/images/apps/402840/a74773c3e500d7b9687e6e9edcd41d78ab043d19.jpg",
    "icongray": "https://steamcdn-a.akamaihd.net/steamcommunity/public/images/apps/402840/6683693572b3a5ce8ac3267654f688a7a4ecf8c6.jpg"
  },
  {
    "name": "objective_id_3",
    "defaultvalue": 0,
    "displayName": "Dig In",
    "hidden": 0,
    "description": "Complete the 'Dig In' objective by beating area 150",
    "icon": "https://steamcdn-a.akamaihd.net/steamcommunity/public/images/apps/402840/c6e2e7d6dd9ad43df384e1d6eb0cb3668306cd58.jpg",
    "icongray": "https://steamcdn-a.akamaihd.net/steamcommunity/public/images/apps/402840/6683693572b3a5ce8ac3267654f688a7a4ecf8c6.jpg"
  },
  {
    "name": "objective_id_4",
    "defaultvalue": 0,
    "displayName": "The Long Haul",
    "hidden": 0,
    "description": "Complete 'The Long Haul' objective by beating area 200",
    "icon": "https://steamcdn-a.akamaihd.net/steamcommunity/public/images/apps/402840/6197bf3408db4bf012fce334d551385e85c95af1.jpg",
    "icongray": "https://steamcdn-a.akamaihd.net/steamcommunity/public/images/apps/402840/6683693572b3a5ce8ac3267654f688a7a4ecf8c6.jpg"
  },
  {
    "name": "objective_id_5",
    "defaultvalue": 0,
    "displayName": "Your Mother's A Hamster",
    "hidden": 0,
    "description": "Complete the 'Your Mother's a Hamster' objective by escorting the Trojan Rabbit to area 200",
    "icon": "https://steamcdn-a.akamaihd.net/steamcommunity/public/images/apps/402840/4ed8918b4cf1651570eed4111402940d7bb0994d.jpg",
    "icongray": "https://steamcdn-a.akamaihd.net/steamcommunity/public/images/apps/402840/6683693572b3a5ce8ac3267654f688a7a4ecf8c6.jpg"
  },
  {
    "name": "objective_id_7",
    "defaultvalue": 0,
    "displayName": "Run Away!",
    "hidden": 0,
    "description": "Complete the 'Run Away!' objective by outrunning the Evil Rabbits to area 100",
    "icon": "https://steamcdn-a.akamaihd.net/steamcommunity/public/images/apps/402840/cf5724fdb08ed55a111572b366b90462e9fc2d06.jpg",
    "icongray": "https://steamcdn-a.akamaihd.net/steamcommunity/public/images/apps/402840/6683693572b3a5ce8ac3267654f688a7a4ecf8c6.jpg"
  },
  {
    "name": "objective_id_8",
    "defaultvalue": 0,
    "displayName": "Holy Hand Grenade of Antioch",
    "hidden": 0,
    "description": "Complete the 'Holy Hand Grenade of Antioch' objective by carrying the Holy Hand Grenade to area 150",
    "icon": "https://steamcdn-a.akamaihd.net/steamcommunity/public/images/apps/402840/b0aa1356251ed58e8f582cdb175b25c41f80cdf1.jpg",
    "icongray": "https://steamcdn-a.akamaihd.net/steamcommunity/public/images/apps/402840/6683693572b3a5ce8ac3267654f688a7a4ecf8c6.jpg"
  },
  {
    "name": "objective_id_9",
    "defaultvalue": 0,
    "displayName": "Didn't Dig Deep Enough",
    "hidden": 0,
    "description": "Complete the 'Didn't Dig Deep Enough' objective by beating area 100 in the 'Descent into Darkness' campaign",
    "icon": "https://steamcdn-a.akamaihd.net/steamcommunity/public/images/apps/402840/a74773c3e500d7b9687e6e9edcd41d78ab043d19.jpg",
    "icongray": "https://steamcdn-a.akamaihd.net/steamcommunity/public/images/apps/402840/6683693572b3a5ce8ac3267654f688a7a4ecf8c6.jpg"
  },
  {
    "name": "objective_id_10",
    "defaultvalue": 0,
    "displayName": "Dug Just Right",
    "hidden": 0,
    "description": "Complete the 'Dug Just Right' objective by beat area 150 in the 'Descent into Darkness' campaign",
    "icon": "https://steamcdn-a.akamaihd.net/steamcommunity/public/images/apps/402840/c6e2e7d6dd9ad43df384e1d6eb0cb3668306cd58.jpg",
    "icongray": "https://steamcdn-a.akamaihd.net/steamcommunity/public/images/apps/402840/6683693572b3a5ce8ac3267654f688a7a4ecf8c6.jpg"
  },
  {
    "name": "objective_id_11",
    "defaultvalue": 0,
    "displayName": "Dug Too Deep",
    "hidden": 0,
    "description": "Complete the 'Dug Too Deep' objective by beating area 200 in the 'Descent into Darkness' campaign",
    "icon": "https://steamcdn-a.akamaihd.net/steamcommunity/public/images/apps/402840/6197bf3408db4bf012fce334d551385e85c95af1.jpg",
    "icongray": "https://steamcdn-a.akamaihd.net/steamcommunity/public/images/apps/402840/6683693572b3a5ce8ac3267654f688a7a4ecf8c6.jpg"
  },
  {
    "name": "objective_id_12",
    "defaultvalue": 0,
    "displayName": "Grond! Grond! Grond!",
    "hidden": 0,
    "description": "Complete the 'Grond! Grond! Grond!' objective by ramming your way to area 150 in the 'Descent into Darkness' campaign",
    "icon": "https://steamcdn-a.akamaihd.net/steamcommunity/public/images/apps/402840/a6d929b404e392fc712a357cf32ea44922d875f3.jpg",
    "icongray": "https://steamcdn-a.akamaihd.net/steamcommunity/public/images/apps/402840/6683693572b3a5ce8ac3267654f688a7a4ecf8c6.jpg"
  },
  {
    "name": "objective_id_13",
    "defaultvalue": 0,
    "displayName": "Lone Descent",
    "hidden": 0,
    "description": "Complete the 'Lone Descent' objective by journeying to area 200 with a single Crusader in the 'Descent into Darkness' campaign",
    "icon": "https://steamcdn-a.akamaihd.net/steamcommunity/public/images/apps/402840/58b1c60bea0376e0a50f407cce3363b8ebdb7b91.jpg",
    "icongray": "https://steamcdn-a.akamaihd.net/steamcommunity/public/images/apps/402840/6683693572b3a5ce8ac3267654f688a7a4ecf8c6.jpg"
  },
  {
    "name": "objective_id_14",
    "defaultvalue": 0,
    "displayName": "Get Me Out of Here!",
    "hidden": 0,
    "description": "Complete the 'Get Me Out of Here!' objective by beating area 150 and resetting within 80 minutes in the 'Descent into Darkness' campaign",
    "icon": "https://steamcdn-a.akamaihd.net/steamcommunity/public/images/apps/402840/36444c35fdc05a8073d3fe88b2901f7ac0a242c6.jpg",
    "icongray": "https://steamcdn-a.akamaihd.net/steamcommunity/public/images/apps/402840/6683693572b3a5ce8ac3267654f688a7a4ecf8c6.jpg"
  },
  {
    "name": "objective_id_15",
    "defaultvalue": 0,
    "displayName": "Double Trouble",
    "hidden": 0,
    "description": "Complete the 'Double Trouble' objective by beating area 250 with double monster spawns in the 'Descent into Darkness' campaign",
    "icon": "https://steamcdn-a.akamaihd.net/steamcommunity/public/images/apps/402840/9aa6dce6f1b51a3546e4b068616ee3be4d0f31a4.jpg",
    "icongray": "https://steamcdn-a.akamaihd.net/steamcommunity/public/images/apps/402840/6683693572b3a5ce8ac3267654f688a7a4ecf8c6.jpg"
  },
  {
    "name": "objective_id_16",
    "defaultvalue": 0,
    "displayName": "A Pirate's Life For Me",
    "hidden": 0,
    "description": "Complete the 'A Pirate's Life For Me' objective by beating area 150 in the 'Ghostbeard's Greed' campaign",
    "icon": "https://steamcdn-a.akamaihd.net/steamcommunity/public/images/apps/402840/c6e2e7d6dd9ad43df384e1d6eb0cb3668306cd58.jpg",
    "icongray": "https://steamcdn-a.akamaihd.net/steamcommunity/public/images/apps/402840/6683693572b3a5ce8ac3267654f688a7a4ecf8c6.jpg"
  },
  {
    "name": "objective_id_17",
    "defaultvalue": 0,
    "displayName": "Yo Ho Ho and a Bottle of Rum",
    "hidden": 0,
    "description": "Complete the 'Yo Ho Ho and a Bottle of Rum' objective by beating area 250 in the 'Ghostbeard's Greed' campaign",
    "icon": "https://steamcdn-a.akamaihd.net/steamcommunity/public/images/apps/402840/3e0af26fa4f1312edebe0f6b0443333df7aca461.jpg",
    "icongray": "https://steamcdn-a.akamaihd.net/steamcommunity/public/images/apps/402840/6683693572b3a5ce8ac3267654f688a7a4ecf8c6.jpg"
  },
  {
    "name": "objective_id_18",
    "defaultvalue": 0,
    "displayName": "Shiver Me Timbers",
    "hidden": 0,
    "description": "Complete the 'Shiver Me Timbers' objective by beating area 350 in the 'Ghostbeard's Greed' campaign",
    "icon": "https://steamcdn-a.akamaihd.net/steamcommunity/public/images/apps/402840/59458873265af08a1b2a9b96896419e4281efc42.jpg",
    "icongray": "https://steamcdn-a.akamaihd.net/steamcommunity/public/images/apps/402840/6683693572b3a5ce8ac3267654f688a7a4ecf8c6.jpg"
  },
  {
    "name": "objective_id_19",
    "defaultvalue": 0,
    "displayName": "X Marks the Spot",
    "hidden": 0,
    "description": "Complete the 'X Marks the Spot' objective by beating area 300 in the 'Ghostbeard's Greed' campaign while maintaining a special X formation",
    "icon": "https://steamcdn-a.akamaihd.net/steamcommunity/public/images/apps/402840/cf49a9c36dbfd55d62b4bce33170069109821593.jpg",
    "icongray": "https://steamcdn-a.akamaihd.net/steamcommunity/public/images/apps/402840/6683693572b3a5ce8ac3267654f688a7a4ecf8c6.jpg"
  },
  {
    "name": "objective_id_24",
    "defaultvalue": 0,
    "displayName": "PAARRRfection",
    "hidden": 0,
    "description": "Complete the 'PAARRRfection' objective by beating area 200 in the 'Ghostbeard's Greed' campaign with no Wipes",
    "icon": "https://steamcdn-a.akamaihd.net/steamcommunity/public/images/apps/402840/161de83e83dbbc14686218652c7776e7ffd155a2.jpg",
    "icongray": "https://steamcdn-a.akamaihd.net/steamcommunity/public/images/apps/402840/6683693572b3a5ce8ac3267654f688a7a4ecf8c6.jpg"
  },
  {
    "name": "objective_id_26",
    "defaultvalue": 0,
    "displayName": "Dual Descent",
    "hidden": 0,
    "description": "Complete the 'Dual Descent' objective by beating area 250 in the 'Descent into Darkness' campaign while only using 2 Crusaders at a time",
    "icon": "https://steamcdn-a.akamaihd.net/steamcommunity/public/images/apps/402840/1f0f4f297db106f6023c09c90a1c14af1a3e33c1.jpg",
    "icongray": "https://steamcdn-a.akamaihd.net/steamcommunity/public/images/apps/402840/6683693572b3a5ce8ac3267654f688a7a4ecf8c6.jpg"
  },
  {
    "name": "objective_id_25",
    "defaultvalue": 0,
    "displayName": "Ms. Fizzle's Field Trip",
    "hidden": 0,
    "description": "Complete the 'Ms. Fizzle's Field Trip' objective by beating area 250 in the 'Ghostbeard's Greed' campaign with 5 slots randomly blocked by meddling children",
    "icon": "https://steamcdn-a.akamaihd.net/steamcommunity/public/images/apps/402840/bbf8c88a97d1db69c3647bb8b077160ae2c2707e.jpg",
    "icongray": "https://steamcdn-a.akamaihd.net/steamcommunity/public/images/apps/402840/6683693572b3a5ce8ac3267654f688a7a4ecf8c6.jpg"
  },
  {
    "name": "objective_id_28",
    "defaultvalue": 0,
    "displayName": "2,000 Levels For All",
    "hidden": 0,
    "description": "Complete the '2,000 Levels For All' objective by levelling all Crusaders to level 2,000 in the 'Ghostbeard's Greed' campaign",
    "icon": "https://steamcdn-a.akamaihd.net/steamcommunity/public/images/apps/402840/7de0959991b1224022e8d7846c71759f8b13bdf7.jpg",
    "icongray": "https://steamcdn-a.akamaihd.net/steamcommunity/public/images/apps/402840/6683693572b3a5ce8ac3267654f688a7a4ecf8c6.jpg"
  },
  {
    "name": "objective_id_27",
    "defaultvalue": 0,
    "displayName": "Inflation",
    "hidden": 0,
    "description": "Complete the 'Inflation' objective by playing the 'World's Wake' campaign with increased Crusader costs and then resetting",
    "icon": "https://steamcdn-a.akamaihd.net/steamcommunity/public/images/apps/402840/7af6a523197ca923881df8e32d7a065361860eb7.jpg",
    "icongray": "https://steamcdn-a.akamaihd.net/steamcommunity/public/images/apps/402840/6683693572b3a5ce8ac3267654f688a7a4ecf8c6.jpg"
  },
  {
    "name": "objective_id_29",
    "defaultvalue": 0,
    "displayName": "Around the World",
    "hidden": 0,
    "description": "Complete the 'Around the World' objective by beating area 360 in the 'World's Wake' campaign",
    "icon": "https://steamcdn-a.akamaihd.net/steamcommunity/public/images/apps/402840/849431f420f8b481541aed10cd4bd06abee9f0d7.jpg",
    "icongray": "https://steamcdn-a.akamaihd.net/steamcommunity/public/images/apps/402840/6683693572b3a5ce8ac3267654f688a7a4ecf8c6.jpg"
  },
  {
    "name": "objective_id_37",
    "defaultvalue": 0,
    "displayName": "Guys' Night Out",
    "hidden": 0,
    "description": "Complete the 'Guys' Night Out' objective by beating area 250 in the 'Ghostbeard's Greed' campaign without any female or animal Crusaders",
    "icon": "https://steamcdn-a.akamaihd.net/steamcommunity/public/images/apps/402840/2aa4086b5d134b960cca702ae5155cf996b96dc4.jpg",
    "icongray": "https://steamcdn-a.akamaihd.net/steamcommunity/public/images/apps/402840/6683693572b3a5ce8ac3267654f688a7a4ecf8c6.jpg"
  },
  {
    "name": "objective_id_38",
    "defaultvalue": 0,
    "displayName": "Beauties and the Beasts",
    "hidden": 0,
    "description": "Complete the 'Beauties and the Beasts' objective by beating area 250 in the 'Ghostbeard's Greed' campaign with only female or animal Crusaders",
    "icon": "https://steamcdn-a.akamaihd.net/steamcommunity/public/images/apps/402840/9fe6d6c9e062504b98ed41203cf14252a8d8e464.jpg",
    "icongray": "https://steamcdn-a.akamaihd.net/steamcommunity/public/images/apps/402840/6683693572b3a5ce8ac3267654f688a7a4ecf8c6.jpg"
  },
  {
    "name": "objective_id_39",
    "defaultvalue": 0,
    "displayName": "Demolition Derby",
    "hidden": 0,
    "description": "Complete the 'Demolition Derby' objective by beating area 250 in the 'Descent into Darkness' campaign while protecting the demolitions experts",
    "icon": "https://steamcdn-a.akamaihd.net/steamcommunity/public/images/apps/402840/2b6c84e18b9eae71c8d4168dc53b6106bacda156.jpg",
    "icongray": "https://steamcdn-a.akamaihd.net/steamcommunity/public/images/apps/402840/6683693572b3a5ce8ac3267654f688a7a4ecf8c6.jpg"
  },
  {
    "name": "objective_id_52",
    "defaultvalue": 0,
    "displayName": "Big Phony Wizard",
    "hidden": 0,
    "description": "Complete the 'Big Phony Wizard' objective by beating area 200 in the 'Grimm's Idle Tales' campaign",
    "icon": "https://steamcdn-a.akamaihd.net/steamcommunity/public/images/apps/402840/bcafcbf4a3dd64ac6ea87185db064b7ed1501f51.jpg",
    "icongray": "https://steamcdn-a.akamaihd.net/steamcommunity/public/images/apps/402840/6683693572b3a5ce8ac3267654f688a7a4ecf8c6.jpg"
  },
  {
    "name": "objective_id_53",
    "defaultvalue": 0,
    "displayName": "Not in Kansas Anymore",
    "hidden": 0,
    "description": "Complete the 'Not in Kansas Anymore' objective by beating area 250 in the 'Grimm's Idle Tales' campaign while escorting Dorothy and her companions",
    "icon": "https://steamcdn-a.akamaihd.net/steamcommunity/public/images/apps/402840/18dd6dc85e5fef86e85ce347b19bf5072640a5ab.jpg",
    "icongray": "https://steamcdn-a.akamaihd.net/steamcommunity/public/images/apps/402840/6683693572b3a5ce8ac3267654f688a7a4ecf8c6.jpg"
  },
  {
    "name": "objective_id_54",
    "defaultvalue": 0,
    "displayName": "What Big Teeth You Have",
    "hidden": 0,
    "description": "Complete the 'What Big Teeth You Have' objective by beating area 250 in the 'Grimm's Idle Tales' campaign while escorting Red and fighting off wolves",
    "icon": "https://steamcdn-a.akamaihd.net/steamcommunity/public/images/apps/402840/599cc8052ff4ca2b414e0f027a57d2b673693268.jpg",
    "icongray": "https://steamcdn-a.akamaihd.net/steamcommunity/public/images/apps/402840/6683693572b3a5ce8ac3267654f688a7a4ecf8c6.jpg"
  },
  {
    "name": "objective_id_55",
    "defaultvalue": 0,
    "displayName": "Sleeping Beauty",
    "hidden": 0,
    "description": "Complete the 'Sleeping Beauty' objective by beating area 250 in the 'Grimm's Idle Tales' campaign while some of your Crusaders are napping",
    "icon": "https://steamcdn-a.akamaihd.net/steamcommunity/public/images/apps/402840/07fe0226fb6cd3d3517f577fe21bcef647e0de37.jpg",
    "icongray": "https://steamcdn-a.akamaihd.net/steamcommunity/public/images/apps/402840/6683693572b3a5ce8ac3267654f688a7a4ecf8c6.jpg"
  },
  {
    "name": "objective_id_56",
    "defaultvalue": 0,
    "displayName": "Witches and Wizards",
    "hidden": 0,
    "description": "Complete the 'Witches and Wizards' objective by beating area 300 in the 'Grimm's Idle Tales' campaign",
    "icon": "https://steamcdn-a.akamaihd.net/steamcommunity/public/images/apps/402840/411a26d041762c8c64055e036559730b280811eb.jpg",
    "icongray": "https://steamcdn-a.akamaihd.net/steamcommunity/public/images/apps/402840/6683693572b3a5ce8ac3267654f688a7a4ecf8c6.jpg"
  },
  {
    "name": "objective_id_57",
    "defaultvalue": 0,
    "displayName": "Down the Rabbit Hole",
    "hidden": 0,
    "description": "Complete the 'Down the Rabbit Hole' objective by beating area 350 in the 'Grimm's Idle Tales' campaign with the help of a tardy rabbit",
    "icon": "https://steamcdn-a.akamaihd.net/steamcommunity/public/images/apps/402840/814ef4170fb708b176ce80baf5c1bd864a2e5381.jpg",
    "icongray": "https://steamcdn-a.akamaihd.net/steamcommunity/public/images/apps/402840/6683693572b3a5ce8ac3267654f688a7a4ecf8c6.jpg"
  },
  {
    "name": "objective_id_69",
    "defaultvalue": 0,
    "displayName": "Top Tier",
    "hidden": 0,
    "description": "Complete the 'Top Tier' objective by beating area 350 in the 'World's Wake' campaign with only the top row of Crusaders",
    "icon": "https://steamcdn-a.akamaihd.net/steamcommunity/public/images/apps/402840/2e1e8c5f8f5a33de79552ea5333741ca8b9be2be.jpg",
    "icongray": "https://steamcdn-a.akamaihd.net/steamcommunity/public/images/apps/402840/6683693572b3a5ce8ac3267654f688a7a4ecf8c6.jpg"
  },
  {
    "name": "objective_id_70",
    "defaultvalue": 0,
    "displayName": "Let It Go",
    "hidden": 0,
    "description": "Complete the 'Let It Go' objective by beating area 350 in the 'Grimm's Idle Tales' campaign while escorting a somewhat frozen princess",
    "icon": "https://steamcdn-a.akamaihd.net/steamcommunity/public/images/apps/402840/dde9a9b02f0a9f81740b18591281d326bc3aa1a8.jpg",
    "icongray": "https://steamcdn-a.akamaihd.net/steamcommunity/public/images/apps/402840/6683693572b3a5ce8ac3267654f688a7a4ecf8c6.jpg"
  },
  {
    "name": "objective_id_71",
    "defaultvalue": 0,
    "displayName": "I Like Potatoes",
    "hidden": 0,
    "description": "Complete the 'I Like Potatoes' objective by beating area 150 in the 'Grimm's Idle Tales' campaign without the help of your idol bonuses",
    "icon": "https://steamcdn-a.akamaihd.net/steamcommunity/public/images/apps/402840/93d948fe0320d8e726c0252e80575c91ca14169e.jpg",
    "icongray": "https://steamcdn-a.akamaihd.net/steamcommunity/public/images/apps/402840/6683693572b3a5ce8ac3267654f688a7a4ecf8c6.jpg"
  },
  {
    "name": "objective_id_90",
    "defaultvalue": 0,
    "displayName": "Slow Descent",
    "hidden": 0,
    "description": "Complete the 'Slow Descent' objective by beating area 100 in the 'Descent into Darkness' campaign, but the difficulty curve is much, much steeper",
    "icon": "https://steamcdn-a.akamaihd.net/steamcommunity/public/images/apps/402840/c07a89e3347f28c7228cbbef04c8ffb3f5841256.jpg",
    "icongray": "https://steamcdn-a.akamaihd.net/steamcommunity/public/images/apps/402840/6683693572b3a5ce8ac3267654f688a7a4ecf8c6.jpg"
  },
  {
    "name": "objective_id_91",
    "defaultvalue": 0,
    "displayName": "Cursed Treasure",
    "hidden": 0,
    "description": "Complete the 'Cursed Treasure' objective by beating area 450 in the 'Ghostbeard's Greed' campaign while escorting some cursed treasure.",
    "icon": "https://steamcdn-a.akamaihd.net/steamcommunity/public/images/apps/402840/3c3e4c329a5c3804a086d293de191357d4dc52e0.jpg",
    "icongray": "https://steamcdn-a.akamaihd.net/steamcommunity/public/images/apps/402840/6683693572b3a5ce8ac3267654f688a7a4ecf8c6.jpg"
  },
  {
    "name": "objective_id_92",
    "defaultvalue": 0,
    "displayName": "The Lion King",
    "hidden": 0,
    "description": "Complete the 'The Lion King' objective by beating area 400 in the 'Grimm's Idle Tales' campaign with an overpowered Artaxes and random Hyena attacks",
    "icon": "https://steamcdn-a.akamaihd.net/steamcommunity/public/images/apps/402840/7d87e5a78a7194626e682da944fed3eaa59c0f85.jpg",
    "icongray": "https://steamcdn-a.akamaihd.net/steamcommunity/public/images/apps/402840/6683693572b3a5ce8ac3267654f688a7a4ecf8c6.jpg"
  },
  {
    "name": "objective_id_93",
    "defaultvalue": 0,
    "displayName": "Holiday Hoopla",
    "hidden": 0,
    "description": "Complete the 'Holiday Hoopla' objective by beating area 400 in the 'Grimm's Idle Tales' campaign with pretty much just Event Crusaders.",
    "icon": "https://steamcdn-a.akamaihd.net/steamcommunity/public/images/apps/402840/23373815ac00ff4da1f13606beb716fc891d5354.jpg",
    "icongray": "https://steamcdn-a.akamaihd.net/steamcommunity/public/images/apps/402840/6683693572b3a5ce8ac3267654f688a7a4ecf8c6.jpg"
  },
  {
    "name": "objective_id_94",
    "defaultvalue": 0,
    "displayName": "Potions Class",
    "hidden": 0,
    "description": "Complete the 'Potions Class' objective by beating area 200 in the 'Mischief at Mugwarts' campaign.",
    "icon": "https://steamcdn-a.akamaihd.net/steamcommunity/public/images/apps/402840/6197bf3408db4bf012fce334d551385e85c95af1.jpg",
    "icongray": "https://steamcdn-a.akamaihd.net/steamcommunity/public/images/apps/402840/6683693572b3a5ce8ac3267654f688a7a4ecf8c6.jpg"
  },
  {
    "name": "objective_id_95",
    "defaultvalue": 0,
    "displayName": "Defense Against the Dark Ones",
    "hidden": 0,
    "description": "Complete the 'Defense Against the Dark Ones' objective by beating area 400 in the 'Mischief at Mugwarts' campaign.",
    "icon": "https://steamcdn-a.akamaihd.net/steamcommunity/public/images/apps/402840/36ef01a7c7db8c79e3975f120b3052de182258fd.jpg",
    "icongray": "https://steamcdn-a.akamaihd.net/steamcommunity/public/images/apps/402840/6683693572b3a5ce8ac3267654f688a7a4ecf8c6.jpg"
  },
  {
    "name": "objective_id_96",
    "defaultvalue": 0,
    "displayName": "Personal Tutelage",
    "hidden": 0,
    "description": "Complete the 'Personal Tutelage' objective by beating area 600 in the 'Mischief at Mugwarts' campaign.",
    "icon": "https://steamcdn-a.akamaihd.net/steamcommunity/public/images/apps/402840/ba552736b5011e59f6e0a2a33dd73fe54a529295.jpg",
    "icongray": "https://steamcdn-a.akamaihd.net/steamcommunity/public/images/apps/402840/6683693572b3a5ce8ac3267654f688a7a4ecf8c6.jpg"
  },
  {
    "name": "objective_id_98",
    "defaultvalue": 0,
    "displayName": "Broom Game",
    "hidden": 0,
    "description": "Complete the 'Broom Game' objective by beating area 450 in the 'Mischief at Mugwarts' campaign while playing a fun broom game.",
    "icon": "https://steamcdn-a.akamaihd.net/steamcommunity/public/images/apps/402840/1f019942509b3a30db836a43f7f42a2c80fee6d2.jpg",
    "icongray": "https://steamcdn-a.akamaihd.net/steamcommunity/public/images/apps/402840/6683693572b3a5ce8ac3267654f688a7a4ecf8c6.jpg"
  },
  {
    "name": "objective_id_99",
    "defaultvalue": 0,
    "displayName": "No Muggles Allowed",
    "hidden": 0,
    "description": "Complete the 'No Muggles Allowed' objective by beating area 450 in the 'Mischief at Mugwarts' campaign without any dirty Muggles.",
    "icon": "https://steamcdn-a.akamaihd.net/steamcommunity/public/images/apps/402840/10de7a47de02d6c482a77758806425a6eae4b7fe.jpg",
    "icongray": "https://steamcdn-a.akamaihd.net/steamcommunity/public/images/apps/402840/6683693572b3a5ce8ac3267654f688a7a4ecf8c6.jpg"
  },
  {
    "name": "objective_id_100",
    "defaultvalue": 0,
    "displayName": "Teacher's Pet",
    "hidden": 0,
    "description": "Complete the 'Teacher's Pet' objective by beating area 500 in the 'Mischief at Mugwarts' campaign with some periodic polyfication.",
    "icon": "https://steamcdn-a.akamaihd.net/steamcommunity/public/images/apps/402840/4a60305bfbb0ae9d85545d601c20a98b3ef4af27.jpg",
    "icongray": "https://steamcdn-a.akamaihd.net/steamcommunity/public/images/apps/402840/6683693572b3a5ce8ac3267654f688a7a4ecf8c6.jpg"
  },
  {
    "name": "objective_id_180",
    "defaultvalue": 0,
    "displayName": "Level Up!",
    "hidden": 0,
    "description": "Complete the 'Level Up!' objective by beating area 300 in the 'Ready Player Two' campaign.",
    "icon": "https://steamcdn-a.akamaihd.net/steamcommunity/public/images/apps/402840/42a69ab2320fe5e23e1e14a7a63efcc5fb1bf97e.jpg",
    "icongray": "https://steamcdn-a.akamaihd.net/steamcommunity/public/images/apps/402840/6683693572b3a5ce8ac3267654f688a7a4ecf8c6.jpg"
  },
  {
    "name": "objective_id_181",
    "defaultvalue": 0,
    "displayName": "Couch Co-op",
    "hidden": 0,
    "description": "Complete the 'Couch Co-Op' objective by beating area 300 in the 'Ready Player Two' campaign while only using 4 Crusaders at a time.",
    "icon": "https://steamcdn-a.akamaihd.net/steamcommunity/public/images/apps/402840/9ce92f5c5baab5ea900282605158a78975a47808.jpg",
    "icongray": "https://steamcdn-a.akamaihd.net/steamcommunity/public/images/apps/402840/6683693572b3a5ce8ac3267654f688a7a4ecf8c6.jpg"
  },
  {
    "name": "objective_id_182",
    "defaultvalue": 0,
    "displayName": "No Items, Fox Only, Final Destination",
    "hidden": 0,
    "description": "Complete the 'No Items, Fox Only, Final Destination' objective by beating area 400 in the 'Ready Player Two' campaign with an annoying SpaceFox taking up a slot.",
    "icon": "https://steamcdn-a.akamaihd.net/steamcommunity/public/images/apps/402840/9754e3e0fdabdfaf119fd3bc0753293cc53933e3.jpg",
    "icongray": "https://steamcdn-a.akamaihd.net/steamcommunity/public/images/apps/402840/6683693572b3a5ce8ac3267654f688a7a4ecf8c6.jpg"
  },
  {
    "name": "objective_id_183",
    "defaultvalue": 0,
    "displayName": "More Random Encounters",
    "hidden": 0,
    "description": "Complete the 'More Random Encounters' objective by beating area 400 in the 'Ready Player Two' campaign while fending off random boss encounters.",
    "icon": "https://steamcdn-a.akamaihd.net/steamcommunity/public/images/apps/402840/0108ef396b5d1006bc4893990b86f4438a517242.jpg",
    "icongray": "https://steamcdn-a.akamaihd.net/steamcommunity/public/images/apps/402840/6683693572b3a5ce8ac3267654f688a7a4ecf8c6.jpg"
  },
  {
    "name": "objective_id_184",
    "defaultvalue": 0,
    "displayName": "Tetris",
    "hidden": 0,
    "description": "Complete the 'Tetris' objective by beating area 500 in the 'Ready Player Two' campaign with a constantly shifting formation.",
    "icon": "https://steamcdn-a.akamaihd.net/steamcommunity/public/images/apps/402840/d3a41cea096aa33e12493dec2c80386c14f116cd.jpg",
    "icongray": "https://steamcdn-a.akamaihd.net/steamcommunity/public/images/apps/402840/6683693572b3a5ce8ac3267654f688a7a4ecf8c6.jpg"
  },
  {
    "name": "objective_id_185",
    "defaultvalue": 0,
    "displayName": "Raid",
    "hidden": 0,
    "description": "Complete the 'Raid' objective by beating area 600 in the 'Ready Player Two' campaign.",
    "icon": "https://steamcdn-a.akamaihd.net/steamcommunity/public/images/apps/402840/9f26b9ac45d752f0fb612b86dabeb627fd47963b.jpg",
    "icongray": "https://steamcdn-a.akamaihd.net/steamcommunity/public/images/apps/402840/6683693572b3a5ce8ac3267654f688a7a4ecf8c6.jpg"
  },
  {
    "name": "objective_id_200",
    "defaultvalue": 0,
    "displayName": "Accio Monsters",
    "hidden": 0,
    "description": "Complete the 'Accio Monsters' objective by beating area 450 in the 'Mischief at Mugwarts' campaign while fending off really fast monsters.",
    "icon": "https://steamcdn-a.akamaihd.net/steamcommunity/public/images/apps/402840/234ef4dc435afb3eafbccd77cf006f5310d0536a.jpg",
    "icongray": "https://steamcdn-a.akamaihd.net/steamcommunity/public/images/apps/402840/6683693572b3a5ce8ac3267654f688a7a4ecf8c6.jpg"
  },
  {
    "name": "objective_id_201",
    "defaultvalue": 0,
    "displayName": "The Final Battle",
    "hidden": 0,
    "description": "Complete the 'The Final Battle' objective by beating area 550 in the 'Mischief at Mugwarts' campaign while your Crusaders are slowly picked off one by one.",
    "icon": "https://steamcdn-a.akamaihd.net/steamcommunity/public/images/apps/402840/0d209ce99947849e87db32efcf9f680164d00e66.jpg",
    "icongray": "https://steamcdn-a.akamaihd.net/steamcommunity/public/images/apps/402840/6683693572b3a5ce8ac3267654f688a7a4ecf8c6.jpg"
  },
  {
    "name": "objective_id_202",
    "defaultvalue": 0,
    "displayName": "Glitch Out",
    "hidden": 0,
    "description": "Complete the 'Glitch Out' objective by beating area 450 in the 'Ready Player Two' campaign with a very glitchy group of Crusaders.",
    "icon": "https://steamcdn-a.akamaihd.net/steamcommunity/public/images/apps/402840/a477365383ca05ef1d0bec841c6f70c5f5cd308e.jpg",
    "icongray": "https://steamcdn-a.akamaihd.net/steamcommunity/public/images/apps/402840/6683693572b3a5ce8ac3267654f688a7a4ecf8c6.jpg"
  },
  {
    "name": "objective_id_203",
    "defaultvalue": 0,
    "displayName": "Video Game of Thrones",
    "hidden": 0,
    "description": "Complete the 'Video Game of Thrones' objective by beating area 450 in the 'Ready Player Two' campaign with only your most Royal Crusaders.",
    "icon": "https://steamcdn-a.akamaihd.net/steamcommunity/public/images/apps/402840/f4f5bf2f0a66734981bffdecedc7e6be91061e46.jpg",
    "icongray": "https://steamcdn-a.akamaihd.net/steamcommunity/public/images/apps/402840/6683693572b3a5ce8ac3267654f688a7a4ecf8c6.jpg"
  },
  {
    "name": "objective_id_229",
    "defaultvalue": 0,
    "displayName": "Twin Pine Mall",
    "hidden": 0,
    "description": "Complete the 'Twin Pine Mall' objective by beating area 300 in the 'Idols Through Time' campaign.",
    "icon": "https://steamcdn-a.akamaihd.net/steamcommunity/public/images/apps/402840/2ee3a17864168e885f95438a6bc142b42a40824b.jpg",
    "icongray": "https://steamcdn-a.akamaihd.net/steamcommunity/public/images/apps/402840/6683693572b3a5ce8ac3267654f688a7a4ecf8c6.jpg"
  },
  {
    "name": "objective_id_230",
    "defaultvalue": 0,
    "displayName": "Don't Blink",
    "hidden": 0,
    "description": "Complete the 'Don't Blink' objective by beating area 350 in the 'Idols Through Time' campaign while under the gaze of Sobbing Cherubs.",
    "icon": "https://steamcdn-a.akamaihd.net/steamcommunity/public/images/apps/402840/ed0f8eb3246205b16b09427f24d37dbec248a6c6.jpg",
    "icongray": "https://steamcdn-a.akamaihd.net/steamcommunity/public/images/apps/402840/6683693572b3a5ce8ac3267654f688a7a4ecf8c6.jpg"
  },
  {
    "name": "objective_id_231",
    "defaultvalue": 0,
    "displayName": "Lost In Time",
    "hidden": 0,
    "description": "Complete the 'Lost In Time' objective by beating area 400 in the 'Idols Through Time' campaign while escorting relics from the ages.",
    "icon": "https://steamcdn-a.akamaihd.net/steamcommunity/public/images/apps/402840/4e56d3f5f9e200f5ec95980291118195042e4d0b.jpg",
    "icongray": "https://steamcdn-a.akamaihd.net/steamcommunity/public/images/apps/402840/6683693572b3a5ce8ac3267654f688a7a4ecf8c6.jpg"
  },
  {
    "name": "objective_id_232",
    "defaultvalue": 0,
    "displayName": "Time-Lost Bosses",
    "hidden": 0,
    "description": "Complete the 'Time-Lost Bosses' objective by beating area 450 in the 'Idols Through Time' campaign while fending off bosses from much higher levels.",
    "icon": "https://steamcdn-a.akamaihd.net/steamcommunity/public/images/apps/402840/614575ec8f9949b09826bf46f3444308c93e6926.jpg",
    "icongray": "https://steamcdn-a.akamaihd.net/steamcommunity/public/images/apps/402840/6683693572b3a5ce8ac3267654f688a7a4ecf8c6.jpg"
  },
  {
    "name": "objective_id_233",
    "defaultvalue": 0,
    "displayName": "Nostalgia Trip",
    "hidden": 0,
    "description": "Complete the 'Nostalgia Trip' objective by beating area 500 in the 'Idols Through Time' campaign while only using the original 20 Crusaders.",
    "icon": "https://steamcdn-a.akamaihd.net/steamcommunity/public/images/apps/402840/5480ecf1ffa4df84f23695a8798a0ba0539c7588.jpg",
    "icongray": "https://steamcdn-a.akamaihd.net/steamcommunity/public/images/apps/402840/6683693572b3a5ce8ac3267654f688a7a4ecf8c6.jpg"
  },
  {
    "name": "objective_id_234",
    "defaultvalue": 0,
    "displayName": "Lone Pine Mall",
    "hidden": 0,
    "description": "Complete the 'Lone Pine Mall' objective by beating area 600 in the 'Idols Through Time' campaign.",
    "icon": "https://steamcdn-a.akamaihd.net/steamcommunity/public/images/apps/402840/ba552736b5011e59f6e0a2a33dd73fe54a529295.jpg",
    "icongray": "https://steamcdn-a.akamaihd.net/steamcommunity/public/images/apps/402840/6683693572b3a5ce8ac3267654f688a7a4ecf8c6.jpg"
  },
  {
    "name": "objective_id_97",
    "defaultvalue": 0,
    "displayName": "Invisibility Cloak",
    "hidden": 0,
    "description": "Complete the 'Invisibility Cloak' objective by beating area 350 in the 'Mischief at Mugwarts' campaign while your enemies all don invisibility cloaks.",
    "icon": "https://steamcdn-a.akamaihd.net/steamcommunity/public/images/apps/402840/73eddd375efa65a2e7466e5c39695145161dceb6.jpg",
    "icongray": "https://steamcdn-a.akamaihd.net/steamcommunity/public/images/apps/402840/6683693572b3a5ce8ac3267654f688a7a4ecf8c6.jpg"
  },
  {
    "name": "objective_id_243",
    "defaultvalue": 0,
    "displayName": "Fantastic Beasts",
    "hidden": 0,
    "description": "Complete the 'Fantastic Beasts' objective by beating area 650 in the 'Mischief at Mugwarts' campaign while escorting a self-absorbed wizard and fending off fantastic beasts.",
    "icon": "https://steamcdn-a.akamaihd.net/steamcommunity/public/images/apps/402840/4ebe525fa87f0bfa1a5c8f5cd4b5df3beb96e2b0.jpg",
    "icongray": "https://steamcdn-a.akamaihd.net/steamcommunity/public/images/apps/402840/6683693572b3a5ce8ac3267654f688a7a4ecf8c6.jpg"
  },
  {
    "name": "objective_id_244",
    "defaultvalue": 0,
    "displayName": "Polkamans Go!",
    "hidden": 0,
    "description": "Complete the 'Polkamans Go!' objective by beating area 550 in the 'Ready Player Two' campaign while catching Polkamans instead of completing quests.",
    "icon": "https://steamcdn-a.akamaihd.net/steamcommunity/public/images/apps/402840/30657f34f4be482e80b3d4167e59c4b37162faba.jpg",
    "icongray": "https://steamcdn-a.akamaihd.net/steamcommunity/public/images/apps/402840/6683693572b3a5ce8ac3267654f688a7a4ecf8c6.jpg"
  },
  {
    "name": "objective_id_245",
    "defaultvalue": 0,
    "displayName": "Acme Dark Souls",
    "hidden": 0,
    "description": "Complete the 'Acme Dark Souls' objective by beating area 650 in the 'Ready Player Two' campaign while dodging anvils that constantly fall from the sky.",
    "icon": "https://steamcdn-a.akamaihd.net/steamcommunity/public/images/apps/402840/516ad8d763f33819ab29eb030174e915379a2e00.jpg",
    "icongray": "https://steamcdn-a.akamaihd.net/steamcommunity/public/images/apps/402840/6683693572b3a5ce8ac3267654f688a7a4ecf8c6.jpg"
  },
  {
    "name": "objective_id_247",
    "defaultvalue": 0,
    "displayName": "Gray Goo",
    "hidden": 0,
    "description": "Complete the 'Gray Goo' achievement by beating area 600 in the 'World's Wake' campaign before the Goo overtakes you.",
    "icon": "https://steamcdn-a.akamaihd.net/steamcommunity/public/images/apps/402840/1063d47fc5632f67af0a4130d873aa4eac7f726c.jpg",
    "icongray": "https://steamcdn-a.akamaihd.net/steamcommunity/public/images/apps/402840/6683693572b3a5ce8ac3267654f688a7a4ecf8c6.jpg"
  },
  {
    "name": "objective_id_248",
    "defaultvalue": 0,
    "displayName": "It's Getting Dark",
    "hidden": 0,
    "description": "Complete the 'It's Getting Dark' objective by beating area 625 in the 'Descent into Darkness' campaign before it gets too dark to see.",
    "icon": "https://steamcdn-a.akamaihd.net/steamcommunity/public/images/apps/402840/2f9d86c2b2a873167312984d5accf96820179ef1.jpg",
    "icongray": "https://steamcdn-a.akamaihd.net/steamcommunity/public/images/apps/402840/6683693572b3a5ce8ac3267654f688a7a4ecf8c6.jpg"
  },
  {
    "name": "objective_id_249",
    "defaultvalue": 0,
    "displayName": "The Haunted Ship",
    "hidden": 0,
    "description": "Complete 'The Haunted Ship' objective by beating area 650 in the 'Ghostbeard's Greed' campaign while an annoying ship randomly shows up and steals all your gold.",
    "icon": "https://steamcdn-a.akamaihd.net/steamcommunity/public/images/apps/402840/902f8982e8ca02f756bcf0082881c3cd16ccbe8b.jpg",
    "icongray": "https://steamcdn-a.akamaihd.net/steamcommunity/public/images/apps/402840/6683693572b3a5ce8ac3267654f688a7a4ecf8c6.jpg"
  },
  {
    "name": "objective_id_250",
    "defaultvalue": 0,
    "displayName": "Follow the Breadcrumbs",
    "hidden": 0,
    "description": "Complete the 'Follow the Breadcrumbs' objective by beating area 675 in the 'Grimm's Idle Tales' campaign while escorting some helpless kids and fending off an evil witch.",
    "icon": "https://steamcdn-a.akamaihd.net/steamcommunity/public/images/apps/402840/80d6b622e664123df74f058c7dc9f0143d1887bd.jpg",
    "icongray": "https://steamcdn-a.akamaihd.net/steamcommunity/public/images/apps/402840/6683693572b3a5ce8ac3267654f688a7a4ecf8c6.jpg"
  },
  {
    "name": "objective_id_251",
    "defaultvalue": 0,
    "displayName": "Croakchief at Mugwarts",
    "hidden": 0,
    "description": "Complete the 'Croakchief at Mugwarts' objective by beating area 700 in the 'Mischief at Mugwarts' campaign while getting randomly frogged.",
    "icon": "https://steamcdn-a.akamaihd.net/steamcommunity/public/images/apps/402840/d471a3b9349deaed1f6a3ab594efadf7d9b80696.jpg",
    "icongray": "https://steamcdn-a.akamaihd.net/steamcommunity/public/images/apps/402840/6683693572b3a5ce8ac3267654f688a7a4ecf8c6.jpg"
  },
  {
    "name": "objective_id_252",
    "defaultvalue": 0,
    "displayName": "Wowza!",
    "hidden": 0,
    "description": "Complete the 'Wowza!' objective by beating area 725 in the 'Ready Player Two' campaign while a group of crafty wargmongers try to halt your progress.",
    "icon": "https://steamcdn-a.akamaihd.net/steamcommunity/public/images/apps/402840/c30c061d73711d79ad6cfdc218f947d88398948e.jpg",
    "icongray": "https://steamcdn-a.akamaihd.net/steamcommunity/public/images/apps/402840/6683693572b3a5ce8ac3267654f688a7a4ecf8c6.jpg"
  },
  {
    "name": "objective_id_260",
    "defaultvalue": 0,
    "displayName": "Echoes",
    "hidden": 0,
    "description": "Complete the 'Echoes' objective by beating area 600 in the 'Idols Through Time' campaign while under attack from yourselves.",
    "icon": "https://steamcdn-a.akamaihd.net/steamcommunity/public/images/apps/402840/8ecc39944cf535d52bb409d9636d2bdb753aba1f.jpg",
    "icongray": "https://steamcdn-a.akamaihd.net/steamcommunity/public/images/apps/402840/6683693572b3a5ce8ac3267654f688a7a4ecf8c6.jpg"
  },
  {
    "name": "objective_id_261",
    "defaultvalue": 0,
    "displayName": "Hamstrung",
    "hidden": 0,
    "description": "Complete the 'Hamstrung' objective by beating area 600 in the 'Idols Through Time' campaign without any useless DPS Crusaders.",
    "icon": "https://steamcdn-a.akamaihd.net/steamcommunity/public/images/apps/402840/4934afeb7337be62fecbd4c795ef115c22807d5b.jpg",
    "icongray": "https://steamcdn-a.akamaihd.net/steamcommunity/public/images/apps/402840/6683693572b3a5ce8ac3267654f688a7a4ecf8c6.jpg"
  },
  {
    "name": "objective_id_262",
    "defaultvalue": 0,
    "displayName": "The Lost World",
    "hidden": 0,
    "description": "Complete the 'The Lost World' objective by beating area 650 in the 'Idols Through Time' campaign while fending off tough new Dinos.",
    "icon": "https://steamcdn-a.akamaihd.net/steamcommunity/public/images/apps/402840/79aaf9862d03757c0791b4f9b09d31ba929be831.jpg",
    "icongray": "https://steamcdn-a.akamaihd.net/steamcommunity/public/images/apps/402840/6683693572b3a5ce8ac3267654f688a7a4ecf8c6.jpg"
  },
  {
    "name": "objective_id_263",
    "defaultvalue": 0,
    "displayName": "Atrophy",
    "hidden": 0,
    "description": "Complete the 'Atrophy' objective by beating area 700 in the 'Idols Through Time' campaign while your Crusaders constantly take damage.",
    "icon": "https://steamcdn-a.akamaihd.net/steamcommunity/public/images/apps/402840/3d9b1302a038bfd05ff9b89e52d1f225b75c2329.jpg",
    "icongray": "https://steamcdn-a.akamaihd.net/steamcommunity/public/images/apps/402840/6683693572b3a5ce8ac3267654f688a7a4ecf8c6.jpg"
  },
  {
    "name": "objective_id_284",
    "defaultvalue": 0,
    "displayName": "Park Pass",
    "hidden": 0,
    "description": "Complete the 'Park Pass' objective by beating area 400 in the 'Amusement Park of Doom' campaign.",
    "icon": "https://steamcdn-a.akamaihd.net/steamcommunity/public/images/apps/402840/a8befe85ed1ebdbe66b538acff2371e916708de9.jpg",
    "icongray": "https://steamcdn-a.akamaihd.net/steamcommunity/public/images/apps/402840/6683693572b3a5ce8ac3267654f688a7a4ecf8c6.jpg"
  },
  {
    "name": "objective_id_285",
    "defaultvalue": 0,
    "displayName": "Roller Coaster",
    "hidden": 0,
    "description": "Complete the 'Roller Coaster' objective by beating area 500 in the 'Amusement Park of Doom' campaign while your DPS goes up and down.",
    "icon": "https://steamcdn-a.akamaihd.net/steamcommunity/public/images/apps/402840/1637cbd2b5615e17203af4bced1251b5c2bb4493.jpg",
    "icongray": "https://steamcdn-a.akamaihd.net/steamcommunity/public/images/apps/402840/6683693572b3a5ce8ac3267654f688a7a4ecf8c6.jpg"
  },
  {
    "name": "objective_id_286",
    "defaultvalue": 0,
    "displayName": "Carousel",
    "hidden": 0,
    "description": "Complete the 'Carousel' objective by beating area 500 in the 'Amusement Park of Doom' campaign with a limited yet shifting selection of Crusaders.",
    "icon": "https://steamcdn-a.akamaihd.net/steamcommunity/public/images/apps/402840/8ffcf695d9febd86e5be0b589029de613e7bbd3c.jpg",
    "icongray": "https://steamcdn-a.akamaihd.net/steamcommunity/public/images/apps/402840/6683693572b3a5ce8ac3267654f688a7a4ecf8c6.jpg"
  },
  {
    "name": "objective_id_287",
    "defaultvalue": 0,
    "displayName": "You Must Be THIS Tall",
    "hidden": 0,
    "description": "Complete the 'You Must Be THIS Tall' objective by beating area 600 in the 'Amusement Park of Doom' campaign.",
    "icon": "https://steamcdn-a.akamaihd.net/steamcommunity/public/images/apps/402840/1ccbc40e8672b1973b145675fbc96b21fe1b1780.jpg",
    "icongray": "https://steamcdn-a.akamaihd.net/steamcommunity/public/images/apps/402840/6683693572b3a5ce8ac3267654f688a7a4ecf8c6.jpg"
  },
  {
    "name": "objective_id_288",
    "defaultvalue": 0,
    "displayName": "Ferris Wheel of Doom",
    "hidden": 0,
    "description": "Complete the 'Ferris Wheel of Doom' objective by beating area 700 in the 'Amusement Park of Doom' campaign while some of your Crusaders go for a ride.",
    "icon": "https://steamcdn-a.akamaihd.net/steamcommunity/public/images/apps/402840/7158152a4502878be5eb587a492bda566ed9de8a.jpg",
    "icongray": "https://steamcdn-a.akamaihd.net/steamcommunity/public/images/apps/402840/6683693572b3a5ce8ac3267654f688a7a4ecf8c6.jpg"
  },
  {
    "name": "objective_id_289",
    "defaultvalue": 0,
    "displayName": "The House of Horrors",
    "hidden": 0,
    "description": "Complete the 'The House of Horrors' objective by beating area 700 in the 'Amusement Park of Doom' campaign while exploring the House of Horrors.",
    "icon": "https://steamcdn-a.akamaihd.net/steamcommunity/public/images/apps/402840/4c465dfacbae6c862bacd96ab1e7ecf675463861.jpg",
    "icongray": "https://steamcdn-a.akamaihd.net/steamcommunity/public/images/apps/402840/6683693572b3a5ce8ac3267654f688a7a4ecf8c6.jpg"
  },
  {
    "name": "objective_id_363",
    "defaultvalue": 0,
    "displayName": "Log Ride",
    "hidden": 0,
    "description": "Complete the 'Log Ride' objective by beating area 650 in the 'Amusement Park of Doom' campaign",
    "icon": "https://steamcdn-a.akamaihd.net/steamcommunity/public/images/apps/402840/29a22e6044a7428489611393c38a81e3b75ba5d8.jpg",
    "icongray": "https://steamcdn-a.akamaihd.net/steamcommunity/public/images/apps/402840/6683693572b3a5ce8ac3267654f688a7a4ecf8c6.jpg"
  },
  {
    "name": "objective_id_364",
    "defaultvalue": 0,
    "displayName": "Mauled By Mascots",
    "hidden": 0,
    "description": "Complete the 'Mauled By Mascots' objective by beating area 750 in the 'Amusement Park of Doom' campaign without hurting any beloved characters.",
    "icon": "https://steamcdn-a.akamaihd.net/steamcommunity/public/images/apps/402840/447c63608c6ea1c3ef645c7ed0a017ba0754e876.jpg",
    "icongray": "https://steamcdn-a.akamaihd.net/steamcommunity/public/images/apps/402840/6683693572b3a5ce8ac3267654f688a7a4ecf8c6.jpg"
  },
  {
    "name": "objective_id_365",
    "defaultvalue": 0,
    "displayName": "Couples Day",
    "hidden": 0,
    "description": "Complete the 'Couples Day' objective by beating area 800 in the 'Amusement Park of Doom' campaign with an equal number of males and females.",
    "icon": "https://steamcdn-a.akamaihd.net/steamcommunity/public/images/apps/402840/8daf0da38deae03b60a071b5abbfce5e158c5eea.jpg",
    "icongray": "https://steamcdn-a.akamaihd.net/steamcommunity/public/images/apps/402840/6683693572b3a5ce8ac3267654f688a7a4ecf8c6.jpg"
  },
  {
    "name": "objective_id_366",
    "defaultvalue": 0,
    "displayName": "It's Over Nine... Hundred?",
    "hidden": 0,
    "description": "Complete the 'It's Over Nine... Hundred?' objective by beating area 900 in the 'Amusement Park of Doom' campaign. That's it.",
    "icon": "https://steamcdn-a.akamaihd.net/steamcommunity/public/images/apps/402840/6314f8d31c4166f3ddcfeff5ad0a36d534bda8b4.jpg",
    "icongray": "https://steamcdn-a.akamaihd.net/steamcommunity/public/images/apps/402840/6683693572b3a5ce8ac3267654f688a7a4ecf8c6.jpg"
  },
  {
    "name": "objective_id_253",
    "defaultvalue": 0,
    "displayName": "Reversion",
    "hidden": 0,
    "description": "Complete the 'Reversion' objective by beating area 750 in the 'Idols Through Time' campaign while your Crusaders de-level ever 25 areas.",
    "icon": "https://steamcdn-a.akamaihd.net/steamcommunity/public/images/apps/402840/3f57ca46e1ea57e58aa2ac94fcaa8f128802cd99.jpg",
    "icongray": "https://steamcdn-a.akamaihd.net/steamcommunity/public/images/apps/402840/6683693572b3a5ce8ac3267654f688a7a4ecf8c6.jpg"
  },
  {
    "name": "objective_id_373",
    "defaultvalue": 0,
    "displayName": "Water Guns of Doom",
    "hidden": 0,
    "description": "Complete the 'Water Guns of Doom' objective by beating area 775 in the 'Amusement Park of Doom' campaign while hoards of water-gun toting monsters attack.",
    "icon": "https://steamcdn-a.akamaihd.net/steamcommunity/public/images/apps/402840/f615876d1393bc2ff6a97ed498af787579fd5643.jpg",
    "icongray": "https://steamcdn-a.akamaihd.net/steamcommunity/public/images/apps/402840/6683693572b3a5ce8ac3267654f688a7a4ecf8c6.jpg"
  },
  {
    "name": "objective_id_638",
    "defaultvalue": 0,
    "displayName": "Getting to Know You",
    "hidden": 0,
    "description": "Complete the 'Getting to Know You' objective by beating area 500 in the 'Mme. Finklebottom's Revenge' campaign.",
    "icon": "https://steamcdn-a.akamaihd.net/steamcommunity/public/images/apps/402840/92a36bcdd63b20e5ba2491319fe8898bf7264d65.jpg",
    "icongray": "https://steamcdn-a.akamaihd.net/steamcommunity/public/images/apps/402840/b3f1d9f136dd9c620a6ff42209465bd17ffd7ed9.jpg"
  },
  {
    "name": "objective_id_639",
    "defaultvalue": 0,
    "displayName": "The Journey of the Ring",
    "hidden": 0,
    "description": "Complete the 'The Journey of the Ring' objective by beating area 600 with a pack of halflings in the 'Mme. Finklebottom's Revenge' campaign.",
    "icon": "https://steamcdn-a.akamaihd.net/steamcommunity/public/images/apps/402840/f2ab7b75b1c4d30a6f0e32b20d8c74993d7866f7.jpg",
    "icongray": "https://steamcdn-a.akamaihd.net/steamcommunity/public/images/apps/402840/b3f1d9f136dd9c620a6ff42209465bd17ffd7ed9.jpg"
  },
  {
    "name": "objective_id_640",
    "defaultvalue": 0,
    "displayName": "Hit the Open Road",
    "hidden": 0,
    "description": "Complete the 'Hit the Open Road' objective by beating area 650 in the 'Mme. Finklebottom's Revenge' campaign.",
    "icon": "https://steamcdn-a.akamaihd.net/steamcommunity/public/images/apps/402840/9454f7ad0343820c891946f5989020f6918066af.jpg",
    "icongray": "https://steamcdn-a.akamaihd.net/steamcommunity/public/images/apps/402840/b3f1d9f136dd9c620a6ff42209465bd17ffd7ed9.jpg"
  },
  {
    "name": "objective_id_641",
    "defaultvalue": 0,
    "displayName": "Call in the Eagles!",
    "hidden": 0,
    "description": "Complete the 'Call in the Eagles!' objective by beating area 650 with some hesitant eagles in the 'Mme. Finklebottom's Revenge' campaign.",
    "icon": "https://steamcdn-a.akamaihd.net/steamcommunity/public/images/apps/402840/01d70688f0dc822cb649fe7c40e1db97f41cb5b7.jpg",
    "icongray": "https://steamcdn-a.akamaihd.net/steamcommunity/public/images/apps/402840/b3f1d9f136dd9c620a6ff42209465bd17ffd7ed9.jpg"
  },
  {
    "name": "objective_id_642",
    "defaultvalue": 0,
    "displayName": "Let's Dial In",
    "hidden": 0,
    "description": "Complete the 'Let's Dial In' objective by beating area 650 while protecting the Astronomy Arch in the 'Mme. Finklebottom's Revenge' campaign.",
    "icon": "https://steamcdn-a.akamaihd.net/steamcommunity/public/images/apps/402840/2d907434b847c87f8f7dcf4f3213428e0de05916.jpg",
    "icongray": "https://steamcdn-a.akamaihd.net/steamcommunity/public/images/apps/402840/b3f1d9f136dd9c620a6ff42209465bd17ffd7ed9.jpg"
  },
  {
    "name": "objective_id_643",
    "defaultvalue": 0,
    "displayName": "It's the Climb",
    "hidden": 0,
    "description": "Complete the 'It's the Climb' objective by beating area 700 with a caterwauling songstress in the 'Mme. Finklebottom's Revenge' campaign.",
    "icon": "https://steamcdn-a.akamaihd.net/steamcommunity/public/images/apps/402840/33c1f26cafc7093ca99e65a3b6fbec0f5b547d52.jpg",
    "icongray": "https://steamcdn-a.akamaihd.net/steamcommunity/public/images/apps/402840/b3f1d9f136dd9c620a6ff42209465bd17ffd7ed9.jpg"
  },
  {
    "name": "objective_id_644",
    "defaultvalue": 0,
    "displayName": "It's Getting Hot in Here",
    "hidden": 0,
    "description": "Complete the 'It's Getting Hot in Here' objective by beating area 700 with a portable volcano in the 'Mme. Finklebottom's Revenge' campaign.",
    "icon": "https://steamcdn-a.akamaihd.net/steamcommunity/public/images/apps/402840/41c07f565ce499a29b6a6b74c4ca466690dc201e.jpg",
    "icongray": "https://steamcdn-a.akamaihd.net/steamcommunity/public/images/apps/402840/b3f1d9f136dd9c620a6ff42209465bd17ffd7ed9.jpg"
  },
  {
    "name": "objective_id_647",
    "defaultvalue": 0,
    "displayName": "The Long and Winding Road",
    "hidden": 0,
    "description": "Complete the 'The Long and Winding Road' objective by beating area 1000 in the 'Mme. Finklebottom's Revenge' campaign.",
    "icon": "https://steamcdn-a.akamaihd.net/steamcommunity/public/images/apps/402840/ff876be586453325c3a695fddb06c82314d76926.jpg",
    "icongray": "https://steamcdn-a.akamaihd.net/steamcommunity/public/images/apps/402840/b3f1d9f136dd9c620a6ff42209465bd17ffd7ed9.jpg"
  },
  {
    "name": "objective_id_645",
    "defaultvalue": 0,
    "displayName": "Vertical Limits",
    "hidden": 0,
    "description": "Complete the 'Vertical Limits' objective by beating area 700 while avoiding frostbite in the 'Mme. Finklebottom's Revenge' campaign.",
    "icon": "https://steamcdn-a.akamaihd.net/steamcommunity/public/images/apps/402840/e444c9aa1d97039226a1d3247d28fd8aadd3ca0f.jpg",
    "icongray": "https://steamcdn-a.akamaihd.net/steamcommunity/public/images/apps/402840/b3f1d9f136dd9c620a6ff42209465bd17ffd7ed9.jpg"
  },
  {
    "name": "objective_id_646",
    "defaultvalue": 0,
    "displayName": "Dead Snow",
    "hidden": 0,
    "description": "Complete the 'Dead Snow' objective by beating area 750 while looking out for zombies in the 'Mme. Finklebottom's Revenge' campaign.",
    "icon": "https://steamcdn-a.akamaihd.net/steamcommunity/public/images/apps/402840/878cb4d7005733c0a7028a82a695f6ef927beb0b.jpg",
    "icongray": "https://steamcdn-a.akamaihd.net/steamcommunity/public/images/apps/402840/b3f1d9f136dd9c620a6ff42209465bd17ffd7ed9.jpg"
  },
  {
    "name": "objective_id_648",
    "defaultvalue": 0,
    "displayName": "Everest",
    "hidden": 0,
    "description": "Complete the 'Everest' objective by beating area 800 if you can still breathe in the 'Mme. Finklebottom's Revenge' campaign.",
    "icon": "https://steamcdn-a.akamaihd.net/steamcommunity/public/images/apps/402840/cf21fe8cc33c01b662985a363ea989227800f4c2.jpg",
    "icongray": "https://steamcdn-a.akamaihd.net/steamcommunity/public/images/apps/402840/b3f1d9f136dd9c620a6ff42209465bd17ffd7ed9.jpg"
  }
]