﻿[
  {
    "name": "com.bulkypix.ACHIEVEMENT_00",
    "defaultvalue": 0,
    "displayName": "Collector",
    "hidden": 0,
    "description": "Retrieve all six asterisks in one chapter",
    "icon": "https://steamcdn-a.akamaihd.net/steamcommunity/public/images/apps/258890/f16dd949b32cda54bcead890cc7ce248c1f14682.jpg",
    "icongray": "https://steamcdn-a.akamaihd.net/steamcommunity/public/images/apps/258890/ae0cf9457a30b716c68b38d0479e5ecfe4e3b043.jpg"
  },
  {
    "name": "com.bulkypix.ACHIEVEMENT_01",
    "defaultvalue": 0,
    "displayName": "Explorer",
    "hidden": 0,
    "description": "Find one ampersand",
    "icon": "https://steamcdn-a.akamaihd.net/steamcommunity/public/images/apps/258890/752547c5a4b78421014ce754b2ef701f85993abb.jpg",
    "icongray": "https://steamcdn-a.akamaihd.net/steamcommunity/public/images/apps/258890/ae0cf9457a30b716c68b38d0479e5ecfe4e3b043.jpg"
  },
  {
    "name": "com.bulkypix.ACHIEVEMENT_02",
    "defaultvalue": 0,
    "displayName": "Letters",
    "hidden": 0,
    "description": "Collect all letters",
    "icon": "https://steamcdn-a.akamaihd.net/steamcommunity/public/images/apps/258890/71fc9f74a7ddb031a859390df46b9e912cd7957a.jpg",
    "icongray": "https://steamcdn-a.akamaihd.net/steamcommunity/public/images/apps/258890/ae0cf9457a30b716c68b38d0479e5ecfe4e3b043.jpg"
  },
  {
    "name": "com.bulkypix.ACHIEVEMENT_03",
    "defaultvalue": 0,
    "displayName": "Legendary",
    "hidden": 0,
    "description": "Retrieve all asterisks",
    "icon": "https://steamcdn-a.akamaihd.net/steamcommunity/public/images/apps/258890/c5684e276406f76ee1b5ed857bf657627eed43c7.jpg",
    "icongray": "https://steamcdn-a.akamaihd.net/steamcommunity/public/images/apps/258890/ae0cf9457a30b716c68b38d0479e5ecfe4e3b043.jpg"
  },
  {
    "name": "com.bulkypix.ACHIEVEMENT_04",
    "defaultvalue": 0,
    "displayName": "Ampersands",
    "hidden": 0,
    "description": "Locate the eight hidden ampersands",
    "icon": "https://steamcdn-a.akamaihd.net/steamcommunity/public/images/apps/258890/8ec125aa7a3a63a706892cb0e91276d4ab16a728.jpg",
    "icongray": "https://steamcdn-a.akamaihd.net/steamcommunity/public/images/apps/258890/ae0cf9457a30b716c68b38d0479e5ecfe4e3b043.jpg"
  },
  {
    "name": "com.bulkypix.ACHIEVEMENT_05",
    "defaultvalue": 0,
    "displayName": "End",
    "hidden": 0,
    "description": "Finish the game",
    "icon": "https://steamcdn-a.akamaihd.net/steamcommunity/public/images/apps/258890/27018781a692550928af8cad57f38a70148af395.jpg",
    "icongray": "https://steamcdn-a.akamaihd.net/steamcommunity/public/images/apps/258890/ae0cf9457a30b716c68b38d0479e5ecfe4e3b043.jpg"
  },
  {
    "name": "com.bulkypix.ACHIEVEMENT_06",
    "defaultvalue": 0,
    "displayName": "360",
    "hidden": 0,
    "description": "Make a 360° in the air",
    "icon": "https://steamcdn-a.akamaihd.net/steamcommunity/public/images/apps/258890/c4ca77d098ca0046413118363a7d8c1e0657e4ba.jpg",
    "icongray": "https://steamcdn-a.akamaihd.net/steamcommunity/public/images/apps/258890/ae0cf9457a30b716c68b38d0479e5ecfe4e3b043.jpg"
  },
  {
    "name": "com.bulkypix.ACHIEVEMENT_07",
    "defaultvalue": 0,
    "displayName": "Wall rider",
    "hidden": 0,
    "description": "Make seven wall jumps in a row",
    "icon": "https://steamcdn-a.akamaihd.net/steamcommunity/public/images/apps/258890/0ec2853debca90af16eabb847e54bc9b7c810c99.jpg",
    "icongray": "https://steamcdn-a.akamaihd.net/steamcommunity/public/images/apps/258890/ae0cf9457a30b716c68b38d0479e5ecfe4e3b043.jpg"
  },
  {
    "name": "com.bulkypix.ACHIEVEMENT_08",
    "defaultvalue": 0,
    "displayName": "Share knowledge",
    "hidden": 0,
    "description": "Share a post on Facebook or Twitter",
    "icon": "https://steamcdn-a.akamaihd.net/steamcommunity/public/images/apps/258890/f6da3999323de0931d5bda18ad1a6cfa6297c1f2.jpg",
    "icongray": "https://steamcdn-a.akamaihd.net/steamcommunity/public/images/apps/258890/ae0cf9457a30b716c68b38d0479e5ecfe4e3b043.jpg"
  },
  {
    "name": "com.bulkypix.ACHIEVEMENT_09",
    "defaultvalue": 0,
    "displayName": "Read knowledge",
    "hidden": 0,
    "description": "Read all the books",
    "icon": "https://steamcdn-a.akamaihd.net/steamcommunity/public/images/apps/258890/ed8824e36d6739b7f89d779d1214494f8e2dc08d.jpg",
    "icongray": "https://steamcdn-a.akamaihd.net/steamcommunity/public/images/apps/258890/ae0cf9457a30b716c68b38d0479e5ecfe4e3b043.jpg"
  },
  {
    "name": "com.bulkypix.ACHIEVEMENT_10",
    "defaultvalue": 0,
    "displayName": "Desperado",
    "hidden": 0,
    "description": "Finish the Clarendon level without dying",
    "icon": "https://steamcdn-a.akamaihd.net/steamcommunity/public/images/apps/258890/0f4b54294bbd7e9123e10fda12c7c70fa2014103.jpg",
    "icongray": "https://steamcdn-a.akamaihd.net/steamcommunity/public/images/apps/258890/ae0cf9457a30b716c68b38d0479e5ecfe4e3b043.jpg"
  },
  {
    "name": "com.bulkypix.ACHIEVEMENT_11",
    "defaultvalue": 0,
    "displayName": "LOL",
    "hidden": 0,
    "description": "Finish the secret level",
    "icon": "https://steamcdn-a.akamaihd.net/steamcommunity/public/images/apps/258890/f2646553cdf3b0ea720757191694f762b09c5778.jpg",
    "icongray": "https://steamcdn-a.akamaihd.net/steamcommunity/public/images/apps/258890/ae0cf9457a30b716c68b38d0479e5ecfe4e3b043.jpg"
  }
]