﻿[
  {
    "name": "HurtMePlenty_End",
    "defaultvalue": 0,
    "displayName": "Plentiful",
    "hidden": 0,
    "description": "Completed aftercare in Hurt Me Plenty.",
    "icon": "https://steamcdn-a.akamaihd.net/steamcommunity/public/images/apps/385370/825d12762d83e80c2bf0489cb43df023fc69fa30.jpg",
    "icongray": "https://steamcdn-a.akamaihd.net/steamcommunity/public/images/apps/385370/8053f02de5506542c4ddc81cdf604a992f0eb927.jpg"
  },
  {
    "name": "Succulent_End",
    "defaultvalue": 0,
    "displayName": "Succulent",
    "hidden": 0,
    "description": "Got utterly devoured in Succulent.",
    "icon": "https://steamcdn-a.akamaihd.net/steamcommunity/public/images/apps/385370/46823d981ce1c0f65417885267221148f60f7d19.jpg",
    "icongray": "https://steamcdn-a.akamaihd.net/steamcommunity/public/images/apps/385370/9d113cb2c710cd4e3cc7281a92db8d229588e136.jpg"
  },
  {
    "name": "StickShift_EndA",
    "defaultvalue": 0,
    "displayName": "Autoerotic",
    "hidden": 0,
    "description": "Reached climax in Stick Shift.",
    "icon": "https://steamcdn-a.akamaihd.net/steamcommunity/public/images/apps/385370/b0fd29667d2ad2f2faf99684d11d1009ec27bd8b.jpg",
    "icongray": "https://steamcdn-a.akamaihd.net/steamcommunity/public/images/apps/385370/762c9e6618246c390a867be012c5954c0f820662.jpg"
  },
  {
    "name": "StickShift_EndB",
    "defaultvalue": 0,
    "displayName": "Is There A Problem, Officer?",
    "hidden": 1,
    "icon": "https://steamcdn-a.akamaihd.net/steamcommunity/public/images/apps/385370/42ab272a6dd920038c8d743cdeeefdde2f06a3f1.jpg",
    "icongray": "https://steamcdn-a.akamaihd.net/steamcommunity/public/images/apps/385370/0c8d995cc42fd2125653f3a51fbe12fdfc99b6cb.jpg"
  },
  {
    "name": "CondomCorps_End",
    "defaultvalue": 0,
    "displayName": "Shafted",
    "hidden": 1,
    "icon": "https://steamcdn-a.akamaihd.net/steamcommunity/public/images/apps/385370/91326ec409033e7cb8cf4d4a0e4b5396d4fa9eeb.jpg",
    "icongray": "https://steamcdn-a.akamaihd.net/steamcommunity/public/images/apps/385370/49119d802e4a2f2961066580649aabc107852cce.jpg"
  }
]