﻿{
  "Dlcs": {
    "903410": {
      "Name": "Sounds of Her Love ~We'll always be together~",
      "ImageUrl": "https://steamcdn-a.akamaihd.net/steam/apps/903410/header.jpg?t=1591966076"
    }
  },
  "Name": "Sounds of Her Love",
  "AppId": "603880",
  "ImageUrl": "https://steamcdn-a.akamaihd.net/steam/apps/603880/header.jpg?t=1594995968",
  "Languages": [
    "english"
  ],
  "Platforms": {
    "windows": true,
    "mac": true,
    "linux": true
  }
}