﻿[
  {
    "name": "meters",
    "defaultvalue": 0,
    "displayName": "Total meters sailed"
  },
  {
    "name": "temp_goals",
    "defaultvalue": 0,
    "displayName": "Total Temp Goals Beaten"
  },
  {
    "name": "coins",
    "defaultvalue": 0,
    "displayName": "Total Coins Collected"
  },
  {
    "name": "upgrades",
    "defaultvalue": 0,
    "displayName": "Total Upgrades Bought"
  }
]