﻿[
  {
    "name": "A13000101",
    "defaultvalue": 0,
    "displayName": "Pet War",
    "hidden": 0,
    "description": "Acquire Summoners",
    "icon": "https://steamcdn-a.akamaihd.net/steamcommunity/public/images/apps/765790/78393f0e48cd11c3af853589cd64b0a5a3a8b468.jpg",
    "icongray": "https://steamcdn-a.akamaihd.net/steamcommunity/public/images/apps/765790/189160d836925cb26cd9afea78325bf38c6e1cb1.jpg"
  },
  {
    "name": "A13000201",
    "defaultvalue": 0,
    "displayName": "Sky Fort",
    "hidden": 0,
    "description": "Acquire Sky Disrupters",
    "icon": "https://steamcdn-a.akamaihd.net/steamcommunity/public/images/apps/765790/064fe215c5d7b1b066693763e7bd621202418e5e.jpg",
    "icongray": "https://steamcdn-a.akamaihd.net/steamcommunity/public/images/apps/765790/293ea485c1a012a0eacdc3386a6f6915a0f1f4d2.jpg"
  },
  {
    "name": "A13000301",
    "defaultvalue": 0,
    "displayName": "Calm Down",
    "hidden": 0,
    "description": "Acquire Raging Skeletons",
    "icon": "https://steamcdn-a.akamaihd.net/steamcommunity/public/images/apps/765790/4206f6b8934d63cc888817b42313825ad892e1b4.jpg",
    "icongray": "https://steamcdn-a.akamaihd.net/steamcommunity/public/images/apps/765790/629fd73bf730352f6cbce69337d868b6398db3b7.jpg"
  },
  {
    "name": "A13000401",
    "defaultvalue": 0,
    "displayName": "Remote Strike",
    "hidden": 0,
    "description": "Acquire Dominators",
    "icon": "https://steamcdn-a.akamaihd.net/steamcommunity/public/images/apps/765790/2b1814dd8d3c1744373a5e4827b57d2d0f168a0a.jpg",
    "icongray": "https://steamcdn-a.akamaihd.net/steamcommunity/public/images/apps/765790/e12f7a36564394a453cee65406a5c4c6ec6ff19e.jpg"
  },
  {
    "name": "A13000501",
    "defaultvalue": 0,
    "displayName": "Agitator",
    "hidden": 0,
    "description": "Acquire War Drumcarts",
    "icon": "https://steamcdn-a.akamaihd.net/steamcommunity/public/images/apps/765790/2f9cc8c9043d07269503349d5efae63dc34e1579.jpg",
    "icongray": "https://steamcdn-a.akamaihd.net/steamcommunity/public/images/apps/765790/52c2da1d1a17449e2c4bc6c7b13fa0629a9153e0.jpg"
  },
  {
    "name": "A13000601",
    "defaultvalue": 0,
    "displayName": "Under the Shadow",
    "hidden": 0,
    "description": "Acquire Shadow Assassins",
    "icon": "https://steamcdn-a.akamaihd.net/steamcommunity/public/images/apps/765790/f6c6af363fb3ed17ca50aceda4148889e49bb284.jpg",
    "icongray": "https://steamcdn-a.akamaihd.net/steamcommunity/public/images/apps/765790/33ec78a9982530421d5afffe03fbeead62b33183.jpg"
  },
  {
    "name": "A13000701",
    "defaultvalue": 0,
    "displayName": "Card Owner",
    "hidden": 0,
    "description": "Acquire 25 Cards",
    "icon": "https://steamcdn-a.akamaihd.net/steamcommunity/public/images/apps/765790/f59fbb6537fdb66959a8902d49441575b7af1644.jpg",
    "icongray": "https://steamcdn-a.akamaihd.net/steamcommunity/public/images/apps/765790/50e6c66535f07d076678c71bd377b608dd093978.jpg"
  },
  {
    "name": "A13000801",
    "defaultvalue": 0,
    "displayName": "In the Name of Chaos",
    "hidden": 0,
    "description": "Upgrade the Nazgul King to Lv13.",
    "icon": "https://steamcdn-a.akamaihd.net/steamcommunity/public/images/apps/765790/109606ad2483796bb51b4bf5c074906aee974b87.jpg",
    "icongray": "https://steamcdn-a.akamaihd.net/steamcommunity/public/images/apps/765790/df6e30124fd2420a5c1c01a992faa9f7cd75358c.jpg"
  },
  {
    "name": "A13000901",
    "defaultvalue": 0,
    "displayName": "For the Sake of Light",
    "hidden": 0,
    "description": "Upgrade the Light Priest to Lv13.",
    "icon": "https://steamcdn-a.akamaihd.net/steamcommunity/public/images/apps/765790/1c753412763a5e58ea69d8c49709da4036cab2fe.jpg",
    "icongray": "https://steamcdn-a.akamaihd.net/steamcommunity/public/images/apps/765790/1aff03aeeaa410c4f01155c556f83814b2f733ad.jpg"
  },
  {
    "name": "A13001001",
    "defaultvalue": 0,
    "displayName": "Machinery Master",
    "hidden": 0,
    "description": "Upgrade the Gnome Doctor to Lv13.",
    "icon": "https://steamcdn-a.akamaihd.net/steamcommunity/public/images/apps/765790/c147eb6fde631b9aca0b75a4110b09fbba95a6a3.jpg",
    "icongray": "https://steamcdn-a.akamaihd.net/steamcommunity/public/images/apps/765790/35ccf199746267d0a16fe5f97f5c026833524488.jpg"
  },
  {
    "name": "A13001101",
    "defaultvalue": 0,
    "displayName": "Nuts",
    "hidden": 0,
    "description": "Upgrade your character to Lv15.",
    "icon": "https://steamcdn-a.akamaihd.net/steamcommunity/public/images/apps/765790/c462b62630b1a2d4da5720f91ba2347969cf7442.jpg",
    "icongray": "https://steamcdn-a.akamaihd.net/steamcommunity/public/images/apps/765790/5feaea477588537406964d0b57320a5d99556bd8.jpg"
  },
  {
    "name": "A13001201",
    "defaultvalue": 0,
    "displayName": "Chaos Approaching",
    "hidden": 0,
    "description": "Complete all Common stages in Chaos.",
    "icon": "https://steamcdn-a.akamaihd.net/steamcommunity/public/images/apps/765790/22040451aafeed7b998e1ecef50eba1c57c9b525.jpg",
    "icongray": "https://steamcdn-a.akamaihd.net/steamcommunity/public/images/apps/765790/757dfb384fd6eaf7a987562a09b1797fee8f9e69.jpg"
  },
  {
    "name": "A13001202",
    "defaultvalue": 0,
    "displayName": "Legend of Erin",
    "hidden": 0,
    "description": "Complete all Common stages in Templar.",
    "icon": "https://steamcdn-a.akamaihd.net/steamcommunity/public/images/apps/765790/4b61868f184c9bea4e6898971b85f1782d0c6c64.jpg",
    "icongray": "https://steamcdn-a.akamaihd.net/steamcommunity/public/images/apps/765790/7ccacc441b90f860b011f7f7f6f2c2747e137176.jpg"
  },
  {
    "name": "A13001203",
    "defaultvalue": 0,
    "displayName": "Struggling",
    "hidden": 0,
    "description": "Complete all Common stages in Gnome.",
    "icon": "https://steamcdn-a.akamaihd.net/steamcommunity/public/images/apps/765790/3f8ed2eeb29f61435b22c6ef18f7aa9ed7bff886.jpg",
    "icongray": "https://steamcdn-a.akamaihd.net/steamcommunity/public/images/apps/765790/537cdd2382383547ea9ad2d4b39981c4f6281bdf.jpg"
  },
  {
    "name": "A13001401",
    "defaultvalue": 0,
    "displayName": "Gladiator",
    "hidden": 0,
    "description": "Reach Tier 8 Arena.",
    "icon": "https://steamcdn-a.akamaihd.net/steamcommunity/public/images/apps/765790/5deb06da8abb9bc979f5647da0a0c1fb853164a8.jpg",
    "icongray": "https://steamcdn-a.akamaihd.net/steamcommunity/public/images/apps/765790/83cae410c0101e3059a59f77017cb965f72143d5.jpg"
  },
  {
    "name": "A13001402",
    "defaultvalue": 0,
    "displayName": "Over the Top",
    "hidden": 0,
    "description": "Reach Tier 10 Arena.",
    "icon": "https://steamcdn-a.akamaihd.net/steamcommunity/public/images/apps/765790/b32a2dcabf33f3319a07b737790bf629ff17fc1f.jpg",
    "icongray": "https://steamcdn-a.akamaihd.net/steamcommunity/public/images/apps/765790/c0a7baabf63a1e22865d4dedf6b73e9649655860.jpg"
  },
  {
    "name": "A13001501",
    "defaultvalue": 0,
    "displayName": "Triple Win",
    "hidden": 0,
    "description": "Defeat your opponents 3 times in a row.",
    "icon": "https://steamcdn-a.akamaihd.net/steamcommunity/public/images/apps/765790/69a6b024c6b52318b9c5736e6b4a1bdbb090008d.jpg",
    "icongray": "https://steamcdn-a.akamaihd.net/steamcommunity/public/images/apps/765790/75e20939e9b67900f71b8a61f6270586d1415360.jpg"
  }
]