﻿[
  {
    "name": "m_nTotalGamesPlayed",
    "defaultvalue": 0,
    "displayName": ""
  },
  {
    "name": "m_nTotalNumWins",
    "defaultvalue": 0,
    "displayName": ""
  },
  {
    "name": "m_nTotalNumLosses",
    "defaultvalue": 0,
    "displayName": ""
  },
  {
    "name": "m_nNumDeaths",
    "defaultvalue": 0,
    "displayName": ""
  },
  {
    "name": "m_nNumEnemyKills",
    "defaultvalue": 0,
    "displayName": ""
  },
  {
    "name": "m_nKillsWithPistol",
    "defaultvalue": 0,
    "displayName": ""
  },
  {
    "name": "m_nKillsWithAssault",
    "defaultvalue": 0,
    "displayName": ""
  },
  {
    "name": "m_nKillsWithShotgun",
    "defaultvalue": 0,
    "displayName": ""
  },
  {
    "name": "m_nKillsWithRocket",
    "defaultvalue": 0,
    "displayName": ""
  },
  {
    "name": "m_nKillsWithSniper",
    "defaultvalue": 0,
    "displayName": ""
  },
  {
    "name": "m_nKillsWithMinigun",
    "defaultvalue": 0,
    "displayName": ""
  },
  {
    "name": "m_nKillsWithArmcutter",
    "defaultvalue": 0,
    "displayName": ""
  },
  {
    "name": "m_nKillsWithGrenade",
    "defaultvalue": 0,
    "displayName": ""
  },
  {
    "name": "m_nKillsWithC4",
    "defaultvalue": 0,
    "displayName": ""
  },
  {
    "name": "m_nKillsWithPlasma",
    "defaultvalue": 0,
    "displayName": ""
  },
  {
    "name": "m_nKillsWithMagma",
    "defaultvalue": 0,
    "displayName": ""
  },
  {
    "name": "m_nKillsWithoutDying",
    "defaultvalue": 0,
    "displayName": ""
  },
  {
    "name": "m_flSecondsSurvived",
    "defaultvalue": 0,
    "displayName": ""
  },
  {
    "name": "m_flTotalSecondsAlive",
    "defaultvalue": 0,
    "displayName": ""
  },
  {
    "name": "m_nMatchSurvived",
    "defaultvalue": 0,
    "displayName": ""
  },
  {
    "name": "m_nWonDM",
    "defaultvalue": 0,
    "displayName": ""
  },
  {
    "name": "m_nWonCTF",
    "defaultvalue": 0,
    "displayName": ""
  },
  {
    "name": "m_nWonDTB",
    "defaultvalue": 0,
    "displayName": ""
  },
  {
    "name": "m_nWonTDM",
    "defaultvalue": 0,
    "displayName": ""
  },
  {
    "name": "m_nWonDM6",
    "defaultvalue": 0,
    "displayName": ""
  },
  {
    "name": "m_nWonCTF6",
    "defaultvalue": 0,
    "displayName": ""
  },
  {
    "name": "m_nWonDTB6",
    "defaultvalue": 0,
    "displayName": ""
  },
  {
    "name": "m_nWonTDM6",
    "defaultvalue": 0,
    "displayName": ""
  },
  {
    "name": "m_nM1Played",
    "defaultvalue": 0,
    "displayName": ""
  },
  {
    "name": "m_nM2Played",
    "defaultvalue": 0,
    "displayName": ""
  },
  {
    "name": "m_nM3Played",
    "defaultvalue": 0,
    "displayName": ""
  },
  {
    "name": "m_nM4Played",
    "defaultvalue": 0,
    "displayName": ""
  },
  {
    "name": "m_nM5Played",
    "defaultvalue": 0,
    "displayName": ""
  },
  {
    "name": "m_nM6Played",
    "defaultvalue": 0,
    "displayName": ""
  },
  {
    "name": "m_nM7Played",
    "defaultvalue": 0,
    "displayName": ""
  },
  {
    "name": "m_nM8Played",
    "defaultvalue": 0,
    "displayName": ""
  },
  {
    "name": "m_nM9Played",
    "defaultvalue": 0,
    "displayName": ""
  },
  {
    "name": "m_nM10Played",
    "defaultvalue": 0,
    "displayName": ""
  },
  {
    "name": "m_nMOtherPlayed",
    "defaultvalue": 0,
    "displayName": ""
  },
  {
    "name": "m_nDoubleKills",
    "defaultvalue": 0,
    "displayName": ""
  },
  {
    "name": "m_nTrippleKills",
    "defaultvalue": 0,
    "displayName": ""
  },
  {
    "name": "m_nQuadKills",
    "defaultvalue": 0,
    "displayName": ""
  },
  {
    "name": "m_nCarnageKills",
    "defaultvalue": 0,
    "displayName": ""
  },
  {
    "name": "m_nTotalGamesPlayed6",
    "defaultvalue": 0,
    "displayName": ""
  },
  {
    "name": "ras",
    "defaultvalue": 0,
    "displayName": ""
  },
  {
    "name": "m_nTotalNumWins6",
    "defaultvalue": 0,
    "displayName": ""
  },
  {
    "name": "m_nTotalNumWins_bf",
    "defaultvalue": 0,
    "displayName": ""
  },
  {
    "name": "m_nTotalNumLosses_bf",
    "defaultvalue": 0,
    "displayName": ""
  },
  {
    "name": "m_nNumEnemyKills_bf",
    "defaultvalue": 0,
    "displayName": ""
  },
  {
    "name": "m_nKillsWithoutDying_bf",
    "defaultvalue": 0,
    "displayName": ""
  },
  {
    "name": "m_nNumDeaths_bf",
    "defaultvalue": 0,
    "displayName": ""
  },
  {
    "name": "m_nWonDM_bf",
    "defaultvalue": 0,
    "displayName": ""
  },
  {
    "name": "m_nWonTDM_bf",
    "defaultvalue": 0,
    "displayName": ""
  },
  {
    "name": "m_nWonCTF_bf",
    "defaultvalue": 0,
    "displayName": ""
  },
  {
    "name": "m_nWonDTB_bf",
    "defaultvalue": 0,
    "displayName": ""
  }
]