﻿{
  "Dlcs": {},
  "Name": "Clouds & Sheep 2",
  "AppId": "439800",
  "ImageUrl": "https://steamcdn-a.akamaihd.net/steam/apps/439800/header.jpg?t=1561724974",
  "Languages": [
    "english",
    "french",
    "italian",
    "german",
    "spanish",
    "dutch",
    "japanese",
    "korean",
    "portuguese",
    "russian",
    "schinese",
    "thai",
    "tchinese",
    "turkish"
  ],
  "Platforms": {
    "windows": true,
    "mac": true,
    "linux": true
  }
}