﻿{
  "Dlcs": {},
  "Name": "Solitaire Knights",
  "AppId": "820090",
  "ImageUrl": "https://steamcdn-a.akamaihd.net/steam/apps/820090/header.jpg?t=1532867736",
  "Languages": [
    "english"
  ],
  "Platforms": {
    "windows": true,
    "mac": true,
    "linux": false
  }
}