﻿{
  "Dlcs": {},
  "Name": "Cluck Yegger in Escape From The Planet of The Poultroid",
  "AppId": "416800",
  "ImageUrl": "https://steamcdn-a.akamaihd.net/steam/apps/416800/header.jpg?t=1447378783",
  "Languages": [
    "english"
  ],
  "Platforms": {
    "windows": true,
    "mac": true,
    "linux": true
  }
}