﻿[
  {
    "name": "asaga",
    "defaultvalue": 0,
    "displayName": "Wedding (Not) Crashed",
    "hidden": 0,
    "description": "Complete Asaga's route",
    "icon": "https://steamcdn-a.akamaihd.net/steamcommunity/public/images/apps/340730/0ccd2560ea28875818a8687e5a0ef468b732701c.jpg",
    "icongray": "https://steamcdn-a.akamaihd.net/steamcommunity/public/images/apps/340730/508577975c77b64d66e0f3c6e028929ce02ea117.jpg"
  },
  {
    "name": "ava",
    "defaultvalue": 0,
    "displayName": "Noticed By Pres",
    "hidden": 0,
    "description": "Complete Ava's route",
    "icon": "https://steamcdn-a.akamaihd.net/steamcommunity/public/images/apps/340730/4286768a9d0242b58657e43c0f50c1b5ce8c64ba.jpg",
    "icongray": "https://steamcdn-a.akamaihd.net/steamcommunity/public/images/apps/340730/4100604f1ecd33045563c78a102eb5b29a98e699.jpg"
  },
  {
    "name": "sola",
    "defaultvalue": 0,
    "displayName": "Indecent Shrine Maiden",
    "hidden": 0,
    "description": "Complete Sola's route",
    "icon": "https://steamcdn-a.akamaihd.net/steamcommunity/public/images/apps/340730/5cc9aae52dc6f54dd55d3a6ca658456d46c79e73.jpg",
    "icongray": "https://steamcdn-a.akamaihd.net/steamcommunity/public/images/apps/340730/1f26b4fa7a96414d2175e0ea70f439ee881b85d5.jpg"
  },
  {
    "name": "chigara",
    "defaultvalue": 0,
    "displayName": "Horny Pastry Puffer",
    "hidden": 0,
    "description": "Complete Chigara's route",
    "icon": "https://steamcdn-a.akamaihd.net/steamcommunity/public/images/apps/340730/016e4fa714077a980c2f040f599f312e732180bf.jpg",
    "icongray": "https://steamcdn-a.akamaihd.net/steamcommunity/public/images/apps/340730/8bf44d06dcaa214c47dacbdcc79a29ef4a3ff775.jpg"
  },
  {
    "name": "complete",
    "defaultvalue": 0,
    "displayName": "Full Completion",
    "hidden": 0,
    "description": "Complete all four routes",
    "icon": "https://steamcdn-a.akamaihd.net/steamcommunity/public/images/apps/340730/3fe87c5280c7d608d9b45e0121902636104b92e7.jpg",
    "icongray": "https://steamcdn-a.akamaihd.net/steamcommunity/public/images/apps/340730/676574a89f505bde8c1ef0e3ffcd69257cb64a02.jpg"
  },
  {
    "name": "champ",
    "defaultvalue": 0,
    "displayName": "Champ",
    "hidden": 0,
    "description": "Complete the game beginning to finish on space whale difficulty",
    "icon": "https://steamcdn-a.akamaihd.net/steamcommunity/public/images/apps/340730/691c27f053db1cc861c19462b7760b90d1061360.jpg",
    "icongray": "https://steamcdn-a.akamaihd.net/steamcommunity/public/images/apps/340730/ab64f1ae434397a3abbaeef8d70e9d247673de47.jpg"
  },
  {
    "name": "academic",
    "defaultvalue": 0,
    "displayName": "Academic",
    "hidden": 0,
    "description": "Visit the science museum 400 times in a single game",
    "icon": "https://steamcdn-a.akamaihd.net/steamcommunity/public/images/apps/340730/dfa6df0615ea4d4bdf15ce2927f5f0b629c3eff6.jpg",
    "icongray": "https://steamcdn-a.akamaihd.net/steamcommunity/public/images/apps/340730/9dc3b896dc5f07643ebc2aa3532021302c55e6d1.jpg"
  },
  {
    "name": "devout",
    "defaultvalue": 0,
    "displayName": "Devout",
    "hidden": 0,
    "description": "Visit the shrine 400 times in a single game",
    "icon": "https://steamcdn-a.akamaihd.net/steamcommunity/public/images/apps/340730/07cfb3cf27ccadb907b524ece81ab7c17ac3b088.jpg",
    "icongray": "https://steamcdn-a.akamaihd.net/steamcommunity/public/images/apps/340730/356b4532bdd302a6f5609bf9a8eed5dda7765c33.jpg"
  },
  {
    "name": "dog",
    "defaultvalue": 0,
    "displayName": "Walk the Dog",
    "hidden": 0,
    "description": "Visit the park 400 times in a single game",
    "icon": "https://steamcdn-a.akamaihd.net/steamcommunity/public/images/apps/340730/9d59a0c53732fae928f65b5b98bab784ffa267ea.jpg",
    "icongray": "https://steamcdn-a.akamaihd.net/steamcommunity/public/images/apps/340730/65f268346ca7572ddff94890c882d3f7da2e2284.jpg"
  },
  {
    "name": "gamer",
    "defaultvalue": 0,
    "displayName": "Gamer",
    "hidden": 0,
    "description": "Visit the arcade 400 times in a single game",
    "icon": "https://steamcdn-a.akamaihd.net/steamcommunity/public/images/apps/340730/b202720cd4d3e57a2ecb8aa5daa5dddac70b0742.jpg",
    "icongray": "https://steamcdn-a.akamaihd.net/steamcommunity/public/images/apps/340730/3eb20f2586da1fb5283e5cc3a1d3ac1f86e35c27.jpg"
  },
  {
    "name": "genius",
    "defaultvalue": 0,
    "displayName": "Genius",
    "hidden": 0,
    "description": "Rank in the 99th percentile on an exam",
    "icon": "https://steamcdn-a.akamaihd.net/steamcommunity/public/images/apps/340730/06bc1c462a8a2aceaab879bfd750658d15433c0f.jpg",
    "icongray": "https://steamcdn-a.akamaihd.net/steamcommunity/public/images/apps/340730/bd1daa409bb167e5c9328a7ffc5b3e5d77c59f30.jpg"
  },
  {
    "name": "landslide",
    "defaultvalue": 0,
    "displayName": "Landslide Victory",
    "hidden": 0,
    "description": "Win the election with all 560 votes in your favor",
    "icon": "https://steamcdn-a.akamaihd.net/steamcommunity/public/images/apps/340730/1630a4cc6c3e95c5d9bda166f43b104eef4c2198.jpg",
    "icongray": "https://steamcdn-a.akamaihd.net/steamcommunity/public/images/apps/340730/5a42c3559de074b6e150f39b467d82cce635cacd.jpg"
  },
  {
    "name": "member",
    "defaultvalue": 0,
    "displayName": "Club Recruiter",
    "hidden": 0,
    "description": "Have a total of 200 members between all your clubs.",
    "icon": "https://steamcdn-a.akamaihd.net/steamcommunity/public/images/apps/340730/d41949f0127e802833d980a7d30d18a27acc9f1c.jpg",
    "icongray": "https://steamcdn-a.akamaihd.net/steamcommunity/public/images/apps/340730/60d0b4afa94586aa9253a78094e5801609df1de8.jpg"
  },
  {
    "name": "readiness",
    "defaultvalue": 0,
    "displayName": "Club Trainer",
    "hidden": 0,
    "description": "Have a total of 1000 readiness between all your clubs",
    "icon": "https://steamcdn-a.akamaihd.net/steamcommunity/public/images/apps/340730/8fd3575ea1a74d8748b59fc6b0fe4768e5ef0fa7.jpg",
    "icongray": "https://steamcdn-a.akamaihd.net/steamcommunity/public/images/apps/340730/047bc80d46fe708a40160dec19e240879b1433f8.jpg"
  },
  {
    "name": "money",
    "defaultvalue": 0,
    "displayName": "Rich!!!",
    "hidden": 0,
    "description": "Save up a collection of 500 credits",
    "icon": "https://steamcdn-a.akamaihd.net/steamcommunity/public/images/apps/340730/6ee00eac2d9875a3dcf3dfe456e026330617c5b6.jpg",
    "icongray": "https://steamcdn-a.akamaihd.net/steamcommunity/public/images/apps/340730/2982c4c7804fad5c444a2f0c892eda7cb7c20f8a.jpg"
  },
  {
    "name": "siscon",
    "defaultvalue": 0,
    "displayName": "Hentai Siscon",
    "hidden": 0,
    "description": "Successfully flirt with Maray",
    "icon": "https://steamcdn-a.akamaihd.net/steamcommunity/public/images/apps/340730/5df2f69cd5a003c1108407d4a323fecd3bebece5.jpg",
    "icongray": "https://steamcdn-a.akamaihd.net/steamcommunity/public/images/apps/340730/b237093e8461a07ac84a9684465cdd10a9c11d27.jpg"
  },
  {
    "name": "soldout",
    "defaultvalue": 0,
    "displayName": "Soldout",
    "hidden": 0,
    "description": "Purchase every single item at the store and shrine",
    "icon": "https://steamcdn-a.akamaihd.net/steamcommunity/public/images/apps/340730/4714645dcc27380f013edde7f7e55c399697faec.jpg",
    "icongray": "https://steamcdn-a.akamaihd.net/steamcommunity/public/images/apps/340730/46fa15cc7e7dbb4046931657fdb4af8ae9e05620.jpg"
  },
  {
    "name": "ripped",
    "defaultvalue": 0,
    "displayName": "Ripped",
    "hidden": 0,
    "description": "Exercise at the gym 200 times in a single game",
    "icon": "https://steamcdn-a.akamaihd.net/steamcommunity/public/images/apps/340730/b9b96db22182f424f853e20d7378f8415903f1cc.jpg",
    "icongray": "https://steamcdn-a.akamaihd.net/steamcommunity/public/images/apps/340730/78e3ca82661416c318057d0ff53350d8c2b6445c.jpg"
  },
  {
    "name": "challenge",
    "defaultvalue": 0,
    "displayName": "Living on the Edge",
    "hidden": 0,
    "description": "Go 20 days with your stress over 50",
    "icon": "https://steamcdn-a.akamaihd.net/steamcommunity/public/images/apps/340730/4375abbc89e382869945bf0bf6793bf149491749.jpg",
    "icongray": "https://steamcdn-a.akamaihd.net/steamcommunity/public/images/apps/340730/84afc7c953ffcb99015f006fa389c718a2fdfe04.jpg"
  },
  {
    "name": "everyone",
    "defaultvalue": 0,
    "displayName": "Everyone's Kayto",
    "hidden": 0,
    "description": "Have 10 hearts with every girl",
    "icon": "https://steamcdn-a.akamaihd.net/steamcommunity/public/images/apps/340730/0b43fb5445c9f81cd299133061db600f9b4c9896.jpg",
    "icongray": "https://steamcdn-a.akamaihd.net/steamcommunity/public/images/apps/340730/86d0bab904562a55ba56aefff888229f422804cd.jpg"
  }
]