﻿[
  {
    "name": "achievement_4",
    "defaultvalue": 0,
    "displayName": "Dozen Doors",
    "hidden": 0,
    "description": "Complete 12 levels.",
    "icon": "https://steamcdn-a.akamaihd.net/steamcommunity/public/images/apps/556240/7983ea0586e635ff015589ffc87259f6a1f241c0.jpg",
    "icongray": "https://steamcdn-a.akamaihd.net/steamcommunity/public/images/apps/556240/a0eeb0dace3f15b99889db775245bcabc9abdb5b.jpg"
  },
  {
    "name": "achievement_5",
    "defaultvalue": 0,
    "displayName": "Disoriented",
    "hidden": 0,
    "description": "Complete 24 levels.",
    "icon": "https://steamcdn-a.akamaihd.net/steamcommunity/public/images/apps/556240/f95b9c80ea1107ceb5963f04dd5fa1daf7a172f2.jpg",
    "icongray": "https://steamcdn-a.akamaihd.net/steamcommunity/public/images/apps/556240/b5add431756fc2c5b43e76558788215f6b801c8d.jpg"
  },
  {
    "name": "achievement_6_",
    "defaultvalue": 0,
    "displayName": "Too Easy",
    "hidden": 0,
    "description": "Complete 30 levels.",
    "icon": "https://steamcdn-a.akamaihd.net/steamcommunity/public/images/apps/556240/08e1962d13a5e1f9965d3384b73b4ea085495baa.jpg",
    "icongray": "https://steamcdn-a.akamaihd.net/steamcommunity/public/images/apps/556240/b5add431756fc2c5b43e76558788215f6b801c8d.jpg"
  },
  {
    "name": "achievement_1",
    "defaultvalue": 0,
    "displayName": "More Green",
    "hidden": 0,
    "description": "Water 15 plants.",
    "icon": "https://steamcdn-a.akamaihd.net/steamcommunity/public/images/apps/556240/1f9190704b434bbb5efec4db9a4f9cbac6318554.jpg",
    "icongray": "https://steamcdn-a.akamaihd.net/steamcommunity/public/images/apps/556240/dcd7fd2f003b6d1c39b76f08fdc3d30668223607.jpg"
  },
  {
    "name": "achievement_2",
    "defaultvalue": 0,
    "displayName": "Little Garden",
    "hidden": 0,
    "description": "Water 30 plants.",
    "icon": "https://steamcdn-a.akamaihd.net/steamcommunity/public/images/apps/556240/b085f15586703e3af83c5bf2698ec6018ef6bcf8.jpg",
    "icongray": "https://steamcdn-a.akamaihd.net/steamcommunity/public/images/apps/556240/dcd7fd2f003b6d1c39b76f08fdc3d30668223607.jpg"
  },
  {
    "name": "achievement_3",
    "defaultvalue": 0,
    "displayName": "The Nature",
    "hidden": 0,
    "description": "Water 60 plants.",
    "icon": "https://steamcdn-a.akamaihd.net/steamcommunity/public/images/apps/556240/299c940f815a4540916610bacbcb03f90c0f6618.jpg",
    "icongray": "https://steamcdn-a.akamaihd.net/steamcommunity/public/images/apps/556240/dcd7fd2f003b6d1c39b76f08fdc3d30668223607.jpg"
  }
]