﻿{
  "Dlcs": {
    "575930": {
      "Name": "",
      "ImageUrl": ""
    }
  },
  "Name": "Mad Nords: Probably an Epic Quest",
  "AppId": "407880",
  "ImageUrl": "https://steamcdn-a.akamaihd.net/steam/apps/407880/header.jpg?t=1509040207",
  "Languages": [
    "english",
    "russian",
    "ukrainian"
  ],
  "Platforms": {
    "windows": true,
    "mac": true,
    "linux": true
  }
}