﻿[
  {
    "name": "SPEC_1",
    "defaultvalue": 0,
    "displayName": "Play",
    "hidden": 0,
    "description": "Start game",
    "icon": "https://steamcdn-a.akamaihd.net/steamcommunity/public/images/apps/729460/81abd27d1517c6c83c9aab4db741877bd03c3842.jpg",
    "icongray": "https://steamcdn-a.akamaihd.net/steamcommunity/public/images/apps/729460/8743dc56c99f7dff9d5f1a14c6d7fafe884197d8.jpg"
  },
  {
    "name": "NUM1",
    "defaultvalue": 0,
    "displayName": "Level 1/10 completed",
    "hidden": 0,
    "description": "You have completed the level 1/10",
    "icon": "https://steamcdn-a.akamaihd.net/steamcommunity/public/images/apps/729460/db6052b7c35529b747102c7ee2cb68e09f5a2362.jpg",
    "icongray": "https://steamcdn-a.akamaihd.net/steamcommunity/public/images/apps/729460/d1379befdc26292b48054253aba1c492cf381011.jpg"
  },
  {
    "name": "NUM2",
    "defaultvalue": 0,
    "displayName": "Level 2/10 completed",
    "hidden": 0,
    "description": "You have completed the level 2/10",
    "icon": "https://steamcdn-a.akamaihd.net/steamcommunity/public/images/apps/729460/33d2f185c75a18f14001ec7bb27b64f5cefe5380.jpg",
    "icongray": "https://steamcdn-a.akamaihd.net/steamcommunity/public/images/apps/729460/8743dc56c99f7dff9d5f1a14c6d7fafe884197d8.jpg"
  },
  {
    "name": "NUM3",
    "defaultvalue": 0,
    "displayName": "Level 3/10 completed",
    "hidden": 0,
    "description": "You have completed the level 3/10",
    "icon": "https://steamcdn-a.akamaihd.net/steamcommunity/public/images/apps/729460/32bf789ade760aeeadfa117c3cc0d4e97f306710.jpg",
    "icongray": "https://steamcdn-a.akamaihd.net/steamcommunity/public/images/apps/729460/8743dc56c99f7dff9d5f1a14c6d7fafe884197d8.jpg"
  },
  {
    "name": "NUM4",
    "defaultvalue": 0,
    "displayName": "Level 4/10 completed",
    "hidden": 0,
    "description": "You have completed the level 4/10",
    "icon": "https://steamcdn-a.akamaihd.net/steamcommunity/public/images/apps/729460/70c62307404b67a2feafe7c851220114b88403a2.jpg",
    "icongray": "https://steamcdn-a.akamaihd.net/steamcommunity/public/images/apps/729460/d1379befdc26292b48054253aba1c492cf381011.jpg"
  },
  {
    "name": "NUM5",
    "defaultvalue": 0,
    "displayName": "Level 5/10 completed",
    "hidden": 0,
    "description": "You have completed the level 5/10",
    "icon": "https://steamcdn-a.akamaihd.net/steamcommunity/public/images/apps/729460/5004448151d1b29aa6bf75848d6dbe3ea16a52d5.jpg",
    "icongray": "https://steamcdn-a.akamaihd.net/steamcommunity/public/images/apps/729460/d1379befdc26292b48054253aba1c492cf381011.jpg"
  },
  {
    "name": "NUM6",
    "defaultvalue": 0,
    "displayName": "Level 6/10 completed",
    "hidden": 0,
    "description": "You have completed the level 6/10",
    "icon": "https://steamcdn-a.akamaihd.net/steamcommunity/public/images/apps/729460/99782a0c51d56bd982a45eff882c8847f4f8051a.jpg",
    "icongray": "https://steamcdn-a.akamaihd.net/steamcommunity/public/images/apps/729460/8743dc56c99f7dff9d5f1a14c6d7fafe884197d8.jpg"
  },
  {
    "name": "NUM7",
    "defaultvalue": 0,
    "displayName": "Level 7/10 completed",
    "hidden": 0,
    "description": "You have completed the level 7/10",
    "icon": "https://steamcdn-a.akamaihd.net/steamcommunity/public/images/apps/729460/bf8c2f55d4d8f26f2ca892a97176e612e9beb118.jpg",
    "icongray": "https://steamcdn-a.akamaihd.net/steamcommunity/public/images/apps/729460/8743dc56c99f7dff9d5f1a14c6d7fafe884197d8.jpg"
  },
  {
    "name": "NUM8",
    "defaultvalue": 0,
    "displayName": "Level 8/10 completed",
    "hidden": 0,
    "description": "You have completed the level 8/10",
    "icon": "https://steamcdn-a.akamaihd.net/steamcommunity/public/images/apps/729460/c8d33fa90a5efb57892efc38067235951ba95cdd.jpg",
    "icongray": "https://steamcdn-a.akamaihd.net/steamcommunity/public/images/apps/729460/8743dc56c99f7dff9d5f1a14c6d7fafe884197d8.jpg"
  },
  {
    "name": "NUM9",
    "defaultvalue": 0,
    "displayName": "Level 9/10 completed",
    "hidden": 0,
    "description": "You have completed the level 9/10",
    "icon": "https://steamcdn-a.akamaihd.net/steamcommunity/public/images/apps/729460/ddd140738d1fb61328ff31e518995d29393a4807.jpg",
    "icongray": "https://steamcdn-a.akamaihd.net/steamcommunity/public/images/apps/729460/8743dc56c99f7dff9d5f1a14c6d7fafe884197d8.jpg"
  },
  {
    "name": "NUM10",
    "defaultvalue": 0,
    "displayName": "Level 10/10 completed",
    "hidden": 0,
    "description": "You have completed the level 10/10",
    "icon": "https://steamcdn-a.akamaihd.net/steamcommunity/public/images/apps/729460/178a2f51de42b886504b9a42d562ecc2e9b57264.jpg",
    "icongray": "https://steamcdn-a.akamaihd.net/steamcommunity/public/images/apps/729460/d1379befdc26292b48054253aba1c492cf381011.jpg"
  },
  {
    "name": "LEVEL1",
    "defaultvalue": 0,
    "displayName": "Level 1 completed",
    "hidden": 0,
    "description": "You have completed the level 1",
    "icon": "https://steamcdn-a.akamaihd.net/steamcommunity/public/images/apps/729460/b8e04fb7f517f9e3c450d1967beaecdc5b474f92.jpg",
    "icongray": "https://steamcdn-a.akamaihd.net/steamcommunity/public/images/apps/729460/8743dc56c99f7dff9d5f1a14c6d7fafe884197d8.jpg"
  },
  {
    "name": "LEVEL2",
    "defaultvalue": 0,
    "displayName": "Level 2 complete",
    "hidden": 0,
    "description": "You have completed the level 2",
    "icon": "https://steamcdn-a.akamaihd.net/steamcommunity/public/images/apps/729460/56f6cedfced8fe7ad3b58d33ef071a0c3b24b7d8.jpg",
    "icongray": "https://steamcdn-a.akamaihd.net/steamcommunity/public/images/apps/729460/8743dc56c99f7dff9d5f1a14c6d7fafe884197d8.jpg"
  },
  {
    "name": "LEVEL3",
    "defaultvalue": 0,
    "displayName": "Level 3 complete",
    "hidden": 0,
    "description": "You have completed the level 3",
    "icon": "https://steamcdn-a.akamaihd.net/steamcommunity/public/images/apps/729460/860fc6040c5edb40f6d4b024f207bcd67e4240fc.jpg",
    "icongray": "https://steamcdn-a.akamaihd.net/steamcommunity/public/images/apps/729460/8743dc56c99f7dff9d5f1a14c6d7fafe884197d8.jpg"
  },
  {
    "name": "LEVEL4",
    "defaultvalue": 0,
    "displayName": "Level 4 complete",
    "hidden": 0,
    "description": "You have completed the level 4",
    "icon": "https://steamcdn-a.akamaihd.net/steamcommunity/public/images/apps/729460/392be0ef4592d7fc5d325c4b10140eb80d349ab0.jpg",
    "icongray": "https://steamcdn-a.akamaihd.net/steamcommunity/public/images/apps/729460/8743dc56c99f7dff9d5f1a14c6d7fafe884197d8.jpg"
  },
  {
    "name": "LEVEL5",
    "defaultvalue": 0,
    "displayName": "Level 5 complete",
    "hidden": 0,
    "description": "You have completed the level 5",
    "icon": "https://steamcdn-a.akamaihd.net/steamcommunity/public/images/apps/729460/3818210e1da53114a40a09d5d5648a7000ecc09c.jpg",
    "icongray": "https://steamcdn-a.akamaihd.net/steamcommunity/public/images/apps/729460/8743dc56c99f7dff9d5f1a14c6d7fafe884197d8.jpg"
  },
  {
    "name": "LEVEL6",
    "defaultvalue": 0,
    "displayName": "Level 6 complete",
    "hidden": 0,
    "description": "You have completed the level 6",
    "icon": "https://steamcdn-a.akamaihd.net/steamcommunity/public/images/apps/729460/d824e7924812ea679e4a1015f141bb2ba5c9a93a.jpg",
    "icongray": "https://steamcdn-a.akamaihd.net/steamcommunity/public/images/apps/729460/8743dc56c99f7dff9d5f1a14c6d7fafe884197d8.jpg"
  },
  {
    "name": "LEVEL7",
    "defaultvalue": 0,
    "displayName": "Level 7 complete",
    "hidden": 0,
    "description": "You have completed the level 7",
    "icon": "https://steamcdn-a.akamaihd.net/steamcommunity/public/images/apps/729460/10effa9bf773f8dd94fca59d080e513ed87cfb3f.jpg",
    "icongray": "https://steamcdn-a.akamaihd.net/steamcommunity/public/images/apps/729460/d1379befdc26292b48054253aba1c492cf381011.jpg"
  },
  {
    "name": "LEVEL8",
    "defaultvalue": 0,
    "displayName": "Level 8 complete",
    "hidden": 0,
    "description": "You have completed the level 8",
    "icon": "https://steamcdn-a.akamaihd.net/steamcommunity/public/images/apps/729460/f3d350b16b3ab12fe1422294c690213938fdd79c.jpg",
    "icongray": "https://steamcdn-a.akamaihd.net/steamcommunity/public/images/apps/729460/d1379befdc26292b48054253aba1c492cf381011.jpg"
  },
  {
    "name": "LEVEL9",
    "defaultvalue": 0,
    "displayName": "Level 9 complete",
    "hidden": 0,
    "description": "You have completed the level 9",
    "icon": "https://steamcdn-a.akamaihd.net/steamcommunity/public/images/apps/729460/85da97fc6bcfde058244a26263b6afed53c81961.jpg",
    "icongray": "https://steamcdn-a.akamaihd.net/steamcommunity/public/images/apps/729460/8743dc56c99f7dff9d5f1a14c6d7fafe884197d8.jpg"
  },
  {
    "name": "LEVEL10",
    "defaultvalue": 0,
    "displayName": "Level 10 complete",
    "hidden": 0,
    "description": "You have completed the level 10",
    "icon": "https://steamcdn-a.akamaihd.net/steamcommunity/public/images/apps/729460/cd5936df2e215302af4c73e22eed72dea2bb8a0d.jpg",
    "icongray": "https://steamcdn-a.akamaihd.net/steamcommunity/public/images/apps/729460/8743dc56c99f7dff9d5f1a14c6d7fafe884197d8.jpg"
  },
  {
    "name": "LEVEL11",
    "defaultvalue": 0,
    "displayName": "Level 11 complete",
    "hidden": 0,
    "description": "You have completed the level 11",
    "icon": "https://steamcdn-a.akamaihd.net/steamcommunity/public/images/apps/729460/c1992d845b3c2394beec6dcdd31a166aa261e230.jpg",
    "icongray": "https://steamcdn-a.akamaihd.net/steamcommunity/public/images/apps/729460/d1379befdc26292b48054253aba1c492cf381011.jpg"
  },
  {
    "name": "LEVEL12",
    "defaultvalue": 0,
    "displayName": "Level 12 complete",
    "hidden": 0,
    "description": "You have completed the level 12",
    "icon": "https://steamcdn-a.akamaihd.net/steamcommunity/public/images/apps/729460/880da3c1a83294d13e70b50a541d680a73f27081.jpg",
    "icongray": "https://steamcdn-a.akamaihd.net/steamcommunity/public/images/apps/729460/8743dc56c99f7dff9d5f1a14c6d7fafe884197d8.jpg"
  },
  {
    "name": "LEVEL13",
    "defaultvalue": 0,
    "displayName": "Level 13 complete",
    "hidden": 0,
    "description": "You have completed the level 13",
    "icon": "https://steamcdn-a.akamaihd.net/steamcommunity/public/images/apps/729460/9f9977801eecfd0642ebb83ee7e27e9d29900b6d.jpg",
    "icongray": "https://steamcdn-a.akamaihd.net/steamcommunity/public/images/apps/729460/8743dc56c99f7dff9d5f1a14c6d7fafe884197d8.jpg"
  },
  {
    "name": "LEVEL14",
    "defaultvalue": 0,
    "displayName": "Level 14 complete",
    "hidden": 0,
    "description": "You have completed the level 14",
    "icon": "https://steamcdn-a.akamaihd.net/steamcommunity/public/images/apps/729460/82343df3e92ad4ad021dca643ffe60152b0f4725.jpg",
    "icongray": "https://steamcdn-a.akamaihd.net/steamcommunity/public/images/apps/729460/8743dc56c99f7dff9d5f1a14c6d7fafe884197d8.jpg"
  },
  {
    "name": "LEVEL15",
    "defaultvalue": 0,
    "displayName": "Level 15 complete",
    "hidden": 0,
    "description": "You have completed the level 15",
    "icon": "https://steamcdn-a.akamaihd.net/steamcommunity/public/images/apps/729460/fdac04b4d542064d14fc752ee6b7396c5b593208.jpg",
    "icongray": "https://steamcdn-a.akamaihd.net/steamcommunity/public/images/apps/729460/8743dc56c99f7dff9d5f1a14c6d7fafe884197d8.jpg"
  },
  {
    "name": "LEVEL16",
    "defaultvalue": 0,
    "displayName": "Level 16 complete",
    "hidden": 0,
    "description": "You have completed the level 16",
    "icon": "https://steamcdn-a.akamaihd.net/steamcommunity/public/images/apps/729460/c37065ba1471f785674b34d80ac18e5b03ab6d5d.jpg",
    "icongray": "https://steamcdn-a.akamaihd.net/steamcommunity/public/images/apps/729460/8743dc56c99f7dff9d5f1a14c6d7fafe884197d8.jpg"
  },
  {
    "name": "LEVEL17",
    "defaultvalue": 0,
    "displayName": "Level 17 complete",
    "hidden": 0,
    "description": "You have completed the level 17",
    "icon": "https://steamcdn-a.akamaihd.net/steamcommunity/public/images/apps/729460/a057e5364fe83f9aaec626dbbb528e0baf91363f.jpg",
    "icongray": "https://steamcdn-a.akamaihd.net/steamcommunity/public/images/apps/729460/8743dc56c99f7dff9d5f1a14c6d7fafe884197d8.jpg"
  },
  {
    "name": "LEVEL18",
    "defaultvalue": 0,
    "displayName": "Level 18 complete",
    "hidden": 0,
    "description": "You have completed the level 18",
    "icon": "https://steamcdn-a.akamaihd.net/steamcommunity/public/images/apps/729460/9ebf1781492fdd43ebf7c7d1c2a8e0c197498981.jpg",
    "icongray": "https://steamcdn-a.akamaihd.net/steamcommunity/public/images/apps/729460/8743dc56c99f7dff9d5f1a14c6d7fafe884197d8.jpg"
  },
  {
    "name": "LEVEL19",
    "defaultvalue": 0,
    "displayName": "Level 19 complete",
    "hidden": 0,
    "description": "You have completed the level 19",
    "icon": "https://steamcdn-a.akamaihd.net/steamcommunity/public/images/apps/729460/9edc180f204b8b37542473a1b0764d7435511d1d.jpg",
    "icongray": "https://steamcdn-a.akamaihd.net/steamcommunity/public/images/apps/729460/8743dc56c99f7dff9d5f1a14c6d7fafe884197d8.jpg"
  },
  {
    "name": "LEVEL20",
    "defaultvalue": 0,
    "displayName": "Level 20 complete",
    "hidden": 0,
    "description": "You have completed the level 20",
    "icon": "https://steamcdn-a.akamaihd.net/steamcommunity/public/images/apps/729460/10f850a6759fa9057033331fb50fcd12ca50d1d5.jpg",
    "icongray": "https://steamcdn-a.akamaihd.net/steamcommunity/public/images/apps/729460/d1379befdc26292b48054253aba1c492cf381011.jpg"
  },
  {
    "name": "LEVEL21",
    "defaultvalue": 0,
    "displayName": "Level 21 complete",
    "hidden": 0,
    "description": "You have completed the level 21",
    "icon": "https://steamcdn-a.akamaihd.net/steamcommunity/public/images/apps/729460/286060c85fcadfd443be1876c206224c06c2397a.jpg",
    "icongray": "https://steamcdn-a.akamaihd.net/steamcommunity/public/images/apps/729460/8743dc56c99f7dff9d5f1a14c6d7fafe884197d8.jpg"
  },
  {
    "name": "LEVEL22",
    "defaultvalue": 0,
    "displayName": "Level 22 complete",
    "hidden": 0,
    "description": "You have completed the level 22",
    "icon": "https://steamcdn-a.akamaihd.net/steamcommunity/public/images/apps/729460/2fde361e5dda59b4e14087b22b336cc9896ff961.jpg",
    "icongray": "https://steamcdn-a.akamaihd.net/steamcommunity/public/images/apps/729460/8743dc56c99f7dff9d5f1a14c6d7fafe884197d8.jpg"
  },
  {
    "name": "LEVEL23",
    "defaultvalue": 0,
    "displayName": "Level 23 complete",
    "hidden": 0,
    "description": "You have completed the level 23",
    "icon": "https://steamcdn-a.akamaihd.net/steamcommunity/public/images/apps/729460/a5405164ddb23d280334a4fa69e6e245af75754f.jpg",
    "icongray": "https://steamcdn-a.akamaihd.net/steamcommunity/public/images/apps/729460/8743dc56c99f7dff9d5f1a14c6d7fafe884197d8.jpg"
  },
  {
    "name": "LEVEL24",
    "defaultvalue": 0,
    "displayName": "Level 24 complete",
    "hidden": 0,
    "description": "You have completed the level 24",
    "icon": "https://steamcdn-a.akamaihd.net/steamcommunity/public/images/apps/729460/2a4a695782a694244576e44f6033e5f8222eb1d7.jpg",
    "icongray": "https://steamcdn-a.akamaihd.net/steamcommunity/public/images/apps/729460/8743dc56c99f7dff9d5f1a14c6d7fafe884197d8.jpg"
  },
  {
    "name": "LEVEL25",
    "defaultvalue": 0,
    "displayName": "Level 25 complete",
    "hidden": 0,
    "description": "You have completed the level 25",
    "icon": "https://steamcdn-a.akamaihd.net/steamcommunity/public/images/apps/729460/00e49a12dbb64904fd4e2307002ec9f9a2ded818.jpg",
    "icongray": "https://steamcdn-a.akamaihd.net/steamcommunity/public/images/apps/729460/8743dc56c99f7dff9d5f1a14c6d7fafe884197d8.jpg"
  },
  {
    "name": "LEVEL26",
    "defaultvalue": 0,
    "displayName": "Level 26 complete",
    "hidden": 0,
    "description": "You have completed the level 26",
    "icon": "https://steamcdn-a.akamaihd.net/steamcommunity/public/images/apps/729460/c3031a7f596e7b4537facabf111afe4f0c6562f5.jpg",
    "icongray": "https://steamcdn-a.akamaihd.net/steamcommunity/public/images/apps/729460/8743dc56c99f7dff9d5f1a14c6d7fafe884197d8.jpg"
  },
  {
    "name": "BOSS1",
    "defaultvalue": 0,
    "displayName": "You're the first",
    "hidden": 0,
    "description": "The first boss is dead",
    "icon": "https://steamcdn-a.akamaihd.net/steamcommunity/public/images/apps/729460/be6c5d3cb4be7a190275faeca97821196234ef98.jpg",
    "icongray": "https://steamcdn-a.akamaihd.net/steamcommunity/public/images/apps/729460/8743dc56c99f7dff9d5f1a14c6d7fafe884197d8.jpg"
  },
  {
    "name": "BOSS2",
    "defaultvalue": 0,
    "displayName": "Old school",
    "hidden": 0,
    "description": "The second boss is dead",
    "icon": "https://steamcdn-a.akamaihd.net/steamcommunity/public/images/apps/729460/ac3c641191caeef1636bded25ea150da3f4b364b.jpg",
    "icongray": "https://steamcdn-a.akamaihd.net/steamcommunity/public/images/apps/729460/d1379befdc26292b48054253aba1c492cf381011.jpg"
  },
  {
    "name": "BOSS3",
    "defaultvalue": 0,
    "displayName": "Big Daddy",
    "hidden": 0,
    "description": "The last boss is dead",
    "icon": "https://steamcdn-a.akamaihd.net/steamcommunity/public/images/apps/729460/144cc8bb081485094388be288fc656bf0c00e288.jpg",
    "icongray": "https://steamcdn-a.akamaihd.net/steamcommunity/public/images/apps/729460/8743dc56c99f7dff9d5f1a14c6d7fafe884197d8.jpg"
  },
  {
    "name": "A_GO",
    "defaultvalue": 0,
    "displayName": "Game over",
    "hidden": 0,
    "description": "Perish for the first time",
    "icon": "https://steamcdn-a.akamaihd.net/steamcommunity/public/images/apps/729460/d38e9c4aad4538742c394243a6d9f5e190a713b0.jpg",
    "icongray": "https://steamcdn-a.akamaihd.net/steamcommunity/public/images/apps/729460/8743dc56c99f7dff9d5f1a14c6d7fafe884197d8.jpg"
  },
  {
    "name": "A_DS",
    "defaultvalue": 0,
    "displayName": "Dreams of the stars",
    "hidden": 0,
    "description": "Complete all levels",
    "icon": "https://steamcdn-a.akamaihd.net/steamcommunity/public/images/apps/729460/26a293c9c036bcdfa3abcaa8538aabd088093498.jpg",
    "icongray": "https://steamcdn-a.akamaihd.net/steamcommunity/public/images/apps/729460/8743dc56c99f7dff9d5f1a14c6d7fafe884197d8.jpg"
  },
  {
    "name": "LEVEL1_1",
    "defaultvalue": 0,
    "displayName": "Level 1 completed",
    "hidden": 0,
    "description": "You have completed the level 1",
    "icon": "https://steamcdn-a.akamaihd.net/steamcommunity/public/images/apps/729460/fb9ebf2ece3b852f6cdc6320634da85677d7ce3f.jpg",
    "icongray": "https://steamcdn-a.akamaihd.net/steamcommunity/public/images/apps/729460/980b54c4abeceea09392f0c029ffafc256755155.jpg"
  },
  {
    "name": "LEVEL2_1",
    "defaultvalue": 0,
    "displayName": "Level 2 completed",
    "hidden": 0,
    "description": "You have completed the level 2",
    "icon": "https://steamcdn-a.akamaihd.net/steamcommunity/public/images/apps/729460/cc83b25abca9d275973dd53d384f7cd2dda1ebbb.jpg",
    "icongray": "https://steamcdn-a.akamaihd.net/steamcommunity/public/images/apps/729460/980b54c4abeceea09392f0c029ffafc256755155.jpg"
  },
  {
    "name": "LEVEL3_1",
    "defaultvalue": 0,
    "displayName": "Level 3 completed",
    "hidden": 0,
    "description": "You have completed the level 3",
    "icon": "https://steamcdn-a.akamaihd.net/steamcommunity/public/images/apps/729460/42efc342b9d9834ea464a0d7cb9bbe40e56ffb41.jpg",
    "icongray": "https://steamcdn-a.akamaihd.net/steamcommunity/public/images/apps/729460/980b54c4abeceea09392f0c029ffafc256755155.jpg"
  },
  {
    "name": "LEVEL4_1",
    "defaultvalue": 0,
    "displayName": "Level 4 completed",
    "hidden": 0,
    "description": "You have completed the level 4",
    "icon": "https://steamcdn-a.akamaihd.net/steamcommunity/public/images/apps/729460/3fdecd5525c91ae0ae1b82305bd40e7cf157692a.jpg",
    "icongray": "https://steamcdn-a.akamaihd.net/steamcommunity/public/images/apps/729460/980b54c4abeceea09392f0c029ffafc256755155.jpg"
  },
  {
    "name": "LEVEL5_1",
    "defaultvalue": 0,
    "displayName": "Level 5 completed",
    "hidden": 0,
    "description": "You have completed the level 5",
    "icon": "https://steamcdn-a.akamaihd.net/steamcommunity/public/images/apps/729460/424c8ec0f6d375091596b55d9141099c5ed30827.jpg",
    "icongray": "https://steamcdn-a.akamaihd.net/steamcommunity/public/images/apps/729460/980b54c4abeceea09392f0c029ffafc256755155.jpg"
  },
  {
    "name": "LEVEL6_1",
    "defaultvalue": 0,
    "displayName": "Level 6 completed",
    "hidden": 0,
    "description": "You have completed the level 6",
    "icon": "https://steamcdn-a.akamaihd.net/steamcommunity/public/images/apps/729460/bbdf34ab4003c50914de3eff6a503f26a5567a1e.jpg",
    "icongray": "https://steamcdn-a.akamaihd.net/steamcommunity/public/images/apps/729460/980b54c4abeceea09392f0c029ffafc256755155.jpg"
  },
  {
    "name": "LEVEL7_1",
    "defaultvalue": 0,
    "displayName": "Level 7 completed",
    "hidden": 0,
    "description": "You have completed the level 7",
    "icon": "https://steamcdn-a.akamaihd.net/steamcommunity/public/images/apps/729460/9b679263f462bd90afc6aa4d92d630cce2452f57.jpg",
    "icongray": "https://steamcdn-a.akamaihd.net/steamcommunity/public/images/apps/729460/980b54c4abeceea09392f0c029ffafc256755155.jpg"
  },
  {
    "name": "LEVEL8_1",
    "defaultvalue": 0,
    "displayName": "Level 8 completed",
    "hidden": 0,
    "description": "You have completed the level 8",
    "icon": "https://steamcdn-a.akamaihd.net/steamcommunity/public/images/apps/729460/a134ece65f8ffc823da59d069b6993b65d699a61.jpg",
    "icongray": "https://steamcdn-a.akamaihd.net/steamcommunity/public/images/apps/729460/980b54c4abeceea09392f0c029ffafc256755155.jpg"
  },
  {
    "name": "LEVEL9_1",
    "defaultvalue": 0,
    "displayName": "Level 9 completed",
    "hidden": 0,
    "description": "You have completed the level 9",
    "icon": "https://steamcdn-a.akamaihd.net/steamcommunity/public/images/apps/729460/dfe2f332a5a37e41ebccb7194cd1733dfd4dab85.jpg",
    "icongray": "https://steamcdn-a.akamaihd.net/steamcommunity/public/images/apps/729460/980b54c4abeceea09392f0c029ffafc256755155.jpg"
  },
  {
    "name": "LEVEL10_1",
    "defaultvalue": 0,
    "displayName": "Level 10 completed",
    "hidden": 0,
    "description": "You have completed the level 10",
    "icon": "https://steamcdn-a.akamaihd.net/steamcommunity/public/images/apps/729460/50c81a767e07498a8186a26e6c39f1aac0ddf7b5.jpg",
    "icongray": "https://steamcdn-a.akamaihd.net/steamcommunity/public/images/apps/729460/980b54c4abeceea09392f0c029ffafc256755155.jpg"
  },
  {
    "name": "LEVEL11_1",
    "defaultvalue": 0,
    "displayName": "Level 11 completed",
    "hidden": 0,
    "description": "You have completed the level 11",
    "icon": "https://steamcdn-a.akamaihd.net/steamcommunity/public/images/apps/729460/c7d0a837f3105b537a2adc35c9ae7aed54b3b2be.jpg",
    "icongray": "https://steamcdn-a.akamaihd.net/steamcommunity/public/images/apps/729460/980b54c4abeceea09392f0c029ffafc256755155.jpg"
  },
  {
    "name": "LEVEL12_1",
    "defaultvalue": 0,
    "displayName": "Level 12 completed",
    "hidden": 0,
    "description": "You have completed the level 12",
    "icon": "https://steamcdn-a.akamaihd.net/steamcommunity/public/images/apps/729460/493b3ffa02ae8ff1614e459788f11407c628fa0e.jpg",
    "icongray": "https://steamcdn-a.akamaihd.net/steamcommunity/public/images/apps/729460/980b54c4abeceea09392f0c029ffafc256755155.jpg"
  },
  {
    "name": "LEVEL13_1",
    "defaultvalue": 0,
    "displayName": "Level 13 completed",
    "hidden": 0,
    "description": "You have completed the level 13",
    "icon": "https://steamcdn-a.akamaihd.net/steamcommunity/public/images/apps/729460/eceda8dd2c88a2d1513ae09badf0ca1d003a714d.jpg",
    "icongray": "https://steamcdn-a.akamaihd.net/steamcommunity/public/images/apps/729460/980b54c4abeceea09392f0c029ffafc256755155.jpg"
  },
  {
    "name": "LEVEL14_1",
    "defaultvalue": 0,
    "displayName": "Level 14 completed",
    "hidden": 0,
    "description": "You have completed the level 14",
    "icon": "https://steamcdn-a.akamaihd.net/steamcommunity/public/images/apps/729460/57d9fc1aa771c3099675dcc804eeefb8e5f91979.jpg",
    "icongray": "https://steamcdn-a.akamaihd.net/steamcommunity/public/images/apps/729460/980b54c4abeceea09392f0c029ffafc256755155.jpg"
  },
  {
    "name": "LEVEL15_1",
    "defaultvalue": 0,
    "displayName": "Level 15 completed",
    "hidden": 0,
    "description": "You have completed the level 15",
    "icon": "https://steamcdn-a.akamaihd.net/steamcommunity/public/images/apps/729460/99392508ea91b346f0bbd4c215c5fedfa1763cae.jpg",
    "icongray": "https://steamcdn-a.akamaihd.net/steamcommunity/public/images/apps/729460/980b54c4abeceea09392f0c029ffafc256755155.jpg"
  },
  {
    "name": "LEVEL16_1",
    "defaultvalue": 0,
    "displayName": "Level 16 completed",
    "hidden": 0,
    "description": "You have completed the level 16",
    "icon": "https://steamcdn-a.akamaihd.net/steamcommunity/public/images/apps/729460/650e5a9bbf3c6cbff880d7dd6a7612427f667d62.jpg",
    "icongray": "https://steamcdn-a.akamaihd.net/steamcommunity/public/images/apps/729460/980b54c4abeceea09392f0c029ffafc256755155.jpg"
  },
  {
    "name": "LEVEL17_1",
    "defaultvalue": 0,
    "displayName": "Level 17 completed",
    "hidden": 0,
    "description": "You have completed the level 17",
    "icon": "https://steamcdn-a.akamaihd.net/steamcommunity/public/images/apps/729460/8b350831b7d8276b50559907c1774755436fa741.jpg",
    "icongray": "https://steamcdn-a.akamaihd.net/steamcommunity/public/images/apps/729460/980b54c4abeceea09392f0c029ffafc256755155.jpg"
  },
  {
    "name": "LEVEL18_1",
    "defaultvalue": 0,
    "displayName": "Level 18 completed",
    "hidden": 0,
    "description": "You have completed the level 18",
    "icon": "https://steamcdn-a.akamaihd.net/steamcommunity/public/images/apps/729460/cbe8432c276bb24d327c493737c5aab84df8917c.jpg",
    "icongray": "https://steamcdn-a.akamaihd.net/steamcommunity/public/images/apps/729460/980b54c4abeceea09392f0c029ffafc256755155.jpg"
  },
  {
    "name": "LEVEL19_1",
    "defaultvalue": 0,
    "displayName": "Level 19 completed",
    "hidden": 0,
    "description": "You have completed the level 19",
    "icon": "https://steamcdn-a.akamaihd.net/steamcommunity/public/images/apps/729460/903c0e932b4c8d3070df151e8b24875874eeabb5.jpg",
    "icongray": "https://steamcdn-a.akamaihd.net/steamcommunity/public/images/apps/729460/980b54c4abeceea09392f0c029ffafc256755155.jpg"
  },
  {
    "name": "LEVEL20_1",
    "defaultvalue": 0,
    "displayName": "Level 20 completed",
    "hidden": 0,
    "description": "You have completed the level 20",
    "icon": "https://steamcdn-a.akamaihd.net/steamcommunity/public/images/apps/729460/c099bcb886203d42f81058500d2c97e8966eccad.jpg",
    "icongray": "https://steamcdn-a.akamaihd.net/steamcommunity/public/images/apps/729460/8bdf844454f8cae5c10fca3a97a912a8e6d28f43.jpg"
  },
  {
    "name": "LEVEL21_1",
    "defaultvalue": 0,
    "displayName": "Level 21 completed",
    "hidden": 0,
    "description": "You have completed the level 21",
    "icon": "https://steamcdn-a.akamaihd.net/steamcommunity/public/images/apps/729460/5623e95a5449e34d6d9a22b4eeec27c8ba9f8c67.jpg",
    "icongray": "https://steamcdn-a.akamaihd.net/steamcommunity/public/images/apps/729460/980b54c4abeceea09392f0c029ffafc256755155.jpg"
  },
  {
    "name": "LEVEL22_1",
    "defaultvalue": 0,
    "displayName": "Level 22 completed",
    "hidden": 0,
    "description": "You have completed the level 22",
    "icon": "https://steamcdn-a.akamaihd.net/steamcommunity/public/images/apps/729460/11a26f9163fbacfd002045998ac0f9dfc247fcb3.jpg",
    "icongray": "https://steamcdn-a.akamaihd.net/steamcommunity/public/images/apps/729460/980b54c4abeceea09392f0c029ffafc256755155.jpg"
  },
  {
    "name": "LEVEL23_1",
    "defaultvalue": 0,
    "displayName": "Level 23 completed",
    "hidden": 0,
    "description": "You have completed the level 23",
    "icon": "https://steamcdn-a.akamaihd.net/steamcommunity/public/images/apps/729460/90826975547698847e25d802250e6dce78fcba88.jpg",
    "icongray": "https://steamcdn-a.akamaihd.net/steamcommunity/public/images/apps/729460/980b54c4abeceea09392f0c029ffafc256755155.jpg"
  },
  {
    "name": "LEVEL24_1",
    "defaultvalue": 0,
    "displayName": "Level 24 completed",
    "hidden": 0,
    "description": "You have completed the level 24",
    "icon": "https://steamcdn-a.akamaihd.net/steamcommunity/public/images/apps/729460/df237104880c933e9a294818a84f89032289dac8.jpg",
    "icongray": "https://steamcdn-a.akamaihd.net/steamcommunity/public/images/apps/729460/980b54c4abeceea09392f0c029ffafc256755155.jpg"
  },
  {
    "name": "LEVEL25_1",
    "defaultvalue": 0,
    "displayName": "Level 25 completed",
    "hidden": 0,
    "description": "You have completed the level 25",
    "icon": "https://steamcdn-a.akamaihd.net/steamcommunity/public/images/apps/729460/2d97271814bd42cd96d81ebb70d186e4b01409b2.jpg",
    "icongray": "https://steamcdn-a.akamaihd.net/steamcommunity/public/images/apps/729460/980b54c4abeceea09392f0c029ffafc256755155.jpg"
  },
  {
    "name": "LEVEL26_1",
    "defaultvalue": 0,
    "displayName": "Level 26 completed",
    "hidden": 0,
    "description": "You have completed the level 26",
    "icon": "https://steamcdn-a.akamaihd.net/steamcommunity/public/images/apps/729460/8d8b8c708c18eef8a9349e84c4b37cebb14734fa.jpg",
    "icongray": "https://steamcdn-a.akamaihd.net/steamcommunity/public/images/apps/729460/980b54c4abeceea09392f0c029ffafc256755155.jpg"
  },
  {
    "name": "NUM1_1",
    "defaultvalue": 0,
    "displayName": "Level 1/10 completed",
    "hidden": 0,
    "description": "You have completed the level 1/10",
    "icon": "https://steamcdn-a.akamaihd.net/steamcommunity/public/images/apps/729460/2e89b08d8dd5b5eeaefcff2e9a48c6b15533205f.jpg",
    "icongray": "https://steamcdn-a.akamaihd.net/steamcommunity/public/images/apps/729460/980b54c4abeceea09392f0c029ffafc256755155.jpg"
  },
  {
    "name": "NUM2_1",
    "defaultvalue": 0,
    "displayName": "Level 2/10 completed",
    "hidden": 0,
    "description": "You have completed the level 2/10",
    "icon": "https://steamcdn-a.akamaihd.net/steamcommunity/public/images/apps/729460/b70ee984dd50c83b1b69973b803a8ecc11803324.jpg",
    "icongray": "https://steamcdn-a.akamaihd.net/steamcommunity/public/images/apps/729460/980b54c4abeceea09392f0c029ffafc256755155.jpg"
  },
  {
    "name": "NUM3_1",
    "defaultvalue": 0,
    "displayName": "Level 3/10 completed",
    "hidden": 0,
    "description": "You have completed the level 3/10",
    "icon": "https://steamcdn-a.akamaihd.net/steamcommunity/public/images/apps/729460/c4e869c718ca188a8f1f3f7fd4ef7af6b4ecdd4d.jpg",
    "icongray": "https://steamcdn-a.akamaihd.net/steamcommunity/public/images/apps/729460/980b54c4abeceea09392f0c029ffafc256755155.jpg"
  },
  {
    "name": "NUM4_1",
    "defaultvalue": 0,
    "displayName": "Level 4/10 completed",
    "hidden": 0,
    "description": "You have completed the level 4/10",
    "icon": "https://steamcdn-a.akamaihd.net/steamcommunity/public/images/apps/729460/243db7d5d57f5758c5fb0037540f7dccd4f8acf2.jpg",
    "icongray": "https://steamcdn-a.akamaihd.net/steamcommunity/public/images/apps/729460/980b54c4abeceea09392f0c029ffafc256755155.jpg"
  },
  {
    "name": "NUM5_1",
    "defaultvalue": 0,
    "displayName": "Level 5/10 completed",
    "hidden": 0,
    "description": "You have completed the level 5/10",
    "icon": "https://steamcdn-a.akamaihd.net/steamcommunity/public/images/apps/729460/1aed3f7bbeb0ab9e2c2fbb78109f7f41148e82bb.jpg",
    "icongray": "https://steamcdn-a.akamaihd.net/steamcommunity/public/images/apps/729460/980b54c4abeceea09392f0c029ffafc256755155.jpg"
  },
  {
    "name": "NUM6_1",
    "defaultvalue": 0,
    "displayName": "Level 6/10 completed",
    "hidden": 0,
    "description": "You have completed the level 6/10",
    "icon": "https://steamcdn-a.akamaihd.net/steamcommunity/public/images/apps/729460/348d5901bc7364c016f59efe487b3dd9b7a53345.jpg",
    "icongray": "https://steamcdn-a.akamaihd.net/steamcommunity/public/images/apps/729460/980b54c4abeceea09392f0c029ffafc256755155.jpg"
  },
  {
    "name": "NUM7_1",
    "defaultvalue": 0,
    "displayName": "Level 7/10 completed",
    "hidden": 0,
    "description": "You have completed the level 7/10",
    "icon": "https://steamcdn-a.akamaihd.net/steamcommunity/public/images/apps/729460/9fbd457f7ed4958db839965c8a88d121dde978b6.jpg",
    "icongray": "https://steamcdn-a.akamaihd.net/steamcommunity/public/images/apps/729460/980b54c4abeceea09392f0c029ffafc256755155.jpg"
  },
  {
    "name": "NUM8_1",
    "defaultvalue": 0,
    "displayName": "Level 8/10 completed",
    "hidden": 0,
    "description": "You have completed the level 8/10",
    "icon": "https://steamcdn-a.akamaihd.net/steamcommunity/public/images/apps/729460/1fca61391956e623529df967cfc5b11b6b1b0abd.jpg",
    "icongray": "https://steamcdn-a.akamaihd.net/steamcommunity/public/images/apps/729460/980b54c4abeceea09392f0c029ffafc256755155.jpg"
  },
  {
    "name": "NUM9_1",
    "defaultvalue": 0,
    "displayName": "Level 9/10 completed",
    "hidden": 0,
    "description": "You have completed the level 9/10",
    "icon": "https://steamcdn-a.akamaihd.net/steamcommunity/public/images/apps/729460/0f44d6a6f3fd335835c5c6b1ae5b28dc058ce706.jpg",
    "icongray": "https://steamcdn-a.akamaihd.net/steamcommunity/public/images/apps/729460/980b54c4abeceea09392f0c029ffafc256755155.jpg"
  },
  {
    "name": "NUM10_1",
    "defaultvalue": 0,
    "displayName": "Level 10/10 completed",
    "hidden": 0,
    "description": "You have completed the level 10/10",
    "icon": "https://steamcdn-a.akamaihd.net/steamcommunity/public/images/apps/729460/2d31f0875f015fc5995cb9156d7043376457fecd.jpg",
    "icongray": "https://steamcdn-a.akamaihd.net/steamcommunity/public/images/apps/729460/980b54c4abeceea09392f0c029ffafc256755155.jpg"
  },
  {
    "name": "LEVEL1_2",
    "defaultvalue": 0,
    "displayName": "Level 1 completed",
    "hidden": 0,
    "description": "You have completed the level 1",
    "icon": "https://steamcdn-a.akamaihd.net/steamcommunity/public/images/apps/729460/f30ca9f2c9578f9fa00f5164cd833bbb6aa31e38.jpg",
    "icongray": "https://steamcdn-a.akamaihd.net/steamcommunity/public/images/apps/729460/980b54c4abeceea09392f0c029ffafc256755155.jpg"
  },
  {
    "name": "LEVEL2_2",
    "defaultvalue": 0,
    "displayName": "Level 2 completed",
    "hidden": 0,
    "description": "You have completed the level 2",
    "icon": "https://steamcdn-a.akamaihd.net/steamcommunity/public/images/apps/729460/7b7bd1293da0e7f7df9439b697a7ccf832e17bd0.jpg",
    "icongray": "https://steamcdn-a.akamaihd.net/steamcommunity/public/images/apps/729460/980b54c4abeceea09392f0c029ffafc256755155.jpg"
  },
  {
    "name": "LEVEL3_2",
    "defaultvalue": 0,
    "displayName": "Level 3 completed",
    "hidden": 0,
    "description": "You have completed the level 3",
    "icon": "https://steamcdn-a.akamaihd.net/steamcommunity/public/images/apps/729460/11429a533d4b0bc094112b4be3bbca87130f2c38.jpg",
    "icongray": "https://steamcdn-a.akamaihd.net/steamcommunity/public/images/apps/729460/980b54c4abeceea09392f0c029ffafc256755155.jpg"
  },
  {
    "name": "LEVEL4_2",
    "defaultvalue": 0,
    "displayName": "Level 4 completed",
    "hidden": 0,
    "description": "You have completed the level 4",
    "icon": "https://steamcdn-a.akamaihd.net/steamcommunity/public/images/apps/729460/926ce8c16863b8c80d54f97f5fecef5771a74153.jpg",
    "icongray": "https://steamcdn-a.akamaihd.net/steamcommunity/public/images/apps/729460/8bdf844454f8cae5c10fca3a97a912a8e6d28f43.jpg"
  },
  {
    "name": "LEVEL5_2",
    "defaultvalue": 0,
    "displayName": "Level 5 completed",
    "hidden": 0,
    "description": "You have completed the level 5",
    "icon": "https://steamcdn-a.akamaihd.net/steamcommunity/public/images/apps/729460/d1d41bd9be2481ae2e5bb80e4a2d4aef813e9528.jpg",
    "icongray": "https://steamcdn-a.akamaihd.net/steamcommunity/public/images/apps/729460/980b54c4abeceea09392f0c029ffafc256755155.jpg"
  },
  {
    "name": "LEVEL6_2",
    "defaultvalue": 0,
    "displayName": "Level 6 completed",
    "hidden": 0,
    "description": "You have completed the level 6",
    "icon": "https://steamcdn-a.akamaihd.net/steamcommunity/public/images/apps/729460/774079dc2af22e74f12b2ab331e115ac54e90fd4.jpg",
    "icongray": "https://steamcdn-a.akamaihd.net/steamcommunity/public/images/apps/729460/980b54c4abeceea09392f0c029ffafc256755155.jpg"
  },
  {
    "name": "LEVEL7_2",
    "defaultvalue": 0,
    "displayName": "Level 7 completed",
    "hidden": 0,
    "description": "You have completed the level 7",
    "icon": "https://steamcdn-a.akamaihd.net/steamcommunity/public/images/apps/729460/7502e1d33ec1d43e20e36be003072f09517dd947.jpg",
    "icongray": "https://steamcdn-a.akamaihd.net/steamcommunity/public/images/apps/729460/980b54c4abeceea09392f0c029ffafc256755155.jpg"
  },
  {
    "name": "LEVEL8_2",
    "defaultvalue": 0,
    "displayName": "Level 8 completed",
    "hidden": 0,
    "description": "You have completed the level 8",
    "icon": "https://steamcdn-a.akamaihd.net/steamcommunity/public/images/apps/729460/9930e221574e3a23b10b72e8fa440c51c7b7b63f.jpg",
    "icongray": "https://steamcdn-a.akamaihd.net/steamcommunity/public/images/apps/729460/8bdf844454f8cae5c10fca3a97a912a8e6d28f43.jpg"
  },
  {
    "name": "LEVEL9_2",
    "defaultvalue": 0,
    "displayName": "Level 9 completed",
    "hidden": 0,
    "description": "You have completed the level 9",
    "icon": "https://steamcdn-a.akamaihd.net/steamcommunity/public/images/apps/729460/2d1a70669ff7e174d673a7d467eabb740290b676.jpg",
    "icongray": "https://steamcdn-a.akamaihd.net/steamcommunity/public/images/apps/729460/980b54c4abeceea09392f0c029ffafc256755155.jpg"
  },
  {
    "name": "LEVEL10_2",
    "defaultvalue": 0,
    "displayName": "Level 10 completed",
    "hidden": 0,
    "description": "You have completed the level 10",
    "icon": "https://steamcdn-a.akamaihd.net/steamcommunity/public/images/apps/729460/b2b1ae811d98bd1364ab2f57b71ff49f989bbd15.jpg",
    "icongray": "https://steamcdn-a.akamaihd.net/steamcommunity/public/images/apps/729460/980b54c4abeceea09392f0c029ffafc256755155.jpg"
  },
  {
    "name": "LEVEL11_2",
    "defaultvalue": 0,
    "displayName": "Level 11 completed",
    "hidden": 0,
    "description": "You have completed the level 11",
    "icon": "https://steamcdn-a.akamaihd.net/steamcommunity/public/images/apps/729460/bbe20f780e9f00710f5d199057936d49fb209b2f.jpg",
    "icongray": "https://steamcdn-a.akamaihd.net/steamcommunity/public/images/apps/729460/980b54c4abeceea09392f0c029ffafc256755155.jpg"
  },
  {
    "name": "LEVEL12_2",
    "defaultvalue": 0,
    "displayName": "Level 12 completed",
    "hidden": 0,
    "description": "You have completed the level 12",
    "icon": "https://steamcdn-a.akamaihd.net/steamcommunity/public/images/apps/729460/3deb5b8d02fb83d230feb544af839e2f613703c5.jpg",
    "icongray": "https://steamcdn-a.akamaihd.net/steamcommunity/public/images/apps/729460/8bdf844454f8cae5c10fca3a97a912a8e6d28f43.jpg"
  },
  {
    "name": "LEVEL13_2",
    "defaultvalue": 0,
    "displayName": "Level 13 completed",
    "hidden": 0,
    "description": "You have completed the level 13",
    "icon": "https://steamcdn-a.akamaihd.net/steamcommunity/public/images/apps/729460/4ea72cb0ca4d1f5e3f6eb31e3eed99f60f45af6e.jpg",
    "icongray": "https://steamcdn-a.akamaihd.net/steamcommunity/public/images/apps/729460/980b54c4abeceea09392f0c029ffafc256755155.jpg"
  },
  {
    "name": "LEVEL14_2",
    "defaultvalue": 0,
    "displayName": "Level 14 completed",
    "hidden": 0,
    "description": "You have completed the level 14",
    "icon": "https://steamcdn-a.akamaihd.net/steamcommunity/public/images/apps/729460/dca741fe3f94fd79a296491f4bbba4734ccf373b.jpg",
    "icongray": "https://steamcdn-a.akamaihd.net/steamcommunity/public/images/apps/729460/980b54c4abeceea09392f0c029ffafc256755155.jpg"
  },
  {
    "name": "LEVEL15_2",
    "defaultvalue": 0,
    "displayName": "Level 15 completed",
    "hidden": 0,
    "description": "You have completed the level 15",
    "icon": "https://steamcdn-a.akamaihd.net/steamcommunity/public/images/apps/729460/f12dd0db35c7ed9ee65d2c03a070c660955aa43c.jpg",
    "icongray": "https://steamcdn-a.akamaihd.net/steamcommunity/public/images/apps/729460/980b54c4abeceea09392f0c029ffafc256755155.jpg"
  },
  {
    "name": "LEVEL16_2",
    "defaultvalue": 0,
    "displayName": "Level 16 completed",
    "hidden": 0,
    "description": "You have completed the level 16",
    "icon": "https://steamcdn-a.akamaihd.net/steamcommunity/public/images/apps/729460/9e5108f9932ae08e491bb50e6db5581e5b6fb2c9.jpg",
    "icongray": "https://steamcdn-a.akamaihd.net/steamcommunity/public/images/apps/729460/980b54c4abeceea09392f0c029ffafc256755155.jpg"
  },
  {
    "name": "LEVEL17_2",
    "defaultvalue": 0,
    "displayName": "Level 17 completed",
    "hidden": 0,
    "description": "You have completed the level 17",
    "icon": "https://steamcdn-a.akamaihd.net/steamcommunity/public/images/apps/729460/4769d9f252fa395618f5ebdcec3351dbf1a59459.jpg",
    "icongray": "https://steamcdn-a.akamaihd.net/steamcommunity/public/images/apps/729460/980b54c4abeceea09392f0c029ffafc256755155.jpg"
  },
  {
    "name": "LEVEL18_2",
    "defaultvalue": 0,
    "displayName": "Level 18 completed",
    "hidden": 0,
    "description": "You have completed the level 18",
    "icon": "https://steamcdn-a.akamaihd.net/steamcommunity/public/images/apps/729460/1e60919fc77ce547ca02c817b2e262b2df2c2bf7.jpg",
    "icongray": "https://steamcdn-a.akamaihd.net/steamcommunity/public/images/apps/729460/980b54c4abeceea09392f0c029ffafc256755155.jpg"
  },
  {
    "name": "LEVEL19_2",
    "defaultvalue": 0,
    "displayName": "Level 19 completed",
    "hidden": 0,
    "description": "You have completed the level 19",
    "icon": "https://steamcdn-a.akamaihd.net/steamcommunity/public/images/apps/729460/f57541514cd5df7e305a1d236186bbe823b4feff.jpg",
    "icongray": "https://steamcdn-a.akamaihd.net/steamcommunity/public/images/apps/729460/980b54c4abeceea09392f0c029ffafc256755155.jpg"
  },
  {
    "name": "LEVEL20_2",
    "defaultvalue": 0,
    "displayName": "Level 20 completed",
    "hidden": 0,
    "description": "You have completed the level 20",
    "icon": "https://steamcdn-a.akamaihd.net/steamcommunity/public/images/apps/729460/9d607fc328e0aa1a2aa7c4c2055b2fb578494344.jpg",
    "icongray": "https://steamcdn-a.akamaihd.net/steamcommunity/public/images/apps/729460/980b54c4abeceea09392f0c029ffafc256755155.jpg"
  },
  {
    "name": "LEVEL21_2",
    "defaultvalue": 0,
    "displayName": "Level 21 completed",
    "hidden": 0,
    "description": "You have completed the level 21",
    "icon": "https://steamcdn-a.akamaihd.net/steamcommunity/public/images/apps/729460/364ea9638022924dcf6b4f0211c5e2c7f6b7fd1f.jpg",
    "icongray": "https://steamcdn-a.akamaihd.net/steamcommunity/public/images/apps/729460/980b54c4abeceea09392f0c029ffafc256755155.jpg"
  },
  {
    "name": "LEVEL22_2",
    "defaultvalue": 0,
    "displayName": "Level 22 completed",
    "hidden": 0,
    "description": "You have completed the level 22",
    "icon": "https://steamcdn-a.akamaihd.net/steamcommunity/public/images/apps/729460/97286be974d2266f90eccf6bf6a528daab0c9bc5.jpg",
    "icongray": "https://steamcdn-a.akamaihd.net/steamcommunity/public/images/apps/729460/980b54c4abeceea09392f0c029ffafc256755155.jpg"
  },
  {
    "name": "LEVEL23_2",
    "defaultvalue": 0,
    "displayName": "Level 23 completed",
    "hidden": 0,
    "description": "You have completed the level 23",
    "icon": "https://steamcdn-a.akamaihd.net/steamcommunity/public/images/apps/729460/1a89508e5daa1f31a651aa33c58cccbd2268d5bd.jpg",
    "icongray": "https://steamcdn-a.akamaihd.net/steamcommunity/public/images/apps/729460/980b54c4abeceea09392f0c029ffafc256755155.jpg"
  },
  {
    "name": "LEVEL24_2",
    "defaultvalue": 0,
    "displayName": "Level 24 completed",
    "hidden": 0,
    "description": "You have completed the level 24",
    "icon": "https://steamcdn-a.akamaihd.net/steamcommunity/public/images/apps/729460/a18e15db74b299f054cb3b80371657c0e83134b1.jpg",
    "icongray": "https://steamcdn-a.akamaihd.net/steamcommunity/public/images/apps/729460/980b54c4abeceea09392f0c029ffafc256755155.jpg"
  },
  {
    "name": "LEVEL25_2",
    "defaultvalue": 0,
    "displayName": "Level 25 completed",
    "hidden": 0,
    "description": "You have completed the level 25",
    "icon": "https://steamcdn-a.akamaihd.net/steamcommunity/public/images/apps/729460/1d107ca08e75b6ff1413d53b94475737f2ff67dc.jpg",
    "icongray": "https://steamcdn-a.akamaihd.net/steamcommunity/public/images/apps/729460/980b54c4abeceea09392f0c029ffafc256755155.jpg"
  },
  {
    "name": "LEVEL26_2",
    "defaultvalue": 0,
    "displayName": "Level 26 completed",
    "hidden": 0,
    "description": "You have completed the level 26",
    "icon": "https://steamcdn-a.akamaihd.net/steamcommunity/public/images/apps/729460/35ae962dd5382b10034ad221dca3a6eb3e05beec.jpg",
    "icongray": "https://steamcdn-a.akamaihd.net/steamcommunity/public/images/apps/729460/980b54c4abeceea09392f0c029ffafc256755155.jpg"
  },
  {
    "name": "NUM1_2",
    "defaultvalue": 0,
    "displayName": "Level 1/10 completed",
    "hidden": 0,
    "description": "You have completed the level 1/10",
    "icon": "https://steamcdn-a.akamaihd.net/steamcommunity/public/images/apps/729460/b979cb4607143b08d2e0f91a953e99f4dcb783f3.jpg",
    "icongray": "https://steamcdn-a.akamaihd.net/steamcommunity/public/images/apps/729460/980b54c4abeceea09392f0c029ffafc256755155.jpg"
  },
  {
    "name": "NUM2_2",
    "defaultvalue": 0,
    "displayName": "Level 2/10 completed",
    "hidden": 0,
    "description": "You have completed the level 2/10",
    "icon": "https://steamcdn-a.akamaihd.net/steamcommunity/public/images/apps/729460/59d398df1e9658f6d8e19ecf8ae89a44281aa121.jpg",
    "icongray": "https://steamcdn-a.akamaihd.net/steamcommunity/public/images/apps/729460/980b54c4abeceea09392f0c029ffafc256755155.jpg"
  },
  {
    "name": "NUM3_2",
    "defaultvalue": 0,
    "displayName": "Level 3/10 completed",
    "hidden": 0,
    "description": "You have completed the level 3/10",
    "icon": "https://steamcdn-a.akamaihd.net/steamcommunity/public/images/apps/729460/64c7cdf2ea69fb1e2a52bd3237f4db47fed2c363.jpg",
    "icongray": "https://steamcdn-a.akamaihd.net/steamcommunity/public/images/apps/729460/980b54c4abeceea09392f0c029ffafc256755155.jpg"
  },
  {
    "name": "NUM4_2",
    "defaultvalue": 0,
    "displayName": "Level 4/10 completed",
    "hidden": 0,
    "description": "You have completed the level 4/10",
    "icon": "https://steamcdn-a.akamaihd.net/steamcommunity/public/images/apps/729460/f5baec5100ac69d152cc4f91846663783c6ed30c.jpg",
    "icongray": "https://steamcdn-a.akamaihd.net/steamcommunity/public/images/apps/729460/980b54c4abeceea09392f0c029ffafc256755155.jpg"
  },
  {
    "name": "NUM5_2",
    "defaultvalue": 0,
    "displayName": "Level 5/10 completed",
    "hidden": 0,
    "description": "You have completed the level 5/10",
    "icon": "https://steamcdn-a.akamaihd.net/steamcommunity/public/images/apps/729460/bf8fc91c1b8321e0bc0b1f7ce748b03121957b5b.jpg",
    "icongray": "https://steamcdn-a.akamaihd.net/steamcommunity/public/images/apps/729460/980b54c4abeceea09392f0c029ffafc256755155.jpg"
  },
  {
    "name": "NUM6_2",
    "defaultvalue": 0,
    "displayName": "Level 6/10 completed",
    "hidden": 0,
    "description": "You have completed the level 6/10",
    "icon": "https://steamcdn-a.akamaihd.net/steamcommunity/public/images/apps/729460/8b440dc978ccc72aa0e87f4a9f080b22f90a12f2.jpg",
    "icongray": "https://steamcdn-a.akamaihd.net/steamcommunity/public/images/apps/729460/980b54c4abeceea09392f0c029ffafc256755155.jpg"
  },
  {
    "name": "NUM7_2",
    "defaultvalue": 0,
    "displayName": "Level 7/10 completed",
    "hidden": 0,
    "description": "You have completed the level 7/10",
    "icon": "https://steamcdn-a.akamaihd.net/steamcommunity/public/images/apps/729460/47750d74e7cda11a87370c2e236299474f255954.jpg",
    "icongray": "https://steamcdn-a.akamaihd.net/steamcommunity/public/images/apps/729460/980b54c4abeceea09392f0c029ffafc256755155.jpg"
  },
  {
    "name": "NUM8_2",
    "defaultvalue": 0,
    "displayName": "Level 8/10 completed",
    "hidden": 0,
    "description": "You have completed the level 8/10",
    "icon": "https://steamcdn-a.akamaihd.net/steamcommunity/public/images/apps/729460/08ba903236f3e32a987a94ba48787199c37380bf.jpg",
    "icongray": "https://steamcdn-a.akamaihd.net/steamcommunity/public/images/apps/729460/980b54c4abeceea09392f0c029ffafc256755155.jpg"
  },
  {
    "name": "NUM9_2",
    "defaultvalue": 0,
    "displayName": "Level 9/10 completed",
    "hidden": 0,
    "description": "You have completed the level 9/10",
    "icon": "https://steamcdn-a.akamaihd.net/steamcommunity/public/images/apps/729460/05a957a6864ade4a2d41af9331f45f9acc5854d0.jpg",
    "icongray": "https://steamcdn-a.akamaihd.net/steamcommunity/public/images/apps/729460/980b54c4abeceea09392f0c029ffafc256755155.jpg"
  },
  {
    "name": "NUM10_2",
    "defaultvalue": 0,
    "displayName": "Level 10/10 completed",
    "hidden": 0,
    "description": "You have completed the level 10/10",
    "icon": "https://steamcdn-a.akamaihd.net/steamcommunity/public/images/apps/729460/8de5986294999fb10dae16800c124f6b6af4875b.jpg",
    "icongray": "https://steamcdn-a.akamaihd.net/steamcommunity/public/images/apps/729460/980b54c4abeceea09392f0c029ffafc256755155.jpg"
  },
  {
    "name": "LEVEL1_3",
    "defaultvalue": 0,
    "displayName": "Level 1 completed",
    "hidden": 0,
    "description": "You have completed the level 1",
    "icon": "https://steamcdn-a.akamaihd.net/steamcommunity/public/images/apps/729460/51a1bdd04f8f7b0de7342c2d8a132dc2eb919616.jpg",
    "icongray": "https://steamcdn-a.akamaihd.net/steamcommunity/public/images/apps/729460/980b54c4abeceea09392f0c029ffafc256755155.jpg"
  },
  {
    "name": "LEVEL2_3",
    "defaultvalue": 0,
    "displayName": "Level 2 completed",
    "hidden": 0,
    "description": "You have completed the level 2",
    "icon": "https://steamcdn-a.akamaihd.net/steamcommunity/public/images/apps/729460/d037ff84a59dbed61fe64bac5c6e2f7350513df9.jpg",
    "icongray": "https://steamcdn-a.akamaihd.net/steamcommunity/public/images/apps/729460/980b54c4abeceea09392f0c029ffafc256755155.jpg"
  },
  {
    "name": "LEVEL3_3",
    "defaultvalue": 0,
    "displayName": "Level 3 completed",
    "hidden": 0,
    "description": "You have completed the level 3",
    "icon": "https://steamcdn-a.akamaihd.net/steamcommunity/public/images/apps/729460/ff0b97da570b1ccb46a30fda72ce68db4f2d4d4f.jpg",
    "icongray": "https://steamcdn-a.akamaihd.net/steamcommunity/public/images/apps/729460/980b54c4abeceea09392f0c029ffafc256755155.jpg"
  },
  {
    "name": "LEVEL4_3",
    "defaultvalue": 0,
    "displayName": "Level 4 completed",
    "hidden": 0,
    "description": "You have completed the level 4",
    "icon": "https://steamcdn-a.akamaihd.net/steamcommunity/public/images/apps/729460/a65b0696e2407a392214035ae055dca853cc9612.jpg",
    "icongray": "https://steamcdn-a.akamaihd.net/steamcommunity/public/images/apps/729460/980b54c4abeceea09392f0c029ffafc256755155.jpg"
  },
  {
    "name": "LEVEL5_3",
    "defaultvalue": 0,
    "displayName": "Level 5 completed",
    "hidden": 0,
    "description": "You have completed the level 5",
    "icon": "https://steamcdn-a.akamaihd.net/steamcommunity/public/images/apps/729460/8899568b1adb03eb35352926733b63a63c1ef373.jpg",
    "icongray": "https://steamcdn-a.akamaihd.net/steamcommunity/public/images/apps/729460/980b54c4abeceea09392f0c029ffafc256755155.jpg"
  },
  {
    "name": "LEVEL6_3",
    "defaultvalue": 0,
    "displayName": "Level 6 completed",
    "hidden": 0,
    "description": "You have completed the level 6",
    "icon": "https://steamcdn-a.akamaihd.net/steamcommunity/public/images/apps/729460/8c31ed6d69f7f2ef5997243af190167d340ccaa3.jpg",
    "icongray": "https://steamcdn-a.akamaihd.net/steamcommunity/public/images/apps/729460/8bdf844454f8cae5c10fca3a97a912a8e6d28f43.jpg"
  },
  {
    "name": "LEVEL7_3",
    "defaultvalue": 0,
    "displayName": "Level 7 completed",
    "hidden": 0,
    "description": "You have completed the level 7",
    "icon": "https://steamcdn-a.akamaihd.net/steamcommunity/public/images/apps/729460/5eee75b5193cdf924824f49097c4ca19558b2b92.jpg",
    "icongray": "https://steamcdn-a.akamaihd.net/steamcommunity/public/images/apps/729460/980b54c4abeceea09392f0c029ffafc256755155.jpg"
  },
  {
    "name": "LEVEL8_3",
    "defaultvalue": 0,
    "displayName": "Level 8 completed",
    "hidden": 0,
    "description": "You have completed the level 8",
    "icon": "https://steamcdn-a.akamaihd.net/steamcommunity/public/images/apps/729460/8c73d1d96dfbcfc9aebeb3338e191ce53e07be1c.jpg",
    "icongray": "https://steamcdn-a.akamaihd.net/steamcommunity/public/images/apps/729460/980b54c4abeceea09392f0c029ffafc256755155.jpg"
  },
  {
    "name": "LEVEL9_3",
    "defaultvalue": 0,
    "displayName": "Level 9 completed",
    "hidden": 0,
    "description": "You have completed the level 9",
    "icon": "https://steamcdn-a.akamaihd.net/steamcommunity/public/images/apps/729460/9f65ca322c7b3bd19dac10d88720a9de76fe0909.jpg",
    "icongray": "https://steamcdn-a.akamaihd.net/steamcommunity/public/images/apps/729460/980b54c4abeceea09392f0c029ffafc256755155.jpg"
  },
  {
    "name": "LEVEL10_3",
    "defaultvalue": 0,
    "displayName": "Level 10 completed",
    "hidden": 0,
    "description": "You have completed the level 10",
    "icon": "https://steamcdn-a.akamaihd.net/steamcommunity/public/images/apps/729460/43f885e8a0294743fe017f820960c4d2fea9ab58.jpg",
    "icongray": "https://steamcdn-a.akamaihd.net/steamcommunity/public/images/apps/729460/980b54c4abeceea09392f0c029ffafc256755155.jpg"
  },
  {
    "name": "LEVEL11_3",
    "defaultvalue": 0,
    "displayName": "Level 11 completed",
    "hidden": 0,
    "description": "You have completed the level 11",
    "icon": "https://steamcdn-a.akamaihd.net/steamcommunity/public/images/apps/729460/d3fff0535144bd680a493f9dbd209c72faf5d7fa.jpg",
    "icongray": "https://steamcdn-a.akamaihd.net/steamcommunity/public/images/apps/729460/980b54c4abeceea09392f0c029ffafc256755155.jpg"
  },
  {
    "name": "LEVEL12_3",
    "defaultvalue": 0,
    "displayName": "Level 12 completed",
    "hidden": 0,
    "description": "You have completed the level 12",
    "icon": "https://steamcdn-a.akamaihd.net/steamcommunity/public/images/apps/729460/eba113b77e6d23dabcf683ceeb967f9ea9a2eb77.jpg",
    "icongray": "https://steamcdn-a.akamaihd.net/steamcommunity/public/images/apps/729460/980b54c4abeceea09392f0c029ffafc256755155.jpg"
  },
  {
    "name": "LEVEL13_3",
    "defaultvalue": 0,
    "displayName": "Level 13completed",
    "hidden": 0,
    "description": "You have completed the level 13",
    "icon": "https://steamcdn-a.akamaihd.net/steamcommunity/public/images/apps/729460/32ca74d9ad4c81efdb60e6d64f782ec98202eec9.jpg",
    "icongray": "https://steamcdn-a.akamaihd.net/steamcommunity/public/images/apps/729460/980b54c4abeceea09392f0c029ffafc256755155.jpg"
  },
  {
    "name": "LEVEL14_3",
    "defaultvalue": 0,
    "displayName": "Level 14 completed",
    "hidden": 0,
    "description": "You have completed the level 14",
    "icon": "https://steamcdn-a.akamaihd.net/steamcommunity/public/images/apps/729460/0c9f3cdd185d9929978a35bd394af3e85b01e22b.jpg",
    "icongray": "https://steamcdn-a.akamaihd.net/steamcommunity/public/images/apps/729460/980b54c4abeceea09392f0c029ffafc256755155.jpg"
  },
  {
    "name": "LEVEL15_3",
    "defaultvalue": 0,
    "displayName": "Level 15 completed",
    "hidden": 0,
    "description": "You have completed the level 15",
    "icon": "https://steamcdn-a.akamaihd.net/steamcommunity/public/images/apps/729460/a7dc93ecdc3d9926dd6d3508e1605eb3ce966eed.jpg",
    "icongray": "https://steamcdn-a.akamaihd.net/steamcommunity/public/images/apps/729460/980b54c4abeceea09392f0c029ffafc256755155.jpg"
  },
  {
    "name": "LEVEL16_3",
    "defaultvalue": 0,
    "displayName": "Level 16 completed",
    "hidden": 0,
    "description": "You have completed the level 16",
    "icon": "https://steamcdn-a.akamaihd.net/steamcommunity/public/images/apps/729460/40914bb7e49176d69049267b5498e4e20f507cd1.jpg",
    "icongray": "https://steamcdn-a.akamaihd.net/steamcommunity/public/images/apps/729460/8bdf844454f8cae5c10fca3a97a912a8e6d28f43.jpg"
  },
  {
    "name": "LEVEL17_3",
    "defaultvalue": 0,
    "displayName": "Level 17 completed",
    "hidden": 0,
    "description": "You have completed the level 17",
    "icon": "https://steamcdn-a.akamaihd.net/steamcommunity/public/images/apps/729460/c7dbe9d70160127f24a153e350203bb37c1406d4.jpg",
    "icongray": "https://steamcdn-a.akamaihd.net/steamcommunity/public/images/apps/729460/980b54c4abeceea09392f0c029ffafc256755155.jpg"
  },
  {
    "name": "LEVEL18_3",
    "defaultvalue": 0,
    "displayName": "Level 18 completed",
    "hidden": 0,
    "description": "You have completed the level 18",
    "icon": "https://steamcdn-a.akamaihd.net/steamcommunity/public/images/apps/729460/65bf382daa1b0bd26aed7fe112cb208f058e9b6f.jpg",
    "icongray": "https://steamcdn-a.akamaihd.net/steamcommunity/public/images/apps/729460/980b54c4abeceea09392f0c029ffafc256755155.jpg"
  },
  {
    "name": "LEVEL19_3",
    "defaultvalue": 0,
    "displayName": "Level 19 completed",
    "hidden": 0,
    "description": "You have completed the level 19",
    "icon": "https://steamcdn-a.akamaihd.net/steamcommunity/public/images/apps/729460/4f18630d0720047010ea09418d568f7648bdc817.jpg",
    "icongray": "https://steamcdn-a.akamaihd.net/steamcommunity/public/images/apps/729460/980b54c4abeceea09392f0c029ffafc256755155.jpg"
  },
  {
    "name": "LEVEL20_3",
    "defaultvalue": 0,
    "displayName": "Level 20 completed",
    "hidden": 0,
    "description": "You have completed the level 20",
    "icon": "https://steamcdn-a.akamaihd.net/steamcommunity/public/images/apps/729460/bc7fa6d7ea77c2a610406d7731cf7a54f074a44c.jpg",
    "icongray": "https://steamcdn-a.akamaihd.net/steamcommunity/public/images/apps/729460/980b54c4abeceea09392f0c029ffafc256755155.jpg"
  },
  {
    "name": "LEVEL21_3",
    "defaultvalue": 0,
    "displayName": "Level 21 completed",
    "hidden": 0,
    "description": "You have completed the level 21",
    "icon": "https://steamcdn-a.akamaihd.net/steamcommunity/public/images/apps/729460/96053f071f8fcf02466c1e01262a79cf7d736222.jpg",
    "icongray": "https://steamcdn-a.akamaihd.net/steamcommunity/public/images/apps/729460/980b54c4abeceea09392f0c029ffafc256755155.jpg"
  },
  {
    "name": "LEVEL22_3",
    "defaultvalue": 0,
    "displayName": "Level 22 completed",
    "hidden": 0,
    "description": "You have completed the level 22",
    "icon": "https://steamcdn-a.akamaihd.net/steamcommunity/public/images/apps/729460/735ae40bf617f52c9037772cb5ba6513edaae27e.jpg",
    "icongray": "https://steamcdn-a.akamaihd.net/steamcommunity/public/images/apps/729460/980b54c4abeceea09392f0c029ffafc256755155.jpg"
  },
  {
    "name": "LEVEL23_3",
    "defaultvalue": 0,
    "displayName": "Level 23 completed",
    "hidden": 0,
    "description": "You have completed the level 23",
    "icon": "https://steamcdn-a.akamaihd.net/steamcommunity/public/images/apps/729460/2a09d381de43bc496fec6da2480f5d90d1670cb7.jpg",
    "icongray": "https://steamcdn-a.akamaihd.net/steamcommunity/public/images/apps/729460/980b54c4abeceea09392f0c029ffafc256755155.jpg"
  },
  {
    "name": "LEVEL24_3",
    "defaultvalue": 0,
    "displayName": "Level 24 completed",
    "hidden": 0,
    "description": "You have completed the level 24",
    "icon": "https://steamcdn-a.akamaihd.net/steamcommunity/public/images/apps/729460/17b26b8a1bdc32ff8e664a35684bacaae7c2fd58.jpg",
    "icongray": "https://steamcdn-a.akamaihd.net/steamcommunity/public/images/apps/729460/980b54c4abeceea09392f0c029ffafc256755155.jpg"
  },
  {
    "name": "LEVEL25_3",
    "defaultvalue": 0,
    "displayName": "Level 25 completed",
    "hidden": 0,
    "description": "You have completed the level 25",
    "icon": "https://steamcdn-a.akamaihd.net/steamcommunity/public/images/apps/729460/23adcfc6b6e093d1b035a3016175f5d46cccf5ea.jpg",
    "icongray": "https://steamcdn-a.akamaihd.net/steamcommunity/public/images/apps/729460/980b54c4abeceea09392f0c029ffafc256755155.jpg"
  },
  {
    "name": "LEVEL26_3",
    "defaultvalue": 0,
    "displayName": "Level 26 completed",
    "hidden": 0,
    "description": "You have completed the level 26",
    "icon": "https://steamcdn-a.akamaihd.net/steamcommunity/public/images/apps/729460/8afc959ee4939c9c3786956e202ebc761d36d0fc.jpg",
    "icongray": "https://steamcdn-a.akamaihd.net/steamcommunity/public/images/apps/729460/980b54c4abeceea09392f0c029ffafc256755155.jpg"
  },
  {
    "name": "NUM1_3",
    "defaultvalue": 0,
    "displayName": "Level 1/10 completed",
    "hidden": 0,
    "description": "You have completed the level 1/10",
    "icon": "https://steamcdn-a.akamaihd.net/steamcommunity/public/images/apps/729460/eed3071e54fbfc34f9828b800cbda14de60f5781.jpg",
    "icongray": "https://steamcdn-a.akamaihd.net/steamcommunity/public/images/apps/729460/980b54c4abeceea09392f0c029ffafc256755155.jpg"
  },
  {
    "name": "NUM2_3",
    "defaultvalue": 0,
    "displayName": "Level 2/10 completed",
    "hidden": 0,
    "description": "You have completed the level 2/10",
    "icon": "https://steamcdn-a.akamaihd.net/steamcommunity/public/images/apps/729460/f82d09431fd129c34b7583070594ba203afcaafa.jpg",
    "icongray": "https://steamcdn-a.akamaihd.net/steamcommunity/public/images/apps/729460/980b54c4abeceea09392f0c029ffafc256755155.jpg"
  },
  {
    "name": "NUM3_3",
    "defaultvalue": 0,
    "displayName": "Level 3/10 completed",
    "hidden": 0,
    "description": "You have completed the level 3/10",
    "icon": "https://steamcdn-a.akamaihd.net/steamcommunity/public/images/apps/729460/88b0091cee04b129f414ffc9ca6ff41c15d796e4.jpg",
    "icongray": "https://steamcdn-a.akamaihd.net/steamcommunity/public/images/apps/729460/980b54c4abeceea09392f0c029ffafc256755155.jpg"
  },
  {
    "name": "NUM4_3",
    "defaultvalue": 0,
    "displayName": "Level 4/10 completed",
    "hidden": 0,
    "description": "You have completed the level 4/10",
    "icon": "https://steamcdn-a.akamaihd.net/steamcommunity/public/images/apps/729460/f27dc4c5a8c67a7440338a006d43a2b4d72aff1b.jpg",
    "icongray": "https://steamcdn-a.akamaihd.net/steamcommunity/public/images/apps/729460/980b54c4abeceea09392f0c029ffafc256755155.jpg"
  },
  {
    "name": "NUM5_3",
    "defaultvalue": 0,
    "displayName": "Level 5/10 completed",
    "hidden": 0,
    "description": "You have completed the level 5/10",
    "icon": "https://steamcdn-a.akamaihd.net/steamcommunity/public/images/apps/729460/ad76858e52a9818c452f5a8abd1522fc2d8ca153.jpg",
    "icongray": "https://steamcdn-a.akamaihd.net/steamcommunity/public/images/apps/729460/980b54c4abeceea09392f0c029ffafc256755155.jpg"
  },
  {
    "name": "NUM6_3",
    "defaultvalue": 0,
    "displayName": "Level 6/10 completed",
    "hidden": 0,
    "description": "You have completed the level 6/10",
    "icon": "https://steamcdn-a.akamaihd.net/steamcommunity/public/images/apps/729460/fd17a95ef9c135d40eb8044708c9e6a1ac33a693.jpg",
    "icongray": "https://steamcdn-a.akamaihd.net/steamcommunity/public/images/apps/729460/980b54c4abeceea09392f0c029ffafc256755155.jpg"
  },
  {
    "name": "NUM7_3",
    "defaultvalue": 0,
    "displayName": "Level 7/10 completed",
    "hidden": 0,
    "description": "You have completed the level 7/10",
    "icon": "https://steamcdn-a.akamaihd.net/steamcommunity/public/images/apps/729460/0e579dd363952f8cb3120ac5ffdbb25d2b4f96f3.jpg",
    "icongray": "https://steamcdn-a.akamaihd.net/steamcommunity/public/images/apps/729460/980b54c4abeceea09392f0c029ffafc256755155.jpg"
  },
  {
    "name": "NUM8_3",
    "defaultvalue": 0,
    "displayName": "Level 8/10 completed",
    "hidden": 0,
    "description": "You have completed the level 8/10",
    "icon": "https://steamcdn-a.akamaihd.net/steamcommunity/public/images/apps/729460/cada4c7fa4ba7547f9089e8b4466ee0b50f52a74.jpg",
    "icongray": "https://steamcdn-a.akamaihd.net/steamcommunity/public/images/apps/729460/980b54c4abeceea09392f0c029ffafc256755155.jpg"
  },
  {
    "name": "NUM9_3",
    "defaultvalue": 0,
    "displayName": "Level 9/10 completed",
    "hidden": 0,
    "description": "You have completed the level 9/10",
    "icon": "https://steamcdn-a.akamaihd.net/steamcommunity/public/images/apps/729460/177493b205384f2c161a1128f10459e519229d26.jpg",
    "icongray": "https://steamcdn-a.akamaihd.net/steamcommunity/public/images/apps/729460/980b54c4abeceea09392f0c029ffafc256755155.jpg"
  },
  {
    "name": "NUM10_3",
    "defaultvalue": 0,
    "displayName": "Level 10/10 completed",
    "hidden": 0,
    "description": "You have completed the level 10/10",
    "icon": "https://steamcdn-a.akamaihd.net/steamcommunity/public/images/apps/729460/8d62b1c1cda100e8756205cf376dca18b320df93.jpg",
    "icongray": "https://steamcdn-a.akamaihd.net/steamcommunity/public/images/apps/729460/980b54c4abeceea09392f0c029ffafc256755155.jpg"
  }
]