﻿[
  {
    "name": "A_BuyAnyAbil",
    "defaultvalue": 0,
    "displayName": "MODIFIER",
    "hidden": 0,
    "description": "Buy any special ability in the store.",
    "icon": "https://steamcdn-a.akamaihd.net/steamcommunity/public/images/apps/264300/e5881827bb52fb381e29a1586a71659b4f3b8147.jpg",
    "icongray": "https://steamcdn-a.akamaihd.net/steamcommunity/public/images/apps/264300/33d10a9a6a92968d41fe6ea4840abc660e80e962.jpg"
  },
  {
    "name": "A_BuyAnyGun",
    "defaultvalue": 0,
    "displayName": "ARMOURER",
    "hidden": 0,
    "description": "Buy 5 any weapons in the store.",
    "icon": "https://steamcdn-a.akamaihd.net/steamcommunity/public/images/apps/264300/0c37ddf3532599ed6f29160c233645956f94c77e.jpg",
    "icongray": "https://steamcdn-a.akamaihd.net/steamcommunity/public/images/apps/264300/c4b3ba6d9a109504947546448d61a767b94db655.jpg"
  },
  {
    "name": "A_CompleteNHard",
    "defaultvalue": 0,
    "displayName": "HARDCORE",
    "hidden": 0,
    "description": "Complete 8 battles on HELL difficulty.",
    "icon": "https://steamcdn-a.akamaihd.net/steamcommunity/public/images/apps/264300/81c3d82336d20d39fce9af6a3d8a1d950fe5db92.jpg",
    "icongray": "https://steamcdn-a.akamaihd.net/steamcommunity/public/images/apps/264300/d741367dfb08ded861acb6ae330a5953bddfc567.jpg"
  },
  {
    "name": "A_CompleteNLevels3Stars",
    "defaultvalue": 0,
    "displayName": "HIGH FLYER",
    "hidden": 0,
    "description": "Complete 8 levels with 3 stars.",
    "icon": "https://steamcdn-a.akamaihd.net/steamcommunity/public/images/apps/264300/6fa95379d37e2aecdb710028859f1d0f89d36328.jpg",
    "icongray": "https://steamcdn-a.akamaihd.net/steamcommunity/public/images/apps/264300/13ac2e9873239627a1bd9efd2a8836535d7a6252.jpg"
  },
  {
    "name": "A_CureOnce",
    "defaultvalue": 0,
    "displayName": "KENNYONE",
    "hidden": 0,
    "description": "Resurrect.",
    "icon": "https://steamcdn-a.akamaihd.net/steamcommunity/public/images/apps/264300/988c5d3a788a5724779927e16012f2731e4ade19.jpg",
    "icongray": "https://steamcdn-a.akamaihd.net/steamcommunity/public/images/apps/264300/61ac1a18f9099e00daefc289d6e732aba8403855.jpg"
  },
  {
    "name": "A_DestroyNBlockCristals",
    "defaultvalue": 0,
    "displayName": "DESPERADO",
    "hidden": 0,
    "description": "Destroy 1200 crystals blocking the way.",
    "icon": "https://steamcdn-a.akamaihd.net/steamcommunity/public/images/apps/264300/83d25380ac117ea5a590ffef840e4ff26981c5c5.jpg",
    "icongray": "https://steamcdn-a.akamaihd.net/steamcommunity/public/images/apps/264300/3b9a43aa42f98b8d04f789c57e751c55690c06b0.jpg"
  },
  {
    "name": "A_Don'tUseMedsNLevels",
    "defaultvalue": 0,
    "displayName": "DIEHARD",
    "hidden": 0,
    "description": "Don't use medkits for 5 levels in a row.",
    "icon": "https://steamcdn-a.akamaihd.net/steamcommunity/public/images/apps/264300/7c0d5e9bd66a20d438976526cc0c9a265b5a0860.jpg",
    "icongray": "https://steamcdn-a.akamaihd.net/steamcommunity/public/images/apps/264300/ddcf78c3c862975b0bc6f8049850b91aeffade98.jpg"
  },
  {
    "name": "A_FindAllSecrets_Global",
    "defaultvalue": 0,
    "displayName": "RESEARCHER",
    "hidden": 0,
    "description": "Collect all samples of matter hidden in the levels.",
    "icon": "https://steamcdn-a.akamaihd.net/steamcommunity/public/images/apps/264300/937842e6c98edc6314be357eb871328280e4d3e2.jpg",
    "icongray": "https://steamcdn-a.akamaihd.net/steamcommunity/public/images/apps/264300/e29b13da7a443036e8c9f6977d94595f645d8860.jpg"
  },
  {
    "name": "A_FullUpgradeOfAnyTower",
    "defaultvalue": 0,
    "displayName": "MECHANIC",
    "hidden": 0,
    "description": "Fully upgrade any turret.",
    "icon": "https://steamcdn-a.akamaihd.net/steamcommunity/public/images/apps/264300/a63acebddb42ce10eb0d9cd42f4aa7373c3c2e44.jpg",
    "icongray": "https://steamcdn-a.akamaihd.net/steamcommunity/public/images/apps/264300/eb1e449a7e54dbd4fab98b724b688a138345e044.jpg"
  },
  {
    "name": "A_FullUpgradeOfAnyWeapon",
    "defaultvalue": 0,
    "displayName": "CONNOISSEUR",
    "hidden": 0,
    "description": "Fully upgrade any weapon.",
    "icon": "https://steamcdn-a.akamaihd.net/steamcommunity/public/images/apps/264300/f39539e32e6f0c3366042f812968d8f4bbcdeb73.jpg",
    "icongray": "https://steamcdn-a.akamaihd.net/steamcommunity/public/images/apps/264300/c2280230d6042d1be5ef9bf29440a7390eddc9fe.jpg"
  },
  {
    "name": "A_GameComplete_3Stars",
    "defaultvalue": 0,
    "displayName": "STARGAZER",
    "hidden": 0,
    "description": "Get three stars for all the levels in the main campaign.",
    "icon": "https://steamcdn-a.akamaihd.net/steamcommunity/public/images/apps/264300/7f0116fcd3a3403e0934486124dfa4e20f79c688.jpg",
    "icongray": "https://steamcdn-a.akamaihd.net/steamcommunity/public/images/apps/264300/98b2745397c40445844f699ef19f130110420426.jpg"
  },
  {
    "name": "A_GameComplete_Hard",
    "defaultvalue": 0,
    "displayName": "HARDLINE",
    "hidden": 0,
    "description": "Complete all levels on HELL difficulty.",
    "icon": "https://steamcdn-a.akamaihd.net/steamcommunity/public/images/apps/264300/44eacefa3f44919dfd91e6b7dab3074d5c6ea7ce.jpg",
    "icongray": "https://steamcdn-a.akamaihd.net/steamcommunity/public/images/apps/264300/7cabf9423ca6ce9491c2da1dda79d5ef8bc2c666.jpg"
  },
  {
    "name": "A_GameComplete_Normal",
    "defaultvalue": 0,
    "displayName": "PLAYER",
    "hidden": 0,
    "description": "Complete all levels on HARD difficulty.",
    "icon": "https://steamcdn-a.akamaihd.net/steamcommunity/public/images/apps/264300/a58ca97e2ae9197fee97bf34f4e21e506fcf1dec.jpg",
    "icongray": "https://steamcdn-a.akamaihd.net/steamcommunity/public/images/apps/264300/61ba441165ae56a7ec630e1b8b3ad5e301d8d729.jpg"
  },
  {
    "name": "A_GameComplete",
    "defaultvalue": 0,
    "displayName": "SURVIVED",
    "hidden": 0,
    "description": "Complete the game.",
    "icon": "https://steamcdn-a.akamaihd.net/steamcommunity/public/images/apps/264300/1e36324e311fe02ad5dbe8f36ef15b2a72b2ade2.jpg",
    "icongray": "https://steamcdn-a.akamaihd.net/steamcommunity/public/images/apps/264300/31746d56f44d87bc6b8b4d8dc1959695e4854ed9.jpg"
  },
  {
    "name": "A_GameCompleteMechanic",
    "defaultvalue": 0,
    "displayName": "STRATEGIST",
    "hidden": 0,
    "description": "Complete the game with Mechanic.",
    "icon": "https://steamcdn-a.akamaihd.net/steamcommunity/public/images/apps/264300/0dc2f31abe3b706ca3775ba450a2ef571d230136.jpg",
    "icongray": "https://steamcdn-a.akamaihd.net/steamcommunity/public/images/apps/264300/9eb405a7096cd7d41390f4a31cc4a7c14111cd7c.jpg"
  },
  {
    "name": "A_GameCompleteWarrior",
    "defaultvalue": 0,
    "displayName": "COMMANDOS",
    "hidden": 0,
    "description": "Complete the game with Warrior.",
    "icon": "https://steamcdn-a.akamaihd.net/steamcommunity/public/images/apps/264300/8671a94e3f722e31d53f23e6915cf00b47f9c069.jpg",
    "icongray": "https://steamcdn-a.akamaihd.net/steamcommunity/public/images/apps/264300/24d0669759d1911d070c9b7b0a134c95d5761e60.jpg"
  },
  {
    "name": "A_GameCompleteNet",
    "defaultvalue": 0,
    "displayName": "TEAM PLAYER",
    "hidden": 0,
    "description": "Complete all levels in cooperative mode.",
    "icon": "https://steamcdn-a.akamaihd.net/steamcommunity/public/images/apps/264300/afd56755b1c1449ea1db6cdf062be6884d721e14.jpg",
    "icongray": "https://steamcdn-a.akamaihd.net/steamcommunity/public/images/apps/264300/47377cc75ab6368cd796ba8a25ef62957aa7c462.jpg"
  },
  {
    "name": "A_KillNAnyEnemies_0",
    "defaultvalue": 0,
    "displayName": "DESTROYER III",
    "hidden": 0,
    "description": "Kill 5000 any enemies.",
    "icon": "https://steamcdn-a.akamaihd.net/steamcommunity/public/images/apps/264300/1fe6f073ee8978acdf270ab284872f8810506458.jpg",
    "icongray": "https://steamcdn-a.akamaihd.net/steamcommunity/public/images/apps/264300/18f2c4b5a625e3202e54046dfff7fd87cd24a224.jpg"
  },
  {
    "name": "A_KillNAnyEnemies_1",
    "defaultvalue": 0,
    "displayName": "DESTROYER II",
    "hidden": 0,
    "description": "Kill 10000 any enemies.",
    "icon": "https://steamcdn-a.akamaihd.net/steamcommunity/public/images/apps/264300/3bc61073acecd079975aa5802228f7c235628c62.jpg",
    "icongray": "https://steamcdn-a.akamaihd.net/steamcommunity/public/images/apps/264300/e764f32ba35f743927a2055711e9bd3bdb971cf2.jpg"
  },
  {
    "name": "A_KillNAnyEnemies_2",
    "defaultvalue": 0,
    "displayName": "DESTROYER I",
    "hidden": 0,
    "description": "Kill 20000 any enemies.",
    "icon": "https://steamcdn-a.akamaihd.net/steamcommunity/public/images/apps/264300/f3641796928e44031ba8498807f74316f437e28b.jpg",
    "icongray": "https://steamcdn-a.akamaihd.net/steamcommunity/public/images/apps/264300/a6ef2314ccaaff4f5be6eb5a8aad3946d87bfc59.jpg"
  },
  {
    "name": "A_MobKilledWithAuto_0",
    "defaultvalue": 0,
    "displayName": "TOMMY-GUNNER II",
    "hidden": 0,
    "description": "Kill 2000 enemies with auto rifle.",
    "icon": "https://steamcdn-a.akamaihd.net/steamcommunity/public/images/apps/264300/035da8adbfd8b901786b8277c853a4b25175bd7e.jpg",
    "icongray": "https://steamcdn-a.akamaihd.net/steamcommunity/public/images/apps/264300/2d0198d4b2df8602543f12adfe833a5aa6c97a09.jpg"
  },
  {
    "name": "A_MobKilledWithAuto_1",
    "defaultvalue": 0,
    "displayName": "TOMMY-GUNNER I",
    "hidden": 0,
    "description": "Kill 4000 enemies with auto rifle.",
    "icon": "https://steamcdn-a.akamaihd.net/steamcommunity/public/images/apps/264300/a7844db32b1525c607aff225edff7c32573192d4.jpg",
    "icongray": "https://steamcdn-a.akamaihd.net/steamcommunity/public/images/apps/264300/30aee3ca8efbcfe10f40314440935a49a37b6edc.jpg"
  },
  {
    "name": "A_MobKilledWithBazu_0",
    "defaultvalue": 0,
    "displayName": "GRENADER II",
    "hidden": 0,
    "description": "Kill 2000 enemies with a grenade launcher.",
    "icon": "https://steamcdn-a.akamaihd.net/steamcommunity/public/images/apps/264300/444eca29e6eec3ff0652157c5a47a1c001517148.jpg",
    "icongray": "https://steamcdn-a.akamaihd.net/steamcommunity/public/images/apps/264300/6a76a32bf5fa43db2c4a91a3d0d674af97686727.jpg"
  },
  {
    "name": "A_MobKilledWithBazu_1",
    "defaultvalue": 0,
    "displayName": "GRENADER I",
    "hidden": 0,
    "description": "Kill 4000 enemies with a grenade launcher.",
    "icon": "https://steamcdn-a.akamaihd.net/steamcommunity/public/images/apps/264300/71d23bbfbf7c0493c1a548f36a2786ffef33b620.jpg",
    "icongray": "https://steamcdn-a.akamaihd.net/steamcommunity/public/images/apps/264300/e81735624521fef6d040610b8a2288eea9053a26.jpg"
  },
  {
    "name": "A_MobKilledWithShot_0",
    "defaultvalue": 0,
    "displayName": "ASSAULTER II",
    "hidden": 0,
    "description": "Kill 2000 enemies with a shotgun.",
    "icon": "https://steamcdn-a.akamaihd.net/steamcommunity/public/images/apps/264300/d00e0346b3b7cfd8019fdb60a19a9419cdd82900.jpg",
    "icongray": "https://steamcdn-a.akamaihd.net/steamcommunity/public/images/apps/264300/53a4f2bef37d9d57dca84f4a44b8ce5ae07b5ef8.jpg"
  },
  {
    "name": "A_MobKilledWithShot_1",
    "defaultvalue": 0,
    "displayName": "ASSAULTER I",
    "hidden": 0,
    "description": "Kill 4000 enemies with a shotgun.",
    "icon": "https://steamcdn-a.akamaihd.net/steamcommunity/public/images/apps/264300/d101485a9367445bc037883f001bc2e4f55d3620.jpg",
    "icongray": "https://steamcdn-a.akamaihd.net/steamcommunity/public/images/apps/264300/ee9a596dd8acd6dad38982a811dfc0bae1ef868f.jpg"
  },
  {
    "name": "A_MobKilledWithSniper_0",
    "defaultvalue": 0,
    "displayName": "EAGLE EYE II",
    "hidden": 0,
    "description": "Kill 2000 enemies with a sniper rifle.",
    "icon": "https://steamcdn-a.akamaihd.net/steamcommunity/public/images/apps/264300/06b3974ee8e7ac5cef729597d4b4a10002619b2f.jpg",
    "icongray": "https://steamcdn-a.akamaihd.net/steamcommunity/public/images/apps/264300/502e7ededb5462e1e30f31deabfe531d6838faac.jpg"
  },
  {
    "name": "A_MobKilledWithSniper_1",
    "defaultvalue": 0,
    "displayName": "EAGLE EYE I",
    "hidden": 0,
    "description": "Kill 4000 enemies with a sniper rifle.",
    "icon": "https://steamcdn-a.akamaihd.net/steamcommunity/public/images/apps/264300/b811f5337c5d2070abf0373c083ba1a5f0f1b3db.jpg",
    "icongray": "https://steamcdn-a.akamaihd.net/steamcommunity/public/images/apps/264300/f0e9d3c08c648c211de52d9b752ddb64589dd964.jpg"
  },
  {
    "name": "A_MobKilledWithTowers",
    "defaultvalue": 0,
    "displayName": "LAZYBONES",
    "hidden": 0,
    "description": "Kill 4000 enemies with turrets.",
    "icon": "https://steamcdn-a.akamaihd.net/steamcommunity/public/images/apps/264300/191889540d4e61d08fee8b3dfdd3b9bfcd8bb700.jpg",
    "icongray": "https://steamcdn-a.akamaihd.net/steamcommunity/public/images/apps/264300/1b134bed72adc14247354123fb29a81a2de27754.jpg"
  },
  {
    "name": "A_PlayNMinutes",
    "defaultvalue": 0,
    "displayName": "INITIATE",
    "hidden": 0,
    "description": "Play the game for 30 minutes in battles.",
    "icon": "https://steamcdn-a.akamaihd.net/steamcommunity/public/images/apps/264300/4c37d3bb6a3541a48ed1d0ea6678c2794d41a906.jpg",
    "icongray": "https://steamcdn-a.akamaihd.net/steamcommunity/public/images/apps/264300/2abbc4ce3a554cefb668c57267bb8f9603f703ef.jpg"
  },
  {
    "name": "A_PlayNMinutesNet",
    "defaultvalue": 0,
    "displayName": "PARTNER",
    "hidden": 0,
    "description": "Play the game for 15 minutes in cooperative mode.",
    "icon": "https://steamcdn-a.akamaihd.net/steamcommunity/public/images/apps/264300/c1efadc0bc87f28d3e6da5aec80e4ac978b24efb.jpg",
    "icongray": "https://steamcdn-a.akamaihd.net/steamcommunity/public/images/apps/264300/54677c68b4c961e274f24b71a986707e06a473e5.jpg"
  },
  {
    "name": "A_EnemiesKilledByEnemies_0",
    "defaultvalue": 0,
    "displayName": "SLY II",
    "hidden": 0,
    "description": "Kill 400 by setting them against the others.",
    "icon": "https://steamcdn-a.akamaihd.net/steamcommunity/public/images/apps/264300/d73f67d0a75ecaf4b8f7d86ddbb0d0b4ae4ca87c.jpg",
    "icongray": "https://steamcdn-a.akamaihd.net/steamcommunity/public/images/apps/264300/623f83624810aad4f90321018a5c5cf8cc83eb0a.jpg"
  },
  {
    "name": "A_EnemiesKilledByEnemies_1",
    "defaultvalue": 0,
    "displayName": "SLY I",
    "hidden": 0,
    "description": "Kill 900 by setting them against the others.",
    "icon": "https://steamcdn-a.akamaihd.net/steamcommunity/public/images/apps/264300/05d6f163b572632aaaebff919d7275857e4915d9.jpg",
    "icongray": "https://steamcdn-a.akamaihd.net/steamcommunity/public/images/apps/264300/ba4a14a2fa4f0bd03595a3426e63973f53cff096.jpg"
  },
  {
    "name": "A_KillNEmeniesPerKTime",
    "defaultvalue": 0,
    "displayName": "MULTIFUNCTIONAL",
    "hidden": 0,
    "description": "kill 15 enemies in 2 seconds with any gun.",
    "icon": "https://steamcdn-a.akamaihd.net/steamcommunity/public/images/apps/264300/0daea97beda5dd626333cf8940a3cb742d24ac3a.jpg",
    "icongray": "https://steamcdn-a.akamaihd.net/steamcommunity/public/images/apps/264300/7fe1ff00cafd0b1745fc856b16bb8ca36aa6edd4.jpg"
  },
  {
    "name": "A_NoKillEnemyByTowers",
    "defaultvalue": 0,
    "displayName": "ONEMAN ARMY",
    "hidden": 0,
    "description": "Don't use turrets while 10 battles.",
    "icon": "https://steamcdn-a.akamaihd.net/steamcommunity/public/images/apps/264300/f0bb406fb99e23da425d2a5ba1a31d426c0a74f5.jpg",
    "icongray": "https://steamcdn-a.akamaihd.net/steamcommunity/public/images/apps/264300/8f400691df079cb2ce0c290c68348b155b2d51b4.jpg"
  },
  {
    "name": "A_StandTowerLevel3",
    "defaultvalue": 0,
    "displayName": "MASTER OF DEFENSE",
    "hidden": 0,
    "description": "Set up any 3rd level turret during battle.",
    "icon": "https://steamcdn-a.akamaihd.net/steamcommunity/public/images/apps/264300/7f4dd47ee4fa1e6eaa6ed5705c3a30556203c6fa.jpg",
    "icongray": "https://steamcdn-a.akamaihd.net/steamcommunity/public/images/apps/264300/92bfd9e0d44e274e934194f611edc3eea6b486fd.jpg"
  },
  {
    "name": "A_UseAnyAbilNTimes",
    "defaultvalue": 0,
    "displayName": "EXPERIMENTER",
    "hidden": 0,
    "description": "Use any special ability 100 times.",
    "icon": "https://steamcdn-a.akamaihd.net/steamcommunity/public/images/apps/264300/d0c0bb4066ec586926e97fef4e0584d51adf8d94.jpg",
    "icongray": "https://steamcdn-a.akamaihd.net/steamcommunity/public/images/apps/264300/09b696ed215d3b1a658872a4721e226edab515be.jpg"
  },
  {
    "name": "A_BuyAnyElectro",
    "defaultvalue": 0,
    "displayName": "THE STORM IS BREAKING",
    "hidden": 1,
    "icon": "https://steamcdn-a.akamaihd.net/steamcommunity/public/images/apps/264300/be9cd6fd62e172d2a7e81ee5ea7dd13b0c9d7759.jpg",
    "icongray": "https://steamcdn-a.akamaihd.net/steamcommunity/public/images/apps/264300/7d1ea77a86544764a0c5dd1aff3b03ea9dfc993f.jpg"
  },
  {
    "name": "A_GameCompleteMedic",
    "defaultvalue": 0,
    "displayName": "PEACE CORPSE",
    "hidden": 0,
    "description": "Complete the game as Medic.",
    "icon": "https://steamcdn-a.akamaihd.net/steamcommunity/public/images/apps/264300/589a8acf3110c3e014d637a28082956212cba08b.jpg",
    "icongray": "https://steamcdn-a.akamaihd.net/steamcommunity/public/images/apps/264300/3f8f2b535cb5d3a3305a63cf1c4dd937aad8f6ce.jpg"
  },
  {
    "name": "A_MobKilledWithElectro_0",
    "defaultvalue": 0,
    "displayName": "AC/DC I",
    "hidden": 0,
    "description": "Kill 2000 enemies with Electric rifles.",
    "icon": "https://steamcdn-a.akamaihd.net/steamcommunity/public/images/apps/264300/5a8ec06a4c117afa86f8761e958a2b94d79b47d4.jpg",
    "icongray": "https://steamcdn-a.akamaihd.net/steamcommunity/public/images/apps/264300/98b13616fda3ec310c7b13d01a5e27cd1358ab51.jpg"
  },
  {
    "name": "A_MobKilledWithElectro_1",
    "defaultvalue": 0,
    "displayName": "AC/DC II",
    "hidden": 0,
    "description": "Kill 4000 enemies with Electric rifles.",
    "icon": "https://steamcdn-a.akamaihd.net/steamcommunity/public/images/apps/264300/d12837dfcf7fa235e2a00e8c1bb12097206a3ba6.jpg",
    "icongray": "https://steamcdn-a.akamaihd.net/steamcommunity/public/images/apps/264300/8bb6e29614efc8ea55dd5a5acaabdd9cf77bf491.jpg"
  },
  {
    "name": "A_GameComplete_AliensDLC",
    "defaultvalue": 0,
    "displayName": "CURIOSITY",
    "hidden": 0,
    "description": "Complete the N'Aliens campaign.",
    "icon": "https://steamcdn-a.akamaihd.net/steamcommunity/public/images/apps/264300/a2beb3af402f329a2bf02fdeba55565a77a9e8e0.jpg",
    "icongray": "https://steamcdn-a.akamaihd.net/steamcommunity/public/images/apps/264300/eb8c202876c914ae0bb89efb22c39bb49713209a.jpg"
  }
]