﻿{
  "Dlcs": {},
  "Name": "Deiland",
  "AppId": "760620",
  "ImageUrl": "https://steamcdn-a.akamaihd.net/steam/apps/760620/header.jpg?t=1599929151",
  "Languages": [
    "english",
    "german",
    "spanish",
    "french",
    "schinese",
    "russian"
  ],
  "Platforms": {
    "windows": true,
    "mac": true,
    "linux": false
  }
}