﻿{
  "Dlcs": {},
  "Name": "Ducati World Championship",
  "AppId": "6270",
  "ImageUrl": "https://steamcdn-a.akamaihd.net/steam/apps/6270/header.jpg?t=1573744999",
  "Languages": [
    "english",
    "french",
    "spanish"
  ],
  "Platforms": {
    "windows": true,
    "mac": false,
    "linux": false
  }
}