﻿{
  "Dlcs": {},
  "Name": "Nick",
  "AppId": "572660",
  "ImageUrl": "https://steamcdn-a.akamaihd.net/steam/apps/572660/header.jpg?t=1512154842",
  "Languages": [
    "english"
  ],
  "Platforms": {
    "windows": true,
    "mac": false,
    "linux": false
  }
}