﻿{
  "Dlcs": {},
  "Name": "Lost in Spice",
  "AppId": "854330",
  "ImageUrl": "https://steamcdn-a.akamaihd.net/steam/apps/854330/header.jpg?t=1528928574",
  "Languages": [
    "english"
  ],
  "Platforms": {
    "windows": true,
    "mac": false,
    "linux": false
  }
}