﻿{
  "Dlcs": {
    "578140": {
      "Name": "Summer Nightmare Deluxe Edition",
      "ImageUrl": "https://steamcdn-a.akamaihd.net/steam/apps/578140/header.jpg?t=1512901213"
    }
  },
  "Name": "Summer Nightmare",
  "AppId": "576860",
  "ImageUrl": "https://steamcdn-a.akamaihd.net/steam/apps/576860/header.jpg?t=1512596543",
  "Languages": [
    "english",
    "japanese"
  ],
  "Platforms": {
    "windows": true,
    "mac": true,
    "linux": true
  }
}