﻿{
  "Dlcs": {},
  "Name": "Angvik",
  "AppId": "278890",
  "ImageUrl": "https://steamcdn-a.akamaihd.net/steam/apps/278890/header.jpg?t=1591838759",
  "Languages": [
    "english"
  ],
  "Platforms": {
    "windows": true,
    "mac": true,
    "linux": false
  }
}