﻿{
  "Dlcs": {
    "821210": {
      "Name": "Empires Apart - Soundtrack",
      "ImageUrl": "https://steamcdn-a.akamaihd.net/steam/apps/821210/header.jpg?t=1522334506"
    },
    "912830": {
      "Name": "Empires Apart - Arab Civilization Pack",
      "ImageUrl": "https://steamcdn-a.akamaihd.net/steam/apps/912830/header.jpg?t=1539707322"
    },
    "912831": {
      "Name": "Empires Apart - Aztec Civilization Pack",
      "ImageUrl": "https://steamcdn-a.akamaihd.net/steam/apps/912831/header.jpg?t=1539707328"
    },
    "912832": {
      "Name": "Empires Apart - Chinese Civilization Pack",
      "ImageUrl": "https://steamcdn-a.akamaihd.net/steam/apps/912832/header.jpg?t=1539707334"
    },
    "912833": {
      "Name": "Empires Apart - French Civilization Pack",
      "ImageUrl": "https://steamcdn-a.akamaihd.net/steam/apps/912833/header.jpg?t=1539707409"
    },
    "912834": {
      "Name": "Empires Apart - Korean Civilization Pack",
      "ImageUrl": "https://steamcdn-a.akamaihd.net/steam/apps/912834/header.jpg?t=1539707381"
    },
    "912835": {
      "Name": "Empires Apart - Mongol Civilization Pack",
      "ImageUrl": "https://steamcdn-a.akamaihd.net/steam/apps/912835/header.jpg?t=1539707391"
    }
  },
  "Name": "Empires Apart",
  "AppId": "530630",
  "ImageUrl": "https://steamcdn-a.akamaihd.net/steam/apps/530630/header.jpg?t=1575552923",
  "Languages": [
    "english",
    "french",
    "italian",
    "spanish",
    "korean",
    "portuguese",
    "russian",
    "schinese",
    "german",
    "japanese"
  ],
  "Platforms": {
    "windows": true,
    "mac": false,
    "linux": false
  }
}