﻿[
  {
    "name": "AllUpgrades_AllUpgrades",
    "defaultvalue": 0,
    "displayName": ""
  },
  {
    "name": "AllBons_AllBons",
    "defaultvalue": 0,
    "displayName": ""
  },
  {
    "name": "AllWeapons_AllWeapons",
    "defaultvalue": 0,
    "displayName": ""
  },
  {
    "name": "FacEasy_FacEasy",
    "defaultvalue": 0,
    "displayName": ""
  },
  {
    "name": "FacNormal_FacNormal",
    "defaultvalue": 0,
    "displayName": ""
  },
  {
    "name": "FacHard_FacHard",
    "defaultvalue": 0,
    "displayName": ""
  },
  {
    "name": "ManEasy_ManEasy",
    "defaultvalue": 0,
    "displayName": ""
  },
  {
    "name": "ManNormal_ManNormal",
    "defaultvalue": 0,
    "displayName": ""
  },
  {
    "name": "ManHard_ManHard",
    "defaultvalue": 0,
    "displayName": ""
  },
  {
    "name": "Dus1_Dus1",
    "defaultvalue": 0,
    "displayName": ""
  },
  {
    "name": "Dus2_Dus2",
    "defaultvalue": 0,
    "displayName": ""
  },
  {
    "name": "Dus3_Dus3",
    "defaultvalue": 0,
    "displayName": ""
  },
  {
    "name": "Dus4_Dus4",
    "defaultvalue": 0,
    "displayName": ""
  },
  {
    "name": "Dus5_Dus5",
    "defaultvalue": 0,
    "displayName": ""
  },
  {
    "name": "HanS1_HanS1",
    "defaultvalue": 0,
    "displayName": ""
  },
  {
    "name": "HanS2_HanS2",
    "defaultvalue": 0,
    "displayName": ""
  },
  {
    "name": "HanS3_HanS3",
    "defaultvalue": 0,
    "displayName": ""
  },
  {
    "name": "HanS4_HanS4",
    "defaultvalue": 0,
    "displayName": ""
  },
  {
    "name": "HanS5_HanS5",
    "defaultvalue": 0,
    "displayName": ""
  }
]