﻿[
  {
    "name": "LEVEL_FIRE_AURA_NOFLAGS",
    "defaultvalue": 0,
    "displayName": "Level 1 - Fire Aura - No flags",
    "hidden": 0,
    "description": "Finish level 1 - Fire Aura without using any flags",
    "icon": "https://steamcdn-a.akamaihd.net/steamcommunity/public/images/apps/251630/57450bf94eeff931baf2b3db4fe6bc3298d222d0.jpg",
    "icongray": "https://steamcdn-a.akamaihd.net/steamcommunity/public/images/apps/251630/381b8f9d03944a32ca1025ed32764db46ea4efd5.jpg"
  },
  {
    "name": "LEVEL_ORIGINAL_LEVEL_NOFLAGS",
    "defaultvalue": 0,
    "displayName": "Level 1 - Original Level - No flags",
    "hidden": 0,
    "description": "Finish level 1 - Original Level without using any flags",
    "icon": "https://steamcdn-a.akamaihd.net/steamcommunity/public/images/apps/251630/57450bf94eeff931baf2b3db4fe6bc3298d222d0.jpg",
    "icongray": "https://steamcdn-a.akamaihd.net/steamcommunity/public/images/apps/251630/381b8f9d03944a32ca1025ed32764db46ea4efd5.jpg"
  },
  {
    "name": "LEVEL_CHAOZ_FANTASY_NOFLAGS",
    "defaultvalue": 0,
    "displayName": "Level 2 - Chaoz Fantasy - No flags",
    "hidden": 0,
    "description": "Finish level 2 - Chaoz Fantasy without using any flags",
    "icon": "https://steamcdn-a.akamaihd.net/steamcommunity/public/images/apps/251630/57450bf94eeff931baf2b3db4fe6bc3298d222d0.jpg",
    "icongray": "https://steamcdn-a.akamaihd.net/steamcommunity/public/images/apps/251630/381b8f9d03944a32ca1025ed32764db46ea4efd5.jpg"
  },
  {
    "name": "LEVEL_HEAVEN_NOFLAGS",
    "defaultvalue": 0,
    "displayName": "Level 3 - Heaven - No flags",
    "hidden": 0,
    "description": "Finish level 3 - Heaven without using any flags",
    "icon": "https://steamcdn-a.akamaihd.net/steamcommunity/public/images/apps/251630/57450bf94eeff931baf2b3db4fe6bc3298d222d0.jpg",
    "icongray": "https://steamcdn-a.akamaihd.net/steamcommunity/public/images/apps/251630/381b8f9d03944a32ca1025ed32764db46ea4efd5.jpg"
  },
  {
    "name": "LEVEL_PHAZD_NOFLAGS",
    "defaultvalue": 0,
    "displayName": "Level 4 - Phazd - No flags",
    "hidden": 0,
    "description": "Finish level 4 - Phazd without using any flags",
    "icon": "https://steamcdn-a.akamaihd.net/steamcommunity/public/images/apps/251630/57450bf94eeff931baf2b3db4fe6bc3298d222d0.jpg",
    "icongray": "https://steamcdn-a.akamaihd.net/steamcommunity/public/images/apps/251630/381b8f9d03944a32ca1025ed32764db46ea4efd5.jpg"
  },
  {
    "name": "LEVEL_FIRE_AURA_PRACTICE",
    "defaultvalue": 0,
    "displayName": "Level 1 - Fire Aura - Practice",
    "hidden": 0,
    "description": "Finish level 1 - Fire Aura",
    "icon": "https://steamcdn-a.akamaihd.net/steamcommunity/public/images/apps/251630/5ba27b08e20104bfe1ca8c30513b3cee07308c2f.jpg",
    "icongray": "https://steamcdn-a.akamaihd.net/steamcommunity/public/images/apps/251630/1f0831cf9916ef6ccb3900d5c4a82170dd141a6d.jpg"
  },
  {
    "name": "LEVEL_ORIGINAL_LEVEL_PRACTICE",
    "defaultvalue": 0,
    "displayName": "Level 1 - Original Level - Practice",
    "hidden": 0,
    "description": "Finish level 1 - Original Level",
    "icon": "https://steamcdn-a.akamaihd.net/steamcommunity/public/images/apps/251630/5ba27b08e20104bfe1ca8c30513b3cee07308c2f.jpg",
    "icongray": "https://steamcdn-a.akamaihd.net/steamcommunity/public/images/apps/251630/1f0831cf9916ef6ccb3900d5c4a82170dd141a6d.jpg"
  },
  {
    "name": "LEVEL_CHAOZ_FANTASY_PRACTICE",
    "defaultvalue": 0,
    "displayName": "Level 2 - Chaoz Fantasy - Practice",
    "hidden": 0,
    "description": "Finish level 2 - Chaoz Fantasy",
    "icon": "https://steamcdn-a.akamaihd.net/steamcommunity/public/images/apps/251630/5ba27b08e20104bfe1ca8c30513b3cee07308c2f.jpg",
    "icongray": "https://steamcdn-a.akamaihd.net/steamcommunity/public/images/apps/251630/1f0831cf9916ef6ccb3900d5c4a82170dd141a6d.jpg"
  },
  {
    "name": "LEVEL_HEAVEN_PRACTICE",
    "defaultvalue": 0,
    "displayName": "Level 3 - Heaven - Practice",
    "hidden": 0,
    "description": "Finish level 3 - Heaven",
    "icon": "https://steamcdn-a.akamaihd.net/steamcommunity/public/images/apps/251630/5ba27b08e20104bfe1ca8c30513b3cee07308c2f.jpg",
    "icongray": "https://steamcdn-a.akamaihd.net/steamcommunity/public/images/apps/251630/1f0831cf9916ef6ccb3900d5c4a82170dd141a6d.jpg"
  },
  {
    "name": "LEVEL_PHAZD_PRACTICE",
    "defaultvalue": 0,
    "displayName": "Level 4 - Phazd - Practice",
    "hidden": 0,
    "description": "Finish level 4 - Phazd",
    "icon": "https://steamcdn-a.akamaihd.net/steamcommunity/public/images/apps/251630/5ba27b08e20104bfe1ca8c30513b3cee07308c2f.jpg",
    "icongray": "https://steamcdn-a.akamaihd.net/steamcommunity/public/images/apps/251630/1f0831cf9916ef6ccb3900d5c4a82170dd141a6d.jpg"
  },
  {
    "name": "NUM_999_JUMPS",
    "defaultvalue": 0,
    "displayName": "999x",
    "hidden": 0,
    "description": "Jump 999x in total",
    "icon": "https://steamcdn-a.akamaihd.net/steamcommunity/public/images/apps/251630/1361a3489184e68098ac74e7e241280282328de8.jpg",
    "icongray": "https://steamcdn-a.akamaihd.net/steamcommunity/public/images/apps/251630/7faf83110b41731225d3c823e22a0727270dd760.jpg"
  },
  {
    "name": "NUM_500_ATTEMPTS_NO_QUIT",
    "defaultvalue": 0,
    "displayName": "500 attempts",
    "hidden": 0,
    "description": "Reach 500 attempts without quitting",
    "icon": "https://steamcdn-a.akamaihd.net/steamcommunity/public/images/apps/251630/665cd5bf162c69d5e212c8632df75e43d1865017.jpg",
    "icongray": "https://steamcdn-a.akamaihd.net/steamcommunity/public/images/apps/251630/d12f2af43d3a26dcb5d030f1b49f1b7ac6fdcf67.jpg"
  }
]