﻿{
  "Dlcs": {},
  "Name": "Reflections",
  "AppId": "352360",
  "ImageUrl": "https://steamcdn-a.akamaihd.net/steam/apps/352360/header.jpg?t=1460665594",
  "Languages": [
    "english"
  ],
  "Platforms": {
    "windows": true,
    "mac": true,
    "linux": true
  }
}