﻿{
  "Dlcs": {
    "1275470": {
      "Name": "",
      "ImageUrl": ""
    }
  },
  "Name": "Endless Space® - Collection",
  "AppId": "208140",
  "ImageUrl": "https://steamcdn-a.akamaihd.net/steam/apps/208140/header.jpg?t=1599739527",
  "Languages": [
    "english",
    "french",
    "german",
    "polish",
    "italian",
    "russian",
    "spanish"
  ],
  "Platforms": {
    "windows": true,
    "mac": true,
    "linux": false
  }
}