﻿[
  {
    "name": "all_episodes",
    "defaultvalue": 0,
    "displayName": "Only the Beginning",
    "hidden": 0,
    "description": "Complete all three episodes",
    "icon": "https://steamcdn-a.akamaihd.net/steamcommunity/public/images/apps/519860/36f25f6db05fa67b6446df915d35fb81a9eff898.jpg",
    "icongray": "https://steamcdn-a.akamaihd.net/steamcommunity/public/images/apps/519860/21fb926e10368c8ea7c68a72e7bad4c38dc70370.jpg"
  },
  {
    "name": "ep_1",
    "defaultvalue": 0,
    "displayName": "The Foothills",
    "hidden": 0,
    "description": "Complete episode 1",
    "icon": "https://steamcdn-a.akamaihd.net/steamcommunity/public/images/apps/519860/565c52426ec4c02d93c979fd66fdc1e0ee818f50.jpg",
    "icongray": "https://steamcdn-a.akamaihd.net/steamcommunity/public/images/apps/519860/21fb926e10368c8ea7c68a72e7bad4c38dc70370.jpg"
  },
  {
    "name": "ep_2",
    "defaultvalue": 0,
    "displayName": "The Facilities",
    "hidden": 0,
    "description": "Complete episode 2",
    "icon": "https://steamcdn-a.akamaihd.net/steamcommunity/public/images/apps/519860/188fee2dc0b2036cfcbda44a6e6fb6f4a43331a0.jpg",
    "icongray": "https://steamcdn-a.akamaihd.net/steamcommunity/public/images/apps/519860/21fb926e10368c8ea7c68a72e7bad4c38dc70370.jpg"
  },
  {
    "name": "ep_3",
    "defaultvalue": 0,
    "displayName": "The Nameless City",
    "hidden": 0,
    "description": "Complete episode 3",
    "icon": "https://steamcdn-a.akamaihd.net/steamcommunity/public/images/apps/519860/40116153fc14fb6a749751e3dbe60b15adc027e1.jpg",
    "icongray": "https://steamcdn-a.akamaihd.net/steamcommunity/public/images/apps/519860/21fb926e10368c8ea7c68a72e7bad4c38dc70370.jpg"
  },
  {
    "name": "pacifist",
    "defaultvalue": 0,
    "displayName": "Pacifist",
    "hidden": 0,
    "description": "Earn the 'Pacifist' award",
    "icon": "https://steamcdn-a.akamaihd.net/steamcommunity/public/images/apps/519860/6cf74edbd6b6ef51f73dfe46a3bf2482f871dba9.jpg",
    "icongray": "https://steamcdn-a.akamaihd.net/steamcommunity/public/images/apps/519860/21fb926e10368c8ea7c68a72e7bad4c38dc70370.jpg"
  },
  {
    "name": "completionist",
    "defaultvalue": 0,
    "displayName": "Completionist",
    "hidden": 0,
    "description": "Earn the 'Completionist' award",
    "icon": "https://steamcdn-a.akamaihd.net/steamcommunity/public/images/apps/519860/aa7e4435f6a9ddb9567c82d46041f9dd538e9f81.jpg",
    "icongray": "https://steamcdn-a.akamaihd.net/steamcommunity/public/images/apps/519860/21fb926e10368c8ea7c68a72e7bad4c38dc70370.jpg"
  },
  {
    "name": "untouchable",
    "defaultvalue": 0,
    "displayName": "Untouchable",
    "hidden": 0,
    "description": "Earn the 'Untouchable' award",
    "icon": "https://steamcdn-a.akamaihd.net/steamcommunity/public/images/apps/519860/eb9923ff56ea5ef255f7c7b6fd6c188074a242fa.jpg",
    "icongray": "https://steamcdn-a.akamaihd.net/steamcommunity/public/images/apps/519860/21fb926e10368c8ea7c68a72e7bad4c38dc70370.jpg"
  },
  {
    "name": "low_tech",
    "defaultvalue": 0,
    "displayName": "Low Tech",
    "hidden": 0,
    "description": "Earn the 'Low Tech\" award",
    "icon": "https://steamcdn-a.akamaihd.net/steamcommunity/public/images/apps/519860/a8a27187663dfeb587c73197edb98be224cd1f00.jpg",
    "icongray": "https://steamcdn-a.akamaihd.net/steamcommunity/public/images/apps/519860/21fb926e10368c8ea7c68a72e7bad4c38dc70370.jpg"
  },
  {
    "name": "super_completionist",
    "defaultvalue": 0,
    "displayName": "True 100%",
    "hidden": 0,
    "description": "Earn the 'Completionist' award in every level",
    "icon": "https://steamcdn-a.akamaihd.net/steamcommunity/public/images/apps/519860/e224fe24c3f7ba058eb33c859f3b2f60f478a2e2.jpg",
    "icongray": "https://steamcdn-a.akamaihd.net/steamcommunity/public/images/apps/519860/21fb926e10368c8ea7c68a72e7bad4c38dc70370.jpg"
  },
  {
    "name": "go_fast",
    "defaultvalue": 0,
    "displayName": "Gotta Go Fast",
    "hidden": 0,
    "description": "Beat par time in a level",
    "icon": "https://steamcdn-a.akamaihd.net/steamcommunity/public/images/apps/519860/133445204dfa2a66326e2fc9b2196980394d545c.jpg",
    "icongray": "https://steamcdn-a.akamaihd.net/steamcommunity/public/images/apps/519860/21fb926e10368c8ea7c68a72e7bad4c38dc70370.jpg"
  },
  {
    "name": "rachael",
    "defaultvalue": 0,
    "displayName": "Duskwife",
    "hidden": 1,
    "icon": "https://steamcdn-a.akamaihd.net/steamcommunity/public/images/apps/519860/ab1bb27b2ee333bccea3d3caa301dd9d155ab67f.jpg",
    "icongray": "https://steamcdn-a.akamaihd.net/steamcommunity/public/images/apps/519860/21fb926e10368c8ea7c68a72e7bad4c38dc70370.jpg"
  },
  {
    "name": "lavender",
    "defaultvalue": 0,
    "displayName": "Duskbaby",
    "hidden": 1,
    "icon": "https://steamcdn-a.akamaihd.net/steamcommunity/public/images/apps/519860/b9d79d148d4ddfe44aafa7e0360e86e5ed0c698d.jpg",
    "icongray": "https://steamcdn-a.akamaihd.net/steamcommunity/public/images/apps/519860/21fb926e10368c8ea7c68a72e7bad4c38dc70370.jpg"
  },
  {
    "name": "clean",
    "defaultvalue": 0,
    "displayName": "Don't Drop It",
    "hidden": 0,
    "description": "Pick up a bar of soap in each level",
    "icon": "https://steamcdn-a.akamaihd.net/steamcommunity/public/images/apps/519860/3f11ba8fddabf09da9288674dad364cc0b8281eb.jpg",
    "icongray": "https://steamcdn-a.akamaihd.net/steamcommunity/public/images/apps/519860/21fb926e10368c8ea7c68a72e7bad4c38dc70370.jpg"
  },
  {
    "name": "endless_5",
    "defaultvalue": 0,
    "displayName": "5 Survived ",
    "hidden": 0,
    "description": "Get past wave 5 in Endless Mode",
    "icon": "https://steamcdn-a.akamaihd.net/steamcommunity/public/images/apps/519860/36e7067a7c66bcaadb3d4219a4bd5885daf63732.jpg",
    "icongray": "https://steamcdn-a.akamaihd.net/steamcommunity/public/images/apps/519860/21fb926e10368c8ea7c68a72e7bad4c38dc70370.jpg"
  },
  {
    "name": "endless_10",
    "defaultvalue": 0,
    "displayName": "10 Survived",
    "hidden": 0,
    "description": "Get past wave 10 in Endless Mode",
    "icon": "https://steamcdn-a.akamaihd.net/steamcommunity/public/images/apps/519860/15d9544517904112652391932d7b571d77550125.jpg",
    "icongray": "https://steamcdn-a.akamaihd.net/steamcommunity/public/images/apps/519860/21fb926e10368c8ea7c68a72e7bad4c38dc70370.jpg"
  },
  {
    "name": "endless_20",
    "defaultvalue": 0,
    "displayName": "20 Survived",
    "hidden": 0,
    "description": "Get past wave 20 in Endless Mode",
    "icon": "https://steamcdn-a.akamaihd.net/steamcommunity/public/images/apps/519860/17a3b663fe0a2fdb84680d22e9d80e87fc31775e.jpg",
    "icongray": "https://steamcdn-a.akamaihd.net/steamcommunity/public/images/apps/519860/21fb926e10368c8ea7c68a72e7bad4c38dc70370.jpg"
  },
  {
    "name": "duskworld",
    "defaultvalue": 0,
    "displayName": "Frag your Friends",
    "hidden": 0,
    "description": "Open Duskworld",
    "icon": "https://steamcdn-a.akamaihd.net/steamcommunity/public/images/apps/519860/192f978157ac16c0932d0ef52fb57dc45e55c8a8.jpg",
    "icongray": "https://steamcdn-a.akamaihd.net/steamcommunity/public/images/apps/519860/21fb926e10368c8ea7c68a72e7bad4c38dc70370.jpg"
  },
  {
    "name": "credits",
    "defaultvalue": 0,
    "displayName": "Thanks!",
    "hidden": 0,
    "description": "Watch the credits to the end",
    "icon": "https://steamcdn-a.akamaihd.net/steamcommunity/public/images/apps/519860/55dde2a4614bda654dd5935871e757cb96ea669a.jpg",
    "icongray": "https://steamcdn-a.akamaihd.net/steamcommunity/public/images/apps/519860/21fb926e10368c8ea7c68a72e7bad4c38dc70370.jpg"
  },
  {
    "name": "duskmare",
    "defaultvalue": 0,
    "displayName": "Not Even Remotely Fair",
    "hidden": 0,
    "description": "Beat a level on 'Duskmare'",
    "icon": "https://steamcdn-a.akamaihd.net/steamcommunity/public/images/apps/519860/57e59126c471ca9b43f7573129a2617c6c3620ef.jpg",
    "icongray": "https://steamcdn-a.akamaihd.net/steamcommunity/public/images/apps/519860/21fb926e10368c8ea7c68a72e7bad4c38dc70370.jpg"
  },
  {
    "name": "dopefish",
    "defaultvalue": 0,
    "displayName": "It Lives",
    "hidden": 1,
    "icon": "https://steamcdn-a.akamaihd.net/steamcommunity/public/images/apps/519860/fd44d44899f0837e4b592246a8d0bd166e32b81d.jpg",
    "icongray": "https://steamcdn-a.akamaihd.net/steamcommunity/public/images/apps/519860/21fb926e10368c8ea7c68a72e7bad4c38dc70370.jpg"
  },
  {
    "name": "intoxigator_wife",
    "defaultvalue": 0,
    "displayName": "Mother!",
    "hidden": 1,
    "icon": "https://steamcdn-a.akamaihd.net/steamcommunity/public/images/apps/519860/3c8b1797843844b2a0928e6059b89fab850f32ac.jpg",
    "icongray": "https://steamcdn-a.akamaihd.net/steamcommunity/public/images/apps/519860/21fb926e10368c8ea7c68a72e7bad4c38dc70370.jpg"
  },
  {
    "name": "not_supposed_to_be_here",
    "defaultvalue": 0,
    "displayName": "Go Away",
    "hidden": 1,
    "icon": "https://steamcdn-a.akamaihd.net/steamcommunity/public/images/apps/519860/dd549ce9fd725fe3426df8eaea43a749d04ad633.jpg",
    "icongray": "https://steamcdn-a.akamaihd.net/steamcommunity/public/images/apps/519860/21fb926e10368c8ea7c68a72e7bad4c38dc70370.jpg"
  },
  {
    "name": "e3ms",
    "defaultvalue": 0,
    "displayName": "So I Hear You Like...",
    "hidden": 0,
    "description": "Reach E3MS",
    "icon": "https://steamcdn-a.akamaihd.net/steamcommunity/public/images/apps/519860/c264eb74181bf49160d25560d3432f7c82da5483.jpg",
    "icongray": "https://steamcdn-a.akamaihd.net/steamcommunity/public/images/apps/519860/21fb926e10368c8ea7c68a72e7bad4c38dc70370.jpg"
  },
  {
    "name": "e2ms",
    "defaultvalue": 0,
    "displayName": "Hardcore Parkour",
    "hidden": 0,
    "description": "Reach E2MS",
    "icon": "https://steamcdn-a.akamaihd.net/steamcommunity/public/images/apps/519860/ea7c7be08e6b160c54d3608c83f8788694611375.jpg",
    "icongray": "https://steamcdn-a.akamaihd.net/steamcommunity/public/images/apps/519860/21fb926e10368c8ea7c68a72e7bad4c38dc70370.jpg"
  },
  {
    "name": "e1ms",
    "defaultvalue": 0,
    "displayName": "Swamped",
    "hidden": 0,
    "description": "Reach E1MS",
    "icon": "https://steamcdn-a.akamaihd.net/steamcommunity/public/images/apps/519860/ef85c21502b2c0617bf8384445fe9e8665cf7bbf.jpg",
    "icongray": "https://steamcdn-a.akamaihd.net/steamcommunity/public/images/apps/519860/21fb926e10368c8ea7c68a72e7bad4c38dc70370.jpg"
  },
  {
    "name": "cheats",
    "defaultvalue": 0,
    "displayName": "UNWORTHY",
    "hidden": 0,
    "description": "Use cheats",
    "icon": "https://steamcdn-a.akamaihd.net/steamcommunity/public/images/apps/519860/c7802e025261d0c7a96939bb2d0573e7b8dd1692.jpg",
    "icongray": "https://steamcdn-a.akamaihd.net/steamcommunity/public/images/apps/519860/21fb926e10368c8ea7c68a72e7bad4c38dc70370.jpg"
  },
  {
    "name": "intoxigated",
    "defaultvalue": 0,
    "displayName": "Intoxigated",
    "hidden": 0,
    "description": "Kill Intoxigator while intoxicated",
    "icon": "https://steamcdn-a.akamaihd.net/steamcommunity/public/images/apps/519860/3a2be4af7049f3a5ee38968a1739c8e1616d2ccd.jpg",
    "icongray": "https://steamcdn-a.akamaihd.net/steamcommunity/public/images/apps/519860/f6c28550dfd8a59b068431a16cf9dcf26372e545.jpg"
  },
  {
    "name": "telefragged",
    "defaultvalue": 0,
    "displayName": "Telefragged",
    "hidden": 0,
    "description": "Telefrag the Guardian",
    "icon": "https://steamcdn-a.akamaihd.net/steamcommunity/public/images/apps/519860/6403b4197c6f9a52090f494959e8be4af496c322.jpg",
    "icongray": "https://steamcdn-a.akamaihd.net/steamcommunity/public/images/apps/519860/f6c28550dfd8a59b068431a16cf9dcf26372e545.jpg"
  },
  {
    "name": "poisoned",
    "defaultvalue": 0,
    "displayName": "Somebody's Poisoned the Waterhole!",
    "hidden": 0,
    "description": "Neutralize Chomper",
    "icon": "https://steamcdn-a.akamaihd.net/steamcommunity/public/images/apps/519860/e4c779ee36009ae0408bce16b0ef15a898756881.jpg",
    "icongray": "https://steamcdn-a.akamaihd.net/steamcommunity/public/images/apps/519860/f6c28550dfd8a59b068431a16cf9dcf26372e545.jpg"
  },
  {
    "name": "spin",
    "defaultvalue": 0,
    "displayName": "Spin 2 Win",
    "hidden": 0,
    "description": "Kill an enemy by spinning your weapons",
    "icon": "https://steamcdn-a.akamaihd.net/steamcommunity/public/images/apps/519860/283089486b5242ed26ec716924e2b68e8df28dae.jpg",
    "icongray": "https://steamcdn-a.akamaihd.net/steamcommunity/public/images/apps/519860/f6c28550dfd8a59b068431a16cf9dcf26372e545.jpg"
  }
]