﻿{
  "Dlcs": {},
  "Name": "Closers",
  "AppId": "215830",
  "ImageUrl": "https://steamcdn-a.akamaihd.net/steam/apps/215830/header.jpg?t=1590606226",
  "Languages": [
    "english"
  ],
  "Platforms": {
    "windows": true,
    "mac": false,
    "linux": false
  }
}