﻿{
  "Dlcs": {},
  "Name": "Viscera Cleanup Detail: Santa's Rampage",
  "AppId": "265210",
  "ImageUrl": "https://steamcdn-a.akamaihd.net/steam/apps/265210/header.jpg?t=1569480423",
  "Languages": [
    "english"
  ],
  "Platforms": {
    "windows": true,
    "mac": false,
    "linux": false
  }
}