﻿[
  {
    "name": "first_dodeca",
    "defaultvalue": 0,
    "displayName": "Surveyor",
    "hidden": 0,
    "description": "Scan your first data snooper",
    "icon": "https://steamcdn-a.akamaihd.net/steamcommunity/public/images/apps/457760/59bacc127658ad846f331ce47821f5b18a9d9d14.jpg",
    "icongray": "https://steamcdn-a.akamaihd.net/steamcommunity/public/images/apps/457760/4735585c4285afcfca778d6f79a06a65bf114777.jpg"
  },
  {
    "name": "half_dodecas",
    "defaultvalue": 0,
    "displayName": "Grand Surveyor",
    "hidden": 0,
    "description": "Scan 50% of data snoopers",
    "icon": "https://steamcdn-a.akamaihd.net/steamcommunity/public/images/apps/457760/e0645f590abfb4bd916818025042c19667d953ae.jpg",
    "icongray": "https://steamcdn-a.akamaihd.net/steamcommunity/public/images/apps/457760/b588a976691fa4d609401206b5d167b98344b26e.jpg"
  },
  {
    "name": "all_dodecas",
    "defaultvalue": 0,
    "displayName": "Master Surveyor",
    "hidden": 0,
    "description": "Scan all data snoopers",
    "icon": "https://steamcdn-a.akamaihd.net/steamcommunity/public/images/apps/457760/45c23297b76b943d1ca68a159bbde9e6d4add78d.jpg",
    "icongray": "https://steamcdn-a.akamaihd.net/steamcommunity/public/images/apps/457760/fe6ce105fe32007a9d27da8add12ca6e8f84ebd3.jpg"
  },
  {
    "name": "first_bunker_capped",
    "defaultvalue": 0,
    "displayName": "Soldier",
    "hidden": 0,
    "description": "Capture your first bunker",
    "icon": "https://steamcdn-a.akamaihd.net/steamcommunity/public/images/apps/457760/16002754eb412e9717fb6cd03497eedd512cec2d.jpg",
    "icongray": "https://steamcdn-a.akamaihd.net/steamcommunity/public/images/apps/457760/db86f4b6c95ccfbf9734bad682e3d487a6622dec.jpg"
  },
  {
    "name": "20pc_bunkers",
    "defaultvalue": 0,
    "displayName": "Warrior",
    "hidden": 0,
    "description": "Control 4 bunkers",
    "icon": "https://steamcdn-a.akamaihd.net/steamcommunity/public/images/apps/457760/aa7b0253b12321df841bd20371d8674eaac5dd7e.jpg",
    "icongray": "https://steamcdn-a.akamaihd.net/steamcommunity/public/images/apps/457760/7e838d2176c6c467ff44f89406671d3b459d5d37.jpg"
  },
  {
    "name": "50pc_bunkers",
    "defaultvalue": 0,
    "displayName": "Warlord",
    "hidden": 0,
    "description": "Control half of Tölva's bunkers",
    "icon": "https://steamcdn-a.akamaihd.net/steamcommunity/public/images/apps/457760/796e80b130bf03c25048ee4a94b6e50b970fc533.jpg",
    "icongray": "https://steamcdn-a.akamaihd.net/steamcommunity/public/images/apps/457760/e542479792293fd1c62fa325acb00bdd605c88a5.jpg"
  },
  {
    "name": "all_bunkers",
    "defaultvalue": 0,
    "displayName": "Overlord",
    "hidden": 0,
    "description": "Claim every bunker in Tölva",
    "icon": "https://steamcdn-a.akamaihd.net/steamcommunity/public/images/apps/457760/9538b7226c72b5d07debe94d0f19793d1e334257.jpg",
    "icongray": "https://steamcdn-a.akamaihd.net/steamcommunity/public/images/apps/457760/76f7267d42da9d66d6fc1cfdccea80ea77797584.jpg"
  },
  {
    "name": "all_markers",
    "defaultvalue": 0,
    "displayName": "Messenger",
    "hidden": 0,
    "description": "Activate every marker beacon",
    "icon": "https://steamcdn-a.akamaihd.net/steamcommunity/public/images/apps/457760/33a5e0680e6e400dca11f7be66fc31b07fa19da7.jpg",
    "icongray": "https://steamcdn-a.akamaihd.net/steamcommunity/public/images/apps/457760/4d372094decc3868c3199b58102dd5fdadb5dd77.jpg"
  },
  {
    "name": "100_fragments_collected",
    "defaultvalue": 0,
    "displayName": "Gatherer",
    "hidden": 0,
    "description": "Collect 100 resource fragments",
    "icon": "https://steamcdn-a.akamaihd.net/steamcommunity/public/images/apps/457760/747948a9e9cb761e6739cece8100d5e1a5b781d7.jpg",
    "icongray": "https://steamcdn-a.akamaihd.net/steamcommunity/public/images/apps/457760/33cefaef2a450e45211f082714a2c3b3694fb2f5.jpg"
  },
  {
    "name": "200_fragments_collected",
    "defaultvalue": 0,
    "displayName": "Provider",
    "hidden": 0,
    "description": "Collect 200 resource fragments",
    "icon": "https://steamcdn-a.akamaihd.net/steamcommunity/public/images/apps/457760/9090241c826ba77dba2986d25bfde3abab89a42a.jpg",
    "icongray": "https://steamcdn-a.akamaihd.net/steamcommunity/public/images/apps/457760/84f219f7894442640993d8b0802b2db3c0066bc4.jpg"
  },
  {
    "name": "400_fragments_collected",
    "defaultvalue": 0,
    "displayName": "Hoarder",
    "hidden": 0,
    "description": "Collect 400 resource fragments",
    "icon": "https://steamcdn-a.akamaihd.net/steamcommunity/public/images/apps/457760/6c905378e47f6ab2ab1e7709f6d0276c9542a324.jpg",
    "icongray": "https://steamcdn-a.akamaihd.net/steamcommunity/public/images/apps/457760/3247b74e4c394b12b6c8daacd4ba987475bacc55.jpg"
  },
  {
    "name": "40_surveyors_scanned",
    "defaultvalue": 0,
    "displayName": "Inspector",
    "hidden": 0,
    "description": "Scan 40 Surveyors",
    "icon": "https://steamcdn-a.akamaihd.net/steamcommunity/public/images/apps/457760/e249f8202f228ced89581dcedecbc775e5c7efb6.jpg",
    "icongray": "https://steamcdn-a.akamaihd.net/steamcommunity/public/images/apps/457760/68bf2cb5a5b7677799f6545d635bdd4f4d38fff7.jpg"
  },
  {
    "name": "40_zealots_scanned",
    "defaultvalue": 0,
    "displayName": "Investigator",
    "hidden": 0,
    "description": "Scan 40 Zealots",
    "icon": "https://steamcdn-a.akamaihd.net/steamcommunity/public/images/apps/457760/df0a038ae3faa3f646b50c9817656eab593d914b.jpg",
    "icongray": "https://steamcdn-a.akamaihd.net/steamcommunity/public/images/apps/457760/15a372cfbffda37d7e578d40f06aeb8ce5790346.jpg"
  },
  {
    "name": "40_bandits_scanned",
    "defaultvalue": 0,
    "displayName": "Inquisitor",
    "hidden": 0,
    "description": "Scan 40 Bandits",
    "icon": "https://steamcdn-a.akamaihd.net/steamcommunity/public/images/apps/457760/dfaa26345a04ae184c9d5afd3a551d9010fac51a.jpg",
    "icongray": "https://steamcdn-a.akamaihd.net/steamcommunity/public/images/apps/457760/df8ac8e555575ee225695717e870e13e85d45a63.jpg"
  },
  {
    "name": "bots_scanned",
    "defaultvalue": 0,
    "displayName": "Omniscient",
    "hidden": 0,
    "description": "Scan 200 bots",
    "icon": "https://steamcdn-a.akamaihd.net/steamcommunity/public/images/apps/457760/3cece8b7062330617d96992b8751f95ab2271b24.jpg",
    "icongray": "https://steamcdn-a.akamaihd.net/steamcommunity/public/images/apps/457760/1c9381ef550ac99b89298d9924195dfb134bc4cd.jpg"
  },
  {
    "name": "shuttle_scanned",
    "defaultvalue": 0,
    "displayName": "Docker",
    "hidden": 0,
    "description": "Scan a shuttle",
    "icon": "https://steamcdn-a.akamaihd.net/steamcommunity/public/images/apps/457760/4bedfeb7c190a1d70ab59c1a240008f1f38ed515.jpg",
    "icongray": "https://steamcdn-a.akamaihd.net/steamcommunity/public/images/apps/457760/77b8b9a03e6cffc3037e7d8214274463c1e2d25d.jpg"
  },
  {
    "name": "treadlight_scanned",
    "defaultvalue": 0,
    "displayName": "Longshoreman",
    "hidden": 0,
    "description": "Scan the Treadlight Freighter",
    "icon": "https://steamcdn-a.akamaihd.net/steamcommunity/public/images/apps/457760/88740090f09f74027d2f91e7e6ee436a56e32cdb.jpg",
    "icongray": "https://steamcdn-a.akamaihd.net/steamcommunity/public/images/apps/457760/6a1841ac14852d9662cb59f0394d3ee4b9a88bd0.jpg"
  },
  {
    "name": "zealot_frig_scanned",
    "defaultvalue": 0,
    "displayName": "Stevedore",
    "hidden": 0,
    "description": "Scan the Zealot Frigate",
    "icon": "https://steamcdn-a.akamaihd.net/steamcommunity/public/images/apps/457760/ec79fd149890392d8b7c3f6a36d3743b095681f3.jpg",
    "icongray": "https://steamcdn-a.akamaihd.net/steamcommunity/public/images/apps/457760/3180e957105cade3e01366c22ae72199008bbe8b.jpg"
  },
  {
    "name": "five_missions",
    "defaultvalue": 0,
    "displayName": "Drone",
    "hidden": 0,
    "description": "Hand in 5 missions",
    "icon": "https://steamcdn-a.akamaihd.net/steamcommunity/public/images/apps/457760/109053cf5f81c493bdb2cb5d358b8e7d4434251a.jpg",
    "icongray": "https://steamcdn-a.akamaihd.net/steamcommunity/public/images/apps/457760/14880b532be33f14f27d08e0169cd4b009b88c60.jpg"
  },
  {
    "name": "ten_missions",
    "defaultvalue": 0,
    "displayName": "Worker",
    "hidden": 0,
    "description": "Hand in 10 missions",
    "icon": "https://steamcdn-a.akamaihd.net/steamcommunity/public/images/apps/457760/cd8c63284f745903eb6ce463627d0f0155dae923.jpg",
    "icongray": "https://steamcdn-a.akamaihd.net/steamcommunity/public/images/apps/457760/2adde2b6b589f7a6588e50657fe1419ece32c92e.jpg"
  },
  {
    "name": "all_missions",
    "defaultvalue": 0,
    "displayName": "Official",
    "hidden": 0,
    "description": "Hand in all non-endgame missions",
    "icon": "https://steamcdn-a.akamaihd.net/steamcommunity/public/images/apps/457760/dbb9ac30998592f44f72fb726e8bd6e593310978.jpg",
    "icongray": "https://steamcdn-a.akamaihd.net/steamcommunity/public/images/apps/457760/176cfb0909cf1feb0731fdf34846332d218eaf40.jpg"
  },
  {
    "name": "rank_1",
    "defaultvalue": 0,
    "displayName": "Rank 1",
    "hidden": 0,
    "description": "Reach Rank 1",
    "icon": "https://steamcdn-a.akamaihd.net/steamcommunity/public/images/apps/457760/ce49c6695c10894ff275702771a2c6409b4d3278.jpg",
    "icongray": "https://steamcdn-a.akamaihd.net/steamcommunity/public/images/apps/457760/5cf2810790818296ea33f3291b83fd0e3a86705d.jpg"
  },
  {
    "name": "rank_2",
    "defaultvalue": 0,
    "displayName": "Rank 2",
    "hidden": 0,
    "description": "Reach Rank 2",
    "icon": "https://steamcdn-a.akamaihd.net/steamcommunity/public/images/apps/457760/5eecdbc01349c21232a3d892f1b6c3acd1cc23ed.jpg",
    "icongray": "https://steamcdn-a.akamaihd.net/steamcommunity/public/images/apps/457760/bbea2db8ea34c400879c7982e67aa5b429c8641f.jpg"
  },
  {
    "name": "rank_3",
    "defaultvalue": 0,
    "displayName": "Rank 3",
    "hidden": 0,
    "description": "Reach Rank 3",
    "icon": "https://steamcdn-a.akamaihd.net/steamcommunity/public/images/apps/457760/66a299fe9aeedb40b6bf4f8906a052f29c296ac0.jpg",
    "icongray": "https://steamcdn-a.akamaihd.net/steamcommunity/public/images/apps/457760/efcd3d03cb087712693ccd4cca6bbb80e4674f75.jpg"
  },
  {
    "name": "rank_4",
    "defaultvalue": 0,
    "displayName": "Rank 4",
    "hidden": 0,
    "description": "Reach Rank 4",
    "icon": "https://steamcdn-a.akamaihd.net/steamcommunity/public/images/apps/457760/d02bff4c99011dc9d74b4bee31c50d5fc91d110d.jpg",
    "icongray": "https://steamcdn-a.akamaihd.net/steamcommunity/public/images/apps/457760/1478428aa8ba1e58726fab23babc5028c0855984.jpg"
  },
  {
    "name": "rank_5",
    "defaultvalue": 0,
    "displayName": "Rank 5",
    "hidden": 0,
    "description": "Reach Rank 5",
    "icon": "https://steamcdn-a.akamaihd.net/steamcommunity/public/images/apps/457760/d9e3915122bb9528679df1dabe458c684937979e.jpg",
    "icongray": "https://steamcdn-a.akamaihd.net/steamcommunity/public/images/apps/457760/d1c97f97bdfddb58e06ecf708fd65f58d2bde0fd.jpg"
  },
  {
    "name": "unlock_comm_mod",
    "defaultvalue": 0,
    "displayName": "Commander",
    "hidden": 0,
    "description": "Unlock the command module",
    "icon": "https://steamcdn-a.akamaihd.net/steamcommunity/public/images/apps/457760/e138bf0725fe13205f80731018d2bfc70300eb70.jpg",
    "icongray": "https://steamcdn-a.akamaihd.net/steamcommunity/public/images/apps/457760/8451768aae93b84b52f2a1fc41a24d591c99c3be.jpg"
  },
  {
    "name": "unlock_all_weapons",
    "defaultvalue": 0,
    "displayName": "Robotic Arms",
    "hidden": 0,
    "description": "Unlock all weapons",
    "icon": "https://steamcdn-a.akamaihd.net/steamcommunity/public/images/apps/457760/14bdad18694e984ca413f713855503a77444e00c.jpg",
    "icongray": "https://steamcdn-a.akamaihd.net/steamcommunity/public/images/apps/457760/8baff61b97e93a73ae91b27f23b38e7ca1e0849f.jpg"
  },
  {
    "name": "10_in_maze",
    "defaultvalue": 0,
    "displayName": "I'm Not Lost",
    "hidden": 0,
    "description": "Spend 10 minutes in mazes",
    "icon": "https://steamcdn-a.akamaihd.net/steamcommunity/public/images/apps/457760/c8f7187f260fa8f02f5b5c1d40a79e815507a1d8.jpg",
    "icongray": "https://steamcdn-a.akamaihd.net/steamcommunity/public/images/apps/457760/e4dd7b25c7f52f184b2d8c358550f6c04eeb7ca1.jpg"
  },
  {
    "name": "30_in_maze",
    "defaultvalue": 0,
    "displayName": "I Might Be Lost",
    "hidden": 0,
    "description": "Spend 30 minutes in mazes",
    "icon": "https://steamcdn-a.akamaihd.net/steamcommunity/public/images/apps/457760/f12fe49ae65a873fe1fa4174a29639cbe35bbc69.jpg",
    "icongray": "https://steamcdn-a.akamaihd.net/steamcommunity/public/images/apps/457760/b65ced2a516d54ddf34fee05b6b7afaafcb9b064.jpg"
  },
  {
    "name": "60_in_maze",
    "defaultvalue": 0,
    "displayName": "Okay... I Am Lost",
    "hidden": 0,
    "description": "Spend 60 minutes in mazes",
    "icon": "https://steamcdn-a.akamaihd.net/steamcommunity/public/images/apps/457760/6a08c1163054edb3cb6b145bacfd367c5ebc4507.jpg",
    "icongray": "https://steamcdn-a.akamaihd.net/steamcommunity/public/images/apps/457760/a3fe52a2db3252d2480ce5a4df4cb604be99c31f.jpg"
  },
  {
    "name": "10_drones_recruited",
    "defaultvalue": 0,
    "displayName": "Friendly",
    "hidden": 0,
    "description": "Recruit 10 different bots",
    "icon": "https://steamcdn-a.akamaihd.net/steamcommunity/public/images/apps/457760/fbabbdbbe520d2d22f66761cf845c6cb5237bc62.jpg",
    "icongray": "https://steamcdn-a.akamaihd.net/steamcommunity/public/images/apps/457760/f13fceaa7df30d3ecc2afc4e8a73e6508dc5d9b9.jpg"
  },
  {
    "name": "50_drones_recruited",
    "defaultvalue": 0,
    "displayName": "Sociable",
    "hidden": 0,
    "description": "Recruit 50 different bots",
    "icon": "https://steamcdn-a.akamaihd.net/steamcommunity/public/images/apps/457760/b89f4f75074a8217855306d08436a378650150e7.jpg",
    "icongray": "https://steamcdn-a.akamaihd.net/steamcommunity/public/images/apps/457760/835b4d81ca6122987350ae66ef87022165ec9928.jpg"
  },
  {
    "name": "150_drones_recruited",
    "defaultvalue": 0,
    "displayName": "Gregarious",
    "hidden": 0,
    "description": "Recruit 150 different bots",
    "icon": "https://steamcdn-a.akamaihd.net/steamcommunity/public/images/apps/457760/04bcbe782c7cdf808db617d2f1cd12e62fe325cb.jpg",
    "icongray": "https://steamcdn-a.akamaihd.net/steamcommunity/public/images/apps/457760/1e4af6ee6942a3b78fd62ab80b4e770cb713bb68.jpg"
  },
  {
    "name": "all_regions",
    "defaultvalue": 0,
    "displayName": "Traveller",
    "hidden": 0,
    "description": "Visit all regions",
    "icon": "https://steamcdn-a.akamaihd.net/steamcommunity/public/images/apps/457760/3b9a98c16e43619d4d34e82c6e7bbdafa98d41d7.jpg",
    "icongray": "https://steamcdn-a.akamaihd.net/steamcommunity/public/images/apps/457760/6e5533f1b990c53f073057f499b04ecb91fa37d8.jpg"
  },
  {
    "name": "scan_ghost",
    "defaultvalue": 0,
    "displayName": "Spook",
    "hidden": 0,
    "description": "Scan a Ghost",
    "icon": "https://steamcdn-a.akamaihd.net/steamcommunity/public/images/apps/457760/13759d672728967708e540edb107ff30dbd04319.jpg",
    "icongray": "https://steamcdn-a.akamaihd.net/steamcommunity/public/images/apps/457760/c678667800e4a86d7cfcf9afcdc49dffeefe7f09.jpg"
  },
  {
    "name": "surveyor_kill",
    "defaultvalue": 0,
    "displayName": "Fratricide",
    "hidden": 0,
    "description": "Kill a Surveyor",
    "icon": "https://steamcdn-a.akamaihd.net/steamcommunity/public/images/apps/457760/820581f2479c1e395a2195e3e53b87456de63f16.jpg",
    "icongray": "https://steamcdn-a.akamaihd.net/steamcommunity/public/images/apps/457760/1273d2980c3e07992f6d59498f4f4b45df30603b.jpg"
  },
  {
    "name": "drone_kill",
    "defaultvalue": 0,
    "displayName": "Swatter",
    "hidden": 0,
    "description": "Kill a Killer Drone",
    "icon": "https://steamcdn-a.akamaihd.net/steamcommunity/public/images/apps/457760/2671bca52d6d26097db4c3912b736b72e42b3f0b.jpg",
    "icongray": "https://steamcdn-a.akamaihd.net/steamcommunity/public/images/apps/457760/74d9ffb7d2e5a20f1afbd814550cf0b7b7351df3.jpg"
  },
  {
    "name": "dodeca_kill",
    "defaultvalue": 0,
    "displayName": "Silencer",
    "hidden": 0,
    "description": "Kill a Data Interpolator",
    "icon": "https://steamcdn-a.akamaihd.net/steamcommunity/public/images/apps/457760/e05493fa049a939bec1983266353adc4368093d1.jpg",
    "icongray": "https://steamcdn-a.akamaihd.net/steamcommunity/public/images/apps/457760/de7bfe577897df1212c6dfaaed9c187ba9113062.jpg"
  },
  {
    "name": "spider_kill",
    "defaultvalue": 0,
    "displayName": "Kill It With Fire!",
    "hidden": 0,
    "description": "Kill a Spider",
    "icon": "https://steamcdn-a.akamaihd.net/steamcommunity/public/images/apps/457760/a92181e6e20643a05a8fce2f1ab817080c5e6a23.jpg",
    "icongray": "https://steamcdn-a.akamaihd.net/steamcommunity/public/images/apps/457760/2010106a04c206ec56ab8795bcaae9df0cb12d3b.jpg"
  },
  {
    "name": "melee_hit",
    "defaultvalue": 0,
    "displayName": "Pugilist",
    "hidden": 0,
    "description": "Melee'd something",
    "icon": "https://steamcdn-a.akamaihd.net/steamcommunity/public/images/apps/457760/7f4c6ac396020881390a3fb9bbf198582db00efb.jpg",
    "icongray": "https://steamcdn-a.akamaihd.net/steamcommunity/public/images/apps/457760/e2907cd06beaa721bc7a56de3aba5bbe23c06ce4.jpg"
  },
  {
    "name": "rank_6",
    "defaultvalue": 0,
    "displayName": "Rank 6",
    "hidden": 0,
    "description": "Reach Rank 6",
    "icon": "https://steamcdn-a.akamaihd.net/steamcommunity/public/images/apps/457760/06c66b8532522d20bf37e796e216a943fcd64941.jpg",
    "icongray": "https://steamcdn-a.akamaihd.net/steamcommunity/public/images/apps/457760/de2aa769cac6802efd0510bd825593bcc47e69fa.jpg"
  }
]