﻿{
  "Dlcs": {},
  "Name": "Crystal Reign",
  "AppId": "662780",
  "ImageUrl": "https://steamcdn-a.akamaihd.net/steam/apps/662780/header.jpg?t=1578575514",
  "Languages": [
    "english"
  ],
  "Platforms": {
    "windows": true,
    "mac": false,
    "linux": false
  }
}