﻿{
  "Dlcs": {},
  "Name": "Roads of Rome",
  "AppId": "410770",
  "ImageUrl": "https://steamcdn-a.akamaihd.net/steam/apps/410770/header.jpg?t=1537534575",
  "Languages": [
    "english",
    "french",
    "italian",
    "german",
    "spanish",
    "russian"
  ],
  "Platforms": {
    "windows": true,
    "mac": false,
    "linux": false
  }
}