﻿{
  "Dlcs": {},
  "Name": "Butterfly Moment",
  "AppId": "711530",
  "ImageUrl": "https://steamcdn-a.akamaihd.net/steam/apps/711530/header.jpg?t=1569939553",
  "Languages": [
    "english"
  ],
  "Platforms": {
    "windows": true,
    "mac": false,
    "linux": false
  }
}