﻿[
  {
    "name": "ACH_A1_POWER_ORB",
    "defaultvalue": 0,
    "displayName": "A1 POWER ORB",
    "hidden": 1,
    "icon": "https://steamcdn-a.akamaihd.net/steamcommunity/public/images/apps/497080/1ba7433017ee6f2a351f3dc149a5103cfb7aba7c.jpg",
    "icongray": "https://steamcdn-a.akamaihd.net/steamcommunity/public/images/apps/497080/253fa2b1b4cba76d96a1b56f0c96230c6dcacef9.jpg"
  },
  {
    "name": "ACH_A2_POWER_ORB",
    "defaultvalue": 0,
    "displayName": "A2 POWER ORB",
    "hidden": 1,
    "icon": "https://steamcdn-a.akamaihd.net/steamcommunity/public/images/apps/497080/8cf677f66cb194493873ad93620d1c8dc49a38e4.jpg",
    "icongray": "https://steamcdn-a.akamaihd.net/steamcommunity/public/images/apps/497080/667828a33ddcb6509ab7b1d00e6c118e010ba40d.jpg"
  },
  {
    "name": "ACH_A3_POWER_ORB",
    "defaultvalue": 0,
    "displayName": "A3 POWER ORB",
    "hidden": 1,
    "icon": "https://steamcdn-a.akamaihd.net/steamcommunity/public/images/apps/497080/5204735d4b5bd1acba5a4b15ed3841849209a29b.jpg",
    "icongray": "https://steamcdn-a.akamaihd.net/steamcommunity/public/images/apps/497080/40eadbfd33f184a412cc35ef7209991029a02e67.jpg"
  },
  {
    "name": "ACH_A4_POWER_ORB",
    "defaultvalue": 0,
    "displayName": "A4 POWER ORB",
    "hidden": 1,
    "icon": "https://steamcdn-a.akamaihd.net/steamcommunity/public/images/apps/497080/1bddf71b96d7cd47feab83dcd590031bb6f227c6.jpg",
    "icongray": "https://steamcdn-a.akamaihd.net/steamcommunity/public/images/apps/497080/f3e22726aaa1d2f4a8b29d7ce8ba687f0f7d6db0.jpg"
  },
  {
    "name": "ACH_B1_POWER_ORB",
    "defaultvalue": 0,
    "displayName": "B1 POWER ORB",
    "hidden": 1,
    "icon": "https://steamcdn-a.akamaihd.net/steamcommunity/public/images/apps/497080/35a26123f3bfebfb187ecb339cbb4b7a1ef789ce.jpg",
    "icongray": "https://steamcdn-a.akamaihd.net/steamcommunity/public/images/apps/497080/fb60272bcd86630f17798303cd6ada419ebb4251.jpg"
  },
  {
    "name": "ACH_B2_POWER_ORB",
    "defaultvalue": 0,
    "displayName": "B2 POWER ORB",
    "hidden": 1,
    "icon": "https://steamcdn-a.akamaihd.net/steamcommunity/public/images/apps/497080/b325dee6a66861d10ac1d6632c0d2513a1c1331c.jpg",
    "icongray": "https://steamcdn-a.akamaihd.net/steamcommunity/public/images/apps/497080/27d26a7db2f26374990a91f881dc7ba71cf269c0.jpg"
  },
  {
    "name": "ACH_B3_POWER_ORB",
    "defaultvalue": 0,
    "displayName": "B3 POWER ORB",
    "hidden": 1,
    "icon": "https://steamcdn-a.akamaihd.net/steamcommunity/public/images/apps/497080/f1fcff9190499b316f90d2a6a8fa7770e37409fc.jpg",
    "icongray": "https://steamcdn-a.akamaihd.net/steamcommunity/public/images/apps/497080/0de923d40ffceca680534563734b13cec496d1bb.jpg"
  },
  {
    "name": "ACH_B4_POWER_ORB",
    "defaultvalue": 0,
    "displayName": "B4 POWER ORB",
    "hidden": 1,
    "icon": "https://steamcdn-a.akamaihd.net/steamcommunity/public/images/apps/497080/62faa2ccaaa95c954c849efde492d55d686767e0.jpg",
    "icongray": "https://steamcdn-a.akamaihd.net/steamcommunity/public/images/apps/497080/af1f80b23433c5d678f311aa207ee799e1f5f3a2.jpg"
  },
  {
    "name": "ACH_C1_POWER_ORB",
    "defaultvalue": 0,
    "displayName": "C1 POWER ORB",
    "hidden": 1,
    "icon": "https://steamcdn-a.akamaihd.net/steamcommunity/public/images/apps/497080/67060bb7d42526456e97a9b39ddc4036125aefaa.jpg",
    "icongray": "https://steamcdn-a.akamaihd.net/steamcommunity/public/images/apps/497080/ce75ff304141808941e7c87db52ee578c2f41dff.jpg"
  },
  {
    "name": "ACH_C2_POWER_ORB",
    "defaultvalue": 0,
    "displayName": "C2 POWER ORB",
    "hidden": 1,
    "icon": "https://steamcdn-a.akamaihd.net/steamcommunity/public/images/apps/497080/07a42d421633b282a32040eb677868a5cf5b4790.jpg",
    "icongray": "https://steamcdn-a.akamaihd.net/steamcommunity/public/images/apps/497080/f4e674249350476ae91e019b8d8e0fbb3e8cfa33.jpg"
  },
  {
    "name": "ACH_C3_POWER_ORB",
    "defaultvalue": 0,
    "displayName": "C3 POWER ORB",
    "hidden": 1,
    "icon": "https://steamcdn-a.akamaihd.net/steamcommunity/public/images/apps/497080/d33bf6e7d685aa343e0493948cbb6a0bd3eadf8a.jpg",
    "icongray": "https://steamcdn-a.akamaihd.net/steamcommunity/public/images/apps/497080/c71870cf558ed18f37a6b8689a03f0718b1a285d.jpg"
  },
  {
    "name": "ACH_C4_POWER_ORB",
    "defaultvalue": 0,
    "displayName": "C4 POWER ORB",
    "hidden": 1,
    "icon": "https://steamcdn-a.akamaihd.net/steamcommunity/public/images/apps/497080/cd4ac783d23d4da5188f99faf3e4119a544a4b8d.jpg",
    "icongray": "https://steamcdn-a.akamaihd.net/steamcommunity/public/images/apps/497080/28514f6fb32f55a05aa24e0c939205a285ca6a26.jpg"
  },
  {
    "name": "ACH_D1_POWER_ORB",
    "defaultvalue": 0,
    "displayName": "D1 POWER ORB",
    "hidden": 1,
    "icon": "https://steamcdn-a.akamaihd.net/steamcommunity/public/images/apps/497080/e961622b1a55fdafa2e651492b3be3651546cc39.jpg",
    "icongray": "https://steamcdn-a.akamaihd.net/steamcommunity/public/images/apps/497080/1028f2828dc090c54947f3606833717723059a04.jpg"
  },
  {
    "name": "ACH_D2_POWER_ORB",
    "defaultvalue": 0,
    "displayName": "D2 POWER ORB",
    "hidden": 1,
    "icon": "https://steamcdn-a.akamaihd.net/steamcommunity/public/images/apps/497080/4fab15ab17fedb6e9074aea632854e4317a11eec.jpg",
    "icongray": "https://steamcdn-a.akamaihd.net/steamcommunity/public/images/apps/497080/c2181669e156536fbd06bd6cd8c4ab8501c3f459.jpg"
  },
  {
    "name": "ACH_D3_POWER_ORB",
    "defaultvalue": 0,
    "displayName": "D3 POWER ORB",
    "hidden": 1,
    "icon": "https://steamcdn-a.akamaihd.net/steamcommunity/public/images/apps/497080/e4210255798c7b4a7e9301145c78ad7a80d97341.jpg",
    "icongray": "https://steamcdn-a.akamaihd.net/steamcommunity/public/images/apps/497080/bf71a2c9f5e51dbc5db362ea9c64fe94e91ca82f.jpg"
  },
  {
    "name": "ACH_D4_POWER_ORB",
    "defaultvalue": 0,
    "displayName": "D4 POWER ORB",
    "hidden": 1,
    "icon": "https://steamcdn-a.akamaihd.net/steamcommunity/public/images/apps/497080/e22ac5ce919548db48a90649f3adf98b8afc1232.jpg",
    "icongray": "https://steamcdn-a.akamaihd.net/steamcommunity/public/images/apps/497080/20d654b3e608586129af490c633ac143c06ea222.jpg"
  },
  {
    "name": "ACH_FLASHLIGHT_ORB",
    "defaultvalue": 0,
    "displayName": "FLASHLIGHT ORB",
    "hidden": 1,
    "icon": "https://steamcdn-a.akamaihd.net/steamcommunity/public/images/apps/497080/9e208306a0da99c51d50fc0050a593712942f393.jpg",
    "icongray": "https://steamcdn-a.akamaihd.net/steamcommunity/public/images/apps/497080/b61c16d8f35652df1c5bc3d9ac79e349f6e6f7be.jpg"
  },
  {
    "name": "ACH_MACHINE_ORB",
    "defaultvalue": 0,
    "displayName": "MACHINE ORB",
    "hidden": 1,
    "icon": "https://steamcdn-a.akamaihd.net/steamcommunity/public/images/apps/497080/eb25552224a2c0e7bcdb618d3e896c71b23f0861.jpg",
    "icongray": "https://steamcdn-a.akamaihd.net/steamcommunity/public/images/apps/497080/b4bc97c54b20a75c7d13cc4c8de9ea348f252446.jpg"
  },
  {
    "name": "ACH_GRAVITY_SWITCH_ORB",
    "defaultvalue": 0,
    "displayName": "GRAVITY SWITCH ORB",
    "hidden": 1,
    "icon": "https://steamcdn-a.akamaihd.net/steamcommunity/public/images/apps/497080/2e58e194e80945c83da76a4d873d3f1cdee79aae.jpg",
    "icongray": "https://steamcdn-a.akamaihd.net/steamcommunity/public/images/apps/497080/e46c24885d6f28d7439f9d477b40218c764edce1.jpg"
  },
  {
    "name": "ACH_TELEPORT_ORB",
    "defaultvalue": 0,
    "displayName": "TELEPORT ORB",
    "hidden": 1,
    "icon": "https://steamcdn-a.akamaihd.net/steamcommunity/public/images/apps/497080/d52feff6ee8f2d98ca9102cf02ac7dcd542f798f.jpg",
    "icongray": "https://steamcdn-a.akamaihd.net/steamcommunity/public/images/apps/497080/8c8eef5f77b44163708c76736e18b0cea00f8ca0.jpg"
  },
  {
    "name": "ACH_SUN_ORB",
    "defaultvalue": 0,
    "displayName": "SUN ORB",
    "hidden": 1,
    "icon": "https://steamcdn-a.akamaihd.net/steamcommunity/public/images/apps/497080/56bed53a68bd9cb5ba627dd66eb187bbb2c9f3f5.jpg",
    "icongray": "https://steamcdn-a.akamaihd.net/steamcommunity/public/images/apps/497080/35b31f33d3fde0d361049020298ff81b06d6b238.jpg"
  },
  {
    "name": "ACH_ULTRABOOST_ORB",
    "defaultvalue": 0,
    "displayName": "ULTRA BOOST ORB",
    "hidden": 1,
    "icon": "https://steamcdn-a.akamaihd.net/steamcommunity/public/images/apps/497080/bcbadcfb017f2f20ebe0bb55fc92cd472e3cdab5.jpg",
    "icongray": "https://steamcdn-a.akamaihd.net/steamcommunity/public/images/apps/497080/6fd0c37d9811babeb38d98d93aa2fd35a7ad648a.jpg"
  },
  {
    "name": "ACH_FORCE_ORB",
    "defaultvalue": 0,
    "displayName": "FORCE ORB",
    "hidden": 1,
    "icon": "https://steamcdn-a.akamaihd.net/steamcommunity/public/images/apps/497080/f1ab3304b71fabf43c3b0b6a14cafe5895af41ac.jpg",
    "icongray": "https://steamcdn-a.akamaihd.net/steamcommunity/public/images/apps/497080/e727af35fec56924b71ff6cdd68a4bd6622ca1b4.jpg"
  },
  {
    "name": "ACH_GRAVITY_TELEPORT_ORB",
    "defaultvalue": 0,
    "displayName": "GRAVITY TELEPORT ORB",
    "hidden": 1,
    "icon": "https://steamcdn-a.akamaihd.net/steamcommunity/public/images/apps/497080/0c6a48b44b56aac2b59df4ed4affa475e63eb46b.jpg",
    "icongray": "https://steamcdn-a.akamaihd.net/steamcommunity/public/images/apps/497080/4c1165aa709794bef4f3a31ccef0fbe9e2933b99.jpg"
  },
  {
    "name": "ACH_DOUBLE_JUMP",
    "defaultvalue": 0,
    "displayName": "DOUBLE JUMP",
    "hidden": 1,
    "icon": "https://steamcdn-a.akamaihd.net/steamcommunity/public/images/apps/497080/6324da1221a06b757920fc3822745f7bbce96ae8.jpg",
    "icongray": "https://steamcdn-a.akamaihd.net/steamcommunity/public/images/apps/497080/9934daa7d5e42955d3d952f775087ba59dfff912.jpg"
  },
  {
    "name": "ACH_TRIPLE_JUMP",
    "defaultvalue": 0,
    "displayName": "TRIPLE JUMP",
    "hidden": 1,
    "icon": "https://steamcdn-a.akamaihd.net/steamcommunity/public/images/apps/497080/ffe72ec0d2d5f85342809bed81746d2a23512928.jpg",
    "icongray": "https://steamcdn-a.akamaihd.net/steamcommunity/public/images/apps/497080/5a3e2ee3e36a3861a028282e6e18e53317254b82.jpg"
  },
  {
    "name": "ACH_AIRBOOST",
    "defaultvalue": 0,
    "displayName": "AIRBOOST",
    "hidden": 1,
    "icon": "https://steamcdn-a.akamaihd.net/steamcommunity/public/images/apps/497080/779ad7243cc8001974c26372754bb61f060cf13c.jpg",
    "icongray": "https://steamcdn-a.akamaihd.net/steamcommunity/public/images/apps/497080/160dab5e67064784fed70aa1eaaf3951200464ec.jpg"
  },
  {
    "name": "ACH_DOUBLE_AIRBOOST",
    "defaultvalue": 0,
    "displayName": "DOUBLE AIRBOOST",
    "hidden": 1,
    "icon": "https://steamcdn-a.akamaihd.net/steamcommunity/public/images/apps/497080/5f5f604ce1a2fbed3bff56060bd378e81d45f86f.jpg",
    "icongray": "https://steamcdn-a.akamaihd.net/steamcommunity/public/images/apps/497080/f5872cfea90bfd34fe766720289ab18eff5b19bd.jpg"
  },
  {
    "name": "ACH_TRIPLE_AIRBOOST",
    "defaultvalue": 0,
    "displayName": "TRIPLE AIRBOOST",
    "hidden": 1,
    "icon": "https://steamcdn-a.akamaihd.net/steamcommunity/public/images/apps/497080/438ba31292707a740b6ca0457fe74aba6a32f80c.jpg",
    "icongray": "https://steamcdn-a.akamaihd.net/steamcommunity/public/images/apps/497080/c574b64c9673a1c87baa760c924857245b5b7560.jpg"
  },
  {
    "name": "ACH_DISCOVERED_CONSTRUCT_HUB",
    "defaultvalue": 0,
    "displayName": "CONSTRUCT",
    "hidden": 1,
    "icon": "https://steamcdn-a.akamaihd.net/steamcommunity/public/images/apps/497080/99d8a6c4cda5c8d931f1e952c7306144c3c98f52.jpg",
    "icongray": "https://steamcdn-a.akamaihd.net/steamcommunity/public/images/apps/497080/63c9a36ab5d8653f0916451aad3c1c145d7dc16f.jpg"
  },
  {
    "name": "ACH_ESCAPED_FROM_CONSTRUCT",
    "defaultvalue": 0,
    "displayName": "ESCAPED",
    "hidden": 1,
    "icon": "https://steamcdn-a.akamaihd.net/steamcommunity/public/images/apps/497080/b5156096c5f4931af385a8b03c17801ef0e2fb36.jpg",
    "icongray": "https://steamcdn-a.akamaihd.net/steamcommunity/public/images/apps/497080/31fad000c9bcac682d2005e6dfcf576edc8b5f00.jpg"
  },
  {
    "name": "ACH_DISCOVERED_A_HUB",
    "defaultvalue": 0,
    "displayName": "A HUB",
    "hidden": 1,
    "icon": "https://steamcdn-a.akamaihd.net/steamcommunity/public/images/apps/497080/2e17d9d5865d12e61ede20b4510861887f4df847.jpg",
    "icongray": "https://steamcdn-a.akamaihd.net/steamcommunity/public/images/apps/497080/24bdd80c29e88154499345b30362810af642ae32.jpg"
  },
  {
    "name": "ACH_DISCOVERED_B_HUB",
    "defaultvalue": 0,
    "displayName": "B HUB",
    "hidden": 1,
    "icon": "https://steamcdn-a.akamaihd.net/steamcommunity/public/images/apps/497080/d3a3d55efe1e5bdfebb4c62caeb0514479cfe978.jpg",
    "icongray": "https://steamcdn-a.akamaihd.net/steamcommunity/public/images/apps/497080/e349386296bc3f782e152130563d1e5110cd2113.jpg"
  },
  {
    "name": "ACH_DISCOVERED_C_HUB",
    "defaultvalue": 0,
    "displayName": "C HUB",
    "hidden": 1,
    "icon": "https://steamcdn-a.akamaihd.net/steamcommunity/public/images/apps/497080/0d6b0c6c2949587de054c3e6ac4ad7a31e509898.jpg",
    "icongray": "https://steamcdn-a.akamaihd.net/steamcommunity/public/images/apps/497080/f5449d4390e898b27acd858b45cb121f963e92f2.jpg"
  },
  {
    "name": "ACH_DISCOVERED_D_HUB",
    "defaultvalue": 0,
    "displayName": "D HUB",
    "hidden": 1,
    "icon": "https://steamcdn-a.akamaihd.net/steamcommunity/public/images/apps/497080/03db2c92fd5e6391db5ab3879af0b79c48f83735.jpg",
    "icongray": "https://steamcdn-a.akamaihd.net/steamcommunity/public/images/apps/497080/d2da0aefdc979ff28b210bc297399a1abbd8fe31.jpg"
  },
  {
    "name": "ACH_CLEARED_A_HUB",
    "defaultvalue": 0,
    "displayName": "A HUB CLEAR",
    "hidden": 1,
    "icon": "https://steamcdn-a.akamaihd.net/steamcommunity/public/images/apps/497080/aa1b7586493eb73fe8d1175fb6c2b3eaa2dc4d69.jpg",
    "icongray": "https://steamcdn-a.akamaihd.net/steamcommunity/public/images/apps/497080/b7e89e9e67f2039e3ab5da68c19a636b7efb6beb.jpg"
  },
  {
    "name": "ACH_CLEARED_B_HUB",
    "defaultvalue": 0,
    "displayName": "B HUB CLEAR",
    "hidden": 1,
    "icon": "https://steamcdn-a.akamaihd.net/steamcommunity/public/images/apps/497080/00e583501d0cf359a1dea386b1296ed5f073d9fa.jpg",
    "icongray": "https://steamcdn-a.akamaihd.net/steamcommunity/public/images/apps/497080/33207920cea7dd7496a1153c05ffefcb2a922b97.jpg"
  },
  {
    "name": "ACH_CLEARED_C_HUB",
    "defaultvalue": 0,
    "displayName": "C HUB CLEAR",
    "hidden": 1,
    "icon": "https://steamcdn-a.akamaihd.net/steamcommunity/public/images/apps/497080/68dc93ac961ac507dc6049c69e2580d5dfa67c0b.jpg",
    "icongray": "https://steamcdn-a.akamaihd.net/steamcommunity/public/images/apps/497080/8c0a237036dc2b6d486b5f3f5b6c514af426d3a4.jpg"
  },
  {
    "name": "ACH_CLEARED_D_HUB",
    "defaultvalue": 0,
    "displayName": "D HUB CLEAR",
    "hidden": 1,
    "icon": "https://steamcdn-a.akamaihd.net/steamcommunity/public/images/apps/497080/f222db6edee8c1126684d05fa429ff4338eec345.jpg",
    "icongray": "https://steamcdn-a.akamaihd.net/steamcommunity/public/images/apps/497080/4099fb69b4597d8178150e362d33ed5dc1cb6637.jpg"
  },
  {
    "name": "ACH_ALL_POWER_ORBS",
    "defaultvalue": 0,
    "displayName": "ALL POWER ORBS",
    "hidden": 1,
    "icon": "https://steamcdn-a.akamaihd.net/steamcommunity/public/images/apps/497080/8062af9a682820ada9ee591e3d8c5c16be19dcea.jpg",
    "icongray": "https://steamcdn-a.akamaihd.net/steamcommunity/public/images/apps/497080/516cf58c10006e40aa4cf27372adf928a0f1cd88.jpg"
  },
  {
    "name": "ACH_ALL_ABILITY_ORBS",
    "defaultvalue": 0,
    "displayName": "ALL ABILITY ORBS",
    "hidden": 1,
    "icon": "https://steamcdn-a.akamaihd.net/steamcommunity/public/images/apps/497080/91ca056133f4df59babe2b8dc25e5158229b8bed.jpg",
    "icongray": "https://steamcdn-a.akamaihd.net/steamcommunity/public/images/apps/497080/31f85c27165b02fbf80896c95dbbefbc6a50210f.jpg"
  },
  {
    "name": "ACH_ALL_UPGRADES",
    "defaultvalue": 0,
    "displayName": "ALL UPGRADES",
    "hidden": 1,
    "icon": "https://steamcdn-a.akamaihd.net/steamcommunity/public/images/apps/497080/f12dd2f92bd2de08549051625bfc1199b79b59bc.jpg",
    "icongray": "https://steamcdn-a.akamaihd.net/steamcommunity/public/images/apps/497080/8f418f1b59b8bfc51c3b378a2184078f6d64a662.jpg"
  }
]