﻿{
  "Dlcs": {},
  "Name": "Puzzle Dimension",
  "AppId": "57200",
  "ImageUrl": "https://steamcdn-a.akamaihd.net/steam/apps/57200/header.jpg?t=1481198545",
  "Languages": [
    "english",
    "french",
    "german",
    "italian",
    "polish",
    "portuguese",
    "russian",
    "spanish",
    "swedish",
    "japanese",
    "schinese"
  ],
  "Platforms": {
    "windows": true,
    "mac": true,
    "linux": false
  }
}