﻿{
  "Dlcs": {},
  "Name": "Bird of Light",
  "AppId": "447010",
  "ImageUrl": "https://steamcdn-a.akamaihd.net/steam/apps/447010/header.jpg?t=1504045411",
  "Languages": [
    "english"
  ],
  "Platforms": {
    "windows": true,
    "mac": true,
    "linux": true
  }
}