﻿[
  {
    "name": "inputType",
    "defaultvalue": 0,
    "displayName": ""
  },
  {
    "name": "mouseSensitivity",
    "defaultvalue": 0,
    "displayName": ""
  },
  {
    "name": "furthestModuleReached",
    "defaultvalue": 0,
    "displayName": ""
  },
  {
    "name": "moduleConnections",
    "defaultvalue": 0,
    "displayName": ""
  },
  {
    "name": "secretBitCollected0",
    "defaultvalue": 0,
    "displayName": ""
  },
  {
    "name": "secretBitCollected1",
    "defaultvalue": 0,
    "displayName": ""
  },
  {
    "name": "secretBitCollected2",
    "defaultvalue": 0,
    "displayName": ""
  },
  {
    "name": "secretBitCollected3",
    "defaultvalue": 0,
    "displayName": ""
  },
  {
    "name": "secretBitCollected4",
    "defaultvalue": 0,
    "displayName": ""
  },
  {
    "name": "secretBitCollected5",
    "defaultvalue": 0,
    "displayName": ""
  },
  {
    "name": "completedRandomLevels",
    "defaultvalue": 0,
    "displayName": ""
  },
  {
    "name": "completedDefaultLevels",
    "defaultvalue": 0,
    "displayName": ""
  },
  {
    "name": "survivalHighScore",
    "defaultvalue": 0,
    "displayName": ""
  },
  {
    "name": "redHazardStreaksCompleted",
    "defaultvalue": 0,
    "displayName": ""
  },
  {
    "name": "numSecretBitsCollected",
    "defaultvalue": 0,
    "displayName": ""
  }
]