﻿[
  {
    "name": "Complete_Game",
    "defaultvalue": 0,
    "displayName": "Freedom!",
    "hidden": 0,
    "description": "Complete FORCED (Good luck!)",
    "icon": "https://steamcdn-a.akamaihd.net/steamcommunity/public/images/apps/249990/be1366a12f20e67328e21929e127eb78eac45f6f.jpg",
    "icongray": "https://steamcdn-a.akamaihd.net/steamcommunity/public/images/apps/249990/7f470e31c72b6a3000bf654f08cc419ab274c1a1.jpg"
  },
  {
    "name": "Complete_Chamber_1",
    "defaultvalue": 0,
    "displayName": "Beat the Cow Level",
    "hidden": 0,
    "description": "Wrangle with Wrathhoof",
    "icon": "https://steamcdn-a.akamaihd.net/steamcommunity/public/images/apps/249990/11bd8f69f1b6ad916bdf520aed27d2b3e6b34598.jpg",
    "icongray": "https://steamcdn-a.akamaihd.net/steamcommunity/public/images/apps/249990/77111a002b43ae3a48177aabe2e915645d332df7.jpg"
  },
  {
    "name": "Complete_Chamber_2",
    "defaultvalue": 0,
    "displayName": "Student of Pain",
    "hidden": 0,
    "description": "Slay Slarth",
    "icon": "https://steamcdn-a.akamaihd.net/steamcommunity/public/images/apps/249990/1aa671eedad9d40b9ee86ffe156a5943484aac8e.jpg",
    "icongray": "https://steamcdn-a.akamaihd.net/steamcommunity/public/images/apps/249990/df5c3025c4edf71a7878a8e5d903545bd6ee5edc.jpg"
  },
  {
    "name": "Complete_Chamber_3",
    "defaultvalue": 0,
    "displayName": "Heart Attack",
    "hidden": 0,
    "description": "Get Graw",
    "icon": "https://steamcdn-a.akamaihd.net/steamcommunity/public/images/apps/249990/9811a9c597989ee3ffe256fad6988de8791e90de.jpg",
    "icongray": "https://steamcdn-a.akamaihd.net/steamcommunity/public/images/apps/249990/b937c851f1c275cafbcd241fab5936bd3a39ee53.jpg"
  },
  {
    "name": "Complete_Chamber4",
    "defaultvalue": 0,
    "displayName": "Brittle Bones",
    "hidden": 0,
    "description": "Maim Mordar",
    "icon": "https://steamcdn-a.akamaihd.net/steamcommunity/public/images/apps/249990/77dd454fb29398e423cdb40fd82a8344495a6fad.jpg",
    "icongray": "https://steamcdn-a.akamaihd.net/steamcommunity/public/images/apps/249990/d0b4f79030eae0debb053441f6a69a159a163cf1.jpg"
  },
  {
    "name": "Write_Own_Name",
    "defaultvalue": 0,
    "displayName": "\"Hodor\" -Hodor",
    "hidden": 0,
    "description": "Hodor. Hodor hodor, hodor... Hodor!",
    "icon": "https://steamcdn-a.akamaihd.net/steamcommunity/public/images/apps/249990/5dccbf503620dd6e1698a82d817aaa14dec146ec.jpg",
    "icongray": "https://steamcdn-a.akamaihd.net/steamcommunity/public/images/apps/249990/e47ec784b108ed0a65d8b3add0ba94ca5fcf0325.jpg"
  },
  {
    "name": "Earn_Crystals_25",
    "defaultvalue": 0,
    "displayName": "Bejeweled",
    "hidden": 0,
    "description": "Earn 25 Crystals",
    "icon": "https://steamcdn-a.akamaihd.net/steamcommunity/public/images/apps/249990/7a2363a7f6aecd48fec22b23e05218074903c4b8.jpg",
    "icongray": "https://steamcdn-a.akamaihd.net/steamcommunity/public/images/apps/249990/547f9e47067b608e1f0eeecac5b846db4eb34ac3.jpg"
  },
  {
    "name": "Destroy_Boomer_Eggs 100",
    "defaultvalue": 0,
    "displayName": "Volatile Omelet",
    "hidden": 0,
    "description": "Burst 100 Volatile Swarmer Eggs",
    "icon": "https://steamcdn-a.akamaihd.net/steamcommunity/public/images/apps/249990/cd944811b4619d54c59028b4f3aea33bbcb710d5.jpg",
    "icongray": "https://steamcdn-a.akamaihd.net/steamcommunity/public/images/apps/249990/d16895de46f5a0bbcc59b8862f5c85c6e569ce69.jpg"
  },
  {
    "name": "Hammer_Trials_Completed",
    "defaultvalue": 0,
    "displayName": "It’s Hammer time!",
    "hidden": 0,
    "description": "Complete 10 trials with the Volcanic Hammer",
    "icon": "https://steamcdn-a.akamaihd.net/steamcommunity/public/images/apps/249990/871d60cff8a9cd4f12365e0e36102e6da4f1cff4.jpg",
    "icongray": "https://steamcdn-a.akamaihd.net/steamcommunity/public/images/apps/249990/2d366b241627495aabc67b763e7e2670194b946c.jpg"
  },
  {
    "name": "Bow_Trials_Completed",
    "defaultvalue": 0,
    "displayName": "High Voltage!",
    "hidden": 0,
    "description": "Complete 10 trials with the Storm Bow",
    "icon": "https://steamcdn-a.akamaihd.net/steamcommunity/public/images/apps/249990/33a1a2ac2fd3349e22b30259f15591597d4853d3.jpg",
    "icongray": "https://steamcdn-a.akamaihd.net/steamcommunity/public/images/apps/249990/7ea2a15698ef83fd2e7f5c73d24e6ea02c62d52a.jpg"
  },
  {
    "name": "Shield_Trials_Completed",
    "defaultvalue": 0,
    "displayName": "Mr. Ice Guy!",
    "hidden": 0,
    "description": "Complete 10 trials with the Ice Shield",
    "icon": "https://steamcdn-a.akamaihd.net/steamcommunity/public/images/apps/249990/8a96548ec475d3fc7ba97d6714e80be13130a95f.jpg",
    "icongray": "https://steamcdn-a.akamaihd.net/steamcommunity/public/images/apps/249990/e08fec767d82830dae6360ba2e1c6e21ab06c2b7.jpg"
  },
  {
    "name": "Blades_Trials_Completed",
    "defaultvalue": 0,
    "displayName": "Slice and Dice!",
    "hidden": 0,
    "description": "Complete 10 trials with the Spirit Claws",
    "icon": "https://steamcdn-a.akamaihd.net/steamcommunity/public/images/apps/249990/9526e41e61d9ed589f424abe1506a55420d55e81.jpg",
    "icongray": "https://steamcdn-a.akamaihd.net/steamcommunity/public/images/apps/249990/093711b174904622b818c9a617dc25febe0e1694.jpg"
  },
  {
    "name": "Time_Trial_Completed_8",
    "defaultvalue": 0,
    "displayName": "¡Arriba! ¡Arriba!",
    "hidden": 0,
    "description": "Beat 8 time challenges",
    "icon": "https://steamcdn-a.akamaihd.net/steamcommunity/public/images/apps/249990/9fd03f967296a19c30c2ec0ecbac15f4344e07d0.jpg",
    "icongray": "https://steamcdn-a.akamaihd.net/steamcommunity/public/images/apps/249990/d4ace2b0a9653cf2189e0313d190eebd2f20ebcc.jpg"
  },
  {
    "name": "Challenge_Trial_Completed_8",
    "defaultvalue": 0,
    "displayName": "A New Challenger Appears!",
    "hidden": 0,
    "description": "Beat 8 challenges",
    "icon": "https://steamcdn-a.akamaihd.net/steamcommunity/public/images/apps/249990/213cdc115e3f5449c43fc29cfff28825f16eded7.jpg",
    "icongray": "https://steamcdn-a.akamaihd.net/steamcommunity/public/images/apps/249990/fb3c0eda204fa542cbe7bb8028030241a19170ba.jpg"
  },
  {
    "name": "Challenge_Trial_Completed_16",
    "defaultvalue": 0,
    "displayName": "Challenge Accepted!",
    "hidden": 0,
    "description": "Beat 16 challenges",
    "icon": "https://steamcdn-a.akamaihd.net/steamcommunity/public/images/apps/249990/e6b2468f14b0b06cdb37bc5ed4e3c4a224bf5d8d.jpg",
    "icongray": "https://steamcdn-a.akamaihd.net/steamcommunity/public/images/apps/249990/6a629921dc6bf013b8944118739bc53919ce3ed8.jpg"
  },
  {
    "name": "Challenge_Trial_Completed_25",
    "defaultvalue": 0,
    "displayName": "Challenge Completed!",
    "hidden": 0,
    "description": "Beat 25 challenges",
    "icon": "https://steamcdn-a.akamaihd.net/steamcommunity/public/images/apps/249990/a94f30403b89c8bc2fc6e6597147c7db76541507.jpg",
    "icongray": "https://steamcdn-a.akamaihd.net/steamcommunity/public/images/apps/249990/b3dbc2d6a927b4f8b8687856fbd45a84a20b1a23.jpg"
  },
  {
    "name": "Time_Trial_Completed_16",
    "defaultvalue": 0,
    "displayName": "Speed Racer!",
    "hidden": 0,
    "description": "Beat 16 time challenges",
    "icon": "https://steamcdn-a.akamaihd.net/steamcommunity/public/images/apps/249990/d466609d05aad85fbeb166e033133d083f1c43ca.jpg",
    "icongray": "https://steamcdn-a.akamaihd.net/steamcommunity/public/images/apps/249990/6ce6063ef8c83f2b8104880f490224a6c1d3a829.jpg"
  },
  {
    "name": "Time_Trial_Completed_25",
    "defaultvalue": 0,
    "displayName": "Speed Racer!",
    "hidden": 0,
    "description": "Beat 25 time challenges",
    "icon": "https://steamcdn-a.akamaihd.net/steamcommunity/public/images/apps/249990/0c07ee1e1d93257def4d3e2fd7d5aa333ad8462a.jpg",
    "icongray": "https://steamcdn-a.akamaihd.net/steamcommunity/public/images/apps/249990/b1b94393715102eaae8ef598cef351104fe5f967.jpg"
  },
  {
    "name": "Earn_Crystals_50",
    "defaultvalue": 0,
    "displayName": "Putting the Pro in Prospector",
    "hidden": 0,
    "description": "Earn 50 Crystals",
    "icon": "https://steamcdn-a.akamaihd.net/steamcommunity/public/images/apps/249990/908e4a8af4c20113c731520f959c49595934caca.jpg",
    "icongray": "https://steamcdn-a.akamaihd.net/steamcommunity/public/images/apps/249990/395169d6026fb397e118b988e5542f158e5efe9b.jpg"
  },
  {
    "name": "Earn_Crystals_75",
    "defaultvalue": 0,
    "displayName": "Gotta collect 'em all!",
    "hidden": 0,
    "description": "Earn 75 Crystals",
    "icon": "https://steamcdn-a.akamaihd.net/steamcommunity/public/images/apps/249990/65fb9c0c6cb89d734cd6bafbc2d43bf0d8fcfc8a.jpg",
    "icongray": "https://steamcdn-a.akamaihd.net/steamcommunity/public/images/apps/249990/4038535135f863adc70fff5dda95d56fcecdf31a.jpg"
  },
  {
    "name": "Endless_Earn_Bronze",
    "defaultvalue": 0,
    "displayName": "Survivor",
    "hidden": 0,
    "description": "Earn a Bronze Crystal in a Survival mode",
    "icon": "https://steamcdn-a.akamaihd.net/steamcommunity/public/images/apps/249990/03bfb8d641b06d7b76de1d45314cf26409fd2172.jpg",
    "icongray": "https://steamcdn-a.akamaihd.net/steamcommunity/public/images/apps/249990/bd5252245373f06aea64be0e859dbeac8471c79b.jpg"
  },
  {
    "name": "Endless_Earn_Silver",
    "defaultvalue": 0,
    "displayName": "Staying Alive",
    "hidden": 0,
    "description": "Earn a Silver Crystal in a Survival mode",
    "icon": "https://steamcdn-a.akamaihd.net/steamcommunity/public/images/apps/249990/086659b3834e0b78f6a1e3aa9e3bb16575a15911.jpg",
    "icongray": "https://steamcdn-a.akamaihd.net/steamcommunity/public/images/apps/249990/6c0ea030ce47fc55d1fd591f74f3aad8f1344766.jpg"
  },
  {
    "name": "Endless_Earn_Gold",
    "defaultvalue": 0,
    "displayName": "I can do this all day!",
    "hidden": 0,
    "description": "Earn a Gold Crystal in a Survival mode",
    "icon": "https://steamcdn-a.akamaihd.net/steamcommunity/public/images/apps/249990/ddbb5853eb521fb13bf1533edc96362a79ca893f.jpg",
    "icongray": "https://steamcdn-a.akamaihd.net/steamcommunity/public/images/apps/249990/ab922c6f436aee01eb553d4a5db32353f32693ce.jpg"
  },
  {
    "name": "Endless_Earn_Gold_In_All",
    "defaultvalue": 0,
    "displayName": "Gladiator",
    "hidden": 0,
    "description": "Earn all crystals from the Survival modes",
    "icon": "https://steamcdn-a.akamaihd.net/steamcommunity/public/images/apps/249990/b4ba6a45ad4f385ae057db866c7d44f0e12fdb3a.jpg",
    "icongray": "https://steamcdn-a.akamaihd.net/steamcommunity/public/images/apps/249990/8e0f9257fa28a5a6a041b305ab59303aa84a4d1b.jpg"
  }
]