﻿{
  "Dlcs": {},
  "Name": "Trophy Fishing 2",
  "AppId": "645260",
  "ImageUrl": "https://steamcdn-a.akamaihd.net/steam/apps/645260/header.jpg?t=1514286740",
  "Languages": [
    "english",
    "french",
    "italian",
    "german",
    "spanish",
    "polish",
    "portuguese",
    "russian",
    "tchinese",
    "portuguese"
  ],
  "Platforms": {
    "windows": true,
    "mac": false,
    "linux": false
  }
}