﻿{
  "Dlcs": {},
  "Name": "Cube Land Arena",
  "AppId": "450850",
  "ImageUrl": "https://steamcdn-a.akamaihd.net/steam/apps/450850/header.jpg?t=1584130200",
  "Languages": [
    "english"
  ],
  "Platforms": {
    "windows": true,
    "mac": false,
    "linux": false
  }
}