﻿[
  {
    "name": "award_65_0",
    "defaultvalue": 0,
    "displayName": "Guerrilla Fighter Level 1",
    "hidden": 0,
    "description": "Recruit 50 militia units.",
    "icon": "https://steamcdn-a.akamaihd.net/steamcommunity/public/images/apps/672680/e8ecbf76c30a1457f77dd00e1f435d6615ba9291.jpg",
    "icongray": "https://steamcdn-a.akamaihd.net/steamcommunity/public/images/apps/672680/bdfd6e06bb17f249d9990a927a0fbc84a5197ab7.jpg"
  },
  {
    "name": "award_65_1",
    "defaultvalue": 0,
    "displayName": "Guerrilla Fighter Level 2",
    "hidden": 0,
    "description": "Recruit 250 militia units.",
    "icon": "https://steamcdn-a.akamaihd.net/steamcommunity/public/images/apps/672680/2e122fd36deea8905cd74140c14a2220db4d8d51.jpg",
    "icongray": "https://steamcdn-a.akamaihd.net/steamcommunity/public/images/apps/672680/e7f6f66fe27aa7d354949e9e8974120e928a2527.jpg"
  },
  {
    "name": "award_65_2",
    "defaultvalue": 0,
    "displayName": "Guerrilla Fighter Level 3",
    "hidden": 0,
    "description": "Recruit 1000 militia units.",
    "icon": "https://steamcdn-a.akamaihd.net/steamcommunity/public/images/apps/672680/f94179bc48d0c1c105e9765f2dcc661de0482b9c.jpg",
    "icongray": "https://steamcdn-a.akamaihd.net/steamcommunity/public/images/apps/672680/f2f3da54b48c8cb35269b41ed2a51d1c13c70836.jpg"
  },
  {
    "name": "award_63_0",
    "defaultvalue": 0,
    "displayName": "Ruler of Europe Level 1",
    "hidden": 0,
    "description": "Win 1 round of the Europe 1932 \"Road to War\" map.",
    "icon": "https://steamcdn-a.akamaihd.net/steamcommunity/public/images/apps/672680/3b48349212e77468e94041bdbc7954fb8cfcbbd3.jpg",
    "icongray": "https://steamcdn-a.akamaihd.net/steamcommunity/public/images/apps/672680/b0efa7d40d789c75d28f5acd9c4003f0229a6485.jpg"
  },
  {
    "name": "award_63_1",
    "defaultvalue": 0,
    "displayName": "Ruler of Europe Level 2",
    "hidden": 0,
    "description": "Win 5 rounds of the Europe 1932 \"Road to War\" map.",
    "icon": "https://steamcdn-a.akamaihd.net/steamcommunity/public/images/apps/672680/475f528517ee09059e5d656df229c61f387e3c74.jpg",
    "icongray": "https://steamcdn-a.akamaihd.net/steamcommunity/public/images/apps/672680/1b45d7f4dd16b17c58513e2690b773313b7aa0b0.jpg"
  },
  {
    "name": "award_63_2",
    "defaultvalue": 0,
    "displayName": "Ruler of Europe Level 3",
    "hidden": 0,
    "description": "Win 10 rounds of the Europe 1932 \"Road to War\" map.",
    "icon": "https://steamcdn-a.akamaihd.net/steamcommunity/public/images/apps/672680/f010ecb950fb369524b7e232f349c80653a618ee.jpg",
    "icongray": "https://steamcdn-a.akamaihd.net/steamcommunity/public/images/apps/672680/34852d510cec74c8b7cec0655bc174edf675de0f.jpg"
  },
  {
    "name": "award_64_0",
    "defaultvalue": 0,
    "displayName": "Close Combat Expert Level 1",
    "hidden": 0,
    "description": "Defeat 5 enemy infantry units.",
    "icon": "https://steamcdn-a.akamaihd.net/steamcommunity/public/images/apps/672680/06ec1fad898883d1fba69f61fbc8b4d99c020d9a.jpg",
    "icongray": "https://steamcdn-a.akamaihd.net/steamcommunity/public/images/apps/672680/d8d2cf972beb060e9a5d3112acbb57165876b642.jpg"
  },
  {
    "name": "award_64_1",
    "defaultvalue": 0,
    "displayName": "Close Combat Expert Level 2",
    "hidden": 0,
    "description": "Defeat 250 enemy infantry units.",
    "icon": "https://steamcdn-a.akamaihd.net/steamcommunity/public/images/apps/672680/d087492586c8015aca1b0e7ae46f2ad9e06507cc.jpg",
    "icongray": "https://steamcdn-a.akamaihd.net/steamcommunity/public/images/apps/672680/907101fd7e8fe2a94a17058af87cbf820c23848f.jpg"
  },
  {
    "name": "award_64_2",
    "defaultvalue": 0,
    "displayName": "Close Combat Expert Level 3",
    "hidden": 0,
    "description": "Defeat 1500 enemy infantry units.",
    "icon": "https://steamcdn-a.akamaihd.net/steamcommunity/public/images/apps/672680/a68eec1762538b699fe34c1da29e6da09fd07b68.jpg",
    "icongray": "https://steamcdn-a.akamaihd.net/steamcommunity/public/images/apps/672680/32e4ef1214888441debab0ed5bfdc55a05246e52.jpg"
  },
  {
    "name": "award_66_0",
    "defaultvalue": 0,
    "displayName": "Tactician Level 1",
    "hidden": 0,
    "description": "Defeat 25 enemy units with units from the infantry tech branch.",
    "icon": "https://steamcdn-a.akamaihd.net/steamcommunity/public/images/apps/672680/70c3e7f8f44436f20e7c46c41b4a58a3240a2172.jpg",
    "icongray": "https://steamcdn-a.akamaihd.net/steamcommunity/public/images/apps/672680/4f2287f9e05a6f4a4f5a81de0d8d107572ecdb63.jpg"
  },
  {
    "name": "award_66_1",
    "defaultvalue": 0,
    "displayName": "Tactician Level 2",
    "hidden": 0,
    "description": "Defeat 500 enemy units with units from the infantry tech branch.",
    "icon": "https://steamcdn-a.akamaihd.net/steamcommunity/public/images/apps/672680/2426cb5a2ae289c3b8082967e885ca60e35158c4.jpg",
    "icongray": "https://steamcdn-a.akamaihd.net/steamcommunity/public/images/apps/672680/c8e11eb60cce45ccd2594f3600fd300572d41ec5.jpg"
  },
  {
    "name": "award_66_2",
    "defaultvalue": 0,
    "displayName": "Tactician Level 3",
    "hidden": 0,
    "description": "Defeat 2500 enemy units with units from the infantry tech branch.",
    "icon": "https://steamcdn-a.akamaihd.net/steamcommunity/public/images/apps/672680/f1101599ef0a0d86ca09356dacc142c5a77dd366.jpg",
    "icongray": "https://steamcdn-a.akamaihd.net/steamcommunity/public/images/apps/672680/077ed44a79987956f945d2f8a1f6267ab029febd.jpg"
  },
  {
    "name": "award_67_0",
    "defaultvalue": 0,
    "displayName": "Ubersoldier Level 1",
    "hidden": 0,
    "description": "Defeat 250 enemy units from the infantry tech branch.",
    "icon": "https://steamcdn-a.akamaihd.net/steamcommunity/public/images/apps/672680/ebe59844d070d4a3bf8621b69aaf77d83dc08e0b.jpg",
    "icongray": "https://steamcdn-a.akamaihd.net/steamcommunity/public/images/apps/672680/757d876fd102c24eff296c770c30651374d2dfa5.jpg"
  },
  {
    "name": "award_67_1",
    "defaultvalue": 0,
    "displayName": "Ubersoldier Level 2",
    "hidden": 0,
    "description": "Defeat 1000 enemy units from the infantry tech branch.",
    "icon": "https://steamcdn-a.akamaihd.net/steamcommunity/public/images/apps/672680/1c2ccf784d4a0222dece0041d7ea5edc50906be3.jpg",
    "icongray": "https://steamcdn-a.akamaihd.net/steamcommunity/public/images/apps/672680/19816515566b84e330579dee999cad8033626b8a.jpg"
  },
  {
    "name": "award_67_2",
    "defaultvalue": 0,
    "displayName": "Ubersoldier Level 3",
    "hidden": 0,
    "description": "Defeat 5000 enemy units from the infantry tech branch.",
    "icon": "https://steamcdn-a.akamaihd.net/steamcommunity/public/images/apps/672680/4490ab546fc1b1a03f138e60c8f3547fae636dd2.jpg",
    "icongray": "https://steamcdn-a.akamaihd.net/steamcommunity/public/images/apps/672680/d71955a107f0d1a04033384636bd224cb0c2cacd.jpg"
  },
  {
    "name": "award_68_0",
    "defaultvalue": 0,
    "displayName": "Panzerace Level 1",
    "hidden": 0,
    "description": "Defeat 25 enemy units with heavy tanks.",
    "icon": "https://steamcdn-a.akamaihd.net/steamcommunity/public/images/apps/672680/6cf33af11830e2253f2fd648094e17b167314c97.jpg",
    "icongray": "https://steamcdn-a.akamaihd.net/steamcommunity/public/images/apps/672680/29c348b4e356addc9b33234774549e8bc06e5adb.jpg"
  },
  {
    "name": "award_68_1",
    "defaultvalue": 0,
    "displayName": "Panzerace Level 2",
    "hidden": 0,
    "description": "Defeat 100 enemy units with heavy tanks.",
    "icon": "https://steamcdn-a.akamaihd.net/steamcommunity/public/images/apps/672680/d38e0c9c0a0ec391e88486527a85b5f41a81b46f.jpg",
    "icongray": "https://steamcdn-a.akamaihd.net/steamcommunity/public/images/apps/672680/0f20e229a0bf0838ef2d728756845a7e57787d87.jpg"
  },
  {
    "name": "award_68_2",
    "defaultvalue": 0,
    "displayName": "Panzerace Level 3",
    "hidden": 0,
    "description": "Defeat 500 enemy units with heavy tanks.",
    "icon": "https://steamcdn-a.akamaihd.net/steamcommunity/public/images/apps/672680/572eeb4ee62b53d57d3cbafc24a231f52fa799f5.jpg",
    "icongray": "https://steamcdn-a.akamaihd.net/steamcommunity/public/images/apps/672680/3c80edd5edfab32cbb3b7f1665b6bf2df7b99655.jpg"
  },
  {
    "name": "award_69_0",
    "defaultvalue": 0,
    "displayName": "Tank Destroyer Level 1",
    "hidden": 0,
    "description": "Defeat 10 tanks in total.",
    "icon": "https://steamcdn-a.akamaihd.net/steamcommunity/public/images/apps/672680/175f9678a754f94ba09f1d2050c14b297ed6e74a.jpg",
    "icongray": "https://steamcdn-a.akamaihd.net/steamcommunity/public/images/apps/672680/7cada06556414411f389ded119977e4aaab8138a.jpg"
  },
  {
    "name": "award_69_1",
    "defaultvalue": 0,
    "displayName": "Tank Destroyer Level 2",
    "hidden": 0,
    "description": "Defeat 50 tanks in total.",
    "icon": "https://steamcdn-a.akamaihd.net/steamcommunity/public/images/apps/672680/d72bbe2a341556e3d926848a8bb35f6199c159a2.jpg",
    "icongray": "https://steamcdn-a.akamaihd.net/steamcommunity/public/images/apps/672680/04bc377464136b70baba184837245ba3b2af15f0.jpg"
  },
  {
    "name": "award_69_2",
    "defaultvalue": 0,
    "displayName": "Tank Destroyer Level 3",
    "hidden": 0,
    "description": "Defeat 250 tanks in total.",
    "icon": "https://steamcdn-a.akamaihd.net/steamcommunity/public/images/apps/672680/df28c202acce8c1f53bc87181f3f939343bcbcc0.jpg",
    "icongray": "https://steamcdn-a.akamaihd.net/steamcommunity/public/images/apps/672680/9865011a3afa7a98907cf8ef855b7f3b197b1837.jpg"
  },
  {
    "name": "award_70_0",
    "defaultvalue": 0,
    "displayName": "Armored Fist Level 1",
    "hidden": 0,
    "description": "Defeat 100 enemy units with units from the armour tech branch.",
    "icon": "https://steamcdn-a.akamaihd.net/steamcommunity/public/images/apps/672680/fee9107b4e7cfaf68ca10df463e92c7dfe1b9735.jpg",
    "icongray": "https://steamcdn-a.akamaihd.net/steamcommunity/public/images/apps/672680/4f0f1ac656b336f15024c3e02fd6f98208145931.jpg"
  },
  {
    "name": "award_70_1",
    "defaultvalue": 0,
    "displayName": "Armored Fist Level 2",
    "hidden": 0,
    "description": "Defeat 500 enemy units with units from the armour tech branch.",
    "icon": "https://steamcdn-a.akamaihd.net/steamcommunity/public/images/apps/672680/7228694d1a28912fa94dd96c75eab5c150445a94.jpg",
    "icongray": "https://steamcdn-a.akamaihd.net/steamcommunity/public/images/apps/672680/73bd234eb011bfc1cc3b5d9af607f1486bf51cc5.jpg"
  },
  {
    "name": "award_70_2",
    "defaultvalue": 0,
    "displayName": "Armored Fist Level 3",
    "hidden": 0,
    "description": "Defeat 2500 enemy units with units from the armour tech branch.",
    "icon": "https://steamcdn-a.akamaihd.net/steamcommunity/public/images/apps/672680/8f801fc2d407d0aadd39cdaabc4561314219c1db.jpg",
    "icongray": "https://steamcdn-a.akamaihd.net/steamcommunity/public/images/apps/672680/91ac3e14990a3f279026f6a56bacdd6b153682b5.jpg"
  },
  {
    "name": "award_71_0",
    "defaultvalue": 0,
    "displayName": "Desertfox Level 1",
    "hidden": 0,
    "description": "Defeat 100 enemy units of the armour tech branch.",
    "icon": "https://steamcdn-a.akamaihd.net/steamcommunity/public/images/apps/672680/80071f43f497bb11ec5c8ebfe649a8dd0b48c4f3.jpg",
    "icongray": "https://steamcdn-a.akamaihd.net/steamcommunity/public/images/apps/672680/19cb44e0f11e562821ad3ab4e642417af69d6655.jpg"
  },
  {
    "name": "award_71_1",
    "defaultvalue": 0,
    "displayName": "Desertfox Level 2",
    "hidden": 0,
    "description": "Defeat 500 enemy units of the armour tech branch.",
    "icon": "https://steamcdn-a.akamaihd.net/steamcommunity/public/images/apps/672680/72761f73e40eb768ebac8cd77ac8d219eb332a66.jpg",
    "icongray": "https://steamcdn-a.akamaihd.net/steamcommunity/public/images/apps/672680/063ee7f5006ed75398519cada2c2e3d3121802b2.jpg"
  },
  {
    "name": "award_71_2",
    "defaultvalue": 0,
    "displayName": "Desertfox Level 3",
    "hidden": 0,
    "description": "Defeat 2500 enemy units of the armour tech branch.",
    "icon": "https://steamcdn-a.akamaihd.net/steamcommunity/public/images/apps/672680/088917958061db1666f942cba40b2be6149c61f0.jpg",
    "icongray": "https://steamcdn-a.akamaihd.net/steamcommunity/public/images/apps/672680/c827fbfed4055cdcf7643da7570d59dbbf95dba3.jpg"
  },
  {
    "name": "award_72_0",
    "defaultvalue": 0,
    "displayName": "Saboteur Level 1",
    "hidden": 0,
    "description": "Defeat 5 railroadguns.",
    "icon": "https://steamcdn-a.akamaihd.net/steamcommunity/public/images/apps/672680/ed30928f1fad11359e27641f4980df654f495746.jpg",
    "icongray": "https://steamcdn-a.akamaihd.net/steamcommunity/public/images/apps/672680/99056982c453577eb5950f13f25eff82e89b0894.jpg"
  },
  {
    "name": "award_72_1",
    "defaultvalue": 0,
    "displayName": "Saboteur Level 2",
    "hidden": 0,
    "description": "Defeat 25 railroadguns.",
    "icon": "https://steamcdn-a.akamaihd.net/steamcommunity/public/images/apps/672680/59c2908b250b4742ca3d894a14837784cdac245a.jpg",
    "icongray": "https://steamcdn-a.akamaihd.net/steamcommunity/public/images/apps/672680/683521e9f14fb68cfbab2e3c33968038bfb60fce.jpg"
  },
  {
    "name": "award_72_2",
    "defaultvalue": 0,
    "displayName": "Saboteur Level 3",
    "hidden": 0,
    "description": "Defeat 100 railroadguns.",
    "icon": "https://steamcdn-a.akamaihd.net/steamcommunity/public/images/apps/672680/b8c2d28e57d62363595e1c68619b05ace60853ac.jpg",
    "icongray": "https://steamcdn-a.akamaihd.net/steamcommunity/public/images/apps/672680/89f49264c4b289f4a33d833eb83f2d0abd4ea644.jpg"
  },
  {
    "name": "award_73_0",
    "defaultvalue": 0,
    "displayName": "Red Baron Level 1",
    "hidden": 0,
    "description": "Defeat 25 enemy units with interceptors.",
    "icon": "https://steamcdn-a.akamaihd.net/steamcommunity/public/images/apps/672680/999dddac9c29d7d69c312838948f72a8c89f9ab5.jpg",
    "icongray": "https://steamcdn-a.akamaihd.net/steamcommunity/public/images/apps/672680/826384e70e8d5b06b039c27dc165dafbb6c1c786.jpg"
  },
  {
    "name": "award_73_1",
    "defaultvalue": 0,
    "displayName": "Red Baron Level 2",
    "hidden": 0,
    "description": "Defeat 250 enemy units with interceptors.",
    "icon": "https://steamcdn-a.akamaihd.net/steamcommunity/public/images/apps/672680/58662034b9ee69df964478c54ab516f5ad43265b.jpg",
    "icongray": "https://steamcdn-a.akamaihd.net/steamcommunity/public/images/apps/672680/d9994a0393c055d4eb0fc2050a1dda9c1550de35.jpg"
  },
  {
    "name": "award_73_2",
    "defaultvalue": 0,
    "displayName": "Red Baron Level 3",
    "hidden": 0,
    "description": "Defeat 1500 enemy units with interceptors.",
    "icon": "https://steamcdn-a.akamaihd.net/steamcommunity/public/images/apps/672680/e38f6047b98c93cdb0f5d368c824767c4a058336.jpg",
    "icongray": "https://steamcdn-a.akamaihd.net/steamcommunity/public/images/apps/672680/1b56d7daae417a0dbcc3c7fb50dde91e40876cf4.jpg"
  },
  {
    "name": "award_74_0",
    "defaultvalue": 0,
    "displayName": "Carpetbomber Level 1",
    "hidden": 0,
    "description": "Defeat 50 enemy units with tac. bombers.",
    "icon": "https://steamcdn-a.akamaihd.net/steamcommunity/public/images/apps/672680/2e54c908f8b9dca5dd2de627ef865ed2215f73b4.jpg",
    "icongray": "https://steamcdn-a.akamaihd.net/steamcommunity/public/images/apps/672680/17c5c6b5979947551fb63d2d894179054fbf65b5.jpg"
  },
  {
    "name": "award_74_1",
    "defaultvalue": 0,
    "displayName": "Carpetbomber Level 2",
    "hidden": 0,
    "description": "Defeat 500 enemy units with tac. bombers.",
    "icon": "https://steamcdn-a.akamaihd.net/steamcommunity/public/images/apps/672680/d8b1a76632a8a8f65392075407a6c6429478dfce.jpg",
    "icongray": "https://steamcdn-a.akamaihd.net/steamcommunity/public/images/apps/672680/ca031233bd680d0bc644b46a16bad6cc8a91565a.jpg"
  },
  {
    "name": "award_74_2",
    "defaultvalue": 0,
    "displayName": "Carpetbomber Level 3",
    "hidden": 0,
    "description": "Defeat 5000 enemy units with tac. bombers.",
    "icon": "https://steamcdn-a.akamaihd.net/steamcommunity/public/images/apps/672680/60b670b0738f5ee985c50308a4716c16e9604ca1.jpg",
    "icongray": "https://steamcdn-a.akamaihd.net/steamcommunity/public/images/apps/672680/edff52afa7f94f32884b8c7582a39d22fc9a9624.jpg"
  },
  {
    "name": "award_75_0",
    "defaultvalue": 0,
    "displayName": "Seabomber Level 1",
    "hidden": 0,
    "description": "Defeat 10 enemy units with naval bombers.",
    "icon": "https://steamcdn-a.akamaihd.net/steamcommunity/public/images/apps/672680/58fc777f73a1c74ca4e45fb35baaf289c074f529.jpg",
    "icongray": "https://steamcdn-a.akamaihd.net/steamcommunity/public/images/apps/672680/0f80181d28c124ab5aebc84a3e6bfc84ee3ccbe0.jpg"
  },
  {
    "name": "award_75_1",
    "defaultvalue": 0,
    "displayName": "Seabomber Level 2",
    "hidden": 0,
    "description": "Defeat 50 enemy units with naval bombers.",
    "icon": "https://steamcdn-a.akamaihd.net/steamcommunity/public/images/apps/672680/6568ec47c0b64dc12aac03ad21d4388eba27d8b4.jpg",
    "icongray": "https://steamcdn-a.akamaihd.net/steamcommunity/public/images/apps/672680/c8a61ae4cd245a104db49ae17e7dac5114286260.jpg"
  },
  {
    "name": "award_75_2",
    "defaultvalue": 0,
    "displayName": "Seabomber Level 3",
    "hidden": 0,
    "description": "Defeat 250 enemy units with naval bombers.",
    "icon": "https://steamcdn-a.akamaihd.net/steamcommunity/public/images/apps/672680/5a7c8cf0714bd0ddece3c5bd977821fc5bfca23c.jpg",
    "icongray": "https://steamcdn-a.akamaihd.net/steamcommunity/public/images/apps/672680/e798e0f512f26f961e62065c242d887affb751fa.jpg"
  },
  {
    "name": "award_76_0",
    "defaultvalue": 0,
    "displayName": "Flying Ace Level 1",
    "hidden": 0,
    "description": "Defeat 250 enemy units with units from the air tech branch.",
    "icon": "https://steamcdn-a.akamaihd.net/steamcommunity/public/images/apps/672680/247e590f8dd692e1fa071214f3e076cc236af562.jpg",
    "icongray": "https://steamcdn-a.akamaihd.net/steamcommunity/public/images/apps/672680/671a27dd255fdc55a10b03954af8a52c383a4938.jpg"
  },
  {
    "name": "award_76_1",
    "defaultvalue": 0,
    "displayName": "Flying Ace Level 2",
    "hidden": 0,
    "description": "Defeat 1000 enemy units with units from the air tech branch.",
    "icon": "https://steamcdn-a.akamaihd.net/steamcommunity/public/images/apps/672680/03fc440687dd479527aa270e6279ce92a7cc637b.jpg",
    "icongray": "https://steamcdn-a.akamaihd.net/steamcommunity/public/images/apps/672680/55ade4ea22b888d3485d009170928754e24f9d5e.jpg"
  },
  {
    "name": "award_76_2",
    "defaultvalue": 0,
    "displayName": "Flying Ace Level 3",
    "hidden": 0,
    "description": "Defeat 5000 enemy units with units from the air tech branch.",
    "icon": "https://steamcdn-a.akamaihd.net/steamcommunity/public/images/apps/672680/2471aca0344c30968d27e763ff0940a3f4467cdf.jpg",
    "icongray": "https://steamcdn-a.akamaihd.net/steamcommunity/public/images/apps/672680/31900d67b722015efccc88ceddd3c4c1cee8ff6b.jpg"
  },
  {
    "name": "award_77_0",
    "defaultvalue": 0,
    "displayName": "Hero Of The Skies Level 1",
    "hidden": 0,
    "description": "Defeat 200 enemy units of the air tech branch.",
    "icon": "https://steamcdn-a.akamaihd.net/steamcommunity/public/images/apps/672680/9488bae0663f69035734460464e8f01517bbb8e9.jpg",
    "icongray": "https://steamcdn-a.akamaihd.net/steamcommunity/public/images/apps/672680/3ced3a6fdb4f0b597a5b86d5db7028dc7eff33d1.jpg"
  },
  {
    "name": "award_77_1",
    "defaultvalue": 0,
    "displayName": "Hero Of The Skies Level 2",
    "hidden": 0,
    "description": "Defeat 1000 enemy units of the air tech branch.",
    "icon": "https://steamcdn-a.akamaihd.net/steamcommunity/public/images/apps/672680/31c3ab67a25e723cab681a59e74ce2caa4c9a161.jpg",
    "icongray": "https://steamcdn-a.akamaihd.net/steamcommunity/public/images/apps/672680/a5c58a75b4870920d625d0c1511db2580b012311.jpg"
  },
  {
    "name": "award_77_2",
    "defaultvalue": 0,
    "displayName": "Hero Of The Skies Level 3",
    "hidden": 0,
    "description": "Defeat 2500 enemy units of the air tech banch.",
    "icon": "https://steamcdn-a.akamaihd.net/steamcommunity/public/images/apps/672680/31f24488981c24237348f161daabb6386f49442a.jpg",
    "icongray": "https://steamcdn-a.akamaihd.net/steamcommunity/public/images/apps/672680/731e313aac10e3ec7bc4ba7a7f17e3a5d47be339.jpg"
  },
  {
    "name": "award_78_0",
    "defaultvalue": 0,
    "displayName": "Wolf Pack Hunter Level 1",
    "hidden": 0,
    "description": "Sink 10 normal submarines.",
    "icon": "https://steamcdn-a.akamaihd.net/steamcommunity/public/images/apps/672680/d42d124af948c9c75f88cf0b5ac910eb74cf387d.jpg",
    "icongray": "https://steamcdn-a.akamaihd.net/steamcommunity/public/images/apps/672680/12c7d4dd9f04eca406d37791489052f1ae4199d7.jpg"
  },
  {
    "name": "award_78_1",
    "defaultvalue": 0,
    "displayName": "Wolf Pack Hunter Level 2",
    "hidden": 0,
    "description": "Sink 100 normal submarines.",
    "icon": "https://steamcdn-a.akamaihd.net/steamcommunity/public/images/apps/672680/c149932e452d91dac70febbfdbf9c9f84baeba43.jpg",
    "icongray": "https://steamcdn-a.akamaihd.net/steamcommunity/public/images/apps/672680/6e8d4f250ff2e1dd0b10efbfccc05712a37b18cf.jpg"
  },
  {
    "name": "award_78_2",
    "defaultvalue": 0,
    "displayName": "Wolf Pack Hunter Level 3",
    "hidden": 0,
    "description": "Sink 500 normal submarines.",
    "icon": "https://steamcdn-a.akamaihd.net/steamcommunity/public/images/apps/672680/2d93fb31a0f3b324bd46f5f411ec468f5d700eb0.jpg",
    "icongray": "https://steamcdn-a.akamaihd.net/steamcommunity/public/images/apps/672680/c510116b429ef0b86daf14b43e02a5a113293791.jpg"
  },
  {
    "name": "award_79_0",
    "defaultvalue": 0,
    "displayName": "King Of The Waves Level 1",
    "hidden": 0,
    "description": "Defeat 50 enemy units with normal battleships.",
    "icon": "https://steamcdn-a.akamaihd.net/steamcommunity/public/images/apps/672680/9d26a2a7d10fcb933e726a89b759b956be12fe9a.jpg",
    "icongray": "https://steamcdn-a.akamaihd.net/steamcommunity/public/images/apps/672680/80f182468b7ad1295f9d1cbb2c76dcae6ede79ea.jpg"
  },
  {
    "name": "award_79_1",
    "defaultvalue": 0,
    "displayName": "King Of The Waves Level 2",
    "hidden": 0,
    "description": "Defeat 250 enemy units with normal battleships.",
    "icon": "https://steamcdn-a.akamaihd.net/steamcommunity/public/images/apps/672680/a3c6be3f2e1793dfcd45bf06e88f145cab05e2f8.jpg",
    "icongray": "https://steamcdn-a.akamaihd.net/steamcommunity/public/images/apps/672680/36b3b160814a1ab31474d03872c8b2477d6ca136.jpg"
  },
  {
    "name": "award_79_2",
    "defaultvalue": 0,
    "displayName": "King Of The Waves Level 3",
    "hidden": 0,
    "description": "Defeat 1000 enemy units with normal battleships.",
    "icon": "https://steamcdn-a.akamaihd.net/steamcommunity/public/images/apps/672680/e5be02497d09443cfac8f10135cf990464ebfcf3.jpg",
    "icongray": "https://steamcdn-a.akamaihd.net/steamcommunity/public/images/apps/672680/68b96dcc8567cb98fc2efb8d2f3ac2a50801201a.jpg"
  },
  {
    "name": "award_80_0",
    "defaultvalue": 0,
    "displayName": "Visionary Level 1",
    "hidden": 0,
    "description": "Build 5 airplane carriers.",
    "icon": "https://steamcdn-a.akamaihd.net/steamcommunity/public/images/apps/672680/106a61884b243b4fe9b8f03c719daf6a2eba1534.jpg",
    "icongray": "https://steamcdn-a.akamaihd.net/steamcommunity/public/images/apps/672680/23c80ea0a980a22f1f0215b4a139295022fbf483.jpg"
  },
  {
    "name": "award_80_1",
    "defaultvalue": 0,
    "displayName": "Visionary Level 2",
    "hidden": 0,
    "description": "Build 25 airplane carriers.",
    "icon": "https://steamcdn-a.akamaihd.net/steamcommunity/public/images/apps/672680/ec8ae2825f02fe408325d909cde0318b0d994dfb.jpg",
    "icongray": "https://steamcdn-a.akamaihd.net/steamcommunity/public/images/apps/672680/8db2cae769ee109876a809bc721c2a9c7057c1d1.jpg"
  },
  {
    "name": "award_80_2",
    "defaultvalue": 0,
    "displayName": "Visionary Level 3",
    "hidden": 0,
    "description": "Build 100 airplane carriers.",
    "icon": "https://steamcdn-a.akamaihd.net/steamcommunity/public/images/apps/672680/e1fcebfdf05c6c86c48b137d7dd916d1ad313fba.jpg",
    "icongray": "https://steamcdn-a.akamaihd.net/steamcommunity/public/images/apps/672680/9f82acfa8a81c8c20a2b619e603b3b312cb5ec1b.jpg"
  },
  {
    "name": "award_81_0",
    "defaultvalue": 0,
    "displayName": "Wall of Steel Level 1",
    "hidden": 0,
    "description": "Defeat 10 enemy units with nuclear battleships.",
    "icon": "https://steamcdn-a.akamaihd.net/steamcommunity/public/images/apps/672680/55525b42d5c619190f5ac079d12288d92405401c.jpg",
    "icongray": "https://steamcdn-a.akamaihd.net/steamcommunity/public/images/apps/672680/00cb21c1c66d2a441dc66c1602a4f897eedede82.jpg"
  },
  {
    "name": "award_81_1",
    "defaultvalue": 0,
    "displayName": "Wall of Steel Level 2",
    "hidden": 0,
    "description": "Defeat 50 enemy units with nuclear battleships.",
    "icon": "https://steamcdn-a.akamaihd.net/steamcommunity/public/images/apps/672680/a75764f046588f4338b61dd8edf872bbc855af23.jpg",
    "icongray": "https://steamcdn-a.akamaihd.net/steamcommunity/public/images/apps/672680/8e0ce684609e82d005b2f71ab0a51ebeb976057a.jpg"
  },
  {
    "name": "award_81_2",
    "defaultvalue": 0,
    "displayName": "Wall of Steel Level 3",
    "hidden": 0,
    "description": "Defeat 250 enemy units with nuclear battleships.",
    "icon": "https://steamcdn-a.akamaihd.net/steamcommunity/public/images/apps/672680/83fb954e0fbc19d783acb5334145da5232517b74.jpg",
    "icongray": "https://steamcdn-a.akamaihd.net/steamcommunity/public/images/apps/672680/08773c38e8fb8ef4019998c2f8f6b052e6abee08.jpg"
  },
  {
    "name": "award_82_0",
    "defaultvalue": 0,
    "displayName": "Silent Hunter Level 1",
    "hidden": 0,
    "description": "Defeat 10 enemy units with nuclear submarines.",
    "icon": "https://steamcdn-a.akamaihd.net/steamcommunity/public/images/apps/672680/f6ee61ced00d99c3a12c03249067364aa1a41b5e.jpg",
    "icongray": "https://steamcdn-a.akamaihd.net/steamcommunity/public/images/apps/672680/440b8ae7d406dff95a5051c7a33f2cd3172ecbf5.jpg"
  },
  {
    "name": "award_82_1",
    "defaultvalue": 0,
    "displayName": "Silent Hunter Level 2",
    "hidden": 0,
    "description": "Defeat 50 enemy units with nuclear submarines.",
    "icon": "https://steamcdn-a.akamaihd.net/steamcommunity/public/images/apps/672680/f1ed5c90979311f0adb1dcc7085b3f91e10eafaf.jpg",
    "icongray": "https://steamcdn-a.akamaihd.net/steamcommunity/public/images/apps/672680/4987abce7df61579e70a480ad33f1dceea5ea830.jpg"
  },
  {
    "name": "award_82_2",
    "defaultvalue": 0,
    "displayName": "Silent Hunter Level 3",
    "hidden": 0,
    "description": "Defeat 250 enemy units with nuclear submarines.",
    "icon": "https://steamcdn-a.akamaihd.net/steamcommunity/public/images/apps/672680/baad8933b0f55b08ce1ebcafe6689f2a49029e33.jpg",
    "icongray": "https://steamcdn-a.akamaihd.net/steamcommunity/public/images/apps/672680/6155c91973a1558754370ae3938e083478afeaea.jpg"
  },
  {
    "name": "award_83_0",
    "defaultvalue": 0,
    "displayName": "Atomic Warrior Level 1",
    "hidden": 0,
    "description": "Build 5 nuclear bombers.",
    "icon": "https://steamcdn-a.akamaihd.net/steamcommunity/public/images/apps/672680/8add592c1ef548e563dbf83691f6255c9e993eb2.jpg",
    "icongray": "https://steamcdn-a.akamaihd.net/steamcommunity/public/images/apps/672680/fbce599939a9506ab8e4ee284dc7bd9ef2ab3ca9.jpg"
  },
  {
    "name": "award_83_1",
    "defaultvalue": 0,
    "displayName": "Atomic Warrior Level 2",
    "hidden": 0,
    "description": "Build 25 nuclear bombers.",
    "icon": "https://steamcdn-a.akamaihd.net/steamcommunity/public/images/apps/672680/2eb8bd1e0dbfd20a7b75d84cbd3fe2dc3e637409.jpg",
    "icongray": "https://steamcdn-a.akamaihd.net/steamcommunity/public/images/apps/672680/c6bfa1b1104987b31bcc0eca4754222b68465651.jpg"
  },
  {
    "name": "award_83_2",
    "defaultvalue": 0,
    "displayName": "Atomic Warrior Level 3",
    "hidden": 0,
    "description": "Build 100 nuclear bombers.",
    "icon": "https://steamcdn-a.akamaihd.net/steamcommunity/public/images/apps/672680/8ce84f07ebb59dd16c9405a08d7e14856d7dee93.jpg",
    "icongray": "https://steamcdn-a.akamaihd.net/steamcommunity/public/images/apps/672680/11f91af25860b81eb60b933c8b45e056acd94baf.jpg"
  },
  {
    "name": "award_84_0",
    "defaultvalue": 0,
    "displayName": "Sharpshooter Level 1",
    "hidden": 0,
    "description": "Sink 10 normal battleships.",
    "icon": "https://steamcdn-a.akamaihd.net/steamcommunity/public/images/apps/672680/59c29f247a51174c622a91c29911f6b0f091c879.jpg",
    "icongray": "https://steamcdn-a.akamaihd.net/steamcommunity/public/images/apps/672680/3ac82e289d1303a2f3d0d94d50f4a26579437946.jpg"
  },
  {
    "name": "award_84_1",
    "defaultvalue": 0,
    "displayName": "Sharpshooter Level 2",
    "hidden": 0,
    "description": "Sink 50 normal battleships.",
    "icon": "https://steamcdn-a.akamaihd.net/steamcommunity/public/images/apps/672680/7cebdfd69f7f5ef3345d8bfe5976eda3bb03b987.jpg",
    "icongray": "https://steamcdn-a.akamaihd.net/steamcommunity/public/images/apps/672680/e3ffdf11d431db2aa8cc1116f1e963ba12e60e3c.jpg"
  },
  {
    "name": "award_84_2",
    "defaultvalue": 0,
    "displayName": "Sharpshooter Level 3",
    "hidden": 0,
    "description": "Sink 200 normal battleships.",
    "icon": "https://steamcdn-a.akamaihd.net/steamcommunity/public/images/apps/672680/f11b927d07a6ec1bdef38fe34c2e63087627feae.jpg",
    "icongray": "https://steamcdn-a.akamaihd.net/steamcommunity/public/images/apps/672680/394de7ccbf5a5c23d052f31ab7c67318b3f2e559.jpg"
  },
  {
    "name": "award_85_0",
    "defaultvalue": 0,
    "displayName": "Seawolf Level 1",
    "hidden": 0,
    "description": "Defeat 25 enemy units with units from the sea tech branch.",
    "icon": "https://steamcdn-a.akamaihd.net/steamcommunity/public/images/apps/672680/e3348555f3737edf69c65d1d98b9622e4d513116.jpg",
    "icongray": "https://steamcdn-a.akamaihd.net/steamcommunity/public/images/apps/672680/9844576be134d6f206e5c6eb54ef6e63a6cb0af7.jpg"
  },
  {
    "name": "award_85_1",
    "defaultvalue": 0,
    "displayName": "Seawolf Level 2",
    "hidden": 0,
    "description": "Defeat 150 enemy units with units from the sea tech branch.",
    "icon": "https://steamcdn-a.akamaihd.net/steamcommunity/public/images/apps/672680/f04d9fbfdaf7d0ded3ab73094e3f6115f4ea6cfe.jpg",
    "icongray": "https://steamcdn-a.akamaihd.net/steamcommunity/public/images/apps/672680/83b679face1175b69ce5223a57cb2a747c66e5eb.jpg"
  },
  {
    "name": "award_85_2",
    "defaultvalue": 0,
    "displayName": "Seawolf Level 3",
    "hidden": 0,
    "description": "Defeat 750 enemy units with units from the sea tech branch.",
    "icon": "https://steamcdn-a.akamaihd.net/steamcommunity/public/images/apps/672680/bb3429461b098c6712063d454ab34a2e5734d211.jpg",
    "icongray": "https://steamcdn-a.akamaihd.net/steamcommunity/public/images/apps/672680/07fde84df960e8381c89faf0946967e9436a63c1.jpg"
  },
  {
    "name": "award_86_0",
    "defaultvalue": 0,
    "displayName": "Fleet Destroyer Level 1",
    "hidden": 0,
    "description": "Defeat 100 enemy units of the sea tech branch.",
    "icon": "https://steamcdn-a.akamaihd.net/steamcommunity/public/images/apps/672680/9ff7243f6116154aad8ea9b6dd7c2beca9b8b0a4.jpg",
    "icongray": "https://steamcdn-a.akamaihd.net/steamcommunity/public/images/apps/672680/2fbc6e095c3e966fd6590068590802bdb1a42ebe.jpg"
  },
  {
    "name": "award_86_1",
    "defaultvalue": 0,
    "displayName": "Fleet Destroyer Level 2",
    "hidden": 0,
    "description": "Defeat 500 enemy units of the sea tech branch.",
    "icon": "https://steamcdn-a.akamaihd.net/steamcommunity/public/images/apps/672680/8b6ffb59380b029d6ddf394125f3b276f65af048.jpg",
    "icongray": "https://steamcdn-a.akamaihd.net/steamcommunity/public/images/apps/672680/f1f924d9aa56ef28e4c275e0163b65c46a38bc22.jpg"
  },
  {
    "name": "award_86_2",
    "defaultvalue": 0,
    "displayName": "Fleet Destroyer Level 3",
    "hidden": 0,
    "description": "Defeat 1000 enemy units of the sea tech branch.",
    "icon": "https://steamcdn-a.akamaihd.net/steamcommunity/public/images/apps/672680/c8e5a5942982e74ffa20f0e2536b0422e44644c5.jpg",
    "icongray": "https://steamcdn-a.akamaihd.net/steamcommunity/public/images/apps/672680/e20ce2a57603a7014420ce6992579deaf57c3458.jpg"
  },
  {
    "name": "award_87_0",
    "defaultvalue": 0,
    "displayName": "Retributer Level 1",
    "hidden": 0,
    "description": "Build 100 normal rockets.",
    "icon": "https://steamcdn-a.akamaihd.net/steamcommunity/public/images/apps/672680/1ff98cc26e478d0a2a2c8ac5bfb76a10991358a9.jpg",
    "icongray": "https://steamcdn-a.akamaihd.net/steamcommunity/public/images/apps/672680/77b2c39c0625f91bb4c34727ffd10ada64831115.jpg"
  },
  {
    "name": "award_87_1",
    "defaultvalue": 0,
    "displayName": "Retributer Level 2",
    "hidden": 0,
    "description": "Build 500 normal rockets.",
    "icon": "https://steamcdn-a.akamaihd.net/steamcommunity/public/images/apps/672680/b40304987ba3ba79e518aef69861cf9d54676d67.jpg",
    "icongray": "https://steamcdn-a.akamaihd.net/steamcommunity/public/images/apps/672680/c9c710372b664d366b52b2bf7ce57ecd5537ce67.jpg"
  },
  {
    "name": "award_87_2",
    "defaultvalue": 0,
    "displayName": "Retributer Level 3",
    "hidden": 0,
    "description": "Build 2500 normal rockets.",
    "icon": "https://steamcdn-a.akamaihd.net/steamcommunity/public/images/apps/672680/38fcbacfe932eb1bd66f085c00cb9ba953c87b49.jpg",
    "icongray": "https://steamcdn-a.akamaihd.net/steamcommunity/public/images/apps/672680/4655b8219d8617c40d885d653289e26c4c88227c.jpg"
  },
  {
    "name": "award_88_0",
    "defaultvalue": 0,
    "displayName": "Little Boy Level 1",
    "hidden": 0,
    "description": "Defeat 25 enemy units with nuclear bombers.",
    "icon": "https://steamcdn-a.akamaihd.net/steamcommunity/public/images/apps/672680/0f772749258b09cc5452a5dd16ae94ca5f0b3e64.jpg",
    "icongray": "https://steamcdn-a.akamaihd.net/steamcommunity/public/images/apps/672680/557ae3cc043c9f3897e7dfdcc59a04891dd8c74c.jpg"
  },
  {
    "name": "award_88_1",
    "defaultvalue": 0,
    "displayName": "Little Boy Level 2",
    "hidden": 0,
    "description": "Defeat 250 enemy units with nuclear bombers.",
    "icon": "https://steamcdn-a.akamaihd.net/steamcommunity/public/images/apps/672680/fa9e8bbd2b117abc5628150e783ddf1c8d4023aa.jpg",
    "icongray": "https://steamcdn-a.akamaihd.net/steamcommunity/public/images/apps/672680/47953c9228f53850080cc5f025c80e4c53f37531.jpg"
  },
  {
    "name": "award_88_2",
    "defaultvalue": 0,
    "displayName": "Little Boy Level 3",
    "hidden": 0,
    "description": "Defeat 1000 enemy units with nuclear bombers.",
    "icon": "https://steamcdn-a.akamaihd.net/steamcommunity/public/images/apps/672680/e97b3755b3119332e5bcbd6ee90b5cf03ce89780.jpg",
    "icongray": "https://steamcdn-a.akamaihd.net/steamcommunity/public/images/apps/672680/fd5f54153bd8097d75520a4199919ab22b3305eb.jpg"
  },
  {
    "name": "award_89_0",
    "defaultvalue": 0,
    "displayName": "Destroyer of Worlds Level 1",
    "hidden": 0,
    "description": "Defeat 25 enemy units with nuclear rockets.",
    "icon": "https://steamcdn-a.akamaihd.net/steamcommunity/public/images/apps/672680/ae36e88c5b165e6b23a855497b461c4a3c818764.jpg",
    "icongray": "https://steamcdn-a.akamaihd.net/steamcommunity/public/images/apps/672680/10d674437a9393ce3b6b489e0767b2e0f434ff36.jpg"
  },
  {
    "name": "award_89_1",
    "defaultvalue": 0,
    "displayName": "Destroyer of Worlds Level 2",
    "hidden": 0,
    "description": "Defeat 150 enemy units with nuclear rockets.",
    "icon": "https://steamcdn-a.akamaihd.net/steamcommunity/public/images/apps/672680/5bacb06b962755a9f2554ac4241982009ee7ebbc.jpg",
    "icongray": "https://steamcdn-a.akamaihd.net/steamcommunity/public/images/apps/672680/44756a10f70f21ed099ed659dbaf9d29acc979f0.jpg"
  },
  {
    "name": "award_89_2",
    "defaultvalue": 0,
    "displayName": "Destroyer of Worlds Level 3",
    "hidden": 0,
    "description": "Defeat 1000 enemy units with nuclear rockets.",
    "icon": "https://steamcdn-a.akamaihd.net/steamcommunity/public/images/apps/672680/07d92deb9fdae39d44255e4a9568b1e3f7afa73a.jpg",
    "icongray": "https://steamcdn-a.akamaihd.net/steamcommunity/public/images/apps/672680/bacdeea6a1fbbb8a30444dc2fd00518dcbe34763.jpg"
  },
  {
    "name": "award_90_0",
    "defaultvalue": 0,
    "displayName": "Green Beret Level 1",
    "hidden": 0,
    "description": "Defeat 15 enemy units with commandos.",
    "icon": "https://steamcdn-a.akamaihd.net/steamcommunity/public/images/apps/672680/c7d74d4c054c032da8b8308d52350cd8b7e48a70.jpg",
    "icongray": "https://steamcdn-a.akamaihd.net/steamcommunity/public/images/apps/672680/3d577f073afa0e55fc4afd5738acb38d4f3a75cf.jpg"
  },
  {
    "name": "award_90_1",
    "defaultvalue": 0,
    "displayName": "Green Beret Level 2",
    "hidden": 0,
    "description": "Defeat 150 enemy units with commandos.",
    "icon": "https://steamcdn-a.akamaihd.net/steamcommunity/public/images/apps/672680/de313201e87d95377dcbd41e2ae7909a09258841.jpg",
    "icongray": "https://steamcdn-a.akamaihd.net/steamcommunity/public/images/apps/672680/42022dacb556fe75224578b99a21bb4dc1f61691.jpg"
  },
  {
    "name": "award_90_2",
    "defaultvalue": 0,
    "displayName": "Green Beret Level 3",
    "hidden": 0,
    "description": "Defeat 500 enemy units with commandos.",
    "icon": "https://steamcdn-a.akamaihd.net/steamcommunity/public/images/apps/672680/69d4720ac45241d9e8c0659e8fc7440cd5aaf908.jpg",
    "icongray": "https://steamcdn-a.akamaihd.net/steamcommunity/public/images/apps/672680/4e218293eab5307e1dada231cac2a98b7b00bbf8.jpg"
  },
  {
    "name": "award_91_0",
    "defaultvalue": 0,
    "displayName": "Engineer Level 1",
    "hidden": 0,
    "description": "Defeat 250 enemy units with units from the secret tech branch.",
    "icon": "https://steamcdn-a.akamaihd.net/steamcommunity/public/images/apps/672680/83646b3090dd0107a6446e17d40bfee2fe1094b8.jpg",
    "icongray": "https://steamcdn-a.akamaihd.net/steamcommunity/public/images/apps/672680/c6086b6542e64b9f4a869f802ee23ec2be34cf2c.jpg"
  },
  {
    "name": "award_91_1",
    "defaultvalue": 0,
    "displayName": "Engineer Level 2",
    "hidden": 0,
    "description": "Defeat 1500 enemy units with units from the secret tech branch.",
    "icon": "https://steamcdn-a.akamaihd.net/steamcommunity/public/images/apps/672680/979e8ba0881eb49185a871e1f30096d489f78bc4.jpg",
    "icongray": "https://steamcdn-a.akamaihd.net/steamcommunity/public/images/apps/672680/2be61d3926e8f92a0ee02d3d1de959d80ea1594f.jpg"
  },
  {
    "name": "award_91_2",
    "defaultvalue": 0,
    "displayName": "Engineer Level 3",
    "hidden": 0,
    "description": "Defeat 7500 enemy units with units from the secret tech branch.",
    "icon": "https://steamcdn-a.akamaihd.net/steamcommunity/public/images/apps/672680/0a5476a0bc418ea95fcddc4befd59f43d857ab5c.jpg",
    "icongray": "https://steamcdn-a.akamaihd.net/steamcommunity/public/images/apps/672680/e5594f3a3ebbb2b6c5f6122deba8eeef0ced00a7.jpg"
  },
  {
    "name": "award_92_0",
    "defaultvalue": 0,
    "displayName": "Wundersoldier Level 1",
    "hidden": 0,
    "description": "Defeat 10 enemy units of the secret tech branch.",
    "icon": "https://steamcdn-a.akamaihd.net/steamcommunity/public/images/apps/672680/d99f5f935736fda164aec38434bcda85bc2814f3.jpg",
    "icongray": "https://steamcdn-a.akamaihd.net/steamcommunity/public/images/apps/672680/a85c34a34aa469f74af2529d049b6112be0c4a9d.jpg"
  },
  {
    "name": "award_92_1",
    "defaultvalue": 0,
    "displayName": "Wundersoldier Level 2",
    "hidden": 0,
    "description": "Defeat 100 enemy units of the secret tech branch.",
    "icon": "https://steamcdn-a.akamaihd.net/steamcommunity/public/images/apps/672680/b8c9312318a58758202017b4f5a03927c11dd3cf.jpg",
    "icongray": "https://steamcdn-a.akamaihd.net/steamcommunity/public/images/apps/672680/9e34b279408962fdf58182aa7b382faf8ac330ae.jpg"
  },
  {
    "name": "award_92_2",
    "defaultvalue": 0,
    "displayName": "Wundersoldier Level 3",
    "hidden": 0,
    "description": "Defeat 750 enemy units of the secret tech branch.",
    "icon": "https://steamcdn-a.akamaihd.net/steamcommunity/public/images/apps/672680/987bab19de5ca2e93e7f96e6a616e0db68b7bbc0.jpg",
    "icongray": "https://steamcdn-a.akamaihd.net/steamcommunity/public/images/apps/672680/4293581d1469ff6c08ff788e206a7aeca43b215c.jpg"
  },
  {
    "name": "award_94_0",
    "defaultvalue": 0,
    "displayName": "Ruler of Nations Level 1",
    "hidden": 0,
    "description": "Win 1 rounds of the Europe \"Clash of Nations\" map.",
    "icon": "https://steamcdn-a.akamaihd.net/steamcommunity/public/images/apps/672680/d5b62c755b347c03bf1bdafba8121ae3a90db69a.jpg",
    "icongray": "https://steamcdn-a.akamaihd.net/steamcommunity/public/images/apps/672680/4b145b8551a90e5c58ed4d81146b934122d707d0.jpg"
  },
  {
    "name": "award_94_1",
    "defaultvalue": 0,
    "displayName": "Ruler of Nations Level 2",
    "hidden": 0,
    "description": "Win 5 rounds of the Europe \"Clash of Nations\" map.",
    "icon": "https://steamcdn-a.akamaihd.net/steamcommunity/public/images/apps/672680/0a07ace490bb9197e13979cbaf5fc7ee020df742.jpg",
    "icongray": "https://steamcdn-a.akamaihd.net/steamcommunity/public/images/apps/672680/824198adf8209a20a0ca1eeb3459a852b00b4c78.jpg"
  },
  {
    "name": "award_94_2",
    "defaultvalue": 0,
    "displayName": "Ruler of Nations Level 3",
    "hidden": 0,
    "description": "Win 10 rounds of the Europe \"Clash of Nations\" map.",
    "icon": "https://steamcdn-a.akamaihd.net/steamcommunity/public/images/apps/672680/770a0d07db725c85347496a0cf352ed5eb3fbd9f.jpg",
    "icongray": "https://steamcdn-a.akamaihd.net/steamcommunity/public/images/apps/672680/ae4a4ddcd47023c4cbaafc59d396be3831e6bac4.jpg"
  },
  {
    "name": "award_95_0",
    "defaultvalue": 0,
    "displayName": "Mediterranean Master Level 1",
    "hidden": 0,
    "description": "Win 1 round of the \"Mediterranean Theater 1941\" map.",
    "icon": "https://steamcdn-a.akamaihd.net/steamcommunity/public/images/apps/672680/14372c2ea5e10c5937aa29c00e500b62c5bd62b1.jpg",
    "icongray": "https://steamcdn-a.akamaihd.net/steamcommunity/public/images/apps/672680/ef62d60c982798970833f302046feee0d235240e.jpg"
  },
  {
    "name": "award_95_1",
    "defaultvalue": 0,
    "displayName": "Mediterranean Master Level 2",
    "hidden": 0,
    "description": "Win 5 rounds of the \"Mediterranean Theater 1941\" map.",
    "icon": "https://steamcdn-a.akamaihd.net/steamcommunity/public/images/apps/672680/d10fe830a0349c0c857f45c0e4821bd84ed82a23.jpg",
    "icongray": "https://steamcdn-a.akamaihd.net/steamcommunity/public/images/apps/672680/bfc3a09c9e336d20b018146f3ad922fede947321.jpg"
  },
  {
    "name": "award_95_2",
    "defaultvalue": 0,
    "displayName": "Mediterranean Master Level 3",
    "hidden": 0,
    "description": "Win 10 rounds of the \"Mediterranean Theater 1941\" map.",
    "icon": "https://steamcdn-a.akamaihd.net/steamcommunity/public/images/apps/672680/b9d23475e93d70ba90c7bf02773ae3529741c7d9.jpg",
    "icongray": "https://steamcdn-a.akamaihd.net/steamcommunity/public/images/apps/672680/5232cb80fbd2648f881d67bd9a1c80de5f0a00c0.jpg"
  },
  {
    "name": "award_96_0",
    "defaultvalue": 0,
    "displayName": "World Ruler Level 1",
    "hidden": 0,
    "description": "Win 1 round of the \"World at War 1932\" map.",
    "icon": "https://steamcdn-a.akamaihd.net/steamcommunity/public/images/apps/672680/a957475f3e0c1c20651e932563a232764404bf64.jpg",
    "icongray": "https://steamcdn-a.akamaihd.net/steamcommunity/public/images/apps/672680/5101b8651e58225d7853814df682c59b55282578.jpg"
  },
  {
    "name": "award_96_1",
    "defaultvalue": 0,
    "displayName": "World Ruler Level 2",
    "hidden": 0,
    "description": "Win 3 rounds of the \"World at War 1932\" map.",
    "icon": "https://steamcdn-a.akamaihd.net/steamcommunity/public/images/apps/672680/f460ec95c1604ef1aeac4ee23396b05af0128be2.jpg",
    "icongray": "https://steamcdn-a.akamaihd.net/steamcommunity/public/images/apps/672680/beb4a5464407f338c669728d21393fe472549085.jpg"
  },
  {
    "name": "award_96_2",
    "defaultvalue": 0,
    "displayName": "World Ruler Level 3",
    "hidden": 0,
    "description": "Win 6 rounds of the \"World at War 1932\" map.",
    "icon": "https://steamcdn-a.akamaihd.net/steamcommunity/public/images/apps/672680/82aad8f86e208d551d059083b7c3697bf86d5aa6.jpg",
    "icongray": "https://steamcdn-a.akamaihd.net/steamcommunity/public/images/apps/672680/2a90aba5d006d6e869a1033efccb52cb09ba4c03.jpg"
  },
  {
    "name": "award_97_0",
    "defaultvalue": 0,
    "displayName": "Admiral of the Pacific Level 1",
    "hidden": 0,
    "description": "Win 1 round of the \"Pacific Conquest\" map.",
    "icon": "https://steamcdn-a.akamaihd.net/steamcommunity/public/images/apps/672680/82aa069e65ba70c479843c711244eb44794c9c15.jpg",
    "icongray": "https://steamcdn-a.akamaihd.net/steamcommunity/public/images/apps/672680/375198757c6b1afd5f79283eaa5fcc92a9634b66.jpg"
  },
  {
    "name": "award_97_1",
    "defaultvalue": 0,
    "displayName": "Admiral of the Pacific Level 2",
    "hidden": 0,
    "description": "Win 3 rounds of the \"Pacific Conquest\" map.",
    "icon": "https://steamcdn-a.akamaihd.net/steamcommunity/public/images/apps/672680/0955a92ea0a97806d3fc339925ffa3092621f4fc.jpg",
    "icongray": "https://steamcdn-a.akamaihd.net/steamcommunity/public/images/apps/672680/442a2339352d2902d5514b02d2f3665b8a429a16.jpg"
  },
  {
    "name": "award_97_2",
    "defaultvalue": 0,
    "displayName": "Admiral of the Pacific Level 3",
    "hidden": 0,
    "description": "Win 6 rounds of the \"Pacific Conquest\" map.",
    "icon": "https://steamcdn-a.akamaihd.net/steamcommunity/public/images/apps/672680/17d1b2a40ec570ff1f8a1c708e613b5eb4ab6bad.jpg",
    "icongray": "https://steamcdn-a.akamaihd.net/steamcommunity/public/images/apps/672680/bccf0bb0021ad18049c8ccdb479c1e2c82a698f5.jpg"
  },
  {
    "name": "award_98_0",
    "defaultvalue": 0,
    "displayName": "War Hero Level 1",
    "hidden": 0,
    "description": "Win 1 round of the \"Historic World War 1939\" map.",
    "icon": "https://steamcdn-a.akamaihd.net/steamcommunity/public/images/apps/672680/90f07b4ef23bf0f52280c232baa6fa4bf0092d11.jpg",
    "icongray": "https://steamcdn-a.akamaihd.net/steamcommunity/public/images/apps/672680/311ca7dd76a1998a0219e31607ac957f1e092875.jpg"
  },
  {
    "name": "award_98_1",
    "defaultvalue": 0,
    "displayName": "War Hero Level 2",
    "hidden": 0,
    "description": "Win 3 rounds of the \"Historic World War 1939\" map.",
    "icon": "https://steamcdn-a.akamaihd.net/steamcommunity/public/images/apps/672680/ef62cdccd45bb15b21708737d984c77fdfc2e07e.jpg",
    "icongray": "https://steamcdn-a.akamaihd.net/steamcommunity/public/images/apps/672680/2ae4999fcb123828fc59caff153e1e2f5d802b9d.jpg"
  },
  {
    "name": "award_98_2",
    "defaultvalue": 0,
    "displayName": "War Hero Level 3",
    "hidden": 0,
    "description": "Win 6 rounds of the \"Historic World War 1939\" map.",
    "icon": "https://steamcdn-a.akamaihd.net/steamcommunity/public/images/apps/672680/9ce6c4c20beb57fc5b441375843d2eda459d93c6.jpg",
    "icongray": "https://steamcdn-a.akamaihd.net/steamcommunity/public/images/apps/672680/cefbed2010f0df62c060d54314afbab21f84ef31.jpg"
  },
  {
    "name": "award_99_0",
    "defaultvalue": 0,
    "displayName": "Blitzkrieg Soldier Level 1",
    "hidden": 0,
    "description": "Win 1 round of the \"Europe - Blitzkrieg 1939\" map.",
    "icon": "https://steamcdn-a.akamaihd.net/steamcommunity/public/images/apps/672680/c35bc049eb4b5304c046e3b173d0caa153b4ef79.jpg",
    "icongray": "https://steamcdn-a.akamaihd.net/steamcommunity/public/images/apps/672680/081886eec4cc25d090cabde8e7fbd9366cdfa6ec.jpg"
  },
  {
    "name": "award_99_1",
    "defaultvalue": 0,
    "displayName": "Blitzkrieg Soldier Level 2",
    "hidden": 0,
    "description": "Win 5 rounds of the \"Europe - Blitzkrieg 1939\" map. ",
    "icon": "https://steamcdn-a.akamaihd.net/steamcommunity/public/images/apps/672680/1f6f05db7cf2bf4cf44b73da74d03728ff509123.jpg",
    "icongray": "https://steamcdn-a.akamaihd.net/steamcommunity/public/images/apps/672680/de8bae27b8a16062cb0fe78e164b7135c2fc557a.jpg"
  },
  {
    "name": "award_99_2",
    "defaultvalue": 0,
    "displayName": "Blitzkrieg Soldier Level 3",
    "hidden": 0,
    "description": "Win 10 rounds of the \"Europe - Blitzkrieg 1939\" map.",
    "icon": "https://steamcdn-a.akamaihd.net/steamcommunity/public/images/apps/672680/06691c6a1004caee77c0758e884af4960df79fd3.jpg",
    "icongray": "https://steamcdn-a.akamaihd.net/steamcommunity/public/images/apps/672680/39823808bea9d8b9569e33d6d5e8ddcf92efeafb.jpg"
  },
  {
    "name": "award_100_0",
    "defaultvalue": 0,
    "displayName": "Tournament Champion Level 1",
    "hidden": 0,
    "description": "Win 1 round of the \"Tournament Island\" map.",
    "icon": "https://steamcdn-a.akamaihd.net/steamcommunity/public/images/apps/672680/37d218dedbd39292462cd34743d885708d7247a4.jpg",
    "icongray": "https://steamcdn-a.akamaihd.net/steamcommunity/public/images/apps/672680/77ca68888abf219927f27e08a883c70cd7470b04.jpg"
  },
  {
    "name": "award_100_1",
    "defaultvalue": 0,
    "displayName": "Tournament Champion Level 2",
    "hidden": 0,
    "description": "Win 3 rounds of the \"Tournament Island\" map.",
    "icon": "https://steamcdn-a.akamaihd.net/steamcommunity/public/images/apps/672680/03c4e216a82767c938e18c9bc23a192b77153f52.jpg",
    "icongray": "https://steamcdn-a.akamaihd.net/steamcommunity/public/images/apps/672680/200189e4f6b9b15163fc7c3fe4150d4d7c91bb99.jpg"
  },
  {
    "name": "award_100_2",
    "defaultvalue": 0,
    "displayName": "Tournament Champion Level 3",
    "hidden": 0,
    "description": "Win 6 rounds of the \"Tournament Island\" map.",
    "icon": "https://steamcdn-a.akamaihd.net/steamcommunity/public/images/apps/672680/6a32aa9ba28de14f167a544de1d91fe26075041e.jpg",
    "icongray": "https://steamcdn-a.akamaihd.net/steamcommunity/public/images/apps/672680/4f596a75d576aa38ba8bec09975c2327e6f9b1bb.jpg"
  },
  {
    "name": "award_150_0",
    "defaultvalue": 0,
    "displayName": "Rocket Scientist Level 1",
    "hidden": 0,
    "description": "Build 5 Rocket Fighters.",
    "icon": "https://steamcdn-a.akamaihd.net/steamcommunity/public/images/apps/672680/99b284548dbf27e18f1f25e2d2ba25f925bcf532.jpg",
    "icongray": "https://steamcdn-a.akamaihd.net/steamcommunity/public/images/apps/672680/ba44ba8791ecc145931ae9172b9d486165280031.jpg"
  },
  {
    "name": "award_150_1",
    "defaultvalue": 0,
    "displayName": "Rocket Scientist Level 2",
    "hidden": 0,
    "description": "Build 50 Rocket Fighters.",
    "icon": "https://steamcdn-a.akamaihd.net/steamcommunity/public/images/apps/672680/fe0f95280cd61f87f4feecf16e1ff5ebdb67c377.jpg",
    "icongray": "https://steamcdn-a.akamaihd.net/steamcommunity/public/images/apps/672680/034c32d87378edae32f4bb746f30b7efae4db1bc.jpg"
  },
  {
    "name": "award_150_2",
    "defaultvalue": 0,
    "displayName": "Rocket Scientist Level 3",
    "hidden": 0,
    "description": "Build 250 Rocket Fighters.",
    "icon": "https://steamcdn-a.akamaihd.net/steamcommunity/public/images/apps/672680/2aeaf44b22e9040a8b0f0c1f8ae5d4c03434d4be.jpg",
    "icongray": "https://steamcdn-a.akamaihd.net/steamcommunity/public/images/apps/672680/453dfe664222e2cb59bde2eadab11f7519e95044.jpg"
  },
  {
    "name": "award_151_0",
    "defaultvalue": 0,
    "displayName": "Peacekeeper Level 1",
    "hidden": 0,
    "description": "Destroy 10 normal Rockets.",
    "icon": "https://steamcdn-a.akamaihd.net/steamcommunity/public/images/apps/672680/a3b51e116cff382d97c2dc8a2c87443261eff915.jpg",
    "icongray": "https://steamcdn-a.akamaihd.net/steamcommunity/public/images/apps/672680/d5b08e296563f04f56ec5ecaeb76afd4eabbf0f8.jpg"
  },
  {
    "name": "award_151_1",
    "defaultvalue": 0,
    "displayName": "Peacekeeper Level 2",
    "hidden": 0,
    "description": "Destroy 100 normal Rockets.",
    "icon": "https://steamcdn-a.akamaihd.net/steamcommunity/public/images/apps/672680/cd5dd7fb33abc48b000a3bb324f34ea9de5e51d4.jpg",
    "icongray": "https://steamcdn-a.akamaihd.net/steamcommunity/public/images/apps/672680/f3548895d2e242919701a122878513b34e6d47a9.jpg"
  },
  {
    "name": "award_151_2",
    "defaultvalue": 0,
    "displayName": "Peacekeeper Level 3",
    "hidden": 0,
    "description": "Destroy 500 normal rockets.",
    "icon": "https://steamcdn-a.akamaihd.net/steamcommunity/public/images/apps/672680/cf6fb86c2317ede3323604bab0127fd89d580735.jpg",
    "icongray": "https://steamcdn-a.akamaihd.net/steamcommunity/public/images/apps/672680/2ff18bde271128b07a3a0496361f1dfdd3622861.jpg"
  },
  {
    "name": "award_152_0",
    "defaultvalue": 0,
    "displayName": "Madman Level 1",
    "hidden": 0,
    "description": "Defeat 25 enemy units with Rocket Fighters.",
    "icon": "https://steamcdn-a.akamaihd.net/steamcommunity/public/images/apps/672680/8d7e17ba807eb66d7275c0f0167f3412717cc0d0.jpg",
    "icongray": "https://steamcdn-a.akamaihd.net/steamcommunity/public/images/apps/672680/a0f035465be1d394f5f4055c88d5bfe8cded477c.jpg"
  },
  {
    "name": "award_152_1",
    "defaultvalue": 0,
    "displayName": "Madman Level 2",
    "hidden": 0,
    "description": "Defeat 250 enemy units with Rocket Fighters.",
    "icon": "https://steamcdn-a.akamaihd.net/steamcommunity/public/images/apps/672680/5c074f14556eb5098a6f5d4666c486cf9e2a7a92.jpg",
    "icongray": "https://steamcdn-a.akamaihd.net/steamcommunity/public/images/apps/672680/091adf0c0b107b660edb9ade062592586c616a8e.jpg"
  },
  {
    "name": "award_152_2",
    "defaultvalue": 0,
    "displayName": "Madman Level 3",
    "hidden": 0,
    "description": "Defeat 500 enemy units with Rocket Fighters.",
    "icon": "https://steamcdn-a.akamaihd.net/steamcommunity/public/images/apps/672680/1c9c954d1c6df52309739648cfebc09d552d3f89.jpg",
    "icongray": "https://steamcdn-a.akamaihd.net/steamcommunity/public/images/apps/672680/f5b2dbf852d66b9a11881a1fb52d8eb54ee03d4b.jpg"
  },
  {
    "name": "award_153_0",
    "defaultvalue": 0,
    "displayName": "Train Driver Level 1",
    "hidden": 0,
    "description": "Build 20 Railroad Guns.",
    "icon": "https://steamcdn-a.akamaihd.net/steamcommunity/public/images/apps/672680/e0b74adb7eaf3b938cb81348eab78958c554bc66.jpg",
    "icongray": "https://steamcdn-a.akamaihd.net/steamcommunity/public/images/apps/672680/e113206cdd03989bc9b7f79e588c0a9e574312ef.jpg"
  },
  {
    "name": "award_153_1",
    "defaultvalue": 0,
    "displayName": "Train Driver Level 2",
    "hidden": 0,
    "description": "Build 150 Railroad Guns.",
    "icon": "https://steamcdn-a.akamaihd.net/steamcommunity/public/images/apps/672680/831c52b85d77bb40e375da01885ad8697f911870.jpg",
    "icongray": "https://steamcdn-a.akamaihd.net/steamcommunity/public/images/apps/672680/8fc8dadf73206435bb562749f3389f584e71065a.jpg"
  },
  {
    "name": "award_153_2",
    "defaultvalue": 0,
    "displayName": "Train Driver Level 3",
    "hidden": 0,
    "description": "Build 1000 Railroad Guns.",
    "icon": "https://steamcdn-a.akamaihd.net/steamcommunity/public/images/apps/672680/ba8772c03cab087ce79f7f44c89445004e802ad0.jpg",
    "icongray": "https://steamcdn-a.akamaihd.net/steamcommunity/public/images/apps/672680/7d86af5d963347079eec56bc970b6b6e290412c1.jpg"
  },
  {
    "name": "award_155_0",
    "defaultvalue": 0,
    "displayName": "Dominator Level 1",
    "hidden": 0,
    "description": "Win 1 round of the \"Dominion: Antarctica\" map.",
    "icon": "https://steamcdn-a.akamaihd.net/steamcommunity/public/images/apps/672680/48e6485a811ccb4cf64e5b1116b84e4dc7ea2b76.jpg",
    "icongray": "https://steamcdn-a.akamaihd.net/steamcommunity/public/images/apps/672680/14aff640b6634004de672f120c04ee6935739adb.jpg"
  },
  {
    "name": "award_155_1",
    "defaultvalue": 0,
    "displayName": "Dominator Level 2",
    "hidden": 0,
    "description": "Win 3 rounds of the \"Dominion: Antarctica\" map.",
    "icon": "https://steamcdn-a.akamaihd.net/steamcommunity/public/images/apps/672680/76e21f25b990f8517007670c0cc1437bf6d9c657.jpg",
    "icongray": "https://steamcdn-a.akamaihd.net/steamcommunity/public/images/apps/672680/74579eaeb19fc046dcd7576b2da6c08481b0a0e2.jpg"
  },
  {
    "name": "award_155_2",
    "defaultvalue": 0,
    "displayName": "Dominator Level 3",
    "hidden": 0,
    "description": "Win 6 rounds of the \"Dominion: Antarctica\" map.",
    "icon": "https://steamcdn-a.akamaihd.net/steamcommunity/public/images/apps/672680/91bf8b514a70c6ce06a7853bf1f49c4fc9ddcec6.jpg",
    "icongray": "https://steamcdn-a.akamaihd.net/steamcommunity/public/images/apps/672680/88eaa05e17ff880ac28e04c4034931700ab8ed45.jpg"
  },
  {
    "name": "award_156_0",
    "defaultvalue": 0,
    "displayName": "Mr. President Level 1",
    "hidden": 0,
    "description": "Win 1 round of the \"America 1942: Homefront\" map.",
    "icon": "https://steamcdn-a.akamaihd.net/steamcommunity/public/images/apps/672680/7e9875e945d3cc448ef7f69b883147a165e5f969.jpg",
    "icongray": "https://steamcdn-a.akamaihd.net/steamcommunity/public/images/apps/672680/125c032c7e3ad815eee44d96e44823a5b5ce3f19.jpg"
  },
  {
    "name": "award_156_1",
    "defaultvalue": 0,
    "displayName": "Mr. President Level 2",
    "hidden": 0,
    "description": "Win 3 rounds of the \"America 1942: Homefront\" map.",
    "icon": "https://steamcdn-a.akamaihd.net/steamcommunity/public/images/apps/672680/bc02cdda3e9a60d0575dc22ff2df1f7909b716aa.jpg",
    "icongray": "https://steamcdn-a.akamaihd.net/steamcommunity/public/images/apps/672680/51da8e87195cfc41fb9e622fae53418aa4a0da87.jpg"
  },
  {
    "name": "award_156_2",
    "defaultvalue": 0,
    "displayName": "Mr. President Level 3",
    "hidden": 0,
    "description": "Win 6 rounds of the \"America 1942: Homefront\" map.",
    "icon": "https://steamcdn-a.akamaihd.net/steamcommunity/public/images/apps/672680/541545bd369cbc9221592a054a512e8581d4d869.jpg",
    "icongray": "https://steamcdn-a.akamaihd.net/steamcommunity/public/images/apps/672680/a41afe0617a775abcacba224b1153f1bd396e2dd.jpg"
  },
  {
    "name": "award_159_0",
    "defaultvalue": 0,
    "displayName": "The Lone Wolf Level 1",
    "hidden": 0,
    "description": "End 1 round on any ranked Call of War map with a solo victory.",
    "icon": "https://steamcdn-a.akamaihd.net/steamcommunity/public/images/apps/672680/a5a5325b249a10c5232a35bb4d2d7ddaf0793f72.jpg",
    "icongray": "https://steamcdn-a.akamaihd.net/steamcommunity/public/images/apps/672680/9092c3d20e329ff4007be982381f32e05ad88fa1.jpg"
  },
  {
    "name": "award_159_1",
    "defaultvalue": 0,
    "displayName": "The Lone Wolf Level 2",
    "hidden": 0,
    "description": "End 10 rounds on any ranked Call of War map with a solo victory.",
    "icon": "https://steamcdn-a.akamaihd.net/steamcommunity/public/images/apps/672680/3bd55ee0758e5171c72ae4abdd96f0e45e162580.jpg",
    "icongray": "https://steamcdn-a.akamaihd.net/steamcommunity/public/images/apps/672680/ee8b45e27fad276de49c87adb1367cca00b1a7ad.jpg"
  },
  {
    "name": "award_159_2",
    "defaultvalue": 0,
    "displayName": "The Lone Wolf Level 3",
    "hidden": 0,
    "description": "End 30 rounds on any ranked Call of War map with a solo victory.",
    "icon": "https://steamcdn-a.akamaihd.net/steamcommunity/public/images/apps/672680/828efbc1d895c2e012c8fde1bc8325eae72f0ea9.jpg",
    "icongray": "https://steamcdn-a.akamaihd.net/steamcommunity/public/images/apps/672680/1c223a6406b94a50a9a929643df1d19a9895f001.jpg"
  },
  {
    "name": "award_160_0",
    "defaultvalue": 0,
    "displayName": "Coalition Activist Level 1",
    "hidden": 0,
    "description": "End 1 round on any Call of War map with a coalition victory.",
    "icon": "https://steamcdn-a.akamaihd.net/steamcommunity/public/images/apps/672680/d0252c14635601e5e2b4619bdcc07299a3e893b0.jpg",
    "icongray": "https://steamcdn-a.akamaihd.net/steamcommunity/public/images/apps/672680/c8d8712fcf6af7af6f776a35d63a1a53c1259651.jpg"
  },
  {
    "name": "award_160_1",
    "defaultvalue": 0,
    "displayName": "Coalition Activist Level 2",
    "hidden": 0,
    "description": "End 15 rounds on any Call of War map with a coalition victory.",
    "icon": "https://steamcdn-a.akamaihd.net/steamcommunity/public/images/apps/672680/5406c2e8ec2b7fd4d09955bb255f7f094f3b3730.jpg",
    "icongray": "https://steamcdn-a.akamaihd.net/steamcommunity/public/images/apps/672680/bbed3bedde9db19c75612a1fec2d62893c2b3934.jpg"
  },
  {
    "name": "award_160_2",
    "defaultvalue": 0,
    "displayName": "Coalition Activist Level 3",
    "hidden": 0,
    "description": "End 45 rounds on any Call of War map with a coalition victory.",
    "icon": "https://steamcdn-a.akamaihd.net/steamcommunity/public/images/apps/672680/43db77bb8a2d87e5bd2b55fc4ae1ac80bc7b3651.jpg",
    "icongray": "https://steamcdn-a.akamaihd.net/steamcommunity/public/images/apps/672680/e2bff4dc73e0172522f6d0cc33a79bb5ca688de5.jpg"
  },
  {
    "name": "award_161_0",
    "defaultvalue": 0,
    "displayName": "Fly Swatter Level 1",
    "hidden": 0,
    "description": "Defeat 25 enemy units with regular Anti Air.",
    "icon": "https://steamcdn-a.akamaihd.net/steamcommunity/public/images/apps/672680/55454b5f3f66ef581382df1a62e49d4370f4a6ed.jpg",
    "icongray": "https://steamcdn-a.akamaihd.net/steamcommunity/public/images/apps/672680/1a934a68ec771e8e058a3e9c6775df21ffb31450.jpg"
  },
  {
    "name": "award_161_1",
    "defaultvalue": 0,
    "displayName": "Fly Swatter Level 2",
    "hidden": 0,
    "description": "Defeat 150 enemy units with regular Anti Air.",
    "icon": "https://steamcdn-a.akamaihd.net/steamcommunity/public/images/apps/672680/9831c98ac28f6bbfdce560fae20af6bee568f339.jpg",
    "icongray": "https://steamcdn-a.akamaihd.net/steamcommunity/public/images/apps/672680/fde3d49f8abd4bacc8ecbe4c0e568f659e96ccd1.jpg"
  },
  {
    "name": "award_161_2",
    "defaultvalue": 0,
    "displayName": "Fly Swatter Level 3",
    "hidden": 0,
    "description": "Defeat 1000 enemy units with regular Anti Air.",
    "icon": "https://steamcdn-a.akamaihd.net/steamcommunity/public/images/apps/672680/f211a3c9fdfe71e642495167afa1db57e3b379aa.jpg",
    "icongray": "https://steamcdn-a.akamaihd.net/steamcommunity/public/images/apps/672680/966e4d7409ee90737d1bf06606d541160cba7e4d.jpg"
  },
  {
    "name": "award_162_0",
    "defaultvalue": 0,
    "displayName": "Artillery Aficionado Level 1",
    "hidden": 0,
    "description": "Defeat 100 enemy units with regular Artillery.",
    "icon": "https://steamcdn-a.akamaihd.net/steamcommunity/public/images/apps/672680/1471251bf035a422a02964b87d4b01166270a9e4.jpg",
    "icongray": "https://steamcdn-a.akamaihd.net/steamcommunity/public/images/apps/672680/072adf20458e074fd268f0a8441e5149422e720e.jpg"
  },
  {
    "name": "award_162_1",
    "defaultvalue": 0,
    "displayName": "Artillery Aficionado Level 2",
    "hidden": 0,
    "description": "Defeat 500 enemy units with regular Artillery.",
    "icon": "https://steamcdn-a.akamaihd.net/steamcommunity/public/images/apps/672680/07e3c8cd7ee7d999ed0bc9cee50d2c57c157da3b.jpg",
    "icongray": "https://steamcdn-a.akamaihd.net/steamcommunity/public/images/apps/672680/37d28fd4466813fb461a50ee04912e9dbc400a17.jpg"
  },
  {
    "name": "award_162_2",
    "defaultvalue": 0,
    "displayName": "Artillery Aficionado Level 3",
    "hidden": 0,
    "description": "Defeat 2500 enemy units with regular Artillery.",
    "icon": "https://steamcdn-a.akamaihd.net/steamcommunity/public/images/apps/672680/b01d25b47ea04b98b3d8fbb2b2fcfb198904454c.jpg",
    "icongray": "https://steamcdn-a.akamaihd.net/steamcommunity/public/images/apps/672680/7b3b180cd1411e101c0f7eeebc9e99eb2dae6348.jpg"
  },
  {
    "name": "award_164_0",
    "defaultvalue": 0,
    "displayName": "Mobile General Level 1",
    "hidden": 0,
    "description": "Play the mobile version of Call of War on 3 days.",
    "icon": "https://steamcdn-a.akamaihd.net/steamcommunity/public/images/apps/672680/19caf0edb0ff7b2e2ea4659924a0ca854c60c837.jpg",
    "icongray": "https://steamcdn-a.akamaihd.net/steamcommunity/public/images/apps/672680/6f033117f769d2f7ddafc16efd07be0dbac2ad54.jpg"
  },
  {
    "name": "award_164_1",
    "defaultvalue": 0,
    "displayName": "Mobile General Level 2",
    "hidden": 0,
    "description": "Play the mobile version of Call of War on 20 days.",
    "icon": "https://steamcdn-a.akamaihd.net/steamcommunity/public/images/apps/672680/e76bf240dc5371a48f8b4b3e56ce4a5608c4d328.jpg",
    "icongray": "https://steamcdn-a.akamaihd.net/steamcommunity/public/images/apps/672680/6f033117f769d2f7ddafc16efd07be0dbac2ad54.jpg"
  },
  {
    "name": "award_164_2",
    "defaultvalue": 0,
    "displayName": "Mobile General Level 3",
    "hidden": 0,
    "description": "Play the mobile version of Call of War on 90 days.",
    "icon": "https://steamcdn-a.akamaihd.net/steamcommunity/public/images/apps/672680/8e9651aa92d338dde1c65a6d148a1f9cd5a2c119.jpg",
    "icongray": "https://steamcdn-a.akamaihd.net/steamcommunity/public/images/apps/672680/6f033117f769d2f7ddafc16efd07be0dbac2ad54.jpg"
  },
  {
    "name": "award_165_0",
    "defaultvalue": 0,
    "displayName": "Desktop General Level 1",
    "hidden": 0,
    "description": "Play the PC version of Call of War on 3 days.",
    "icon": "https://steamcdn-a.akamaihd.net/steamcommunity/public/images/apps/672680/c7693cea7655365f81045eff755c311cdb4d9d49.jpg",
    "icongray": "https://steamcdn-a.akamaihd.net/steamcommunity/public/images/apps/672680/90488a3b370dfa117afd1293ed3416b84f054930.jpg"
  },
  {
    "name": "award_165_1",
    "defaultvalue": 0,
    "displayName": "Desktop General Level 2",
    "hidden": 0,
    "description": "Play the PC version of Call of War on 20 days.",
    "icon": "https://steamcdn-a.akamaihd.net/steamcommunity/public/images/apps/672680/a2a6d846fd0484a54e5dbf76852dd491bc6de529.jpg",
    "icongray": "https://steamcdn-a.akamaihd.net/steamcommunity/public/images/apps/672680/90488a3b370dfa117afd1293ed3416b84f054930.jpg"
  },
  {
    "name": "award_165_2",
    "defaultvalue": 0,
    "displayName": "Desktop General Level 3",
    "hidden": 0,
    "description": "Play the PC version of Call of War on 90 days.",
    "icon": "https://steamcdn-a.akamaihd.net/steamcommunity/public/images/apps/672680/dc62474d9b828f508476c6a913e1894ac2d40f44.jpg",
    "icongray": "https://steamcdn-a.akamaihd.net/steamcommunity/public/images/apps/672680/90488a3b370dfa117afd1293ed3416b84f054930.jpg"
  },
  {
    "name": "award_166_0",
    "defaultvalue": 0,
    "displayName": "Green Devil Level 1",
    "hidden": 0,
    "description": "Build 5 Paratroopers.",
    "icon": "https://steamcdn-a.akamaihd.net/steamcommunity/public/images/apps/672680/03a1f5516a7d8fdf8e03217d2b278d50cce51723.jpg",
    "icongray": "https://steamcdn-a.akamaihd.net/steamcommunity/public/images/apps/672680/d165b92b96c9604723f2b97cabc155c99c9ab5bb.jpg"
  },
  {
    "name": "award_166_1",
    "defaultvalue": 0,
    "displayName": "Green Devil Level 2",
    "hidden": 0,
    "description": "Build 50 Paratroopers.",
    "icon": "https://steamcdn-a.akamaihd.net/steamcommunity/public/images/apps/672680/366e6f8adc80359de4af8244f7994acc7c5e268a.jpg",
    "icongray": "https://steamcdn-a.akamaihd.net/steamcommunity/public/images/apps/672680/a80d0fe55921ae10fccdff8a5b3c4fdd0b0aa98a.jpg"
  },
  {
    "name": "award_166_2",
    "defaultvalue": 0,
    "displayName": "Green Devil 3",
    "hidden": 0,
    "description": "Build 250 Paratroopers.",
    "icon": "https://steamcdn-a.akamaihd.net/steamcommunity/public/images/apps/672680/a5d65d9c5ea36e4a3e154a1ef69a43a905d3cb97.jpg",
    "icongray": "https://steamcdn-a.akamaihd.net/steamcommunity/public/images/apps/672680/1a015b5dfb30555ce6cc8fc568b71b8790d4c33c.jpg"
  },
  {
    "name": "award_167_0",
    "defaultvalue": 0,
    "displayName": "Organ Player Level 1",
    "hidden": 0,
    "description": "Defeat 100 enemy units with SP Rocket Artilleries",
    "icon": "https://steamcdn-a.akamaihd.net/steamcommunity/public/images/apps/672680/55287ba71e431199ad4f360cbda7455ae3d284fb.jpg",
    "icongray": "https://steamcdn-a.akamaihd.net/steamcommunity/public/images/apps/672680/7acb7c37f8400d5054343702c7b2778531406f2d.jpg"
  },
  {
    "name": "award_167_1",
    "defaultvalue": 0,
    "displayName": "Organ Player Level 2",
    "hidden": 0,
    "description": "Defeat 500 enemy units with SP Rocket Artilleries",
    "icon": "https://steamcdn-a.akamaihd.net/steamcommunity/public/images/apps/672680/74cc14e3411b834e82270e1256b522e2d236c2d4.jpg",
    "icongray": "https://steamcdn-a.akamaihd.net/steamcommunity/public/images/apps/672680/e6434c7e5c6a95773917c48ede77d007f0318c88.jpg"
  },
  {
    "name": "award_167_2",
    "defaultvalue": 0,
    "displayName": "Organ Player Level 3",
    "hidden": 0,
    "description": "Defeat 2500 enemy units with SP Rocket Artilleries",
    "icon": "https://steamcdn-a.akamaihd.net/steamcommunity/public/images/apps/672680/63fac059604dcade46ebe7e6f6da9dadd56789e8.jpg",
    "icongray": "https://steamcdn-a.akamaihd.net/steamcommunity/public/images/apps/672680/32205f155d440434219af915445427bb83256dff.jpg"
  },
  {
    "name": "award_168_0",
    "defaultvalue": 0,
    "displayName": "Event Master Level 1",
    "hidden": 0,
    "description": "Win 1 round of any Event map",
    "icon": "https://steamcdn-a.akamaihd.net/steamcommunity/public/images/apps/672680/72403acd486a59a49a2b10dbbc6f8e61a3684dff.jpg",
    "icongray": "https://steamcdn-a.akamaihd.net/steamcommunity/public/images/apps/672680/ce3151b3d55ec1a4dc2dfe36f72df4cd9141ad02.jpg"
  },
  {
    "name": "award_168_1",
    "defaultvalue": 0,
    "displayName": "Event Master Level 2",
    "hidden": 0,
    "description": "Win 10 rounds of any Event map",
    "icon": "https://steamcdn-a.akamaihd.net/steamcommunity/public/images/apps/672680/d330c70177135126d6a8385f1232071ebd3b1b41.jpg",
    "icongray": "https://steamcdn-a.akamaihd.net/steamcommunity/public/images/apps/672680/2a95a46978a270b3a261c1b10f62a1d91fdae4b6.jpg"
  },
  {
    "name": "award_168_2",
    "defaultvalue": 0,
    "displayName": "Event Master Level 3",
    "hidden": 0,
    "description": "Win 30 rounds of any Event map",
    "icon": "https://steamcdn-a.akamaihd.net/steamcommunity/public/images/apps/672680/96dff364b650de7254d16456d0e5e00a337118e1.jpg",
    "icongray": "https://steamcdn-a.akamaihd.net/steamcommunity/public/images/apps/672680/c64cf045cb948ffb0097608b45a06730623f032f.jpg"
  }
]