﻿{
  "Dlcs": {},
  "Name": "Battle Ranch: Pigs vs Plants",
  "AppId": "340070",
  "ImageUrl": "https://steamcdn-a.akamaihd.net/steam/apps/340070/header.jpg?t=1574484045",
  "Languages": [
    "english",
    "french",
    "italian",
    "german",
    "spanish",
    "dutch",
    "russian"
  ],
  "Platforms": {
    "windows": true,
    "mac": true,
    "linux": true
  }
}