﻿{
  "Dlcs": {},
  "Name": "VirZOOM Arcade",
  "AppId": "448710",
  "ImageUrl": "https://steamcdn-a.akamaihd.net/steam/apps/448710/header.jpg?t=1524845862",
  "Languages": [
    "english"
  ],
  "Platforms": {
    "windows": true,
    "mac": false,
    "linux": false
  }
}