﻿{
  "Dlcs": {},
  "Name": "Mirror's Edge™",
  "AppId": "17410",
  "ImageUrl": "https://steamcdn-a.akamaihd.net/steam/apps/17410/header.jpg?t=1594592346",
  "Languages": [
    "english",
    "french",
    "german",
    "italian",
    "spanish",
    "czech",
    "russian",
    "polish",
    "hungarian",
    "portuguese"
  ],
  "Platforms": {
    "windows": true,
    "mac": false,
    "linux": false
  }
}