﻿[
  {
    "name": "Achievement_1",
    "defaultvalue": 0,
    "displayName": "Take a Break",
    "hidden": 0,
    "description": "You took a break from adventuring.",
    "icon": "https://steamcdn-a.akamaihd.net/steamcommunity/public/images/apps/225080/c8d0360a0f35d50d3f009d7bb55d83340c86d688.jpg",
    "icongray": "https://steamcdn-a.akamaihd.net/steamcommunity/public/images/apps/225080/c4ea98166fc3e041eaf713b5a48e3abd236edd54.jpg"
  },
  {
    "name": "Achievement_2",
    "defaultvalue": 0,
    "displayName": "Wishing Well",
    "hidden": 0,
    "description": "You threw someone's ball down a well… Shame on you.",
    "icon": "https://steamcdn-a.akamaihd.net/steamcommunity/public/images/apps/225080/540b66f8a7d28763083a95031309f5373b6ba191.jpg",
    "icongray": "https://steamcdn-a.akamaihd.net/steamcommunity/public/images/apps/225080/8e40b39755949d9165bed54852ed5d151d873b21.jpg"
  },
  {
    "name": "Achievement_3",
    "defaultvalue": 0,
    "displayName": "Black Sheep",
    "hidden": 0,
    "description": "Every family's got one.",
    "icon": "https://steamcdn-a.akamaihd.net/steamcommunity/public/images/apps/225080/e265b336f0edd80fd7f19f1e4cd2c5705721a8ea.jpg",
    "icongray": "https://steamcdn-a.akamaihd.net/steamcommunity/public/images/apps/225080/4b4909e592d5739be75ae44bfa8944e1d387226d.jpg"
  },
  {
    "name": "Achievement_4",
    "defaultvalue": 0,
    "displayName": "Bunny Buddies",
    "hidden": 0,
    "description": "You made the bunnies play nice.",
    "icon": "https://steamcdn-a.akamaihd.net/steamcommunity/public/images/apps/225080/b5ecd5822c09c1c913c98060875a8bf4803b12ab.jpg",
    "icongray": "https://steamcdn-a.akamaihd.net/steamcommunity/public/images/apps/225080/bf7aa5f7441a0f210ab4333065f325b44f6ee51f.jpg"
  },
  {
    "name": "Achievement_5",
    "defaultvalue": 0,
    "displayName": "A sad tune",
    "hidden": 0,
    "description": "You made someone feel better.",
    "icon": "https://steamcdn-a.akamaihd.net/steamcommunity/public/images/apps/225080/18f572f2e9d6492517585ebefc3ff9d87938739d.jpg",
    "icongray": "https://steamcdn-a.akamaihd.net/steamcommunity/public/images/apps/225080/eb7ec5dddc22e0e848ace129687e386f2927a77d.jpg"
  },
  {
    "name": "Achievement_6",
    "defaultvalue": 0,
    "displayName": "Love Birds",
    "hidden": 0,
    "description": "You re-united the two love birds.",
    "icon": "https://steamcdn-a.akamaihd.net/steamcommunity/public/images/apps/225080/fcd376682b7fcef405c50f5d96ad78b30ba0af2a.jpg",
    "icongray": "https://steamcdn-a.akamaihd.net/steamcommunity/public/images/apps/225080/34650053b354371a4bb24cff1b6d890f0eebf474.jpg"
  },
  {
    "name": "Achievement_7",
    "defaultvalue": 0,
    "displayName": "Windpipe",
    "hidden": 0,
    "description": "You made the inventor dance.",
    "icon": "https://steamcdn-a.akamaihd.net/steamcommunity/public/images/apps/225080/5a8477dd32a1a1742d9f062e5ef4b136011a0525.jpg",
    "icongray": "https://steamcdn-a.akamaihd.net/steamcommunity/public/images/apps/225080/ec031e77fbb26fd45847f9737402c99d6985653d.jpg"
  },
  {
    "name": "Achievement_8",
    "defaultvalue": 0,
    "displayName": "Call of the giants",
    "hidden": 0,
    "description": "You sounded a giant horn.",
    "icon": "https://steamcdn-a.akamaihd.net/steamcommunity/public/images/apps/225080/3acb4a1a647d7400bf945ceab12ca5f4b2443420.jpg",
    "icongray": "https://steamcdn-a.akamaihd.net/steamcommunity/public/images/apps/225080/09b3653f732af9a5522890b2478abb2f3ae5120c.jpg"
  },
  {
    "name": "Achievement_9",
    "defaultvalue": 0,
    "displayName": "Behind the Curtain",
    "hidden": 0,
    "description": "You found a secret.",
    "icon": "https://steamcdn-a.akamaihd.net/steamcommunity/public/images/apps/225080/39542bdc086dc27b8310f7719a0bff0eed746ab0.jpg",
    "icongray": "https://steamcdn-a.akamaihd.net/steamcommunity/public/images/apps/225080/b67766ccf5ab2ba443af939aba0ca83b03f06c22.jpg"
  },
  {
    "name": "Achievement_10",
    "defaultvalue": 0,
    "displayName": "Turtle Soup",
    "hidden": 0,
    "description": "You helped the turtles to the sea.",
    "icon": "https://steamcdn-a.akamaihd.net/steamcommunity/public/images/apps/225080/4d61cf665a6988a1fa50258af258e6259f713d5a.jpg",
    "icongray": "https://steamcdn-a.akamaihd.net/steamcommunity/public/images/apps/225080/c99271d367032998a7bb92a82895a15591c0e098.jpg"
  },
  {
    "name": "Achievement_11",
    "defaultvalue": 0,
    "displayName": "Whale Song",
    "hidden": 0,
    "description": "You practised singing.",
    "icon": "https://steamcdn-a.akamaihd.net/steamcommunity/public/images/apps/225080/d12efabec6d39328f0c480574565c4f6e0985d5e.jpg",
    "icongray": "https://steamcdn-a.akamaihd.net/steamcommunity/public/images/apps/225080/5601a062a49f4bcbcf29bcf365c1bb3646210fae.jpg"
  },
  {
    "name": "Achievement_12",
    "defaultvalue": 0,
    "displayName": "Falling star",
    "hidden": 0,
    "description": "Make a wish.",
    "icon": "https://steamcdn-a.akamaihd.net/steamcommunity/public/images/apps/225080/98c6eb53de134ee7eb5fa2d1748d162f0a11a9f5.jpg",
    "icongray": "https://steamcdn-a.akamaihd.net/steamcommunity/public/images/apps/225080/f8b64b2b8e0d9516e1cc92c142a77ffaf18e814d.jpg"
  }
]