﻿[
  {
    "name": "CompletedPack01A",
    "defaultvalue": 0,
    "displayName": "One small step",
    "hidden": 0,
    "description": "You completed Puzzle Pack 1",
    "icon": "https://steamcdn-a.akamaihd.net/steamcommunity/public/images/apps/394130/ba45480b67b9b45f18ae50de69b18a01a329a8fc.jpg",
    "icongray": "https://steamcdn-a.akamaihd.net/steamcommunity/public/images/apps/394130/253fafd97db22fe9499cf4695161b5e6f0350b90.jpg"
  },
  {
    "name": "CompletedPack01B",
    "defaultvalue": 0,
    "displayName": "One giant leap",
    "hidden": 0,
    "description": "You solved Challenge Pack 1",
    "icon": "https://steamcdn-a.akamaihd.net/steamcommunity/public/images/apps/394130/3f6629fa565dcacbc48d6806a850e6d2707cc3e7.jpg",
    "icongray": "https://steamcdn-a.akamaihd.net/steamcommunity/public/images/apps/394130/d37695de0036d15c24f1363b87e02327ef8b7619.jpg"
  },
  {
    "name": "CompletedPack02A",
    "defaultvalue": 0,
    "displayName": "Two for the show",
    "hidden": 0,
    "description": "You completed Puzzle Pack 2",
    "icon": "https://steamcdn-a.akamaihd.net/steamcommunity/public/images/apps/394130/fa18bb1a0c77f9ce8e84ec1e8a42630b2777022a.jpg",
    "icongray": "https://steamcdn-a.akamaihd.net/steamcommunity/public/images/apps/394130/7c4d3ed83d2e9f291d9411c9630c949e3f45e335.jpg"
  },
  {
    "name": "CompletedPack02B",
    "defaultvalue": 0,
    "displayName": "Doubling up",
    "hidden": 0,
    "description": "You solved Challenge Pack 2",
    "icon": "https://steamcdn-a.akamaihd.net/steamcommunity/public/images/apps/394130/56811927c3ca0e47dbdd9e77e9d6786c94716195.jpg",
    "icongray": "https://steamcdn-a.akamaihd.net/steamcommunity/public/images/apps/394130/e9902d04f7349a0a12df7ccb83b84af1d43ba609.jpg"
  },
  {
    "name": "CompletedPack03A",
    "defaultvalue": 0,
    "displayName": "The magic number",
    "hidden": 0,
    "description": "You completed Puzzle Pack 3",
    "icon": "https://steamcdn-a.akamaihd.net/steamcommunity/public/images/apps/394130/32711527efe88b27d8198f77d69bb18fb34264c1.jpg",
    "icongray": "https://steamcdn-a.akamaihd.net/steamcommunity/public/images/apps/394130/a1b4471761c9cfb46f1496547d6774e36384501d.jpg"
  },
  {
    "name": "CompletedPack03B",
    "defaultvalue": 0,
    "displayName": "One! Two! Five! (Three, Sir!)",
    "hidden": 0,
    "description": "You solved Challenge Pack 3",
    "icon": "https://steamcdn-a.akamaihd.net/steamcommunity/public/images/apps/394130/d6783d5f59f3e0c4aa1b80c0a78d9a2fb3fa258d.jpg",
    "icongray": "https://steamcdn-a.akamaihd.net/steamcommunity/public/images/apps/394130/0a86785edfb0187d0ddf83b763bba81d060f457a.jpg"
  },
  {
    "name": "CompletedPack04A",
    "defaultvalue": 0,
    "displayName": "The four-gone conclusion",
    "hidden": 0,
    "description": "You completed Puzzle Pack 4",
    "icon": "https://steamcdn-a.akamaihd.net/steamcommunity/public/images/apps/394130/84b3b2ca6d3e40ca81ad25e8ba2764d4ba1c7eaf.jpg",
    "icongray": "https://steamcdn-a.akamaihd.net/steamcommunity/public/images/apps/394130/0ed7460b6c8e8c71328c4e92ed503446a9fa5223.jpg"
  },
  {
    "name": "CompletedPack04B",
    "defaultvalue": 0,
    "displayName": "Into the sunset",
    "hidden": 0,
    "description": "You solved Challenge Pack 4",
    "icon": "https://steamcdn-a.akamaihd.net/steamcommunity/public/images/apps/394130/bd4be3a586249272db5c2f5d374674c1ef5b7dca.jpg",
    "icongray": "https://steamcdn-a.akamaihd.net/steamcommunity/public/images/apps/394130/23effc7a9ef6a5ec1cae587bc6f2f5179ac13dfd.jpg"
  },
  {
    "name": "CompletedBasicPacks",
    "defaultvalue": 0,
    "displayName": "A straight shot",
    "hidden": 0,
    "description": "Main puzzle packs completed",
    "icon": "https://steamcdn-a.akamaihd.net/steamcommunity/public/images/apps/394130/9ead2a3a807f4fbc333f3f56b2ea98bec8b29117.jpg",
    "icongray": "https://steamcdn-a.akamaihd.net/steamcommunity/public/images/apps/394130/409ce5790c75743ca3323f827d4b4eca568ed9b2.jpg"
  },
  {
    "name": "CompletedChallengePacks",
    "defaultvalue": 0,
    "displayName": "Unstoppable",
    "hidden": 0,
    "description": "All Challenge Packs solved",
    "icon": "https://steamcdn-a.akamaihd.net/steamcommunity/public/images/apps/394130/22581d1048bac7fbb4d13535d363d39ecaabf9d4.jpg",
    "icongray": "https://steamcdn-a.akamaihd.net/steamcommunity/public/images/apps/394130/bdef7581d7addfa69eeefeb7f13d02b27828a261.jpg"
  },
  {
    "name": "CompletedAllPacks",
    "defaultvalue": 0,
    "displayName": "You complete me",
    "hidden": 0,
    "description": "The entire game has been solved!",
    "icon": "https://steamcdn-a.akamaihd.net/steamcommunity/public/images/apps/394130/6bad85a92e73a38eaed3d235c410810881c3a532.jpg",
    "icongray": "https://steamcdn-a.akamaihd.net/steamcommunity/public/images/apps/394130/543543c460a8e13a4508027db871f14f117bc195.jpg"
  },
  {
    "name": "NewUser",
    "defaultvalue": 0,
    "displayName": "There's no place like Home",
    "hidden": 0,
    "description": "Your first trip to Home Island",
    "icon": "https://steamcdn-a.akamaihd.net/steamcommunity/public/images/apps/394130/90d76c01424d9535884ba2f050874978dcce9c00.jpg",
    "icongray": "https://steamcdn-a.akamaihd.net/steamcommunity/public/images/apps/394130/c08525857672ae52a2b818d396b27e93c45ce69b.jpg"
  }
]