﻿{
  "Dlcs": {},
  "Name": "Deep Below",
  "AppId": "526470",
  "ImageUrl": "https://steamcdn-a.akamaihd.net/steam/apps/526470/header.jpg?t=1474646578",
  "Languages": [
    "english"
  ],
  "Platforms": {
    "windows": true,
    "mac": false,
    "linux": false
  }
}