﻿{
  "Dlcs": {},
  "Name": "Doom 3: BFG Edition",
  "AppId": "208200",
  "ImageUrl": "https://steamcdn-a.akamaihd.net/steam/apps/208200/header.jpg?t=1569960032",
  "Languages": [
    "english",
    "german",
    "french",
    "italian",
    "spanish",
    "japanese"
  ],
  "Platforms": {
    "windows": true,
    "mac": false,
    "linux": false
  }
}