﻿{
  "Dlcs": {},
  "Name": "The Cerberus Project: Horde Arena FPS",
  "AppId": "662870",
  "ImageUrl": "https://steamcdn-a.akamaihd.net/steam/apps/662870/header.jpg?t=1553894243",
  "Languages": [
    "english"
  ],
  "Platforms": {
    "windows": true,
    "mac": false,
    "linux": false
  }
}