﻿{
  "Dlcs": {},
  "Name": "Oddworld: Abe's Oddysee®",
  "AppId": "15700",
  "ImageUrl": "https://steamcdn-a.akamaihd.net/steam/apps/15700/header.jpg?t=1568812037",
  "Languages": [
    "english",
    "french",
    "german",
    "italian",
    "japanese",
    "spanish"
  ],
  "Platforms": {
    "windows": true,
    "mac": false,
    "linux": false
  }
}