﻿{
  "Dlcs": {
    "576520": {
      "Name": "ANIMALITY - Animal Pack #1",
      "ImageUrl": "https://steamcdn-a.akamaihd.net/steam/apps/576520/header.jpg?t=1589318708"
    },
    "576530": {
      "Name": "ANIMALITY - Animal Pack #2",
      "ImageUrl": "https://steamcdn-a.akamaihd.net/steam/apps/576530/header.jpg?t=1589318781"
    },
    "1307290": {
      "Name": "ANIMALITY - Unlock All Animals",
      "ImageUrl": "https://steamcdn-a.akamaihd.net/steam/apps/1307290/header.jpg?t=1589129457"
    },
    "1309150": {
      "Name": "ANIMALITY - Bear Colour Pigments",
      "ImageUrl": "https://steamcdn-a.akamaihd.net/steam/apps/1309150/header.jpg?t=1589130190"
    },
    "1309151": {
      "Name": "ANIMALITY - Cat Colour Pigments",
      "ImageUrl": "https://steamcdn-a.akamaihd.net/steam/apps/1309151/header.jpg?t=1589130199"
    },
    "1309152": {
      "Name": "ANIMALITY - Moose Colour Pigments",
      "ImageUrl": "https://steamcdn-a.akamaihd.net/steam/apps/1309152/header.jpg?t=1589130319"
    },
    "1309153": {
      "Name": "ANIMALITY - Pig Colour Pigments",
      "ImageUrl": "https://steamcdn-a.akamaihd.net/steam/apps/1309153/header.jpg?t=1589130340"
    },
    "1309154": {
      "Name": "ANIMALITY - Horse Colour Pigments",
      "ImageUrl": "https://steamcdn-a.akamaihd.net/steam/apps/1309154/header.jpg?t=1589130288"
    },
    "1309155": {
      "Name": "ANIMALITY - Frog Colour Pigments",
      "ImageUrl": "https://steamcdn-a.akamaihd.net/steam/apps/1309155/header.jpg?t=1589130271"
    },
    "1309156": {
      "Name": "ANIMALITY - Rabbit Colour Pigments",
      "ImageUrl": "https://steamcdn-a.akamaihd.net/steam/apps/1309156/header.jpg?t=1589130350"
    },
    "1309159": {
      "Name": "ANIMALITY - Elephant Colour Pigments",
      "ImageUrl": "https://steamcdn-a.akamaihd.net/steam/apps/1309159/header.jpg?t=1589130216"
    },
    "1310730": {
      "Name": "ANIMALITY - Tiger Colour Pigments",
      "ImageUrl": "https://steamcdn-a.akamaihd.net/steam/apps/1310730/header.jpg?t=1589130148"
    },
    "1310731": {
      "Name": "ANIMALITY - Duck Colour Pigments",
      "ImageUrl": "https://steamcdn-a.akamaihd.net/steam/apps/1310731/header.jpg?t=1589130132"
    },
    "1337180": {
      "Name": "ANIMALITY - 100 Minigame Tokens",
      "ImageUrl": "https://steamcdn-a.akamaihd.net/steam/apps/1337180/header.jpg?t=1593031911"
    },
    "1337181": {
      "Name": "ANIMALITY - 250 Minigame Tokens",
      "ImageUrl": "https://steamcdn-a.akamaihd.net/steam/apps/1337181/header.jpg?t=1593031921"
    },
    "1337182": {
      "Name": "ANIMALITY - 500 Minigame Tokens",
      "ImageUrl": "https://steamcdn-a.akamaihd.net/steam/apps/1337182/header.jpg?t=1593031931"
    },
    "1355870": {
      "Name": "ANIMALITY - Dog Paw Cursor",
      "ImageUrl": "https://steamcdn-a.akamaihd.net/steam/apps/1355870/header.jpg?t=1593031016"
    },
    "1355871": {
      "Name": "ANIMALITY - Cat Paw Cursor",
      "ImageUrl": "https://steamcdn-a.akamaihd.net/steam/apps/1355871/header.jpg?t=1593031132"
    },
    "1355872": {
      "Name": "ANIMALITY - Tiger Paw Cursor",
      "ImageUrl": "https://steamcdn-a.akamaihd.net/steam/apps/1355872/header.jpg?t=1593031121"
    }
  },
  "Name": "ANIMALITY",
  "AppId": "576470",
  "ImageUrl": "https://steamcdn-a.akamaihd.net/steam/apps/576470/header.jpg?t=1593816194",
  "Languages": [
    "english"
  ],
  "Platforms": {
    "windows": true,
    "mac": false,
    "linux": false
  }
}