﻿{
  "Dlcs": {},
  "Name": "The Song of Terminus  終焉的迴響:護界者之歌",
  "AppId": "741320",
  "ImageUrl": "https://steamcdn-a.akamaihd.net/steam/apps/741320/header.jpg?t=1509084251",
  "Languages": [
    "tchinese"
  ],
  "Platforms": {
    "windows": true,
    "mac": false,
    "linux": false
  }
}