﻿{
  "Dlcs": {},
  "Name": "klocki",
  "AppId": "499440",
  "ImageUrl": "https://steamcdn-a.akamaihd.net/steam/apps/499440/header.jpg?t=1572538577",
  "Languages": [
    "english",
    "french",
    "italian",
    "german",
    "spanish",
    "arabic",
    "bulgarian",
    "tchinese",
    "schinese",
    "czech",
    "danish",
    "finnish",
    "greek",
    "dutch",
    "japanese",
    "korean",
    "norwegian",
    "polish",
    "portuguese",
    "portuguese",
    "russian",
    "romanian",
    "swedish",
    "thai",
    "turkish",
    "ukrainian",
    "hungarian"
  ],
  "Platforms": {
    "windows": true,
    "mac": true,
    "linux": true
  }
}