﻿[
  {
    "name": "gamelvl_1",
    "defaultvalue": 0,
    "displayName": "Set 1 Level 1",
    "hidden": 0,
    "description": "Set 1 Level 1 Completed",
    "icon": "https://steamcdn-a.akamaihd.net/steamcommunity/public/images/apps/1008210/98a03a2c2fe843e2625e8b734c6f4feffab26bcb.jpg",
    "icongray": "https://steamcdn-a.akamaihd.net/steamcommunity/public/images/apps/1008210/baa1595b1c2740bc08d7237d939bde590e2bd571.jpg"
  },
  {
    "name": "expansion_1",
    "defaultvalue": 0,
    "displayName": "Set 1 Level 2",
    "hidden": 0,
    "description": "Set 1 Level 2 Completed",
    "icon": "https://steamcdn-a.akamaihd.net/steamcommunity/public/images/apps/1008210/13a545f2e671e5c9bedc46ac087939524ef36174.jpg",
    "icongray": "https://steamcdn-a.akamaihd.net/steamcommunity/public/images/apps/1008210/250d06708b24ec478d0c456c32213fcc1d1192ba.jpg"
  },
  {
    "name": "expansion_2",
    "defaultvalue": 0,
    "displayName": "Set 1 Level 3",
    "hidden": 0,
    "description": "Set 1 Level 3 Completed",
    "icon": "https://steamcdn-a.akamaihd.net/steamcommunity/public/images/apps/1008210/de245c5077d56f61c31c67909cc8b6d99d2942e4.jpg",
    "icongray": "https://steamcdn-a.akamaihd.net/steamcommunity/public/images/apps/1008210/6fd52691d64bcfefd10c0e122fbcff292349e3a8.jpg"
  },
  {
    "name": "gamelvl_2",
    "defaultvalue": 0,
    "displayName": "Set 2 Level 1",
    "hidden": 0,
    "description": "Set 2 Level 1 Completed",
    "icon": "https://steamcdn-a.akamaihd.net/steamcommunity/public/images/apps/1008210/8befe4131f6cf17246cd26abe3ee3b0be32c1b91.jpg",
    "icongray": "https://steamcdn-a.akamaihd.net/steamcommunity/public/images/apps/1008210/c0c1309bd9d4edcdb8f48f14eb16583b07040891.jpg"
  },
  {
    "name": "expansion_3",
    "defaultvalue": 0,
    "displayName": "Set 2 Level 2",
    "hidden": 0,
    "description": "Set 2 Level 2 Completed",
    "icon": "https://steamcdn-a.akamaihd.net/steamcommunity/public/images/apps/1008210/586e6eee001eb8e4cbd4e8bc4bf0c7894721ac1d.jpg",
    "icongray": "https://steamcdn-a.akamaihd.net/steamcommunity/public/images/apps/1008210/a87a55a1cc8de54475fc988bf9666cff5e27cced.jpg"
  },
  {
    "name": "expansion_4",
    "defaultvalue": 0,
    "displayName": "Set 2 Level 3",
    "hidden": 0,
    "description": "Set 2 Level 3 Completed",
    "icon": "https://steamcdn-a.akamaihd.net/steamcommunity/public/images/apps/1008210/cb5870308fa6ee0c2040b23f1d87befd845e320b.jpg",
    "icongray": "https://steamcdn-a.akamaihd.net/steamcommunity/public/images/apps/1008210/b76a356f8800204650e634a55e7a1de2cb2f67b9.jpg"
  },
  {
    "name": "gamelvl_3",
    "defaultvalue": 0,
    "displayName": "Set 3 Level 1",
    "hidden": 0,
    "description": "Set 3 Level 1 Completed",
    "icon": "https://steamcdn-a.akamaihd.net/steamcommunity/public/images/apps/1008210/908ae6c7a4cb259c2526f29b5f0cdbd4952e8472.jpg",
    "icongray": "https://steamcdn-a.akamaihd.net/steamcommunity/public/images/apps/1008210/43a76266ad0d00da15a3eced5c95d4430e7e1793.jpg"
  },
  {
    "name": "expansion_5",
    "defaultvalue": 0,
    "displayName": "Set 3 Level 2",
    "hidden": 0,
    "description": "Set 3 Level 2 Completed",
    "icon": "https://steamcdn-a.akamaihd.net/steamcommunity/public/images/apps/1008210/7a654dac03d87944648efc28efc9411a5d92845f.jpg",
    "icongray": "https://steamcdn-a.akamaihd.net/steamcommunity/public/images/apps/1008210/185a211b613e46c933aaeec8168a95d3422be9a3.jpg"
  },
  {
    "name": "expansion_6",
    "defaultvalue": 0,
    "displayName": "Set 3 Level 3",
    "hidden": 0,
    "description": "Set 3 Level 3 Completed",
    "icon": "https://steamcdn-a.akamaihd.net/steamcommunity/public/images/apps/1008210/01500c3b24e0812baac4e1f350949cc693ca5757.jpg",
    "icongray": "https://steamcdn-a.akamaihd.net/steamcommunity/public/images/apps/1008210/14a090f4300ac487ddb90e04f0eb3ebf564f55dc.jpg"
  },
  {
    "name": "gamelvl_4",
    "defaultvalue": 0,
    "displayName": "Set 4 Level 1",
    "hidden": 0,
    "description": "Set 4 Level 1 Completed",
    "icon": "https://steamcdn-a.akamaihd.net/steamcommunity/public/images/apps/1008210/060a3c9eded504e87670c9c3b1bbb5bd908013f8.jpg",
    "icongray": "https://steamcdn-a.akamaihd.net/steamcommunity/public/images/apps/1008210/0d33d8523ae51f387e9c3204f4911d60188d4e03.jpg"
  },
  {
    "name": "expansion_7",
    "defaultvalue": 0,
    "displayName": "Set 4 Level 2",
    "hidden": 0,
    "description": "Set 4 Level 2 Completed",
    "icon": "https://steamcdn-a.akamaihd.net/steamcommunity/public/images/apps/1008210/7275ab11bffc36f7447c4ed106e357f772af131d.jpg",
    "icongray": "https://steamcdn-a.akamaihd.net/steamcommunity/public/images/apps/1008210/5a727c73f9d7658e63551b41546b6194dcfbb2f9.jpg"
  },
  {
    "name": "expansion_8",
    "defaultvalue": 0,
    "displayName": " Set 4 Level 3",
    "hidden": 0,
    "description": " Set 4 Level 3 Completed",
    "icon": "https://steamcdn-a.akamaihd.net/steamcommunity/public/images/apps/1008210/46a7ea191c87097b0f0238d9047caab63749bec7.jpg",
    "icongray": "https://steamcdn-a.akamaihd.net/steamcommunity/public/images/apps/1008210/fb16d4c907a59c0f6a895c1036b8f86a2d4aa27b.jpg"
  },
  {
    "name": "gamelvl_5",
    "defaultvalue": 0,
    "displayName": "Set 5 Level 1",
    "hidden": 0,
    "description": "Set 5 Level 1 Completed",
    "icon": "https://steamcdn-a.akamaihd.net/steamcommunity/public/images/apps/1008210/eea75d4eed8ca909f507df55d9ff5c42c876a17d.jpg",
    "icongray": "https://steamcdn-a.akamaihd.net/steamcommunity/public/images/apps/1008210/19e22ef5fca8778cb873541bd3e68c70b39c530f.jpg"
  },
  {
    "name": "expansion_9",
    "defaultvalue": 0,
    "displayName": "Set 5 Level 2",
    "hidden": 0,
    "description": "Set 5 Level 2 Completed",
    "icon": "https://steamcdn-a.akamaihd.net/steamcommunity/public/images/apps/1008210/9b87264ef2bde978d694712d30d1b25a190d90b6.jpg",
    "icongray": "https://steamcdn-a.akamaihd.net/steamcommunity/public/images/apps/1008210/9b234632bc33a284754a11ecf24b445c40649580.jpg"
  },
  {
    "name": "expansion_10",
    "defaultvalue": 0,
    "displayName": "Set 5 Level 3",
    "hidden": 0,
    "description": "Set 5 Level 3 Completed",
    "icon": "https://steamcdn-a.akamaihd.net/steamcommunity/public/images/apps/1008210/811b8252f55726d2df286743b9807733928d2908.jpg",
    "icongray": "https://steamcdn-a.akamaihd.net/steamcommunity/public/images/apps/1008210/f126c3d0628dc08770d0c67791d1ff4bb71c8c91.jpg"
  },
  {
    "name": "gamelvl_6",
    "defaultvalue": 0,
    "displayName": "Set 6 Level 1",
    "hidden": 0,
    "description": "Set 6 Level 1 Completed",
    "icon": "https://steamcdn-a.akamaihd.net/steamcommunity/public/images/apps/1008210/17743d2d7d8c2efe9cf51716b80838234fbdc18d.jpg",
    "icongray": "https://steamcdn-a.akamaihd.net/steamcommunity/public/images/apps/1008210/53e09bcf2d131f866e84b5c19b39d8d9d84d5d9d.jpg"
  },
  {
    "name": "expansion_11",
    "defaultvalue": 0,
    "displayName": "Set 6 Level 2",
    "hidden": 0,
    "description": "Set 6 Level 2 Completed",
    "icon": "https://steamcdn-a.akamaihd.net/steamcommunity/public/images/apps/1008210/7c3b1c43d9b3ae00a370c322b04c1c4fe62f4aba.jpg",
    "icongray": "https://steamcdn-a.akamaihd.net/steamcommunity/public/images/apps/1008210/dabad91e4172807e06d684f3ce262dcc8dcf6279.jpg"
  },
  {
    "name": "expansion_12",
    "defaultvalue": 0,
    "displayName": "Set 6 Level 3",
    "hidden": 0,
    "description": "Set 6 Level 3 Completed",
    "icon": "https://steamcdn-a.akamaihd.net/steamcommunity/public/images/apps/1008210/32331225bb44ce2e93ddf8944b1f0742ef17cebd.jpg",
    "icongray": "https://steamcdn-a.akamaihd.net/steamcommunity/public/images/apps/1008210/c6c2a1bb809916d29f98b44618a703816d2e2e7a.jpg"
  }
]