﻿{
  "Dlcs": {
    "352690": {
      "Name": "Domestic Dog Soundtrack",
      "ImageUrl": "https://steamcdn-a.akamaihd.net/steam/apps/352690/header.jpg?t=1527104801"
    }
  },
  "Name": "Domestic Dog",
  "AppId": "340340",
  "ImageUrl": "https://steamcdn-a.akamaihd.net/steam/apps/340340/header.jpg?t=1588203890",
  "Languages": [
    "english"
  ],
  "Platforms": {
    "windows": true,
    "mac": false,
    "linux": false
  }
}