﻿{
  "Dlcs": {
    "596960": {
      "Name": "FEMINAZI: The Triggering Soundtrack",
      "ImageUrl": "https://steamcdn-a.akamaihd.net/steam/apps/596960/header.jpg?t=1487617581"
    },
    "625660": {
      "Name": "FEMINAZI: Mother Russia DLC",
      "ImageUrl": "https://steamcdn-a.akamaihd.net/steam/apps/625660/header.jpg?t=1493077501"
    },
    "674970": {
      "Name": "FEMINAZI: Flag Pack",
      "ImageUrl": "https://steamcdn-a.akamaihd.net/steam/apps/674970/header.jpg?t=1512582415"
    }
  },
  "Name": "FEMINAZI: The Triggering",
  "AppId": "585550",
  "ImageUrl": "https://steamcdn-a.akamaihd.net/steam/apps/585550/header.jpg?t=1528406063",
  "Languages": [
    "english"
  ],
  "Platforms": {
    "windows": true,
    "mac": false,
    "linux": false
  }
}