﻿[
  {
    "name": "captain_on_deck",
    "defaultvalue": 0,
    "displayName": "Captain's On Deck",
    "hidden": 0,
    "description": "Complete the game",
    "icon": "https://steamcdn-a.akamaihd.net/steamcommunity/public/images/apps/278570/7740442e96aa212316d07376d353e63322558f52.jpg",
    "icongray": "https://steamcdn-a.akamaihd.net/steamcommunity/public/images/apps/278570/85de0ca38d111e321e4c163719ec5106b9d266eb.jpg"
  },
  {
    "name": "chatterbox",
    "defaultvalue": 0,
    "displayName": "Chatterbox",
    "hidden": 0,
    "description": "Talk to all the art patrons twice",
    "icon": "https://steamcdn-a.akamaihd.net/steamcommunity/public/images/apps/278570/a8845a23c0fa27cc37b9e05618534a247dfbcd53.jpg",
    "icongray": "https://steamcdn-a.akamaihd.net/steamcommunity/public/images/apps/278570/27621eb8de2dee05a5f3c90fdd8af83db6946f2b.jpg"
  },
  {
    "name": "maze_master",
    "defaultvalue": 0,
    "displayName": "Maze Master",
    "hidden": 0,
    "description": "Complete all the mazes without resetting",
    "icon": "https://steamcdn-a.akamaihd.net/steamcommunity/public/images/apps/278570/3f92fa179e420a545e45f161048e9266c52fda50.jpg",
    "icongray": "https://steamcdn-a.akamaihd.net/steamcommunity/public/images/apps/278570/763763ccd7c2f6ce233a7e17fad72c2f1d474867.jpg"
  },
  {
    "name": "running_up_the_meter",
    "defaultvalue": 0,
    "displayName": "Running Up The Meter",
    "hidden": 0,
    "description": "Visit every intersection in the Tunnel mazes",
    "icon": "https://steamcdn-a.akamaihd.net/steamcommunity/public/images/apps/278570/48f2138905f8532ba778b59c5b872eab4e61438e.jpg",
    "icongray": "https://steamcdn-a.akamaihd.net/steamcommunity/public/images/apps/278570/923c3b40bcebfd43f61b0184698d001074c8ca66.jpg"
  },
  {
    "name": "must_be_dreaming",
    "defaultvalue": 0,
    "displayName": "I Must Be Dreaming",
    "hidden": 0,
    "description": "Find all the inconsistencies in the cabin",
    "icon": "https://steamcdn-a.akamaihd.net/steamcommunity/public/images/apps/278570/77dabf390f48300c570140c9fc465744ad9230f7.jpg",
    "icongray": "https://steamcdn-a.akamaihd.net/steamcommunity/public/images/apps/278570/dc7337e9713cdba4992e93935c3255cb88dfbab9.jpg"
  },
  {
    "name": "screw_it",
    "defaultvalue": 0,
    "displayName": "Oh, Screw It!",
    "hidden": 1,
    "icon": "https://steamcdn-a.akamaihd.net/steamcommunity/public/images/apps/278570/c1f448e831fb16f49857a73f71e4a9db9b1df403.jpg",
    "icongray": "https://steamcdn-a.akamaihd.net/steamcommunity/public/images/apps/278570/3d5e22f9decd348994692ce3aea00f2efe57b76f.jpg"
  },
  {
    "name": "the_valkyrie",
    "defaultvalue": 0,
    "displayName": "The Valkyrie",
    "hidden": 1,
    "icon": "https://steamcdn-a.akamaihd.net/steamcommunity/public/images/apps/278570/8012ec9c62e5728de449702fa1a1b1f7555e6cc9.jpg",
    "icongray": "https://steamcdn-a.akamaihd.net/steamcommunity/public/images/apps/278570/1279ed17499d53e104e944e165b61f755a73c824.jpg"
  }
]