﻿{
  "Dlcs": {
    "34842": {
      "Name": "Sniper: Ghost Warrior - Second Strike",
      "ImageUrl": "https://steamcdn-a.akamaihd.net/steam/apps/34842/header.jpg?t=1530714949"
    },
    "34841": {
      "Name": "Sniper: Ghost Warrior - Map Pack",
      "ImageUrl": "https://steamcdn-a.akamaihd.net/steam/apps/34841/header.jpg?t=1530714951"
    }
  },
  "Name": "Sniper: Ghost Warrior",
  "AppId": "34830",
  "ImageUrl": "https://steamcdn-a.akamaihd.net/steam/apps/34830/header.jpg?t=1589356937",
  "Languages": [
    "english",
    "french",
    "german",
    "italian",
    "polish",
    "spanish"
  ],
  "Platforms": {
    "windows": true,
    "mac": false,
    "linux": false
  }
}