﻿[
  {
    "name": "achiev_act1",
    "defaultvalue": 0,
    "displayName": "Act 1",
    "hidden": 0,
    "description": "Complete Act 1.",
    "icon": "https://steamcdn-a.akamaihd.net/steamcommunity/public/images/apps/34830/01e6d0563598cec251dd865985594f29f48d130f.jpg",
    "icongray": "https://steamcdn-a.akamaihd.net/steamcommunity/public/images/apps/34830/42279a41bb86b6c144e4833fde14472e39ad84ec.jpg"
  },
  {
    "name": "achiev_act2",
    "defaultvalue": 0,
    "displayName": "Act 2",
    "hidden": 0,
    "description": "Complete Act 2.",
    "icon": "https://steamcdn-a.akamaihd.net/steamcommunity/public/images/apps/34830/cb46165cd27867f5090871e8a341de6b1f49dab8.jpg",
    "icongray": "https://steamcdn-a.akamaihd.net/steamcommunity/public/images/apps/34830/d0eea3d6b75cffcd4365dde39bac22c12001e93e.jpg"
  },
  {
    "name": "achiev_act3",
    "defaultvalue": 0,
    "displayName": "Act 3",
    "hidden": 0,
    "description": "Complete Act 3.",
    "icon": "https://steamcdn-a.akamaihd.net/steamcommunity/public/images/apps/34830/a41f43071c667cb40df1aabf5ed645ead834f21e.jpg",
    "icongray": "https://steamcdn-a.akamaihd.net/steamcommunity/public/images/apps/34830/5ed93ca902714606cc72f054a9610706228f064f.jpg"
  },
  {
    "name": "achiev_act4",
    "defaultvalue": 0,
    "displayName": "Act 4",
    "hidden": 0,
    "description": "Complete Act 4.",
    "icon": "https://steamcdn-a.akamaihd.net/steamcommunity/public/images/apps/34830/17037f205e73324c8d3b6944267a5751d8f2403b.jpg",
    "icongray": "https://steamcdn-a.akamaihd.net/steamcommunity/public/images/apps/34830/29707f3bd6cb0eb665d94e759cd2e22c82dffd72.jpg"
  },
  {
    "name": "achiev_rookie",
    "defaultvalue": 0,
    "displayName": "Rookie",
    "hidden": 0,
    "description": "Finish the game on Easy difficulty.",
    "icon": "https://steamcdn-a.akamaihd.net/steamcommunity/public/images/apps/34830/26bbf4ea644e11f155553d4a79496c7e9dbd2ab9.jpg",
    "icongray": "https://steamcdn-a.akamaihd.net/steamcommunity/public/images/apps/34830/bcbc4b6f63b417170599e4916ddacac434ae1735.jpg"
  },
  {
    "name": "achiev_captain",
    "defaultvalue": 0,
    "displayName": "Captain",
    "hidden": 0,
    "description": "Finish the game on Normal difficulty.",
    "icon": "https://steamcdn-a.akamaihd.net/steamcommunity/public/images/apps/34830/7911165828deb6640fb3a1be4e55babc0c654dff.jpg",
    "icongray": "https://steamcdn-a.akamaihd.net/steamcommunity/public/images/apps/34830/a1885462c6cc35bb09d186013a1d9bc26b2607bb.jpg"
  },
  {
    "name": "achiev_general",
    "defaultvalue": 0,
    "displayName": "General",
    "hidden": 0,
    "description": "Finish the game on Hard difficulty.",
    "icon": "https://steamcdn-a.akamaihd.net/steamcommunity/public/images/apps/34830/c6cf3987ca9a06e538788fc470265af87a5e1b78.jpg",
    "icongray": "https://steamcdn-a.akamaihd.net/steamcommunity/public/images/apps/34830/dcfbbd37e823f6352b91519305f1c11ace0dceb9.jpg"
  },
  {
    "name": "achiev_seeker",
    "defaultvalue": 0,
    "displayName": "Seeker",
    "hidden": 0,
    "description": "Collect all secrets.",
    "icon": "https://steamcdn-a.akamaihd.net/steamcommunity/public/images/apps/34830/9db073e7faf06cad79301a391ec7a2101ea2d24d.jpg",
    "icongray": "https://steamcdn-a.akamaihd.net/steamcommunity/public/images/apps/34830/bd9057011d6cd6fde797eaec44cc99a275924131.jpg"
  },
  {
    "name": "achiev_you_have_to_focus",
    "defaultvalue": 0,
    "displayName": "You Have to Focus",
    "hidden": 0,
    "description": "Kill 15 enemy using concentration mode.",
    "icon": "https://steamcdn-a.akamaihd.net/steamcommunity/public/images/apps/34830/c40ccac5e421ea4858b05047171b8aa198a76878.jpg",
    "icongray": "https://steamcdn-a.akamaihd.net/steamcommunity/public/images/apps/34830/3da614953a54f28e8c7ebc49a547032e8578b719.jpg"
  },
  {
    "name": "achiev_through_the_wall",
    "defaultvalue": 0,
    "displayName": "Through the Wall",
    "hidden": 0,
    "description": "Shoot an enemy through a wall.",
    "icon": "https://steamcdn-a.akamaihd.net/steamcommunity/public/images/apps/34830/5ff93619bfbfc228e2b7f978b1b0c45b2a662663.jpg",
    "icongray": "https://steamcdn-a.akamaihd.net/steamcommunity/public/images/apps/34830/dbd6575d48b49a9e7ab16079f914f0a9c140ee26.jpg"
  },
  {
    "name": "achiev_flying_knives",
    "defaultvalue": 0,
    "displayName": "Flying Knives",
    "hidden": 0,
    "description": "Kill 10 enemies with throwing knives.",
    "icon": "https://steamcdn-a.akamaihd.net/steamcommunity/public/images/apps/34830/9d6560a098f1deda268fd88fbfa4fd28292e7c1a.jpg",
    "icongray": "https://steamcdn-a.akamaihd.net/steamcommunity/public/images/apps/34830/beb93e5b66e8db81e102dbe3f3358f72e4aef8b4.jpg"
  },
  {
    "name": "achiev_heavy_fire",
    "defaultvalue": 0,
    "displayName": "Heavy Fire",
    "hidden": 0,
    "description": "Kill a total of 30 enemies with Browning gun.",
    "icon": "https://steamcdn-a.akamaihd.net/steamcommunity/public/images/apps/34830/15e0f47cc9b609c427a34edbfc9726d9fb1d82e3.jpg",
    "icongray": "https://steamcdn-a.akamaihd.net/steamcommunity/public/images/apps/34830/9af45655fcad27b6dd0146482d5d267cfe738f53.jpg"
  },
  {
    "name": "achiev_one_p_two_r",
    "defaultvalue": 0,
    "displayName": "One Package, Two Receivers",
    "hidden": 0,
    "description": "Kill 2 enemy with one grenade.",
    "icon": "https://steamcdn-a.akamaihd.net/steamcommunity/public/images/apps/34830/5782011e8be4e4d864386c5cce9394acadb5a87f.jpg",
    "icongray": "https://steamcdn-a.akamaihd.net/steamcommunity/public/images/apps/34830/ee5a68c7f7a8d8428a8f4d0b2bfa2bc8792c976a.jpg"
  },
  {
    "name": "achiev_one_s_two_k",
    "defaultvalue": 0,
    "displayName": "One Shot, Two Kills",
    "hidden": 0,
    "description": "Kill 2 enemy with one shot.",
    "icon": "https://steamcdn-a.akamaihd.net/steamcommunity/public/images/apps/34830/00dc6e6668fdb29311e605ab1639ff98933e8497.jpg",
    "icongray": "https://steamcdn-a.akamaihd.net/steamcommunity/public/images/apps/34830/4342d2c621f94bb99d35adafb8a83539c484e57c.jpg"
  },
  {
    "name": "achiev_prot_of_pont",
    "defaultvalue": 0,
    "displayName": "The Protector of Pontoon",
    "hidden": 0,
    "description": "Kill all enemies attacking your pontoon from the riverside on 'Weaken The Regime' level.",
    "icon": "https://steamcdn-a.akamaihd.net/steamcommunity/public/images/apps/34830/5ebb059c75eb240219cf094b482c5d7f6d563778.jpg",
    "icongray": "https://steamcdn-a.akamaihd.net/steamcommunity/public/images/apps/34830/4fee29c60f2468df183bd0a4f8d6fe90beaf45f3.jpg"
  },
  {
    "name": "achiev_electrician",
    "defaultvalue": 0,
    "displayName": "Electrician",
    "hidden": 0,
    "description": "Shoot 5 cable lines using sniper rifles.",
    "icon": "https://steamcdn-a.akamaihd.net/steamcommunity/public/images/apps/34830/d296ec8ca401d8499bf34707b67f97e6328b4a5e.jpg",
    "icongray": "https://steamcdn-a.akamaihd.net/steamcommunity/public/images/apps/34830/7352946b377d06d8165d9dd92e21d39c49a33fb4.jpg"
  },
  {
    "name": "achiev_fallen_eagle",
    "defaultvalue": 0,
    "displayName": "Fallen Eagle",
    "hidden": 0,
    "description": "Kill 10 birds.",
    "icon": "https://steamcdn-a.akamaihd.net/steamcommunity/public/images/apps/34830/e1db543667b85cc76e8061261f6cdf9462342ed7.jpg",
    "icongray": "https://steamcdn-a.akamaihd.net/steamcommunity/public/images/apps/34830/9122e7036c731303d8419591cc8e2b1026266564.jpg"
  },
  {
    "name": "achiev_sniper_expert",
    "defaultvalue": 0,
    "displayName": "Sniper Expert",
    "hidden": 0,
    "description": "Deliver 50 headshots.",
    "icon": "https://steamcdn-a.akamaihd.net/steamcommunity/public/images/apps/34830/98fd6d79ce619a30152b86e08bd49e150878ad82.jpg",
    "icongray": "https://steamcdn-a.akamaihd.net/steamcommunity/public/images/apps/34830/a80c4f3e480587e84bd4668556ce21d7691ab997.jpg"
  },
  {
    "name": "achiev_sniper_master",
    "defaultvalue": 0,
    "displayName": "Sniper Master",
    "hidden": 0,
    "description": "Deliver 100 headshots.",
    "icon": "https://steamcdn-a.akamaihd.net/steamcommunity/public/images/apps/34830/c9e6a4910e1d7e40e62ab3791a25930a18b14f2e.jpg",
    "icongray": "https://steamcdn-a.akamaihd.net/steamcommunity/public/images/apps/34830/24fb4cf5b3f2b6cbce4427dccc427e1a45a91590.jpg"
  },
  {
    "name": "achiev_close_range",
    "defaultvalue": 0,
    "displayName": "Close Range",
    "hidden": 0,
    "description": "Kill 250 people using pistol. (Multiplayer)",
    "icon": "https://steamcdn-a.akamaihd.net/steamcommunity/public/images/apps/34830/63f432301a48b3fc1d6ca4294ff0e04a038572ed.jpg",
    "icongray": "https://steamcdn-a.akamaihd.net/steamcommunity/public/images/apps/34830/010a440e02fc3ccba731862dcb64f66008a19c6a.jpg"
  },
  {
    "name": "achiev_hold_y_breath",
    "defaultvalue": 0,
    "displayName": "Hold Your Breath",
    "hidden": 0,
    "description": "Kill 250 people using sniper rifle. (Multiplayer)",
    "icon": "https://steamcdn-a.akamaihd.net/steamcommunity/public/images/apps/34830/1346cc1e0e935340be816ac0eff7d149695a435a.jpg",
    "icongray": "https://steamcdn-a.akamaihd.net/steamcommunity/public/images/apps/34830/2d4df09c0f9e12091b7ef6d5207cbcd76fc73edb.jpg"
  },
  {
    "name": "achiev_sharpshooter",
    "defaultvalue": 0,
    "displayName": "Sharpshooter",
    "hidden": 0,
    "description": "Kill 500 people using sniper rifle. (Multiplayer)",
    "icon": "https://steamcdn-a.akamaihd.net/steamcommunity/public/images/apps/34830/f18cdcc6812f7fb0f986fe02ab1f4e473580ac03.jpg",
    "icongray": "https://steamcdn-a.akamaihd.net/steamcommunity/public/images/apps/34830/1362796da8dcfa77a70fb4e330f21e566e82480d.jpg"
  },
  {
    "name": "achiev_supplier_of_death",
    "defaultvalue": 0,
    "displayName": "Supplier of Death",
    "hidden": 0,
    "description": "Kill 2000 enemies. (Multiplayer)",
    "icon": "https://steamcdn-a.akamaihd.net/steamcommunity/public/images/apps/34830/47ac43d6ab6322e42832fb4dcace09aea08cc158.jpg",
    "icongray": "https://steamcdn-a.akamaihd.net/steamcommunity/public/images/apps/34830/3ac14df44c5d5535aaa1dd8e1aec1c2dc32e8972.jpg"
  },
  {
    "name": "achiev_laurel_wreath",
    "defaultvalue": 0,
    "displayName": "Laurel Wreath",
    "hidden": 0,
    "description": "Win 50 rounds playing online. (Multiplayer)",
    "icon": "https://steamcdn-a.akamaihd.net/steamcommunity/public/images/apps/34830/3527a3eaa9c11d3df363928c5af0934c6fd330d3.jpg",
    "icongray": "https://steamcdn-a.akamaihd.net/steamcommunity/public/images/apps/34830/34a3fbe12c912ea0fc7a80d72a6f0fce67e67186.jpg"
  }
]