﻿{
  "Dlcs": {},
  "Name": "King of the Eggs",
  "AppId": "733870",
  "ImageUrl": "https://steamcdn-a.akamaihd.net/steam/apps/733870/header.jpg?t=1588133202",
  "Languages": [
    "english"
  ],
  "Platforms": {
    "windows": true,
    "mac": false,
    "linux": false
  }
}