﻿{
  "Dlcs": {
    "1086870": {
      "Name": "Heroes of Hammerwatch: Witch Hunter",
      "ImageUrl": "https://steamcdn-a.akamaihd.net/steam/apps/1086870/header.jpg?t=1575209111"
    },
    "1015030": {
      "Name": "Heroes of Hammerwatch: Pyramid of Prophecy",
      "ImageUrl": "https://steamcdn-a.akamaihd.net/steam/apps/1015030/header.jpg?t=1575209000"
    },
    "1142880": {
      "Name": "Heroes of Hammerwatch: Moon Temple",
      "ImageUrl": "https://steamcdn-a.akamaihd.net/steam/apps/1142880/header.jpg?t=1582156664"
    }
  },
  "Name": "Heroes of Hammerwatch",
  "AppId": "677120",
  "ImageUrl": "https://steamcdn-a.akamaihd.net/steam/apps/677120/header.jpg?t=1575208810",
  "Languages": [
    "english",
    "schinese",
    "tchinese"
  ],
  "Platforms": {
    "windows": true,
    "mac": false,
    "linux": true
  }
}