﻿{
  "Dlcs": {
    "414590": {
      "Name": "Cibele - Soundtrack",
      "ImageUrl": "https://steamcdn-a.akamaihd.net/steam/apps/414590/header.jpg?t=1447378685"
    }
  },
  "Name": "Cibele",
  "AppId": "408120",
  "ImageUrl": "https://steamcdn-a.akamaihd.net/steam/apps/408120/header.jpg?t=1447550160",
  "Languages": [
    "english"
  ],
  "Platforms": {
    "windows": true,
    "mac": true,
    "linux": false
  }
}