﻿{
  "Dlcs": {},
  "Name": "Sniper Elite: Nazi Zombie Army 2",
  "AppId": "247910",
  "ImageUrl": "https://steamcdn-a.akamaihd.net/steam/apps/247910/header.jpg?t=1589878293",
  "Languages": [
    "english",
    "french",
    "italian",
    "german",
    "spanish",
    "russian",
    "polish"
  ],
  "Platforms": {
    "windows": true,
    "mac": false,
    "linux": false
  }
}