﻿{
  "Dlcs": {},
  "Name": "Burgers",
  "AppId": "385830",
  "ImageUrl": "https://steamcdn-a.akamaihd.net/steam/apps/385830/header.jpg?t=1447377008",
  "Languages": [
    "english"
  ],
  "Platforms": {
    "windows": true,
    "mac": false,
    "linux": false
  }
}