﻿{
  "Dlcs": {
    "222240": {
      "Name": "The Book of Unwritten Tales: Critter Chronicles Digital Extras",
      "ImageUrl": "https://steamcdn-a.akamaihd.net/steam/apps/222240/header.jpg?t=1471949213"
    }
  },
  "Name": "The Book of Unwritten Tales: The Critter Chronicles",
  "AppId": "221830",
  "ImageUrl": "https://steamcdn-a.akamaihd.net/steam/apps/221830/header.jpg?t=1561963803",
  "Languages": [
    "english",
    "german"
  ],
  "Platforms": {
    "windows": true,
    "mac": true,
    "linux": true
  }
}