﻿[
  {
    "name": "ach_c1_complete_normal",
    "defaultvalue": 0,
    "displayName": "Crash Pilot",
    "hidden": 0,
    "description": "Finish the first chapter in normal mode.",
    "icon": "https://steamcdn-a.akamaihd.net/steamcommunity/public/images/apps/221830/7d12d374a6b7c9c86324f0d2189f1cc35ad4133e.jpg",
    "icongray": "https://steamcdn-a.akamaihd.net/steamcommunity/public/images/apps/221830/cd246e7d73065c6d1128f94aca32158bfa371b62.jpg"
  },
  {
    "name": "ach_c1_complete_hard",
    "defaultvalue": 0,
    "displayName": "Expert Crash Pilot",
    "hidden": 0,
    "description": "Finish the first chapter in hard mode. ",
    "icon": "https://steamcdn-a.akamaihd.net/steamcommunity/public/images/apps/221830/dff92a99b17338339bd6575f44a8088bfd0054d8.jpg",
    "icongray": "https://steamcdn-a.akamaihd.net/steamcommunity/public/images/apps/221830/8533bca65b0faddeeb2143c8ced2d6f9b3891d09.jpg"
  },
  {
    "name": "ach_c2_complete_normal",
    "defaultvalue": 0,
    "displayName": "Casanova",
    "hidden": 0,
    "description": "Finish the second chapter in normal mode.",
    "icon": "https://steamcdn-a.akamaihd.net/steamcommunity/public/images/apps/221830/ec9934b8957ed0139ec91a92934eb330b6d1172b.jpg",
    "icongray": "https://steamcdn-a.akamaihd.net/steamcommunity/public/images/apps/221830/66bb2fae9b19e83df9aae3c16e010596b3c6a637.jpg"
  },
  {
    "name": "ach_c2_complete_hard",
    "defaultvalue": 0,
    "displayName": "Expert Casanova",
    "hidden": 0,
    "description": "Finish the second chapter in hard mode. ",
    "icon": "https://steamcdn-a.akamaihd.net/steamcommunity/public/images/apps/221830/3e36c2ceb440ea16ce9b1d6e398aebdb2756ea8a.jpg",
    "icongray": "https://steamcdn-a.akamaihd.net/steamcommunity/public/images/apps/221830/381146331b7639305e69477f5a5ffd2d83f546b6.jpg"
  },
  {
    "name": "ach_c3_complete_normal",
    "defaultvalue": 0,
    "displayName": "Tag Team",
    "hidden": 0,
    "description": "Finish the third chapter in normal mode.",
    "icon": "https://steamcdn-a.akamaihd.net/steamcommunity/public/images/apps/221830/fdb2fd893ca4573c6ec1d29feedfa1036d0385d0.jpg",
    "icongray": "https://steamcdn-a.akamaihd.net/steamcommunity/public/images/apps/221830/c50e87c989549ce85d6e43b9db3b82ec3f3bf9f7.jpg"
  },
  {
    "name": "ach_c3_complete_hard",
    "defaultvalue": 0,
    "displayName": "Expert Tag Team",
    "hidden": 0,
    "description": "Finish the third chapter in hard mode.",
    "icon": "https://steamcdn-a.akamaihd.net/steamcommunity/public/images/apps/221830/06c1e469cba398347517a4e810be72873d81171a.jpg",
    "icongray": "https://steamcdn-a.akamaihd.net/steamcommunity/public/images/apps/221830/c0d22d25fb924327bfd3efce8cd2ef362241581d.jpg"
  },
  {
    "name": "ach_c4_complete_normal",
    "defaultvalue": 0,
    "displayName": "Wizards Apprentice",
    "hidden": 0,
    "description": "Finish the fourth chapter in normal mode.",
    "icon": "https://steamcdn-a.akamaihd.net/steamcommunity/public/images/apps/221830/b8897834859c0cce9c9dd94587f1cfe51dbd705c.jpg",
    "icongray": "https://steamcdn-a.akamaihd.net/steamcommunity/public/images/apps/221830/4206b152822baa7aa0d4b2db535f48fdf6b0a897.jpg"
  },
  {
    "name": "ach_c4_complete_hard",
    "defaultvalue": 0,
    "displayName": "Master Magician",
    "hidden": 0,
    "description": "Finish the fourth chapter in hard mode.",
    "icon": "https://steamcdn-a.akamaihd.net/steamcommunity/public/images/apps/221830/a02d48eb7b38c1c5c21f21b6b202e1ed50ffe0e4.jpg",
    "icongray": "https://steamcdn-a.akamaihd.net/steamcommunity/public/images/apps/221830/238794067fd27b6e2e90b1ab72b6212cd235e861.jpg"
  },
  {
    "name": "ach_c5_complete_normal",
    "defaultvalue": 0,
    "displayName": "Hero",
    "hidden": 0,
    "description": "Finish the fifth chapter in normal mode.",
    "icon": "https://steamcdn-a.akamaihd.net/steamcommunity/public/images/apps/221830/950b698af4f0033b4c10f282d3c0df070d11e8fc.jpg",
    "icongray": "https://steamcdn-a.akamaihd.net/steamcommunity/public/images/apps/221830/e7861772f208d5e97a6cfd61ed59ff3a16cc0fe5.jpg"
  },
  {
    "name": "ach_c5_complete_hard",
    "defaultvalue": 0,
    "displayName": "Hard Mode Hero",
    "hidden": 0,
    "description": "Finish the fifth chapter in hard mode.",
    "icon": "https://steamcdn-a.akamaihd.net/steamcommunity/public/images/apps/221830/03dbea0332d3289b0858ddad50fc3810035e75c3.jpg",
    "icongray": "https://steamcdn-a.akamaihd.net/steamcommunity/public/images/apps/221830/6e268337a58ede807dcc8cc9b842adbea5cb016b.jpg"
  },
  {
    "name": "ach_c1_chest",
    "defaultvalue": 0,
    "displayName": "Chest Buster",
    "hidden": 0,
    "description": "Open the captains little chest.",
    "icon": "https://steamcdn-a.akamaihd.net/steamcommunity/public/images/apps/221830/28fa1ec814561a5eeefb599927b568a0ebcd4e00.jpg",
    "icongray": "https://steamcdn-a.akamaihd.net/steamcommunity/public/images/apps/221830/691ed138c36ea35c6f0698fcb4d4a97a42610092.jpg"
  },
  {
    "name": "ach_c1_wardrobe",
    "defaultvalue": 0,
    "displayName": "Drag Queen",
    "hidden": 1,
    "icon": "https://steamcdn-a.akamaihd.net/steamcommunity/public/images/apps/221830/7047f4a02ac6b425bce3c6d8e0588f001da881aa.jpg",
    "icongray": "https://steamcdn-a.akamaihd.net/steamcommunity/public/images/apps/221830/d49793c62b428830c872a08e525d423392a7515c.jpg"
  },
  {
    "name": "ach_c1_nagger",
    "defaultvalue": 0,
    "displayName": "Nagger",
    "hidden": 0,
    "description": "Annoy the orc bounty huntress.",
    "icon": "https://steamcdn-a.akamaihd.net/steamcommunity/public/images/apps/221830/6e05605f75969ae397719d537ae2143ea1286c9a.jpg",
    "icongray": "https://steamcdn-a.akamaihd.net/steamcommunity/public/images/apps/221830/67f7df856af40e082fbfc156953bd8f407eb2705.jpg"
  },
  {
    "name": "ach_c2_pinguin",
    "defaultvalue": 0,
    "displayName": "Angry Bird",
    "hidden": 1,
    "icon": "https://steamcdn-a.akamaihd.net/steamcommunity/public/images/apps/221830/937516d9e65f98a1f9768131d5d9991f5d3d5c99.jpg",
    "icongray": "https://steamcdn-a.akamaihd.net/steamcommunity/public/images/apps/221830/86f7d7ab2e8662b2997291b7f37625a1eccb1510.jpg"
  },
  {
    "name": "ach_c2_lamp",
    "defaultvalue": 0,
    "displayName": "I'm a lamp",
    "hidden": 1,
    "icon": "https://steamcdn-a.akamaihd.net/steamcommunity/public/images/apps/221830/ebe0e7628e57048416fd4a115bc62a5cb66ee5e0.jpg",
    "icongray": "https://steamcdn-a.akamaihd.net/steamcommunity/public/images/apps/221830/b35c3cab5afcf09094a7718e6bc45d8af6be1946.jpg"
  },
  {
    "name": "ach_c2_conveyor",
    "defaultvalue": 0,
    "displayName": "Did I do that?",
    "hidden": 0,
    "description": "Break the conveyor belt.",
    "icon": "https://steamcdn-a.akamaihd.net/steamcommunity/public/images/apps/221830/5cc3cde190bf6251328fd093908a3ffcdc65624a.jpg",
    "icongray": "https://steamcdn-a.akamaihd.net/steamcommunity/public/images/apps/221830/468a83ef8da2ce38de0bbfb574960891766102a9.jpg"
  },
  {
    "name": "ach_c2_cook",
    "defaultvalue": 0,
    "displayName": "Three-headed Monkey",
    "hidden": 0,
    "description": "Distract the critter cook.",
    "icon": "https://steamcdn-a.akamaihd.net/steamcommunity/public/images/apps/221830/e761402d6811970bbdd2102987758ba8cb8b8875.jpg",
    "icongray": "https://steamcdn-a.akamaihd.net/steamcommunity/public/images/apps/221830/0a62e12e550b6f6995db9024e34f3332338aca04.jpg"
  },
  {
    "name": "ach_c2_stars",
    "defaultvalue": 0,
    "displayName": "Stardate",
    "hidden": 0,
    "description": "Show Layla the stars.",
    "icon": "https://steamcdn-a.akamaihd.net/steamcommunity/public/images/apps/221830/0594c286a4f8473583c7316c4163fe38aef758cf.jpg",
    "icongray": "https://steamcdn-a.akamaihd.net/steamcommunity/public/images/apps/221830/7a416cb4e9bec9ef9efeb603a5b26c84a2f87a2e.jpg"
  },
  {
    "name": "ach_c3_cocktail",
    "defaultvalue": 0,
    "displayName": "Shaken, not stirred",
    "hidden": 0,
    "description": "Make a penguin cocktail.",
    "icon": "https://steamcdn-a.akamaihd.net/steamcommunity/public/images/apps/221830/a5780beb89089d0d1c7e3dd8109700a1645ce85c.jpg",
    "icongray": "https://steamcdn-a.akamaihd.net/steamcommunity/public/images/apps/221830/3c5267e1564c6ef77043799838408be7ff5125d9.jpg"
  },
  {
    "name": "ach_c3_trick",
    "defaultvalue": 0,
    "displayName": "Psycho Trickster",
    "hidden": 0,
    "description": "Convince Cornelius to lock himself up.",
    "icon": "https://steamcdn-a.akamaihd.net/steamcommunity/public/images/apps/221830/3fc81487668a7ef49a61097ee5207a3752296455.jpg",
    "icongray": "https://steamcdn-a.akamaihd.net/steamcommunity/public/images/apps/221830/ea6557a9b23e4d30daf160fd916e61b59674b712.jpg"
  },
  {
    "name": "ach_c3_sandwich",
    "defaultvalue": 0,
    "displayName": "Sandwich Surprise",
    "hidden": 0,
    "description": "Scare Petra away.",
    "icon": "https://steamcdn-a.akamaihd.net/steamcommunity/public/images/apps/221830/b659cee6f58dc87ff1518f96ce9c2483b2469e57.jpg",
    "icongray": "https://steamcdn-a.akamaihd.net/steamcommunity/public/images/apps/221830/d110e6ae996e0f16e441c4f78297a6dfcfbfa1ae.jpg"
  },
  {
    "name": "ach_c3_army",
    "defaultvalue": 0,
    "displayName": "In the Army now",
    "hidden": 0,
    "description": "Join the Black Guards.",
    "icon": "https://steamcdn-a.akamaihd.net/steamcommunity/public/images/apps/221830/1fd41675aab74f1cd52ec1d42b2e664bbc142e50.jpg",
    "icongray": "https://steamcdn-a.akamaihd.net/steamcommunity/public/images/apps/221830/b9fdf90045d3bc681c9e3f3fe7b38217fcef7cf9.jpg"
  },
  {
    "name": "ach_c3_busted",
    "defaultvalue": 0,
    "displayName": "Busted!",
    "hidden": 0,
    "description": "Find out the machinists dirty little secret.",
    "icon": "https://steamcdn-a.akamaihd.net/steamcommunity/public/images/apps/221830/db17153c4446826389f65420f36a53ca32d71d40.jpg",
    "icongray": "https://steamcdn-a.akamaihd.net/steamcommunity/public/images/apps/221830/174d0e0ab0d96d5d5e790d4bdc69bec2a1d66811.jpg"
  },
  {
    "name": "ach_c3_fly",
    "defaultvalue": 0,
    "displayName": "Baby Olympics",
    "hidden": 1,
    "icon": "https://steamcdn-a.akamaihd.net/steamcommunity/public/images/apps/221830/74eac6d5b1bd639edb7110f4ff8be6e2cfdc168e.jpg",
    "icongray": "https://steamcdn-a.akamaihd.net/steamcommunity/public/images/apps/221830/63d234d78f45730bbb7fc10ffa7d4b90c0b97927.jpg"
  },
  {
    "name": "ach_4_stairs_human",
    "defaultvalue": 0,
    "displayName": "Masochist",
    "hidden": 1,
    "icon": "https://steamcdn-a.akamaihd.net/steamcommunity/public/images/apps/221830/988b695b67d900f5d7cfd9a26a2aa3f17ba17693.jpg",
    "icongray": "https://steamcdn-a.akamaihd.net/steamcommunity/public/images/apps/221830/1976b15ec1aa62abdf1058d4152f732624ef4cf4.jpg"
  },
  {
    "name": "ach_4_stairs_critter",
    "defaultvalue": 0,
    "displayName": "Woohooo!",
    "hidden": 1,
    "icon": "https://steamcdn-a.akamaihd.net/steamcommunity/public/images/apps/221830/b32401bceaca142ab5c8c2c026277e51d74ad6cc.jpg",
    "icongray": "https://steamcdn-a.akamaihd.net/steamcommunity/public/images/apps/221830/5be412f3342d823a12dccfdd3630814495194f4c.jpg"
  },
  {
    "name": "ach_4_angel",
    "defaultvalue": 0,
    "displayName": "Fallen Angel",
    "hidden": 0,
    "description": "Manipulate the pictures to empty a frame.",
    "icon": "https://steamcdn-a.akamaihd.net/steamcommunity/public/images/apps/221830/c032c26868f2098b06e241fc5ad1569be5fd012e.jpg",
    "icongray": "https://steamcdn-a.akamaihd.net/steamcommunity/public/images/apps/221830/c44f35336d92b8fcfbf29ae957070d716465e829.jpg"
  },
  {
    "name": "ach_4_pump",
    "defaultvalue": 0,
    "displayName": "Pump it up",
    "hidden": 1,
    "icon": "https://steamcdn-a.akamaihd.net/steamcommunity/public/images/apps/221830/9cb1eb448a6c576b9316490febb82f947f189373.jpg",
    "icongray": "https://steamcdn-a.akamaihd.net/steamcommunity/public/images/apps/221830/1c3749272e2632c28419a0cc9f281b7c9bfabad8.jpg"
  },
  {
    "name": "ach_4_paint",
    "defaultvalue": 0,
    "displayName": "Da Vinci",
    "hidden": 0,
    "description": "Paint the picture correctly at the first try.",
    "icon": "https://steamcdn-a.akamaihd.net/steamcommunity/public/images/apps/221830/f7c86cd740b825db6fb2ab311b8b59b4a8682746.jpg",
    "icongray": "https://steamcdn-a.akamaihd.net/steamcommunity/public/images/apps/221830/03a3762acd5773730103f5de63808a15ae71fb0b.jpg"
  },
  {
    "name": "ach_4_trap",
    "defaultvalue": 0,
    "displayName": "It's a trap!",
    "hidden": 0,
    "description": "Catch Ma'Zaz in a trap.",
    "icon": "https://steamcdn-a.akamaihd.net/steamcommunity/public/images/apps/221830/7650c9bb6bccb9e473d6e8c127ebc528f3888c00.jpg",
    "icongray": "https://steamcdn-a.akamaihd.net/steamcommunity/public/images/apps/221830/338a47ae4025dbe0dcd10754ee0da248733b6a9f.jpg"
  },
  {
    "name": "ach_5_costume",
    "defaultvalue": 0,
    "displayName": "Overdressed",
    "hidden": 1,
    "icon": "https://steamcdn-a.akamaihd.net/steamcommunity/public/images/apps/221830/4767048a5756ecfc20d55378b8241ba304c5d990.jpg",
    "icongray": "https://steamcdn-a.akamaihd.net/steamcommunity/public/images/apps/221830/422a0aba24218104d822791d49db0ee49d2a629c.jpg"
  },
  {
    "name": "ach_5_sanctuary",
    "defaultvalue": 0,
    "displayName": "Take on the world",
    "hidden": 0,
    "description": "Find the best disguise for Critter to enter the sanctuary.",
    "icon": "https://steamcdn-a.akamaihd.net/steamcommunity/public/images/apps/221830/30698e6d8a3a42fced468bb7bc775c20f9873b0c.jpg",
    "icongray": "https://steamcdn-a.akamaihd.net/steamcommunity/public/images/apps/221830/615c4b693e2ef1e7d9ea0c5a928fb2e479a3aee7.jpg"
  },
  {
    "name": "ach_point",
    "defaultvalue": 0,
    "displayName": "Prying Pointer",
    "hidden": 1,
    "icon": "https://steamcdn-a.akamaihd.net/steamcommunity/public/images/apps/221830/c2bbc563c50f054c9eb0856089b8cafe4ad4856a.jpg",
    "icongray": "https://steamcdn-a.akamaihd.net/steamcommunity/public/images/apps/221830/6323aa884b421bcf9cc6582cf3e27202b053cc96.jpg"
  },
  {
    "name": "ach_click",
    "defaultvalue": 0,
    "displayName": "Curious Clicker",
    "hidden": 1,
    "icon": "https://steamcdn-a.akamaihd.net/steamcommunity/public/images/apps/221830/8e6b27f83cbdab2c720fa80a377cf86d5f0a2e43.jpg",
    "icongray": "https://steamcdn-a.akamaihd.net/steamcommunity/public/images/apps/221830/d2891a2ff5403464b514ad24436943dda1250af7.jpg"
  }
]