﻿[
  {
    "name": "ACHIEVEMENT_0",
    "defaultvalue": 0,
    "displayName": "ASTRAL EXPLORER",
    "hidden": 0,
    "description": "Find lost spirit using astral sight",
    "icon": "https://steamcdn-a.akamaihd.net/steamcommunity/public/images/apps/394700/f25986ffec75f41064eef59ea4b159c6eef77161.jpg",
    "icongray": "https://steamcdn-a.akamaihd.net/steamcommunity/public/images/apps/394700/ac4ccded98a7c4a27ed96ca9c2daad103ba12e84.jpg"
  },
  {
    "name": "ACHIEVEMENT_1",
    "defaultvalue": 0,
    "displayName": "STRANGE THINGS SMOKER",
    "hidden": 1,
    "icon": "https://steamcdn-a.akamaihd.net/steamcommunity/public/images/apps/394700/0a8cec853126e99389dad7ea8268cec458dfa7bf.jpg",
    "icongray": "https://steamcdn-a.akamaihd.net/steamcommunity/public/images/apps/394700/1230bdcbde3e1b59f3356b5758c559cc032a4c3d.jpg"
  },
  {
    "name": "ACHIEVEMENT_2",
    "defaultvalue": 0,
    "displayName": "ASTRAL NINJA",
    "hidden": 0,
    "description": "Find second hiding spirit",
    "icon": "https://steamcdn-a.akamaihd.net/steamcommunity/public/images/apps/394700/89f70df0aa3e10ac96b79f77d07dfee6d994d751.jpg",
    "icongray": "https://steamcdn-a.akamaihd.net/steamcommunity/public/images/apps/394700/55c47881b4e7cd4cd49bee77281c71d00e6f12f4.jpg"
  },
  {
    "name": "ACHIEVEMENT_3",
    "defaultvalue": 0,
    "displayName": "GHOST COLLECTOR",
    "hidden": 0,
    "description": "Find third lost spirit using astral sight",
    "icon": "https://steamcdn-a.akamaihd.net/steamcommunity/public/images/apps/394700/3819b70d78062cf9248baf460a5cd4ae493b7f77.jpg",
    "icongray": "https://steamcdn-a.akamaihd.net/steamcommunity/public/images/apps/394700/cb1c1971473790784a16c52a5c4a1d0671a0dc40.jpg"
  },
  {
    "name": "ACHIEVEMENT_4",
    "defaultvalue": 0,
    "displayName": "MERCIFUL INVADER",
    "hidden": 0,
    "description": "Pass through guard at the forest location without killing him",
    "icon": "https://steamcdn-a.akamaihd.net/steamcommunity/public/images/apps/394700/6b3065bbfdbe11472fc3c8fa38499b01ebc4abf7.jpg",
    "icongray": "https://steamcdn-a.akamaihd.net/steamcommunity/public/images/apps/394700/16fbec8d74c7d56e4f096df2c1731a91d602d7f9.jpg"
  },
  {
    "name": "ACHIEVEMENT_5",
    "defaultvalue": 0,
    "displayName": "HOLY GURU",
    "hidden": 0,
    "description": "Pass through all the game without killing anyone",
    "icon": "https://steamcdn-a.akamaihd.net/steamcommunity/public/images/apps/394700/b8ea201219380e4d009addbc9918590581607de6.jpg",
    "icongray": "https://steamcdn-a.akamaihd.net/steamcommunity/public/images/apps/394700/09b55017af6c173cb8931e752f549bbb653a169f.jpg"
  },
  {
    "name": "ACHIEVEMENT_6",
    "defaultvalue": 0,
    "displayName": "EVIL GURU",
    "hidden": 0,
    "description": "Do all possible evil things in the game",
    "icon": "https://steamcdn-a.akamaihd.net/steamcommunity/public/images/apps/394700/282da8586a073d40503e7d5a8aea4606406d7aea.jpg",
    "icongray": "https://steamcdn-a.akamaihd.net/steamcommunity/public/images/apps/394700/a511a3a55e08256c1179f54f2907dc8f976f5ac9.jpg"
  }
]