﻿{
  "Dlcs": {},
  "Name": "The Temporal Invasion",
  "AppId": "454220",
  "ImageUrl": "https://steamcdn-a.akamaihd.net/steam/apps/454220/header.jpg?t=1588266120",
  "Languages": [
    "english"
  ],
  "Platforms": {
    "windows": true,
    "mac": true,
    "linux": true
  }
}