﻿[
  {
    "name": "DREAD_BLOOD_ACHIEVEMENT",
    "defaultvalue": 0,
    "displayName": "Diamonds of Dread Blood",
    "hidden": 0,
    "description": "Collect all the diamonds of Dread Blood!",
    "icon": "https://steamcdn-a.akamaihd.net/steamcommunity/public/images/apps/787790/f7fe3db65984cad688c90f1395472a2a9d072aa5.jpg",
    "icongray": "https://steamcdn-a.akamaihd.net/steamcommunity/public/images/apps/787790/846d8bb34a75b3d1068120a83b90261e09dedb14.jpg"
  },
  {
    "name": "LEADERBOARD",
    "defaultvalue": 0,
    "displayName": "Go to the leaderboard",
    "hidden": 0,
    "description": "Go on the Race mode and get a position on the leaderboard!",
    "icon": "https://steamcdn-a.akamaihd.net/steamcommunity/public/images/apps/787790/69536a89c41ce7b681014804fe0ea0c99f2360d6.jpg",
    "icongray": "https://steamcdn-a.akamaihd.net/steamcommunity/public/images/apps/787790/328314a48f5ba276ed86496bb94709336c1a42be.jpg"
  },
  {
    "name": "WYVERN_SIEGE_ACHIEVEMENT",
    "defaultvalue": 0,
    "displayName": "Diamonds of Wyvern Siege",
    "hidden": 0,
    "description": "Collect all the diamonds of Wyvern Siege!",
    "icon": "https://steamcdn-a.akamaihd.net/steamcommunity/public/images/apps/787790/c0c9fbffa9c224f6d60e1189e8da3d8f920b99a8.jpg",
    "icongray": "https://steamcdn-a.akamaihd.net/steamcommunity/public/images/apps/787790/c6f2bd01c82285250968824e1e2af2377a794b40.jpg"
  },
  {
    "name": "NEON_RIDER_ACHIEVEMENT",
    "defaultvalue": 0,
    "displayName": "Diamonds of Neon Rider",
    "hidden": 0,
    "description": "Collect all the diamonds of Neon Rider!",
    "icon": "https://steamcdn-a.akamaihd.net/steamcommunity/public/images/apps/787790/22871ae10ede06293dcd4b5a8f11f4c79ef4fdb1.jpg",
    "icongray": "https://steamcdn-a.akamaihd.net/steamcommunity/public/images/apps/787790/bdea062795379465df0959a0c4a7db38eb74abcc.jpg"
  },
  {
    "name": "WIN_HUNDRED_TIMES_ACHIEVEMENT",
    "defaultvalue": 0,
    "displayName": "Winner",
    "hidden": 0,
    "description": "You won the game all these times.",
    "icon": "https://steamcdn-a.akamaihd.net/steamcommunity/public/images/apps/787790/ff670a11bce5e3ba7cbdb482903fadbf870e7121.jpg",
    "icongray": "https://steamcdn-a.akamaihd.net/steamcommunity/public/images/apps/787790/e4fcc9ca00ce445e3fbdcb9bd59178d219bca5a4.jpg"
  },
  {
    "name": "DIED_HUNDRED_TIMES_ACHIEVEMENT",
    "defaultvalue": 0,
    "displayName": "Persistent",
    "hidden": 0,
    "description": "You already died in the game a lot!",
    "icon": "https://steamcdn-a.akamaihd.net/steamcommunity/public/images/apps/787790/e90f3e0efabc7484e7896e384866a582ab6101c7.jpg",
    "icongray": "https://steamcdn-a.akamaihd.net/steamcommunity/public/images/apps/787790/e0ae5c0b552cb87672cde67833decd4dbc23c419.jpg"
  },
  {
    "name": "T-REX_KINGDOM_ACHIEVEMENT",
    "defaultvalue": 0,
    "displayName": "Diamonds of T-Rex Kingdom",
    "hidden": 0,
    "description": "Collect all the diamonds of T-Rex Kingdom!",
    "icon": "https://steamcdn-a.akamaihd.net/steamcommunity/public/images/apps/787790/480c832696eeb10fb1546d7660a6abc019468eb9.jpg",
    "icongray": "https://steamcdn-a.akamaihd.net/steamcommunity/public/images/apps/787790/d702415207c2e6bd9781091b819e31750e890bac.jpg"
  },
  {
    "name": "SNOWLAND_ACHIEVEMENT",
    "defaultvalue": 0,
    "displayName": "Diamonds of Snow Land",
    "hidden": 0,
    "description": "Collect all the diamonds of Snow Land!",
    "icon": "https://steamcdn-a.akamaihd.net/steamcommunity/public/images/apps/787790/93ed4a96b910f2dd0dd5218048d5fe6a2efb687b.jpg",
    "icongray": "https://steamcdn-a.akamaihd.net/steamcommunity/public/images/apps/787790/c3d85780b9697dc744c586b65f7a33a185ee97c5.jpg"
  },
  {
    "name": "ARMAGEDDON_ACHIEVEMENT",
    "defaultvalue": 0,
    "displayName": "Diamonds of Armageddon",
    "hidden": 0,
    "description": "Collect all the diamonds of Armageddon!",
    "icon": "https://steamcdn-a.akamaihd.net/steamcommunity/public/images/apps/787790/2bff160ef1342ba0248d63dd7893cda5ba1c0a1d.jpg",
    "icongray": "https://steamcdn-a.akamaihd.net/steamcommunity/public/images/apps/787790/1a2e6f9ace3f7330962a8d4c7513db70cd040de3.jpg"
  },
  {
    "name": "HALLOWEEN_ACHIEVEMENT",
    "defaultvalue": 0,
    "displayName": "Diamonds of Halloween",
    "hidden": 0,
    "description": "Collect all the diamonds of Halloween!",
    "icon": "https://steamcdn-a.akamaihd.net/steamcommunity/public/images/apps/787790/95a3aa9248b8671634e795947160c1a9b082df77.jpg",
    "icongray": "https://steamcdn-a.akamaihd.net/steamcommunity/public/images/apps/787790/7b777aba810beff46a107b8aa3612f5d3c5dd838.jpg"
  },
  {
    "name": "ROCK_FALLS_ACHIEVEMENT",
    "defaultvalue": 0,
    "displayName": "Diamonds of Rock Falls",
    "hidden": 0,
    "description": "Collect all the diamonds of Rock Falls!",
    "icon": "https://steamcdn-a.akamaihd.net/steamcommunity/public/images/apps/787790/a8ad6e0a7f24c8d410d2c605e7ae370758ba99f2.jpg",
    "icongray": "https://steamcdn-a.akamaihd.net/steamcommunity/public/images/apps/787790/1a2cc63f3cc31b071e30665cb22b35deb95d764f.jpg"
  },
  {
    "name": "ROCK_FALLS_DIFFERENT_CAR",
    "defaultvalue": 0,
    "displayName": "Rock Falls track with a different car",
    "hidden": 0,
    "description": "Go in the Rock Falls track with a car different from the original one.",
    "icon": "https://steamcdn-a.akamaihd.net/steamcommunity/public/images/apps/787790/d550a0f0abe1de10adbc68de17cafaa30f6e9414.jpg",
    "icongray": "https://steamcdn-a.akamaihd.net/steamcommunity/public/images/apps/787790/99df537270191fe1aea4da4f6820aaca58aac381.jpg"
  },
  {
    "name": "ARCADE_MODE",
    "defaultvalue": 0,
    "displayName": "Ride the coaster on Race mode",
    "hidden": 0,
    "description": "Challenge yourself and try to ride the coaster on your own!",
    "icon": "https://steamcdn-a.akamaihd.net/steamcommunity/public/images/apps/787790/271c581038d9049460f1e644f2cef16c07f21216.jpg",
    "icongray": "https://steamcdn-a.akamaihd.net/steamcommunity/public/images/apps/787790/6a648e13813695268ccdf95167b554bb827994a5.jpg"
  },
  {
    "name": "LOST_FOREST_ACHIEVEMENT",
    "defaultvalue": 0,
    "displayName": "Diamonds of Lost Forest",
    "hidden": 0,
    "description": "Collect all the diamonds of Lost Forest on Race mode!",
    "icon": "https://steamcdn-a.akamaihd.net/steamcommunity/public/images/apps/787790/b59ad4d1a1b08311a2c95efe50cfa4636269a1b5.jpg",
    "icongray": "https://steamcdn-a.akamaihd.net/steamcommunity/public/images/apps/787790/f0f40789a79f5d8ee99bfc917d141d8e3ca15846.jpg"
  },
  {
    "name": "SHOOTER_MODE",
    "defaultvalue": 0,
    "displayName": "Ride the coaster on Shooter mode",
    "hidden": 0,
    "description": "Challenge yourself on this shooter over wheels!",
    "icon": "https://steamcdn-a.akamaihd.net/steamcommunity/public/images/apps/787790/8fc06605070ebadb30922b9a7dc83e8b2ed5e6c7.jpg",
    "icongray": "https://steamcdn-a.akamaihd.net/steamcommunity/public/images/apps/787790/42b2a5c2a3fd318cd1e9be9ba9bbd157c74b3914.jpg"
  }
]