﻿[
  {
    "name": "ROCK_FALLS_COLLECTABLES",
    "defaultvalue": 0,
    "displayName": "Rock Falls Collectables"
  },
  {
    "name": "DIED_HUNDRED_TIMES",
    "defaultvalue": 0,
    "displayName": "Died Hundred Times"
  },
  {
    "name": "WIN_HUNDRED_TIMES",
    "defaultvalue": 0,
    "displayName": "Win Hundred Times"
  },
  {
    "name": "HALLOWEEN_COLLECTABLES",
    "defaultvalue": 0,
    "displayName": "Halloween Collectables"
  },
  {
    "name": "SNOWLAND_COLLECTABLES",
    "defaultvalue": 0,
    "displayName": "Snow Land Collectables"
  },
  {
    "name": "ARMAGEDDON_COLLECTABLES",
    "defaultvalue": 0,
    "displayName": "Armageddon Collectables"
  },
  {
    "name": "T-REX_KINGDOM_COLLECTABLES",
    "defaultvalue": 0,
    "displayName": "T-Rex Kingdom Collectables"
  },
  {
    "name": "NEON_RIDER_COLLECTABLES",
    "defaultvalue": 0,
    "displayName": "Neon Rider Collectables"
  },
  {
    "name": "WYVERN_SIEGE_COLLECTABLES",
    "defaultvalue": 0,
    "displayName": "Wyvern Siege Collectables"
  },
  {
    "name": "DREAD_BLOOD_COLLECTABLES",
    "defaultvalue": 0,
    "displayName": "Dread Blood Collectables"
  },
  {
    "name": "LOST_FOREST_COLLECTABLES",
    "defaultvalue": 0,
    "displayName": ""
  }
]