﻿{
  "Dlcs": {
    "377440": {
      "Name": "Avalanche 2: Super Avalanche OST",
      "ImageUrl": "https://steamcdn-a.akamaihd.net/steam/apps/377440/header.jpg?t=1447375983"
    }
  },
  "Name": "Avalanche 2: Super Avalanche",
  "AppId": "351250",
  "ImageUrl": "https://steamcdn-a.akamaihd.net/steam/apps/351250/header.jpg?t=1447369383",
  "Languages": [
    "english"
  ],
  "Platforms": {
    "windows": true,
    "mac": false,
    "linux": false
  }
}