﻿[
  {
    "name": "AK_KILLS_STAT",
    "defaultvalue": 0,
    "displayName": "Kills with AK47"
  },
  {
    "name": "M16_KILLS_STAT",
    "defaultvalue": 0,
    "displayName": "Kills with M16"
  },
  {
    "name": "UMP_KILLS_STAT",
    "defaultvalue": 0,
    "displayName": "Kills with UMP"
  },
  {
    "name": "M1014_KILLS_STAT",
    "defaultvalue": 0,
    "displayName": "Kills with M1014"
  },
  {
    "name": "M136_KILLS_STAT",
    "defaultvalue": 0,
    "displayName": "Kills with M136"
  },
  {
    "name": "GR_KILLS_STAT",
    "defaultvalue": 0,
    "displayName": "Kills with Grenades"
  },
  {
    "name": "M249_KILLS_STAT",
    "defaultvalue": 0,
    "displayName": "Kills with M249"
  },
  {
    "name": "SVD_KILLS_STAT",
    "defaultvalue": 0,
    "displayName": "Kills with SVD"
  },
  {
    "name": "CH0_FINISH_STAT",
    "defaultvalue": 0,
    "displayName": "Chapter 0 finished"
  },
  {
    "name": "CH1_FINISH_STAT",
    "defaultvalue": 0,
    "displayName": "Chapter 1 finished"
  },
  {
    "name": "CH2_FINISH_STAT",
    "defaultvalue": 0,
    "displayName": "Chapter 2 finished"
  },
  {
    "name": "CH3_FINISH_STAT",
    "defaultvalue": 0,
    "displayName": "Chapter 3 finished"
  },
  {
    "name": "CH4_FINISH_STAT",
    "defaultvalue": 0,
    "displayName": "Chapter 4 finished"
  },
  {
    "name": "CH5_FINISH_STAT",
    "defaultvalue": 0,
    "displayName": "Chapter 5 finished"
  },
  {
    "name": "CH6_FINISH_STAT",
    "defaultvalue": 0,
    "displayName": "Chapter 6 finished"
  },
  {
    "name": "CH7_FINISH_STAT",
    "defaultvalue": 0,
    "displayName": "Chapter 7 finished"
  },
  {
    "name": "CH8_FINISH_STAT",
    "defaultvalue": 0,
    "displayName": "Chapter 8 finished"
  },
  {
    "name": "CH9_FINISH_STAT",
    "defaultvalue": 0,
    "displayName": "Chapter 9 finished"
  },
  {
    "name": "MELEE_KILLS_STAT",
    "defaultvalue": 0,
    "displayName": "Kills with melee"
  },
  {
    "name": "HEADSHOT_KILLS_STAT",
    "defaultvalue": 0,
    "displayName": "Kills with headshots"
  }
]