﻿[
  {
    "name": "ach_wallpapers_rated",
    "defaultvalue": 0,
    "displayName": ""
  },
  {
    "name": "ach_wallpapers_subscribed",
    "defaultvalue": 0,
    "displayName": ""
  },
  {
    "name": "ach_wallpapers_favorited",
    "defaultvalue": 0,
    "displayName": ""
  },
  {
    "name": "ach_errors_triggered",
    "defaultvalue": 0,
    "displayName": ""
  },
  {
    "name": "util_version",
    "defaultvalue": 0,
    "displayName": ""
  }
]