﻿{
  "Dlcs": {},
  "Name": "Exodus from the Earth ",
  "AppId": "12390",
  "ImageUrl": "https://steamcdn-a.akamaihd.net/steam/apps/12390/header.jpg?t=1573745211",
  "Languages": [
    "english"
  ],
  "Platforms": {
    "windows": true,
    "mac": false,
    "linux": false
  }
}