﻿[
  {
    "name": "STEAM_ACHIEVEMENT_TOKEN_100",
    "defaultvalue": 0,
    "displayName": "Hidden Particles",
    "hidden": 0,
    "description": "Collect 100 Tokens.",
    "icon": "https://steamcdn-a.akamaihd.net/steamcommunity/public/images/apps/342650/4a1d8eb38dd7e59109ae69c6d94afc0da03e06eb.jpg",
    "icongray": "https://steamcdn-a.akamaihd.net/steamcommunity/public/images/apps/342650/d060679a6bcf22920bb086187cf1b75c72ec2dd6.jpg"
  },
  {
    "name": "STEAM_ACHIEVEMENT_KILL_500",
    "defaultvalue": 0,
    "displayName": "Particle Collider",
    "hidden": 0,
    "description": "Kill 1000 enemy particles.",
    "icon": "https://steamcdn-a.akamaihd.net/steamcommunity/public/images/apps/342650/3cf2276aa2830af02ce5cc448f5bfb5414b94704.jpg",
    "icongray": "https://steamcdn-a.akamaihd.net/steamcommunity/public/images/apps/342650/e4fdb71b5cf2c5387e652d14084b886003518412.jpg"
  },
  {
    "name": "STEAM_ACHIEVEMENT_ALL_EASY",
    "defaultvalue": 0,
    "displayName": "Graviton",
    "hidden": 0,
    "description": "Complete all 23 levels in path mode on the difficulty setting „easy“.",
    "icon": "https://steamcdn-a.akamaihd.net/steamcommunity/public/images/apps/342650/2737bbd0cd641eca12f434f191433de1e2b2019d.jpg",
    "icongray": "https://steamcdn-a.akamaihd.net/steamcommunity/public/images/apps/342650/cbe7a355f7d359ffa1874c3441918349e0f07449.jpg"
  },
  {
    "name": "STEAM_ACHIEVEMENT_ALL_MEDIUM",
    "defaultvalue": 0,
    "displayName": "Axion",
    "hidden": 0,
    "description": "Complete all 23 levels in path mode on the difficulty setting „medium“.",
    "icon": "https://steamcdn-a.akamaihd.net/steamcommunity/public/images/apps/342650/b8e0d584281ec4c16544e0cdd1625a88841baada.jpg",
    "icongray": "https://steamcdn-a.akamaihd.net/steamcommunity/public/images/apps/342650/79998b096a3fcef1184b988e90b4b06e49261b15.jpg"
  },
  {
    "name": "STEAM_ACHIEVEMENT_ALL_HARD",
    "defaultvalue": 0,
    "displayName": "Higgs Boson",
    "hidden": 0,
    "description": "Complete all 23 levels in path mode on the difficulty setting „hard“.",
    "icon": "https://steamcdn-a.akamaihd.net/steamcommunity/public/images/apps/342650/ad896df04b43c30aa6961a4c53dcafa0c38d775b.jpg",
    "icongray": "https://steamcdn-a.akamaihd.net/steamcommunity/public/images/apps/342650/bc2f36e7c65e6cc5d2e40d9a3142d56f0fa9b754.jpg"
  },
  {
    "name": "STEAM_ACHIEVEMENT_TOP_SCORE",
    "defaultvalue": 0,
    "displayName": "Particle Accumulator",
    "hidden": 0,
    "description": "Set a score of at least 100000 points in any level.",
    "icon": "https://steamcdn-a.akamaihd.net/steamcommunity/public/images/apps/342650/b7255ded555d80354ed1fb603dff8619347a078b.jpg",
    "icongray": "https://steamcdn-a.akamaihd.net/steamcommunity/public/images/apps/342650/6a7972c556702e4dcb70f9420b42cf6ec2ba6c4b.jpg"
  },
  {
    "name": "STEAM_ACHIEVEMENT_ALL_SECRETS",
    "defaultvalue": 0,
    "displayName": "Invisible Dimension",
    "hidden": 0,
    "description": "Find 22 different secret paths.",
    "icon": "https://steamcdn-a.akamaihd.net/steamcommunity/public/images/apps/342650/33b4306b10f2d20bd7d96277a1c1ff438a92dd69.jpg",
    "icongray": "https://steamcdn-a.akamaihd.net/steamcommunity/public/images/apps/342650/7533bd874fcd0b607157aa09089e73ee9e25debc.jpg"
  },
  {
    "name": "STEAM_ACHIEVEMENT_ALL_WEAPONS",
    "defaultvalue": 0,
    "displayName": "Particle Symbiosis",
    "hidden": 0,
    "description": "Use all types of weapon upgrades.",
    "icon": "https://steamcdn-a.akamaihd.net/steamcommunity/public/images/apps/342650/c8161dfc694a7a2eee649254594b913be30d9918.jpg",
    "icongray": "https://steamcdn-a.akamaihd.net/steamcommunity/public/images/apps/342650/239e3dbaf94b26c1031bdee284ad518510363837.jpg"
  },
  {
    "name": "STEAM_ACHIEVEMENT_HIGHEST_JUMP",
    "defaultvalue": 0,
    "displayName": "Quantum Leap",
    "hidden": 0,
    "description": "Jump as high as possible.",
    "icon": "https://steamcdn-a.akamaihd.net/steamcommunity/public/images/apps/342650/6cf6a327f67414525f2a064d4f60f4beb7078da4.jpg",
    "icongray": "https://steamcdn-a.akamaihd.net/steamcommunity/public/images/apps/342650/f5ff10ef7e9947234315eafa5950e2d712f7feab.jpg"
  },
  {
    "name": "STEAM_ACHIEVEMENT_FULL_LIFE",
    "defaultvalue": 0,
    "displayName": "UHECR",
    "hidden": 0,
    "description": "Complete a level with maximum energy.",
    "icon": "https://steamcdn-a.akamaihd.net/steamcommunity/public/images/apps/342650/3b04cbeedd5fb8ecdad9c4006643b17fde2f46cf.jpg",
    "icongray": "https://steamcdn-a.akamaihd.net/steamcommunity/public/images/apps/342650/ee2b148950c6d3a3a3718e647cc8ce314eb2fa31.jpg"
  },
  {
    "name": "STEAM_ACHIEVEMENT_NO_DAMAGE",
    "defaultvalue": 0,
    "displayName": "Casimir Effect",
    "hidden": 0,
    "description": "Complete a level without taking damage.",
    "icon": "https://steamcdn-a.akamaihd.net/steamcommunity/public/images/apps/342650/3d3f4478374cdda5f0e962253deb7d18f9d9cd6c.jpg",
    "icongray": "https://steamcdn-a.akamaihd.net/steamcommunity/public/images/apps/342650/d1db388cfb2e4c79dd3f1d131db26a979947dc3b.jpg"
  },
  {
    "name": "STEAM_ACHIEVEMENT_MAX_COMBO",
    "defaultvalue": 0,
    "displayName": "Flawless Acceleration",
    "hidden": 0,
    "description": "Achieve a x99 combo multiplyer.",
    "icon": "https://steamcdn-a.akamaihd.net/steamcommunity/public/images/apps/342650/121af1bb7ec9fa3f3f1251ac63f2027ca62a7086.jpg",
    "icongray": "https://steamcdn-a.akamaihd.net/steamcommunity/public/images/apps/342650/ad05d79dd607df8adf63638814c7c7e4c9363568.jpg"
  },
  {
    "name": "STEAM_ACHIEVEMENT_HIGHEST_SPEED",
    "defaultvalue": 0,
    "displayName": "c",
    "hidden": 0,
    "description": "In infinite mode accelerate to the highest speed possible.",
    "icon": "https://steamcdn-a.akamaihd.net/steamcommunity/public/images/apps/342650/ad3a42c4151de2044a4d8be518c3ccc180def85b.jpg",
    "icongray": "https://steamcdn-a.akamaihd.net/steamcommunity/public/images/apps/342650/7ea9d5deddec149547bd5bda9d06fe778ad2adc2.jpg"
  },
  {
    "name": "STEAM_ACHIEVEMENT_CUSTOM_LEVEL",
    "defaultvalue": 0,
    "displayName": "Quantum Theorist",
    "hidden": 0,
    "description": "Create a custom level.",
    "icon": "https://steamcdn-a.akamaihd.net/steamcommunity/public/images/apps/342650/8b0ae83731185c9378ce32efc77001d0e40c0f20.jpg",
    "icongray": "https://steamcdn-a.akamaihd.net/steamcommunity/public/images/apps/342650/96929b9df9caae321a672db635bd42373993a535.jpg"
  },
  {
    "name": "STEAM_ACHIEVEMENT_SCORE_LEVEL_01",
    "defaultvalue": 0,
    "displayName": "Photonic Symmetry",
    "hidden": 0,
    "description": "Set a score of at least 1250 points in the level \"Photonic Symmetry\".",
    "icon": "https://steamcdn-a.akamaihd.net/steamcommunity/public/images/apps/342650/ea1faefe7c67e8d54b63b8b722cdf47441a1b37f.jpg",
    "icongray": "https://steamcdn-a.akamaihd.net/steamcommunity/public/images/apps/342650/54cdaf1f8ee040d5cc368e52af00d408413b7858.jpg"
  },
  {
    "name": "STEAM_ACHIEVEMENT_SCORE_LEVEL_02",
    "defaultvalue": 0,
    "displayName": "Phases Confinement",
    "hidden": 0,
    "description": "Set a score of at least 1600 points in the level \"Phases Confinement\".",
    "icon": "https://steamcdn-a.akamaihd.net/steamcommunity/public/images/apps/342650/7f2bcc46bc995f68ef467584c324a2e904545e7e.jpg",
    "icongray": "https://steamcdn-a.akamaihd.net/steamcommunity/public/images/apps/342650/2085b2d23cbf877046a13bdb6ae68fea0728b76c.jpg"
  },
  {
    "name": "STEAM_ACHIEVEMENT_SCORE_LEVEL_03",
    "defaultvalue": 0,
    "displayName": "Scalar Separation",
    "hidden": 0,
    "description": "Set a score of at least 6000 points in the level \"Scalar Separation\".",
    "icon": "https://steamcdn-a.akamaihd.net/steamcommunity/public/images/apps/342650/2b2761e7484b7a53cff8e70f2da4bbe16faf4708.jpg",
    "icongray": "https://steamcdn-a.akamaihd.net/steamcommunity/public/images/apps/342650/9e8a6b7cab60c468a8adc90693230ab7a67b39f0.jpg"
  },
  {
    "name": "STEAM_ACHIEVEMENT_SCORE_LEVEL_04",
    "defaultvalue": 0,
    "displayName": "Thermal Entropy",
    "hidden": 0,
    "description": "Set a score of at least 7200 points in the level \"Thermal Entropy\".",
    "icon": "https://steamcdn-a.akamaihd.net/steamcommunity/public/images/apps/342650/7b6757d284dd2f670397119088626ea1dbbb6704.jpg",
    "icongray": "https://steamcdn-a.akamaihd.net/steamcommunity/public/images/apps/342650/3129bcbd7219a0bd690af4880a4011c0ba164b63.jpg"
  },
  {
    "name": "STEAM_ACHIEVEMENT_SCORE_LEVEL_05",
    "defaultvalue": 0,
    "displayName": "Hadrons Tenormalization",
    "hidden": 0,
    "description": "Set a score of at least 4600 points in the level \"Hadrons Tenormalization\".",
    "icon": "https://steamcdn-a.akamaihd.net/steamcommunity/public/images/apps/342650/0e4c2e869511fb0ad6755106df48293cfa9cca4b.jpg",
    "icongray": "https://steamcdn-a.akamaihd.net/steamcommunity/public/images/apps/342650/88b762d7ab77c3b9da8c39dc5e6d3a380254710b.jpg"
  },
  {
    "name": "STEAM_ACHIEVEMENT_SCORE_LEVEL_06",
    "defaultvalue": 0,
    "displayName": "Neurosublimation",
    "hidden": 0,
    "description": "Set a score of at least 3150 points in the level \"Neurosublimation\".",
    "icon": "https://steamcdn-a.akamaihd.net/steamcommunity/public/images/apps/342650/bc714409535faa5abef08c0925350de2821735e3.jpg",
    "icongray": "https://steamcdn-a.akamaihd.net/steamcommunity/public/images/apps/342650/e30857ced657470209731a2a24038ce3374e40df.jpg"
  },
  {
    "name": "STEAM_ACHIEVEMENT_SCORE_LEVEL_07",
    "defaultvalue": 0,
    "displayName": "Molecular Infection",
    "hidden": 0,
    "description": "Set a score of at least 2800 points in the level \"Molecular Infection\".",
    "icon": "https://steamcdn-a.akamaihd.net/steamcommunity/public/images/apps/342650/4dd0596b337fd80da8f172ba27f1a21c3e22d81b.jpg",
    "icongray": "https://steamcdn-a.akamaihd.net/steamcommunity/public/images/apps/342650/a41c7b98bc821c48c1d7182f79a33740f418b8a5.jpg"
  },
  {
    "name": "STEAM_ACHIEVEMENT_SCORE_LEVEL_08",
    "defaultvalue": 0,
    "displayName": "Scattered Chromodynamics",
    "hidden": 0,
    "description": "Set a score of at least 8200 points in the level \"Scattered Chromodynamics\".",
    "icon": "https://steamcdn-a.akamaihd.net/steamcommunity/public/images/apps/342650/56239d10ca877d7050d8f18672419a2e86b25df1.jpg",
    "icongray": "https://steamcdn-a.akamaihd.net/steamcommunity/public/images/apps/342650/d386660eab40de5e5d11b4573e65a4901f8db102.jpg"
  },
  {
    "name": "STEAM_ACHIEVEMENT_SCORE_LEVEL_09",
    "defaultvalue": 0,
    "displayName": "Subsymbiotic",
    "hidden": 0,
    "description": "Set a score of at least 5000 points in the level \"Subsymbiotic\".",
    "icon": "https://steamcdn-a.akamaihd.net/steamcommunity/public/images/apps/342650/08da754ccbfe772d8e603f652031348c08098bf7.jpg",
    "icongray": "https://steamcdn-a.akamaihd.net/steamcommunity/public/images/apps/342650/ea822fde519cba024c1c391d6d7c183b701e2507.jpg"
  },
  {
    "name": "STEAM_ACHIEVEMENT_SCORE_LEVEL_10",
    "defaultvalue": 0,
    "displayName": "Gluon-Wavecycle",
    "hidden": 0,
    "description": "Set a score of at least 1300 points in the level \"Gluon-Wavecycle\".",
    "icon": "https://steamcdn-a.akamaihd.net/steamcommunity/public/images/apps/342650/72e5cdeb99a852acd35f5bdde33bdf222b7e8a40.jpg",
    "icongray": "https://steamcdn-a.akamaihd.net/steamcommunity/public/images/apps/342650/26ccc0e9e5ac4a6dd079c764facffaf61807dd04.jpg"
  },
  {
    "name": "STEAM_ACHIEVEMENT_SCORE_LEVEL_11",
    "defaultvalue": 0,
    "displayName": "Spectrometric Leak",
    "hidden": 0,
    "description": "Set a score of at least 5200 points in the level \"Spectrometric Leak\".",
    "icon": "https://steamcdn-a.akamaihd.net/steamcommunity/public/images/apps/342650/f3b94939faaa97e5456a5a1be28bcacef40f2001.jpg",
    "icongray": "https://steamcdn-a.akamaihd.net/steamcommunity/public/images/apps/342650/106f2e433dbcc5769c5f26dd2b6d9f24a5bc7231.jpg"
  },
  {
    "name": "STEAM_ACHIEVEMENT_SCORE_LEVEL_12",
    "defaultvalue": 0,
    "displayName": "Disintegration of Reaction",
    "hidden": 0,
    "description": "Set a score of at least 7000 points in the level \"Disintegration of Reaction\".",
    "icon": "https://steamcdn-a.akamaihd.net/steamcommunity/public/images/apps/342650/e18056130f1114912f6bc06e541bbb15d03cb5fe.jpg",
    "icongray": "https://steamcdn-a.akamaihd.net/steamcommunity/public/images/apps/342650/0721bd46f7ca5913acd47f6df91e1cda7548b2d5.jpg"
  },
  {
    "name": "STEAM_ACHIEVEMENT_SCORE_LEVEL_13",
    "defaultvalue": 0,
    "displayName": "Dual Photon Diffraction",
    "hidden": 0,
    "description": "Set a score of at least 12000 points in the level \"Dual Photon Diffraction\".",
    "icon": "https://steamcdn-a.akamaihd.net/steamcommunity/public/images/apps/342650/e2487199a0c4586c44e81d72d1753a6a6850b228.jpg",
    "icongray": "https://steamcdn-a.akamaihd.net/steamcommunity/public/images/apps/342650/eea85f4318d016efa86a056695f79ae3d863f1bb.jpg"
  },
  {
    "name": "STEAM_ACHIEVEMENT_SCORE_LEVEL_14",
    "defaultvalue": 0,
    "displayName": "Dynamic Viscosity",
    "hidden": 0,
    "description": "Set a score of at least 3600 points in the level \"Dynamic Viscosity\".",
    "icon": "https://steamcdn-a.akamaihd.net/steamcommunity/public/images/apps/342650/8d7da1b1771437945dd8456e736fb4b97736d1e4.jpg",
    "icongray": "https://steamcdn-a.akamaihd.net/steamcommunity/public/images/apps/342650/9fc389358d6b1874b8def3ce37bc0622706a6952.jpg"
  },
  {
    "name": "STEAM_ACHIEVEMENT_SCORE_LEVEL_15",
    "defaultvalue": 0,
    "displayName": "Subversive Acceleration",
    "hidden": 0,
    "description": "Set a score of at least 5400 points in the level \"Subversive Acceleration\".",
    "icon": "https://steamcdn-a.akamaihd.net/steamcommunity/public/images/apps/342650/9af4a97224db921923401ef3e6e2d33734c32025.jpg",
    "icongray": "https://steamcdn-a.akamaihd.net/steamcommunity/public/images/apps/342650/cfc77d45c3c531146ae646d268318b9ee57b47f8.jpg"
  },
  {
    "name": "STEAM_ACHIEVEMENT_SCORE_LEVEL_16",
    "defaultvalue": 0,
    "displayName": "Singularity Constant",
    "hidden": 0,
    "description": "Set a score of at least 10500 points in the level \"Singularity Constant\".",
    "icon": "https://steamcdn-a.akamaihd.net/steamcommunity/public/images/apps/342650/f9adf2d6a963c4a2f19db6b3f7d8e6cab5d50031.jpg",
    "icongray": "https://steamcdn-a.akamaihd.net/steamcommunity/public/images/apps/342650/6d6f0ca50c064767998a0bfaebe690693fad6153.jpg"
  },
  {
    "name": "STEAM_ACHIEVEMENT_SCORE_LEVEL_17",
    "defaultvalue": 0,
    "displayName": "Spontaneous Interference",
    "hidden": 0,
    "description": "Set a score of at least 5900 points in the level \"Spontaneous Interference\".",
    "icon": "https://steamcdn-a.akamaihd.net/steamcommunity/public/images/apps/342650/25010135849a85713d35071e474c8de9cab7fa7b.jpg",
    "icongray": "https://steamcdn-a.akamaihd.net/steamcommunity/public/images/apps/342650/90b107a3aab18a3ea280ccbf3db73f6cac778c3f.jpg"
  },
  {
    "name": "STEAM_ACHIEVEMENT_SCORE_LEVEL_18",
    "defaultvalue": 0,
    "displayName": "Local Supersolidity",
    "hidden": 0,
    "description": "Set a score of at least 4200 points in the level \"Local Supersolidity\".",
    "icon": "https://steamcdn-a.akamaihd.net/steamcommunity/public/images/apps/342650/605e2741d3db3d9570b2cfffb48db2a80fe2afae.jpg",
    "icongray": "https://steamcdn-a.akamaihd.net/steamcommunity/public/images/apps/342650/0d6d8852001fc10c63e37076538806ef4bc2e814.jpg"
  },
  {
    "name": "STEAM_ACHIEVEMENT_SCORE_LEVEL_19",
    "defaultvalue": 0,
    "displayName": "Annihilation Vector",
    "hidden": 0,
    "description": "Set a score of at least 13000 points in the level \"Annihilation Vector\".",
    "icon": "https://steamcdn-a.akamaihd.net/steamcommunity/public/images/apps/342650/925b389cbf6a7a4a487e0e2fe3469381e08c5ab3.jpg",
    "icongray": "https://steamcdn-a.akamaihd.net/steamcommunity/public/images/apps/342650/6715ffeac3f7dd9739362155ba5523f452792948.jpg"
  },
  {
    "name": "STEAM_ACHIEVEMENT_SCORE_LEVEL_20",
    "defaultvalue": 0,
    "displayName": "Superfluidity Condensation",
    "hidden": 0,
    "description": "Set a score of at least 7000 points in the level \"Superfluidity Condensation\".",
    "icon": "https://steamcdn-a.akamaihd.net/steamcommunity/public/images/apps/342650/ca2cb8d48325eae85280500dcbc17d0133a05467.jpg",
    "icongray": "https://steamcdn-a.akamaihd.net/steamcommunity/public/images/apps/342650/8ea5e7305e64b27067e2ac5eb08ba355ca367948.jpg"
  },
  {
    "name": "STEAM_ACHIEVEMENT_SCORE_LEVEL_21",
    "defaultvalue": 0,
    "displayName": "Fragment Solution",
    "hidden": 0,
    "description": "Set a score of at least 22000 points in the level \"Fragment Solution\".",
    "icon": "https://steamcdn-a.akamaihd.net/steamcommunity/public/images/apps/342650/900010a56375c753fa0435cfda4a7ddf356bf261.jpg",
    "icongray": "https://steamcdn-a.akamaihd.net/steamcommunity/public/images/apps/342650/4f21619b1751bcf64cc32b99d273f7c8f9d06e8c.jpg"
  },
  {
    "name": "STEAM_ACHIEVEMENT_SCORE_LEVEL_22",
    "defaultvalue": 0,
    "displayName": "Loose Interference",
    "hidden": 0,
    "description": "Set a score of at least 16500 points in the level \"Loose Interference\".",
    "icon": "https://steamcdn-a.akamaihd.net/steamcommunity/public/images/apps/342650/42b983ab13e74444281540f1a38f625ddc807fd6.jpg",
    "icongray": "https://steamcdn-a.akamaihd.net/steamcommunity/public/images/apps/342650/7c93728f9c0f002bfef51e509da3e34e02fc8a42.jpg"
  },
  {
    "name": "STEAM_ACHIEVEMENT_SCORE_LEVEL_23",
    "defaultvalue": 0,
    "displayName": "Twisted Entanglement",
    "hidden": 0,
    "description": "Set a score of at least 3600 points in the level \"Twisted Entanglement\".",
    "icon": "https://steamcdn-a.akamaihd.net/steamcommunity/public/images/apps/342650/6add1d2f47dd3433a0fefdc5a856eb2b7e5000e0.jpg",
    "icongray": "https://steamcdn-a.akamaihd.net/steamcommunity/public/images/apps/342650/6c2b419bd45fd62cdb4bb4cf2ceaeabc40a56f6d.jpg"
  }
]