﻿{
  "Dlcs": {},
  "Name": "Resident Evil 7 Teaser: Beginning Hour",
  "AppId": "530620",
  "ImageUrl": "https://steamcdn-a.akamaihd.net/steam/apps/530620/header.jpg?t=1591599336",
  "Languages": [
    "english",
    "french",
    "italian",
    "german",
    "spanish",
    "arabic",
    "japanese",
    "korean",
    "portuguese",
    "russian",
    "schinese",
    "tchinese",
    "polish"
  ],
  "Platforms": {
    "windows": true,
    "mac": false,
    "linux": false
  }
}