﻿{
  "Dlcs": {},
  "Name": "Freedom: A Time to Reckon",
  "AppId": "655220",
  "ImageUrl": "https://steamcdn-a.akamaihd.net/steam/apps/655220/header.jpg?t=1515698089",
  "Languages": [
    "english"
  ],
  "Platforms": {
    "windows": true,
    "mac": false,
    "linux": false
  }
}