﻿{
  "Dlcs": {},
  "Name": "Shank 2",
  "AppId": "102840",
  "ImageUrl": "https://steamcdn-a.akamaihd.net/steam/apps/102840/header.jpg?t=1572651625",
  "Languages": [
    "english"
  ],
  "Platforms": {
    "windows": true,
    "mac": true,
    "linux": true
  }
}