﻿{
  "Dlcs": {},
  "Name": "How To Make Your Grandpa Happy",
  "AppId": "522280",
  "ImageUrl": "https://steamcdn-a.akamaihd.net/steam/apps/522280/header.jpg?t=1483615977",
  "Languages": [
    "english"
  ],
  "Platforms": {
    "windows": true,
    "mac": true,
    "linux": false
  }
}