﻿{
  "Dlcs": {},
  "Name": "Euro Truck Simulator",
  "AppId": "232010",
  "ImageUrl": "https://steamcdn-a.akamaihd.net/steam/apps/232010/header.jpg?t=1585272590",
  "Languages": [
    "english",
    "german",
    "french",
    "italian",
    "spanish",
    "portuguese",
    "dutch"
  ],
  "Platforms": {
    "windows": true,
    "mac": true,
    "linux": false
  }
}