﻿{
  "Dlcs": {
    "622710": {
      "Name": "XOXO Droplets Full Version Extension",
      "ImageUrl": "https://steamcdn-a.akamaihd.net/steam/apps/622710/header.jpg?t=1539292986"
    }
  },
  "Name": "XOXO Droplets",
  "AppId": "622060",
  "ImageUrl": "https://steamcdn-a.akamaihd.net/steam/apps/622060/header.jpg?t=1573362234",
  "Languages": [
    "english"
  ],
  "Platforms": {
    "windows": true,
    "mac": true,
    "linux": false
  }
}