﻿[
  {
    "name": "ACH_KILL1STMUSHROOM",
    "defaultvalue": 0,
    "displayName": "Sweet Revenge",
    "hidden": 0,
    "description": "Kill the first mushroom",
    "icon": "https://steamcdn-a.akamaihd.net/steamcommunity/public/images/apps/46450/d060cafd903d8f7a5c1771ba722ce51f0f0ae385.jpg",
    "icongray": "https://steamcdn-a.akamaihd.net/steamcommunity/public/images/apps/46450/41920b77b1ce4dfd69be526abbfe46b2675b0877.jpg"
  },
  {
    "name": "ACH_HolyAvatar",
    "defaultvalue": 0,
    "displayName": "Ol' Buddy, Ol' semidivine Pal",
    "hidden": 0,
    "description": "Add Holy Avatar to your party",
    "icon": "https://steamcdn-a.akamaihd.net/steamcommunity/public/images/apps/46450/a0b66b85be77fdba06527b23d79af78098742392.jpg",
    "icongray": "https://steamcdn-a.akamaihd.net/steamcommunity/public/images/apps/46450/d1d94e795f6a8ff3d90205bfab2353afbe71534d.jpg"
  },
  {
    "name": "ACH_Chocochick",
    "defaultvalue": 0,
    "displayName": "Animal Activist",
    "hidden": 0,
    "description": "Save Mandy's chocochick",
    "icon": "https://steamcdn-a.akamaihd.net/steamcommunity/public/images/apps/46450/85dca88d48f6bd8b3c84b7f5b85bbb7336e7b4cb.jpg",
    "icongray": "https://steamcdn-a.akamaihd.net/steamcommunity/public/images/apps/46450/46d559f1cc3396ca88291ff8f5e11f51baebddcf.jpg"
  },
  {
    "name": "ACH_Emo",
    "defaultvalue": 0,
    "displayName": "Emo Etiquette",
    "hidden": 0,
    "description": "Be polite to Synthia",
    "icon": "https://steamcdn-a.akamaihd.net/steamcommunity/public/images/apps/46450/5944279e62226123236c2ab7f2443c07b87107ea.jpg",
    "icongray": "https://steamcdn-a.akamaihd.net/steamcommunity/public/images/apps/46450/ace47de3af25b7e9ece94aed99143b7c016d67f4.jpg"
  },
  {
    "name": "ACH_Skipdialogue",
    "defaultvalue": 0,
    "displayName": "Semi-Divine Tales",
    "hidden": 0,
    "description": "Survive the special tutorial in Station Wish",
    "icon": "https://steamcdn-a.akamaihd.net/steamcommunity/public/images/apps/46450/4a2fc6061f10b0bc19e6f66dd292f7ba5997dc5f.jpg",
    "icongray": "https://steamcdn-a.akamaihd.net/steamcommunity/public/images/apps/46450/d6bdf35cf92c0a468f5c407cd32546fb0a45e139.jpg"
  },
  {
    "name": "ACH_Maiden",
    "defaultvalue": 0,
    "displayName": "Holy's Angels",
    "hidden": 0,
    "description": "Find enough maidens for Holy Avatar",
    "icon": "https://steamcdn-a.akamaihd.net/steamcommunity/public/images/apps/46450/d75421bf22dcf13f5611360816e84e5597b83e8b.jpg",
    "icongray": "https://steamcdn-a.akamaihd.net/steamcommunity/public/images/apps/46450/4b5c003f6500823b180f76d40337f6744c1c48bd.jpg"
  },
  {
    "name": "ACH_Rukel",
    "defaultvalue": 0,
    "displayName": "Good Cop, Bad Cop",
    "hidden": 0,
    "description": "Convince Rukel to give back his loot",
    "icon": "https://steamcdn-a.akamaihd.net/steamcommunity/public/images/apps/46450/2023006444c628271b1b1344bd158cf052cc60b2.jpg",
    "icongray": "https://steamcdn-a.akamaihd.net/steamcommunity/public/images/apps/46450/36134ca5a4e6519ef3c94bd8b330db180c735852.jpg"
  },
  {
    "name": "ACH_Mother",
    "defaultvalue": 0,
    "displayName": "Motherthumper",
    "hidden": 0,
    "description": "Defeat the REAL boss",
    "icon": "https://steamcdn-a.akamaihd.net/steamcommunity/public/images/apps/46450/25faee1b85483dc2099fa17022ad35f5c2589686.jpg",
    "icongray": "https://steamcdn-a.akamaihd.net/steamcommunity/public/images/apps/46450/956ff363aa0347c70415923f5e9d770380a937d2.jpg"
  },
  {
    "name": "ACH_Bonusmushroom",
    "defaultvalue": 0,
    "displayName": "\"It's-a-me!\"",
    "hidden": 0,
    "description": "Find a bonus mushroom",
    "icon": "https://steamcdn-a.akamaihd.net/steamcommunity/public/images/apps/46450/60cce13cd9828d1232ade2e31d845629c05363b0.jpg",
    "icongray": "https://steamcdn-a.akamaihd.net/steamcommunity/public/images/apps/46450/16bb59a8004e3faf3ff56339d241decc444ad312.jpg"
  },
  {
    "name": "ACH_Bonusmushroomall",
    "defaultvalue": 0,
    "displayName": "The Ultimate Quest",
    "hidden": 0,
    "description": "Find all bonus mushrooms",
    "icon": "https://steamcdn-a.akamaihd.net/steamcommunity/public/images/apps/46450/290cb12091785dee671de1981c4142ba920ba317.jpg",
    "icongray": "https://steamcdn-a.akamaihd.net/steamcommunity/public/images/apps/46450/83f75f236ae6780ac1f541008f27b452f941fd4e.jpg"
  }
]