﻿[
  {
    "name": "NumGames",
    "defaultvalue": 0,
    "displayName": "NumGames"
  },
  {
    "name": "NumWins",
    "defaultvalue": 0,
    "displayName": "NumWins"
  },
  {
    "name": "NumLosses",
    "defaultvalue": 0,
    "displayName": "NumLosses"
  }
]