﻿{
  "Dlcs": {},
  "Name": "Fantastic Pinball Thrills",
  "AppId": "373800",
  "ImageUrl": "https://steamcdn-a.akamaihd.net/steam/apps/373800/header.jpg?t=1592557339",
  "Languages": [
    "english",
    "german"
  ],
  "Platforms": {
    "windows": true,
    "mac": false,
    "linux": false
  }
}