﻿{
  "Dlcs": {
    "645770": {
      "Name": "Dies irae ~Amantes amentes~ Act I: Omnia Vincit Amor (Kasumi & Marie scenario)",
      "ImageUrl": "https://steamcdn-a.akamaihd.net/steam/apps/645770/header.jpg?t=1496391100"
    },
    "645771": {
      "Name": "Dies irae ~Amantes amentes~ Act II: Nihil Difficile Amanti (Kei & Rea scenario)",
      "ImageUrl": "https://steamcdn-a.akamaihd.net/steam/apps/645771/header.jpg?t=1496391108"
    },
    "1038510": {
      "Name": "Dies irae ~Amantes amentes~ - Original Soundtrack",
      "ImageUrl": "https://steamcdn-a.akamaihd.net/steam/apps/1038510/header.jpg?t=1552636766"
    },
    "1038530": {
      "Name": "Dies irae ~Amantes amentes~ - Official Illustrated Guide",
      "ImageUrl": "https://steamcdn-a.akamaihd.net/steam/apps/1038530/header.jpg?t=1553516092"
    }
  },
  "Name": "Dies irae ~Amantes amentes~",
  "AppId": "644540",
  "ImageUrl": "https://steamcdn-a.akamaihd.net/steam/apps/644540/header.jpg?t=1566816248",
  "Languages": [
    "english"
  ],
  "Platforms": {
    "windows": true,
    "mac": false,
    "linux": false
  }
}