﻿{
  "Dlcs": {},
  "Name": "My Name is Mayo",
  "AppId": "434260",
  "ImageUrl": "https://steamcdn-a.akamaihd.net/steam/apps/434260/header.jpg?t=1561950401",
  "Languages": [
    "english"
  ],
  "Platforms": {
    "windows": true,
    "mac": false,
    "linux": false
  }
}