﻿{
  "Dlcs": {},
  "Name": "Symploke: Legend of Gustavo Bueno (Chapter 1)",
  "AppId": "678090",
  "ImageUrl": "https://steamcdn-a.akamaihd.net/steam/apps/678090/header.jpg?t=1572977710",
  "Languages": [
    "spanish",
    "english"
  ],
  "Platforms": {
    "windows": true,
    "mac": false,
    "linux": false
  }
}