﻿{
  "Dlcs": {},
  "Name": "Kopanito All-Stars Soccer",
  "AppId": "399820",
  "ImageUrl": "https://steamcdn-a.akamaihd.net/steam/apps/399820/header.jpg?t=1506520477",
  "Languages": [
    "english",
    "french",
    "italian",
    "german",
    "spanish",
    "polish",
    "russian",
    "schinese",
    "turkish"
  ],
  "Platforms": {
    "windows": true,
    "mac": true,
    "linux": true
  }
}