﻿{
  "Dlcs": {},
  "Name": "HeapVR",
  "AppId": "585270",
  "ImageUrl": "https://steamcdn-a.akamaihd.net/steam/apps/585270/header.jpg?t=1509753159",
  "Languages": [
    "english"
  ],
  "Platforms": {
    "windows": true,
    "mac": false,
    "linux": false
  }
}