﻿[
  {
    "name": "ach_1",
    "defaultvalue": 0,
    "displayName": "Shoot it Until it Dies",
    "hidden": 1,
    "icon": "https://steamcdn-a.akamaihd.net/steamcommunity/public/images/apps/379720/70b24a89d14d808b13ea75e7102515399003ce1a.jpg",
    "icongray": "https://steamcdn-a.akamaihd.net/steamcommunity/public/images/apps/379720/82c96687f92cd02879f095bf36d06b6bf39d32ec.jpg"
  },
  {
    "name": "ach_2",
    "defaultvalue": 0,
    "displayName": "Outnumbered? No Problem",
    "hidden": 1,
    "icon": "https://steamcdn-a.akamaihd.net/steamcommunity/public/images/apps/379720/be9b11efd693383c07960750042ac8bd0c049ad6.jpg",
    "icongray": "https://steamcdn-a.akamaihd.net/steamcommunity/public/images/apps/379720/eb9303a1497d7be06e967e739df876da50acf700.jpg"
  },
  {
    "name": "ach_3",
    "defaultvalue": 0,
    "displayName": "Who's Next?",
    "hidden": 1,
    "icon": "https://steamcdn-a.akamaihd.net/steamcommunity/public/images/apps/379720/b39a9d30a0a6b7607ec31c221baf5964833396f5.jpg",
    "icongray": "https://steamcdn-a.akamaihd.net/steamcommunity/public/images/apps/379720/5f51eeae7c1a3606f1df78a7b8aeb6210a196389.jpg"
  },
  {
    "name": "ach_4",
    "defaultvalue": 0,
    "displayName": "E1M1",
    "hidden": 0,
    "description": "Complete the first mission of the campaign",
    "icon": "https://steamcdn-a.akamaihd.net/steamcommunity/public/images/apps/379720/84b187098fed91c573fca6de066d87ef7c6179da.jpg",
    "icongray": "https://steamcdn-a.akamaihd.net/steamcommunity/public/images/apps/379720/dec0164f43773f89f6a1d906ee2bc5315f0d8a32.jpg"
  },
  {
    "name": "ach_5",
    "defaultvalue": 0,
    "displayName": "Into the Unknown",
    "hidden": 1,
    "icon": "https://steamcdn-a.akamaihd.net/steamcommunity/public/images/apps/379720/b9d2f6298fc767aa879f5b94cf493461736f11fe.jpg",
    "icongray": "https://steamcdn-a.akamaihd.net/steamcommunity/public/images/apps/379720/c4196b5fffbe5a97ebb79da4cbc39949fb1f5183.jpg"
  },
  {
    "name": "ach_6",
    "defaultvalue": 0,
    "displayName": "Knee-Deep in the Dead",
    "hidden": 0,
    "description": "Complete the campaign on 'I'm Too Young to Die', 'Hurt Me Plenty', 'Ultra Violence', or 'Nightmare'.",
    "icon": "https://steamcdn-a.akamaihd.net/steamcommunity/public/images/apps/379720/53fb13916b0c0c3e37babbcf09e93ec80ced768c.jpg",
    "icongray": "https://steamcdn-a.akamaihd.net/steamcommunity/public/images/apps/379720/1de4b12bd3a0e8d089fe4b79837a2c4419a0695c.jpg"
  },
  {
    "name": "ach_7",
    "defaultvalue": 0,
    "displayName": "A Toe into Madness",
    "hidden": 0,
    "description": "Complete The UAC on Ultra-Nightmare",
    "icon": "https://steamcdn-a.akamaihd.net/steamcommunity/public/images/apps/379720/174b0585ce6ed88c21c6008339b1a80739937e4c.jpg",
    "icongray": "https://steamcdn-a.akamaihd.net/steamcommunity/public/images/apps/379720/f30c5b984aed7ecb0a57e5cc778847bdd6326277.jpg"
  },
  {
    "name": "ach_8",
    "defaultvalue": 0,
    "displayName": "Up Close and Personal",
    "hidden": 0,
    "description": "Kill 50 enemies using the Chainsaw",
    "icon": "https://steamcdn-a.akamaihd.net/steamcommunity/public/images/apps/379720/8cd515ad4be597801eabc8c939f286d97db284f1.jpg",
    "icongray": "https://steamcdn-a.akamaihd.net/steamcommunity/public/images/apps/379720/4cfb8610e2f9349fb9dc15142e178c5916c1ac5b.jpg"
  },
  {
    "name": "ach_9",
    "defaultvalue": 0,
    "displayName": "Specialist",
    "hidden": 0,
    "description": "Earn the Mastery for a weapon mod",
    "icon": "https://steamcdn-a.akamaihd.net/steamcommunity/public/images/apps/379720/810219c2da7280ac7d86edb81cd027c96da99dd9.jpg",
    "icongray": "https://steamcdn-a.akamaihd.net/steamcommunity/public/images/apps/379720/4a9da12bc6169eb512e6663d63df7951c2f0e2e6.jpg"
  },
  {
    "name": "ach_10",
    "defaultvalue": 0,
    "displayName": "IDKFA",
    "hidden": 0,
    "description": "Earn the Masteries for all weapon mods",
    "icon": "https://steamcdn-a.akamaihd.net/steamcommunity/public/images/apps/379720/178d4fd9ed8a6d11ba2b3c901369d83da3d65c8f.jpg",
    "icongray": "https://steamcdn-a.akamaihd.net/steamcommunity/public/images/apps/379720/b4174d9b6f88dd059e1a88525e8e97d5ec4ebc29.jpg"
  },
  {
    "name": "ach_11",
    "defaultvalue": 0,
    "displayName": "Hot Swapper",
    "hidden": 0,
    "description": "Acquire all weapon mods",
    "icon": "https://steamcdn-a.akamaihd.net/steamcommunity/public/images/apps/379720/8d3c63ada12d28c000b88535c37d40534edf5a03.jpg",
    "icongray": "https://steamcdn-a.akamaihd.net/steamcommunity/public/images/apps/379720/efa6f91d2b62534e0242cf366e30e25f23c00269.jpg"
  },
  {
    "name": "ach_12",
    "defaultvalue": 0,
    "displayName": "Historian",
    "hidden": 0,
    "description": "Find all Data Logs",
    "icon": "https://steamcdn-a.akamaihd.net/steamcommunity/public/images/apps/379720/8c39ee5d71a13f547acd1f2d70b4bb799f18cf9c.jpg",
    "icongray": "https://steamcdn-a.akamaihd.net/steamcommunity/public/images/apps/379720/3befa119faf94dcb7479293256a951e24cbaa67f.jpg"
  },
  {
    "name": "ach_13",
    "defaultvalue": 0,
    "displayName": "Timing is Everything",
    "hidden": 0,
    "description": "Use explosive barrels to kill 100 enemies",
    "icon": "https://steamcdn-a.akamaihd.net/steamcommunity/public/images/apps/379720/4f868ae3db6586dc23b73cdb79512e65b1252482.jpg",
    "icongray": "https://steamcdn-a.akamaihd.net/steamcommunity/public/images/apps/379720/2866c9210ec0652c969be3443a192818f6e1753b.jpg"
  },
  {
    "name": "ach_14",
    "defaultvalue": 0,
    "displayName": "Every Nook and Cranny",
    "hidden": 0,
    "description": "Find all Collectibles",
    "icon": "https://steamcdn-a.akamaihd.net/steamcommunity/public/images/apps/379720/292e6efdb8b94391f86c6ae97b17b682a4a6b108.jpg",
    "icongray": "https://steamcdn-a.akamaihd.net/steamcommunity/public/images/apps/379720/6f1710506d86c7ab87037e95d6820db972a5bbe6.jpg"
  },
  {
    "name": "ach_15",
    "defaultvalue": 0,
    "displayName": "Argent Overload",
    "hidden": 0,
    "description": "Fully upgrade Health, Armor, or Ammo capacity",
    "icon": "https://steamcdn-a.akamaihd.net/steamcommunity/public/images/apps/379720/8a57b3f369da3e23d1bdb56e556ba375d2adffaf.jpg",
    "icongray": "https://steamcdn-a.akamaihd.net/steamcommunity/public/images/apps/379720/066ecee88e57a90942bec7193f9ed829b2744b0f.jpg"
  },
  {
    "name": "ach_16",
    "defaultvalue": 0,
    "displayName": "Argent Fiend",
    "hidden": 0,
    "description": "Fully upgrade Health, Armor, and Ammo capacity on a single campaign run.",
    "icon": "https://steamcdn-a.akamaihd.net/steamcommunity/public/images/apps/379720/17bcab837a70ae0da6e117801bc93d6335ad4e96.jpg",
    "icongray": "https://steamcdn-a.akamaihd.net/steamcommunity/public/images/apps/379720/b3137cb31460c45a346d1261d3a2d2dd5ff57615.jpg"
  },
  {
    "name": "ach_17",
    "defaultvalue": 0,
    "displayName": "A Gift from Beyond",
    "hidden": 0,
    "description": "Earn a Rune",
    "icon": "https://steamcdn-a.akamaihd.net/steamcommunity/public/images/apps/379720/6ff0d9e24b145a392279a4337ff7ba07565022e3.jpg",
    "icongray": "https://steamcdn-a.akamaihd.net/steamcommunity/public/images/apps/379720/0cd1f9bfc5e2091321de9fee15a7007ee8ab88dc.jpg"
  },
  {
    "name": "ach_18",
    "defaultvalue": 0,
    "displayName": "The Circle is Complete",
    "hidden": 0,
    "description": "Earn all Runes",
    "icon": "https://steamcdn-a.akamaihd.net/steamcommunity/public/images/apps/379720/e48a8dbd8c37ac4ac88ac6dd5f6f6c0df43db9b3.jpg",
    "icongray": "https://steamcdn-a.akamaihd.net/steamcommunity/public/images/apps/379720/327e128bd54fcbad1f2a79bc3cb8c4bf59524650.jpg"
  },
  {
    "name": "ach_19",
    "defaultvalue": 0,
    "displayName": "Tinkering",
    "hidden": 0,
    "description": "Fully upgrade a Praetor Suit category.",
    "icon": "https://steamcdn-a.akamaihd.net/steamcommunity/public/images/apps/379720/e03017195bddcf15c50b9251e54c3694517384e5.jpg",
    "icongray": "https://steamcdn-a.akamaihd.net/steamcommunity/public/images/apps/379720/8ca55dfa8286be37bad11f5fd9857b35f7597d7b.jpg"
  },
  {
    "name": "ach_20",
    "defaultvalue": 0,
    "displayName": "Overclocked",
    "hidden": 0,
    "description": "Fully upgrade all Praetor Suit categories on a single campaign run.",
    "icon": "https://steamcdn-a.akamaihd.net/steamcommunity/public/images/apps/379720/88dfa31ae6bfb9ec297d8f317d9e8e594eab9c66.jpg",
    "icongray": "https://steamcdn-a.akamaihd.net/steamcommunity/public/images/apps/379720/cc3240e69df3ab1b308ce1baf112df3e5b7f0750.jpg"
  },
  {
    "name": "ach_21",
    "defaultvalue": 0,
    "displayName": "Thorough Shopper",
    "hidden": 0,
    "description": "Complete all Challenges for a single mission.",
    "icon": "https://steamcdn-a.akamaihd.net/steamcommunity/public/images/apps/379720/ed1e51bf6d47bf7a5cdb8da27846923941ac1543.jpg",
    "icongray": "https://steamcdn-a.akamaihd.net/steamcommunity/public/images/apps/379720/e4b99acf68f33a93f152d761ff7b46596fe626fa.jpg"
  },
  {
    "name": "ach_22",
    "defaultvalue": 0,
    "displayName": "Butcher",
    "hidden": 0,
    "description": "Perform 200 Glory Kills",
    "icon": "https://steamcdn-a.akamaihd.net/steamcommunity/public/images/apps/379720/55a829f59847dd1c2736ce240ec9a07ef1e1eb1b.jpg",
    "icongray": "https://steamcdn-a.akamaihd.net/steamcommunity/public/images/apps/379720/152403304e8117055a7e2484e356bf662e079bcb.jpg"
  },
  {
    "name": "ach_23",
    "defaultvalue": 0,
    "displayName": "Rip and Tear",
    "hidden": 0,
    "description": "Glory Kill all common enemy types in the campaign.",
    "icon": "https://steamcdn-a.akamaihd.net/steamcommunity/public/images/apps/379720/d130c33ce31374b6f2c1a231d4c8244ac68fcbc5.jpg",
    "icongray": "https://steamcdn-a.akamaihd.net/steamcommunity/public/images/apps/379720/0b2c73f7f328f45439de25cf5342521d5a1f6aa5.jpg"
  },
  {
    "name": "ach_24",
    "defaultvalue": 0,
    "displayName": "Juicin' it up",
    "hidden": 0,
    "description": "Kill 150 enemies while using Power Ups",
    "icon": "https://steamcdn-a.akamaihd.net/steamcommunity/public/images/apps/379720/d7cacb9a31cb313e7d3c88266d90cccd3df84d06.jpg",
    "icongray": "https://steamcdn-a.akamaihd.net/steamcommunity/public/images/apps/379720/3c45735940751eef6260b25062026f2d7eae1003.jpg"
  },
  {
    "name": "ach_25",
    "defaultvalue": 0,
    "displayName": "Momentum Shift",
    "hidden": 0,
    "description": "Upgrade a Rune",
    "icon": "https://steamcdn-a.akamaihd.net/steamcommunity/public/images/apps/379720/3c9bd3960d3358c72b555777595d9c7ab819d4e7.jpg",
    "icongray": "https://steamcdn-a.akamaihd.net/steamcommunity/public/images/apps/379720/449e800b5a00e3139758b240219b964631cbffb9.jpg"
  },
  {
    "name": "ach_26",
    "defaultvalue": 0,
    "displayName": "IDDQD",
    "hidden": 0,
    "description": "Upgrade all Runes",
    "icon": "https://steamcdn-a.akamaihd.net/steamcommunity/public/images/apps/379720/60dc127e52da228b5c5c3823994c7c1a2dad2f2d.jpg",
    "icongray": "https://steamcdn-a.akamaihd.net/steamcommunity/public/images/apps/379720/00dbe5bae44bfb43ab1df4be2818e4f925d71868.jpg"
  },
  {
    "name": "ach_27",
    "defaultvalue": 0,
    "displayName": "What Else Ya Got?",
    "hidden": 0,
    "description": "Complete all Mission Challenges",
    "icon": "https://steamcdn-a.akamaihd.net/steamcommunity/public/images/apps/379720/b9236985d74005c15eb96d39b65619e78a161267.jpg",
    "icongray": "https://steamcdn-a.akamaihd.net/steamcommunity/public/images/apps/379720/eb1528529ea44ee8ddb6f25997dcb966bf5182e2.jpg"
  },
  {
    "name": "ach_28",
    "defaultvalue": 0,
    "displayName": "IPXSETUP.EXE",
    "hidden": 0,
    "description": "Win a Multiplayer match",
    "icon": "https://steamcdn-a.akamaihd.net/steamcommunity/public/images/apps/379720/7ed4f1de54e565e77e379876807199bbb8e56706.jpg",
    "icongray": "https://steamcdn-a.akamaihd.net/steamcommunity/public/images/apps/379720/6bacaeed568ac2a936dff36c321a4ef309eb0097.jpg"
  },
  {
    "name": "ach_29",
    "defaultvalue": 0,
    "displayName": "Combat tested, Doomguy approved",
    "hidden": 0,
    "description": "Reach Level 5 in Multiplayer",
    "icon": "https://steamcdn-a.akamaihd.net/steamcommunity/public/images/apps/379720/58e65472c80bbbb9a58341553fad4fb0c86e59b6.jpg",
    "icongray": "https://steamcdn-a.akamaihd.net/steamcommunity/public/images/apps/379720/98d472c1e602dbd4767b3439768eb0334e4995ef.jpg"
  },
  {
    "name": "ach_30",
    "defaultvalue": 0,
    "displayName": "An Old Friend",
    "hidden": 1,
    "icon": "https://steamcdn-a.akamaihd.net/steamcommunity/public/images/apps/379720/8d3c04e9159c61cc036623b829555799ac9595f1.jpg",
    "icongray": "https://steamcdn-a.akamaihd.net/steamcommunity/public/images/apps/379720/9c17bfbeedb25c8a0f9fffaab6fb4c8cc016a594.jpg"
  },
  {
    "name": "ach_31",
    "defaultvalue": 0,
    "displayName": "Shareware",
    "hidden": 0,
    "description": "Create and publish a SnapMap",
    "icon": "https://steamcdn-a.akamaihd.net/steamcommunity/public/images/apps/379720/6872551a9a2a6c012726a6fe814befbaf74990df.jpg",
    "icongray": "https://steamcdn-a.akamaihd.net/steamcommunity/public/images/apps/379720/77e4a35310bdc5a5bd8e60e122b86306b68b8ffa.jpg"
  },
  {
    "name": "ach_32",
    "defaultvalue": 0,
    "displayName": "No Rest for the Living",
    "hidden": 0,
    "description": "Play 5 published SnapMaps",
    "icon": "https://steamcdn-a.akamaihd.net/steamcommunity/public/images/apps/379720/ca33cae3a57ddf8e31b0ee9530188b8eda5440e7.jpg",
    "icongray": "https://steamcdn-a.akamaihd.net/steamcommunity/public/images/apps/379720/401b750a7f57980cfec775240ff4f3081f6d2a21.jpg"
  },
  {
    "name": "ach_33",
    "defaultvalue": 0,
    "displayName": "Entryway",
    "hidden": 0,
    "description": "Complete the SnapMap Basic and Advanced Tutorials",
    "icon": "https://steamcdn-a.akamaihd.net/steamcommunity/public/images/apps/379720/11e9719ad78da26e84cddaa8cdb4731fc4bf0515.jpg",
    "icongray": "https://steamcdn-a.akamaihd.net/steamcommunity/public/images/apps/379720/070e56393532663557bc84dcae3fe4d03cba0413.jpg"
  },
  {
    "name": "ach_34",
    "defaultvalue": 0,
    "displayName": "Tenderizing the Crops",
    "hidden": 0,
    "description": "Kill 10 enemies with the Harvester demon in Multiplayer",
    "icon": "https://steamcdn-a.akamaihd.net/steamcommunity/public/images/apps/379720/dc75e52e638555ecbe4b781da52cff455e70b895.jpg",
    "icongray": "https://steamcdn-a.akamaihd.net/steamcommunity/public/images/apps/379720/e76958658110a659ca478eed1b7ea0e47c6ab78b.jpg"
  },
  {
    "name": "ach_35",
    "defaultvalue": 0,
    "displayName": "Marked for Death",
    "hidden": 0,
    "description": "Kill 10 enemies with the EMG Mark V Pistol in Multiplayer",
    "icon": "https://steamcdn-a.akamaihd.net/steamcommunity/public/images/apps/379720/22966290252da4b08a3846b77b48578dc10c2189.jpg",
    "icongray": "https://steamcdn-a.akamaihd.net/steamcommunity/public/images/apps/379720/f6384418a108baca7b043c2d3ce4d65329528265.jpg"
  },
  {
    "name": "ach_36",
    "defaultvalue": 0,
    "displayName": "Motion in the Explosion",
    "hidden": 0,
    "description": "Kill 5 enemies with the Kinetic Mine in Multiplayer",
    "icon": "https://steamcdn-a.akamaihd.net/steamcommunity/public/images/apps/379720/1bf9a6615aa8ba1258d2407987c8d327b743892e.jpg",
    "icongray": "https://steamcdn-a.akamaihd.net/steamcommunity/public/images/apps/379720/0ccffa6b93994640969e4e71a5a61ad2fc08cc8d.jpg"
  },
  {
    "name": "ach_37",
    "defaultvalue": 0,
    "displayName": "Sitting Duck",
    "hidden": 0,
    "description": "Use a taunt from Expansion 1 during a Multiplayer Match",
    "icon": "https://steamcdn-a.akamaihd.net/steamcommunity/public/images/apps/379720/2b36fd4b7cf63bfe8ce7541f6b47ed07b487cc6f.jpg",
    "icongray": "https://steamcdn-a.akamaihd.net/steamcommunity/public/images/apps/379720/5512d0ff4f40a817f64e118b9e5f20d8cdd7f38f.jpg"
  },
  {
    "name": "ach_38",
    "defaultvalue": 0,
    "displayName": "Computing with Style",
    "hidden": 0,
    "description": "Play a Multiplayer Match with a piece of Robotic Armor equipped",
    "icon": "https://steamcdn-a.akamaihd.net/steamcommunity/public/images/apps/379720/06dacea44acb57e1f025cdf7fe6b66a3bcc9821f.jpg",
    "icongray": "https://steamcdn-a.akamaihd.net/steamcommunity/public/images/apps/379720/e8226ccbfa9ca9c37ab7eac129ad51f024cdfc07.jpg"
  },
  {
    "name": "ach_39",
    "defaultvalue": 0,
    "displayName": "Threat Assessment",
    "hidden": 0,
    "description": "Detect 20 enemies using the Threat Pulse in Multiplayer",
    "icon": "https://steamcdn-a.akamaihd.net/steamcommunity/public/images/apps/379720/0dea8a503255c6e368464717ea031b5febdc6bc2.jpg",
    "icongray": "https://steamcdn-a.akamaihd.net/steamcommunity/public/images/apps/379720/8d48f7dc41581090d65785b50af1e7d0067efb40.jpg"
  },
  {
    "name": "ach_40",
    "defaultvalue": 0,
    "displayName": "Eat Your Vitamins",
    "hidden": 0,
    "description": "Kill 10 enemies with the Cacodemon in Multiplayer",
    "icon": "https://steamcdn-a.akamaihd.net/steamcommunity/public/images/apps/379720/fd62b0750153e83b06c6e6df97a57de11338aa04.jpg",
    "icongray": "https://steamcdn-a.akamaihd.net/steamcommunity/public/images/apps/379720/f477502274f939aea0c88f221e32a05dcb013a2d.jpg"
  },
  {
    "name": "ach_41",
    "defaultvalue": 0,
    "displayName": "Reaping all the Benefits",
    "hidden": 0,
    "description": "Kill 10 enemies with the Reaper in Multiplayer",
    "icon": "https://steamcdn-a.akamaihd.net/steamcommunity/public/images/apps/379720/8a9fecff21bd0f39810dd6674984b8fdaf51f893.jpg",
    "icongray": "https://steamcdn-a.akamaihd.net/steamcommunity/public/images/apps/379720/473afddc653a12d6a19272a13a453c97b0a4312b.jpg"
  },
  {
    "name": "ach_42",
    "defaultvalue": 0,
    "displayName": "Beauty is Pain",
    "hidden": 0,
    "description": "Play a Multiplayer Match with a piece of Cyber-Demonic armor equipped",
    "icon": "https://steamcdn-a.akamaihd.net/steamcommunity/public/images/apps/379720/fd0538e0403271935e4c229821cf2c864043a424.jpg",
    "icongray": "https://steamcdn-a.akamaihd.net/steamcommunity/public/images/apps/379720/0b440402da1d4399e176f3ff03589f822ffa5bb2.jpg"
  },
  {
    "name": "ach_43",
    "defaultvalue": 0,
    "displayName": "Like Nobody is Watching",
    "hidden": 0,
    "description": "Use a taunt from Expansion 2 during a Multiplayer Match",
    "icon": "https://steamcdn-a.akamaihd.net/steamcommunity/public/images/apps/379720/4950e2684ffec25739ef5d417c88b0762664107f.jpg",
    "icongray": "https://steamcdn-a.akamaihd.net/steamcommunity/public/images/apps/379720/43239daa121682df1e27f4f76a2c4c4569a3cfe3.jpg"
  },
  {
    "name": "ach_44",
    "defaultvalue": 0,
    "displayName": "Filling the Trophy Case",
    "hidden": 0,
    "description": "Earn every medal type in Arcade Mode in one run",
    "icon": "https://steamcdn-a.akamaihd.net/steamcommunity/public/images/apps/379720/b0e26ccfeb9e70cb961795137e97be492a030a88.jpg",
    "icongray": "https://steamcdn-a.akamaihd.net/steamcommunity/public/images/apps/379720/4cf6ee3cd6a496283e432818c5ba6db27af0e0cb.jpg"
  },
  {
    "name": "ach_45",
    "defaultvalue": 0,
    "displayName": "Go for the Gold",
    "hidden": 0,
    "description": "Earn a gold rating in Arcade Mode",
    "icon": "https://steamcdn-a.akamaihd.net/steamcommunity/public/images/apps/379720/ab84ae1a37dd3001933f0be254af40fee48da77b.jpg",
    "icongray": "https://steamcdn-a.akamaihd.net/steamcommunity/public/images/apps/379720/5f8d7e8a5996d513cdd5a958ccb7bc97cf66afe0.jpg"
  },
  {
    "name": "ach_46",
    "defaultvalue": 0,
    "displayName": "Arcade Stockpile",
    "hidden": 0,
    "description": "Collect 20 bonus lives or relics in Arcade Mode",
    "icon": "https://steamcdn-a.akamaihd.net/steamcommunity/public/images/apps/379720/37fc6846ded086d50620dbaf93c4cfafe2c3a324.jpg",
    "icongray": "https://steamcdn-a.akamaihd.net/steamcommunity/public/images/apps/379720/8c0e83dc8ce12a65096dbd4812b8585249239bde.jpg"
  },
  {
    "name": "ach_47",
    "defaultvalue": 0,
    "displayName": "Bowling for Gibs",
    "hidden": 0,
    "description": "Perform a MultiKill with the Spectre demon in Multiplayer",
    "icon": "https://steamcdn-a.akamaihd.net/steamcommunity/public/images/apps/379720/2c89a7a82a02104438de19d5584ff18dc51a6905.jpg",
    "icongray": "https://steamcdn-a.akamaihd.net/steamcommunity/public/images/apps/379720/b21167d9d9d3d10debb3d66e842b7f314aabcb0b.jpg"
  },
  {
    "name": "ach_48",
    "defaultvalue": 0,
    "displayName": "Head First",
    "hidden": 0,
    "description": "Kill 10 enemies with the Spectre demon in Multiplayer",
    "icon": "https://steamcdn-a.akamaihd.net/steamcommunity/public/images/apps/379720/0c43b121d657f370fa49a07589ec1bf82fee0238.jpg",
    "icongray": "https://steamcdn-a.akamaihd.net/steamcommunity/public/images/apps/379720/e1a31e1ac035a2c84b395f792ecf6bf653d0e9d6.jpg"
  },
  {
    "name": "ach_49",
    "defaultvalue": 0,
    "displayName": "Successful Launch",
    "hidden": 0,
    "description": "Kill 10 enemies with the Grenade Launcher in Multiplayer",
    "icon": "https://steamcdn-a.akamaihd.net/steamcommunity/public/images/apps/379720/a6d94aa712c858a076c16077f6ec158f97b1702c.jpg",
    "icongray": "https://steamcdn-a.akamaihd.net/steamcommunity/public/images/apps/379720/be9956985f4d2d5550702cfd52e1915bbe5c1633.jpg"
  },
  {
    "name": "ach_50",
    "defaultvalue": 0,
    "displayName": "Fashion Fanatic",
    "hidden": 0,
    "description": "Play a Multiplayer Match with a piece of Evil Cultist armor equipped",
    "icon": "https://steamcdn-a.akamaihd.net/steamcommunity/public/images/apps/379720/e1f94e84623304b57f2eb96977ee723af365ad3b.jpg",
    "icongray": "https://steamcdn-a.akamaihd.net/steamcommunity/public/images/apps/379720/6fa3c5957b1ddc1361dc26fb25498212dc3d08a5.jpg"
  },
  {
    "name": "ach_51",
    "defaultvalue": 0,
    "displayName": "Insult to Injury",
    "hidden": 0,
    "description": "Use a taunt from Expansion 3 during a Multiplayer Match",
    "icon": "https://steamcdn-a.akamaihd.net/steamcommunity/public/images/apps/379720/44c9e18c1a3adde3bdbb68c7a1398cd40a11098f.jpg",
    "icongray": "https://steamcdn-a.akamaihd.net/steamcommunity/public/images/apps/379720/f144c3af2c4f7da745a08a40a8e31b01239a0882.jpg"
  },
  {
    "name": "ach_52",
    "defaultvalue": 0,
    "displayName": "On Track",
    "hidden": 0,
    "description": "Complete a tracked challenge in a Multiplayer Match",
    "icon": "https://steamcdn-a.akamaihd.net/steamcommunity/public/images/apps/379720/a9cca159909af4d8016cf7ca081152233f6e70bf.jpg",
    "icongray": "https://steamcdn-a.akamaihd.net/steamcommunity/public/images/apps/379720/22b6d5cb2f81078562a2ed444443003cb638df31.jpg"
  },
  {
    "name": "ach_53",
    "defaultvalue": 0,
    "displayName": "A Memorable Performance",
    "hidden": 0,
    "description": "Earn a Gold Rating in a Multiplayer Match",
    "icon": "https://steamcdn-a.akamaihd.net/steamcommunity/public/images/apps/379720/4ce53b7cfd32fd20f3c51d3234a62a1a519cfc5c.jpg",
    "icongray": "https://steamcdn-a.akamaihd.net/steamcommunity/public/images/apps/379720/c260ae1fea18e12c561842530ee8bc60b242f026.jpg"
  },
  {
    "name": "ach_54",
    "defaultvalue": 0,
    "displayName": "Slotted for Success",
    "hidden": 0,
    "description": "Unlock all Multiplayer Runes",
    "icon": "https://steamcdn-a.akamaihd.net/steamcommunity/public/images/apps/379720/7a774665c2da3d4dc7544a0b096515ebc5deff01.jpg",
    "icongray": "https://steamcdn-a.akamaihd.net/steamcommunity/public/images/apps/379720/b0df8347214afcbcd728b9e8d47470c8c5953384.jpg"
  }
]