﻿[
  {
    "name": "ACH_NIGHT_FLIGHT",
    "defaultvalue": 0,
    "displayName": "Night Flight",
    "hidden": 0,
    "description": "Played Night Flight",
    "icon": "https://steamcdn-a.akamaihd.net/steamcommunity/public/images/apps/574440/3f0e83ce393842ac1e8466a8cfcbb6309b580d1c.jpg",
    "icongray": "https://steamcdn-a.akamaihd.net/steamcommunity/public/images/apps/574440/87b65a1fbe72a53af6f3176c167aeb8e24751b46.jpg"
  },
  {
    "name": "ACH_PLAYED_FIRST_GAME",
    "defaultvalue": 0,
    "displayName": "First Time",
    "hidden": 0,
    "description": "You played your first minigame.",
    "icon": "https://steamcdn-a.akamaihd.net/steamcommunity/public/images/apps/574440/16b2683bbb58b7151ec0bebf5eda29fb20a55a4c.jpg",
    "icongray": "https://steamcdn-a.akamaihd.net/steamcommunity/public/images/apps/574440/7a1df4d4b569dc728ececdf2db49cc4c26881960.jpg"
  },
  {
    "name": "ACH_ASTEROID_BELT",
    "defaultvalue": 0,
    "displayName": "Asteroid Belt",
    "hidden": 0,
    "description": "You played Asteroid Belt for the first time.",
    "icon": "https://steamcdn-a.akamaihd.net/steamcommunity/public/images/apps/574440/b87bd6b074e7f64cf2eac8cd2d0d90c2822ee026.jpg",
    "icongray": "https://steamcdn-a.akamaihd.net/steamcommunity/public/images/apps/574440/7bc9fd60ad9e881ae59b1fb230fad776b02d85ee.jpg"
  },
  {
    "name": "ACH_SKY_ROOTS",
    "defaultvalue": 0,
    "displayName": "Sky Roots",
    "hidden": 0,
    "description": "You played Sky Roots for the first time.",
    "icon": "https://steamcdn-a.akamaihd.net/steamcommunity/public/images/apps/574440/5726dc3aeaed5e5286b3667b3fd7f2638fb28ccb.jpg",
    "icongray": "https://steamcdn-a.akamaihd.net/steamcommunity/public/images/apps/574440/ebddb56f1eb8824890d94c827d0088ad1daf0e6d.jpg"
  },
  {
    "name": "ACH_HAMMER_AND_SHIELD",
    "defaultvalue": 0,
    "displayName": "Hammer & Shield",
    "hidden": 0,
    "description": "You played Hammer & Shield for the first time.",
    "icon": "https://steamcdn-a.akamaihd.net/steamcommunity/public/images/apps/574440/71bed3b13677771741d37af9cb44b0ae80a4e9bd.jpg",
    "icongray": "https://steamcdn-a.akamaihd.net/steamcommunity/public/images/apps/574440/24009e9d4b1d1d69ac52a9d2e086efe7932c8a93.jpg"
  },
  {
    "name": "ACH_SPEAR_TOSS",
    "defaultvalue": 0,
    "displayName": "Spear Toss",
    "hidden": 0,
    "description": "You played Spear Toss",
    "icon": "https://steamcdn-a.akamaihd.net/steamcommunity/public/images/apps/574440/7a17292fb43cfc98859271da42e888e44a090210.jpg",
    "icongray": "https://steamcdn-a.akamaihd.net/steamcommunity/public/images/apps/574440/802b2dc3e9e8ac9ba83c62787d6d2c697d1b5911.jpg"
  }
]