﻿[
  {
    "name": "ACH_lvl1_Complete",
    "defaultvalue": 0,
    "displayName": "Orc Knox",
    "hidden": 1,
    "icon": "https://steamcdn-a.akamaihd.net/steamcommunity/public/images/apps/433480/fa6d7f8c797825da1b462fbea5d45e2b0644c760.jpg",
    "icongray": "https://steamcdn-a.akamaihd.net/steamcommunity/public/images/apps/433480/fe3e427105b345b256f5905c3ad41049cf9a8a5f.jpg"
  },
  {
    "name": "ACH_lvl2_Complete",
    "defaultvalue": 0,
    "displayName": "Your Highness",
    "hidden": 1,
    "icon": "https://steamcdn-a.akamaihd.net/steamcommunity/public/images/apps/433480/b1794d9814bf08bd9b6e828126cd0df25ae8f4d5.jpg",
    "icongray": "https://steamcdn-a.akamaihd.net/steamcommunity/public/images/apps/433480/6f0fcf50d281bcbfa1506c244a7d06d31788dcdf.jpg"
  },
  {
    "name": "ACH_lvl3_Complete",
    "defaultvalue": 0,
    "displayName": "RoadTrip",
    "hidden": 1,
    "icon": "https://steamcdn-a.akamaihd.net/steamcommunity/public/images/apps/433480/28ac19607bcbfe4c1cca71ea8d8457c00facc0b8.jpg",
    "icongray": "https://steamcdn-a.akamaihd.net/steamcommunity/public/images/apps/433480/f9ff5a792c0baca655bb986bdee931880c2b5ce3.jpg"
  },
  {
    "name": "ACH_lvl4_Complete",
    "defaultvalue": 0,
    "displayName": "Building Bridges",
    "hidden": 1,
    "icon": "https://steamcdn-a.akamaihd.net/steamcommunity/public/images/apps/433480/9a1641875e17b32cd346f9a33414b1defc1f3231.jpg",
    "icongray": "https://steamcdn-a.akamaihd.net/steamcommunity/public/images/apps/433480/9b4c63b8239201d60092fade75d127b8388b89f3.jpg"
  },
  {
    "name": "ACH_lvl5_Complete",
    "defaultvalue": 0,
    "displayName": "Papers Please",
    "hidden": 1,
    "icon": "https://steamcdn-a.akamaihd.net/steamcommunity/public/images/apps/433480/12a0e7e909a148a1f977018f5fd5c34e9568b0c2.jpg",
    "icongray": "https://steamcdn-a.akamaihd.net/steamcommunity/public/images/apps/433480/272015f5706af048efefcf264d712425a4a09a7f.jpg"
  },
  {
    "name": "ACH_lvl6_Complete",
    "defaultvalue": 0,
    "displayName": "Reunited",
    "hidden": 1,
    "icon": "https://steamcdn-a.akamaihd.net/steamcommunity/public/images/apps/433480/1cd70618ca6ba410a0267bcaf015fc80aa9cc314.jpg",
    "icongray": "https://steamcdn-a.akamaihd.net/steamcommunity/public/images/apps/433480/654485101af720a78ef7f98992e16de5c755836e.jpg"
  },
  {
    "name": "ACH_lvl7_Complete",
    "defaultvalue": 0,
    "displayName": "Freeze!",
    "hidden": 1,
    "icon": "https://steamcdn-a.akamaihd.net/steamcommunity/public/images/apps/433480/9489e6f92d5d10765344e8f78f12dc3db9d81685.jpg",
    "icongray": "https://steamcdn-a.akamaihd.net/steamcommunity/public/images/apps/433480/a19a590ede39903459884d7b905945cc32533ff4.jpg"
  },
  {
    "name": "ACH_lvl8_Complete",
    "defaultvalue": 0,
    "displayName": "Hangover",
    "hidden": 1,
    "icon": "https://steamcdn-a.akamaihd.net/steamcommunity/public/images/apps/433480/ec6a6c44610fa405418c9a8c4aa0c24f58cd2724.jpg",
    "icongray": "https://steamcdn-a.akamaihd.net/steamcommunity/public/images/apps/433480/471fce90d631c99d07f508ae9b6f344559d4b390.jpg"
  },
  {
    "name": "ACH_lvl9_Complete",
    "defaultvalue": 0,
    "displayName": "Rise of the Goblin King",
    "hidden": 1,
    "icon": "https://steamcdn-a.akamaihd.net/steamcommunity/public/images/apps/433480/db1d513de10237dd0332a8dbdc33ccc443ee2405.jpg",
    "icongray": "https://steamcdn-a.akamaihd.net/steamcommunity/public/images/apps/433480/316ba93f398493157820a866cbcd2a1b8e25f631.jpg"
  },
  {
    "name": "ACH_PebbleHenge",
    "defaultvalue": 0,
    "displayName": "PebbleHenge",
    "hidden": 0,
    "description": "Honor Thy Ancestors",
    "icon": "https://steamcdn-a.akamaihd.net/steamcommunity/public/images/apps/433480/c7f6f4fe61c94f47cf4b630975969b6c8fd75817.jpg",
    "icongray": "https://steamcdn-a.akamaihd.net/steamcommunity/public/images/apps/433480/9dfc6960398b82ae535c2ef5d2304cd927f13b1d.jpg"
  },
  {
    "name": "ACH_CraftingGenius",
    "defaultvalue": 0,
    "displayName": "Crafting Genius",
    "hidden": 0,
    "description": "Find all blueprints",
    "icon": "https://steamcdn-a.akamaihd.net/steamcommunity/public/images/apps/433480/f186dee3c51f2c58ce09b31ef7fe73c548906c31.jpg",
    "icongray": "https://steamcdn-a.akamaihd.net/steamcommunity/public/images/apps/433480/974bc63ebf2be8109e66a6a10f22971c45fbbefa.jpg"
  },
  {
    "name": "ACH_HeavyMeal",
    "defaultvalue": 0,
    "displayName": "Heavy Meal",
    "hidden": 0,
    "description": "Cook A Yummy Meal",
    "icon": "https://steamcdn-a.akamaihd.net/steamcommunity/public/images/apps/433480/06b1aa6f46565d2058c209631c17bd938264a0b1.jpg",
    "icongray": "https://steamcdn-a.akamaihd.net/steamcommunity/public/images/apps/433480/fbaae527d1c204eb74f58da4fe782f273db1deed.jpg"
  },
  {
    "name": "ACH_Lullaby",
    "defaultvalue": 0,
    "displayName": "Lullaby",
    "hidden": 0,
    "description": "Play a calm tune",
    "icon": "https://steamcdn-a.akamaihd.net/steamcommunity/public/images/apps/433480/b69325d0fa65676efd1c54fcffe66e4fd4630472.jpg",
    "icongray": "https://steamcdn-a.akamaihd.net/steamcommunity/public/images/apps/433480/0a0fe59b901fddf6dba39d0f467c4f31c7c7712e.jpg"
  },
  {
    "name": "ACH_Gobstar",
    "defaultvalue": 0,
    "displayName": "GobStar",
    "hidden": 0,
    "description": "Play some catchy free jazz tunes",
    "icon": "https://steamcdn-a.akamaihd.net/steamcommunity/public/images/apps/433480/7d01ca540c7663d3951ccb2a6e696fa0407c869e.jpg",
    "icongray": "https://steamcdn-a.akamaihd.net/steamcommunity/public/images/apps/433480/abeafd8d58e6a477c10fe2b60ae649b962259f36.jpg"
  },
  {
    "name": "ACH_HoboGobo",
    "defaultvalue": 0,
    "displayName": "HoboGobo",
    "hidden": 0,
    "description": "Don't fish for the fish, fish for yourself",
    "icon": "https://steamcdn-a.akamaihd.net/steamcommunity/public/images/apps/433480/12c0a44792d87d6d96d70f052704ba82953b4fdd.jpg",
    "icongray": "https://steamcdn-a.akamaihd.net/steamcommunity/public/images/apps/433480/cfcf3a3da3a27e3b87a90d893aee47c60deb4724.jpg"
  },
  {
    "name": "ACH_Archeologist",
    "defaultvalue": 0,
    "displayName": "Archaeologist",
    "hidden": 0,
    "description": "Come in like a wrecking ball",
    "icon": "https://steamcdn-a.akamaihd.net/steamcommunity/public/images/apps/433480/371923cdd42db042083c374717da07168135408b.jpg",
    "icongray": "https://steamcdn-a.akamaihd.net/steamcommunity/public/images/apps/433480/758fb6a5521b6b2e1fb1bd5a567372520404ef0f.jpg"
  },
  {
    "name": "ACH_ByTheHorns",
    "defaultvalue": 0,
    "displayName": "by the Horns",
    "hidden": 0,
    "description": "Two unstoppable forces",
    "icon": "https://steamcdn-a.akamaihd.net/steamcommunity/public/images/apps/433480/016ff25f3570bd847f53049d8c201e7cbc4ba651.jpg",
    "icongray": "https://steamcdn-a.akamaihd.net/steamcommunity/public/images/apps/433480/326566c7655d6162dabab0589998352128b66740.jpg"
  },
  {
    "name": "ACH_Lamarck",
    "defaultvalue": 0,
    "displayName": "Lamarck",
    "hidden": 0,
    "description": "Create a new species",
    "icon": "https://steamcdn-a.akamaihd.net/steamcommunity/public/images/apps/433480/5c885a0a31944a7592b2937297f49f0baf35c93b.jpg",
    "icongray": "https://steamcdn-a.akamaihd.net/steamcommunity/public/images/apps/433480/dc6a9580a936b9b150d7669f530e7d8112f7a004.jpg"
  },
  {
    "name": "ACH_Lemminge",
    "defaultvalue": 0,
    "displayName": "Lemminge",
    "hidden": 0,
    "description": "Live, die, resurrect, repeat",
    "icon": "https://steamcdn-a.akamaihd.net/steamcommunity/public/images/apps/433480/b6cf4188d53e9e5cb0984c7ee5b1dfccee6f2ac3.jpg",
    "icongray": "https://steamcdn-a.akamaihd.net/steamcommunity/public/images/apps/433480/0178443514ef90ebfcbd98b7984e9976e28e1f74.jpg"
  },
  {
    "name": "ACH_TryHard",
    "defaultvalue": 0,
    "displayName": "Try Hard",
    "hidden": 0,
    "description": "Don't get killed",
    "icon": "https://steamcdn-a.akamaihd.net/steamcommunity/public/images/apps/433480/d8bd30a6fcbe704ec949592c7328ccba8ef51a55.jpg",
    "icongray": "https://steamcdn-a.akamaihd.net/steamcommunity/public/images/apps/433480/d23b201d65c98b567ef2bf77a283f27b73c4e25d.jpg"
  },
  {
    "name": "ACH_AndAgain",
    "defaultvalue": 0,
    "displayName": "And Again",
    "hidden": 0,
    "description": "Watch your step",
    "icon": "https://steamcdn-a.akamaihd.net/steamcommunity/public/images/apps/433480/365af0993897c18e086bdb34b1f1edfcb61b7d81.jpg",
    "icongray": "https://steamcdn-a.akamaihd.net/steamcommunity/public/images/apps/433480/94d3d0499664e1d5cbccc0168277e9973b1d4c89.jpg"
  },
  {
    "name": "ACH_TripleKill",
    "defaultvalue": 0,
    "displayName": "Triple Kill",
    "hidden": 0,
    "description": "Get killed, get killed and then get killed again",
    "icon": "https://steamcdn-a.akamaihd.net/steamcommunity/public/images/apps/433480/a150f14810919e9413f95525ecdcad585812f2dc.jpg",
    "icongray": "https://steamcdn-a.akamaihd.net/steamcommunity/public/images/apps/433480/cdcba2369352a03a444b408cf47fd9f42f0348dc.jpg"
  },
  {
    "name": "ACH_TreasureKing",
    "defaultvalue": 0,
    "displayName": "Sixth Treasure King",
    "hidden": 0,
    "description": "Add some gold to the treasure",
    "icon": "https://steamcdn-a.akamaihd.net/steamcommunity/public/images/apps/433480/46962886e59787737631cb4ddef79a8d710ee7f6.jpg",
    "icongray": "https://steamcdn-a.akamaihd.net/steamcommunity/public/images/apps/433480/d6d984a671fb0fffb9a0531c46b03d187fa578f5.jpg"
  },
  {
    "name": "ACH_RussianRoulette",
    "defaultvalue": 0,
    "displayName": "Russian Roulette",
    "hidden": 0,
    "description": "Try the resurrection spell",
    "icon": "https://steamcdn-a.akamaihd.net/steamcommunity/public/images/apps/433480/9b9aaeed63a1b671fe02792c38159c25fb8c9cc2.jpg",
    "icongray": "https://steamcdn-a.akamaihd.net/steamcommunity/public/images/apps/433480/7cb17d7e183bee172d7b85df4a18c2c6f286e149.jpg"
  },
  {
    "name": "ACH_DarwinAward",
    "defaultvalue": 0,
    "displayName": "Darwin Award",
    "hidden": 0,
    "description": "Die several times and repeat",
    "icon": "https://steamcdn-a.akamaihd.net/steamcommunity/public/images/apps/433480/c739a90e14b17114606f366cffd23a97e9e82b15.jpg",
    "icongray": "https://steamcdn-a.akamaihd.net/steamcommunity/public/images/apps/433480/7281ddf86cbb09644e17b9e8f1f5b2355d74d6e2.jpg"
  },
  {
    "name": "ACH_Excalibur",
    "defaultvalue": 0,
    "displayName": "A Kindgom for a Goblin",
    "hidden": 0,
    "description": "Find the sacred sword",
    "icon": "https://steamcdn-a.akamaihd.net/steamcommunity/public/images/apps/433480/91ac316eb406246fae95b9cb332b6b288776274f.jpg",
    "icongray": "https://steamcdn-a.akamaihd.net/steamcommunity/public/images/apps/433480/c84de9c0392be90d3885b557c3ce182688f9f26e.jpg"
  },
  {
    "name": "ACH_GoblinCube",
    "defaultvalue": 0,
    "displayName": "Goblin x Goblin x Goblin",
    "hidden": 0,
    "description": "Bring the furnace the resource it deseres and not what it needs",
    "icon": "https://steamcdn-a.akamaihd.net/steamcommunity/public/images/apps/433480/5ca5bf14591e4bc059118910d21004630ab6b80c.jpg",
    "icongray": "https://steamcdn-a.akamaihd.net/steamcommunity/public/images/apps/433480/9c6c8e9f1acf2e9133e6eef3fd7aa51f1f59445b.jpg"
  },
  {
    "name": "ACH_BadTaste",
    "defaultvalue": 0,
    "displayName": "Keep it Flowing Cowboy",
    "hidden": 0,
    "description": "Pour A Drink For Champs",
    "icon": "https://steamcdn-a.akamaihd.net/steamcommunity/public/images/apps/433480/f4d9bacbd7865691c3da73a8850fc3d9fa1619d4.jpg",
    "icongray": "https://steamcdn-a.akamaihd.net/steamcommunity/public/images/apps/433480/0edd531a52b901a5d77a6c9830ef8e211d97c863.jpg"
  },
  {
    "name": "ACH_Dinner4One",
    "defaultvalue": 0,
    "displayName": "Same procedure as every year james",
    "hidden": 0,
    "description": "This One Is Classy",
    "icon": "https://steamcdn-a.akamaihd.net/steamcommunity/public/images/apps/433480/841dc6169a5c25a79ffdece3704b599aca8438a4.jpg",
    "icongray": "https://steamcdn-a.akamaihd.net/steamcommunity/public/images/apps/433480/d13869dbcfd00fcb55833c22b483bcdeb1e54ced.jpg"
  }
]