﻿[
  {
    "name": "onirim.finish.tutorial",
    "defaultvalue": 0,
    "displayName": "Let's dream!",
    "hidden": 0,
    "description": "Complete the tutorial.",
    "icon": "https://steamcdn-a.akamaihd.net/steamcommunity/public/images/apps/651470/cb7bbec22c576abec53a01bdfc46dba10ea7d524.jpg",
    "icongray": "https://steamcdn-a.akamaihd.net/steamcommunity/public/images/apps/651470/8b1a4e653863a8511aad90c724bb2536492ff229.jpg"
  },
  {
    "name": "onirim.win.game",
    "defaultvalue": 0,
    "displayName": "Wake Up",
    "hidden": 0,
    "description": "Win your first game",
    "icon": "https://steamcdn-a.akamaihd.net/steamcommunity/public/images/apps/651470/cb7bbec22c576abec53a01bdfc46dba10ea7d524.jpg",
    "icongray": "https://steamcdn-a.akamaihd.net/steamcommunity/public/images/apps/651470/8b1a4e653863a8511aad90c724bb2536492ff229.jpg"
  },
  {
    "name": "onirim.win.games.lvl1",
    "defaultvalue": 0,
    "displayName": "Trained Dreamer",
    "hidden": 0,
    "description": "Win 10 games.",
    "icon": "https://steamcdn-a.akamaihd.net/steamcommunity/public/images/apps/651470/cb7bbec22c576abec53a01bdfc46dba10ea7d524.jpg",
    "icongray": "https://steamcdn-a.akamaihd.net/steamcommunity/public/images/apps/651470/8b1a4e653863a8511aad90c724bb2536492ff229.jpg"
  },
  {
    "name": "onirim.win.games.lvl2",
    "defaultvalue": 0,
    "displayName": "Lucid Dreamer",
    "hidden": 0,
    "description": "Win 35 games.",
    "icon": "https://steamcdn-a.akamaihd.net/steamcommunity/public/images/apps/651470/cb7bbec22c576abec53a01bdfc46dba10ea7d524.jpg",
    "icongray": "https://steamcdn-a.akamaihd.net/steamcommunity/public/images/apps/651470/8b1a4e653863a8511aad90c724bb2536492ff229.jpg"
  },
  {
    "name": "onirim.win.games.lvl3",
    "defaultvalue": 0,
    "displayName": "Master of Dreams",
    "hidden": 0,
    "description": "Win 80 games.",
    "icon": "https://steamcdn-a.akamaihd.net/steamcommunity/public/images/apps/651470/cb7bbec22c576abec53a01bdfc46dba10ea7d524.jpg",
    "icongray": "https://steamcdn-a.akamaihd.net/steamcommunity/public/images/apps/651470/8b1a4e653863a8511aad90c724bb2536492ff229.jpg"
  },
  {
    "name": "onirim.lose",
    "defaultvalue": 0,
    "displayName": "Consolation Prize",
    "hidden": 0,
    "description": "Lose 100 games.",
    "icon": "https://steamcdn-a.akamaihd.net/steamcommunity/public/images/apps/651470/cb7bbec22c576abec53a01bdfc46dba10ea7d524.jpg",
    "icongray": "https://steamcdn-a.akamaihd.net/steamcommunity/public/images/apps/651470/8b1a4e653863a8511aad90c724bb2536492ff229.jpg"
  },
  {
    "name": "onirim.highscore",
    "defaultvalue": 0,
    "displayName": "Recurring Dream",
    "hidden": 0,
    "description": "Beat your previous high score.",
    "icon": "https://steamcdn-a.akamaihd.net/steamcommunity/public/images/apps/651470/cb7bbec22c576abec53a01bdfc46dba10ea7d524.jpg",
    "icongray": "https://steamcdn-a.akamaihd.net/steamcommunity/public/images/apps/651470/8b1a4e653863a8511aad90c724bb2536492ff229.jpg"
  },
  {
    "name": "onirim.score.lvl1",
    "defaultvalue": 0,
    "displayName": "Elite Dreamer",
    "hidden": 0,
    "description": "Win the game reaching score of 6000.",
    "icon": "https://steamcdn-a.akamaihd.net/steamcommunity/public/images/apps/651470/cb7bbec22c576abec53a01bdfc46dba10ea7d524.jpg",
    "icongray": "https://steamcdn-a.akamaihd.net/steamcommunity/public/images/apps/651470/8b1a4e653863a8511aad90c724bb2536492ff229.jpg"
  },
  {
    "name": "onirim.score.lvl2",
    "defaultvalue": 0,
    "displayName": "Famous Dreamer",
    "hidden": 0,
    "description": "Win the game reaching score of 7000.",
    "icon": "https://steamcdn-a.akamaihd.net/steamcommunity/public/images/apps/651470/cb7bbec22c576abec53a01bdfc46dba10ea7d524.jpg",
    "icongray": "https://steamcdn-a.akamaihd.net/steamcommunity/public/images/apps/651470/8b1a4e653863a8511aad90c724bb2536492ff229.jpg"
  },
  {
    "name": "onirim.score.lvl3",
    "defaultvalue": 0,
    "displayName": "Legendary Dreamer",
    "hidden": 0,
    "description": "Win the game reaching score of 8000.",
    "icon": "https://steamcdn-a.akamaihd.net/steamcommunity/public/images/apps/651470/cb7bbec22c576abec53a01bdfc46dba10ea7d524.jpg",
    "icongray": "https://steamcdn-a.akamaihd.net/steamcommunity/public/images/apps/651470/8b1a4e653863a8511aad90c724bb2536492ff229.jpg"
  },
  {
    "name": "onirim.combo",
    "defaultvalue": 0,
    "displayName": "Dream Cycle",
    "hidden": 0,
    "description": "Chain 3 sequences of cards in a row.",
    "icon": "https://steamcdn-a.akamaihd.net/steamcommunity/public/images/apps/651470/cb7bbec22c576abec53a01bdfc46dba10ea7d524.jpg",
    "icongray": "https://steamcdn-a.akamaihd.net/steamcommunity/public/images/apps/651470/8b1a4e653863a8511aad90c724bb2536492ff229.jpg"
  },
  {
    "name": "onirim.color.combo",
    "defaultvalue": 0,
    "displayName": "Colorful Dreams",
    "hidden": 0,
    "description": "Chain 2 sequences of cards of the same color in a row.",
    "icon": "https://steamcdn-a.akamaihd.net/steamcommunity/public/images/apps/651470/cb7bbec22c576abec53a01bdfc46dba10ea7d524.jpg",
    "icongray": "https://steamcdn-a.akamaihd.net/steamcommunity/public/images/apps/651470/8b1a4e653863a8511aad90c724bb2536492ff229.jpg"
  },
  {
    "name": "onirim.nightmare.ways",
    "defaultvalue": 0,
    "displayName": "I've Seen It All",
    "hidden": 0,
    "description": "Win a game after resolving nightmares in all possible ways.",
    "icon": "https://steamcdn-a.akamaihd.net/steamcommunity/public/images/apps/651470/cb7bbec22c576abec53a01bdfc46dba10ea7d524.jpg",
    "icongray": "https://steamcdn-a.akamaihd.net/steamcommunity/public/images/apps/651470/8b1a4e653863a8511aad90c724bb2536492ff229.jpg"
  },
  {
    "name": "onirim.trigger.nightmares",
    "defaultvalue": 0,
    "displayName": "Paradoxical Sleep",
    "hidden": 0,
    "description": "Win a game with 10 or more Nightmares triggered.",
    "icon": "https://steamcdn-a.akamaihd.net/steamcommunity/public/images/apps/651470/cb7bbec22c576abec53a01bdfc46dba10ea7d524.jpg",
    "icongray": "https://steamcdn-a.akamaihd.net/steamcommunity/public/images/apps/651470/8b1a4e653863a8511aad90c724bb2536492ff229.jpg"
  },
  {
    "name": "onirim.all.red.doors",
    "defaultvalue": 0,
    "displayName": "A Red-Letter Night",
    "hidden": 0,
    "description": "Win a game where you unlock all red doors before any others.",
    "icon": "https://steamcdn-a.akamaihd.net/steamcommunity/public/images/apps/651470/cb7bbec22c576abec53a01bdfc46dba10ea7d524.jpg",
    "icongray": "https://steamcdn-a.akamaihd.net/steamcommunity/public/images/apps/651470/8b1a4e653863a8511aad90c724bb2536492ff229.jpg"
  },
  {
    "name": "onirim.all.green.doors",
    "defaultvalue": 0,
    "displayName": "Have a Green Thumb",
    "hidden": 0,
    "description": "Win a game where you unlock all green doors before any others.",
    "icon": "https://steamcdn-a.akamaihd.net/steamcommunity/public/images/apps/651470/cb7bbec22c576abec53a01bdfc46dba10ea7d524.jpg",
    "icongray": "https://steamcdn-a.akamaihd.net/steamcommunity/public/images/apps/651470/8b1a4e653863a8511aad90c724bb2536492ff229.jpg"
  },
  {
    "name": "onirim.all.blue.doors",
    "defaultvalue": 0,
    "displayName": "Once in a Blue Moon",
    "hidden": 0,
    "description": "Win a game where you unlock all blue doors before any others.",
    "icon": "https://steamcdn-a.akamaihd.net/steamcommunity/public/images/apps/651470/cb7bbec22c576abec53a01bdfc46dba10ea7d524.jpg",
    "icongray": "https://steamcdn-a.akamaihd.net/steamcommunity/public/images/apps/651470/8b1a4e653863a8511aad90c724bb2536492ff229.jpg"
  },
  {
    "name": "onirim.all.brown.doors",
    "defaultvalue": 0,
    "displayName": "Like an Open Book",
    "hidden": 0,
    "description": "Win a game where you unlock all brown doors before any others.",
    "icon": "https://steamcdn-a.akamaihd.net/steamcommunity/public/images/apps/651470/cb7bbec22c576abec53a01bdfc46dba10ea7d524.jpg",
    "icongray": "https://steamcdn-a.akamaihd.net/steamcommunity/public/images/apps/651470/8b1a4e653863a8511aad90c724bb2536492ff229.jpg"
  },
  {
    "name": "onirim.all.colors.first",
    "defaultvalue": 0,
    "displayName": "Golden Pot at the End of the Rainbow",
    "hidden": 0,
    "description": "Win a game after unlocking only one door of each color first.",
    "icon": "https://steamcdn-a.akamaihd.net/steamcommunity/public/images/apps/651470/cb7bbec22c576abec53a01bdfc46dba10ea7d524.jpg",
    "icongray": "https://steamcdn-a.akamaihd.net/steamcommunity/public/images/apps/651470/8b1a4e653863a8511aad90c724bb2536492ff229.jpg"
  },
  {
    "name": "onirim.spare.cards",
    "defaultvalue": 0,
    "displayName": "Take a Little Nap...",
    "hidden": 0,
    "description": "Win a game with 15 cards or more in the deck.",
    "icon": "https://steamcdn-a.akamaihd.net/steamcommunity/public/images/apps/651470/cb7bbec22c576abec53a01bdfc46dba10ea7d524.jpg",
    "icongray": "https://steamcdn-a.akamaihd.net/steamcommunity/public/images/apps/651470/8b1a4e653863a8511aad90c724bb2536492ff229.jpg"
  },
  {
    "name": "onirim.resolve.only.doors",
    "defaultvalue": 0,
    "displayName": "Gatekeeper",
    "hidden": 0,
    "description": "Win a game where you use only Doors to resolve Nightmares.",
    "icon": "https://steamcdn-a.akamaihd.net/steamcommunity/public/images/apps/651470/cb7bbec22c576abec53a01bdfc46dba10ea7d524.jpg",
    "icongray": "https://steamcdn-a.akamaihd.net/steamcommunity/public/images/apps/651470/8b1a4e653863a8511aad90c724bb2536492ff229.jpg"
  },
  {
    "name": "onirim.sequences.only",
    "defaultvalue": 0,
    "displayName": "Dream Runner",
    "hidden": 0,
    "description": "Unlock all the doors only by matching sequences of cards.",
    "icon": "https://steamcdn-a.akamaihd.net/steamcommunity/public/images/apps/651470/cb7bbec22c576abec53a01bdfc46dba10ea7d524.jpg",
    "icongray": "https://steamcdn-a.akamaihd.net/steamcommunity/public/images/apps/651470/8b1a4e653863a8511aad90c724bb2536492ff229.jpg"
  },
  {
    "name": "onirim.keys.only",
    "defaultvalue": 0,
    "displayName": "Picklock",
    "hidden": 0,
    "description": "Unlock all the doors using only keys.",
    "icon": "https://steamcdn-a.akamaihd.net/steamcommunity/public/images/apps/651470/cb7bbec22c576abec53a01bdfc46dba10ea7d524.jpg",
    "icongray": "https://steamcdn-a.akamaihd.net/steamcommunity/public/images/apps/651470/8b1a4e653863a8511aad90c724bb2536492ff229.jpg"
  },
  {
    "name": "onirim.few.nightmares",
    "defaultvalue": 0,
    "displayName": "Sweet Dreams",
    "hidden": 0,
    "description": "Win a game without triggering more than 5 Nightmares.",
    "icon": "https://steamcdn-a.akamaihd.net/steamcommunity/public/images/apps/651470/cb7bbec22c576abec53a01bdfc46dba10ea7d524.jpg",
    "icongray": "https://steamcdn-a.akamaihd.net/steamcommunity/public/images/apps/651470/8b1a4e653863a8511aad90c724bb2536492ff229.jpg"
  },
  {
    "name": "onirim.no.nightmares",
    "defaultvalue": 0,
    "displayName": "I'm in Dreamland!",
    "hidden": 0,
    "description": "Win a game without any Nightmares triggered.",
    "icon": "https://steamcdn-a.akamaihd.net/steamcommunity/public/images/apps/651470/cb7bbec22c576abec53a01bdfc46dba10ea7d524.jpg",
    "icongray": "https://steamcdn-a.akamaihd.net/steamcommunity/public/images/apps/651470/8b1a4e653863a8511aad90c724bb2536492ff229.jpg"
  },
  {
    "name": "onirim.full.combo",
    "defaultvalue": 0,
    "displayName": "Flawless Design",
    "hidden": 0,
    "description": "Win a game without any non-matched cards in the labyrinth.",
    "icon": "https://steamcdn-a.akamaihd.net/steamcommunity/public/images/apps/651470/cb7bbec22c576abec53a01bdfc46dba10ea7d524.jpg",
    "icongray": "https://steamcdn-a.akamaihd.net/steamcommunity/public/images/apps/651470/8b1a4e653863a8511aad90c724bb2536492ff229.jpg"
  },
  {
    "name": "onirim.few.cards.fed",
    "defaultvalue": 0,
    "displayName": "Starve Your Fears",
    "hidden": 0,
    "description": "Win a game while feeding no more than 12 cards to Nightmares.",
    "icon": "https://steamcdn-a.akamaihd.net/steamcommunity/public/images/apps/651470/cb7bbec22c576abec53a01bdfc46dba10ea7d524.jpg",
    "icongray": "https://steamcdn-a.akamaihd.net/steamcommunity/public/images/apps/651470/8b1a4e653863a8511aad90c724bb2536492ff229.jpg"
  },
  {
    "name": "onirim.feed.many.cards",
    "defaultvalue": 0,
    "displayName": "Nightmare Fuel",
    "hidden": 0,
    "description": "Win a game while feeding over 36 cards to nightmares.",
    "icon": "https://steamcdn-a.akamaihd.net/steamcommunity/public/images/apps/651470/cb7bbec22c576abec53a01bdfc46dba10ea7d524.jpg",
    "icongray": "https://steamcdn-a.akamaihd.net/steamcommunity/public/images/apps/651470/8b1a4e653863a8511aad90c724bb2536492ff229.jpg"
  },
  {
    "name": "onirim.no.discards",
    "defaultvalue": 0,
    "displayName": "Acceptance",
    "hidden": 0,
    "description": "Win a game without manually discarding any location cards.",
    "icon": "https://steamcdn-a.akamaihd.net/steamcommunity/public/images/apps/651470/cb7bbec22c576abec53a01bdfc46dba10ea7d524.jpg",
    "icongray": "https://steamcdn-a.akamaihd.net/steamcommunity/public/images/apps/651470/8b1a4e653863a8511aad90c724bb2536492ff229.jpg"
  },
  {
    "name": "onirim.incantation",
    "defaultvalue": 0,
    "displayName": "Incantation Adept",
    "hidden": 0,
    "description": "Unlock a door using an incantation.",
    "icon": "https://steamcdn-a.akamaihd.net/steamcommunity/public/images/apps/651470/cb7bbec22c576abec53a01bdfc46dba10ea7d524.jpg",
    "icongray": "https://steamcdn-a.akamaihd.net/steamcommunity/public/images/apps/651470/8b1a4e653863a8511aad90c724bb2536492ff229.jpg"
  },
  {
    "name": "onirim.farm.prophecies.incantations",
    "defaultvalue": 0,
    "displayName": "Conjurer",
    "hidden": 0,
    "description": "Trigger 100 prohecies and incantations.",
    "icon": "https://steamcdn-a.akamaihd.net/steamcommunity/public/images/apps/651470/cb7bbec22c576abec53a01bdfc46dba10ea7d524.jpg",
    "icongray": "https://steamcdn-a.akamaihd.net/steamcommunity/public/images/apps/651470/8b1a4e653863a8511aad90c724bb2536492ff229.jpg"
  },
  {
    "name": "onirim.no.glyphs",
    "defaultvalue": 0,
    "displayName": "Glyph Keeper",
    "hidden": 0,
    "description": "Win the Glyphs game without triggering any incantations.",
    "icon": "https://steamcdn-a.akamaihd.net/steamcommunity/public/images/apps/651470/cb7bbec22c576abec53a01bdfc46dba10ea7d524.jpg",
    "icongray": "https://steamcdn-a.akamaihd.net/steamcommunity/public/images/apps/651470/8b1a4e653863a8511aad90c724bb2536492ff229.jpg"
  },
  {
    "name": "onirim.play.all.glyphs",
    "defaultvalue": 0,
    "displayName": "Graffiti Master",
    "hidden": 0,
    "description": "Win the game after putting all the glyphs in the deck in the labyrinth.",
    "icon": "https://steamcdn-a.akamaihd.net/steamcommunity/public/images/apps/651470/cb7bbec22c576abec53a01bdfc46dba10ea7d524.jpg",
    "icongray": "https://steamcdn-a.akamaihd.net/steamcommunity/public/images/apps/651470/8b1a4e653863a8511aad90c724bb2536492ff229.jpg"
  },
  {
    "name": "onirim.no.sun.or.moon",
    "defaultvalue": 0,
    "displayName": "Weird Place",
    "hidden": 0,
    "description": "Make a match of 3 cards without using any Sun and Moon cards.",
    "icon": "https://steamcdn-a.akamaihd.net/steamcommunity/public/images/apps/651470/cb7bbec22c576abec53a01bdfc46dba10ea7d524.jpg",
    "icongray": "https://steamcdn-a.akamaihd.net/steamcommunity/public/images/apps/651470/8b1a4e653863a8511aad90c724bb2536492ff229.jpg"
  },
  {
    "name": "onirim.win.intersection",
    "defaultvalue": 0,
    "displayName": "Didn't Cross Your Mind",
    "hidden": 0,
    "description": "Win the Crossroads and Dead Ends game with intersections variant enabled.",
    "icon": "https://steamcdn-a.akamaihd.net/steamcommunity/public/images/apps/651470/cb7bbec22c576abec53a01bdfc46dba10ea7d524.jpg",
    "icongray": "https://steamcdn-a.akamaihd.net/steamcommunity/public/images/apps/651470/8b1a4e653863a8511aad90c724bb2536492ff229.jpg"
  },
  {
    "name": "onirim.crossroad.key",
    "defaultvalue": 0,
    "displayName": "Master Key",
    "hidden": 0,
    "description": "Unlock a door with the crossroad key.",
    "icon": "https://steamcdn-a.akamaihd.net/steamcommunity/public/images/apps/651470/cb7bbec22c576abec53a01bdfc46dba10ea7d524.jpg",
    "icongray": "https://steamcdn-a.akamaihd.net/steamcommunity/public/images/apps/651470/8b1a4e653863a8511aad90c724bb2536492ff229.jpg"
  },
  {
    "name": "onirim.discard.nightmares.dead.ends",
    "defaultvalue": 0,
    "displayName": "Steamroller of Progress",
    "hidden": 0,
    "description": "Win the Crossroads and Dead Ends game after discarding or resolving all dead ends and nightmares in the deck.",
    "icon": "https://steamcdn-a.akamaihd.net/steamcommunity/public/images/apps/651470/cb7bbec22c576abec53a01bdfc46dba10ea7d524.jpg",
    "icongray": "https://steamcdn-a.akamaihd.net/steamcommunity/public/images/apps/651470/8b1a4e653863a8511aad90c724bb2536492ff229.jpg"
  },
  {
    "name": "onirim.no.escape",
    "defaultvalue": 0,
    "displayName": "No Escape",
    "hidden": 0,
    "description": "Win the Crossroads and Dead Ends game without triggering Escape even once.",
    "icon": "https://steamcdn-a.akamaihd.net/steamcommunity/public/images/apps/651470/cb7bbec22c576abec53a01bdfc46dba10ea7d524.jpg",
    "icongray": "https://steamcdn-a.akamaihd.net/steamcommunity/public/images/apps/651470/8b1a4e653863a8511aad90c724bb2536492ff229.jpg"
  },
  {
    "name": "onirim.escape.5.dead.ends",
    "defaultvalue": 0,
    "displayName": "Great Escape",
    "hidden": 0,
    "description": "Trigger Escape to get rid of 5 dead ends at once.",
    "icon": "https://steamcdn-a.akamaihd.net/steamcommunity/public/images/apps/651470/cb7bbec22c576abec53a01bdfc46dba10ea7d524.jpg",
    "icongray": "https://steamcdn-a.akamaihd.net/steamcommunity/public/images/apps/651470/8b1a4e653863a8511aad90c724bb2536492ff229.jpg"
  },
  {
    "name": "onirim.sequence.of.crossroads",
    "defaultvalue": 0,
    "displayName": "Endless Possibilities",
    "hidden": 0,
    "description": "Unlock a door using 3 crossroad cards.",
    "icon": "https://steamcdn-a.akamaihd.net/steamcommunity/public/images/apps/651470/cb7bbec22c576abec53a01bdfc46dba10ea7d524.jpg",
    "icongray": "https://steamcdn-a.akamaihd.net/steamcommunity/public/images/apps/651470/8b1a4e653863a8511aad90c724bb2536492ff229.jpg"
  },
  {
    "name": "onirim.all.dead.ends.escaped",
    "defaultvalue": 0,
    "displayName": "Chasing Dreams",
    "hidden": 0,
    "description": "Discard all dead ends in the deck only by triggering Escape.",
    "icon": "https://steamcdn-a.akamaihd.net/steamcommunity/public/images/apps/651470/cb7bbec22c576abec53a01bdfc46dba10ea7d524.jpg",
    "icongray": "https://steamcdn-a.akamaihd.net/steamcommunity/public/images/apps/651470/8b1a4e653863a8511aad90c724bb2536492ff229.jpg"
  },
  {
    "name": "onirim.dead.ends.to.nightmare",
    "defaultvalue": 0,
    "displayName": "Fight Fire with Fire",
    "hidden": 0,
    "description": "Feed 4 dead ends cards to nightmare.",
    "icon": "https://steamcdn-a.akamaihd.net/steamcommunity/public/images/apps/651470/cb7bbec22c576abec53a01bdfc46dba10ea7d524.jpg",
    "icongray": "https://steamcdn-a.akamaihd.net/steamcommunity/public/images/apps/651470/8b1a4e653863a8511aad90c724bb2536492ff229.jpg"
  },
  {
    "name": "onirim.next.nightmare",
    "defaultvalue": 0,
    "displayName": "Bring It On",
    "hidden": 0,
    "description": "Win a game after setting nightmare to be the next card in the deck using prophecy or squirrel spies.",
    "icon": "https://steamcdn-a.akamaihd.net/steamcommunity/public/images/apps/651470/cb7bbec22c576abec53a01bdfc46dba10ea7d524.jpg",
    "icongray": "https://steamcdn-a.akamaihd.net/steamcommunity/public/images/apps/651470/8b1a4e653863a8511aad90c724bb2536492ff229.jpg"
  },
  {
    "name": "onirim.chromatic.on.drawn",
    "defaultvalue": 0,
    "displayName": "Chromatic Abberation",
    "hidden": 0,
    "description": "Use the chromatic chaos on the drawn door to immediately unlock it with a key.",
    "icon": "https://steamcdn-a.akamaihd.net/steamcommunity/public/images/apps/651470/cb7bbec22c576abec53a01bdfc46dba10ea7d524.jpg",
    "icongray": "https://steamcdn-a.akamaihd.net/steamcommunity/public/images/apps/651470/8b1a4e653863a8511aad90c724bb2536492ff229.jpg"
  },
  {
    "name": "onirim.all.denizens",
    "defaultvalue": 0,
    "displayName": "Dream Team",
    "hidden": 0,
    "description": "Rally and use each unique denizen at least once.",
    "icon": "https://steamcdn-a.akamaihd.net/steamcommunity/public/images/apps/651470/cb7bbec22c576abec53a01bdfc46dba10ea7d524.jpg",
    "icongray": "https://steamcdn-a.akamaihd.net/steamcommunity/public/images/apps/651470/8b1a4e653863a8511aad90c724bb2536492ff229.jpg"
  },
  {
    "name": "onirim.max.denizens",
    "defaultvalue": 0,
    "displayName": "Levy in Mass",
    "hidden": 0,
    "description": "Win the game after rallying 8 denizens.",
    "icon": "https://steamcdn-a.akamaihd.net/steamcommunity/public/images/apps/651470/cb7bbec22c576abec53a01bdfc46dba10ea7d524.jpg",
    "icongray": "https://steamcdn-a.akamaihd.net/steamcommunity/public/images/apps/651470/8b1a4e653863a8511aad90c724bb2536492ff229.jpg"
  },
  {
    "name": "onirim.recycle.last",
    "defaultvalue": 0,
    "displayName": "Last of its Kind",
    "hidden": 0,
    "description": "After discarding all cards of the kind, use the Cyclobot to get one of them back.",
    "icon": "https://steamcdn-a.akamaihd.net/steamcommunity/public/images/apps/651470/cb7bbec22c576abec53a01bdfc46dba10ea7d524.jpg",
    "icongray": "https://steamcdn-a.akamaihd.net/steamcommunity/public/images/apps/651470/8b1a4e653863a8511aad90c724bb2536492ff229.jpg"
  },
  {
    "name": "onirim.keep.key",
    "defaultvalue": 0,
    "displayName": "Key Keeper",
    "hidden": 0,
    "description": "Open a door with a key kept by the Treasure Keeper.",
    "icon": "https://steamcdn-a.akamaihd.net/steamcommunity/public/images/apps/651470/cb7bbec22c576abec53a01bdfc46dba10ea7d524.jpg",
    "icongray": "https://steamcdn-a.akamaihd.net/steamcommunity/public/images/apps/651470/8b1a4e653863a8511aad90c724bb2536492ff229.jpg"
  },
  {
    "name": "onirim.hammer.cards",
    "defaultvalue": 0,
    "displayName": "Hammer Time",
    "hidden": 0,
    "description": "Discard at least 5 cards in a row using the Hammer Bird.",
    "icon": "https://steamcdn-a.akamaihd.net/steamcommunity/public/images/apps/651470/cb7bbec22c576abec53a01bdfc46dba10ea7d524.jpg",
    "icongray": "https://steamcdn-a.akamaihd.net/steamcommunity/public/images/apps/651470/8b1a4e653863a8511aad90c724bb2536492ff229.jpg"
  },
  {
    "name": "onirim.treasure.used.after.time",
    "defaultvalue": 0,
    "displayName": "Long Term Investment",
    "hidden": 0,
    "description": "Play the card kept with the Treasure Keeper after at least 20 turns.",
    "icon": "https://steamcdn-a.akamaihd.net/steamcommunity/public/images/apps/651470/cb7bbec22c576abec53a01bdfc46dba10ea7d524.jpg",
    "icongray": "https://steamcdn-a.akamaihd.net/steamcommunity/public/images/apps/651470/8b1a4e653863a8511aad90c724bb2536492ff229.jpg"
  },
  {
    "name": "onirim.no.rallies",
    "defaultvalue": 0,
    "displayName": "Loner",
    "hidden": 0,
    "description": "Win the Door to the Oniverse game without rallying any denizens.",
    "icon": "https://steamcdn-a.akamaihd.net/steamcommunity/public/images/apps/651470/cb7bbec22c576abec53a01bdfc46dba10ea7d524.jpg",
    "icongray": "https://steamcdn-a.akamaihd.net/steamcommunity/public/images/apps/651470/8b1a4e653863a8511aad90c724bb2536492ff229.jpg"
  },
  {
    "name": "onirim.last.nightmare.harpooned",
    "defaultvalue": 0,
    "displayName": "Moby Dick",
    "hidden": 0,
    "description": "Discard the last nightmare in the deck with the Harpoon Hunter.",
    "icon": "https://steamcdn-a.akamaihd.net/steamcommunity/public/images/apps/651470/cb7bbec22c576abec53a01bdfc46dba10ea7d524.jpg",
    "icongray": "https://steamcdn-a.akamaihd.net/steamcommunity/public/images/apps/651470/8b1a4e653863a8511aad90c724bb2536492ff229.jpg"
  },
  {
    "name": "onirim.nightmares.harpooned",
    "defaultvalue": 0,
    "displayName": "Big Game Hunter",
    "hidden": 0,
    "description": "Discard at least 3 nightmares with a single the Harpoon Hunter.",
    "icon": "https://steamcdn-a.akamaihd.net/steamcommunity/public/images/apps/651470/cb7bbec22c576abec53a01bdfc46dba10ea7d524.jpg",
    "icongray": "https://steamcdn-a.akamaihd.net/steamcommunity/public/images/apps/651470/8b1a4e653863a8511aad90c724bb2536492ff229.jpg"
  },
  {
    "name": "onirim.three.same",
    "defaultvalue": 0,
    "displayName": "Jackpot",
    "hidden": 0,
    "description": "Create a sequence of 3 cards of the same symbol by using the Architect.",
    "icon": "https://steamcdn-a.akamaihd.net/steamcommunity/public/images/apps/651470/cb7bbec22c576abec53a01bdfc46dba10ea7d524.jpg",
    "icongray": "https://steamcdn-a.akamaihd.net/steamcommunity/public/images/apps/651470/8b1a4e653863a8511aad90c724bb2536492ff229.jpg"
  },
  {
    "name": "onirim.two.treasures.used",
    "defaultvalue": 0,
    "displayName": "Flooding the Market",
    "hidden": 0,
    "description": "Play two cards from two Treasure Keepers in a row.",
    "icon": "https://steamcdn-a.akamaihd.net/steamcommunity/public/images/apps/651470/cb7bbec22c576abec53a01bdfc46dba10ea7d524.jpg",
    "icongray": "https://steamcdn-a.akamaihd.net/steamcommunity/public/images/apps/651470/8b1a4e653863a8511aad90c724bb2536492ff229.jpg"
  },
  {
    "name": "onirim.recycle.crossroad.key",
    "defaultvalue": 0,
    "displayName": "Ancient Artifact",
    "hidden": 0,
    "description": "Use the Cyclobot to regain discarded crossroad key.",
    "icon": "https://steamcdn-a.akamaihd.net/steamcommunity/public/images/apps/651470/cb7bbec22c576abec53a01bdfc46dba10ea7d524.jpg",
    "icongray": "https://steamcdn-a.akamaihd.net/steamcommunity/public/images/apps/651470/8b1a4e653863a8511aad90c724bb2536492ff229.jpg"
  },
  {
    "name": "onirim.crossroad.key.door",
    "defaultvalue": 0,
    "displayName": "Kaleidoscope",
    "hidden": 0,
    "description": "Unlock Door to the Oniverse with the Crossroad key.",
    "icon": "https://steamcdn-a.akamaihd.net/steamcommunity/public/images/apps/651470/cb7bbec22c576abec53a01bdfc46dba10ea7d524.jpg",
    "icongray": "https://steamcdn-a.akamaihd.net/steamcommunity/public/images/apps/651470/8b1a4e653863a8511aad90c724bb2536492ff229.jpg"
  },
  {
    "name": "onirim.incantation.oniverse",
    "defaultvalue": 0,
    "displayName": "Portal to the Oniverse",
    "hidden": 0,
    "description": "Unlock Door to the Oniverse using incantation.",
    "icon": "https://steamcdn-a.akamaihd.net/steamcommunity/public/images/apps/651470/cb7bbec22c576abec53a01bdfc46dba10ea7d524.jpg",
    "icongray": "https://steamcdn-a.akamaihd.net/steamcommunity/public/images/apps/651470/8b1a4e653863a8511aad90c724bb2536492ff229.jpg"
  }
]