﻿[
  {
    "name": "onirim.win.games.lvl1.stat",
    "defaultvalue": 0,
    "displayName": ""
  },
  {
    "name": "onirim.win.games.lvl2.stat",
    "defaultvalue": 0,
    "displayName": ""
  },
  {
    "name": "onirim.win.games.lvl3.stat",
    "defaultvalue": 0,
    "displayName": ""
  },
  {
    "name": "onirim.lose.stat",
    "defaultvalue": 0,
    "displayName": ""
  },
  {
    "name": "onirim.farm.prophecies.incantations.stat",
    "defaultvalue": 0,
    "displayName": ""
  }
]