﻿{
  "Dlcs": {},
  "Name": "Cursed",
  "AppId": "431260",
  "ImageUrl": "https://steamcdn-a.akamaihd.net/steam/apps/431260/header.jpg?t=1482755001",
  "Languages": [
    "english",
    "russian",
    "czech"
  ],
  "Platforms": {
    "windows": true,
    "mac": false,
    "linux": true
  }
}