﻿{
  "Dlcs": {
    "407400": {
      "Name": "The Juicer - Free Official Soundtrack",
      "ImageUrl": "https://steamcdn-a.akamaihd.net/steam/apps/407400/header.jpg?t=1478024500"
    }
  },
  "Name": "The Juicer",
  "AppId": "400790",
  "ImageUrl": "https://steamcdn-a.akamaihd.net/steam/apps/400790/header.jpg?t=1585698146",
  "Languages": [
    "english"
  ],
  "Platforms": {
    "windows": true,
    "mac": false,
    "linux": false
  }
}