﻿[
  {
    "name": "AR_QUEST_ID_262",
    "defaultvalue": 0,
    "displayName": "Make It Rain Missiles",
    "hidden": 0,
    "description": "Deal more than 200 damage with Missile Storm in a game as Zuki.",
    "icon": "https://steamcdn-a.akamaihd.net/steamcommunity/public/images/apps/402570/ad5be2d8d993939f7fd0d8fa50a2b1492039252e.jpg",
    "icongray": "https://steamcdn-a.akamaihd.net/steamcommunity/public/images/apps/402570/3d35aa5ad47890d8773d4aa313f4dca278bb55f1.jpg"
  },
  {
    "name": "AR_QUEST_ID_263",
    "defaultvalue": 0,
    "displayName": "The Artful Dodger",
    "hidden": 0,
    "description": "Dodge 150 damage and deal 500 damage in one game as Oz",
    "icon": "https://steamcdn-a.akamaihd.net/steamcommunity/public/images/apps/402570/350bc43bd797d79e58b5e3b4aaae6a5726b1e9f2.jpg",
    "icongray": "https://steamcdn-a.akamaihd.net/steamcommunity/public/images/apps/402570/0ae11fad0fa9be44a0258efbd1aa36465669e4c5.jpg"
  },
  {
    "name": "AR_QUEST_ID_264",
    "defaultvalue": 0,
    "displayName": "Rebel With a Cause",
    "hidden": 0,
    "description": "Deal 200 damage with Run and Gun in one game as Lockwood",
    "icon": "https://steamcdn-a.akamaihd.net/steamcommunity/public/images/apps/402570/1e9e428dc274068a75eec66125ac5b074ae58970.jpg",
    "icongray": "https://steamcdn-a.akamaihd.net/steamcommunity/public/images/apps/402570/0e8a556a8ebdc1254d10e5732336006ea3f6ecac.jpg"
  },
  {
    "name": "AR_QUEST_ID_265",
    "defaultvalue": 0,
    "displayName": "The Only Way To Be Sure",
    "hidden": 0,
    "description": "Deal 200 damage with Scorched Earth in one game as Blackburn",
    "icon": "https://steamcdn-a.akamaihd.net/steamcommunity/public/images/apps/402570/7a93aa12e554221424c7ec6b11fd82b59f7ba530.jpg",
    "icongray": "https://steamcdn-a.akamaihd.net/steamcommunity/public/images/apps/402570/fccefe75decf24fc0c18d3f1dc2154349917c629.jpg"
  },
  {
    "name": "AR_QUEST_ID_266",
    "defaultvalue": 0,
    "displayName": "Master of Mayhem",
    "hidden": 0,
    "description": "Deal 200 damage with Maniacal Mayhem in one game as Gremolitions Inc",
    "icon": "https://steamcdn-a.akamaihd.net/steamcommunity/public/images/apps/402570/4785f6c2571bf033caddbb1bc18e0c8044738515.jpg",
    "icongray": "https://steamcdn-a.akamaihd.net/steamcommunity/public/images/apps/402570/8cfe7247fc70170478d468db873a5bee987152c2.jpg"
  },
  {
    "name": "AR_QUEST_ID_267",
    "defaultvalue": 0,
    "displayName": "Blow Them All Away",
    "hidden": 0,
    "description": "Deal 200 damage with Oblivion Shell in one game as Elle",
    "icon": "https://steamcdn-a.akamaihd.net/steamcommunity/public/images/apps/402570/347bbe5a70a99779e24ca2c0c72ec2e395a4e95b.jpg",
    "icongray": "https://steamcdn-a.akamaihd.net/steamcommunity/public/images/apps/402570/0e635c5e1ce54078d252c7a082f74cd40a2c9fb0.jpg"
  },
  {
    "name": "AR_QUEST_ID_268",
    "defaultvalue": 0,
    "displayName": "Huntmaster",
    "hidden": 0,
    "description": "Deal 100 damage with Voltaic Cage in one game as Grey",
    "icon": "https://steamcdn-a.akamaihd.net/steamcommunity/public/images/apps/402570/2a13c8caf8793451deacfdd07c5c2bcd323a2e45.jpg",
    "icongray": "https://steamcdn-a.akamaihd.net/steamcommunity/public/images/apps/402570/a1f32d438bfeb997eff5ae04f4f05cae2ca2f1cd.jpg"
  },
  {
    "name": "AR_QUEST_ID_269",
    "defaultvalue": 0,
    "displayName": "12/10 Great Doggo",
    "hidden": 0,
    "description": "Deal 200 damage with Subwoof in one game as PuP",
    "icon": "https://steamcdn-a.akamaihd.net/steamcommunity/public/images/apps/402570/4e254a6cd38f8c7540650414763c4b27412e02b6.jpg",
    "icongray": "https://steamcdn-a.akamaihd.net/steamcommunity/public/images/apps/402570/a6187854eed4d1283fb811e896e25dcfa6bea7ac.jpg"
  },
  {
    "name": "AR_QUEST_ID_270",
    "defaultvalue": 0,
    "displayName": "One Shot, Four Kills",
    "hidden": 0,
    "description": "Deal 200 damage with Fusion Pulse in one game as Nix",
    "icon": "https://steamcdn-a.akamaihd.net/steamcommunity/public/images/apps/402570/03665aa3c739bc7c4d35ea2a95d1f3405ec8d46c.jpg",
    "icongray": "https://steamcdn-a.akamaihd.net/steamcommunity/public/images/apps/402570/6d3f6fde5e5653cb1899706e59b7ebd79c7038de.jpg"
  },
  {
    "name": "AR_QUEST_ID_271",
    "defaultvalue": 0,
    "displayName": "Bonanza",
    "hidden": 0,
    "description": "Deal 200 damage with Safecracker in one game as Celeste",
    "icon": "https://steamcdn-a.akamaihd.net/steamcommunity/public/images/apps/402570/43aca1ad5a8e1420b67998760b079a158175c562.jpg",
    "icongray": "https://steamcdn-a.akamaihd.net/steamcommunity/public/images/apps/402570/84e58f3c1fecd8172c97b602f168c13ec2ea23f2.jpg"
  },
  {
    "name": "AR_QUEST_ID_272",
    "defaultvalue": 0,
    "displayName": "Exo-Potent",
    "hidden": 0,
    "description": "Deal 200 damage with Lay Down the Law in one game as Juno",
    "icon": "https://steamcdn-a.akamaihd.net/steamcommunity/public/images/apps/402570/61d99c6db6aa5c3d335a8ef23ee08acad71c1417.jpg",
    "icongray": "https://steamcdn-a.akamaihd.net/steamcommunity/public/images/apps/402570/bf7f2c5133b3f675e2b6b813d0c7319b7b6282cb.jpg"
  },
  {
    "name": "AR_QUEST_ID_273",
    "defaultvalue": 0,
    "displayName": "Angel of Vengeance",
    "hidden": 0,
    "description": "Deal 300 damage and shielding with Guardian Angel in one game as Asana",
    "icon": "https://steamcdn-a.akamaihd.net/steamcommunity/public/images/apps/402570/74fcdf972362811c07e889ed461b2e93c266f4af.jpg",
    "icongray": "https://steamcdn-a.akamaihd.net/steamcommunity/public/images/apps/402570/674fc8d1deb3833afd1af300f9b43d69859aa71a.jpg"
  },
  {
    "name": "AR_QUEST_ID_274",
    "defaultvalue": 0,
    "displayName": "Same Day Delivery",
    "hidden": 0,
    "description": "Deal 150 damage with Shock Pod in one game as Garrison",
    "icon": "https://steamcdn-a.akamaihd.net/steamcommunity/public/images/apps/402570/e9a613ca2bdfe719e24b4fb46c12fa7716cd324a.jpg",
    "icongray": "https://steamcdn-a.akamaihd.net/steamcommunity/public/images/apps/402570/22cea2bc29758f891facc6d08aafcdb0f06e9892.jpg"
  },
  {
    "name": "AR_QUEST_ID_275",
    "defaultvalue": 0,
    "displayName": "There Can Be Only One",
    "hidden": 0,
    "description": "Deal 150 damage with Deathblow in one game as Titus",
    "icon": "https://steamcdn-a.akamaihd.net/steamcommunity/public/images/apps/402570/5a264685fef42c768029d52eb55e08917d3ed372.jpg",
    "icongray": "https://steamcdn-a.akamaihd.net/steamcommunity/public/images/apps/402570/2071cd2959a8fed4a7aa6216d049bd025db841cd.jpg"
  },
  {
    "name": "AR_QUEST_ID_276",
    "defaultvalue": 0,
    "displayName": "Unleash the Beast",
    "hidden": 0,
    "description": "Heal for 75 health with Augmented Regeneration and deal 100 damage with Uncontrollable Fury in a single game as Rask.",
    "icon": "https://steamcdn-a.akamaihd.net/steamcommunity/public/images/apps/402570/c5e4d296f384a83cc40fbac88960fd860083e686.jpg",
    "icongray": "https://steamcdn-a.akamaihd.net/steamcommunity/public/images/apps/402570/e4fb4bd6c29d712b946918bd804d38c42c0f19ce.jpg"
  },
  {
    "name": "AR_QUEST_ID_277",
    "defaultvalue": 0,
    "displayName": "Shield Wall",
    "hidden": 0,
    "description": "Deal 150 damage with Aegis Protocol in one game as Rampart",
    "icon": "https://steamcdn-a.akamaihd.net/steamcommunity/public/images/apps/402570/95ff56fcf67aaf8b6d5e4585266a162f1ac71a84.jpg",
    "icongray": "https://steamcdn-a.akamaihd.net/steamcommunity/public/images/apps/402570/63a99804dea10e1c1a9859092b2a6706bba61134.jpg"
  },
  {
    "name": "AR_QUEST_ID_278",
    "defaultvalue": 0,
    "displayName": "Eye of the Storm",
    "hidden": 0,
    "description": "Deal 150 combined damage and healing with Heart of the Storm in one game as Aurora",
    "icon": "https://steamcdn-a.akamaihd.net/steamcommunity/public/images/apps/402570/c7c31494bb04b323d2bda5314e0c95c8759d2289.jpg",
    "icongray": "https://steamcdn-a.akamaihd.net/steamcommunity/public/images/apps/402570/907f9bf014b2f46a5debf936d653efb657120f71.jpg"
  },
  {
    "name": "AR_QUEST_ID_279",
    "defaultvalue": 0,
    "displayName": "Calculated",
    "hidden": 0,
    "description": "Shield 200 damage with Blast Shield and Battleforged in one game as Helio",
    "icon": "https://steamcdn-a.akamaihd.net/steamcommunity/public/images/apps/402570/dd69b79732fa14ef0f2a2c5e557411f7cf85eff0.jpg",
    "icongray": "https://steamcdn-a.akamaihd.net/steamcommunity/public/images/apps/402570/ebd86d9e756d33440f708fb87d7ac3cad7a4b6a7.jpg"
  },
  {
    "name": "AR_QUEST_ID_280",
    "defaultvalue": 0,
    "displayName": "Atomic Dynamo",
    "hidden": 0,
    "description": "Heal 200 damage with Positronic Surge in one game as Quark",
    "icon": "https://steamcdn-a.akamaihd.net/steamcommunity/public/images/apps/402570/1262335d46a34b1c3ae32a6d669496979e6bcb2d.jpg",
    "icongray": "https://steamcdn-a.akamaihd.net/steamcommunity/public/images/apps/402570/5598409be2e492fbebd628d0c740c2e929e881b8.jpg"
  },
  {
    "name": "AR_QUEST_ID_281",
    "defaultvalue": 0,
    "displayName": "Fish Out Of Water",
    "hidden": 0,
    "description": "Heal 200 damage with Refreshing Spray in one game as Dr. Finn",
    "icon": "https://steamcdn-a.akamaihd.net/steamcommunity/public/images/apps/402570/14e97c85bbc9a2af4f95b403560c5046fe495a6c.jpg",
    "icongray": "https://steamcdn-a.akamaihd.net/steamcommunity/public/images/apps/402570/77370e96875c8a124580ea98f2bb4f73834f1d93.jpg"
  },
  {
    "name": "AR_QUEST_ID_282",
    "defaultvalue": 0,
    "displayName": "Phenomenal Cosmic Power",
    "hidden": 0,
    "description": "Deal more than 250 combined damage and healing with Cosmic Flare in one game as Orion",
    "icon": "https://steamcdn-a.akamaihd.net/steamcommunity/public/images/apps/402570/e37876a63f2194d533a276370aa8de8f95ab2d2d.jpg",
    "icongray": "https://steamcdn-a.akamaihd.net/steamcommunity/public/images/apps/402570/691431698343b97718663353291a474f0fc7b44d.jpg"
  },
  {
    "name": "AR_QUEST_ID_283",
    "defaultvalue": 0,
    "displayName": "Good Deeds",
    "hidden": 0,
    "description": "Shield more than 150 damage with Karmic Justice in one game as Su-Ren",
    "icon": "https://steamcdn-a.akamaihd.net/steamcommunity/public/images/apps/402570/9539feb528b22d38e99fc93a212095d12b56906f.jpg",
    "icongray": "https://steamcdn-a.akamaihd.net/steamcommunity/public/images/apps/402570/d695579227be457a15726f170c698f3e1800178c.jpg"
  },
  {
    "name": "AR_QUEST_ID_284",
    "defaultvalue": 0,
    "displayName": "Mark of the Ninja",
    "hidden": 0,
    "description": "Deal 80 damage with Mark of the Void in one game as Kaigin",
    "icon": "https://steamcdn-a.akamaihd.net/steamcommunity/public/images/apps/402570/62a9d0570d15932518073700e71c0bce93e8fbe8.jpg",
    "icongray": "https://steamcdn-a.akamaihd.net/steamcommunity/public/images/apps/402570/889567ab29f4496cdceea3a3b71bdb3657219382.jpg"
  },
  {
    "name": "AR_QUEST_ID_285",
    "defaultvalue": 0,
    "displayName": "Covered in Bugs",
    "hidden": 0,
    "description": "Heal for 100 with Mending Swarm and deal at least 200 damage in one game as Phaedra",
    "icon": "https://steamcdn-a.akamaihd.net/steamcommunity/public/images/apps/402570/42f9095b9a5cfe83e71b45270a1b7e855a881bb2.jpg",
    "icongray": "https://steamcdn-a.akamaihd.net/steamcommunity/public/images/apps/402570/74bddbe2e1eebd99f848f4e36fad380051a70d39.jpg"
  },
  {
    "name": "AR_QUEST_ID_286",
    "defaultvalue": 0,
    "displayName": "Shield to the Face",
    "hidden": 0,
    "description": "Deal at least 200 damage and dodge at least 100 damage in one game as Brynn.",
    "icon": "https://steamcdn-a.akamaihd.net/steamcommunity/public/images/apps/402570/9e898f35448d83d77349750390b45eb59bc56417.jpg",
    "icongray": "https://steamcdn-a.akamaihd.net/steamcommunity/public/images/apps/402570/2b1e24acdcf860aaca52e2381eaa64d358b3048c.jpg"
  },
  {
    "name": "AR_QUEST_ID_287",
    "defaultvalue": 0,
    "displayName": "On my Mark!",
    "hidden": 0,
    "description": "Heal at least 200 damage with Take Aim! in one game as Khita",
    "icon": "https://steamcdn-a.akamaihd.net/steamcommunity/public/images/apps/402570/6857dce3d33b4eb40d9e49e60a030183104b4143.jpg",
    "icongray": "https://steamcdn-a.akamaihd.net/steamcommunity/public/images/apps/402570/93e310ef8fcb41db6a5844170842fd6df36b06c8.jpg"
  },
  {
    "name": "AR_QUEST_ID_288",
    "defaultvalue": 0,
    "displayName": "Flashing Steel",
    "hidden": 0,
    "description": "Deal 200 damage with Rushing Steel and Showdown in one game as Tol-Ren",
    "icon": "https://steamcdn-a.akamaihd.net/steamcommunity/public/images/apps/402570/b294f06949acd427a6541f40cf1ce1956f9be906.jpg",
    "icongray": "https://steamcdn-a.akamaihd.net/steamcommunity/public/images/apps/402570/ae574214d7d880cfd47e93addb5ce244c23f0ee4.jpg"
  },
  {
    "name": "AR_QUEST_ID_289",
    "defaultvalue": 0,
    "displayName": "Level 50",
    "hidden": 0,
    "description": "Reach Reactor Level 50",
    "icon": "https://steamcdn-a.akamaihd.net/steamcommunity/public/images/apps/402570/bc1d3b581948d8b936699a0e2ae35c9ce31d66b2.jpg",
    "icongray": "https://steamcdn-a.akamaihd.net/steamcommunity/public/images/apps/402570/76ee8185a9f25c8b240c87848108072b789998d1.jpg"
  },
  {
    "name": "AR_QUEST_ID_290",
    "defaultvalue": 0,
    "displayName": "Level 100",
    "hidden": 0,
    "description": "Reach Reactor Level 100",
    "icon": "https://steamcdn-a.akamaihd.net/steamcommunity/public/images/apps/402570/2664b35da248e87ca7137f7efb4a546167513afe.jpg",
    "icongray": "https://steamcdn-a.akamaihd.net/steamcommunity/public/images/apps/402570/576b7f3f83023a44dfbdea8e79f673beb6cca9fa.jpg"
  },
  {
    "name": "AR_QUEST_ID_291",
    "defaultvalue": 0,
    "displayName": "Level 150",
    "hidden": 0,
    "description": "Reach Reactor Level 150",
    "icon": "https://steamcdn-a.akamaihd.net/steamcommunity/public/images/apps/402570/e1849a1c682f882bf2ea543bf8bca73e7bbf6c81.jpg",
    "icongray": "https://steamcdn-a.akamaihd.net/steamcommunity/public/images/apps/402570/5bb5a857b45c3a96f4a55fbaf6123ab826b87b75.jpg"
  },
  {
    "name": "AR_QUEST_ID_292",
    "defaultvalue": 0,
    "displayName": "Level 200",
    "hidden": 0,
    "description": "Reach Reactor Level 200",
    "icon": "https://steamcdn-a.akamaihd.net/steamcommunity/public/images/apps/402570/6ce0fccad6ebaea41db4dc69f96b7af4e8bc2b00.jpg",
    "icongray": "https://steamcdn-a.akamaihd.net/steamcommunity/public/images/apps/402570/80e8f531979b293451674321cc6afa38de87d1c4.jpg"
  },
  {
    "name": "AR_QUEST_ID_293",
    "defaultvalue": 0,
    "displayName": "Level 250",
    "hidden": 0,
    "description": "Reach Reactor Level 250",
    "icon": "https://steamcdn-a.akamaihd.net/steamcommunity/public/images/apps/402570/393925292c8d690cb29df10fdef570f2761e9d91.jpg",
    "icongray": "https://steamcdn-a.akamaihd.net/steamcommunity/public/images/apps/402570/cf5b725ecbcde1df2600917fffb4dd08d6695632.jpg"
  },
  {
    "name": "AR_QUEST_ID_294",
    "defaultvalue": 0,
    "displayName": "Level 300",
    "hidden": 0,
    "description": "Reach Reactor Level 300",
    "icon": "https://steamcdn-a.akamaihd.net/steamcommunity/public/images/apps/402570/7532027fdbff9e11a552a317f7c93c9824988edc.jpg",
    "icongray": "https://steamcdn-a.akamaihd.net/steamcommunity/public/images/apps/402570/9600ddd5376a04ec2c43398b794d392da78ef157.jpg"
  },
  {
    "name": "AR_QUEST_ID_295",
    "defaultvalue": 0,
    "displayName": "Level 350",
    "hidden": 0,
    "description": "Reach Reactor Level 350",
    "icon": "https://steamcdn-a.akamaihd.net/steamcommunity/public/images/apps/402570/ec27c08aa73b9ce8b6b4d73ab4f19589df569196.jpg",
    "icongray": "https://steamcdn-a.akamaihd.net/steamcommunity/public/images/apps/402570/662eb9a126d41afe425743f635f48f788ac9c913.jpg"
  },
  {
    "name": "AR_QUEST_ID_296",
    "defaultvalue": 0,
    "displayName": "Level 400",
    "hidden": 0,
    "description": "Reach Reactor Level 400",
    "icon": "https://steamcdn-a.akamaihd.net/steamcommunity/public/images/apps/402570/f13a958074b714d8b4d5c84aa061e0d6a6bc7591.jpg",
    "icongray": "https://steamcdn-a.akamaihd.net/steamcommunity/public/images/apps/402570/56fe97868010562c4eccea476b17fa3a13ec3cc6.jpg"
  },
  {
    "name": "AR_QUEST_ID_297",
    "defaultvalue": 0,
    "displayName": "Level 450",
    "hidden": 0,
    "description": "Reach Reactor Level 450",
    "icon": "https://steamcdn-a.akamaihd.net/steamcommunity/public/images/apps/402570/22323768969344f642ddea0b590082d48dbf37a4.jpg",
    "icongray": "https://steamcdn-a.akamaihd.net/steamcommunity/public/images/apps/402570/111f5add667feb672d5674caacf974f39a80120d.jpg"
  },
  {
    "name": "AR_QUEST_ID_298",
    "defaultvalue": 0,
    "displayName": "Level 500",
    "hidden": 0,
    "description": "Reach Reactor Level 500",
    "icon": "https://steamcdn-a.akamaihd.net/steamcommunity/public/images/apps/402570/30fdc6d7d79015eb12acb8b6a3f484580c4ba4ec.jpg",
    "icongray": "https://steamcdn-a.akamaihd.net/steamcommunity/public/images/apps/402570/bca5b26bac1ee4c5c8e9c63f3c88175518e4ed31.jpg"
  },
  {
    "name": "AR_QUEST_ID_299",
    "defaultvalue": 0,
    "displayName": "Dodge This!",
    "hidden": 0,
    "description": "Dodge 10,000 Damage",
    "icon": "https://steamcdn-a.akamaihd.net/steamcommunity/public/images/apps/402570/ec1a1c5c444d34558ab385dedc7fef5bf2e12cfa.jpg",
    "icongray": "https://steamcdn-a.akamaihd.net/steamcommunity/public/images/apps/402570/651a5662e6b7b851ad821708fc4ee0c3e3486518.jpg"
  },
  {
    "name": "AR_QUEST_ID_300",
    "defaultvalue": 0,
    "displayName": "Massive Attack",
    "hidden": 0,
    "description": "Deal 10,000 Damage",
    "icon": "https://steamcdn-a.akamaihd.net/steamcommunity/public/images/apps/402570/c1d93c7b8bff09529c26d54ebbf2292b763fbf9f.jpg",
    "icongray": "https://steamcdn-a.akamaihd.net/steamcommunity/public/images/apps/402570/7b4ef87e1c67984c100fe5572c644b1d58fb8619.jpg"
  },
  {
    "name": "AR_QUEST_ID_301",
    "defaultvalue": 0,
    "displayName": "The Power of Friendship",
    "hidden": 0,
    "description": "Heal or Shield 10,000 Damage",
    "icon": "https://steamcdn-a.akamaihd.net/steamcommunity/public/images/apps/402570/b3d2d5c89e5d01f1ee58b7ef168586152a81e3b5.jpg",
    "icongray": "https://steamcdn-a.akamaihd.net/steamcommunity/public/images/apps/402570/d621c1745745eefb4b8e7bcfaa5b88539a1f4753.jpg"
  },
  {
    "name": "AR_QUEST_ID_314",
    "defaultvalue": 0,
    "displayName": "Keeper of the Sun",
    "hidden": 0,
    "description": "Heal and shield more than 400 combined damage in one game as Meridian",
    "icon": "https://steamcdn-a.akamaihd.net/steamcommunity/public/images/apps/402570/effc58be4052a487e0675540bfb284a763cff748.jpg",
    "icongray": "https://steamcdn-a.akamaihd.net/steamcommunity/public/images/apps/402570/c1a65e8d13e6dc966c2c49145e15ea45d7736d9f.jpg"
  },
  {
    "name": "AR_QUEST_ID_347",
    "defaultvalue": 0,
    "displayName": "Dodge This! - II",
    "hidden": 0,
    "description": "Dodge 25,000 Damage",
    "icon": "https://steamcdn-a.akamaihd.net/steamcommunity/public/images/apps/402570/8fd12aa71552e04bb5c7b678bf21a9a6bbea9c61.jpg",
    "icongray": "https://steamcdn-a.akamaihd.net/steamcommunity/public/images/apps/402570/06c1ba43f4f295e5aae16188774b5d2495282a45.jpg"
  },
  {
    "name": "AR_QUEST_ID_348",
    "defaultvalue": 0,
    "displayName": "Dodge This! - III",
    "hidden": 0,
    "description": "Dodge 50,000 Damage",
    "icon": "https://steamcdn-a.akamaihd.net/steamcommunity/public/images/apps/402570/8fd12aa71552e04bb5c7b678bf21a9a6bbea9c61.jpg",
    "icongray": "https://steamcdn-a.akamaihd.net/steamcommunity/public/images/apps/402570/06c1ba43f4f295e5aae16188774b5d2495282a45.jpg"
  },
  {
    "name": "AR_QUEST_ID_349",
    "defaultvalue": 0,
    "displayName": "Dodge This! - IV",
    "hidden": 0,
    "description": "Dodge 75,000 Damage",
    "icon": "https://steamcdn-a.akamaihd.net/steamcommunity/public/images/apps/402570/8fd12aa71552e04bb5c7b678bf21a9a6bbea9c61.jpg",
    "icongray": "https://steamcdn-a.akamaihd.net/steamcommunity/public/images/apps/402570/06c1ba43f4f295e5aae16188774b5d2495282a45.jpg"
  },
  {
    "name": "AR_QUEST_ID_350",
    "defaultvalue": 0,
    "displayName": "Dodge This! - V",
    "hidden": 0,
    "description": "Dodge 100,000 Damage",
    "icon": "https://steamcdn-a.akamaihd.net/steamcommunity/public/images/apps/402570/8fd12aa71552e04bb5c7b678bf21a9a6bbea9c61.jpg",
    "icongray": "https://steamcdn-a.akamaihd.net/steamcommunity/public/images/apps/402570/06c1ba43f4f295e5aae16188774b5d2495282a45.jpg"
  },
  {
    "name": "AR_QUEST_ID_351",
    "defaultvalue": 0,
    "displayName": "Dodge This! - VI",
    "hidden": 0,
    "description": "Dodge 150,000 Damage",
    "icon": "https://steamcdn-a.akamaihd.net/steamcommunity/public/images/apps/402570/8fd12aa71552e04bb5c7b678bf21a9a6bbea9c61.jpg",
    "icongray": "https://steamcdn-a.akamaihd.net/steamcommunity/public/images/apps/402570/06c1ba43f4f295e5aae16188774b5d2495282a45.jpg"
  },
  {
    "name": "AR_QUEST_ID_352",
    "defaultvalue": 0,
    "displayName": "Dodge This! - VII",
    "hidden": 0,
    "description": "Dodge 200,000 Damage",
    "icon": "https://steamcdn-a.akamaihd.net/steamcommunity/public/images/apps/402570/8fd12aa71552e04bb5c7b678bf21a9a6bbea9c61.jpg",
    "icongray": "https://steamcdn-a.akamaihd.net/steamcommunity/public/images/apps/402570/06c1ba43f4f295e5aae16188774b5d2495282a45.jpg"
  },
  {
    "name": "AR_QUEST_ID_353",
    "defaultvalue": 0,
    "displayName": "Dodge This! - Master",
    "hidden": 0,
    "description": "Dodge 250,000 Damage",
    "icon": "https://steamcdn-a.akamaihd.net/steamcommunity/public/images/apps/402570/8fd12aa71552e04bb5c7b678bf21a9a6bbea9c61.jpg",
    "icongray": "https://steamcdn-a.akamaihd.net/steamcommunity/public/images/apps/402570/06c1ba43f4f295e5aae16188774b5d2495282a45.jpg"
  },
  {
    "name": "AR_QUEST_ID_354",
    "defaultvalue": 0,
    "displayName": "Massive Attack - II",
    "hidden": 0,
    "description": "Deal 25,000 Damage",
    "icon": "https://steamcdn-a.akamaihd.net/steamcommunity/public/images/apps/402570/6cc11d2fdc77b79eb8380e5d56340cfe738fba16.jpg",
    "icongray": "https://steamcdn-a.akamaihd.net/steamcommunity/public/images/apps/402570/9838f29354e3c03605e246fef329c99faf149f26.jpg"
  },
  {
    "name": "AR_QUEST_ID_355",
    "defaultvalue": 0,
    "displayName": "Massive Attack - III",
    "hidden": 0,
    "description": "Deal 50,000 Damage",
    "icon": "https://steamcdn-a.akamaihd.net/steamcommunity/public/images/apps/402570/6cc11d2fdc77b79eb8380e5d56340cfe738fba16.jpg",
    "icongray": "https://steamcdn-a.akamaihd.net/steamcommunity/public/images/apps/402570/9838f29354e3c03605e246fef329c99faf149f26.jpg"
  },
  {
    "name": "AR_QUEST_ID_356",
    "defaultvalue": 0,
    "displayName": "Massive Attack - IV",
    "hidden": 0,
    "description": "Deal 75,000 Damage",
    "icon": "https://steamcdn-a.akamaihd.net/steamcommunity/public/images/apps/402570/6cc11d2fdc77b79eb8380e5d56340cfe738fba16.jpg",
    "icongray": "https://steamcdn-a.akamaihd.net/steamcommunity/public/images/apps/402570/9838f29354e3c03605e246fef329c99faf149f26.jpg"
  },
  {
    "name": "AR_QUEST_ID_357",
    "defaultvalue": 0,
    "displayName": "Massive Attack - V",
    "hidden": 0,
    "description": "Deal 100,000 Damage",
    "icon": "https://steamcdn-a.akamaihd.net/steamcommunity/public/images/apps/402570/6cc11d2fdc77b79eb8380e5d56340cfe738fba16.jpg",
    "icongray": "https://steamcdn-a.akamaihd.net/steamcommunity/public/images/apps/402570/9838f29354e3c03605e246fef329c99faf149f26.jpg"
  },
  {
    "name": "AR_QUEST_ID_358",
    "defaultvalue": 0,
    "displayName": "Massive Attack - VI",
    "hidden": 0,
    "description": "Deal 150,000 Damage",
    "icon": "https://steamcdn-a.akamaihd.net/steamcommunity/public/images/apps/402570/6cc11d2fdc77b79eb8380e5d56340cfe738fba16.jpg",
    "icongray": "https://steamcdn-a.akamaihd.net/steamcommunity/public/images/apps/402570/9838f29354e3c03605e246fef329c99faf149f26.jpg"
  },
  {
    "name": "AR_QUEST_ID_359",
    "defaultvalue": 0,
    "displayName": "Massive Attack - VII",
    "hidden": 0,
    "description": "Deal 200,000 Damage",
    "icon": "https://steamcdn-a.akamaihd.net/steamcommunity/public/images/apps/402570/6cc11d2fdc77b79eb8380e5d56340cfe738fba16.jpg",
    "icongray": "https://steamcdn-a.akamaihd.net/steamcommunity/public/images/apps/402570/9838f29354e3c03605e246fef329c99faf149f26.jpg"
  },
  {
    "name": "AR_QUEST_ID_360",
    "defaultvalue": 0,
    "displayName": "Massive Attack - Master",
    "hidden": 0,
    "description": "Deal 250,000 Damage",
    "icon": "https://steamcdn-a.akamaihd.net/steamcommunity/public/images/apps/402570/6cc11d2fdc77b79eb8380e5d56340cfe738fba16.jpg",
    "icongray": "https://steamcdn-a.akamaihd.net/steamcommunity/public/images/apps/402570/9838f29354e3c03605e246fef329c99faf149f26.jpg"
  },
  {
    "name": "AR_QUEST_ID_361",
    "defaultvalue": 0,
    "displayName": "The Power of Friendship - II",
    "hidden": 0,
    "description": "Heal or Shield 25,000 Damage",
    "icon": "https://steamcdn-a.akamaihd.net/steamcommunity/public/images/apps/402570/07904798e5f16d5637995f8240925d38e2b31f10.jpg",
    "icongray": "https://steamcdn-a.akamaihd.net/steamcommunity/public/images/apps/402570/7b3288ae22267291ef284a8f839b043f8447f276.jpg"
  },
  {
    "name": "AR_QUEST_ID_362",
    "defaultvalue": 0,
    "displayName": "The Power of Friendship - III",
    "hidden": 0,
    "description": "Heal or Shield 50,000 Damage",
    "icon": "https://steamcdn-a.akamaihd.net/steamcommunity/public/images/apps/402570/07904798e5f16d5637995f8240925d38e2b31f10.jpg",
    "icongray": "https://steamcdn-a.akamaihd.net/steamcommunity/public/images/apps/402570/7b3288ae22267291ef284a8f839b043f8447f276.jpg"
  },
  {
    "name": "AR_QUEST_ID_363",
    "defaultvalue": 0,
    "displayName": "The Power of Friendship - IV",
    "hidden": 0,
    "description": "Heal or Shield 75,000 Damage",
    "icon": "https://steamcdn-a.akamaihd.net/steamcommunity/public/images/apps/402570/07904798e5f16d5637995f8240925d38e2b31f10.jpg",
    "icongray": "https://steamcdn-a.akamaihd.net/steamcommunity/public/images/apps/402570/7b3288ae22267291ef284a8f839b043f8447f276.jpg"
  },
  {
    "name": "AR_QUEST_ID_364",
    "defaultvalue": 0,
    "displayName": "The Power of Friendship - V",
    "hidden": 0,
    "description": "Heal or Shield 100,000 Damage",
    "icon": "https://steamcdn-a.akamaihd.net/steamcommunity/public/images/apps/402570/07904798e5f16d5637995f8240925d38e2b31f10.jpg",
    "icongray": "https://steamcdn-a.akamaihd.net/steamcommunity/public/images/apps/402570/7b3288ae22267291ef284a8f839b043f8447f276.jpg"
  },
  {
    "name": "AR_QUEST_ID_365",
    "defaultvalue": 0,
    "displayName": "The Power of Friendship - VI",
    "hidden": 0,
    "description": "Heal or Shield 150,000 Damage",
    "icon": "https://steamcdn-a.akamaihd.net/steamcommunity/public/images/apps/402570/07904798e5f16d5637995f8240925d38e2b31f10.jpg",
    "icongray": "https://steamcdn-a.akamaihd.net/steamcommunity/public/images/apps/402570/7b3288ae22267291ef284a8f839b043f8447f276.jpg"
  },
  {
    "name": "AR_QUEST_ID_366",
    "defaultvalue": 0,
    "displayName": "The Power of Friendship - VII",
    "hidden": 0,
    "description": "Heal or Shield 200,000 Damage",
    "icon": "https://steamcdn-a.akamaihd.net/steamcommunity/public/images/apps/402570/07904798e5f16d5637995f8240925d38e2b31f10.jpg",
    "icongray": "https://steamcdn-a.akamaihd.net/steamcommunity/public/images/apps/402570/7b3288ae22267291ef284a8f839b043f8447f276.jpg"
  },
  {
    "name": "AR_QUEST_ID_367",
    "defaultvalue": 0,
    "displayName": "The Power of Friendship - Master",
    "hidden": 0,
    "description": "Heal or Shield 250,000 Damage",
    "icon": "https://steamcdn-a.akamaihd.net/steamcommunity/public/images/apps/402570/07904798e5f16d5637995f8240925d38e2b31f10.jpg",
    "icongray": "https://steamcdn-a.akamaihd.net/steamcommunity/public/images/apps/402570/7b3288ae22267291ef284a8f839b043f8447f276.jpg"
  },
  {
    "name": "AR_QUEST_ID_370",
    "defaultvalue": 0,
    "displayName": "Real Ultimate Power",
    "hidden": 0,
    "description": "Do 10000 total damage with Razor Tempest as Kaigin",
    "icon": "https://steamcdn-a.akamaihd.net/steamcommunity/public/images/apps/402570/f4c6aa152706a06746434e1eeeadb920acc3b972.jpg",
    "icongray": "https://steamcdn-a.akamaihd.net/steamcommunity/public/images/apps/402570/2775c41c531bd2ba9fc507ca8964e5e5b1e8be2f.jpg"
  },
  {
    "name": "AR_QUEST_ID_373",
    "defaultvalue": 0,
    "displayName": "Gooey Goo for boomy booming!",
    "hidden": 0,
    "description": "Do 10000 total damage with Sticky Bombs as Zuki",
    "icon": "https://steamcdn-a.akamaihd.net/steamcommunity/public/images/apps/402570/939000626aaed8056d021c643be16554e0649a5e.jpg",
    "icongray": "https://steamcdn-a.akamaihd.net/steamcommunity/public/images/apps/402570/edeef071e0d49a5a7a9750210f143fb0c62d4276.jpg"
  },
  {
    "name": "AR_QUEST_ID_374",
    "defaultvalue": 0,
    "displayName": "Three Ring Circus",
    "hidden": 0,
    "description": "Deal 200 damage in one game with Cataclysm as NEV:3",
    "icon": "https://steamcdn-a.akamaihd.net/steamcommunity/public/images/apps/402570/ea8466e0a0605e00d4a2f5e396a1987f1c9d686b.jpg",
    "icongray": "https://steamcdn-a.akamaihd.net/steamcommunity/public/images/apps/402570/3cd285b09e5932ee1434f374f2e6820f5a4eaf2b.jpg"
  },
  {
    "name": "AR_QUEST_ID_375",
    "defaultvalue": 0,
    "displayName": "Frag Out",
    "hidden": 0,
    "description": "Do 5000 total damage with Proteus Grenade as Blackburn",
    "icon": "https://steamcdn-a.akamaihd.net/steamcommunity/public/images/apps/402570/1a5acf0189c8360500849f3614b8860f044d5d75.jpg",
    "icongray": "https://steamcdn-a.akamaihd.net/steamcommunity/public/images/apps/402570/ba78953e76d63adccc92bc90f08dbfce06536613.jpg"
  },
  {
    "name": "AR_QUEST_ID_376",
    "defaultvalue": 0,
    "displayName": "Abstract Expressionist",
    "hidden": 0,
    "description": "Do 10000 total damage with Photon Spray as Oz",
    "icon": "https://steamcdn-a.akamaihd.net/steamcommunity/public/images/apps/402570/34b95d126d45db437e79f3fec069485bc2e97816.jpg",
    "icongray": "https://steamcdn-a.akamaihd.net/steamcommunity/public/images/apps/402570/72bfc16d9e8c93b10606f62ec76fe696f920cf38.jpg"
  },
  {
    "name": "AR_QUEST_ID_377",
    "defaultvalue": 0,
    "displayName": "It's Lit",
    "hidden": 0,
    "description": "Do 10000 total damage with Light 'Em Up as Lockwood",
    "icon": "https://steamcdn-a.akamaihd.net/steamcommunity/public/images/apps/402570/6445cc4aaf1276ca3b659c727d827a98307c8d78.jpg",
    "icongray": "https://steamcdn-a.akamaihd.net/steamcommunity/public/images/apps/402570/46858effe97056bd4c72ace3fae3ba9ceea67266.jpg"
  },
  {
    "name": "AR_QUEST_ID_378",
    "defaultvalue": 0,
    "displayName": "Give it a splorting try",
    "hidden": 0,
    "description": "Do 3210 total damage with Splort as Gremolitions Inc.",
    "icon": "https://steamcdn-a.akamaihd.net/steamcommunity/public/images/apps/402570/16fc114bff71c6c4b4bb2d4d502f7450eaec52ce.jpg",
    "icongray": "https://steamcdn-a.akamaihd.net/steamcommunity/public/images/apps/402570/e28331dad75acef5febc6c599eb0bce6c3d93831.jpg"
  },
  {
    "name": "AR_QUEST_ID_379",
    "defaultvalue": 0,
    "displayName": "They see me rollin'",
    "hidden": 0,
    "description": "Do 10000 total damage with Combat Reflexes as Elle",
    "icon": "https://steamcdn-a.akamaihd.net/steamcommunity/public/images/apps/402570/35d3c5103f797344435ca15a7334d312d1d2a203.jpg",
    "icongray": "https://steamcdn-a.akamaihd.net/steamcommunity/public/images/apps/402570/568902e26454d2d0d65e87c45f8dc42b74e97589.jpg"
  },
  {
    "name": "AR_QUEST_ID_380",
    "defaultvalue": 0,
    "displayName": "Rio's Revenge",
    "hidden": 0,
    "description": "Do 10000 total damage with Hawk Drone as Grey",
    "icon": "https://steamcdn-a.akamaihd.net/steamcommunity/public/images/apps/402570/b42d52d5ad611a73e064e124666e5490077dee4a.jpg",
    "icongray": "https://steamcdn-a.akamaihd.net/steamcommunity/public/images/apps/402570/b30e0eb9763b103c5faed259f868b55027205efa.jpg"
  },
  {
    "name": "AR_QUEST_ID_381",
    "defaultvalue": 0,
    "displayName": "Doorstep Greeting",
    "hidden": 0,
    "description": "Do 7500 total damage with Pounce as PuP",
    "icon": "https://steamcdn-a.akamaihd.net/steamcommunity/public/images/apps/402570/d16da9e9d392c34a8f83c4a978bdbe53811c4f1a.jpg",
    "icongray": "https://steamcdn-a.akamaihd.net/steamcommunity/public/images/apps/402570/c9e900cb2142dea3576fae41da930b296e3c0172.jpg"
  },
  {
    "name": "AR_QUEST_ID_382",
    "defaultvalue": 0,
    "displayName": "Keep yourself a secret. Keep yourself safe.",
    "hidden": 0,
    "description": "Play 50 games in which you use Stalker Suit 3 or more times as Nix",
    "icon": "https://steamcdn-a.akamaihd.net/steamcommunity/public/images/apps/402570/648bef5cd24d67a23fefff27fb0e47d6501abc4e.jpg",
    "icongray": "https://steamcdn-a.akamaihd.net/steamcommunity/public/images/apps/402570/ca9d6f51a8c605c10cf632ce36e99c98dc5fd5cb.jpg"
  },
  {
    "name": "AR_QUEST_ID_383",
    "defaultvalue": 0,
    "displayName": "Secrets, secrets are so fun",
    "hidden": 0,
    "description": "Do 5000 total damage with Proximo Charge as Celeste",
    "icon": "https://steamcdn-a.akamaihd.net/steamcommunity/public/images/apps/402570/818fd276859ff571a3317630a2a51136e7b0834f.jpg",
    "icongray": "https://steamcdn-a.akamaihd.net/steamcommunity/public/images/apps/402570/66bf3c39559b037fbf8b8843056ee56464359620.jpg"
  },
  {
    "name": "AR_QUEST_ID_384",
    "defaultvalue": 0,
    "displayName": "Boop",
    "hidden": 0,
    "description": "Do 5000 total damage with Lockdown as Juno",
    "icon": "https://steamcdn-a.akamaihd.net/steamcommunity/public/images/apps/402570/33b09fc42ae9c925b489ebf47f519e901cd3d539.jpg",
    "icongray": "https://steamcdn-a.akamaihd.net/steamcommunity/public/images/apps/402570/82b8cd4baeed974cda1ae608df411786bf04d41e.jpg"
  },
  {
    "name": "AR_QUEST_ID_385",
    "defaultvalue": 0,
    "displayName": "The Best Offense",
    "hidden": 0,
    "description": "Shield 3000 damage with Ren's Fury as Tol-Ren",
    "icon": "https://steamcdn-a.akamaihd.net/steamcommunity/public/images/apps/402570/640c19bbb5766b8d349d9c26856f22ed7a65d69b.jpg",
    "icongray": "https://steamcdn-a.akamaihd.net/steamcommunity/public/images/apps/402570/e51cf54c7e0badb24447c2559c16c555b62d3591.jpg"
  },
  {
    "name": "AR_QUEST_ID_392",
    "defaultvalue": 0,
    "displayName": "Embiggestfy",
    "hidden": 0,
    "description": "Play 50 games in which you use Embiggify 3 or more times as NEV:3",
    "icon": "https://steamcdn-a.akamaihd.net/steamcommunity/public/images/apps/402570/ea8466e0a0605e00d4a2f5e396a1987f1c9d686b.jpg",
    "icongray": "https://steamcdn-a.akamaihd.net/steamcommunity/public/images/apps/402570/3cd285b09e5932ee1434f374f2e6820f5a4eaf2b.jpg"
  },
  {
    "name": "AR_QUEST_ID_396",
    "defaultvalue": 0,
    "displayName": "Showtime Kick",
    "hidden": 0,
    "description": "Do 5000 total damage with Rebounding Charge as Asana",
    "icon": "https://steamcdn-a.akamaihd.net/steamcommunity/public/images/apps/402570/cd972f94f69ac7a09cc05d7fbc4735e4a74195f9.jpg",
    "icongray": "https://steamcdn-a.akamaihd.net/steamcommunity/public/images/apps/402570/d2e6838ec7a4ae7b37fe2a92ce783b6eb3897959.jpg"
  },
  {
    "name": "AR_QUEST_ID_397",
    "defaultvalue": 0,
    "displayName": "Open Wider, Mate",
    "hidden": 0,
    "description": "Do 5000 total damage with Hand Cannon as Garrison",
    "icon": "https://steamcdn-a.akamaihd.net/steamcommunity/public/images/apps/402570/cbb204b5e16a9450703282a053362599f0bc46b9.jpg",
    "icongray": "https://steamcdn-a.akamaihd.net/steamcommunity/public/images/apps/402570/aaca6d89560e3abf7fd0b42c8b5d06f8c7e74f91.jpg"
  },
  {
    "name": "AR_QUEST_ID_398",
    "defaultvalue": 0,
    "displayName": "Get the horns",
    "hidden": 0,
    "description": "Do 5000 total damage with Berserker Charge as Titus",
    "icon": "https://steamcdn-a.akamaihd.net/steamcommunity/public/images/apps/402570/ba33532c7935d0f33d40485a7cb0399fe4015e05.jpg",
    "icongray": "https://steamcdn-a.akamaihd.net/steamcommunity/public/images/apps/402570/7639d8f2e6a2c51d5dade41655f8b394059438df.jpg"
  },
  {
    "name": "AR_QUEST_ID_399",
    "defaultvalue": 0,
    "displayName": "Tremors",
    "hidden": 0,
    "description": "Do 3750 total damage with Upheaval as Rask",
    "icon": "https://steamcdn-a.akamaihd.net/steamcommunity/public/images/apps/402570/1e15b3dbf60abdf82a00c14a8c92e07af04bf618.jpg",
    "icongray": "https://steamcdn-a.akamaihd.net/steamcommunity/public/images/apps/402570/9e38804542fdb3a5fa8ce55e77412167e2b6c695.jpg"
  },
  {
    "name": "AR_QUEST_ID_400",
    "defaultvalue": 0,
    "displayName": "Wait, it blocks too?!",
    "hidden": 0,
    "description": "Do 3750 total damage with Bulwark as Rampart",
    "icon": "https://steamcdn-a.akamaihd.net/steamcommunity/public/images/apps/402570/6f19479b962931b1cc5f248527a004b1976cf01c.jpg",
    "icongray": "https://steamcdn-a.akamaihd.net/steamcommunity/public/images/apps/402570/83448920457f30390ea44d5d4d00b909d3e02f01.jpg"
  },
  {
    "name": "AR_QUEST_ID_401",
    "defaultvalue": 0,
    "displayName": "That's just gross",
    "hidden": 0,
    "description": "Do 3750 total damage with Putrid Spray bug detonations as Phaedra",
    "icon": "https://steamcdn-a.akamaihd.net/steamcommunity/public/images/apps/402570/9598676acf4ac88294e6b458dbca8ce5f3839c65.jpg",
    "icongray": "https://steamcdn-a.akamaihd.net/steamcommunity/public/images/apps/402570/fc75e67ae11068edf75599bd905ff3da97339cde.jpg"
  },
  {
    "name": "AR_QUEST_ID_402",
    "defaultvalue": 0,
    "displayName": "Cover: Don't leave home without it",
    "hidden": 0,
    "description": "Play 50 games in which you use Aegis 3 or more times as Brynn",
    "icon": "https://steamcdn-a.akamaihd.net/steamcommunity/public/images/apps/402570/27b319e7a6ba9b0d7207babc799109cd3d40d201.jpg",
    "icongray": "https://steamcdn-a.akamaihd.net/steamcommunity/public/images/apps/402570/0316c5a45193d1b7637998967727bdd64cf9a076.jpg"
  },
  {
    "name": "AR_QUEST_ID_403",
    "defaultvalue": 0,
    "displayName": "Pain Puddle",
    "hidden": 0,
    "description": "Do 3750 total damage with Ion Cloud as Aurora",
    "icon": "https://steamcdn-a.akamaihd.net/steamcommunity/public/images/apps/402570/2a98d5b1cff5b04649cf6ea8ef1ce6c094070874.jpg",
    "icongray": "https://steamcdn-a.akamaihd.net/steamcommunity/public/images/apps/402570/1f7e8b986524328ebf59c32f4af9cd17ba92b8fc.jpg"
  },
  {
    "name": "AR_QUEST_ID_404",
    "defaultvalue": 0,
    "displayName": "Shields... Shields Everywhere",
    "hidden": 0,
    "description": "Shield 5000 total damage with Blast Shield as Helio",
    "icon": "https://steamcdn-a.akamaihd.net/steamcommunity/public/images/apps/402570/5321877e2668812e29511abc329d7e75edec64ce.jpg",
    "icongray": "https://steamcdn-a.akamaihd.net/steamcommunity/public/images/apps/402570/10de36dc98196c17f18011d6c9acd1e9dbb75a64.jpg"
  },
  {
    "name": "AR_QUEST_ID_405",
    "defaultvalue": 0,
    "displayName": "Not FDA Approved",
    "hidden": 0,
    "description": "Do 10000 total healing with Atomic Bond as Quark",
    "icon": "https://steamcdn-a.akamaihd.net/steamcommunity/public/images/apps/402570/ec73a3b1ccb081fe91e77a7e6348d1f68d3bb400.jpg",
    "icongray": "https://steamcdn-a.akamaihd.net/steamcommunity/public/images/apps/402570/1dccda319a1e2fcf1fe895a432e0dd1baf918ca7.jpg"
  },
  {
    "name": "AR_QUEST_ID_406",
    "defaultvalue": 0,
    "displayName": "Living on a Sprayer",
    "hidden": 0,
    "description": "Do 10000 total healing with Refreshing Spray as Dr. Finn",
    "icon": "https://steamcdn-a.akamaihd.net/steamcommunity/public/images/apps/402570/bc9049f12eb86ae3f0d56f9b8fa05d7787ba1485.jpg",
    "icongray": "https://steamcdn-a.akamaihd.net/steamcommunity/public/images/apps/402570/1bad927b4b4688cce92a760fa6bea675c65b8f45.jpg"
  },
  {
    "name": "AR_QUEST_ID_407",
    "defaultvalue": 0,
    "displayName": "Fine, I'll Carry",
    "hidden": 0,
    "description": "Shield 3750 total damage with Fate Transfer as Orion",
    "icon": "https://steamcdn-a.akamaihd.net/steamcommunity/public/images/apps/402570/4c68efc8efb43305126c3cfbd6b49136e6e43299.jpg",
    "icongray": "https://steamcdn-a.akamaihd.net/steamcommunity/public/images/apps/402570/847d8f00c6c9335b7ded298d736dac5d24c5b040.jpg"
  },
  {
    "name": "AR_QUEST_ID_408",
    "defaultvalue": 0,
    "displayName": "Serenity Now",
    "hidden": 0,
    "description": "Do 10000 total healing with Serenity as Su-Ren",
    "icon": "https://steamcdn-a.akamaihd.net/steamcommunity/public/images/apps/402570/c82209d1e653f9cf12a306122b97c0893f18ea64.jpg",
    "icongray": "https://steamcdn-a.akamaihd.net/steamcommunity/public/images/apps/402570/caed475f05bda6cdb56ea1f99ac6ab853c2a93fd.jpg"
  },
  {
    "name": "AR_QUEST_ID_409",
    "defaultvalue": 0,
    "displayName": "Atlas-wide Coverage",
    "hidden": 0,
    "description": "Shield 5000 total damage with Resonance Burst as Khita",
    "icon": "https://steamcdn-a.akamaihd.net/steamcommunity/public/images/apps/402570/8136ff9d47219c8b888cb6ce9992088473443aef.jpg",
    "icongray": "https://steamcdn-a.akamaihd.net/steamcommunity/public/images/apps/402570/2dbffb8943b9e4a79fe7d9d850ee8cc49ab1f718.jpg"
  },
  {
    "name": "AR_QUEST_ID_411",
    "defaultvalue": 0,
    "displayName": "Better Than Ever",
    "hidden": 0,
    "description": "Do 7500 total healing with Reforge as Meridian",
    "icon": "https://steamcdn-a.akamaihd.net/steamcommunity/public/images/apps/402570/effc58be4052a487e0675540bfb284a763cff748.jpg",
    "icongray": "https://steamcdn-a.akamaihd.net/steamcommunity/public/images/apps/402570/c1a65e8d13e6dc966c2c49145e15ea45d7736d9f.jpg"
  },
  {
    "name": "AR_QUEST_ID_412",
    "defaultvalue": 0,
    "displayName": "Eternal Darkness",
    "hidden": 0,
    "description": "Play 25 games in which you use Shadowstalker 3 or more times as Kaigin",
    "icon": "https://steamcdn-a.akamaihd.net/steamcommunity/public/images/apps/402570/f4c6aa152706a06746434e1eeeadb920acc3b972.jpg",
    "icongray": "https://steamcdn-a.akamaihd.net/steamcommunity/public/images/apps/402570/2775c41c531bd2ba9fc507ca8964e5e5b1e8be2f.jpg"
  },
  {
    "name": "AR_QUEST_ID_413",
    "defaultvalue": 0,
    "displayName": "Eat My Dust",
    "hidden": 0,
    "description": "Do 750 total damage with Rocket Jump as Zuki",
    "icon": "https://steamcdn-a.akamaihd.net/steamcommunity/public/images/apps/402570/939000626aaed8056d021c643be16554e0649a5e.jpg",
    "icongray": "https://steamcdn-a.akamaihd.net/steamcommunity/public/images/apps/402570/edeef071e0d49a5a7a9750210f143fb0c62d4276.jpg"
  },
  {
    "name": "AR_QUEST_ID_414",
    "defaultvalue": 0,
    "displayName": "Onslaught",
    "hidden": 0,
    "description": "Do 2250 total damage with Blitz as Blackburn",
    "icon": "https://steamcdn-a.akamaihd.net/steamcommunity/public/images/apps/402570/1a5acf0189c8360500849f3614b8860f044d5d75.jpg",
    "icongray": "https://steamcdn-a.akamaihd.net/steamcommunity/public/images/apps/402570/ba78953e76d63adccc92bc90f08dbfce06536613.jpg"
  },
  {
    "name": "AR_QUEST_ID_415",
    "defaultvalue": 0,
    "displayName": "Fool Me Thrice",
    "hidden": 0,
    "description": "Play 25 games in which you use Made You Look 3 or more times as Oz",
    "icon": "https://steamcdn-a.akamaihd.net/steamcommunity/public/images/apps/402570/34b95d126d45db437e79f3fec069485bc2e97816.jpg",
    "icongray": "https://steamcdn-a.akamaihd.net/steamcommunity/public/images/apps/402570/72bfc16d9e8c93b10606f62ec76fe696f920cf38.jpg"
  },
  {
    "name": "AR_QUEST_ID_416",
    "defaultvalue": 0,
    "displayName": "Bounce With Me",
    "hidden": 0,
    "description": "Do 500 total damage with Bombing Run as Gremolitions Inc.",
    "icon": "https://steamcdn-a.akamaihd.net/steamcommunity/public/images/apps/402570/16fc114bff71c6c4b4bb2d4d502f7450eaec52ce.jpg",
    "icongray": "https://steamcdn-a.akamaihd.net/steamcommunity/public/images/apps/402570/e28331dad75acef5febc6c599eb0bce6c3d93831.jpg"
  },
  {
    "name": "AR_QUEST_ID_417",
    "defaultvalue": 0,
    "displayName": "Quite Dashing",
    "hidden": 0,
    "description": "Play 25 games in which you use Backup Plan 2 or more times as Lockwood",
    "icon": "https://steamcdn-a.akamaihd.net/steamcommunity/public/images/apps/402570/6445cc4aaf1276ca3b659c727d827a98307c8d78.jpg",
    "icongray": "https://steamcdn-a.akamaihd.net/steamcommunity/public/images/apps/402570/46858effe97056bd4c72ace3fae3ba9ceea67266.jpg"
  },
  {
    "name": "AR_QUEST_ID_418",
    "defaultvalue": 0,
    "displayName": "Say Hello to my Other Little Friend",
    "hidden": 0,
    "description": "Do 750 total damage with Lurker Drone as Elle",
    "icon": "https://steamcdn-a.akamaihd.net/steamcommunity/public/images/apps/402570/35d3c5103f797344435ca15a7334d312d1d2a203.jpg",
    "icongray": "https://steamcdn-a.akamaihd.net/steamcommunity/public/images/apps/402570/568902e26454d2d0d65e87c45f8dc42b74e97589.jpg"
  },
  {
    "name": "AR_QUEST_ID_419",
    "defaultvalue": 0,
    "displayName": "Airlifted",
    "hidden": 0,
    "description": "Play 25 games in which you use Slip Away 2 or more times as Grey",
    "icon": "https://steamcdn-a.akamaihd.net/steamcommunity/public/images/apps/402570/b42d52d5ad611a73e064e124666e5490077dee4a.jpg",
    "icongray": "https://steamcdn-a.akamaihd.net/steamcommunity/public/images/apps/402570/b30e0eb9763b103c5faed259f868b55027205efa.jpg"
  },
  {
    "name": "AR_QUEST_ID_420",
    "defaultvalue": 0,
    "displayName": "Lost PuP",
    "hidden": 0,
    "description": "Play 25 games in which you use Prowl Protocol 3 or more times as PuP",
    "icon": "https://steamcdn-a.akamaihd.net/steamcommunity/public/images/apps/402570/d16da9e9d392c34a8f83c4a978bdbe53811c4f1a.jpg",
    "icongray": "https://steamcdn-a.akamaihd.net/steamcommunity/public/images/apps/402570/c9e900cb2142dea3576fae41da930b296e3c0172.jpg"
  },
  {
    "name": "AR_QUEST_ID_421",
    "defaultvalue": 0,
    "displayName": "Widespread Destruction",
    "hidden": 0,
    "description": "Do 2500 total damage with Vortex Round as Nix",
    "icon": "https://steamcdn-a.akamaihd.net/steamcommunity/public/images/apps/402570/648bef5cd24d67a23fefff27fb0e47d6501abc4e.jpg",
    "icongray": "https://steamcdn-a.akamaihd.net/steamcommunity/public/images/apps/402570/ca9d6f51a8c605c10cf632ce36e99c98dc5fd5cb.jpg"
  },
  {
    "name": "AR_QUEST_ID_422",
    "defaultvalue": 0,
    "displayName": "The One That Got Away",
    "hidden": 0,
    "description": "Do 1000 total damage with On The Run as Celeste",
    "icon": "https://steamcdn-a.akamaihd.net/steamcommunity/public/images/apps/402570/818fd276859ff571a3317630a2a51136e7b0834f.jpg",
    "icongray": "https://steamcdn-a.akamaihd.net/steamcommunity/public/images/apps/402570/66bf3c39559b037fbf8b8843056ee56464359620.jpg"
  },
  {
    "name": "AR_QUEST_ID_423",
    "defaultvalue": 0,
    "displayName": "If You Like it, Put a Shield on It",
    "hidden": 0,
    "description": "Shield 2000 total damage with Riot Shield as Juno",
    "icon": "https://steamcdn-a.akamaihd.net/steamcommunity/public/images/apps/402570/33b09fc42ae9c925b489ebf47f519e901cd3d539.jpg",
    "icongray": "https://steamcdn-a.akamaihd.net/steamcommunity/public/images/apps/402570/82b8cd4baeed974cda1ae608df411786bf04d41e.jpg"
  },
  {
    "name": "AR_QUEST_ID_424",
    "defaultvalue": 0,
    "displayName": "Like a River",
    "hidden": 0,
    "description": "Do 2500 total damage with Rushing Steel as Tol-Ren",
    "icon": "https://steamcdn-a.akamaihd.net/steamcommunity/public/images/apps/402570/640c19bbb5766b8d349d9c26856f22ed7a65d69b.jpg",
    "icongray": "https://steamcdn-a.akamaihd.net/steamcommunity/public/images/apps/402570/e51cf54c7e0badb24447c2559c16c555b62d3591.jpg"
  },
  {
    "name": "AR_QUEST_ID_425",
    "defaultvalue": 0,
    "displayName": "~(o^‥^)o   ---   O",
    "hidden": 0,
    "description": "Do 2500 total damage with Acrocat as NEV:3",
    "icon": "https://steamcdn-a.akamaihd.net/steamcommunity/public/images/apps/402570/ea8466e0a0605e00d4a2f5e396a1987f1c9d686b.jpg",
    "icongray": "https://steamcdn-a.akamaihd.net/steamcommunity/public/images/apps/402570/3cd285b09e5932ee1434f374f2e6820f5a4eaf2b.jpg"
  },
  {
    "name": "AR_QUEST_ID_426",
    "defaultvalue": 0,
    "displayName": "What Goes Around",
    "hidden": 0,
    "description": "Do 1125 total damage with Retribution as Asana",
    "icon": "https://steamcdn-a.akamaihd.net/steamcommunity/public/images/apps/402570/cd972f94f69ac7a09cc05d7fbc4735e4a74195f9.jpg",
    "icongray": "https://steamcdn-a.akamaihd.net/steamcommunity/public/images/apps/402570/d2e6838ec7a4ae7b37fe2a92ce783b6eb3897959.jpg"
  },
  {
    "name": "AR_QUEST_ID_427",
    "defaultvalue": 0,
    "displayName": "Takin' a Ride",
    "hidden": 0,
    "description": "Do 1250 total damage with Heavy Metal as Garrison",
    "icon": "https://steamcdn-a.akamaihd.net/steamcommunity/public/images/apps/402570/cbb204b5e16a9450703282a053362599f0bc46b9.jpg",
    "icongray": "https://steamcdn-a.akamaihd.net/steamcommunity/public/images/apps/402570/aaca6d89560e3abf7fd0b42c8b5d06f8c7e74f91.jpg"
  },
  {
    "name": "AR_QUEST_ID_428",
    "defaultvalue": 0,
    "displayName": "Stabbed in the Front",
    "hidden": 0,
    "description": "Do 1250 total damage with Dirty Fighting as Titus",
    "icon": "https://steamcdn-a.akamaihd.net/steamcommunity/public/images/apps/402570/ba33532c7935d0f33d40485a7cb0399fe4015e05.jpg",
    "icongray": "https://steamcdn-a.akamaihd.net/steamcommunity/public/images/apps/402570/7639d8f2e6a2c51d5dade41655f8b394059438df.jpg"
  },
  {
    "name": "AR_QUEST_ID_429",
    "defaultvalue": 0,
    "displayName": "Weapon R",
    "hidden": 0,
    "description": "Do 1250 total healing with Augmented Regeneration as Rask",
    "icon": "https://steamcdn-a.akamaihd.net/steamcommunity/public/images/apps/402570/1e15b3dbf60abdf82a00c14a8c92e07af04bf618.jpg",
    "icongray": "https://steamcdn-a.akamaihd.net/steamcommunity/public/images/apps/402570/9e38804542fdb3a5fa8ce55e77412167e2b6c695.jpg"
  },
  {
    "name": "AR_QUEST_ID_430",
    "defaultvalue": 0,
    "displayName": "You Can't, You Won't, and You Don't Stop",
    "hidden": 0,
    "description": "Play 25 games in which you use Unstoppable Force 3 or more times as Rampart",
    "icon": "https://steamcdn-a.akamaihd.net/steamcommunity/public/images/apps/402570/6f19479b962931b1cc5f248527a004b1976cf01c.jpg",
    "icongray": "https://steamcdn-a.akamaihd.net/steamcommunity/public/images/apps/402570/83448920457f30390ea44d5d4d00b909d3e02f01.jpg"
  },
  {
    "name": "AR_QUEST_ID_431",
    "defaultvalue": 0,
    "displayName": "I'm the Juggernaut, B",
    "hidden": 0,
    "description": "Do 1875 total damage with Juggernaut as Phaedra",
    "icon": "https://steamcdn-a.akamaihd.net/steamcommunity/public/images/apps/402570/9598676acf4ac88294e6b458dbca8ce5f3839c65.jpg",
    "icongray": "https://steamcdn-a.akamaihd.net/steamcommunity/public/images/apps/402570/fc75e67ae11068edf75599bd905ff3da97339cde.jpg"
  },
  {
    "name": "AR_QUEST_ID_432",
    "defaultvalue": 0,
    "displayName": "Here She Comes to Save the Day",
    "hidden": 0,
    "description": "Do 2500 total damage with Flight of the Valkyrie as Brynn",
    "icon": "https://steamcdn-a.akamaihd.net/steamcommunity/public/images/apps/402570/27b319e7a6ba9b0d7207babc799109cd3d40d201.jpg",
    "icongray": "https://steamcdn-a.akamaihd.net/steamcommunity/public/images/apps/402570/0316c5a45193d1b7637998967727bdd64cf9a076.jpg"
  },
  {
    "name": "AR_QUEST_ID_433",
    "defaultvalue": 0,
    "displayName": "Numbing Sensation",
    "hidden": 0,
    "description": "Shield 1000 total damage with Paralazer as Aurora",
    "icon": "https://steamcdn-a.akamaihd.net/steamcommunity/public/images/apps/402570/2a98d5b1cff5b04649cf6ea8ef1ce6c094070874.jpg",
    "icongray": "https://steamcdn-a.akamaihd.net/steamcommunity/public/images/apps/402570/1f7e8b986524328ebf59c32f4af9cd17ba92b8fc.jpg"
  },
  {
    "name": "AR_QUEST_ID_434",
    "defaultvalue": 0,
    "displayName": "The Writing's on the Wall",
    "hidden": 0,
    "description": "Do 2500 total damage with Disruption Matrix as Helio",
    "icon": "https://steamcdn-a.akamaihd.net/steamcommunity/public/images/apps/402570/5321877e2668812e29511abc329d7e75edec64ce.jpg",
    "icongray": "https://steamcdn-a.akamaihd.net/steamcommunity/public/images/apps/402570/10de36dc98196c17f18011d6c9acd1e9dbb75a64.jpg"
  },
  {
    "name": "AR_QUEST_ID_435",
    "defaultvalue": 0,
    "displayName": "Small Hadron Collider",
    "hidden": 0,
    "description": "Play 25 games in which you use Quantum Collision 2 or more times as Quark",
    "icon": "https://steamcdn-a.akamaihd.net/steamcommunity/public/images/apps/402570/ec73a3b1ccb081fe91e77a7e6348d1f68d3bb400.jpg",
    "icongray": "https://steamcdn-a.akamaihd.net/steamcommunity/public/images/apps/402570/1dccda319a1e2fcf1fe895a432e0dd1baf918ca7.jpg"
  },
  {
    "name": "AR_QUEST_ID_436",
    "defaultvalue": 0,
    "displayName": "Bubble Bubble Foil That Trouble",
    "hidden": 0,
    "description": "Shield 2500 total damage with Bubble Trouble as Dr. Finn",
    "icon": "https://steamcdn-a.akamaihd.net/steamcommunity/public/images/apps/402570/bc9049f12eb86ae3f0d56f9b8fa05d7787ba1485.jpg",
    "icongray": "https://steamcdn-a.akamaihd.net/steamcommunity/public/images/apps/402570/1bad927b4b4688cce92a760fa6bea675c65b8f45.jpg"
  },
  {
    "name": "AR_QUEST_ID_437",
    "defaultvalue": 0,
    "displayName": "Shared Greatness",
    "hidden": 0,
    "description": "Do 1875 total healing with Astral Fusion as Orion",
    "icon": "https://steamcdn-a.akamaihd.net/steamcommunity/public/images/apps/402570/4c68efc8efb43305126c3cfbd6b49136e6e43299.jpg",
    "icongray": "https://steamcdn-a.akamaihd.net/steamcommunity/public/images/apps/402570/847d8f00c6c9335b7ded298d736dac5d24c5b040.jpg"
  },
  {
    "name": "AR_QUEST_ID_438",
    "defaultvalue": 0,
    "displayName": "Control the Flow",
    "hidden": 0,
    "description": "Play 25 games in which you use Spirit Bend 3 or more times as Su-Ren",
    "icon": "https://steamcdn-a.akamaihd.net/steamcommunity/public/images/apps/402570/c82209d1e653f9cf12a306122b97c0893f18ea64.jpg",
    "icongray": "https://steamcdn-a.akamaihd.net/steamcommunity/public/images/apps/402570/caed475f05bda6cdb56ea1f99ac6ab853c2a93fd.jpg"
  },
  {
    "name": "AR_QUEST_ID_439",
    "defaultvalue": 0,
    "displayName": "Let it Fly (While You Fly)",
    "hidden": 0,
    "description": "Do 1000 total damage with Vaulting Shot as Khita",
    "icon": "https://steamcdn-a.akamaihd.net/steamcommunity/public/images/apps/402570/8136ff9d47219c8b888cb6ce9992088473443aef.jpg",
    "icongray": "https://steamcdn-a.akamaihd.net/steamcommunity/public/images/apps/402570/2dbffb8943b9e4a79fe7d9d850ee8cc49ab1f718.jpg"
  },
  {
    "name": "AR_QUEST_ID_440",
    "defaultvalue": 0,
    "displayName": "That's Not a Sun, That's a ... Hammer?",
    "hidden": 0,
    "description": "Do 1250 total damage with Solar Strike as Meridian",
    "icon": "https://steamcdn-a.akamaihd.net/steamcommunity/public/images/apps/402570/effc58be4052a487e0675540bfb284a763cff748.jpg",
    "icongray": "https://steamcdn-a.akamaihd.net/steamcommunity/public/images/apps/402570/c1a65e8d13e6dc966c2c49145e15ea45d7736d9f.jpg"
  }
]