﻿{
  "Dlcs": {
    "819310": {
      "Name": "Realities - Terres d'Exploration",
      "ImageUrl": "https://steamcdn-a.akamaihd.net/steam/apps/819310/header.jpg?t=1543071988"
    },
    "708620": {
      "Name": "Realities - Cologne Cathedral",
      "ImageUrl": "https://steamcdn-a.akamaihd.net/steam/apps/708620/header.jpg?t=1524762586"
    },
    "708621": {
      "Name": "Realities - Death Valley",
      "ImageUrl": "https://steamcdn-a.akamaihd.net/steam/apps/708621/header.jpg?t=1524762620"
    },
    "708622": {
      "Name": "Realities - Beelitz Heilstätten",
      "ImageUrl": "https://steamcdn-a.akamaihd.net/steam/apps/708622/header.jpg?t=1524762649"
    },
    "736990": {
      "Name": "Realities - Bonus Locations",
      "ImageUrl": "https://steamcdn-a.akamaihd.net/steam/apps/736990/header.jpg?t=1524762637"
    },
    "837160": {
      "Name": "Realities - glückauf!",
      "ImageUrl": "https://steamcdn-a.akamaihd.net/steam/apps/837160/header.jpg?t=1534432180"
    }
  },
  "Name": "Realities",
  "AppId": "452710",
  "ImageUrl": "https://steamcdn-a.akamaihd.net/steam/apps/452710/header.jpg?t=1534664558",
  "Languages": [
    "english"
  ],
  "Platforms": {
    "windows": true,
    "mac": false,
    "linux": false
  }
}