﻿{
  "Dlcs": {
    "447340": {
      "Name": "BLEAK: Original Soundtrack, Vol. 1",
      "ImageUrl": "https://steamcdn-a.akamaihd.net/steam/apps/447340/header.jpg?t=1460145702"
    }
  },
  "Name": "BLEAK: Welcome to Glimmer",
  "AppId": "364830",
  "ImageUrl": "https://steamcdn-a.akamaihd.net/steam/apps/364830/header.jpg?t=1582737549",
  "Languages": [
    "english"
  ],
  "Platforms": {
    "windows": true,
    "mac": true,
    "linux": true
  }
}