﻿{
  "Dlcs": {},
  "Name": "ABO MANDO",
  "AppId": "429950",
  "ImageUrl": "https://steamcdn-a.akamaihd.net/steam/apps/429950/header.jpg?t=1452514256",
  "Languages": [
    "english"
  ],
  "Platforms": {
    "windows": true,
    "mac": false,
    "linux": false
  }
}