﻿[
  {
    "name": "total_kills",
    "defaultvalue": 0,
    "displayName": "Total Kills"
  },
  {
    "name": "best_wave",
    "defaultvalue": 0,
    "displayName": "Best Wave Reached"
  },
  {
    "name": "money_earned",
    "defaultvalue": 0,
    "displayName": "Money Earned"
  },
  {
    "name": "money_spent",
    "defaultvalue": 0,
    "displayName": "Money Spent"
  },
  {
    "name": "headshots",
    "defaultvalue": 0,
    "displayName": "Headshots"
  },
  {
    "name": "longshots",
    "defaultvalue": 0,
    "displayName": "Longshots"
  },
  {
    "name": "boss_kills",
    "defaultvalue": 0,
    "displayName": "Boss Kills"
  },
  {
    "name": "melee_kills",
    "defaultvalue": 0,
    "displayName": "Melee Kills"
  },
  {
    "name": "one_shots",
    "defaultvalue": 0,
    "displayName": "One Shot Kills"
  }
]