﻿{
  "Dlcs": {
    "305181": {
      "Name": "Sniper Elite 3 - Camouflage Weapons Pack",
      "ImageUrl": "https://steamcdn-a.akamaihd.net/steam/apps/305181/header.jpg?t=1447362095"
    },
    "305182": {
      "Name": "Sniper Elite 3 - Hunter Weapons Pack",
      "ImageUrl": "https://steamcdn-a.akamaihd.net/steam/apps/305182/header.jpg?t=1447362095"
    },
    "305183": {
      "Name": "Sniper Elite 3 - Patriot Weapons Pack",
      "ImageUrl": "https://steamcdn-a.akamaihd.net/steam/apps/305183/header.jpg?t=1447362096"
    },
    "305184": {
      "Name": "Sniper Elite 3 - Sniper Rifles Pack",
      "ImageUrl": "https://steamcdn-a.akamaihd.net/steam/apps/305184/header.jpg?t=1447362097"
    },
    "305185": {
      "Name": "Sniper Elite 3 - Axis Weapons Pack",
      "ImageUrl": "https://steamcdn-a.akamaihd.net/steam/apps/305185/header.jpg?t=1447362097"
    },
    "305186": {
      "Name": "Sniper Elite 3 - Eastern Front Weapons Pack",
      "ImageUrl": "https://steamcdn-a.akamaihd.net/steam/apps/305186/header.jpg?t=1447362099"
    },
    "305187": {
      "Name": "Sniper Elite 3 - Allied Reinforcements Outfit Pack",
      "ImageUrl": "https://steamcdn-a.akamaihd.net/steam/apps/305187/header.jpg?t=1447362100"
    },
    "305180": {
      "Name": "Sniper Elite 3 - Target Hitler: Hunt the Grey Wolf",
      "ImageUrl": "https://steamcdn-a.akamaihd.net/steam/apps/305180/header.jpg?t=1549289808"
    },
    "312680": {
      "Name": "Sniper Elite 3 - Save Churchill Part 1: In Shadows",
      "ImageUrl": "https://steamcdn-a.akamaihd.net/steam/apps/312680/header.jpg?t=1447362589"
    },
    "312690": {
      "Name": "Sniper Elite 3 - Save Churchill Part 2: Belly of the Beast",
      "ImageUrl": "https://steamcdn-a.akamaihd.net/steam/apps/312690/header.jpg?t=1447362590"
    },
    "312740": {
      "Name": "Sniper Elite 3 - Save Churchill Part 3: Confrontation",
      "ImageUrl": "https://steamcdn-a.akamaihd.net/steam/apps/312740/header.jpg?t=1447362594"
    },
    "326430": {
      "Name": "Sniper Elite 3 - U.S. Camouflage Rifles Pack",
      "ImageUrl": "https://steamcdn-a.akamaihd.net/steam/apps/326430/header.jpg?t=1447363980"
    },
    "326431": {
      "Name": "Sniper Elite 3 - International Camouflage Rifles Pack",
      "ImageUrl": "https://steamcdn-a.akamaihd.net/steam/apps/326431/header.jpg?t=1447363981"
    }
  },
  "Name": "Sniper Elite 3",
  "AppId": "238090",
  "ImageUrl": "https://steamcdn-a.akamaihd.net/steam/apps/238090/header.jpg?t=1589876864",
  "Languages": [
    "english",
    "french",
    "italian",
    "german",
    "spanish",
    "polish",
    "portuguese",
    "russian",
    "czech",
    "japanese",
    "korean",
    "schinese",
    "tchinese"
  ],
  "Platforms": {
    "windows": true,
    "mac": false,
    "linux": false
  }
}