﻿{
  "Dlcs": {
    "367480": {
      "Name": "Batman™: Arkham Knight Season Pass",
      "ImageUrl": "https://steamcdn-a.akamaihd.net/steam/apps/367480/header.jpg?t=1564443296"
    },
    "313102": {
      "Name": "Batman™: Arkham Knight - A Matter of Family",
      "ImageUrl": "https://steamcdn-a.akamaihd.net/steam/apps/313102/header.jpg?t=1449781153"
    },
    "313100": {
      "Name": "Batman™: Arkham Knight - Harley Quinn Story Pack",
      "ImageUrl": "https://steamcdn-a.akamaihd.net/steam/apps/313100/header.jpg?t=1449788300"
    },
    "313101": {
      "Name": "Batman™: Arkham Knight - Red Hood Story Pack",
      "ImageUrl": "https://steamcdn-a.akamaihd.net/steam/apps/313101/header.jpg?t=1449788469"
    },
    "350171": {
      "Name": "Batman™: Arkham Knight - Prototype Batmobile Skin",
      "ImageUrl": "https://steamcdn-a.akamaihd.net/steam/apps/350171/header.jpg?t=1449788541"
    },
    "350172": {
      "Name": "Batman™: Arkham Knight - Batman Classic TV Series Batmobile Pack",
      "ImageUrl": "https://steamcdn-a.akamaihd.net/steam/apps/350172/header.jpg?t=1449788638"
    },
    "356470": {
      "Name": "Batman™: Arkham Knight - 1st Appearance Batman Skin",
      "ImageUrl": "https://steamcdn-a.akamaihd.net/steam/apps/356470/header.jpg?t=1512409297"
    },
    "401620": {
      "Name": "Batman™: Arkham Knight - Bat-Family Skin Pack",
      "ImageUrl": "https://steamcdn-a.akamaihd.net/steam/apps/401620/header.jpg?t=1449782941"
    },
    "401621": {
      "Name": "Batman™: Arkham Knight - 1989 Movie Batmobile Pack",
      "ImageUrl": "https://steamcdn-a.akamaihd.net/steam/apps/401621/header.jpg?t=1449788895"
    },
    "401622": {
      "Name": "Batman™: Arkham Knight - Crime Fighter Challenge Pack #1",
      "ImageUrl": "https://steamcdn-a.akamaihd.net/steam/apps/401622/header.jpg?t=1449782779"
    },
    "401623": {
      "Name": "Batman™: Arkham Knight - Crime Fighter Challenge Pack #2",
      "ImageUrl": "https://steamcdn-a.akamaihd.net/steam/apps/401623/header.jpg?t=1449782669"
    },
    "401624": {
      "Name": "Batman™: Arkham Knight - Crime Fighter Challenge Pack #3",
      "ImageUrl": "https://steamcdn-a.akamaihd.net/steam/apps/401624/header.jpg?t=1449774142"
    },
    "401625": {
      "Name": "Batman™: Arkham Knight - Crime Fighter Challenge Pack #4",
      "ImageUrl": "https://steamcdn-a.akamaihd.net/steam/apps/401625/header.jpg?t=1448407763"
    },
    "401626": {
      "Name": "Batman™: Arkham Knight Crime Fighter Challenge Pack #5",
      "ImageUrl": "https://steamcdn-a.akamaihd.net/steam/apps/401626/header.jpg?t=1450809562"
    },
    "401628": {
      "Name": "Batman™: Arkham Knight - GCPD Lockdown",
      "ImageUrl": "https://steamcdn-a.akamaihd.net/steam/apps/401628/header.jpg?t=1449788225"
    },
    "401629": {
      "Name": "Batman™: Arkham Knight - 2008 Tumbler Batmobile Pack",
      "ImageUrl": "https://steamcdn-a.akamaihd.net/steam/apps/401629/header.jpg?t=1449788383"
    },
    "401630": {
      "Name": "Batman™: Arkham Knight - Catwoman's Revenge",
      "ImageUrl": "https://steamcdn-a.akamaihd.net/steam/apps/401630/header.jpg?t=1448407709"
    },
    "401631": {
      "Name": "Batman™: Arkham Knight - Robin and Batmobile Skins Pack",
      "ImageUrl": "https://steamcdn-a.akamaihd.net/steam/apps/401631/header.jpg?t=1448407538"
    },
    "401632": {
      "Name": "Batman™: Arkham Knight - WayneTech Track Pack",
      "ImageUrl": "https://steamcdn-a.akamaihd.net/steam/apps/401632/header.jpg?t=1448407612"
    },
    "401633": {
      "Name": "Batman™: Arkham Knight - A Flip of a Coin",
      "ImageUrl": "https://steamcdn-a.akamaihd.net/steam/apps/401633/header.jpg?t=1448407739"
    },
    "401635": {
      "Name": "Batman™: Arkham Knight - Season of Infamy: Most Wanted Expansion",
      "ImageUrl": "https://steamcdn-a.akamaihd.net/steam/apps/401635/header.jpg?t=1450809414"
    },
    "405030": {
      "Name": "Batman™: Arkham Knight - 1970s Batman Themed Batmobile Skin",
      "ImageUrl": "https://steamcdn-a.akamaihd.net/steam/apps/405030/header.jpg?t=1449782509"
    },
    "405031": {
      "Name": "Batman™: Arkham Knight - Riddler Themed Batmobile Skin",
      "ImageUrl": "https://steamcdn-a.akamaihd.net/steam/apps/405031/header.jpg?t=1448407671"
    },
    "405032": {
      "Name": "Batman™: Arkham Knight - Original Arkham Batmobile",
      "ImageUrl": "https://steamcdn-a.akamaihd.net/steam/apps/405032/header.jpg?t=1450809618"
    }
  },
  "Name": "Batman™: Arkham Knight",
  "AppId": "208650",
  "ImageUrl": "https://steamcdn-a.akamaihd.net/steam/apps/208650/header.jpg?t=1591738126",
  "Languages": [
    "english",
    "french",
    "italian",
    "german",
    "spanish",
    "korean",
    "portuguese",
    "polish",
    "russian"
  ],
  "Platforms": {
    "windows": true,
    "mac": false,
    "linux": false
  }
}