﻿{
  "Dlcs": {},
  "Name": "Pink Hour",
  "AppId": "409670",
  "ImageUrl": "https://steamcdn-a.akamaihd.net/steam/apps/409670/header.jpg?t=1575001176",
  "Languages": [
    "english",
    "japanese"
  ],
  "Platforms": {
    "windows": true,
    "mac": false,
    "linux": false
  }
}