﻿[
  {
    "name": "SET_1_ACHIEVEMENT_1",
    "defaultvalue": 0,
    "displayName": "Welcome to Vinyl",
    "hidden": 0,
    "description": "Play a song to completion",
    "icon": "https://steamcdn-a.akamaihd.net/steamcommunity/public/images/apps/369030/0bfaa78a73a86dacacee1e36c5353408dcadda31.jpg",
    "icongray": "https://steamcdn-a.akamaihd.net/steamcommunity/public/images/apps/369030/0d4c006140a3a4727c7995a0644f74f06374df52.jpg"
  },
  {
    "name": "SET_1_ACHIEVEMENT_2",
    "defaultvalue": 0,
    "displayName": "Collector",
    "hidden": 0,
    "description": "Add a new record",
    "icon": "https://steamcdn-a.akamaihd.net/steamcommunity/public/images/apps/369030/7ec458b83e08fcc60772c672615be30d38874595.jpg",
    "icongray": "https://steamcdn-a.akamaihd.net/steamcommunity/public/images/apps/369030/0d4c006140a3a4727c7995a0644f74f06374df52.jpg"
  },
  {
    "name": "SET_1_ACHIEVEMENT_3",
    "defaultvalue": 0,
    "displayName": "New Release",
    "hidden": 0,
    "description": "Play a song that nobody has played before",
    "icon": "https://steamcdn-a.akamaihd.net/steamcommunity/public/images/apps/369030/bfee7b95ce31210581ffadaf483a4052aae225f2.jpg",
    "icongray": "https://steamcdn-a.akamaihd.net/steamcommunity/public/images/apps/369030/0d4c006140a3a4727c7995a0644f74f06374df52.jpg"
  },
  {
    "name": "SET_1_ACHIEVEMENT_4",
    "defaultvalue": 0,
    "displayName": "Gramophone",
    "hidden": 0,
    "description": "Reach 0 History of Vinyl by hitting the static balls",
    "icon": "https://steamcdn-a.akamaihd.net/steamcommunity/public/images/apps/369030/e538aa2af04325353a33d1cf2671acb361403d57.jpg",
    "icongray": "https://steamcdn-a.akamaihd.net/steamcommunity/public/images/apps/369030/0d4c006140a3a4727c7995a0644f74f06374df52.jpg"
  },
  {
    "name": "SET_1_ACHIEVEMENT_5",
    "defaultvalue": 0,
    "displayName": "Synthesized",
    "hidden": 0,
    "description": "Reach 100 History of Vinyl by dodging the static balls",
    "icon": "https://steamcdn-a.akamaihd.net/steamcommunity/public/images/apps/369030/d5539cdb6f53462993090f9c348f4521fb81e52d.jpg",
    "icongray": "https://steamcdn-a.akamaihd.net/steamcommunity/public/images/apps/369030/0d4c006140a3a4727c7995a0644f74f06374df52.jpg"
  },
  {
    "name": "SET_1_ACHIEVEMENT_6",
    "defaultvalue": 0,
    "displayName": "Perfect Listen",
    "hidden": 0,
    "description": "Finish a song without hitting a static ball (minimum 2-minute song)",
    "icon": "https://steamcdn-a.akamaihd.net/steamcommunity/public/images/apps/369030/544f0376a0171f73970bfffd488010789d5fc554.jpg",
    "icongray": "https://steamcdn-a.akamaihd.net/steamcommunity/public/images/apps/369030/0d4c006140a3a4727c7995a0644f74f06374df52.jpg"
  },
  {
    "name": "SET_1_ACHIEVEMENT_7",
    "defaultvalue": 0,
    "displayName": "Cross-Genre",
    "hidden": 0,
    "description": "Hit each different genre wall in the same song",
    "icon": "https://steamcdn-a.akamaihd.net/steamcommunity/public/images/apps/369030/471e9c651df8509025c57ae22d7160ecc1d6b2f5.jpg",
    "icongray": "https://steamcdn-a.akamaihd.net/steamcommunity/public/images/apps/369030/0d4c006140a3a4727c7995a0644f74f06374df52.jpg"
  },
  {
    "name": "SET_1_ACHIEVEMENT_8",
    "defaultvalue": 0,
    "displayName": "Easter Egg",
    "hidden": 0,
    "description": "Find the secret on thestart screen. (Hint: It is on the Vinyl logo)",
    "icon": "https://steamcdn-a.akamaihd.net/steamcommunity/public/images/apps/369030/10f7408a0834583e884a665e238571f1236d6c4b.jpg",
    "icongray": "https://steamcdn-a.akamaihd.net/steamcommunity/public/images/apps/369030/0d4c006140a3a4727c7995a0644f74f06374df52.jpg"
  },
  {
    "name": "SET_1_ACHIEVEMENT_9",
    "defaultvalue": 0,
    "displayName": "Our Record Company",
    "hidden": 0,
    "description": "Click the EAE logo on the About Screen to learn about the EAE program.",
    "icon": "https://steamcdn-a.akamaihd.net/steamcommunity/public/images/apps/369030/d368c40915e3607c28f7fad877f25281f12845b0.jpg",
    "icongray": "https://steamcdn-a.akamaihd.net/steamcommunity/public/images/apps/369030/0d4c006140a3a4727c7995a0644f74f06374df52.jpg"
  },
  {
    "name": "SET_1_ACHIEVEMENT_10",
    "defaultvalue": 0,
    "displayName": "Platinum Album",
    "hidden": 0,
    "description": "Score over 50,000 in a single song",
    "icon": "https://steamcdn-a.akamaihd.net/steamcommunity/public/images/apps/369030/2a7185b686d94dabb3d85e71a25be502efd6189c.jpg",
    "icongray": "https://steamcdn-a.akamaihd.net/steamcommunity/public/images/apps/369030/0d4c006140a3a4727c7995a0644f74f06374df52.jpg"
  }
]