﻿{
  "Dlcs": {
    "44650": {
      "Name": "GT Power Pack – Expansion Pack for RACE 07",
      "ImageUrl": "https://steamcdn-a.akamaihd.net/steam/apps/44650/header.jpg?t=1478078091"
    },
    "8660": {
      "Name": "",
      "ImageUrl": ""
    },
    "8780": {
      "Name": "",
      "ImageUrl": ""
    },
    "44660": {
      "Name": "RETRO – Expansion Pack for RACE 07",
      "ImageUrl": "https://steamcdn-a.akamaihd.net/steam/apps/44660/header.jpg?t=1478078299"
    },
    "8690": {
      "Name": "STCC - The Game 1 - Expansion Pack for RACE 07",
      "ImageUrl": "https://steamcdn-a.akamaihd.net/steam/apps/8690/header.jpg?t=1478078294"
    },
    "44620": {
      "Name": "STCC The Game 2 – Expansion Pack for RACE 07",
      "ImageUrl": "https://steamcdn-a.akamaihd.net/steam/apps/44620/header.jpg?t=1478078289"
    },
    "44670": {
      "Name": "WTCC 2010 – Expansion Pack for RACE 07",
      "ImageUrl": "https://steamcdn-a.akamaihd.net/steam/apps/44670/header.jpg?t=1478078303"
    },
    "8650": {
      "Name": "RACE 07: Andy Priaulx Crowne Plaza Raceway (Free DLC)",
      "ImageUrl": "https://steamcdn-a.akamaihd.net/steam/apps/8650/header.jpg?t=1478078202"
    }
  },
  "Name": "RACE 07",
  "AppId": "8600",
  "ImageUrl": "https://steamcdn-a.akamaihd.net/steam/apps/8600/header.jpg?t=1478078194",
  "Languages": [
    "english",
    "french",
    "german",
    "italian",
    "spanish"
  ],
  "Platforms": {
    "windows": true,
    "mac": false,
    "linux": false
  }
}