﻿{
  "Dlcs": {
    "632870": {
      "Name": "",
      "ImageUrl": ""
    }
  },
  "Name": "Human: Fall Flat",
  "AppId": "477160",
  "ImageUrl": "https://steamcdn-a.akamaihd.net/steam/apps/477160/header.jpg?t=1597785161",
  "Languages": [
    "english",
    "french",
    "german",
    "spanish",
    "russian",
    "italian",
    "schinese",
    "japanese",
    "korean",
    "polish",
    "portuguese",
    "portuguese",
    "thai",
    "turkish",
    "ukrainian"
  ],
  "Platforms": {
    "windows": true,
    "mac": true,
    "linux": false
  }
}