﻿{
  "Dlcs": {},
  "Name": "Lost Planet: Extreme Condition Colonies Edition",
  "AppId": "45720",
  "ImageUrl": "https://steamcdn-a.akamaihd.net/steam/apps/45720/header.jpg?t=1582597830",
  "Languages": [
    "english",
    "french",
    "german",
    "italian",
    "spanish"
  ],
  "Platforms": {
    "windows": true,
    "mac": false,
    "linux": false
  }
}