﻿{
  "Dlcs": {},
  "Name": "Gunjitsu",
  "AppId": "280010",
  "ImageUrl": "https://steamcdn-a.akamaihd.net/steam/apps/280010/header.jpg?t=1458315829",
  "Languages": [
    "english"
  ],
  "Platforms": {
    "windows": true,
    "mac": true,
    "linux": false
  }
}