﻿[
  {
    "name": "1",
    "defaultvalue": 0,
    "displayName": "Dragon Power",
    "hidden": 0,
    "description": "Clear all Lilac stages",
    "icon": "https://steamcdn-a.akamaihd.net/steamcommunity/public/images/apps/248310/80dff55d84cd0f3e186370766c03be3305a89813.jpg",
    "icongray": "https://steamcdn-a.akamaihd.net/steamcommunity/public/images/apps/248310/3766258f07e6fcb1043e419b8d089f98d464bb84.jpg"
  },
  {
    "name": "2",
    "defaultvalue": 0,
    "displayName": "Call of the Wildcat",
    "hidden": 0,
    "description": "Clear all Carol stages",
    "icon": "https://steamcdn-a.akamaihd.net/steamcommunity/public/images/apps/248310/e94b5342c84a2b9388848bc1d6f33d7744584b4a.jpg",
    "icongray": "https://steamcdn-a.akamaihd.net/steamcommunity/public/images/apps/248310/3766258f07e6fcb1043e419b8d089f98d464bb84.jpg"
  },
  {
    "name": "3",
    "defaultvalue": 0,
    "displayName": "Spirit of the Hound",
    "hidden": 0,
    "description": "Clear all Milla stages",
    "icon": "https://steamcdn-a.akamaihd.net/steamcommunity/public/images/apps/248310/eb13655e8a365c34024787fdfd3740773a202e35.jpg",
    "icongray": "https://steamcdn-a.akamaihd.net/steamcommunity/public/images/apps/248310/3766258f07e6fcb1043e419b8d089f98d464bb84.jpg"
  },
  {
    "name": "4",
    "defaultvalue": 0,
    "displayName": "No Death Clear",
    "hidden": 0,
    "description": "Clear the game without losing any lives",
    "icon": "https://steamcdn-a.akamaihd.net/steamcommunity/public/images/apps/248310/1cc460f2efd58f363eacd30bf820613346aeb279.jpg",
    "icongray": "https://steamcdn-a.akamaihd.net/steamcommunity/public/images/apps/248310/3766258f07e6fcb1043e419b8d089f98d464bb84.jpg"
  },
  {
    "name": "5",
    "defaultvalue": 0,
    "displayName": "Speedrunner Clear",
    "hidden": 0,
    "description": "Clear the game in less than 90 minutes",
    "icon": "https://steamcdn-a.akamaihd.net/steamcommunity/public/images/apps/248310/b06b6cb9346c08f27eab39bb2cf946e13f8ae11e.jpg",
    "icongray": "https://steamcdn-a.akamaihd.net/steamcommunity/public/images/apps/248310/3766258f07e6fcb1043e419b8d089f98d464bb84.jpg"
  },
  {
    "name": "6",
    "defaultvalue": 0,
    "displayName": "Gem Hoarder",
    "hidden": 0,
    "description": "Clear the game with over 6000 crystal shards",
    "icon": "https://steamcdn-a.akamaihd.net/steamcommunity/public/images/apps/248310/4f830bcff878b8d6c828083e239b0fc2f6a520a3.jpg",
    "icongray": "https://steamcdn-a.akamaihd.net/steamcommunity/public/images/apps/248310/3766258f07e6fcb1043e419b8d089f98d464bb84.jpg"
  },
  {
    "name": "7",
    "defaultvalue": 0,
    "displayName": "Target Master (Lilac)",
    "hidden": 0,
    "description": "Clear all target rooms in Shang Mu Academy as Lilac",
    "icon": "https://steamcdn-a.akamaihd.net/steamcommunity/public/images/apps/248310/97ac22432a71c05af063149ac9483b6e84b79f92.jpg",
    "icongray": "https://steamcdn-a.akamaihd.net/steamcommunity/public/images/apps/248310/3766258f07e6fcb1043e419b8d089f98d464bb84.jpg"
  },
  {
    "name": "8",
    "defaultvalue": 0,
    "displayName": "Target Master (Carol)",
    "hidden": 0,
    "description": "Clear all target rooms in Shang Mu Academy as Carol",
    "icon": "https://steamcdn-a.akamaihd.net/steamcommunity/public/images/apps/248310/97ac22432a71c05af063149ac9483b6e84b79f92.jpg",
    "icongray": "https://steamcdn-a.akamaihd.net/steamcommunity/public/images/apps/248310/3766258f07e6fcb1043e419b8d089f98d464bb84.jpg"
  },
  {
    "name": "9",
    "defaultvalue": 0,
    "displayName": "Target Master (Milla)",
    "hidden": 0,
    "description": "Clear all target rooms in Shang Mu Academy as Milla",
    "icon": "https://steamcdn-a.akamaihd.net/steamcommunity/public/images/apps/248310/97ac22432a71c05af063149ac9483b6e84b79f92.jpg",
    "icongray": "https://steamcdn-a.akamaihd.net/steamcommunity/public/images/apps/248310/3766258f07e6fcb1043e419b8d089f98d464bb84.jpg"
  },
  {
    "name": "10",
    "defaultvalue": 0,
    "displayName": "Rising Slash Finish",
    "hidden": 0,
    "description": "Defeat an end boss with Lilac's Rising Slash",
    "icon": "https://steamcdn-a.akamaihd.net/steamcommunity/public/images/apps/248310/25d1aeb1333719a977bf2e79811d7db7013ef946.jpg",
    "icongray": "https://steamcdn-a.akamaihd.net/steamcommunity/public/images/apps/248310/3766258f07e6fcb1043e419b8d089f98d464bb84.jpg"
  },
  {
    "name": "11",
    "defaultvalue": 0,
    "displayName": "Dragon Cyclone Finish",
    "hidden": 0,
    "description": "Defeat an end boss with Lilac's Dragon Cyclone",
    "icon": "https://steamcdn-a.akamaihd.net/steamcommunity/public/images/apps/248310/9a5cdae78541d423a60f5037662167cfe0dcfdfe.jpg",
    "icongray": "https://steamcdn-a.akamaihd.net/steamcommunity/public/images/apps/248310/3766258f07e6fcb1043e419b8d089f98d464bb84.jpg"
  },
  {
    "name": "12",
    "defaultvalue": 0,
    "displayName": "Dragon Boost Finish",
    "hidden": 0,
    "description": "Defeat an end boss with Lilac's Dragon Boost",
    "icon": "https://steamcdn-a.akamaihd.net/steamcommunity/public/images/apps/248310/79cbba960214f5f1fa0218aba15e338e985ef840.jpg",
    "icongray": "https://steamcdn-a.akamaihd.net/steamcommunity/public/images/apps/248310/3766258f07e6fcb1043e419b8d089f98d464bb84.jpg"
  },
  {
    "name": "13",
    "defaultvalue": 0,
    "displayName": "Wild Claw Finish",
    "hidden": 0,
    "description": "Defeat an end boss with Carol's Wild Claw",
    "icon": "https://steamcdn-a.akamaihd.net/steamcommunity/public/images/apps/248310/8cb53a404df50451b5b92c59fa5047b17375b0c8.jpg",
    "icongray": "https://steamcdn-a.akamaihd.net/steamcommunity/public/images/apps/248310/3766258f07e6fcb1043e419b8d089f98d464bb84.jpg"
  },
  {
    "name": "14",
    "defaultvalue": 0,
    "displayName": "Wild Kick Finish",
    "hidden": 0,
    "description": "Defeat an end boss with Carol's Wild Kick",
    "icon": "https://steamcdn-a.akamaihd.net/steamcommunity/public/images/apps/248310/76d5b96de8a5374cc29b8ff8fafef37df7e39bef.jpg",
    "icongray": "https://steamcdn-a.akamaihd.net/steamcommunity/public/images/apps/248310/3766258f07e6fcb1043e419b8d089f98d464bb84.jpg"
  },
  {
    "name": "15",
    "defaultvalue": 0,
    "displayName": "Motorcycle Finish",
    "hidden": 0,
    "description": "Defeat an end boss while riding Carol's motorcycle",
    "icon": "https://steamcdn-a.akamaihd.net/steamcommunity/public/images/apps/248310/07b90763729000f2c0b7276aa1a9edb209abd41d.jpg",
    "icongray": "https://steamcdn-a.akamaihd.net/steamcommunity/public/images/apps/248310/3766258f07e6fcb1043e419b8d089f98d464bb84.jpg"
  },
  {
    "name": "16",
    "defaultvalue": 0,
    "displayName": "Phantom Block Finish",
    "hidden": 0,
    "description": "Defeat an end boss with Milla's phantom blocks",
    "icon": "https://steamcdn-a.akamaihd.net/steamcommunity/public/images/apps/248310/8f6ba301162b1665fe128ab5dd623fc964a2869f.jpg",
    "icongray": "https://steamcdn-a.akamaihd.net/steamcommunity/public/images/apps/248310/3766258f07e6fcb1043e419b8d089f98d464bb84.jpg"
  },
  {
    "name": "17",
    "defaultvalue": 0,
    "displayName": "Super Shield Burst Finish",
    "hidden": 0,
    "description": "Defeat an end boss with Milla's Super Shield Burst",
    "icon": "https://steamcdn-a.akamaihd.net/steamcommunity/public/images/apps/248310/1c4f2ee1e2a55377086bc4dc16e69f58c7a0e521.jpg",
    "icongray": "https://steamcdn-a.akamaihd.net/steamcommunity/public/images/apps/248310/3766258f07e6fcb1043e419b8d089f98d464bb84.jpg"
  },
  {
    "name": "18",
    "defaultvalue": 0,
    "displayName": "Lilac the Switch Skipper",
    "hidden": 0,
    "description": "Skip the switch door in Dragon Valley as Lilac",
    "icon": "https://steamcdn-a.akamaihd.net/steamcommunity/public/images/apps/248310/f506d9adb291d0f1b262d317e7ac04a8b62f597f.jpg",
    "icongray": "https://steamcdn-a.akamaihd.net/steamcommunity/public/images/apps/248310/3766258f07e6fcb1043e419b8d089f98d464bb84.jpg"
  },
  {
    "name": "19",
    "defaultvalue": 0,
    "displayName": "Claw Bypass",
    "hidden": 0,
    "description": "Skip the Claw boss in Relic Maze",
    "icon": "https://steamcdn-a.akamaihd.net/steamcommunity/public/images/apps/248310/394fb4e850834ca6614d5f032e634b973a4fc064.jpg",
    "icongray": "https://steamcdn-a.akamaihd.net/steamcommunity/public/images/apps/248310/3766258f07e6fcb1043e419b8d089f98d464bb84.jpg"
  },
  {
    "name": "20",
    "defaultvalue": 0,
    "displayName": "Disco Fever",
    "hidden": 0,
    "description": "Bust some dance moves in Fortune Night",
    "icon": "https://steamcdn-a.akamaihd.net/steamcommunity/public/images/apps/248310/a6c0746bb48da5baf745b76ef5ab0fac3950bb4c.jpg",
    "icongray": "https://steamcdn-a.akamaihd.net/steamcommunity/public/images/apps/248310/3766258f07e6fcb1043e419b8d089f98d464bb84.jpg"
  },
  {
    "name": "21",
    "defaultvalue": 0,
    "displayName": "CPU Finish",
    "hidden": 0,
    "description": "Let one of your teammates finish off Robopanther",
    "icon": "https://steamcdn-a.akamaihd.net/steamcommunity/public/images/apps/248310/7023a26588eb7bfb4496d8265701c448ee864cc5.jpg",
    "icongray": "https://steamcdn-a.akamaihd.net/steamcommunity/public/images/apps/248310/3766258f07e6fcb1043e419b8d089f98d464bb84.jpg"
  },
  {
    "name": "22",
    "defaultvalue": 0,
    "displayName": "Boost Perfectionist",
    "hidden": 0,
    "description": "Destroy a Chopper with a single Dragon Boost as Lilac",
    "icon": "https://steamcdn-a.akamaihd.net/steamcommunity/public/images/apps/248310/a14d6e95ebc836c636f1f8ebc282d88e46203029.jpg",
    "icongray": "https://steamcdn-a.akamaihd.net/steamcommunity/public/images/apps/248310/3766258f07e6fcb1043e419b8d089f98d464bb84.jpg"
  },
  {
    "name": "23",
    "defaultvalue": 0,
    "displayName": "Card Collector (Dragon Valley)",
    "hidden": 0,
    "description": "Collect all 10 cards in Dragon Valley",
    "icon": "https://steamcdn-a.akamaihd.net/steamcommunity/public/images/apps/248310/6308692ad9a7c28ac00c22abf74660ff1a398da8.jpg",
    "icongray": "https://steamcdn-a.akamaihd.net/steamcommunity/public/images/apps/248310/3766258f07e6fcb1043e419b8d089f98d464bb84.jpg"
  },
  {
    "name": "24",
    "defaultvalue": 0,
    "displayName": "Card Collector (Relic Maze)",
    "hidden": 0,
    "description": "Collect all 10 cards in Relic Maze",
    "icon": "https://steamcdn-a.akamaihd.net/steamcommunity/public/images/apps/248310/6308692ad9a7c28ac00c22abf74660ff1a398da8.jpg",
    "icongray": "https://steamcdn-a.akamaihd.net/steamcommunity/public/images/apps/248310/3766258f07e6fcb1043e419b8d089f98d464bb84.jpg"
  },
  {
    "name": "25",
    "defaultvalue": 0,
    "displayName": "Card Collector (Aqua Tunnel)",
    "hidden": 0,
    "description": "Collect all 10 cards in Aqua Tunnel",
    "icon": "https://steamcdn-a.akamaihd.net/steamcommunity/public/images/apps/248310/6308692ad9a7c28ac00c22abf74660ff1a398da8.jpg",
    "icongray": "https://steamcdn-a.akamaihd.net/steamcommunity/public/images/apps/248310/3766258f07e6fcb1043e419b8d089f98d464bb84.jpg"
  },
  {
    "name": "26",
    "defaultvalue": 0,
    "displayName": "Card Collector (Fortune Night)",
    "hidden": 0,
    "description": "Collect all 10 cards in Fortune Night",
    "icon": "https://steamcdn-a.akamaihd.net/steamcommunity/public/images/apps/248310/6308692ad9a7c28ac00c22abf74660ff1a398da8.jpg",
    "icongray": "https://steamcdn-a.akamaihd.net/steamcommunity/public/images/apps/248310/3766258f07e6fcb1043e419b8d089f98d464bb84.jpg"
  },
  {
    "name": "27",
    "defaultvalue": 0,
    "displayName": "Card Collector (Sky Battalion)",
    "hidden": 0,
    "description": "Collect all 10 cards in Sky Battalion",
    "icon": "https://steamcdn-a.akamaihd.net/steamcommunity/public/images/apps/248310/6308692ad9a7c28ac00c22abf74660ff1a398da8.jpg",
    "icongray": "https://steamcdn-a.akamaihd.net/steamcommunity/public/images/apps/248310/3766258f07e6fcb1043e419b8d089f98d464bb84.jpg"
  },
  {
    "name": "28",
    "defaultvalue": 0,
    "displayName": "Card Collector (Jade Creek)",
    "hidden": 0,
    "description": "Collect all 10 cards in Jade Creek",
    "icon": "https://steamcdn-a.akamaihd.net/steamcommunity/public/images/apps/248310/6308692ad9a7c28ac00c22abf74660ff1a398da8.jpg",
    "icongray": "https://steamcdn-a.akamaihd.net/steamcommunity/public/images/apps/248310/3766258f07e6fcb1043e419b8d089f98d464bb84.jpg"
  },
  {
    "name": "29",
    "defaultvalue": 0,
    "displayName": "Card Collector (Thermal Base)",
    "hidden": 0,
    "description": "Collect all 10 cards in Thermal Base",
    "icon": "https://steamcdn-a.akamaihd.net/steamcommunity/public/images/apps/248310/6308692ad9a7c28ac00c22abf74660ff1a398da8.jpg",
    "icongray": "https://steamcdn-a.akamaihd.net/steamcommunity/public/images/apps/248310/3766258f07e6fcb1043e419b8d089f98d464bb84.jpg"
  },
  {
    "name": "30",
    "defaultvalue": 0,
    "displayName": "Card Collector (Trap Hideout)",
    "hidden": 0,
    "description": "Collect all 10 cards in Trap Hideout",
    "icon": "https://steamcdn-a.akamaihd.net/steamcommunity/public/images/apps/248310/6308692ad9a7c28ac00c22abf74660ff1a398da8.jpg",
    "icongray": "https://steamcdn-a.akamaihd.net/steamcommunity/public/images/apps/248310/3766258f07e6fcb1043e419b8d089f98d464bb84.jpg"
  },
  {
    "name": "31",
    "defaultvalue": 0,
    "displayName": "Card Collector (Pangu Lagoon)",
    "hidden": 0,
    "description": "Collect all 10 cards in Pangu Lagoon",
    "icon": "https://steamcdn-a.akamaihd.net/steamcommunity/public/images/apps/248310/6308692ad9a7c28ac00c22abf74660ff1a398da8.jpg",
    "icongray": "https://steamcdn-a.akamaihd.net/steamcommunity/public/images/apps/248310/3766258f07e6fcb1043e419b8d089f98d464bb84.jpg"
  },
  {
    "name": "32",
    "defaultvalue": 0,
    "displayName": "Card Collector (Battle Glacier)",
    "hidden": 0,
    "description": "Collect all 10 cards in Battle Glacier",
    "icon": "https://steamcdn-a.akamaihd.net/steamcommunity/public/images/apps/248310/6308692ad9a7c28ac00c22abf74660ff1a398da8.jpg",
    "icongray": "https://steamcdn-a.akamaihd.net/steamcommunity/public/images/apps/248310/3766258f07e6fcb1043e419b8d089f98d464bb84.jpg"
  },
  {
    "name": "33",
    "defaultvalue": 0,
    "displayName": "Rolling Stones",
    "hidden": 0,
    "description": "Get a boulder to wrap around the screen",
    "icon": "https://steamcdn-a.akamaihd.net/steamcommunity/public/images/apps/248310/b3278c332adfb593d77feabcf61038565399251f.jpg",
    "icongray": "https://steamcdn-a.akamaihd.net/steamcommunity/public/images/apps/248310/3766258f07e6fcb1043e419b8d089f98d464bb84.jpg"
  },
  {
    "name": "34",
    "defaultvalue": 0,
    "displayName": "Push Block KO",
    "hidden": 0,
    "description": "Destroy the Eye Golem in Relic Maze with a push block",
    "icon": "https://steamcdn-a.akamaihd.net/steamcommunity/public/images/apps/248310/0d89d5b2e5d1f65df67cef5a7271b4d87fb3817b.jpg",
    "icongray": "https://steamcdn-a.akamaihd.net/steamcommunity/public/images/apps/248310/3766258f07e6fcb1043e419b8d089f98d464bb84.jpg"
  },
  {
    "name": "35",
    "defaultvalue": 0,
    "displayName": "All Bone, No Brain",
    "hidden": 0,
    "description": "Trick the Bone Golem in Relic Maze into destroying itself",
    "icon": "https://steamcdn-a.akamaihd.net/steamcommunity/public/images/apps/248310/be78169ad4693074e54e2521879041df861fd0c0.jpg",
    "icongray": "https://steamcdn-a.akamaihd.net/steamcommunity/public/images/apps/248310/3766258f07e6fcb1043e419b8d089f98d464bb84.jpg"
  },
  {
    "name": "36",
    "defaultvalue": 0,
    "displayName": "Preemptive Strike I",
    "hidden": 0,
    "description": "Destroy both of the Mantalith's arms before the fight begins",
    "icon": "https://steamcdn-a.akamaihd.net/steamcommunity/public/images/apps/248310/640d211ffc51369310f961b962a8a571c6bb77c9.jpg",
    "icongray": "https://steamcdn-a.akamaihd.net/steamcommunity/public/images/apps/248310/3766258f07e6fcb1043e419b8d089f98d464bb84.jpg"
  },
  {
    "name": "37",
    "defaultvalue": 0,
    "displayName": "Preemptive Strike II",
    "hidden": 0,
    "description": "Destroy Prince Dail's shield before he finishes his monologue",
    "icon": "https://steamcdn-a.akamaihd.net/steamcommunity/public/images/apps/248310/04c1ca3ae6eeed56ecfb45209bd9e5637733a24d.jpg",
    "icongray": "https://steamcdn-a.akamaihd.net/steamcommunity/public/images/apps/248310/3766258f07e6fcb1043e419b8d089f98d464bb84.jpg"
  },
  {
    "name": "38",
    "defaultvalue": 0,
    "displayName": "Treasure Hunter",
    "hidden": 0,
    "description": "Dig into a treasure spot as Milla",
    "icon": "https://steamcdn-a.akamaihd.net/steamcommunity/public/images/apps/248310/4a10ead02c156414dda7cbeef87c4b4476b1b46f.jpg",
    "icongray": "https://steamcdn-a.akamaihd.net/steamcommunity/public/images/apps/248310/3766258f07e6fcb1043e419b8d089f98d464bb84.jpg"
  },
  {
    "name": "39",
    "defaultvalue": 0,
    "displayName": "Ledge Taunt",
    "hidden": 0,
    "description": "Rest on the ledge during Lilac's fight with Spade",
    "icon": "https://steamcdn-a.akamaihd.net/steamcommunity/public/images/apps/248310/a8656472bc438f8401aef3e8e8957d7449859e02.jpg",
    "icongray": "https://steamcdn-a.akamaihd.net/steamcommunity/public/images/apps/248310/3766258f07e6fcb1043e419b8d089f98d464bb84.jpg"
  },
  {
    "name": "40",
    "defaultvalue": 0,
    "displayName": "Freefaller",
    "hidden": 0,
    "description": "Clear Sky Battalion without using Torque's plane",
    "icon": "https://steamcdn-a.akamaihd.net/steamcommunity/public/images/apps/248310/21068afbb75a20c70423092e098fbf27be22e7b8.jpg",
    "icongray": "https://steamcdn-a.akamaihd.net/steamcommunity/public/images/apps/248310/3766258f07e6fcb1043e419b8d089f98d464bb84.jpg"
  },
  {
    "name": "41",
    "defaultvalue": 0,
    "displayName": "Secret Melody",
    "hidden": 0,
    "description": "Play the Secret Melody on a piano",
    "icon": "https://steamcdn-a.akamaihd.net/steamcommunity/public/images/apps/248310/97c1b87ff19763944249c6da0e5b3bb1051a1d8b.jpg",
    "icongray": "https://steamcdn-a.akamaihd.net/steamcommunity/public/images/apps/248310/3766258f07e6fcb1043e419b8d089f98d464bb84.jpg"
  },
  {
    "name": "42",
    "defaultvalue": 0,
    "displayName": "Milla Unlocked!",
    "hidden": 0,
    "description": "Clear Relic Maze as any character",
    "icon": "https://steamcdn-a.akamaihd.net/steamcommunity/public/images/apps/248310/1a5dd54e20b0b061883156029209f948387bc939.jpg",
    "icongray": "https://steamcdn-a.akamaihd.net/steamcommunity/public/images/apps/248310/3766258f07e6fcb1043e419b8d089f98d464bb84.jpg"
  },
  {
    "name": "43",
    "defaultvalue": 0,
    "displayName": "Dragon Valley Speedrunner",
    "hidden": 0,
    "description": "Clear Dragon Valley in 5 minutes",
    "icon": "https://steamcdn-a.akamaihd.net/steamcommunity/public/images/apps/248310/ea3c5c9aff35120c9d80b3cb9696fd8fc5b604d4.jpg",
    "icongray": "https://steamcdn-a.akamaihd.net/steamcommunity/public/images/apps/248310/3766258f07e6fcb1043e419b8d089f98d464bb84.jpg"
  },
  {
    "name": "44",
    "defaultvalue": 0,
    "displayName": "Relic Maze Speedrunner",
    "hidden": 0,
    "description": "Clear Relic Maze in 8 minutes",
    "icon": "https://steamcdn-a.akamaihd.net/steamcommunity/public/images/apps/248310/ea3c5c9aff35120c9d80b3cb9696fd8fc5b604d4.jpg",
    "icongray": "https://steamcdn-a.akamaihd.net/steamcommunity/public/images/apps/248310/3766258f07e6fcb1043e419b8d089f98d464bb84.jpg"
  },
  {
    "name": "45",
    "defaultvalue": 0,
    "displayName": "Aqua Tunnel Speedrunner",
    "hidden": 0,
    "description": "Clear Aqua Tunnel in 5 minutes",
    "icon": "https://steamcdn-a.akamaihd.net/steamcommunity/public/images/apps/248310/ea3c5c9aff35120c9d80b3cb9696fd8fc5b604d4.jpg",
    "icongray": "https://steamcdn-a.akamaihd.net/steamcommunity/public/images/apps/248310/3766258f07e6fcb1043e419b8d089f98d464bb84.jpg"
  },
  {
    "name": "46",
    "defaultvalue": 0,
    "displayName": "Fortune Night Speedrunner",
    "hidden": 0,
    "description": "Clear Fortune Night in 8 minutes",
    "icon": "https://steamcdn-a.akamaihd.net/steamcommunity/public/images/apps/248310/ea3c5c9aff35120c9d80b3cb9696fd8fc5b604d4.jpg",
    "icongray": "https://steamcdn-a.akamaihd.net/steamcommunity/public/images/apps/248310/3766258f07e6fcb1043e419b8d089f98d464bb84.jpg"
  },
  {
    "name": "47",
    "defaultvalue": 0,
    "displayName": "Sky Battalion Speedrunner",
    "hidden": 0,
    "description": "Clear Sky Battalion in 7 minutes",
    "icon": "https://steamcdn-a.akamaihd.net/steamcommunity/public/images/apps/248310/ea3c5c9aff35120c9d80b3cb9696fd8fc5b604d4.jpg",
    "icongray": "https://steamcdn-a.akamaihd.net/steamcommunity/public/images/apps/248310/3766258f07e6fcb1043e419b8d089f98d464bb84.jpg"
  },
  {
    "name": "48",
    "defaultvalue": 0,
    "displayName": "Jade Creek Speedrunner",
    "hidden": 0,
    "description": "Clear Jade Creek in 8 minutes",
    "icon": "https://steamcdn-a.akamaihd.net/steamcommunity/public/images/apps/248310/ea3c5c9aff35120c9d80b3cb9696fd8fc5b604d4.jpg",
    "icongray": "https://steamcdn-a.akamaihd.net/steamcommunity/public/images/apps/248310/3766258f07e6fcb1043e419b8d089f98d464bb84.jpg"
  },
  {
    "name": "49",
    "defaultvalue": 0,
    "displayName": "Thermal Base Speedrunner",
    "hidden": 0,
    "description": "Clear Thermal Base in 9 minutes",
    "icon": "https://steamcdn-a.akamaihd.net/steamcommunity/public/images/apps/248310/ea3c5c9aff35120c9d80b3cb9696fd8fc5b604d4.jpg",
    "icongray": "https://steamcdn-a.akamaihd.net/steamcommunity/public/images/apps/248310/3766258f07e6fcb1043e419b8d089f98d464bb84.jpg"
  },
  {
    "name": "50",
    "defaultvalue": 0,
    "displayName": "Trap Hideout Speedrunner",
    "hidden": 0,
    "description": "Clear Trap Hideout in 6 minutes",
    "icon": "https://steamcdn-a.akamaihd.net/steamcommunity/public/images/apps/248310/ea3c5c9aff35120c9d80b3cb9696fd8fc5b604d4.jpg",
    "icongray": "https://steamcdn-a.akamaihd.net/steamcommunity/public/images/apps/248310/3766258f07e6fcb1043e419b8d089f98d464bb84.jpg"
  },
  {
    "name": "51",
    "defaultvalue": 0,
    "displayName": "Pangu Lagoon Speedrunner",
    "hidden": 0,
    "description": "Clear Pangu Lagoon in 8 minutes",
    "icon": "https://steamcdn-a.akamaihd.net/steamcommunity/public/images/apps/248310/ea3c5c9aff35120c9d80b3cb9696fd8fc5b604d4.jpg",
    "icongray": "https://steamcdn-a.akamaihd.net/steamcommunity/public/images/apps/248310/3766258f07e6fcb1043e419b8d089f98d464bb84.jpg"
  },
  {
    "name": "52",
    "defaultvalue": 0,
    "displayName": "Battle Glacier Speedrunner",
    "hidden": 0,
    "description": "Clear Battle Glacier in 12 minutes",
    "icon": "https://steamcdn-a.akamaihd.net/steamcommunity/public/images/apps/248310/ea3c5c9aff35120c9d80b3cb9696fd8fc5b604d4.jpg",
    "icongray": "https://steamcdn-a.akamaihd.net/steamcommunity/public/images/apps/248310/3766258f07e6fcb1043e419b8d089f98d464bb84.jpg"
  },
  {
    "name": "53",
    "defaultvalue": 0,
    "displayName": "Final Dreadnought 1 Speedrunner",
    "hidden": 0,
    "description": "Clear Final Dreadnought 1 in 5 minutes",
    "icon": "https://steamcdn-a.akamaihd.net/steamcommunity/public/images/apps/248310/ea3c5c9aff35120c9d80b3cb9696fd8fc5b604d4.jpg",
    "icongray": "https://steamcdn-a.akamaihd.net/steamcommunity/public/images/apps/248310/3766258f07e6fcb1043e419b8d089f98d464bb84.jpg"
  },
  {
    "name": "54",
    "defaultvalue": 0,
    "displayName": "Final Dreadnought 2 Speedrunner",
    "hidden": 0,
    "description": "Clear Final Dreadnought 2 in 9 minutes",
    "icon": "https://steamcdn-a.akamaihd.net/steamcommunity/public/images/apps/248310/ea3c5c9aff35120c9d80b3cb9696fd8fc5b604d4.jpg",
    "icongray": "https://steamcdn-a.akamaihd.net/steamcommunity/public/images/apps/248310/3766258f07e6fcb1043e419b8d089f98d464bb84.jpg"
  },
  {
    "name": "55",
    "defaultvalue": 0,
    "displayName": "Final Dreadnought 3 Speedrunner",
    "hidden": 0,
    "description": "Clear Final Dreadnought 3 in 6 minutes",
    "icon": "https://steamcdn-a.akamaihd.net/steamcommunity/public/images/apps/248310/ea3c5c9aff35120c9d80b3cb9696fd8fc5b604d4.jpg",
    "icongray": "https://steamcdn-a.akamaihd.net/steamcommunity/public/images/apps/248310/3766258f07e6fcb1043e419b8d089f98d464bb84.jpg"
  },
  {
    "name": "56",
    "defaultvalue": 0,
    "displayName": "Final Dreadnought 4 Speedrunner",
    "hidden": 0,
    "description": "Clear Final Dreadnought 4 in 8 minutes",
    "icon": "https://steamcdn-a.akamaihd.net/steamcommunity/public/images/apps/248310/ea3c5c9aff35120c9d80b3cb9696fd8fc5b604d4.jpg",
    "icongray": "https://steamcdn-a.akamaihd.net/steamcommunity/public/images/apps/248310/3766258f07e6fcb1043e419b8d089f98d464bb84.jpg"
  }
]