﻿{
  "Dlcs": {},
  "Name": "Big Action Mega Fight!",
  "AppId": "357120",
  "ImageUrl": "https://steamcdn-a.akamaihd.net/steam/apps/357120/header.jpg?t=1567715130",
  "Languages": [
    "english",
    "french"
  ],
  "Platforms": {
    "windows": true,
    "mac": true,
    "linux": false
  }
}