﻿[
  {
    "name": "ACH_LEVEL_1_COMPLETE",
    "defaultvalue": 0,
    "displayName": "Good Start!",
    "hidden": 0,
    "description": "You beat level 1!",
    "icon": "https://steamcdn-a.akamaihd.net/steamcommunity/public/images/apps/760510/fca2229b7e095c65ca0a7a46b24fbdb429b40095.jpg",
    "icongray": "https://steamcdn-a.akamaihd.net/steamcommunity/public/images/apps/760510/517f8c5db08f9ff1f2b70102b11a642dbb6da1f3.jpg"
  },
  {
    "name": "ACH_LEVEL_2_COMPLETE",
    "defaultvalue": 0,
    "displayName": "Keys can't hid from me!",
    "hidden": 0,
    "description": "You beat level 2!",
    "icon": "https://steamcdn-a.akamaihd.net/steamcommunity/public/images/apps/760510/10579d0d507fd4ed54bc1f5a25e179617d395da0.jpg",
    "icongray": "https://steamcdn-a.akamaihd.net/steamcommunity/public/images/apps/760510/517f8c5db08f9ff1f2b70102b11a642dbb6da1f3.jpg"
  },
  {
    "name": "ACH_LEVEL_3_COMPLETE",
    "defaultvalue": 0,
    "displayName": "Dogo dodger",
    "hidden": 0,
    "description": "You beat level 3!",
    "icon": "https://steamcdn-a.akamaihd.net/steamcommunity/public/images/apps/760510/1b326df0d61783670c5ba7f143fa44ff8e4522c3.jpg",
    "icongray": "https://steamcdn-a.akamaihd.net/steamcommunity/public/images/apps/760510/517f8c5db08f9ff1f2b70102b11a642dbb6da1f3.jpg"
  },
  {
    "name": "ACH_LEVEL_4_COMPLETE",
    "defaultvalue": 0,
    "displayName": "Super Sneaky ",
    "hidden": 0,
    "description": "You beat level 4!",
    "icon": "https://steamcdn-a.akamaihd.net/steamcommunity/public/images/apps/760510/be7b0e5a3ced50edf71f299b2485d0d4318ee57a.jpg",
    "icongray": "https://steamcdn-a.akamaihd.net/steamcommunity/public/images/apps/760510/517f8c5db08f9ff1f2b70102b11a642dbb6da1f3.jpg"
  },
  {
    "name": "ACH_LEVEL_5_COMPLETE",
    "defaultvalue": 0,
    "displayName": "Kats Tower",
    "hidden": 0,
    "description": "You beat level 5!",
    "icon": "https://steamcdn-a.akamaihd.net/steamcommunity/public/images/apps/760510/6343db4c69cbe2cde6e2ce6278c5787849c1919a.jpg",
    "icongray": "https://steamcdn-a.akamaihd.net/steamcommunity/public/images/apps/760510/517f8c5db08f9ff1f2b70102b11a642dbb6da1f3.jpg"
  },
  {
    "name": "ACH_LEVEL_6_COMPLETE",
    "defaultvalue": 0,
    "displayName": "Professional Stealth",
    "hidden": 0,
    "description": "You beat level 6!",
    "icon": "https://steamcdn-a.akamaihd.net/steamcommunity/public/images/apps/760510/3b394a39ecea89d3f4ae46181281631f3603baf2.jpg",
    "icongray": "https://steamcdn-a.akamaihd.net/steamcommunity/public/images/apps/760510/517f8c5db08f9ff1f2b70102b11a642dbb6da1f3.jpg"
  },
  {
    "name": "ACH_LEVEL_7_COMPLETE",
    "defaultvalue": 0,
    "displayName": "Major Bull Time",
    "hidden": 0,
    "description": "You finished the game!",
    "icon": "https://steamcdn-a.akamaihd.net/steamcommunity/public/images/apps/760510/591ade1256a881bb3ed8d14499efab5cba80505a.jpg",
    "icongray": "https://steamcdn-a.akamaihd.net/steamcommunity/public/images/apps/760510/517f8c5db08f9ff1f2b70102b11a642dbb6da1f3.jpg"
  },
  {
    "name": "ACH_GEM_TIER_1",
    "defaultvalue": 0,
    "displayName": "Gem Rookie",
    "hidden": 0,
    "description": "Beat the game with 100+ gems!",
    "icon": "https://steamcdn-a.akamaihd.net/steamcommunity/public/images/apps/760510/e90fb0ca26394e19a234c6ab7905fa6b7f55c8a2.jpg",
    "icongray": "https://steamcdn-a.akamaihd.net/steamcommunity/public/images/apps/760510/517f8c5db08f9ff1f2b70102b11a642dbb6da1f3.jpg"
  },
  {
    "name": "ACH_GEM_TIER_2",
    "defaultvalue": 0,
    "displayName": "Gem Collector",
    "hidden": 0,
    "description": "Beat the game with 200+ gems!",
    "icon": "https://steamcdn-a.akamaihd.net/steamcommunity/public/images/apps/760510/5dfa7cdd260cfcb1751dfda3f0f64f05c317e890.jpg",
    "icongray": "https://steamcdn-a.akamaihd.net/steamcommunity/public/images/apps/760510/517f8c5db08f9ff1f2b70102b11a642dbb6da1f3.jpg"
  },
  {
    "name": "ACH_GEM_TIER_3",
    "defaultvalue": 0,
    "displayName": "Gem Enthusiast",
    "hidden": 0,
    "description": "Beat the game with 300+ gems!",
    "icon": "https://steamcdn-a.akamaihd.net/steamcommunity/public/images/apps/760510/6117418d0793b8b85c24dcd7f42d539f230cdf46.jpg",
    "icongray": "https://steamcdn-a.akamaihd.net/steamcommunity/public/images/apps/760510/517f8c5db08f9ff1f2b70102b11a642dbb6da1f3.jpg"
  },
  {
    "name": "ACH_GEM_TIER_4",
    "defaultvalue": 0,
    "displayName": "Gem Expert",
    "hidden": 0,
    "description": "Beat the game with 400+ gems!",
    "icon": "https://steamcdn-a.akamaihd.net/steamcommunity/public/images/apps/760510/a601d63b62f740fcee256cc8b2dd940f57448a9a.jpg",
    "icongray": "https://steamcdn-a.akamaihd.net/steamcommunity/public/images/apps/760510/517f8c5db08f9ff1f2b70102b11a642dbb6da1f3.jpg"
  },
  {
    "name": "ACH_GEM_TIER_5",
    "defaultvalue": 0,
    "displayName": "Gem Master",
    "hidden": 0,
    "description": "!!!!!!!!YOU GOT ALL THE GEMS!!!!!!!",
    "icon": "https://steamcdn-a.akamaihd.net/steamcommunity/public/images/apps/760510/d681ba973cd772ca632fc1b675a536f483058cde.jpg",
    "icongray": "https://steamcdn-a.akamaihd.net/steamcommunity/public/images/apps/760510/517f8c5db08f9ff1f2b70102b11a642dbb6da1f3.jpg"
  },
  {
    "name": "ACH_GETTING_CAUGHT",
    "defaultvalue": 0,
    "displayName": "BUSTED! ",
    "hidden": 0,
    "description": "You got caught by the dogo corps",
    "icon": "https://steamcdn-a.akamaihd.net/steamcommunity/public/images/apps/760510/5524b17e5998d32e1a8ff97bcaf3bfd03d76f8f4.jpg",
    "icongray": "https://steamcdn-a.akamaihd.net/steamcommunity/public/images/apps/760510/517f8c5db08f9ff1f2b70102b11a642dbb6da1f3.jpg"
  },
  {
    "name": "ACH_GEMS_COMPLETE_LEVEL_1",
    "defaultvalue": 0,
    "displayName": "Kats starter collection",
    "hidden": 0,
    "description": "All gems collected in level 1",
    "icon": "https://steamcdn-a.akamaihd.net/steamcommunity/public/images/apps/760510/dc0e3f301b1a2776cfecfb20be359aeb82b02780.jpg",
    "icongray": "https://steamcdn-a.akamaihd.net/steamcommunity/public/images/apps/760510/517f8c5db08f9ff1f2b70102b11a642dbb6da1f3.jpg"
  },
  {
    "name": "ACH_GEMS_COMPLETE_LEVEL_2",
    "defaultvalue": 0,
    "displayName": "Gimmie Gemmies",
    "hidden": 0,
    "description": "All gems collected in level 2",
    "icon": "https://steamcdn-a.akamaihd.net/steamcommunity/public/images/apps/760510/961df262e1cd00db421bce937637a6fac7856dc3.jpg",
    "icongray": "https://steamcdn-a.akamaihd.net/steamcommunity/public/images/apps/760510/517f8c5db08f9ff1f2b70102b11a642dbb6da1f3.jpg"
  },
  {
    "name": "ACH_GEMS_COMPLETE_LEVEL_3",
    "defaultvalue": 0,
    "displayName": "All dem gemz",
    "hidden": 0,
    "description": "All gems collected in level 3",
    "icon": "https://steamcdn-a.akamaihd.net/steamcommunity/public/images/apps/760510/e0428fed9687577b14018ada50be818952215be0.jpg",
    "icongray": "https://steamcdn-a.akamaihd.net/steamcommunity/public/images/apps/760510/517f8c5db08f9ff1f2b70102b11a642dbb6da1f3.jpg"
  },
  {
    "name": "ACH_GEMS_COMPLETE_LEVEL_4",
    "defaultvalue": 0,
    "displayName": "Got love 4 gems! ",
    "hidden": 0,
    "description": "All gems collected in level 4",
    "icon": "https://steamcdn-a.akamaihd.net/steamcommunity/public/images/apps/760510/ce5f882a0416db2e9e34fa5f3425b9fb91ccaf69.jpg",
    "icongray": "https://steamcdn-a.akamaihd.net/steamcommunity/public/images/apps/760510/517f8c5db08f9ff1f2b70102b11a642dbb6da1f3.jpg"
  },
  {
    "name": "ACH_GEMS_COMPLETE_LEVEL_5",
    "defaultvalue": 0,
    "displayName": "Tower of gems!",
    "hidden": 0,
    "description": "All gems collected in level 5",
    "icon": "https://steamcdn-a.akamaihd.net/steamcommunity/public/images/apps/760510/1ce3b25e555c25d757b23acf72627ded14e8ddb8.jpg",
    "icongray": "https://steamcdn-a.akamaihd.net/steamcommunity/public/images/apps/760510/517f8c5db08f9ff1f2b70102b11a642dbb6da1f3.jpg"
  },
  {
    "name": "ACH_GEMS_COMPLETE_LEVEL_6",
    "defaultvalue": 0,
    "displayName": "The patient prowler",
    "hidden": 0,
    "description": "All gems collected in level 6",
    "icon": "https://steamcdn-a.akamaihd.net/steamcommunity/public/images/apps/760510/8659f2e3bdeac9c17c1e54a0409a570337a58d6b.jpg",
    "icongray": "https://steamcdn-a.akamaihd.net/steamcommunity/public/images/apps/760510/517f8c5db08f9ff1f2b70102b11a642dbb6da1f3.jpg"
  },
  {
    "name": "ACH_GEMS_COMPLETE_LEVEL_7",
    "defaultvalue": 0,
    "displayName": "Epic gem collector! ",
    "hidden": 0,
    "description": "All gems collected in level 7 ",
    "icon": "https://steamcdn-a.akamaihd.net/steamcommunity/public/images/apps/760510/5af9418a910bd514f697675135527d12c3b3c706.jpg",
    "icongray": "https://steamcdn-a.akamaihd.net/steamcommunity/public/images/apps/760510/517f8c5db08f9ff1f2b70102b11a642dbb6da1f3.jpg"
  },
  {
    "name": "ACH_CHARITY_CHECKER",
    "defaultvalue": 0,
    "displayName": "Charity ",
    "hidden": 0,
    "description": "You checked out the charities!",
    "icon": "https://steamcdn-a.akamaihd.net/steamcommunity/public/images/apps/760510/0c76feaaaf81b6d9d51b452c4be55b074e256c68.jpg",
    "icongray": "https://steamcdn-a.akamaihd.net/steamcommunity/public/images/apps/760510/517f8c5db08f9ff1f2b70102b11a642dbb6da1f3.jpg"
  },
  {
    "name": "ACH_WHO_MADE_THIS",
    "defaultvalue": 0,
    "displayName": "Who made this?",
    "hidden": 0,
    "description": "View the credits page",
    "icon": "https://steamcdn-a.akamaihd.net/steamcommunity/public/images/apps/760510/00a04bf8fc73e482c6e82c9adf7a879825a88c1c.jpg",
    "icongray": "https://steamcdn-a.akamaihd.net/steamcommunity/public/images/apps/760510/517f8c5db08f9ff1f2b70102b11a642dbb6da1f3.jpg"
  },
  {
    "name": "ACH_GEM_JAM_BRONZE_1",
    "defaultvalue": 0,
    "displayName": "Gem Jam Level 1 Bronze",
    "hidden": 0,
    "description": "Gem Jam Level 1 Bronze",
    "icon": "https://steamcdn-a.akamaihd.net/steamcommunity/public/images/apps/760510/386d2f5f2e30e5a3122b8e1c41325d5fa8076be9.jpg",
    "icongray": "https://steamcdn-a.akamaihd.net/steamcommunity/public/images/apps/760510/517f8c5db08f9ff1f2b70102b11a642dbb6da1f3.jpg"
  },
  {
    "name": "ACH_GEM_JAM_SILVER_1",
    "defaultvalue": 0,
    "displayName": "Gem Jam Level 1 Silver",
    "hidden": 0,
    "description": "Gem Jam Level 1 Silver",
    "icon": "https://steamcdn-a.akamaihd.net/steamcommunity/public/images/apps/760510/b7090e90bf61de14654c7935bb65968e56a49345.jpg",
    "icongray": "https://steamcdn-a.akamaihd.net/steamcommunity/public/images/apps/760510/517f8c5db08f9ff1f2b70102b11a642dbb6da1f3.jpg"
  },
  {
    "name": "ACH_GEM_JAM_GOLD_1",
    "defaultvalue": 0,
    "displayName": "Gem Jam Level 1 Gold",
    "hidden": 0,
    "description": "Gem Jam Level 1 Gold",
    "icon": "https://steamcdn-a.akamaihd.net/steamcommunity/public/images/apps/760510/0b9c44bb76bd6b2ffcdf3309f0ee67f061023ef7.jpg",
    "icongray": "https://steamcdn-a.akamaihd.net/steamcommunity/public/images/apps/760510/517f8c5db08f9ff1f2b70102b11a642dbb6da1f3.jpg"
  },
  {
    "name": "ACH_GEM_JAM_PLATINUM_1",
    "defaultvalue": 0,
    "displayName": "Gem Jam Level 1 Platinum",
    "hidden": 0,
    "description": "Gem Jam Level 1 Platinum",
    "icon": "https://steamcdn-a.akamaihd.net/steamcommunity/public/images/apps/760510/72662609d47f350107a19bf25fd8d94137d02e3e.jpg",
    "icongray": "https://steamcdn-a.akamaihd.net/steamcommunity/public/images/apps/760510/517f8c5db08f9ff1f2b70102b11a642dbb6da1f3.jpg"
  },
  {
    "name": "ACH_GEM_JAM_BRONZE_2",
    "defaultvalue": 0,
    "displayName": "Gem Jam Level 2 Bronze",
    "hidden": 0,
    "description": "Gem Jam Level 2 Bronze",
    "icon": "https://steamcdn-a.akamaihd.net/steamcommunity/public/images/apps/760510/af10a734c4a71699c79d81344d9ad82b0b9045db.jpg",
    "icongray": "https://steamcdn-a.akamaihd.net/steamcommunity/public/images/apps/760510/517f8c5db08f9ff1f2b70102b11a642dbb6da1f3.jpg"
  },
  {
    "name": "ACH_GEM_JAM_SILVER_2",
    "defaultvalue": 0,
    "displayName": "Gem Jam Level 2 Silver",
    "hidden": 0,
    "description": "Gem Jam Level 2 Silver",
    "icon": "https://steamcdn-a.akamaihd.net/steamcommunity/public/images/apps/760510/acd9867cd87c0399158bb60fe2d47785e4dc508e.jpg",
    "icongray": "https://steamcdn-a.akamaihd.net/steamcommunity/public/images/apps/760510/517f8c5db08f9ff1f2b70102b11a642dbb6da1f3.jpg"
  },
  {
    "name": "ACH_GEM_JAM_GOLD_2",
    "defaultvalue": 0,
    "displayName": "Gem Jam Level 2 Gold",
    "hidden": 0,
    "description": "Gem Jam Level 2 Gold",
    "icon": "https://steamcdn-a.akamaihd.net/steamcommunity/public/images/apps/760510/8592a8bc2bdaccc79e53a7c7ebe630c964c188d4.jpg",
    "icongray": "https://steamcdn-a.akamaihd.net/steamcommunity/public/images/apps/760510/517f8c5db08f9ff1f2b70102b11a642dbb6da1f3.jpg"
  },
  {
    "name": "ACH_GEM_JAM_PLATINUM_2",
    "defaultvalue": 0,
    "displayName": "Gem Jam Level 2 Platinum",
    "hidden": 0,
    "description": "Gem Jam Level 2 Platinum",
    "icon": "https://steamcdn-a.akamaihd.net/steamcommunity/public/images/apps/760510/1f5cb1e7053cd2f258b608951b4c79cb0abce71f.jpg",
    "icongray": "https://steamcdn-a.akamaihd.net/steamcommunity/public/images/apps/760510/bba2f1f8a3c7446da0c4cb3b8261ef9d57c7d1ef.jpg"
  },
  {
    "name": "ACH_GEM_JAM_BRONZE_3",
    "defaultvalue": 0,
    "displayName": "Gem Jam Level 3 Bronze",
    "hidden": 0,
    "description": "Gem Jam Level 3 Bronze",
    "icon": "https://steamcdn-a.akamaihd.net/steamcommunity/public/images/apps/760510/f2973f3646b5d03e31a8a8f42d38cab101650974.jpg",
    "icongray": "https://steamcdn-a.akamaihd.net/steamcommunity/public/images/apps/760510/517f8c5db08f9ff1f2b70102b11a642dbb6da1f3.jpg"
  },
  {
    "name": "ACH_GEM_JAM_SILVER_3",
    "defaultvalue": 0,
    "displayName": "Gem Jam Level 3 Silver",
    "hidden": 0,
    "description": "Gem Jam Level 3 Silver",
    "icon": "https://steamcdn-a.akamaihd.net/steamcommunity/public/images/apps/760510/4b28c6fdd7967bc4ce761560c7b3cb40d50262a6.jpg",
    "icongray": "https://steamcdn-a.akamaihd.net/steamcommunity/public/images/apps/760510/517f8c5db08f9ff1f2b70102b11a642dbb6da1f3.jpg"
  },
  {
    "name": "ACH_GEM_JAM_GOLD_3",
    "defaultvalue": 0,
    "displayName": "Gem Jam Level 3 Gold",
    "hidden": 0,
    "description": "Gem Jam Level 3 Gold",
    "icon": "https://steamcdn-a.akamaihd.net/steamcommunity/public/images/apps/760510/4e5c16c0da7e98642af45f10032a7d5b267e0df5.jpg",
    "icongray": "https://steamcdn-a.akamaihd.net/steamcommunity/public/images/apps/760510/517f8c5db08f9ff1f2b70102b11a642dbb6da1f3.jpg"
  },
  {
    "name": "ACH_GEM_JAM_PLATINUM_3",
    "defaultvalue": 0,
    "displayName": "Gem Jam Level 3 Platinum",
    "hidden": 0,
    "description": "Gem Jam Level 3 Platinum",
    "icon": "https://steamcdn-a.akamaihd.net/steamcommunity/public/images/apps/760510/a572a22b8250fd8647775c9100d26dff884d2afc.jpg",
    "icongray": "https://steamcdn-a.akamaihd.net/steamcommunity/public/images/apps/760510/517f8c5db08f9ff1f2b70102b11a642dbb6da1f3.jpg"
  },
  {
    "name": "ACH_GEM_JAM_BRONZE_4",
    "defaultvalue": 0,
    "displayName": "Gem Jam Level 4 Bronze",
    "hidden": 0,
    "description": "Gem Jam Level 4 Bronze",
    "icon": "https://steamcdn-a.akamaihd.net/steamcommunity/public/images/apps/760510/facfa39ae955e0f9b473f346dd4bb7b8886a0850.jpg",
    "icongray": "https://steamcdn-a.akamaihd.net/steamcommunity/public/images/apps/760510/517f8c5db08f9ff1f2b70102b11a642dbb6da1f3.jpg"
  },
  {
    "name": "ACH_GEM_JAM_SILVER_4",
    "defaultvalue": 0,
    "displayName": "Gem Jam Level 4 Silver",
    "hidden": 0,
    "description": "Gem Jam Level 4 Silver",
    "icon": "https://steamcdn-a.akamaihd.net/steamcommunity/public/images/apps/760510/a5fcf076d372f197df5b57e37b457fd50859f422.jpg",
    "icongray": "https://steamcdn-a.akamaihd.net/steamcommunity/public/images/apps/760510/517f8c5db08f9ff1f2b70102b11a642dbb6da1f3.jpg"
  },
  {
    "name": "ACH_GEM_JAM_GOLD_4",
    "defaultvalue": 0,
    "displayName": "Gem Jam Level 4 Gold",
    "hidden": 0,
    "description": "Gem Jam Level 4 Gold",
    "icon": "https://steamcdn-a.akamaihd.net/steamcommunity/public/images/apps/760510/3740798b6fb886e64af6e24f4652a434a843b3c8.jpg",
    "icongray": "https://steamcdn-a.akamaihd.net/steamcommunity/public/images/apps/760510/517f8c5db08f9ff1f2b70102b11a642dbb6da1f3.jpg"
  },
  {
    "name": "ACH_GEM_JAM_PLATINUM_4",
    "defaultvalue": 0,
    "displayName": "Gem Jam Level 4 Platinum",
    "hidden": 0,
    "description": "Gem Jam Level 4 Platinum",
    "icon": "https://steamcdn-a.akamaihd.net/steamcommunity/public/images/apps/760510/597b6e4d0725bb0f92fd2be8e9da2723d8856c82.jpg",
    "icongray": "https://steamcdn-a.akamaihd.net/steamcommunity/public/images/apps/760510/517f8c5db08f9ff1f2b70102b11a642dbb6da1f3.jpg"
  },
  {
    "name": "ACH_GEM_JAM_BRONZE_5",
    "defaultvalue": 0,
    "displayName": "Gem Jam Level 5 Bronze",
    "hidden": 0,
    "description": "Gem Jam Level 5 Bronze",
    "icon": "https://steamcdn-a.akamaihd.net/steamcommunity/public/images/apps/760510/9028cb3495aabb452d253b5b570f1f5240a67fb2.jpg",
    "icongray": "https://steamcdn-a.akamaihd.net/steamcommunity/public/images/apps/760510/517f8c5db08f9ff1f2b70102b11a642dbb6da1f3.jpg"
  },
  {
    "name": "ACH_GEM_JAM_SILVER_5",
    "defaultvalue": 0,
    "displayName": "Gem Jam Level 5 Silver",
    "hidden": 0,
    "description": "Gem Jam Level 5 Silver",
    "icon": "https://steamcdn-a.akamaihd.net/steamcommunity/public/images/apps/760510/226ac40d73cd7f5e10d08014ec839af8c67ee31a.jpg",
    "icongray": "https://steamcdn-a.akamaihd.net/steamcommunity/public/images/apps/760510/517f8c5db08f9ff1f2b70102b11a642dbb6da1f3.jpg"
  },
  {
    "name": "ACH_GEM_JAM_GOLD_5",
    "defaultvalue": 0,
    "displayName": "Gem Jam Level 5 Gold",
    "hidden": 0,
    "description": "Gem Jam Level 5 Gold",
    "icon": "https://steamcdn-a.akamaihd.net/steamcommunity/public/images/apps/760510/cfddb5a261eddab7b6053e5567e9a2608e44af1a.jpg",
    "icongray": "https://steamcdn-a.akamaihd.net/steamcommunity/public/images/apps/760510/517f8c5db08f9ff1f2b70102b11a642dbb6da1f3.jpg"
  },
  {
    "name": "ACH_GEM_JAM_PLATINUM_5",
    "defaultvalue": 0,
    "displayName": "Gem Jam Level 5 Platinum",
    "hidden": 0,
    "description": "Gem Jam Level 5 Platinum",
    "icon": "https://steamcdn-a.akamaihd.net/steamcommunity/public/images/apps/760510/3550bb34cdf618c62f5b86ee085eead5cd26ea95.jpg",
    "icongray": "https://steamcdn-a.akamaihd.net/steamcommunity/public/images/apps/760510/517f8c5db08f9ff1f2b70102b11a642dbb6da1f3.jpg"
  },
  {
    "name": "ACH_GEM_JAM_BRONZE_6",
    "defaultvalue": 0,
    "displayName": "Gem Jam Level 6 Bronze",
    "hidden": 0,
    "description": "Gem Jam Level 6 Bronze",
    "icon": "https://steamcdn-a.akamaihd.net/steamcommunity/public/images/apps/760510/aff2d1b6e7a490f4cb883a778166ac5a446e1ac7.jpg",
    "icongray": "https://steamcdn-a.akamaihd.net/steamcommunity/public/images/apps/760510/517f8c5db08f9ff1f2b70102b11a642dbb6da1f3.jpg"
  },
  {
    "name": "ACH_GEM_JAM_SILVER_6",
    "defaultvalue": 0,
    "displayName": "Gem Jam Level 6 Silver",
    "hidden": 0,
    "description": "Gem Jam Level 6 Silver",
    "icon": "https://steamcdn-a.akamaihd.net/steamcommunity/public/images/apps/760510/f0e7d9b389c243daa9db70504d92673d22f51e6d.jpg",
    "icongray": "https://steamcdn-a.akamaihd.net/steamcommunity/public/images/apps/760510/517f8c5db08f9ff1f2b70102b11a642dbb6da1f3.jpg"
  },
  {
    "name": "ACH_GEM_JAM_GOLD_6",
    "defaultvalue": 0,
    "displayName": "Gem Jam Level 6 Gold",
    "hidden": 0,
    "description": "Gem Jam Level 6 Gold",
    "icon": "https://steamcdn-a.akamaihd.net/steamcommunity/public/images/apps/760510/a7e90098caff49ce978abfca8240423e78e815c0.jpg",
    "icongray": "https://steamcdn-a.akamaihd.net/steamcommunity/public/images/apps/760510/517f8c5db08f9ff1f2b70102b11a642dbb6da1f3.jpg"
  },
  {
    "name": "ACH_GEM_JAM_PLATINUM_6",
    "defaultvalue": 0,
    "displayName": "Gem Jam Level 6 Platinum",
    "hidden": 0,
    "description": "Gem Jam Level 6 Platinum",
    "icon": "https://steamcdn-a.akamaihd.net/steamcommunity/public/images/apps/760510/7a41d9af644e7a2e6e7e827d98d9554590a47615.jpg",
    "icongray": "https://steamcdn-a.akamaihd.net/steamcommunity/public/images/apps/760510/517f8c5db08f9ff1f2b70102b11a642dbb6da1f3.jpg"
  },
  {
    "name": "ACH_GEM_JAM_BRONZE_7",
    "defaultvalue": 0,
    "displayName": "Gem Jam Level 7 Bronze",
    "hidden": 0,
    "description": "Gem Jam Level 7 Bronze",
    "icon": "https://steamcdn-a.akamaihd.net/steamcommunity/public/images/apps/760510/87668cd66c2f7f1466d9eb0cb9dd9ea1bda7d773.jpg",
    "icongray": "https://steamcdn-a.akamaihd.net/steamcommunity/public/images/apps/760510/bba2f1f8a3c7446da0c4cb3b8261ef9d57c7d1ef.jpg"
  },
  {
    "name": "ACH_GEM_JAM_SILVER_7",
    "defaultvalue": 0,
    "displayName": "Gem Jam Level 7 Silver",
    "hidden": 0,
    "description": "Gem Jam Level 7 Silver",
    "icon": "https://steamcdn-a.akamaihd.net/steamcommunity/public/images/apps/760510/c68364687195c765d3765e9a936ca95d166157cb.jpg",
    "icongray": "https://steamcdn-a.akamaihd.net/steamcommunity/public/images/apps/760510/517f8c5db08f9ff1f2b70102b11a642dbb6da1f3.jpg"
  },
  {
    "name": "ACH_GEM_JAM_GOLD_7",
    "defaultvalue": 0,
    "displayName": "Gem Jam Level 7 Gold",
    "hidden": 0,
    "description": "Gem Jam Level 7 Gold",
    "icon": "https://steamcdn-a.akamaihd.net/steamcommunity/public/images/apps/760510/b1bca4bb6d0d3c495b15a7bbd5eb08d60c4d140e.jpg",
    "icongray": "https://steamcdn-a.akamaihd.net/steamcommunity/public/images/apps/760510/517f8c5db08f9ff1f2b70102b11a642dbb6da1f3.jpg"
  },
  {
    "name": "ACH_GEM_JAM_PLATINUM_7",
    "defaultvalue": 0,
    "displayName": "Gem Jam Level 7 Platinum",
    "hidden": 0,
    "description": "Gem Jam Level 7 Platinum",
    "icon": "https://steamcdn-a.akamaihd.net/steamcommunity/public/images/apps/760510/27f4a69e196e5dae285063e5192f6d6058ea3ae7.jpg",
    "icongray": "https://steamcdn-a.akamaihd.net/steamcommunity/public/images/apps/760510/517f8c5db08f9ff1f2b70102b11a642dbb6da1f3.jpg"
  },
  {
    "name": "ACH_DOGO_1",
    "defaultvalue": 0,
    "displayName": "DOGO Mode Level 1",
    "hidden": 0,
    "description": "DOGO Mode Level 1",
    "icon": "https://steamcdn-a.akamaihd.net/steamcommunity/public/images/apps/760510/cb3e702bcf9dfffa834a1eb7001a2f994949b6b4.jpg",
    "icongray": "https://steamcdn-a.akamaihd.net/steamcommunity/public/images/apps/760510/517f8c5db08f9ff1f2b70102b11a642dbb6da1f3.jpg"
  },
  {
    "name": "ACH_DOGO_2",
    "defaultvalue": 0,
    "displayName": "DOGO Mode Level 2",
    "hidden": 0,
    "description": "DOGO Mode Level 2",
    "icon": "https://steamcdn-a.akamaihd.net/steamcommunity/public/images/apps/760510/c5155fb06dab0cfecadbb9499c999a3a098bbe74.jpg",
    "icongray": "https://steamcdn-a.akamaihd.net/steamcommunity/public/images/apps/760510/517f8c5db08f9ff1f2b70102b11a642dbb6da1f3.jpg"
  },
  {
    "name": "ACH_DOGO_3",
    "defaultvalue": 0,
    "displayName": "DOGO Mode Level 3",
    "hidden": 0,
    "description": "DOGO Mode Level 3",
    "icon": "https://steamcdn-a.akamaihd.net/steamcommunity/public/images/apps/760510/9e19600eb4aed85b45d47d4e611d8fe3d1fac6b2.jpg",
    "icongray": "https://steamcdn-a.akamaihd.net/steamcommunity/public/images/apps/760510/517f8c5db08f9ff1f2b70102b11a642dbb6da1f3.jpg"
  },
  {
    "name": "ACH_DOGO_4",
    "defaultvalue": 0,
    "displayName": "DOGO Mode Level 4",
    "hidden": 0,
    "description": "DOGO Mode Level 4",
    "icon": "https://steamcdn-a.akamaihd.net/steamcommunity/public/images/apps/760510/c843df2060f37fd82f1bd03380dfe9840c5af4f7.jpg",
    "icongray": "https://steamcdn-a.akamaihd.net/steamcommunity/public/images/apps/760510/517f8c5db08f9ff1f2b70102b11a642dbb6da1f3.jpg"
  },
  {
    "name": "ACH_DOGO_5",
    "defaultvalue": 0,
    "displayName": "DOGO Mode Level 5",
    "hidden": 0,
    "description": "DOGO Mode Level 5",
    "icon": "https://steamcdn-a.akamaihd.net/steamcommunity/public/images/apps/760510/836e2c0c471d7907448ff34019685ed67a511b47.jpg",
    "icongray": "https://steamcdn-a.akamaihd.net/steamcommunity/public/images/apps/760510/517f8c5db08f9ff1f2b70102b11a642dbb6da1f3.jpg"
  },
  {
    "name": "ACH_DOGO_6",
    "defaultvalue": 0,
    "displayName": "DOGO Mode Level 6",
    "hidden": 0,
    "description": "DOGO Mode Level 6",
    "icon": "https://steamcdn-a.akamaihd.net/steamcommunity/public/images/apps/760510/760867a91caf8212f292453d11cbd9a6f8ad5738.jpg",
    "icongray": "https://steamcdn-a.akamaihd.net/steamcommunity/public/images/apps/760510/517f8c5db08f9ff1f2b70102b11a642dbb6da1f3.jpg"
  },
  {
    "name": "ACH_DOGO_7",
    "defaultvalue": 0,
    "displayName": "DOGO Mode Level 7",
    "hidden": 0,
    "description": "DOGO Mode Level 7",
    "icon": "https://steamcdn-a.akamaihd.net/steamcommunity/public/images/apps/760510/afdee9813b49f07036a88caf3f63b7f5c26b7f4d.jpg",
    "icongray": "https://steamcdn-a.akamaihd.net/steamcommunity/public/images/apps/760510/517f8c5db08f9ff1f2b70102b11a642dbb6da1f3.jpg"
  }
]