﻿{
  "Dlcs": {},
  "Name": "Ball 3D: Soccer Online",
  "AppId": "485610",
  "ImageUrl": "https://steamcdn-a.akamaihd.net/steam/apps/485610/header.jpg?t=1597222975",
  "Languages": [
    "english"
  ],
  "Platforms": {
    "windows": true,
    "mac": true,
    "linux": false
  }
}