﻿[
  {
    "name": "statZombieKills",
    "defaultvalue": 0,
    "displayName": "Zombies Killed"
  },
  {
    "name": "statSkeletonsKilled",
    "defaultvalue": 0,
    "displayName": "Skeletons Killed"
  },
  {
    "name": "statGhostsKilled",
    "defaultvalue": 0,
    "displayName": "Ghosts Killed"
  },
  {
    "name": "statEnemiesKilledWhileDrunk",
    "defaultvalue": 0,
    "displayName": "Enemies killed while drunk"
  },
  {
    "name": "statSkeletonsKilledByHole",
    "defaultvalue": 0,
    "displayName": "Skeletons killed by holes"
  },
  {
    "name": "statStoryLevelsBeaten",
    "defaultvalue": 0,
    "displayName": "Progress through story mode"
  },
  {
    "name": "statBeatFinalStoryLevelNoEscapes",
    "defaultvalue": 0,
    "displayName": "Beat story mode final level with no escaped undead"
  },
  {
    "name": "statEndlessLevelsPlayed",
    "defaultvalue": 0,
    "displayName": "Endless levels played"
  },
  {
    "name": "statEndlessLevel100Beaten",
    "defaultvalue": 0,
    "displayName": "Beat Endless Level 100"
  },
  {
    "name": "statEndlessModeHighScore",
    "defaultvalue": 0,
    "displayName": "Endless Mode Highest Score"
  }
]