﻿[
  {
    "name": "DOD_PLAY_CUSTOM_MAPS_STAT",
    "defaultvalue": 0,
    "displayName": "DOD_PLAY_CUSTOM_MAPS_STAT"
  },
  {
    "name": "DOD_KILLS_AS_ALLIES_STAT",
    "defaultvalue": 0,
    "displayName": "DOD_KILLS_AS_ALLIES_STAT"
  },
  {
    "name": "DOD_KILLS_AS_AXIS_STAT",
    "defaultvalue": 0,
    "displayName": "DOD_KILLS_AS_AXIS_STAT"
  },
  {
    "name": "DOD_KILLS_AS_RIFLEMAN_STAT",
    "defaultvalue": 0,
    "displayName": "DOD_KILLS_AS_RIFLEMAN_STAT"
  },
  {
    "name": "DOD_KILLS_AS_ASSAULT_STAT",
    "defaultvalue": 0,
    "displayName": "DOD_KILLS_AS_ASSAULT_STAT"
  },
  {
    "name": "DOD_KILLS_AS_SUPPORT_STAT",
    "defaultvalue": 0,
    "displayName": "DOD_KILLS_AS_SUPPORT_STAT"
  },
  {
    "name": "DOD_KILLS_AS_SNIPER_STAT",
    "defaultvalue": 0,
    "displayName": "DOD_KILLS_AS_SNIPER_STAT"
  },
  {
    "name": "DOD_KILLS_AS_MG_STAT",
    "defaultvalue": 0,
    "displayName": "DOD_KILLS_AS_MG_STAT"
  },
  {
    "name": "DOD_KILLS_AS_BAZOOKAGUY_STAT",
    "defaultvalue": 0,
    "displayName": "DOD_KILLS_AS_BAZOOKAGUY_STAT"
  },
  {
    "name": "DOD_KILLS_WITH_GARAND_STAT",
    "defaultvalue": 0,
    "displayName": "DOD_KILLS_WITH_GARAND_STAT"
  },
  {
    "name": "DOD_KILLS_WITH_THOMPSON_STAT",
    "defaultvalue": 0,
    "displayName": "DOD_KILLS_WITH_THOMPSON_STAT"
  },
  {
    "name": "DOD_KILLS_WITH_BAR_STAT",
    "defaultvalue": 0,
    "displayName": "DOD_KILLS_WITH_BAR_STAT"
  },
  {
    "name": "DOD_KILLS_WITH_30CAL_STAT",
    "defaultvalue": 0,
    "displayName": "DOD_KILLS_WITH_30CAL_STAT"
  },
  {
    "name": "DOD_KILLS_WITH_K98_STAT",
    "defaultvalue": 0,
    "displayName": "DOD_KILLS_WITH_K98_STAT"
  },
  {
    "name": "DOD_KILLS_WITH_MP40_STAT",
    "defaultvalue": 0,
    "displayName": "DOD_KILLS_WITH_MP40_STAT"
  },
  {
    "name": "DOD_KILLS_WITH_MP44_STAT",
    "defaultvalue": 0,
    "displayName": "DOD_KILLS_WITH_MP44_STAT"
  },
  {
    "name": "DOD_KILLS_WITH_K98SCOPED_STAT",
    "defaultvalue": 0,
    "displayName": "DOD_KILLS_WITH_K98SCOPED_STAT"
  },
  {
    "name": "DOD_KILLS_WITH_MG42_STAT",
    "defaultvalue": 0,
    "displayName": "DOD_KILLS_WITH_MG42_STAT"
  },
  {
    "name": "DOD_KILLS_WITH_PSCHRECK_STAT",
    "defaultvalue": 0,
    "displayName": "DOD_KILLS_WITH_PSCHRECK_STAT"
  },
  {
    "name": "DOD_KILLS_WITH_COLT_STAT",
    "defaultvalue": 0,
    "displayName": "DOD_KILLS_WITH_COLT_STAT"
  },
  {
    "name": "DOD_KILLS_WITH_P38_STAT",
    "defaultvalue": 0,
    "displayName": "DOD_KILLS_WITH_P38_STAT"
  },
  {
    "name": "DOD_KILLS_WITH_C96_STAT",
    "defaultvalue": 0,
    "displayName": "DOD_KILLS_WITH_C96_STAT"
  },
  {
    "name": "DOD_KILLS_WITH_M1CARBINE_STAT",
    "defaultvalue": 0,
    "displayName": "DOD_KILLS_WITH_M1CARBINE_STAT"
  },
  {
    "name": "DOD_KILLS_WITH_AMERKNIFE_STAT",
    "defaultvalue": 0,
    "displayName": "DOD_KILLS_WITH_AMERKNIFE_STAT"
  },
  {
    "name": "DOD_KILLS_WITH_SPADE_STAT",
    "defaultvalue": 0,
    "displayName": "DOD_KILLS_WITH_SPADE_STAT"
  },
  {
    "name": "DOD_KILLS_WITH_PUNCH_STAT",
    "defaultvalue": 0,
    "displayName": "DOD_KILLS_WITH_PUNCH_STAT"
  },
  {
    "name": "DOD_KILLS_WITH_FRAG_US_STAT",
    "defaultvalue": 0,
    "displayName": "DOD_KILLS_WITH_FRAG_US_STAT"
  },
  {
    "name": "DOD_KILLS_WITH_FRAG_GER_STAT",
    "defaultvalue": 0,
    "displayName": "DOD_KILLS_WITH_FRAG_GER_STAT"
  },
  {
    "name": "DOD_KILLS_WITH_RIFLEGREN_US_STAT",
    "defaultvalue": 0,
    "displayName": "DOD_KILLS_WITH_RIFLEGREN_US_STAT"
  },
  {
    "name": "DOD_KILLS_WITH_RIFLEGREN_GER_STAT",
    "defaultvalue": 0,
    "displayName": "DOD_KILLS_WITH_RIFLEGREN_GER_STAT"
  },
  {
    "name": "DOD_CAPTURE_GRIND_STAT",
    "defaultvalue": 0,
    "displayName": "DOD_CAPTURE_GRIND_STAT"
  },
  {
    "name": "DOD_BLOCK_CAPTURES_GRIND_STAT",
    "defaultvalue": 0,
    "displayName": "DOD_BLOCK_CAPTURES_GRIND_STAT"
  },
  {
    "name": "DOD_ROUNDS_WON_GRIND_STAT",
    "defaultvalue": 0,
    "displayName": "DOD_ROUNDS_WON_GRIND_STAT"
  },
  {
    "name": "DOD_BOMBS_PLANTED_GRIND_STAT",
    "defaultvalue": 0,
    "displayName": "DOD_BOMBS_PLANTED_GRIND_STAT"
  },
  {
    "name": "DOD_BOMBS_DEFUSED_GRIND_STAT",
    "defaultvalue": 0,
    "displayName": "DOD_BOMBS_DEFUSED_GRIND_STAT"
  },
  {
    "name": "US.Rifleman.iPlayTime",
    "defaultvalue": 0,
    "displayName": "US.Rifleman.iPlayTime"
  },
  {
    "name": "US.Rifleman.iRoundsWon",
    "defaultvalue": 0,
    "displayName": "US.Rifleman.iRoundsWon"
  },
  {
    "name": "US.Rifleman.iRoundsLost",
    "defaultvalue": 0,
    "displayName": "US.Rifleman.iRoundsLost"
  },
  {
    "name": "US.Rifleman.iKills",
    "defaultvalue": 0,
    "displayName": "US.Rifleman.iKills"
  },
  {
    "name": "US.Rifleman.iDeaths",
    "defaultvalue": 0,
    "displayName": "US.Rifleman.iDeaths"
  },
  {
    "name": "US.Rifleman.iCaptures",
    "defaultvalue": 0,
    "displayName": "US.Rifleman.iCaptures"
  },
  {
    "name": "US.Rifleman.iBlocks",
    "defaultvalue": 0,
    "displayName": "US.Rifleman.iBlocks"
  },
  {
    "name": "US.Rifleman.iBombsPlanted",
    "defaultvalue": 0,
    "displayName": "US.Rifleman.iBombsPlanted"
  },
  {
    "name": "US.Rifleman.iBombsDefused",
    "defaultvalue": 0,
    "displayName": "US.Rifleman.iBombsDefused"
  },
  {
    "name": "US.Rifleman.iDominations",
    "defaultvalue": 0,
    "displayName": "US.Rifleman.iDominations"
  },
  {
    "name": "US.Rifleman.iRevenges",
    "defaultvalue": 0,
    "displayName": "US.Rifleman.iRevenges"
  },
  {
    "name": "US.Assault.iPlayTime",
    "defaultvalue": 0,
    "displayName": "US.Assault.iPlayTime"
  },
  {
    "name": "US.Assault.iRoundsWon",
    "defaultvalue": 0,
    "displayName": "US.Assault.iRoundsWon"
  },
  {
    "name": "US.Assault.iRoundsLost",
    "defaultvalue": 0,
    "displayName": "US.Assault.iRoundsLost"
  },
  {
    "name": "US.Assault.iKills",
    "defaultvalue": 0,
    "displayName": "US.Assault.iKills"
  },
  {
    "name": "US.Assault.iDeaths",
    "defaultvalue": 0,
    "displayName": "US.Assault.iDeaths"
  },
  {
    "name": "US.Assault.iCaptures",
    "defaultvalue": 0,
    "displayName": "US.Assault.iCaptures"
  },
  {
    "name": "US.Assault.iBlocks",
    "defaultvalue": 0,
    "displayName": "US.Assault.iBlocks"
  },
  {
    "name": "US.Assault.iBombsPlanted",
    "defaultvalue": 0,
    "displayName": "US.Assault.iBombsPlanted"
  },
  {
    "name": "US.Assault.iBombsDefused",
    "defaultvalue": 0,
    "displayName": "US.Assault.iBombsDefused"
  },
  {
    "name": "US.Assault.iDominations",
    "defaultvalue": 0,
    "displayName": "US.Assault.iDominations"
  },
  {
    "name": "US.Assault.iRevenges",
    "defaultvalue": 0,
    "displayName": "US.Assault.iRevenges"
  },
  {
    "name": "US.Support.iPlayTime",
    "defaultvalue": 0,
    "displayName": "US.Support.iPlayTime"
  },
  {
    "name": "US.Support.iRoundsWon",
    "defaultvalue": 0,
    "displayName": "US.Support.iRoundsWon"
  },
  {
    "name": "US.Support.iRoundsLost",
    "defaultvalue": 0,
    "displayName": "US.Support.iRoundsLost"
  },
  {
    "name": "US.Support.iKills",
    "defaultvalue": 0,
    "displayName": "US.Support.iKills"
  },
  {
    "name": "US.Support.iDeaths",
    "defaultvalue": 0,
    "displayName": "US.Support.iDeaths"
  },
  {
    "name": "US.Support.iCaptures",
    "defaultvalue": 0,
    "displayName": "US.Support.iCaptures"
  },
  {
    "name": "US.Support.iBlocks",
    "defaultvalue": 0,
    "displayName": "US.Support.iBlocks"
  },
  {
    "name": "US.Support.iBombsPlanted",
    "defaultvalue": 0,
    "displayName": "US.Support.iBombsPlanted"
  },
  {
    "name": "US.Support.iBombsDefused",
    "defaultvalue": 0,
    "displayName": "US.Support.iBombsDefused"
  },
  {
    "name": "US.Support.iDominations",
    "defaultvalue": 0,
    "displayName": "US.Support.iDominations"
  },
  {
    "name": "US.Support.iRevenges",
    "defaultvalue": 0,
    "displayName": "US.Support.iRevenges"
  },
  {
    "name": "US.Sniper.iPlayTime",
    "defaultvalue": 0,
    "displayName": "US.Sniper.iPlayTime"
  },
  {
    "name": "US.Sniper.iRoundsWon",
    "defaultvalue": 0,
    "displayName": "US.Sniper.iRoundsWon"
  },
  {
    "name": "US.Sniper.iRoundsLost",
    "defaultvalue": 0,
    "displayName": "US.Sniper.iRoundsLost"
  },
  {
    "name": "US.Sniper.iKills",
    "defaultvalue": 0,
    "displayName": "US.Sniper.iKills"
  },
  {
    "name": "US.Sniper.iDeaths",
    "defaultvalue": 0,
    "displayName": "US.Sniper.iDeaths"
  },
  {
    "name": "US.Sniper.iCaptures",
    "defaultvalue": 0,
    "displayName": "US.Sniper.iCaptures"
  },
  {
    "name": "US.Sniper.iBlocks",
    "defaultvalue": 0,
    "displayName": "US.Sniper.iBlocks"
  },
  {
    "name": "US.Sniper.iBombsPlanted",
    "defaultvalue": 0,
    "displayName": "US.Sniper.iBombsPlanted"
  },
  {
    "name": "US.Sniper.iBombsDefused",
    "defaultvalue": 0,
    "displayName": "US.Sniper.iBombsDefused"
  },
  {
    "name": "US.Sniper.iDominations",
    "defaultvalue": 0,
    "displayName": "US.Sniper.iDominations"
  },
  {
    "name": "US.Sniper.iRevenges",
    "defaultvalue": 0,
    "displayName": "US.Sniper.iRevenges"
  },
  {
    "name": "US.MG.iPlayTime",
    "defaultvalue": 0,
    "displayName": "US.MG.iPlayTime"
  },
  {
    "name": "US.MG.iRoundsWon",
    "defaultvalue": 0,
    "displayName": "US.MG.iRoundsWon"
  },
  {
    "name": "US.MG.iRoundsLost",
    "defaultvalue": 0,
    "displayName": "US.MG.iRoundsLost"
  },
  {
    "name": "US.MG.iKills",
    "defaultvalue": 0,
    "displayName": "US.MG.iKills"
  },
  {
    "name": "US.MG.iDeaths",
    "defaultvalue": 0,
    "displayName": "US.MG.iDeaths"
  },
  {
    "name": "US.MG.iCaptures",
    "defaultvalue": 0,
    "displayName": "US.MG.iCaptures"
  },
  {
    "name": "US.MG.iBlocks",
    "defaultvalue": 0,
    "displayName": "US.MG.iBlocks"
  },
  {
    "name": "US.MG.iBombsPlanted",
    "defaultvalue": 0,
    "displayName": "US.MG.iBombsPlanted"
  },
  {
    "name": "US.MG.iBombsDefused",
    "defaultvalue": 0,
    "displayName": "US.MG.iBombsDefused"
  },
  {
    "name": "US.MG.iDominations",
    "defaultvalue": 0,
    "displayName": "US.MG.iDominations"
  },
  {
    "name": "US.MG.iRevenges",
    "defaultvalue": 0,
    "displayName": "US.MG.iRevenges"
  },
  {
    "name": "US.Rocket.iPlayTime",
    "defaultvalue": 0,
    "displayName": "US.Rocket.iPlayTime"
  },
  {
    "name": "US.Rocket.iRoundsWon",
    "defaultvalue": 0,
    "displayName": "US.Rocket.iRoundsWon"
  },
  {
    "name": "US.Rocket.iRoundsLost",
    "defaultvalue": 0,
    "displayName": "US.Rocket.iRoundsLost"
  },
  {
    "name": "US.Rocket.iKills",
    "defaultvalue": 0,
    "displayName": "US.Rocket.iKills"
  },
  {
    "name": "US.Rocket.iDeaths",
    "defaultvalue": 0,
    "displayName": "US.Rocket.iDeaths"
  },
  {
    "name": "US.Rocket.iCaptures",
    "defaultvalue": 0,
    "displayName": "US.Rocket.iCaptures"
  },
  {
    "name": "US.Rocket.iBlocks",
    "defaultvalue": 0,
    "displayName": "US.Rocket.iBlocks"
  },
  {
    "name": "US.Rocket.iBombsPlanted",
    "defaultvalue": 0,
    "displayName": "US.Rocket.iBombsPlanted"
  },
  {
    "name": "US.Rocket.iBombsDefused",
    "defaultvalue": 0,
    "displayName": "US.Rocket.iBombsDefused"
  },
  {
    "name": "US.Rocket.iDominations",
    "defaultvalue": 0,
    "displayName": "US.Rocket.iDominations"
  },
  {
    "name": "US.Rocket.iRevenges",
    "defaultvalue": 0,
    "displayName": "US.Rocket.iRevenges"
  },
  {
    "name": "Ger.Rifleman.iPlayTime",
    "defaultvalue": 0,
    "displayName": "Ger.Rifleman.iPlayTime"
  },
  {
    "name": "Ger.Rifleman.iRoundsWon",
    "defaultvalue": 0,
    "displayName": "Ger.Rifleman.iRoundsWon"
  },
  {
    "name": "Ger.Rifleman.iRoundsLost",
    "defaultvalue": 0,
    "displayName": "Ger.Rifleman.iRoundsLost"
  },
  {
    "name": "Ger.Rifleman.iKills",
    "defaultvalue": 0,
    "displayName": "Ger.Rifleman.iKills"
  },
  {
    "name": "Ger.Rifleman.iDeaths",
    "defaultvalue": 0,
    "displayName": "Ger.Rifleman.iDeaths"
  },
  {
    "name": "Ger.Rifleman.iCaptures",
    "defaultvalue": 0,
    "displayName": "Ger.Rifleman.iCaptures"
  },
  {
    "name": "Ger.Rifleman.iBlocks",
    "defaultvalue": 0,
    "displayName": "Ger.Rifleman.iBlocks"
  },
  {
    "name": "Ger.Rifleman.iBombsPlanted",
    "defaultvalue": 0,
    "displayName": "Ger.Rifleman.iBombsPlanted"
  },
  {
    "name": "Ger.Rifleman.iBombsDefused",
    "defaultvalue": 0,
    "displayName": "Ger.Rifleman.iBombsDefused"
  },
  {
    "name": "Ger.Rifleman.iDominations",
    "defaultvalue": 0,
    "displayName": "Ger.Rifleman.iDominations"
  },
  {
    "name": "Ger.Rifleman.iRevenges",
    "defaultvalue": 0,
    "displayName": "Ger.Rifleman.iRevenges"
  },
  {
    "name": "Ger.Assault.iPlayTime",
    "defaultvalue": 0,
    "displayName": "Ger.Assault.iPlayTime"
  },
  {
    "name": "Ger.Assault.iRoundsWon",
    "defaultvalue": 0,
    "displayName": "Ger.Assault.iRoundsWon"
  },
  {
    "name": "Ger.Assault.iRoundsLost",
    "defaultvalue": 0,
    "displayName": "Ger.Assault.iRoundsLost"
  },
  {
    "name": "Ger.Assault.iKills",
    "defaultvalue": 0,
    "displayName": "Ger.Assault.iKills"
  },
  {
    "name": "Ger.Assault.iDeaths",
    "defaultvalue": 0,
    "displayName": "Ger.Assault.iDeaths"
  },
  {
    "name": "Ger.Assault.iCaptures",
    "defaultvalue": 0,
    "displayName": "Ger.Assault.iCaptures"
  },
  {
    "name": "Ger.Assault.iBlocks",
    "defaultvalue": 0,
    "displayName": "Ger.Assault.iBlocks"
  },
  {
    "name": "Ger.Assault.iBombsPlanted",
    "defaultvalue": 0,
    "displayName": "Ger.Assault.iBombsPlanted"
  },
  {
    "name": "Ger.Assault.iBombsDefused",
    "defaultvalue": 0,
    "displayName": "Ger.Assault.iBombsDefused"
  },
  {
    "name": "Ger.Assault.iDominations",
    "defaultvalue": 0,
    "displayName": "Ger.Assault.iDominations"
  },
  {
    "name": "Ger.Assault.iRevenges",
    "defaultvalue": 0,
    "displayName": "Ger.Assault.iRevenges"
  },
  {
    "name": "Ger.Support.iPlayTime",
    "defaultvalue": 0,
    "displayName": "Ger.Support.iPlayTime"
  },
  {
    "name": "Ger.Support.iRoundsWon",
    "defaultvalue": 0,
    "displayName": "Ger.Support.iRoundsWon"
  },
  {
    "name": "Ger.Support.iRoundsLost",
    "defaultvalue": 0,
    "displayName": "Ger.Support.iRoundsLost"
  },
  {
    "name": "Ger.Support.iKills",
    "defaultvalue": 0,
    "displayName": "Ger.Support.iKills"
  },
  {
    "name": "Ger.Support.iDeaths",
    "defaultvalue": 0,
    "displayName": "Ger.Support.iDeaths"
  },
  {
    "name": "Ger.Support.iCaptures",
    "defaultvalue": 0,
    "displayName": "Ger.Support.iCaptures"
  },
  {
    "name": "Ger.Support.iBlocks",
    "defaultvalue": 0,
    "displayName": "Ger.Support.iBlocks"
  },
  {
    "name": "Ger.Support.iBombsPlanted",
    "defaultvalue": 0,
    "displayName": "Ger.Support.iBombsPlanted"
  },
  {
    "name": "Ger.Support.iBombsDefused",
    "defaultvalue": 0,
    "displayName": "Ger.Support.iBombsDefused"
  },
  {
    "name": "Ger.Support.iDominations",
    "defaultvalue": 0,
    "displayName": "Ger.Support.iDominations"
  },
  {
    "name": "Ger.Support.iRevenges",
    "defaultvalue": 0,
    "displayName": "Ger.Support.iRevenges"
  },
  {
    "name": "Ger.Sniper.iPlayTime",
    "defaultvalue": 0,
    "displayName": "Ger.Sniper.iPlayTime"
  },
  {
    "name": "Ger.Sniper.iRoundsWon",
    "defaultvalue": 0,
    "displayName": "Ger.Sniper.iRoundsWon"
  },
  {
    "name": "Ger.Sniper.iRoundsLost",
    "defaultvalue": 0,
    "displayName": "Ger.Sniper.iRoundsLost"
  },
  {
    "name": "Ger.Sniper.iKills",
    "defaultvalue": 0,
    "displayName": "Ger.Sniper.iKills"
  },
  {
    "name": "Ger.Sniper.iDeaths",
    "defaultvalue": 0,
    "displayName": "Ger.Sniper.iDeaths"
  },
  {
    "name": "Ger.Sniper.iCaptures",
    "defaultvalue": 0,
    "displayName": "Ger.Sniper.iCaptures"
  },
  {
    "name": "Ger.Sniper.iBlocks",
    "defaultvalue": 0,
    "displayName": "Ger.Sniper.iBlocks"
  },
  {
    "name": "Ger.Sniper.iBombsPlanted",
    "defaultvalue": 0,
    "displayName": "Ger.Sniper.iBombsPlanted"
  },
  {
    "name": "Ger.Sniper.iBombsDefused",
    "defaultvalue": 0,
    "displayName": "Ger.Sniper.iBombsDefused"
  },
  {
    "name": "Ger.Sniper.iDominations",
    "defaultvalue": 0,
    "displayName": "Ger.Sniper.iDominations"
  },
  {
    "name": "Ger.Sniper.iRevenges",
    "defaultvalue": 0,
    "displayName": "Ger.Sniper.iRevenges"
  },
  {
    "name": "Ger.MG.iPlayTime",
    "defaultvalue": 0,
    "displayName": "Ger.MG.iPlayTime"
  },
  {
    "name": "Ger.MG.iRoundsWon",
    "defaultvalue": 0,
    "displayName": "Ger.MG.iRoundsWon"
  },
  {
    "name": "Ger.MG.iRoundsLost",
    "defaultvalue": 0,
    "displayName": "Ger.MG.iRoundsLost"
  },
  {
    "name": "Ger.MG.iKills",
    "defaultvalue": 0,
    "displayName": "Ger.MG.iKills"
  },
  {
    "name": "Ger.MG.iDeaths",
    "defaultvalue": 0,
    "displayName": "Ger.MG.iDeaths"
  },
  {
    "name": "Ger.MG.iCaptures",
    "defaultvalue": 0,
    "displayName": "Ger.MG.iCaptures"
  },
  {
    "name": "Ger.MG.iBlocks",
    "defaultvalue": 0,
    "displayName": "Ger.MG.iBlocks"
  },
  {
    "name": "Ger.MG.iBombsPlanted",
    "defaultvalue": 0,
    "displayName": "Ger.MG.iBombsPlanted"
  },
  {
    "name": "Ger.MG.iBombsDefused",
    "defaultvalue": 0,
    "displayName": "Ger.MG.iBombsDefused"
  },
  {
    "name": "Ger.MG.iDominations",
    "defaultvalue": 0,
    "displayName": "Ger.MG.iDominations"
  },
  {
    "name": "Ger.MG.iRevenges",
    "defaultvalue": 0,
    "displayName": "Ger.MG.iRevenges"
  },
  {
    "name": "Ger.Rocket.iPlayTime",
    "defaultvalue": 0,
    "displayName": "Ger.Rocket.iPlayTime"
  },
  {
    "name": "Ger.Rocket.iRoundsWon",
    "defaultvalue": 0,
    "displayName": "Ger.Rocket.iRoundsWon"
  },
  {
    "name": "Ger.Rocket.iRoundsLost",
    "defaultvalue": 0,
    "displayName": "Ger.Rocket.iRoundsLost"
  },
  {
    "name": "Ger.Rocket.iKills",
    "defaultvalue": 0,
    "displayName": "Ger.Rocket.iKills"
  },
  {
    "name": "Ger.Rocket.iDeaths",
    "defaultvalue": 0,
    "displayName": "Ger.Rocket.iDeaths"
  },
  {
    "name": "Ger.Rocket.iCaptures",
    "defaultvalue": 0,
    "displayName": "Ger.Rocket.iCaptures"
  },
  {
    "name": "Ger.Rocket.iBlocks",
    "defaultvalue": 0,
    "displayName": "Ger.Rocket.iBlocks"
  },
  {
    "name": "Ger.Rocket.iBombsPlanted",
    "defaultvalue": 0,
    "displayName": "Ger.Rocket.iBombsPlanted"
  },
  {
    "name": "Ger.Rocket.iBombsDefused",
    "defaultvalue": 0,
    "displayName": "Ger.Rocket.iBombsDefused"
  },
  {
    "name": "Ger.Rocket.iDominations",
    "defaultvalue": 0,
    "displayName": "Ger.Rocket.iDominations"
  },
  {
    "name": "Ger.Rocket.iRevenges",
    "defaultvalue": 0,
    "displayName": "Ger.Rocket.iRevenges"
  },
  {
    "name": "amerknife.iKills",
    "defaultvalue": 0,
    "displayName": "amerknife.iKills"
  },
  {
    "name": "amerknife.iShotsHit",
    "defaultvalue": 0,
    "displayName": "amerknife.iShotsHit"
  },
  {
    "name": "amerknife.iShotsFired",
    "defaultvalue": 0,
    "displayName": "amerknife.iShotsFired"
  },
  {
    "name": "amerknife.iHeadshots",
    "defaultvalue": 0,
    "displayName": "amerknife.iHeadshots"
  },
  {
    "name": "spade.iKills",
    "defaultvalue": 0,
    "displayName": "spade.iKills"
  },
  {
    "name": "spade.iShotsHit",
    "defaultvalue": 0,
    "displayName": "spade.iShotsHit"
  },
  {
    "name": "spade.iShotsFired",
    "defaultvalue": 0,
    "displayName": "spade.iShotsFired"
  },
  {
    "name": "spade.iHeadshots",
    "defaultvalue": 0,
    "displayName": "spade.iHeadshots"
  },
  {
    "name": "colt.iKills",
    "defaultvalue": 0,
    "displayName": "colt.iKills"
  },
  {
    "name": "colt.iShotsHit",
    "defaultvalue": 0,
    "displayName": "colt.iShotsHit"
  },
  {
    "name": "colt.iShotsFired",
    "defaultvalue": 0,
    "displayName": "colt.iShotsFired"
  },
  {
    "name": "colt.iHeadshots",
    "defaultvalue": 0,
    "displayName": "colt.iHeadshots"
  },
  {
    "name": "p38.iKills",
    "defaultvalue": 0,
    "displayName": "p38.iKills"
  },
  {
    "name": "p38.iShotsHit",
    "defaultvalue": 0,
    "displayName": "p38.iShotsHit"
  },
  {
    "name": "p38.iShotsFired",
    "defaultvalue": 0,
    "displayName": "p38.iShotsFired"
  },
  {
    "name": "p38.iHeadshots",
    "defaultvalue": 0,
    "displayName": "p38.iHeadshots"
  },
  {
    "name": "c96.iKills",
    "defaultvalue": 0,
    "displayName": "c96.iKills"
  },
  {
    "name": "c96.iShotsHit",
    "defaultvalue": 0,
    "displayName": "c96.iShotsHit"
  },
  {
    "name": "c96.iShotsFired",
    "defaultvalue": 0,
    "displayName": "c96.iShotsFired"
  },
  {
    "name": "c96.iHeadshots",
    "defaultvalue": 0,
    "displayName": "c96.iHeadshots"
  },
  {
    "name": "garand.iKills",
    "defaultvalue": 0,
    "displayName": "garand.iKills"
  },
  {
    "name": "garand.iShotsHit",
    "defaultvalue": 0,
    "displayName": "garand.iShotsHit"
  },
  {
    "name": "garand.iShotsFired",
    "defaultvalue": 0,
    "displayName": "garand.iShotsFired"
  },
  {
    "name": "garand.iHeadshots",
    "defaultvalue": 0,
    "displayName": "garand.iHeadshots"
  },
  {
    "name": "m1carbine.iKills",
    "defaultvalue": 0,
    "displayName": "m1carbine.iKills"
  },
  {
    "name": "m1carbine.iShotsHit",
    "defaultvalue": 0,
    "displayName": "m1carbine.iShotsHit"
  },
  {
    "name": "m1carbine.iShotsFired",
    "defaultvalue": 0,
    "displayName": "m1carbine.iShotsFired"
  },
  {
    "name": "m1carbine.iHeadshots",
    "defaultvalue": 0,
    "displayName": "m1carbine.iHeadshots"
  },
  {
    "name": "k98.iKills",
    "defaultvalue": 0,
    "displayName": "k98.iKills"
  },
  {
    "name": "k98.iShotsHit",
    "defaultvalue": 0,
    "displayName": "k98.iShotsHit"
  },
  {
    "name": "k98.iShotsFired",
    "defaultvalue": 0,
    "displayName": "k98.iShotsFired"
  },
  {
    "name": "k98.iHeadshots",
    "defaultvalue": 0,
    "displayName": "k98.iHeadshots"
  },
  {
    "name": "spring.iKills",
    "defaultvalue": 0,
    "displayName": "spring.iKills"
  },
  {
    "name": "spring.iShotsHit",
    "defaultvalue": 0,
    "displayName": "spring.iShotsHit"
  },
  {
    "name": "spring.iShotsFired",
    "defaultvalue": 0,
    "displayName": "spring.iShotsFired"
  },
  {
    "name": "spring.iHeadshots",
    "defaultvalue": 0,
    "displayName": "spring.iHeadshots"
  },
  {
    "name": "k98_scoped.iKills",
    "defaultvalue": 0,
    "displayName": "k98_scoped.iKills"
  },
  {
    "name": "k98_scoped.iShotsHit",
    "defaultvalue": 0,
    "displayName": "k98_scoped.iShotsHit"
  },
  {
    "name": "k98_scoped.iShotsFired",
    "defaultvalue": 0,
    "displayName": "k98_scoped.iShotsFired"
  },
  {
    "name": "k98_scoped.iHeadshots",
    "defaultvalue": 0,
    "displayName": "k98_scoped.iHeadshots"
  },
  {
    "name": "thompson.iKills",
    "defaultvalue": 0,
    "displayName": "thompson.iKills"
  },
  {
    "name": "thompson.iShotsHit",
    "defaultvalue": 0,
    "displayName": "thompson.iShotsHit"
  },
  {
    "name": "thompson.iShotsFired",
    "defaultvalue": 0,
    "displayName": "thompson.iShotsFired"
  },
  {
    "name": "thompson.iHeadshots",
    "defaultvalue": 0,
    "displayName": "thompson.iHeadshots"
  },
  {
    "name": "mp40.iKills",
    "defaultvalue": 0,
    "displayName": "mp40.iKills"
  },
  {
    "name": "mp40.iShotsHit",
    "defaultvalue": 0,
    "displayName": "mp40.iShotsHit"
  },
  {
    "name": "mp40.iShotsFired",
    "defaultvalue": 0,
    "displayName": "mp40.iShotsFired"
  },
  {
    "name": "mp40.iHeadshots",
    "defaultvalue": 0,
    "displayName": "mp40.iHeadshots"
  },
  {
    "name": "mp44.iKills",
    "defaultvalue": 0,
    "displayName": "mp44.iKills"
  },
  {
    "name": "mp44.iShotsHit",
    "defaultvalue": 0,
    "displayName": "mp44.iShotsHit"
  },
  {
    "name": "mp44.iShotsFired",
    "defaultvalue": 0,
    "displayName": "mp44.iShotsFired"
  },
  {
    "name": "mp44.iHeadshots",
    "defaultvalue": 0,
    "displayName": "mp44.iHeadshots"
  },
  {
    "name": "bar.iKills",
    "defaultvalue": 0,
    "displayName": "bar.iKills"
  },
  {
    "name": "bar.iShotsHit",
    "defaultvalue": 0,
    "displayName": "bar.iShotsHit"
  },
  {
    "name": "bar.iShotsFired",
    "defaultvalue": 0,
    "displayName": "bar.iShotsFired"
  },
  {
    "name": "bar.iHeadshots",
    "defaultvalue": 0,
    "displayName": "bar.iHeadshots"
  },
  {
    "name": "30cal.iKills",
    "defaultvalue": 0,
    "displayName": "30cal.iKills"
  },
  {
    "name": "30cal.iShotsHit",
    "defaultvalue": 0,
    "displayName": "30cal.iShotsHit"
  },
  {
    "name": "30cal.iShotsFired",
    "defaultvalue": 0,
    "displayName": "30cal.iShotsFired"
  },
  {
    "name": "30cal.iHeadshots",
    "defaultvalue": 0,
    "displayName": "30cal.iHeadshots"
  },
  {
    "name": "mg42.iKills",
    "defaultvalue": 0,
    "displayName": "mg42.iKills"
  },
  {
    "name": "mg42.iShotsHit",
    "defaultvalue": 0,
    "displayName": "mg42.iShotsHit"
  },
  {
    "name": "mg42.iShotsFired",
    "defaultvalue": 0,
    "displayName": "mg42.iShotsFired"
  },
  {
    "name": "mg42.iHeadshots",
    "defaultvalue": 0,
    "displayName": "mg42.iHeadshots"
  },
  {
    "name": "bazooka.iKills",
    "defaultvalue": 0,
    "displayName": "bazooka.iKills"
  },
  {
    "name": "bazooka.iShotsHit",
    "defaultvalue": 0,
    "displayName": "bazooka.iShotsHit"
  },
  {
    "name": "bazooka.iShotsFired",
    "defaultvalue": 0,
    "displayName": "bazooka.iShotsFired"
  },
  {
    "name": "bazooka.iHeadshots",
    "defaultvalue": 0,
    "displayName": "bazooka.iHeadshots"
  },
  {
    "name": "pschreck.iKills",
    "defaultvalue": 0,
    "displayName": "pschreck.iKills"
  },
  {
    "name": "pschreck.iShotsHit",
    "defaultvalue": 0,
    "displayName": "pschreck.iShotsHit"
  },
  {
    "name": "pschreck.iShotsFired",
    "defaultvalue": 0,
    "displayName": "pschreck.iShotsFired"
  },
  {
    "name": "pschreck.iHeadshots",
    "defaultvalue": 0,
    "displayName": "pschreck.iHeadshots"
  },
  {
    "name": "frag_us.iKills",
    "defaultvalue": 0,
    "displayName": "frag_us.iKills"
  },
  {
    "name": "frag_us.iShotsHit",
    "defaultvalue": 0,
    "displayName": "frag_us.iShotsHit"
  },
  {
    "name": "frag_us.iShotsFired",
    "defaultvalue": 0,
    "displayName": "frag_us.iShotsFired"
  },
  {
    "name": "frag_us.iHeadshots",
    "defaultvalue": 0,
    "displayName": "frag_us.iHeadshots"
  },
  {
    "name": "frag_ger.iKills",
    "defaultvalue": 0,
    "displayName": "frag_ger.iKills"
  },
  {
    "name": "frag_ger.iShotsHit",
    "defaultvalue": 0,
    "displayName": "frag_ger.iShotsHit"
  },
  {
    "name": "frag_ger.iShotsFired",
    "defaultvalue": 0,
    "displayName": "frag_ger.iShotsFired"
  },
  {
    "name": "frag_ger.iHeadshots",
    "defaultvalue": 0,
    "displayName": "frag_ger.iHeadshots"
  },
  {
    "name": "frag_us_live.iKills",
    "defaultvalue": 0,
    "displayName": "frag_us_live.iKills"
  },
  {
    "name": "frag_us_live.iShotsHit",
    "defaultvalue": 0,
    "displayName": "frag_us_live.iShotsHit"
  },
  {
    "name": "frag_us_live.iShotsFired",
    "defaultvalue": 0,
    "displayName": "frag_us_live.iShotsFired"
  },
  {
    "name": "frag_us_live.iHeadshots",
    "defaultvalue": 0,
    "displayName": "frag_us_live.iHeadshots"
  },
  {
    "name": "frag_ger_live.iKills",
    "defaultvalue": 0,
    "displayName": "frag_ger_live.iKills"
  },
  {
    "name": "frag_ger_live.iShotsHit",
    "defaultvalue": 0,
    "displayName": "frag_ger_live.iShotsHit"
  },
  {
    "name": "frag_ger_live.iShotsFired",
    "defaultvalue": 0,
    "displayName": "frag_ger_live.iShotsFired"
  },
  {
    "name": "frag_ger_live.iHeadshots",
    "defaultvalue": 0,
    "displayName": "frag_ger_live.iHeadshots"
  },
  {
    "name": "smoke_us.iKills",
    "defaultvalue": 0,
    "displayName": "smoke_us.iKills"
  },
  {
    "name": "smoke_us.iShotsHit",
    "defaultvalue": 0,
    "displayName": "smoke_us.iShotsHit"
  },
  {
    "name": "smoke_us.iShotsFired",
    "defaultvalue": 0,
    "displayName": "smoke_us.iShotsFired"
  },
  {
    "name": "smoke_us.iHeadshots",
    "defaultvalue": 0,
    "displayName": "smoke_us.iHeadshots"
  },
  {
    "name": "smoke_ger.iKills",
    "defaultvalue": 0,
    "displayName": "smoke_ger.iKills"
  },
  {
    "name": "smoke_ger.iShotsHit",
    "defaultvalue": 0,
    "displayName": "smoke_ger.iShotsHit"
  },
  {
    "name": "smoke_ger.iShotsFired",
    "defaultvalue": 0,
    "displayName": "smoke_ger.iShotsFired"
  },
  {
    "name": "smoke_ger.iHeadshots",
    "defaultvalue": 0,
    "displayName": "smoke_ger.iHeadshots"
  },
  {
    "name": "riflegren_us.iKills",
    "defaultvalue": 0,
    "displayName": "riflegren_us.iKills"
  },
  {
    "name": "riflegren_us.iShotsHit",
    "defaultvalue": 0,
    "displayName": "riflegren_us.iShotsHit"
  },
  {
    "name": "riflegren_us.iShotsFired",
    "defaultvalue": 0,
    "displayName": "riflegren_us.iShotsFired"
  },
  {
    "name": "riflegren_us.iHeadshots",
    "defaultvalue": 0,
    "displayName": "riflegren_us.iHeadshots"
  },
  {
    "name": "riflegren_ger.iKills",
    "defaultvalue": 0,
    "displayName": "riflegren_ger.iKills"
  },
  {
    "name": "riflegren_ger.iShotsHit",
    "defaultvalue": 0,
    "displayName": "riflegren_ger.iShotsHit"
  },
  {
    "name": "riflegren_ger.iShotsFired",
    "defaultvalue": 0,
    "displayName": "riflegren_ger.iShotsFired"
  },
  {
    "name": "riflegren_ger.iHeadshots",
    "defaultvalue": 0,
    "displayName": "riflegren_ger.iHeadshots"
  },
  {
    "name": "riflegren_us_live.iKills",
    "defaultvalue": 0,
    "displayName": "riflegren_us_live.iKills"
  },
  {
    "name": "riflegren_us_live.iShotsHit",
    "defaultvalue": 0,
    "displayName": "riflegren_us_live.iShotsHit"
  },
  {
    "name": "riflegren_us_live.iShotsFired",
    "defaultvalue": 0,
    "displayName": "riflegren_us_live.iShotsFired"
  },
  {
    "name": "riflegren_us_live.iHeadshots",
    "defaultvalue": 0,
    "displayName": "riflegren_us_live.iHeadshots"
  },
  {
    "name": "riflegren_ger_live.iKills",
    "defaultvalue": 0,
    "displayName": "riflegren_ger_live.iKills"
  },
  {
    "name": "riflegren_ger_live.iShotsHit",
    "defaultvalue": 0,
    "displayName": "riflegren_ger_live.iShotsHit"
  },
  {
    "name": "riflegren_ger_live.iShotsFired",
    "defaultvalue": 0,
    "displayName": "riflegren_ger_live.iShotsFired"
  },
  {
    "name": "riflegren_ger_live.iHeadshots",
    "defaultvalue": 0,
    "displayName": "riflegren_ger_live.iHeadshots"
  },
  {
    "name": "thompson_punch.iKills",
    "defaultvalue": 0,
    "displayName": "thompson_punch.iKills"
  },
  {
    "name": "thompson_punch.iShotsHit",
    "defaultvalue": 0,
    "displayName": "thompson_punch.iShotsHit"
  },
  {
    "name": "thompson_punch.iShotsFired",
    "defaultvalue": 0,
    "displayName": "thompson_punch.iShotsFired"
  },
  {
    "name": "thompson_punch.iHeadshots",
    "defaultvalue": 0,
    "displayName": "thompson_punch.iHeadshots"
  },
  {
    "name": "mp40_punch.iKills",
    "defaultvalue": 0,
    "displayName": "mp40_punch.iKills"
  },
  {
    "name": "mp40_punch.iShotsHit",
    "defaultvalue": 0,
    "displayName": "mp40_punch.iShotsHit"
  },
  {
    "name": "mp40_punch.iShotsFired",
    "defaultvalue": 0,
    "displayName": "mp40_punch.iShotsFired"
  },
  {
    "name": "mp40_punch.iHeadshots",
    "defaultvalue": 0,
    "displayName": "mp40_punch.iHeadshots"
  },
  {
    "name": "garand_zoomed.iKills",
    "defaultvalue": 0,
    "displayName": "garand_zoomed.iKills"
  },
  {
    "name": "garand_zoomed.iShotsHit",
    "defaultvalue": 0,
    "displayName": "garand_zoomed.iShotsHit"
  },
  {
    "name": "garand_zoomed.iShotsFired",
    "defaultvalue": 0,
    "displayName": "garand_zoomed.iShotsFired"
  },
  {
    "name": "garand_zoomed.iHeadshots",
    "defaultvalue": 0,
    "displayName": "garand_zoomed.iHeadshots"
  },
  {
    "name": "k98_zoomed.iKills",
    "defaultvalue": 0,
    "displayName": "k98_zoomed.iKills"
  },
  {
    "name": "k98_zoomed.iShotsHit",
    "defaultvalue": 0,
    "displayName": "k98_zoomed.iShotsHit"
  },
  {
    "name": "k98_zoomed.iShotsFired",
    "defaultvalue": 0,
    "displayName": "k98_zoomed.iShotsFired"
  },
  {
    "name": "k98_zoomed.iHeadshots",
    "defaultvalue": 0,
    "displayName": "k98_zoomed.iHeadshots"
  },
  {
    "name": "spring_zoomed.iKills",
    "defaultvalue": 0,
    "displayName": "spring_zoomed.iKills"
  },
  {
    "name": "spring_zoomed.iShotsHit",
    "defaultvalue": 0,
    "displayName": "spring_zoomed.iShotsHit"
  },
  {
    "name": "spring_zoomed.iShotsFired",
    "defaultvalue": 0,
    "displayName": "spring_zoomed.iShotsFired"
  },
  {
    "name": "spring_zoomed.iHeadshots",
    "defaultvalue": 0,
    "displayName": "spring_zoomed.iHeadshots"
  },
  {
    "name": "k98s_zoomed.iKills",
    "defaultvalue": 0,
    "displayName": "k98s_zoomed.iKills"
  },
  {
    "name": "k98s_zoomed.iShotsHit",
    "defaultvalue": 0,
    "displayName": "k98s_zoomed.iShotsHit"
  },
  {
    "name": "k98s_zoomed.iShotsFired",
    "defaultvalue": 0,
    "displayName": "k98s_zoomed.iShotsFired"
  },
  {
    "name": "k98s_zoomed.iHeadshots",
    "defaultvalue": 0,
    "displayName": "k98s_zoomed.iHeadshots"
  },
  {
    "name": "30cal_undeployed.iKills",
    "defaultvalue": 0,
    "displayName": "30cal_undeployed.iKills"
  },
  {
    "name": "30cal_undeployed.iShotsHit",
    "defaultvalue": 0,
    "displayName": "30cal_undeployed.iShotsHit"
  },
  {
    "name": "30cal_undeployed.iShotsFired",
    "defaultvalue": 0,
    "displayName": "30cal_undeployed.iShotsFired"
  },
  {
    "name": "30cal_undeployed.iHeadshots",
    "defaultvalue": 0,
    "displayName": "30cal_undeployed.iHeadshots"
  },
  {
    "name": "mg42_undeployed.iKills",
    "defaultvalue": 0,
    "displayName": "mg42_undeployed.iKills"
  },
  {
    "name": "mg42_undeployed.iShotsHit",
    "defaultvalue": 0,
    "displayName": "mg42_undeployed.iShotsHit"
  },
  {
    "name": "mg42_undeployed.iShotsFired",
    "defaultvalue": 0,
    "displayName": "mg42_undeployed.iShotsFired"
  },
  {
    "name": "mg42_undeployed.iHeadshots",
    "defaultvalue": 0,
    "displayName": "mg42_undeployed.iHeadshots"
  },
  {
    "name": "bar_semiauto.iKills",
    "defaultvalue": 0,
    "displayName": "bar_semiauto.iKills"
  },
  {
    "name": "bar_semiauto.iShotsHit",
    "defaultvalue": 0,
    "displayName": "bar_semiauto.iShotsHit"
  },
  {
    "name": "bar_semiauto.iShotsFired",
    "defaultvalue": 0,
    "displayName": "bar_semiauto.iShotsFired"
  },
  {
    "name": "bar_semiauto.iHeadshots",
    "defaultvalue": 0,
    "displayName": "bar_semiauto.iHeadshots"
  },
  {
    "name": "mp44_semiauto.iKills",
    "defaultvalue": 0,
    "displayName": "mp44_semiauto.iKills"
  },
  {
    "name": "mp44_semiauto.iShotsHit",
    "defaultvalue": 0,
    "displayName": "mp44_semiauto.iShotsHit"
  },
  {
    "name": "mp44_semiauto.iShotsFired",
    "defaultvalue": 0,
    "displayName": "mp44_semiauto.iShotsFired"
  },
  {
    "name": "mp44_semiauto.iHeadshots",
    "defaultvalue": 0,
    "displayName": "mp44_semiauto.iHeadshots"
  },
  {
    "name": "DOD_COLLECT_HOLIDAY_GIFTS_STAT",
    "defaultvalue": 0,
    "displayName": "DOD_COLLECT_HOLIDAY_GIFTS_STAT"
  }
]