﻿{
  "Dlcs": {},
  "Name": "Arctic Adventure",
  "AppId": "358170",
  "ImageUrl": "https://steamcdn-a.akamaihd.net/steam/apps/358170/header.jpg?t=1447371215",
  "Languages": [
    "english"
  ],
  "Platforms": {
    "windows": true,
    "mac": true,
    "linux": false
  }
}