﻿[
  {
    "name": "GUNRANGE_COMPLETE",
    "defaultvalue": 0,
    "displayName": "Gun Range Complete",
    "hidden": 0,
    "description": "You unlocked everything in the Gun Range! That takes some serious dedication.",
    "icon": "https://steamcdn-a.akamaihd.net/steamcommunity/public/images/apps/658230/1c4e333974e941458b1d46c750118e2de1fad60b.jpg",
    "icongray": "https://steamcdn-a.akamaihd.net/steamcommunity/public/images/apps/658230/0bd6aadf8e65066c664e12034ab0f9035078ea9f.jpg"
  },
  {
    "name": "GUNRANGE_HALF",
    "defaultvalue": 0,
    "displayName": "Collector",
    "hidden": 0,
    "description": "You are halfway done with unlocking all attachments and skins!",
    "icon": "https://steamcdn-a.akamaihd.net/steamcommunity/public/images/apps/658230/20a94f63945d5311df637e84e5fa025826824ec9.jpg",
    "icongray": "https://steamcdn-a.akamaihd.net/steamcommunity/public/images/apps/658230/772694d0e1e6e29dd71d6d6258cf1ab4035034f2.jpg"
  },
  {
    "name": "TAKEOVER",
    "defaultvalue": 0,
    "displayName": "The Takeover",
    "hidden": 0,
    "description": "You survived the takeover. ",
    "icon": "https://steamcdn-a.akamaihd.net/steamcommunity/public/images/apps/658230/9535df44f2fc79d3d556780b0912fa076bef7ccb.jpg",
    "icongray": "https://steamcdn-a.akamaihd.net/steamcommunity/public/images/apps/658230/ee712926cd281449d877ba9ec775b8f57b70aa7d.jpg"
  },
  {
    "name": "FIRST_ONE",
    "defaultvalue": 0,
    "displayName": "One Down",
    "hidden": 0,
    "description": "One arena completed. Good work, recruit.",
    "icon": "https://steamcdn-a.akamaihd.net/steamcommunity/public/images/apps/658230/0814612afd6c7dff24ec580bc0d4752d24937ac6.jpg",
    "icongray": "https://steamcdn-a.akamaihd.net/steamcommunity/public/images/apps/658230/ad32991a5e9094ad25c9aeb29b011de3eb3505d7.jpg"
  },
  {
    "name": "THREE_STARS",
    "defaultvalue": 0,
    "displayName": "Perfectionist",
    "hidden": 1,
    "icon": "https://steamcdn-a.akamaihd.net/steamcommunity/public/images/apps/658230/0d7b6285a4ea125d30e2003166be99894d0530f7.jpg",
    "icongray": "https://steamcdn-a.akamaihd.net/steamcommunity/public/images/apps/658230/cf44c7a6f3fdc029cb7d2dd124b774a21a4da722.jpg"
  },
  {
    "name": "HALFWAY",
    "defaultvalue": 0,
    "displayName": "Halfway to Freedom",
    "hidden": 0,
    "description": "The Chamber doors don't open for another 8 levels. Get back out there!",
    "icon": "https://steamcdn-a.akamaihd.net/steamcommunity/public/images/apps/658230/76f2aa3436980334fd0aabcabf7f05b451bf77af.jpg",
    "icongray": "https://steamcdn-a.akamaihd.net/steamcommunity/public/images/apps/658230/ee45e715988431694cb386fe632c86abf1ff34e2.jpg"
  }
]