﻿{
  "Dlcs": {},
  "Name": "Radline: Quarantine",
  "AppId": "592390",
  "ImageUrl": "https://steamcdn-a.akamaihd.net/steam/apps/592390/header.jpg?t=1553289488",
  "Languages": [
    "english"
  ],
  "Platforms": {
    "windows": true,
    "mac": false,
    "linux": true
  }
}