﻿{
  "Dlcs": {},
  "Name": "Fox & Flock",
  "AppId": "377760",
  "ImageUrl": "https://steamcdn-a.akamaihd.net/steam/apps/377760/header.jpg?t=1478035749",
  "Languages": [
    "english"
  ],
  "Platforms": {
    "windows": true,
    "mac": true,
    "linux": true
  }
}