﻿[
  {
    "name": "2",
    "defaultvalue": 0,
    "displayName": "Taste of Victory",
    "hidden": 0,
    "description": "Win an event (no teams)",
    "icon": "https://steamcdn-a.akamaihd.net/steamcommunity/public/images/apps/203680/607a43ccd9e2e6f9eb36f506eaa6e71e8791c124.jpg",
    "icongray": "https://steamcdn-a.akamaihd.net/steamcommunity/public/images/apps/203680/c6ef408b94adb003c1b0298a9975853528c6d09d.jpg"
  },
  {
    "name": "3",
    "defaultvalue": 0,
    "displayName": "Red Carpet",
    "hidden": 0,
    "description": "Take a locked shortcut",
    "icon": "https://steamcdn-a.akamaihd.net/steamcommunity/public/images/apps/203680/4fb2e3fc1571d167c7c6a2fecfd1400f3628e9ad.jpg",
    "icongray": "https://steamcdn-a.akamaihd.net/steamcommunity/public/images/apps/203680/2f90ce381e28617aa3545410647739808c489ec1.jpg"
  },
  {
    "name": "4",
    "defaultvalue": 0,
    "displayName": "Career is GO!",
    "hidden": 0,
    "description": "Complete the first championship of your career",
    "icon": "https://steamcdn-a.akamaihd.net/steamcommunity/public/images/apps/203680/635f8d854acfde4ae536cf2645ce2982c463537c.jpg",
    "icongray": "https://steamcdn-a.akamaihd.net/steamcommunity/public/images/apps/203680/02d192a74fa933d45fdb86cbb3d441b54f637ef6.jpg"
  },
  {
    "name": "5",
    "defaultvalue": 0,
    "displayName": "Career 25%",
    "hidden": 0,
    "description": "Complete 8 different championships in your career",
    "icon": "https://steamcdn-a.akamaihd.net/steamcommunity/public/images/apps/203680/530a411732ea746547745135bd0b6a9c3da927a1.jpg",
    "icongray": "https://steamcdn-a.akamaihd.net/steamcommunity/public/images/apps/203680/3a7bc785f6defeb85df439ffed7b0349c05251f0.jpg"
  },
  {
    "name": "6",
    "defaultvalue": 0,
    "displayName": "Career 50%",
    "hidden": 0,
    "description": "Complete 15 different championships in your career",
    "icon": "https://steamcdn-a.akamaihd.net/steamcommunity/public/images/apps/203680/db8d6b01eefdc7b671992e4e3f437fa093710e49.jpg",
    "icongray": "https://steamcdn-a.akamaihd.net/steamcommunity/public/images/apps/203680/acf62ef5dee5fb976becfb7ecb98d3ff2f9a19ce.jpg"
  },
  {
    "name": "7",
    "defaultvalue": 0,
    "displayName": "Career 75%",
    "hidden": 0,
    "description": "Complete 23 different championships in your career",
    "icon": "https://steamcdn-a.akamaihd.net/steamcommunity/public/images/apps/203680/1d6a79b300e8c7961ee6e66b357349b3ecfd8ace.jpg",
    "icongray": "https://steamcdn-a.akamaihd.net/steamcommunity/public/images/apps/203680/5631b91f8159f844f9ff9a6953b8aacf69926d62.jpg"
  },
  {
    "name": "8",
    "defaultvalue": 0,
    "displayName": "Career 100%",
    "hidden": 0,
    "description": "Complete 30 different championships in your career",
    "icon": "https://steamcdn-a.akamaihd.net/steamcommunity/public/images/apps/203680/e36e94e127ea24e14f6a38226b8e9f8cbc53d887.jpg",
    "icongray": "https://steamcdn-a.akamaihd.net/steamcommunity/public/images/apps/203680/bcf0549c75fe84c24389550d96bb6b1374013e5e.jpg"
  },
  {
    "name": "9",
    "defaultvalue": 0,
    "displayName": "Shelf Promotion",
    "hidden": 0,
    "description": "Fill your career trophy cabinet",
    "icon": "https://steamcdn-a.akamaihd.net/steamcommunity/public/images/apps/203680/f4e0103d1ca8a7c88dbb04bf9c4f02fe2b309225.jpg",
    "icongray": "https://steamcdn-a.akamaihd.net/steamcommunity/public/images/apps/203680/61aae16f3cbfb2ca6677eaf17f3016ce5048746d.jpg"
  },
  {
    "name": "10",
    "defaultvalue": 0,
    "displayName": "Your Friends are Cool",
    "hidden": 0,
    "description": "Complete a championship in your career in a splitscreen team",
    "icon": "https://steamcdn-a.akamaihd.net/steamcommunity/public/images/apps/203680/b0c2c15a45f566f24f4f473982dc8549b3a7540d.jpg",
    "icongray": "https://steamcdn-a.akamaihd.net/steamcommunity/public/images/apps/203680/e6a4fb7b13104179ff4a03fb64f5f6faf01bc05a.jpg"
  },
  {
    "name": "11",
    "defaultvalue": 0,
    "displayName": "Internet Famous",
    "hidden": 0,
    "description": "Win an online event (no teams)",
    "icon": "https://steamcdn-a.akamaihd.net/steamcommunity/public/images/apps/203680/5c932606d2db9394f27f87bf216eaa0ecde8c962.jpg",
    "icongray": "https://steamcdn-a.akamaihd.net/steamcommunity/public/images/apps/203680/e45928ee2b0c1a73093d03e5c691219b66ccae82.jpg"
  },
  {
    "name": "12",
    "defaultvalue": 0,
    "displayName": "Fish in a Barrel",
    "hidden": 0,
    "description": "Use power-ups against 3 drivers who are within range of the safety car (globals not included)",
    "icon": "https://steamcdn-a.akamaihd.net/steamcommunity/public/images/apps/203680/7e4c05aa01d1954332689567ababfee32b8e0c80.jpg",
    "icongray": "https://steamcdn-a.akamaihd.net/steamcommunity/public/images/apps/203680/71d88229a1b69e70a7a0ac679b9ce03a64390b32.jpg"
  },
  {
    "name": "13",
    "defaultvalue": 0,
    "displayName": "Heavyweight",
    "hidden": 0,
    "description": "Affect 3 drivers with a single Pulse",
    "icon": "https://steamcdn-a.akamaihd.net/steamcommunity/public/images/apps/203680/73451032a7ad178a7829b9426d77d418941d542b.jpg",
    "icongray": "https://steamcdn-a.akamaihd.net/steamcommunity/public/images/apps/203680/6e6d7af617c40cca22790871fa839751257fa6a3.jpg"
  },
  {
    "name": "14",
    "defaultvalue": 0,
    "displayName": "Fully Automatic",
    "hidden": 0,
    "description": "Hit the same driver three times with a 3x Ricochet Bubble",
    "icon": "https://steamcdn-a.akamaihd.net/steamcommunity/public/images/apps/203680/01eb0fce2e82db5653cc162aea7b08864b426e3e.jpg",
    "icongray": "https://steamcdn-a.akamaihd.net/steamcommunity/public/images/apps/203680/837500c4cfbda978d3c15fdacb17cf7cc2dd9815.jpg"
  },
  {
    "name": "15",
    "defaultvalue": 0,
    "displayName": "Whoops!",
    "hidden": 1,
    "icon": "https://steamcdn-a.akamaihd.net/steamcommunity/public/images/apps/203680/f6f6f7618175422d2a31c4ff87ee5b88501a9aa3.jpg",
    "icongray": "https://steamcdn-a.akamaihd.net/steamcommunity/public/images/apps/203680/b24cc3c8ce471cd28174fcc68a7dbb575ab3c6c0.jpg"
  },
  {
    "name": "16",
    "defaultvalue": 0,
    "displayName": "Scientific Method",
    "hidden": 0,
    "description": "Make an impact with each type of power-up",
    "icon": "https://steamcdn-a.akamaihd.net/steamcommunity/public/images/apps/203680/9628c588de32b531a3e893515ce4cc173f20371c.jpg",
    "icongray": "https://steamcdn-a.akamaihd.net/steamcommunity/public/images/apps/203680/daf0a9246a1328d64d9f9867583042895b953284.jpg"
  },
  {
    "name": "17",
    "defaultvalue": 0,
    "displayName": "Nailed the Jump",
    "hidden": 0,
    "description": "Trigger a jump boost",
    "icon": "https://steamcdn-a.akamaihd.net/steamcommunity/public/images/apps/203680/080bcc4991f798141de02905699979babb6a400c.jpg",
    "icongray": "https://steamcdn-a.akamaihd.net/steamcommunity/public/images/apps/203680/de0ca9ebf960bc6a48bd867b24711d2cc026c28e.jpg"
  },
  {
    "name": "18",
    "defaultvalue": 0,
    "displayName": "Jump Boost Expert",
    "hidden": 0,
    "description": "Trigger 50 jump boosts",
    "icon": "https://steamcdn-a.akamaihd.net/steamcommunity/public/images/apps/203680/19c4908fd3ada4fdca40a235991352559e767b31.jpg",
    "icongray": "https://steamcdn-a.akamaihd.net/steamcommunity/public/images/apps/203680/5c99a483177192b31017a96dbd0f7260e74b38af.jpg"
  },
  {
    "name": "19",
    "defaultvalue": 0,
    "displayName": "Slipstreamer",
    "hidden": 0,
    "description": "Slipstream past a driver",
    "icon": "https://steamcdn-a.akamaihd.net/steamcommunity/public/images/apps/203680/79070f810f7a0340adeec3d0d4f9070fc72966d5.jpg",
    "icongray": "https://steamcdn-a.akamaihd.net/steamcommunity/public/images/apps/203680/34e8982f3126c3ad06a93c82a4d5537c633710c2.jpg"
  },
  {
    "name": "20",
    "defaultvalue": 0,
    "displayName": "Slipstream Expert",
    "hidden": 0,
    "description": "Slipstream past 50 drivers",
    "icon": "https://steamcdn-a.akamaihd.net/steamcommunity/public/images/apps/203680/08ca6954b9e0c5395d9b396e8431ceae5814984e.jpg",
    "icongray": "https://steamcdn-a.akamaihd.net/steamcommunity/public/images/apps/203680/b200650586a3ed9d516e3ec030c6c9cae0fe9e98.jpg"
  },
  {
    "name": "21",
    "defaultvalue": 0,
    "displayName": "Shortcut Expert",
    "hidden": 0,
    "description": "Take every shortcut in the game",
    "icon": "https://steamcdn-a.akamaihd.net/steamcommunity/public/images/apps/203680/9753d93292ae15d57283a7612c4726f5acbe2faa.jpg",
    "icongray": "https://steamcdn-a.akamaihd.net/steamcommunity/public/images/apps/203680/65c80aa1c7831ebe8b7ebe9c480ead74e3411ba8.jpg"
  },
  {
    "name": "22",
    "defaultvalue": 0,
    "displayName": "Abu Dhabi Expert",
    "hidden": 0,
    "description": "Win an Abu Dhabi event at 3,000cc (no teams)",
    "icon": "https://steamcdn-a.akamaihd.net/steamcommunity/public/images/apps/203680/c8221b62bc148c251b7e67c6a251f29bc7f3b477.jpg",
    "icongray": "https://steamcdn-a.akamaihd.net/steamcommunity/public/images/apps/203680/afa0d0062ba5aab5d658a706258e0771c6049459.jpg"
  },
  {
    "name": "23",
    "defaultvalue": 0,
    "displayName": "Australia Expert",
    "hidden": 0,
    "description": "Win an Australia event at 3,000cc (no teams)",
    "icon": "https://steamcdn-a.akamaihd.net/steamcommunity/public/images/apps/203680/92924927cdb29db49ce17534a131a58cb917337b.jpg",
    "icongray": "https://steamcdn-a.akamaihd.net/steamcommunity/public/images/apps/203680/8de3804f6cf0c9298dad4bf0fd09c4fa4187f4fe.jpg"
  },
  {
    "name": "24",
    "defaultvalue": 0,
    "displayName": "Belgium Expert",
    "hidden": 0,
    "description": "Win a Belgium event at 3,000cc (no teams)",
    "icon": "https://steamcdn-a.akamaihd.net/steamcommunity/public/images/apps/203680/2c9dc66be6ba07c78d6a91ae2366fb96844dea94.jpg",
    "icongray": "https://steamcdn-a.akamaihd.net/steamcommunity/public/images/apps/203680/8c7b5ebc52b56d9b31e44be1d2b3fa9ab1659afb.jpg"
  },
  {
    "name": "25",
    "defaultvalue": 0,
    "displayName": "Brazil Expert",
    "hidden": 0,
    "description": "Win a Brazil event at 3,000cc (no teams)",
    "icon": "https://steamcdn-a.akamaihd.net/steamcommunity/public/images/apps/203680/c82f1f7aa92a4250034fb3537833981211e23487.jpg",
    "icongray": "https://steamcdn-a.akamaihd.net/steamcommunity/public/images/apps/203680/c5a5c72f24137d3c33f726ea7061b30a750d605a.jpg"
  },
  {
    "name": "27",
    "defaultvalue": 0,
    "displayName": "Germany Expert",
    "hidden": 0,
    "description": "Win a Germany event at 3,000cc (no teams)",
    "icon": "https://steamcdn-a.akamaihd.net/steamcommunity/public/images/apps/203680/c329117b8f5fd969bb611e47c6d87ab1b8856c2c.jpg",
    "icongray": "https://steamcdn-a.akamaihd.net/steamcommunity/public/images/apps/203680/baf5a2f07f41ccf3e6a994b96326ef5eb44396bc.jpg"
  },
  {
    "name": "28",
    "defaultvalue": 0,
    "displayName": "Great Britain Expert",
    "hidden": 0,
    "description": "Win a Great Britain event at 3,000cc (no teams)",
    "icon": "https://steamcdn-a.akamaihd.net/steamcommunity/public/images/apps/203680/29584e32a9b2cfb4373d7aace1b5bb294272ced4.jpg",
    "icongray": "https://steamcdn-a.akamaihd.net/steamcommunity/public/images/apps/203680/3f6d36e107267d0d18ac8f1ab70fc41f3f3c7e5f.jpg"
  },
  {
    "name": "29",
    "defaultvalue": 0,
    "displayName": "Italy Expert",
    "hidden": 0,
    "description": "Win an Italy event at 3,000cc (no teams)",
    "icon": "https://steamcdn-a.akamaihd.net/steamcommunity/public/images/apps/203680/bc3908f7c7cf59efaa1f1476fc81a931da7d5bdd.jpg",
    "icongray": "https://steamcdn-a.akamaihd.net/steamcommunity/public/images/apps/203680/b28d5cf73cb7b5f87dea76633f3ca3ef9f8f2d69.jpg"
  },
  {
    "name": "30",
    "defaultvalue": 0,
    "displayName": "Japan Expert",
    "hidden": 0,
    "description": "Win a Japan event at 3,000cc (no teams)",
    "icon": "https://steamcdn-a.akamaihd.net/steamcommunity/public/images/apps/203680/90639a7dc17f3dc1947b3f38451f20bfd93e9864.jpg",
    "icongray": "https://steamcdn-a.akamaihd.net/steamcommunity/public/images/apps/203680/c7c4786444ece602dee4af23f6e2a04cb0efe400.jpg"
  },
  {
    "name": "31",
    "defaultvalue": 0,
    "displayName": "Monaco Expert",
    "hidden": 0,
    "description": "Win a Monaco event at 3,000cc (no teams)",
    "icon": "https://steamcdn-a.akamaihd.net/steamcommunity/public/images/apps/203680/2ea6dce2200c07ae6f37c10cca2297b48f5714ec.jpg",
    "icongray": "https://steamcdn-a.akamaihd.net/steamcommunity/public/images/apps/203680/6eaf8f55d92b62a4990fd21d8006b5154d80c35c.jpg"
  },
  {
    "name": "32",
    "defaultvalue": 0,
    "displayName": "Singapore Expert",
    "hidden": 0,
    "description": "Win a Singapore event at 3,000cc (no teams)",
    "icon": "https://steamcdn-a.akamaihd.net/steamcommunity/public/images/apps/203680/9de4b014d061ee93ee476680c3c83e659bf59457.jpg",
    "icongray": "https://steamcdn-a.akamaihd.net/steamcommunity/public/images/apps/203680/84dd8f5c160c9bc64adafaf40c4127264704d951.jpg"
  },
  {
    "name": "33",
    "defaultvalue": 0,
    "displayName": "USA Expert",
    "hidden": 0,
    "description": "Win a USA event at 3,000cc (no teams)",
    "icon": "https://steamcdn-a.akamaihd.net/steamcommunity/public/images/apps/203680/9254b60c048ec6a489880316ab188a8a49336570.jpg",
    "icongray": "https://steamcdn-a.akamaihd.net/steamcommunity/public/images/apps/203680/7afd6d6b8b62c9abd4d74f90bed1dd4cf0bda426.jpg"
  },
  {
    "name": "34",
    "defaultvalue": 0,
    "displayName": "Around the World",
    "hidden": 0,
    "description": "Win an event on every track at 3,000cc (no teams)",
    "icon": "https://steamcdn-a.akamaihd.net/steamcommunity/public/images/apps/203680/9f2c7f67e92efaa82c8b6e9918fb7713705d9fae.jpg",
    "icongray": "https://steamcdn-a.akamaihd.net/steamcommunity/public/images/apps/203680/c1ba2d4b65d3fc3723c7f1211af1985a384291aa.jpg"
  },
  {
    "name": "35",
    "defaultvalue": 0,
    "displayName": "Qualifying Lap",
    "hidden": 0,
    "description": "Set a Time Trial record",
    "icon": "https://steamcdn-a.akamaihd.net/steamcommunity/public/images/apps/203680/1d4c43abf8eb1aec6a9aecd18d39c8b3ec4c78e9.jpg",
    "icongray": "https://steamcdn-a.akamaihd.net/steamcommunity/public/images/apps/203680/1c5ad50db6c28f250b9329bb91e272d94a1ada8c.jpg"
  },
  {
    "name": "36",
    "defaultvalue": 0,
    "displayName": "Bronze Time",
    "hidden": 0,
    "description": "Earn a bronze Time Trial record on all tracks",
    "icon": "https://steamcdn-a.akamaihd.net/steamcommunity/public/images/apps/203680/2888b5322726147b9cd5156214d1a11f35b0576b.jpg",
    "icongray": "https://steamcdn-a.akamaihd.net/steamcommunity/public/images/apps/203680/809cfd04398b86e5198b68892cc5930c6daac809.jpg"
  },
  {
    "name": "37",
    "defaultvalue": 0,
    "displayName": "Silver Time",
    "hidden": 0,
    "description": "Earn a silver Time Trial record on all tracks",
    "icon": "https://steamcdn-a.akamaihd.net/steamcommunity/public/images/apps/203680/5b50ff05f6d1f0d36c2cc4de1781571c49993188.jpg",
    "icongray": "https://steamcdn-a.akamaihd.net/steamcommunity/public/images/apps/203680/24b76309a7b919c793c5faca639da7468ad27b43.jpg"
  },
  {
    "name": "38",
    "defaultvalue": 0,
    "displayName": "Gold Time",
    "hidden": 0,
    "description": "Earn a gold Time Trial record on all tracks",
    "icon": "https://steamcdn-a.akamaihd.net/steamcommunity/public/images/apps/203680/6871c21ecdc33de5138840dc8ae2046ddaf8c6c7.jpg",
    "icongray": "https://steamcdn-a.akamaihd.net/steamcommunity/public/images/apps/203680/ce301c31f1eee728e992d528edbc7c8d41f0ef1e.jpg"
  },
  {
    "name": "39",
    "defaultvalue": 0,
    "displayName": "Player of Games",
    "hidden": 0,
    "description": "Complete one event in each race mode",
    "icon": "https://steamcdn-a.akamaihd.net/steamcommunity/public/images/apps/203680/38272f205070bdb17cec563ba240859073c1b11e.jpg",
    "icongray": "https://steamcdn-a.akamaihd.net/steamcommunity/public/images/apps/203680/1f7848fe0653a41c6e53b24c124a1d7fd5cf2934.jpg"
  },
  {
    "name": "40",
    "defaultvalue": 0,
    "displayName": "Exhibition Rush",
    "hidden": 0,
    "description": "Earn 1,000 Exhibition points in under 5 seconds",
    "icon": "https://steamcdn-a.akamaihd.net/steamcommunity/public/images/apps/203680/5582d28d3acdc37b77ad433334061be3f4e3b2d6.jpg",
    "icongray": "https://steamcdn-a.akamaihd.net/steamcommunity/public/images/apps/203680/bb03c0092eec3f4b0106cf3f21942ca8a2cbd9a9.jpg"
  },
  {
    "name": "42",
    "defaultvalue": 0,
    "displayName": "Vapours",
    "hidden": 0,
    "description": "Win a Refuel event with an empty tank (no teams)",
    "icon": "https://steamcdn-a.akamaihd.net/steamcommunity/public/images/apps/203680/9f044154c147b45832551b8c74e4de5d66ec46b0.jpg",
    "icongray": "https://steamcdn-a.akamaihd.net/steamcommunity/public/images/apps/203680/f888df7f9710d93d237abc580a4eeded747291e6.jpg"
  },
  {
    "name": "43",
    "defaultvalue": 0,
    "displayName": "My House",
    "hidden": 0,
    "description": "Own the whole track in Sector Snatch",
    "icon": "https://steamcdn-a.akamaihd.net/steamcommunity/public/images/apps/203680/ee58f88e71ca2cb4beb6d7283546be0df870cde8.jpg",
    "icongray": "https://steamcdn-a.akamaihd.net/steamcommunity/public/images/apps/203680/30f40db51c25e926c7e7ef9815b269b6f29490ef.jpg"
  },
  {
    "name": "44",
    "defaultvalue": 0,
    "displayName": "Causing Trouble",
    "hidden": 0,
    "description": "Hit another driver after being eliminated",
    "icon": "https://steamcdn-a.akamaihd.net/steamcommunity/public/images/apps/203680/28ca24c3032ff8159732522d409d8b86f9e10ed6.jpg",
    "icongray": "https://steamcdn-a.akamaihd.net/steamcommunity/public/images/apps/203680/755df00587e181c23ff906d482d9793e79ac1200.jpg"
  },
  {
    "name": "45",
    "defaultvalue": 0,
    "displayName": "Shakedown",
    "hidden": 0,
    "description": "Make a nearby driver drop 600 points in Trophy Chase",
    "icon": "https://steamcdn-a.akamaihd.net/steamcommunity/public/images/apps/203680/d0a23c9d60b347aa2e98cc37bc947c446f9cc8be.jpg",
    "icongray": "https://steamcdn-a.akamaihd.net/steamcommunity/public/images/apps/203680/ba0afdc1d77cae110a0f51115844c92cc11e153f.jpg"
  },
  {
    "name": "46",
    "defaultvalue": 0,
    "displayName": "Ecto-won",
    "hidden": 0,
    "description": "Beat a friend's Time Trial lap",
    "icon": "https://steamcdn-a.akamaihd.net/steamcommunity/public/images/apps/203680/c73a873f2eea9197e2a36b15378a3007e41565b8.jpg",
    "icongray": "https://steamcdn-a.akamaihd.net/steamcommunity/public/images/apps/203680/8e0f74e7fa5a142b9b7984cfd44b195a34d8be87.jpg"
  },
  {
    "name": "47",
    "defaultvalue": 0,
    "displayName": "Prince of the Screen",
    "hidden": 0,
    "description": "Reach King of the Screen level 3",
    "icon": "https://steamcdn-a.akamaihd.net/steamcommunity/public/images/apps/203680/4511abe4fbe143ae0fc58d70231a028c4087a454.jpg",
    "icongray": "https://steamcdn-a.akamaihd.net/steamcommunity/public/images/apps/203680/92370989737c9b1e952c3d3a47c86aead1613b09.jpg"
  },
  {
    "name": "48",
    "defaultvalue": 0,
    "displayName": "King of King of the Screen",
    "hidden": 0,
    "description": "Reach King of the Screen level 6",
    "icon": "https://steamcdn-a.akamaihd.net/steamcommunity/public/images/apps/203680/422cdcefae740826c6a370ba55ade396712766ab.jpg",
    "icongray": "https://steamcdn-a.akamaihd.net/steamcommunity/public/images/apps/203680/77063e6653294b0552623a7e704493d825e02871.jpg"
  },
  {
    "name": "49",
    "defaultvalue": 0,
    "displayName": "Social Butterfly",
    "hidden": 0,
    "description": "Complete one event with each constructor",
    "icon": "https://steamcdn-a.akamaihd.net/steamcommunity/public/images/apps/203680/c5b20130d5fb789cce17cdc3d94946d62dd5a513.jpg",
    "icongray": "https://steamcdn-a.akamaihd.net/steamcommunity/public/images/apps/203680/aa302d2e34621035f6a190c8de253746a3122e94.jpg"
  },
  {
    "name": "50",
    "defaultvalue": 0,
    "displayName": "Pitmaster",
    "hidden": 0,
    "description": "Repair in the pits 10 times",
    "icon": "https://steamcdn-a.akamaihd.net/steamcommunity/public/images/apps/203680/f2a64e4359e1a8f3330d9a0e503d16119e582516.jpg",
    "icongray": "https://steamcdn-a.akamaihd.net/steamcommunity/public/images/apps/203680/7510ef4899f33b3161d0f7c8eaac9a548994397b.jpg"
  },
  {
    "name": "51",
    "defaultvalue": 0,
    "displayName": "They See You Rollin'",
    "hidden": 1,
    "icon": "https://steamcdn-a.akamaihd.net/steamcommunity/public/images/apps/203680/e3a5770d3f8555ad6d7948d21bd7e506b4fc62e7.jpg",
    "icongray": "https://steamcdn-a.akamaihd.net/steamcommunity/public/images/apps/203680/a1566bb3b4091b33e05b1b0f9cc77b3bbd8365c8.jpg"
  },
  {
    "name": "52",
    "defaultvalue": 0,
    "displayName": "Bingo!",
    "hidden": 0,
    "description": "Use a power-up against every opponent on the track (globals not included)",
    "icon": "https://steamcdn-a.akamaihd.net/steamcommunity/public/images/apps/203680/61e39619f8e7855ae1621bec54a1786e7e6ccecc.jpg",
    "icongray": "https://steamcdn-a.akamaihd.net/steamcommunity/public/images/apps/203680/251a05d6af963925dc9837c61a5230080771f586.jpg"
  },
  {
    "name": "53",
    "defaultvalue": 0,
    "displayName": "Canadian Gold",
    "hidden": 0,
    "description": "Earn a Gold Time Trial record on Canada",
    "icon": "https://steamcdn-a.akamaihd.net/steamcommunity/public/images/apps/203680/3c5c10e9c214fc13ff32c24fba5414b0edbda65c.jpg",
    "icongray": "https://steamcdn-a.akamaihd.net/steamcommunity/public/images/apps/203680/db20a90f2c844157829562245163c35a2a83825b.jpg"
  },
  {
    "name": "54",
    "defaultvalue": 0,
    "displayName": "Road Trip: Canada",
    "hidden": 0,
    "description": "Win an online race on Canada (no teams)",
    "icon": "https://steamcdn-a.akamaihd.net/steamcommunity/public/images/apps/203680/b96e905862af3d6982412d7b0f829b60deb7b83f.jpg",
    "icongray": "https://steamcdn-a.akamaihd.net/steamcommunity/public/images/apps/203680/5e3dad4bc0045bd67172a0a0cd494ecdc8bb3a5e.jpg"
  },
  {
    "name": "55",
    "defaultvalue": 0,
    "displayName": "Trophy Hunter",
    "hidden": 0,
    "description": "Collect 200 trophies on Canada",
    "icon": "https://steamcdn-a.akamaihd.net/steamcommunity/public/images/apps/203680/dfac1d7027fbc2df66487bd87ee527e621ccbfeb.jpg",
    "icongray": "https://steamcdn-a.akamaihd.net/steamcommunity/public/images/apps/203680/fbdca51b27d029e6d4fd9aa90cef3b0abc59f6f1.jpg"
  },
  {
    "name": "56",
    "defaultvalue": 0,
    "displayName": "Canada Expert",
    "hidden": 0,
    "description": "Win a Canada event at 3,000cc (no teams)",
    "icon": "https://steamcdn-a.akamaihd.net/steamcommunity/public/images/apps/203680/737a3686af84f4530082b26d559fa361b13e3944.jpg",
    "icongray": "https://steamcdn-a.akamaihd.net/steamcommunity/public/images/apps/203680/45a28593141c601054f2f151a6e815ae33611e26.jpg"
  },
  {
    "name": "57",
    "defaultvalue": 0,
    "displayName": "Maple Highway",
    "hidden": 0,
    "description": "Take the locked shortcut on Canada",
    "icon": "https://steamcdn-a.akamaihd.net/steamcommunity/public/images/apps/203680/920f8d897b8c332220a69cb40392c0906fa4f8b3.jpg",
    "icongray": "https://steamcdn-a.akamaihd.net/steamcommunity/public/images/apps/203680/1ede5b43dfb70aea2cdd6be6816892f7a8d774bf.jpg"
  },
  {
    "name": "58",
    "defaultvalue": 0,
    "displayName": "Chinese Gold",
    "hidden": 0,
    "description": "Earn a Gold Time Trial record on China",
    "icon": "https://steamcdn-a.akamaihd.net/steamcommunity/public/images/apps/203680/2f33226d451b18c22f952eb159891d306ec14255.jpg",
    "icongray": "https://steamcdn-a.akamaihd.net/steamcommunity/public/images/apps/203680/4bb05d5bc09636aaf20a4ab7b2d07ca49157fcb1.jpg"
  },
  {
    "name": "59",
    "defaultvalue": 0,
    "displayName": "Road Trip: China",
    "hidden": 0,
    "description": "Win an online race on China (no teams)",
    "icon": "https://steamcdn-a.akamaihd.net/steamcommunity/public/images/apps/203680/0c07811430553e48af48820e1761b7189ec5e386.jpg",
    "icongray": "https://steamcdn-a.akamaihd.net/steamcommunity/public/images/apps/203680/2b9777f8f3d29308a1c95f5c0427b52b55d35087.jpg"
  },
  {
    "name": "60",
    "defaultvalue": 0,
    "displayName": "Gate Hunter",
    "hidden": 0,
    "description": "Pass through 100 gates on China",
    "icon": "https://steamcdn-a.akamaihd.net/steamcommunity/public/images/apps/203680/27f8075aabe5c53fa0e92376fe7537f733a1f1d0.jpg",
    "icongray": "https://steamcdn-a.akamaihd.net/steamcommunity/public/images/apps/203680/3db374b34e2deb1584ccc4aa8eecdcb2086ae7e0.jpg"
  },
  {
    "name": "61",
    "defaultvalue": 0,
    "displayName": "China Expert",
    "hidden": 0,
    "description": "Win a China event at 3,000cc (no teams)",
    "icon": "https://steamcdn-a.akamaihd.net/steamcommunity/public/images/apps/203680/507c7ad95743100f942c1cdf0b93313ebe198ac9.jpg",
    "icongray": "https://steamcdn-a.akamaihd.net/steamcommunity/public/images/apps/203680/c5c1f2059d00255f85fc03c6c7f837ac078dcbb6.jpg"
  },
  {
    "name": "62",
    "defaultvalue": 0,
    "displayName": "Dragon Dance",
    "hidden": 0,
    "description": "Take the locked shortcut on China",
    "icon": "https://steamcdn-a.akamaihd.net/steamcommunity/public/images/apps/203680/82e901a60bfdaa7a81bc7ba8d2b813db53fc8c76.jpg",
    "icongray": "https://steamcdn-a.akamaihd.net/steamcommunity/public/images/apps/203680/bb125ffd8c3ea8d90401f8aa982c7d20b0eb6256.jpg"
  },
  {
    "name": "63",
    "defaultvalue": 0,
    "displayName": "Indian Gold",
    "hidden": 0,
    "description": "Earn a Gold Time Trial record on India",
    "icon": "https://steamcdn-a.akamaihd.net/steamcommunity/public/images/apps/203680/7c971141ec4da3004215c9879b2a322ff71fea5c.jpg",
    "icongray": "https://steamcdn-a.akamaihd.net/steamcommunity/public/images/apps/203680/a4a04568735d81288fe4bd570e01f32794d1373f.jpg"
  },
  {
    "name": "64",
    "defaultvalue": 0,
    "displayName": "Road Trip: India",
    "hidden": 0,
    "description": "Win an online race on India (no teams)",
    "icon": "https://steamcdn-a.akamaihd.net/steamcommunity/public/images/apps/203680/3e1670f0c4a0b75dc194715a5df7fa086a7fcec7.jpg",
    "icongray": "https://steamcdn-a.akamaihd.net/steamcommunity/public/images/apps/203680/6e5d206c550944230ad699eda38d34a5b5e5beee.jpg"
  },
  {
    "name": "65",
    "defaultvalue": 0,
    "displayName": "Fuel Hunter",
    "hidden": 0,
    "description": "Collect 50 fuel cans on India",
    "icon": "https://steamcdn-a.akamaihd.net/steamcommunity/public/images/apps/203680/34c7bc289f517fab0cf525255a9643ad92e2e318.jpg",
    "icongray": "https://steamcdn-a.akamaihd.net/steamcommunity/public/images/apps/203680/9423f0edb80eeb8625022e59abaaa3437bb2d7b5.jpg"
  },
  {
    "name": "66",
    "defaultvalue": 0,
    "displayName": "India Expert",
    "hidden": 0,
    "description": "Win an India event at 3,000cc (no teams)",
    "icon": "https://steamcdn-a.akamaihd.net/steamcommunity/public/images/apps/203680/78132b6b62e098965c9a75ecec9534d3b4f44e4d.jpg",
    "icongray": "https://steamcdn-a.akamaihd.net/steamcommunity/public/images/apps/203680/77053ee2c7cc585d1b970315789640535758ce6a.jpg"
  },
  {
    "name": "67",
    "defaultvalue": 0,
    "displayName": "Lotus Garden",
    "hidden": 0,
    "description": "Take the locked shortcut on India",
    "icon": "https://steamcdn-a.akamaihd.net/steamcommunity/public/images/apps/203680/cf5985d79ae13a9db37861acf511a92ccbbceba4.jpg",
    "icongray": "https://steamcdn-a.akamaihd.net/steamcommunity/public/images/apps/203680/65dabd10ea8682c7ec357b8703743a33d1fe54d0.jpg"
  }
]