﻿{
  "Dlcs": {},
  "Name": "Space Run",
  "AppId": "275670",
  "ImageUrl": "https://steamcdn-a.akamaihd.net/steam/apps/275670/header.jpg?t=1592399443",
  "Languages": [
    "english",
    "french",
    "german",
    "spanish",
    "russian",
    "korean"
  ],
  "Platforms": {
    "windows": true,
    "mac": true,
    "linux": true
  }
}