﻿{
  "Dlcs": {},
  "Name": "Super Sanctum TD",
  "AppId": "235250",
  "ImageUrl": "https://steamcdn-a.akamaihd.net/steam/apps/235250/header.jpg?t=1510129510",
  "Languages": [
    "english"
  ],
  "Platforms": {
    "windows": true,
    "mac": true,
    "linux": false
  }
}