﻿[
  {
    "name": "core_guardian",
    "defaultvalue": 0,
    "displayName": "Core Guardian",
    "hidden": 0,
    "description": "Get 100 perfect rounds.",
    "icon": "https://steamcdn-a.akamaihd.net/steamcommunity/public/images/apps/235250/97a991fbc658a9c6d43a7a8bc0fbdd80d1a22262.jpg",
    "icongray": "https://steamcdn-a.akamaihd.net/steamcommunity/public/images/apps/235250/ede8e486b728abd156db044831192cefde85c7a3.jpg"
  },
  {
    "name": "boom_baby",
    "defaultvalue": 0,
    "displayName": "Boom Baby",
    "hidden": 0,
    "description": "Kill 2 enemies with a single Bomb.",
    "icon": "https://steamcdn-a.akamaihd.net/steamcommunity/public/images/apps/235250/84754fd0dee8b4edbc7159ac4662c82a2bf70ccc.jpg",
    "icongray": "https://steamcdn-a.akamaihd.net/steamcommunity/public/images/apps/235250/9b9a637a3de46f3ec8211cc2b5bc53080bfd2e5e.jpg"
  },
  {
    "name": "skillmaster",
    "defaultvalue": 0,
    "displayName": "Skill Master",
    "hidden": 0,
    "description": "Beat a wave with only skills and blocks.",
    "icon": "https://steamcdn-a.akamaihd.net/steamcommunity/public/images/apps/235250/1f64371f47f09ece38705ab0078a1a4556885f78.jpg",
    "icongray": "https://steamcdn-a.akamaihd.net/steamcommunity/public/images/apps/235250/43b1c914081db6dcae07d231b1f427b0af36c1a7.jpg"
  },
  {
    "name": "towermaster",
    "defaultvalue": 0,
    "displayName": "Tower Master",
    "hidden": 0,
    "description": "Complete a level without using any skills.",
    "icon": "https://steamcdn-a.akamaihd.net/steamcommunity/public/images/apps/235250/528d507a78b1662e0384e233eb5e910cca8f7347.jpg",
    "icongray": "https://steamcdn-a.akamaihd.net/steamcommunity/public/images/apps/235250/1166649c767303fd3a290f5ca223b368d4a6f34f.jpg"
  },
  {
    "name": "electrifying",
    "defaultvalue": 0,
    "displayName": "Electrifying",
    "hidden": 0,
    "description": "Hit 10 enemies with Thunderbolt.",
    "icon": "https://steamcdn-a.akamaihd.net/steamcommunity/public/images/apps/235250/ea6ced57a5795ff2543855e44d1b8ce39898ac1e.jpg",
    "icongray": "https://steamcdn-a.akamaihd.net/steamcommunity/public/images/apps/235250/792989716aefd01d3674b50af235b9e331b8e9a0.jpg"
  },
  {
    "name": "put_it_down",
    "defaultvalue": 0,
    "displayName": "Put It Down",
    "hidden": 0,
    "description": "Kill a Walker with an Anti Air Tower.",
    "icon": "https://steamcdn-a.akamaihd.net/steamcommunity/public/images/apps/235250/b3418806315d4ba59f8bd810e6fbaf4ec0ab0e4a.jpg",
    "icongray": "https://steamcdn-a.akamaihd.net/steamcommunity/public/images/apps/235250/fe5a9986ce59b7ac9416f39e5026e624f554082e.jpg"
  },
  {
    "name": "line_em_up",
    "defaultvalue": 0,
    "displayName": "Line Em' Up",
    "hidden": 0,
    "description": "Kill 10 enemies in a single Penentrator shot.",
    "icon": "https://steamcdn-a.akamaihd.net/steamcommunity/public/images/apps/235250/55677e8194907a71ae8d84f2e15c14a38ac8ede0.jpg",
    "icongray": "https://steamcdn-a.akamaihd.net/steamcommunity/public/images/apps/235250/43fb72aa4f7e6b9c2292ca3b50725178ff68baa0.jpg"
  },
  {
    "name": "i_hate_maize",
    "defaultvalue": 0,
    "displayName": "I Hate Maize",
    "hidden": 0,
    "description": "Have no blocks at the end of a level.",
    "icon": "https://steamcdn-a.akamaihd.net/steamcommunity/public/images/apps/235250/7f9c32e34fc43c6902139b26e9513ab217bcc83c.jpg",
    "icongray": "https://steamcdn-a.akamaihd.net/steamcommunity/public/images/apps/235250/b7248c5c5a440e641b6c26f8b85c29e81acb3e70.jpg"
  },
  {
    "name": "one_small_step",
    "defaultvalue": 0,
    "displayName": "One Small Step",
    "hidden": 0,
    "description": "Complete one level.",
    "icon": "https://steamcdn-a.akamaihd.net/steamcommunity/public/images/apps/235250/8d93eadaeb1069941f65a15c40ef7837d506f856.jpg",
    "icongray": "https://steamcdn-a.akamaihd.net/steamcommunity/public/images/apps/235250/a3cbcc631f82740aa5ad6328d367175f59fce065.jpg"
  },
  {
    "name": "diciple",
    "defaultvalue": 0,
    "displayName": "Disciple",
    "hidden": 0,
    "description": "Clear the Training Area.",
    "icon": "https://steamcdn-a.akamaihd.net/steamcommunity/public/images/apps/235250/917b60d26042fbb61fa36ee773ac649ba2c1e68a.jpg",
    "icongray": "https://steamcdn-a.akamaihd.net/steamcommunity/public/images/apps/235250/f66443ac61f4c38336a430905ab54f6cadcccdb0.jpg"
  },
  {
    "name": "ruin_ranger",
    "defaultvalue": 0,
    "displayName": "Ruin Ranger",
    "hidden": 0,
    "description": "Clear Brightholme Industries.",
    "icon": "https://steamcdn-a.akamaihd.net/steamcommunity/public/images/apps/235250/20e67a330a27d7212df19b8468a4e1bf1d16e1e0.jpg",
    "icongray": "https://steamcdn-a.akamaihd.net/steamcommunity/public/images/apps/235250/9673e14b74565b9ac229e9fff021a9cd3c91bd5a.jpg"
  },
  {
    "name": "enviromental_expert",
    "defaultvalue": 0,
    "displayName": "Environmental Expert",
    "hidden": 0,
    "description": "Clear the Facility Compound",
    "icon": "https://steamcdn-a.akamaihd.net/steamcommunity/public/images/apps/235250/f7cfde91f48e012a093c20985069b64d8aa71e9f.jpg",
    "icongray": "https://steamcdn-a.akamaihd.net/steamcommunity/public/images/apps/235250/b5bd7f8e5f1e72af34aecdc54da2331168211f95.jpg"
  },
  {
    "name": "aerial_ace",
    "defaultvalue": 0,
    "displayName": "Aerial Ace",
    "hidden": 0,
    "description": "Clear the Hydro Islands.",
    "icon": "https://steamcdn-a.akamaihd.net/steamcommunity/public/images/apps/235250/62b10b5ce7cafca48c7606291f761c4be780b4df.jpg",
    "icongray": "https://steamcdn-a.akamaihd.net/steamcommunity/public/images/apps/235250/f3e17170fe2e6338604c8fa32c5f61159bb98ce5.jpg"
  },
  {
    "name": "he_wasnt_so_tough",
    "defaultvalue": 0,
    "displayName": "He Wasn't So Tough",
    "hidden": 0,
    "description": "Kill a Huge Walker.",
    "icon": "https://steamcdn-a.akamaihd.net/steamcommunity/public/images/apps/235250/a483118e5be7a9e7fa5ba6337d4ba85e10570379.jpg",
    "icongray": "https://steamcdn-a.akamaihd.net/steamcommunity/public/images/apps/235250/65646d8847c73c1b78a596512760dd65c1de5d2b.jpg"
  },
  {
    "name": "now_were_talking",
    "defaultvalue": 0,
    "displayName": "Now We're Talkin'",
    "hidden": 0,
    "description": "Unlock all tower and skill slots.",
    "icon": "https://steamcdn-a.akamaihd.net/steamcommunity/public/images/apps/235250/1f7b144b88a4474aa2aa8a1418c221caaaf55c03.jpg",
    "icongray": "https://steamcdn-a.akamaihd.net/steamcommunity/public/images/apps/235250/ec01d30e14574f3d616224c14e91c2bf8bc90791.jpg"
  },
  {
    "name": "look_mom_i_did_it",
    "defaultvalue": 0,
    "displayName": "Look Mom I Did It!",
    "hidden": 0,
    "description": "Kill a Big Walker.",
    "icon": "https://steamcdn-a.akamaihd.net/steamcommunity/public/images/apps/235250/c768ef40c0ddac750a3021a748b4d66d8c1ec768.jpg",
    "icongray": "https://steamcdn-a.akamaihd.net/steamcommunity/public/images/apps/235250/68650ad9b191952a93b64cf2174d44d3f9761345.jpg"
  },
  {
    "name": "at_least_i_tried",
    "defaultvalue": 0,
    "displayName": "Bring It On",
    "hidden": 0,
    "description": "Beat a level on Hard. ",
    "icon": "https://steamcdn-a.akamaihd.net/steamcommunity/public/images/apps/235250/53ff2cd5f15f6966b3b282d224bb1bf8deb43d3f.jpg",
    "icongray": "https://steamcdn-a.akamaihd.net/steamcommunity/public/images/apps/235250/c14152bb0ed703e1222b6185cb45b7441ecd20a4.jpg"
  },
  {
    "name": "done_and_done",
    "defaultvalue": 0,
    "displayName": "Done and Done",
    "hidden": 0,
    "description": "Beat all levels on Normal.",
    "icon": "https://steamcdn-a.akamaihd.net/steamcommunity/public/images/apps/235250/0826aa3c8ac79ea68ac90c4ebb8dd99928b2ec07.jpg",
    "icongray": "https://steamcdn-a.akamaihd.net/steamcommunity/public/images/apps/235250/6225a68e7839e4ec9314e08dc3eb500fb097b8a4.jpg"
  },
  {
    "name": "alpha_as_fudge",
    "defaultvalue": 0,
    "displayName": "Alpha as Fudge",
    "hidden": 0,
    "description": "Kill the Patriarch.",
    "icon": "https://steamcdn-a.akamaihd.net/steamcommunity/public/images/apps/235250/b4437e7876702a087098796591f8bb2dad2bb0f1.jpg",
    "icongray": "https://steamcdn-a.akamaihd.net/steamcommunity/public/images/apps/235250/70e552255b2b5503ab97d5d387c745c46358662b.jpg"
  },
  {
    "name": "its_fast_but_i_am_faster",
    "defaultvalue": 0,
    "displayName": "It's Fast, but I'm Faster",
    "hidden": 0,
    "description": "Kill the Charger and all its clones.",
    "icon": "https://steamcdn-a.akamaihd.net/steamcommunity/public/images/apps/235250/7b21eaa7ab6111f5de80c40dd8de5b183a3a2e1f.jpg",
    "icongray": "https://steamcdn-a.akamaihd.net/steamcommunity/public/images/apps/235250/32b546531b5e8bd969d84b38ff5f628f5e62d26d.jpg"
  },
  {
    "name": "completist",
    "defaultvalue": 0,
    "displayName": "I Hold Everything!",
    "hidden": 0,
    "description": "Unlock all towers and skills.",
    "icon": "https://steamcdn-a.akamaihd.net/steamcommunity/public/images/apps/235250/135278aa717ade74bd8b58c282c6f381c0b2efbb.jpg",
    "icongray": "https://steamcdn-a.akamaihd.net/steamcommunity/public/images/apps/235250/b49a319f713705182721901e87df13cbcc8c9706.jpg"
  },
  {
    "name": "hero_of_elysion",
    "defaultvalue": 0,
    "displayName": "Hero of Elysion",
    "hidden": 0,
    "description": "Beat all levels on Hard.",
    "icon": "https://steamcdn-a.akamaihd.net/steamcommunity/public/images/apps/235250/e79939b5f89e20a73b52772df46bb29423988677.jpg",
    "icongray": "https://steamcdn-a.akamaihd.net/steamcommunity/public/images/apps/235250/12733fbd0bbe9a49982be7a5863203e994e581a5.jpg"
  },
  {
    "name": "golden_idol",
    "defaultvalue": 0,
    "displayName": "Golden Idol",
    "hidden": 0,
    "description": "Kill the golden Walker.",
    "icon": "https://steamcdn-a.akamaihd.net/steamcommunity/public/images/apps/235250/dc87d4fca56e482100b7a38cb8044dbfeba6cab7.jpg",
    "icongray": "https://steamcdn-a.akamaihd.net/steamcommunity/public/images/apps/235250/876aad44d6fcdb8e6d53f971b1c4865a92196563.jpg"
  },
  {
    "name": "seriously",
    "defaultvalue": 0,
    "displayName": "Seriously?",
    "hidden": 0,
    "description": "Get all stars in all levels on Hard difficulty.",
    "icon": "https://steamcdn-a.akamaihd.net/steamcommunity/public/images/apps/235250/c62c091b1a82fc57eb0dc49e71d7222cd2ac36c7.jpg",
    "icongray": "https://steamcdn-a.akamaihd.net/steamcommunity/public/images/apps/235250/31d39adba6c9be4fc2bef6c06055a1dab3ac0367.jpg"
  },
  {
    "name": "liberator",
    "defaultvalue": 0,
    "displayName": "Liberator",
    "hidden": 0,
    "description": "Kill 10.000 Walkers.",
    "icon": "https://steamcdn-a.akamaihd.net/steamcommunity/public/images/apps/235250/cd29b88a5b3d92f315f2c0f0f83565d7e38b815b.jpg",
    "icongray": "https://steamcdn-a.akamaihd.net/steamcommunity/public/images/apps/235250/146da8106803d85bce2534cde45f015d24bda720.jpg"
  },
  {
    "name": "monsterkill",
    "defaultvalue": 0,
    "displayName": "Monsterkill",
    "hidden": 0,
    "description": "Kill 10 enemies with a single shot",
    "icon": "https://steamcdn-a.akamaihd.net/steamcommunity/public/images/apps/235250/8856c6acdb9e3a5471f116dae63c1fab20d04597.jpg",
    "icongray": "https://steamcdn-a.akamaihd.net/steamcommunity/public/images/apps/235250/f8245f9980ee2af86db5f91984d453961178b065.jpg"
  },
  {
    "name": "exalted_elysion",
    "defaultvalue": 0,
    "displayName": "Exalted Elysion",
    "hidden": 0,
    "description": "Clear Elysion",
    "icon": "https://steamcdn-a.akamaihd.net/steamcommunity/public/images/apps/235250/374ef5a3f61144fd19a1e3b4d95cf9d67b2689a8.jpg",
    "icongray": "https://steamcdn-a.akamaihd.net/steamcommunity/public/images/apps/235250/be4e27fb8eba9fb9ea35b169fcedde63745547a5.jpg"
  }
]