﻿[
  {
    "name": "ACH_MATCHES_SCOUT",
    "defaultvalue": 0,
    "displayName": "Scout",
    "hidden": 0,
    "description": "Complete one match",
    "icon": "https://steamcdn-a.akamaihd.net/steamcommunity/public/images/apps/375230/ce0d9ff5c31cf0de770d7614fec20f604d67d29d.jpg",
    "icongray": "https://steamcdn-a.akamaihd.net/steamcommunity/public/images/apps/375230/56ad58bf3c8d9f41d6c96d0bf68444c1887d21cf.jpg"
  },
  {
    "name": "ACH_MATCHES_VETERAN_SCOUT",
    "defaultvalue": 0,
    "displayName": "Veteran",
    "hidden": 0,
    "description": "Won 10 matches",
    "icon": "https://steamcdn-a.akamaihd.net/steamcommunity/public/images/apps/375230/a4096de84c7ed801a66a5c6fcaa129614c9f54de.jpg",
    "icongray": "https://steamcdn-a.akamaihd.net/steamcommunity/public/images/apps/375230/56ad58bf3c8d9f41d6c96d0bf68444c1887d21cf.jpg"
  },
  {
    "name": "ACH_MATCHES_MASTER_SCOUT",
    "defaultvalue": 0,
    "displayName": "Master",
    "hidden": 0,
    "description": "Played at least 20 hours",
    "icon": "https://steamcdn-a.akamaihd.net/steamcommunity/public/images/apps/375230/e0a4709cea42768e5a9dd204b71b2e806b33cbd4.jpg",
    "icongray": "https://steamcdn-a.akamaihd.net/steamcommunity/public/images/apps/375230/56ad58bf3c8d9f41d6c96d0bf68444c1887d21cf.jpg"
  },
  {
    "name": "ACH_DEVKILL_USURPER_SCOUT",
    "defaultvalue": 0,
    "displayName": "Usurper",
    "hidden": 0,
    "description": "Killed one of the game's developers",
    "icon": "https://steamcdn-a.akamaihd.net/steamcommunity/public/images/apps/375230/63d3637782bdf83fbbcccb00b87a36555470a789.jpg",
    "icongray": "https://steamcdn-a.akamaihd.net/steamcommunity/public/images/apps/375230/56ad58bf3c8d9f41d6c96d0bf68444c1887d21cf.jpg"
  },
  {
    "name": "ACH_PEGASUS_ATTACK_SCOUT",
    "defaultvalue": 0,
    "displayName": "Pegasus Attack",
    "hidden": 0,
    "description": "Successfully attack Pegasus Station",
    "icon": "https://steamcdn-a.akamaihd.net/steamcommunity/public/images/apps/375230/2010898e0bd1967a0fe0d085f6ba590278605ef7.jpg",
    "icongray": "https://steamcdn-a.akamaihd.net/steamcommunity/public/images/apps/375230/56ad58bf3c8d9f41d6c96d0bf68444c1887d21cf.jpg"
  },
  {
    "name": "ACH_PEGASUS_DEFENSE_SCOUT",
    "defaultvalue": 0,
    "displayName": "Pegasus Defense",
    "hidden": 0,
    "description": "Successfully defend Pegasus Station",
    "icon": "https://steamcdn-a.akamaihd.net/steamcommunity/public/images/apps/375230/e4fc2262e52e3329c12d346f6836fc3396c652ad.jpg",
    "icongray": "https://steamcdn-a.akamaihd.net/steamcommunity/public/images/apps/375230/56ad58bf3c8d9f41d6c96d0bf68444c1887d21cf.jpg"
  },
  {
    "name": "ACH_BLACKBOLT_ATTACK_SCOUT",
    "defaultvalue": 0,
    "displayName": "Blackbolt Attack",
    "hidden": 0,
    "description": "Successfully attack Blackbolt Defense Station",
    "icon": "https://steamcdn-a.akamaihd.net/steamcommunity/public/images/apps/375230/3f49f3171d8ea2fafc1680575299d10e303788f8.jpg",
    "icongray": "https://steamcdn-a.akamaihd.net/steamcommunity/public/images/apps/375230/56ad58bf3c8d9f41d6c96d0bf68444c1887d21cf.jpg"
  },
  {
    "name": "ACH_BLACKBOLT_DEFENSE_SCOUT",
    "defaultvalue": 0,
    "displayName": "Blackbolt Defense",
    "hidden": 0,
    "description": "Successfully defend Blackbolt Defense Station",
    "icon": "https://steamcdn-a.akamaihd.net/steamcommunity/public/images/apps/375230/d431c113015821db26133553df45b7c7aa740b86.jpg",
    "icongray": "https://steamcdn-a.akamaihd.net/steamcommunity/public/images/apps/375230/56ad58bf3c8d9f41d6c96d0bf68444c1887d21cf.jpg"
  },
  {
    "name": "ACH_OLIPSIS_ATTACK_SCOUT",
    "defaultvalue": 0,
    "displayName": "Olipsis Attack",
    "hidden": 0,
    "description": "Successfully attack Olipsis Refinery",
    "icon": "https://steamcdn-a.akamaihd.net/steamcommunity/public/images/apps/375230/22f50b20b528c171808d5ce971942f0f0a512c83.jpg",
    "icongray": "https://steamcdn-a.akamaihd.net/steamcommunity/public/images/apps/375230/56ad58bf3c8d9f41d6c96d0bf68444c1887d21cf.jpg"
  },
  {
    "name": "ACH_OLIPSIS_DEFENSE_SCOUT",
    "defaultvalue": 0,
    "displayName": "Olipsis Defense",
    "hidden": 0,
    "description": "Successfully defend Olipsis Refinery",
    "icon": "https://steamcdn-a.akamaihd.net/steamcommunity/public/images/apps/375230/da96a9ca7060c91b5beef90b0724ba9e6d81d867.jpg",
    "icongray": "https://steamcdn-a.akamaihd.net/steamcommunity/public/images/apps/375230/56ad58bf3c8d9f41d6c96d0bf68444c1887d21cf.jpg"
  },
  {
    "name": "ACH_WING_CLIPPER_SCOUT",
    "defaultvalue": 0,
    "displayName": "Wing Clipper",
    "hidden": 0,
    "description": "Down a Jump Pack character with a melta bomb",
    "icon": "https://steamcdn-a.akamaihd.net/steamcommunity/public/images/apps/375230/5fe5281444ef16a7f5628f38bda3a495b12ba476.jpg",
    "icongray": "https://steamcdn-a.akamaihd.net/steamcommunity/public/images/apps/375230/56ad58bf3c8d9f41d6c96d0bf68444c1887d21cf.jpg"
  },
  {
    "name": "ACH_OVERZEALOUS_SCOUT",
    "defaultvalue": 0,
    "displayName": "Overzealous",
    "hidden": 0,
    "description": "Reach Rank 5 with any character",
    "icon": "https://steamcdn-a.akamaihd.net/steamcommunity/public/images/apps/375230/083fb47c40df2b2125676e92a7395f84c9835afa.jpg",
    "icongray": "https://steamcdn-a.akamaihd.net/steamcommunity/public/images/apps/375230/56ad58bf3c8d9f41d6c96d0bf68444c1887d21cf.jpg"
  },
  {
    "name": "ACH_TORIAS_ATTACK_SCOUT",
    "defaultvalue": 0,
    "displayName": "Torias Attack",
    "hidden": 0,
    "description": "Successfully attack Torias",
    "icon": "https://steamcdn-a.akamaihd.net/steamcommunity/public/images/apps/375230/77cc0e5e9b5758612a87f556b53b4df59fb33fee.jpg",
    "icongray": "https://steamcdn-a.akamaihd.net/steamcommunity/public/images/apps/375230/56ad58bf3c8d9f41d6c96d0bf68444c1887d21cf.jpg"
  },
  {
    "name": "ACH_TORIAS_DEFENSE_SCOUT",
    "defaultvalue": 0,
    "displayName": "Torias Defense",
    "hidden": 0,
    "description": "Successfully defend Torias",
    "icon": "https://steamcdn-a.akamaihd.net/steamcommunity/public/images/apps/375230/a60109cfbe1c70aefc4c40f8d8c30d4eadf206c8.jpg",
    "icongray": "https://steamcdn-a.akamaihd.net/steamcommunity/public/images/apps/375230/56ad58bf3c8d9f41d6c96d0bf68444c1887d21cf.jpg"
  },
  {
    "name": "ACH_FORTRESS_HARKUS_ATTACK_SCOUT",
    "defaultvalue": 0,
    "displayName": "Imperial Fortress Harkus Attack",
    "hidden": 0,
    "description": " Successfully attack Imperial Fortress Harkus",
    "icon": "https://steamcdn-a.akamaihd.net/steamcommunity/public/images/apps/375230/f238b7034ae259c48e7394f306d79fd7bf1f6f51.jpg",
    "icongray": "https://steamcdn-a.akamaihd.net/steamcommunity/public/images/apps/375230/56ad58bf3c8d9f41d6c96d0bf68444c1887d21cf.jpg"
  },
  {
    "name": "ACH_FORTRESS_HARKUS_DEFENSE_SCOUT",
    "defaultvalue": 0,
    "displayName": "Imperial Fortress Harkus Defense",
    "hidden": 0,
    "description": "Successfully defend Imperial Fortress Harkus",
    "icon": "https://steamcdn-a.akamaihd.net/steamcommunity/public/images/apps/375230/a9f036e74af24fa21de7b3a08e872d5cf3aaad2a.jpg",
    "icongray": "https://steamcdn-a.akamaihd.net/steamcommunity/public/images/apps/375230/56ad58bf3c8d9f41d6c96d0bf68444c1887d21cf.jpg"
  },
  {
    "name": "ACH_SOLDIER_SCOUT",
    "defaultvalue": 0,
    "displayName": "Soldier",
    "hidden": 0,
    "description": "Reach Rank 2 as any faction",
    "icon": "https://steamcdn-a.akamaihd.net/steamcommunity/public/images/apps/375230/eb38b6b8c2c1d77d579190a07d1a103f3589fb49.jpg",
    "icongray": "https://steamcdn-a.akamaihd.net/steamcommunity/public/images/apps/375230/56ad58bf3c8d9f41d6c96d0bf68444c1887d21cf.jpg"
  },
  {
    "name": "ACH_WARRIOR_SCOUT",
    "defaultvalue": 0,
    "displayName": "Warrior",
    "hidden": 0,
    "description": "Reach Rank 3 as any faction",
    "icon": "https://steamcdn-a.akamaihd.net/steamcommunity/public/images/apps/375230/d9c275613ae6f0549976b43d5af8f5b5441aa8d9.jpg",
    "icongray": "https://steamcdn-a.akamaihd.net/steamcommunity/public/images/apps/375230/56ad58bf3c8d9f41d6c96d0bf68444c1887d21cf.jpg"
  },
  {
    "name": "ACH_CHAMPION_SCOUT",
    "defaultvalue": 0,
    "displayName": "Champion",
    "hidden": 0,
    "description": "Reach Rank 4 as any faction",
    "icon": "https://steamcdn-a.akamaihd.net/steamcommunity/public/images/apps/375230/0999617c4cb44c912086f3d88ae49b548701fb41.jpg",
    "icongray": "https://steamcdn-a.akamaihd.net/steamcommunity/public/images/apps/375230/56ad58bf3c8d9f41d6c96d0bf68444c1887d21cf.jpg"
  },
  {
    "name": "ACH_SPACE_MARINE_LEGEND_SCOUT",
    "defaultvalue": 0,
    "displayName": "Space Marine Legend",
    "hidden": 0,
    "description": "Reach Rank 5 as a Space Marine",
    "icon": "https://steamcdn-a.akamaihd.net/steamcommunity/public/images/apps/375230/c676dddfaa6153637b64b69572622382f1ef815a.jpg",
    "icongray": "https://steamcdn-a.akamaihd.net/steamcommunity/public/images/apps/375230/56ad58bf3c8d9f41d6c96d0bf68444c1887d21cf.jpg"
  },
  {
    "name": "ACH_CHAOS_SPACE_MARINE_LEGEND_SCOUT",
    "defaultvalue": 0,
    "displayName": "Chaos Space Marine Legend",
    "hidden": 0,
    "description": "Reach Rank 5 as a Chaos Space Marine",
    "icon": "https://steamcdn-a.akamaihd.net/steamcommunity/public/images/apps/375230/bfa0d357e67934daaddee416954653d781227900.jpg",
    "icongray": "https://steamcdn-a.akamaihd.net/steamcommunity/public/images/apps/375230/56ad58bf3c8d9f41d6c96d0bf68444c1887d21cf.jpg"
  },
  {
    "name": "ACH_ORK_LEGEND_SCOUT",
    "defaultvalue": 0,
    "displayName": "Ork Legend",
    "hidden": 0,
    "description": "Reach Rank 5 as an Ork",
    "icon": "https://steamcdn-a.akamaihd.net/steamcommunity/public/images/apps/375230/9150e7de52accf03a7af4e19e9d083a45308c88f.jpg",
    "icongray": "https://steamcdn-a.akamaihd.net/steamcommunity/public/images/apps/375230/56ad58bf3c8d9f41d6c96d0bf68444c1887d21cf.jpg"
  },
  {
    "name": "ACH_ELDAR_LEGEND_SCOUT",
    "defaultvalue": 0,
    "displayName": "Eldar Legend",
    "hidden": 0,
    "description": "Reach Rank 5 as an Eldar",
    "icon": "https://steamcdn-a.akamaihd.net/steamcommunity/public/images/apps/375230/b1c057f8f80b98c5662364a91a3b28a2d230543d.jpg",
    "icongray": "https://steamcdn-a.akamaihd.net/steamcommunity/public/images/apps/375230/56ad58bf3c8d9f41d6c96d0bf68444c1887d21cf.jpg"
  },
  {
    "name": "ACH_FORT_VICTORY_SCOUT",
    "defaultvalue": 0,
    "displayName": "Fort Victory",
    "hidden": 0,
    "description": "Successfully defend or conquer a Fortress",
    "icon": "https://steamcdn-a.akamaihd.net/steamcommunity/public/images/apps/375230/19638d5a925b79ec5ece5345d7d3484d516f732f.jpg",
    "icongray": "https://steamcdn-a.akamaihd.net/steamcommunity/public/images/apps/375230/56ad58bf3c8d9f41d6c96d0bf68444c1887d21cf.jpg"
  },
  {
    "name": "ACH_GAUNTII_GLADIUS_SCOUT",
    "defaultvalue": 0,
    "displayName": "Gauntii gladius",
    "hidden": 0,
    "description": "Kill 1000 Hormagaunts",
    "icon": "https://steamcdn-a.akamaihd.net/steamcommunity/public/images/apps/375230/48bea45cee3a6dd4642a21295a51f6d9a10c58c6.jpg",
    "icongray": "https://steamcdn-a.akamaihd.net/steamcommunity/public/images/apps/375230/56ad58bf3c8d9f41d6c96d0bf68444c1887d21cf.jpg"
  },
  {
    "name": "ACH_GAUNTII_VIRAGO_SCOUT",
    "defaultvalue": 0,
    "displayName": "Gauntii virago",
    "hidden": 0,
    "description": "Kill 100 Termagants",
    "icon": "https://steamcdn-a.akamaihd.net/steamcommunity/public/images/apps/375230/61d00ddaa0b39561474d90b74fc690fb7fd5870d.jpg",
    "icongray": "https://steamcdn-a.akamaihd.net/steamcommunity/public/images/apps/375230/56ad58bf3c8d9f41d6c96d0bf68444c1887d21cf.jpg"
  },
  {
    "name": "ACH_TYRANICUS_GLADIUS_SCOUT",
    "defaultvalue": 0,
    "displayName": "Tyranicus gladius",
    "hidden": 0,
    "description": "Kill 10 Warriors",
    "icon": "https://steamcdn-a.akamaihd.net/steamcommunity/public/images/apps/375230/e22959067a8bb676f0fd8185946ce4625307be92.jpg",
    "icongray": "https://steamcdn-a.akamaihd.net/steamcommunity/public/images/apps/375230/56ad58bf3c8d9f41d6c96d0bf68444c1887d21cf.jpg"
  },
  {
    "name": "ACH_HIVESPLOSION_SCOUT",
    "defaultvalue": 0,
    "displayName": "Hivesplosion",
    "hidden": 0,
    "description": "Kill 5 Tyranids in a single Multikill",
    "icon": "https://steamcdn-a.akamaihd.net/steamcommunity/public/images/apps/375230/a51d324a6a94fc1358ab2b5a25652de3875ec40f.jpg",
    "icongray": "https://steamcdn-a.akamaihd.net/steamcommunity/public/images/apps/375230/56ad58bf3c8d9f41d6c96d0bf68444c1887d21cf.jpg"
  },
  {
    "name": "ACH_MISSION_TACTICAL_FORCES_SCOUT",
    "defaultvalue": 0,
    "displayName": "Mission: Tactical Forces",
    "hidden": 0,
    "description": "Complete any lair mission as a Ranged Archetype",
    "icon": "https://steamcdn-a.akamaihd.net/steamcommunity/public/images/apps/375230/b17a7e87952bfecb28b50cfc32c27547251122eb.jpg",
    "icongray": "https://steamcdn-a.akamaihd.net/steamcommunity/public/images/apps/375230/56ad58bf3c8d9f41d6c96d0bf68444c1887d21cf.jpg"
  },
  {
    "name": "ACH_MISSION_AIR_POWER_SCOUT",
    "defaultvalue": 0,
    "displayName": "Mission: Air Power",
    "hidden": 0,
    "description": "Complete any lair mission as a Jump Archetype",
    "icon": "https://steamcdn-a.akamaihd.net/steamcommunity/public/images/apps/375230/e8bf229d945e065ac8ed79ee6c1e00cf56e57f82.jpg",
    "icongray": "https://steamcdn-a.akamaihd.net/steamcommunity/public/images/apps/375230/56ad58bf3c8d9f41d6c96d0bf68444c1887d21cf.jpg"
  },
  {
    "name": "ACH_MISSION_STALWART_DEFENDER_SCOUT",
    "defaultvalue": 0,
    "displayName": "Mission: Stalwart Defender",
    "hidden": 0,
    "description": "Complete any lair mission as a Melee Archetype",
    "icon": "https://steamcdn-a.akamaihd.net/steamcommunity/public/images/apps/375230/c800a6c52fb46f3952a4b0fa522c566c1186a16f.jpg",
    "icongray": "https://steamcdn-a.akamaihd.net/steamcommunity/public/images/apps/375230/56ad58bf3c8d9f41d6c96d0bf68444c1887d21cf.jpg"
  },
  {
    "name": "ACH_MISSION_FIELD_SUPPORT_SCOUT",
    "defaultvalue": 0,
    "displayName": "Mission: Field Support",
    "hidden": 0,
    "description": "Complete any lair mission as a Support Archetype",
    "icon": "https://steamcdn-a.akamaihd.net/steamcommunity/public/images/apps/375230/c930a2947bae706f8d234e0898087f915a7e11fd.jpg",
    "icongray": "https://steamcdn-a.akamaihd.net/steamcommunity/public/images/apps/375230/56ad58bf3c8d9f41d6c96d0bf68444c1887d21cf.jpg"
  },
  {
    "name": "ACH_MISSION_HEAVY_ARMS_SCOUT",
    "defaultvalue": 0,
    "displayName": "Mission: Heavy Arms",
    "hidden": 0,
    "description": "Complete any lair mission as a Heavy Archetype",
    "icon": "https://steamcdn-a.akamaihd.net/steamcommunity/public/images/apps/375230/7f85533d51b90f2b2ac38865ed6c535e0bcb76ad.jpg",
    "icongray": "https://steamcdn-a.akamaihd.net/steamcommunity/public/images/apps/375230/56ad58bf3c8d9f41d6c96d0bf68444c1887d21cf.jpg"
  },
  {
    "name": "ACH_OPERATION_TACTICAL_FORCES_SCOUT",
    "defaultvalue": 0,
    "displayName": "Operation: Tactical Forces",
    "hidden": 0,
    "description": "Complete a hard lair mission as a Ranged Archetype",
    "icon": "https://steamcdn-a.akamaihd.net/steamcommunity/public/images/apps/375230/50e0ce61d54ee9b25b9b92291495c2e4812a07b5.jpg",
    "icongray": "https://steamcdn-a.akamaihd.net/steamcommunity/public/images/apps/375230/56ad58bf3c8d9f41d6c96d0bf68444c1887d21cf.jpg"
  },
  {
    "name": "ACH_OPERATION_AIR_POWER_SCOUT",
    "defaultvalue": 0,
    "displayName": "Operation: Air Power",
    "hidden": 0,
    "description": "Complete a hard lair mission as a Jump Archetype",
    "icon": "https://steamcdn-a.akamaihd.net/steamcommunity/public/images/apps/375230/ada5a7d996017526abeec700c23a455e7e3e5adf.jpg",
    "icongray": "https://steamcdn-a.akamaihd.net/steamcommunity/public/images/apps/375230/56ad58bf3c8d9f41d6c96d0bf68444c1887d21cf.jpg"
  },
  {
    "name": "ACH_OPERATION_STALWART_DEFENDER_SCOUT",
    "defaultvalue": 0,
    "displayName": "Operation: Stalwart Defender",
    "hidden": 0,
    "description": "Complete a hard lair mission as an Melee Archetype",
    "icon": "https://steamcdn-a.akamaihd.net/steamcommunity/public/images/apps/375230/3bc38525662f30cb09899b1706cde234d2adde81.jpg",
    "icongray": "https://steamcdn-a.akamaihd.net/steamcommunity/public/images/apps/375230/56ad58bf3c8d9f41d6c96d0bf68444c1887d21cf.jpg"
  },
  {
    "name": "ACH_OPERATION_FIELD_SUPPORT_SCOUT",
    "defaultvalue": 0,
    "displayName": "Operation: Field Support",
    "hidden": 0,
    "description": "Complete a hard lair mission as a Support Archetype",
    "icon": "https://steamcdn-a.akamaihd.net/steamcommunity/public/images/apps/375230/08873eb09240d323c23dcaf7134305af696e71f7.jpg",
    "icongray": "https://steamcdn-a.akamaihd.net/steamcommunity/public/images/apps/375230/56ad58bf3c8d9f41d6c96d0bf68444c1887d21cf.jpg"
  },
  {
    "name": "ACH_OPERATION_HEAVY_ARMS_SCOUT",
    "defaultvalue": 0,
    "displayName": "Operation: Heavy Arms",
    "hidden": 0,
    "description": "Complete a hard lair mission as a Heavy Archetype",
    "icon": "https://steamcdn-a.akamaihd.net/steamcommunity/public/images/apps/375230/5f95e8fdfac36cf60f6f0f7e5d868eabcbc08b10.jpg",
    "icongray": "https://steamcdn-a.akamaihd.net/steamcommunity/public/images/apps/375230/56ad58bf3c8d9f41d6c96d0bf68444c1887d21cf.jpg"
  },
  {
    "name": "ACH_TESTAMENT_TACTICAL_FORCES_SCOUT",
    "defaultvalue": 0,
    "displayName": "Testament: Tactical Forces",
    "hidden": 0,
    "description": "Complete a lair mission with only Ranged Archetypes in your team",
    "icon": "https://steamcdn-a.akamaihd.net/steamcommunity/public/images/apps/375230/b0dc629cf766bb3d113757f6cf272945582d646b.jpg",
    "icongray": "https://steamcdn-a.akamaihd.net/steamcommunity/public/images/apps/375230/56ad58bf3c8d9f41d6c96d0bf68444c1887d21cf.jpg"
  },
  {
    "name": "ACH_TESTAMENT_STALWART_DEFENDER_SCOUT",
    "defaultvalue": 0,
    "displayName": "Testament: Stalwart Defender",
    "hidden": 0,
    "description": "Complete a lair mission with only Melee Archetypes in your team",
    "icon": "https://steamcdn-a.akamaihd.net/steamcommunity/public/images/apps/375230/1910e3a14ac94bf8e9176f537243c2aa128174b9.jpg",
    "icongray": "https://steamcdn-a.akamaihd.net/steamcommunity/public/images/apps/375230/56ad58bf3c8d9f41d6c96d0bf68444c1887d21cf.jpg"
  },
  {
    "name": "ACH_TESTAMENT_AIR_POWER_SCOUT",
    "defaultvalue": 0,
    "displayName": "Testament: Air Power",
    "hidden": 0,
    "description": "Complete a lair mission with only Jump Archetypes in your team",
    "icon": "https://steamcdn-a.akamaihd.net/steamcommunity/public/images/apps/375230/04cb3346ed8ff85955b6c28389304edf6369fcae.jpg",
    "icongray": "https://steamcdn-a.akamaihd.net/steamcommunity/public/images/apps/375230/56ad58bf3c8d9f41d6c96d0bf68444c1887d21cf.jpg"
  },
  {
    "name": "ACH_TESTAMENT_FIELD_SUPPORT_SCOUT",
    "defaultvalue": 0,
    "displayName": "Testament: Field Support",
    "hidden": 0,
    "description": "Complete a lair mission with only Support Archetypes in your team",
    "icon": "https://steamcdn-a.akamaihd.net/steamcommunity/public/images/apps/375230/2855fdcaf54ef9d9f8aed66c565650db1ee9a925.jpg",
    "icongray": "https://steamcdn-a.akamaihd.net/steamcommunity/public/images/apps/375230/56ad58bf3c8d9f41d6c96d0bf68444c1887d21cf.jpg"
  },
  {
    "name": "ACH_TESTAMENT_HEAVY_ARMS_SCOUT",
    "defaultvalue": 0,
    "displayName": "Testament: Heavy Arms",
    "hidden": 0,
    "description": "Complete a lair mission with only Heavy Archetypes in your team",
    "icon": "https://steamcdn-a.akamaihd.net/steamcommunity/public/images/apps/375230/192d0925ad24db0fa2df0e916015e8ea4e730ba5.jpg",
    "icongray": "https://steamcdn-a.akamaihd.net/steamcommunity/public/images/apps/375230/56ad58bf3c8d9f41d6c96d0bf68444c1887d21cf.jpg"
  },
  {
    "name": "ACH_IN_AND_OUT_SCOUT",
    "defaultvalue": 0,
    "displayName": "In & Out",
    "hidden": 0,
    "description": "Complete a lair mission in under 10 minutes",
    "icon": "https://steamcdn-a.akamaihd.net/steamcommunity/public/images/apps/375230/1c4e20e8cd192cca3113809e9797f27297a1309d.jpg",
    "icongray": "https://steamcdn-a.akamaihd.net/steamcommunity/public/images/apps/375230/56ad58bf3c8d9f41d6c96d0bf68444c1887d21cf.jpg"
  },
  {
    "name": "ACH_MAGGON_STATION_ATTACK_SCOUT",
    "defaultvalue": 0,
    "displayName": "Maggon Station Attack",
    "hidden": 0,
    "description": "Successfully attack Maggon Station",
    "icon": "https://steamcdn-a.akamaihd.net/steamcommunity/public/images/apps/375230/651755319e26c9020aa008127d22f1d36cb0f99e.jpg",
    "icongray": "https://steamcdn-a.akamaihd.net/steamcommunity/public/images/apps/375230/56ad58bf3c8d9f41d6c96d0bf68444c1887d21cf.jpg"
  },
  {
    "name": "ACH_ZEDEK_ATTACK_SCOUT",
    "defaultvalue": 0,
    "displayName": "Zedek Attack",
    "hidden": 0,
    "description": "Successfully attack Zedek",
    "icon": "https://steamcdn-a.akamaihd.net/steamcommunity/public/images/apps/375230/cd56a87b0714a5e644f7ecbe78289ebbe307e3da.jpg",
    "icongray": "https://steamcdn-a.akamaihd.net/steamcommunity/public/images/apps/375230/56ad58bf3c8d9f41d6c96d0bf68444c1887d21cf.jpg"
  },
  {
    "name": "ACH_MEDUSA_RELAY_ATTACK_SCOUT",
    "defaultvalue": 0,
    "displayName": "Medusa Relay Attack",
    "hidden": 0,
    "description": "Successfully attack Medusa Relay",
    "icon": "https://steamcdn-a.akamaihd.net/steamcommunity/public/images/apps/375230/19b1d09f7b0a135ca08f769de8b4fbcaed5f1110.jpg",
    "icongray": "https://steamcdn-a.akamaihd.net/steamcommunity/public/images/apps/375230/56ad58bf3c8d9f41d6c96d0bf68444c1887d21cf.jpg"
  },
  {
    "name": "ACH_AGNATHIO_ATTACK_SCOUT",
    "defaultvalue": 0,
    "displayName": "Agnathio Attack",
    "hidden": 0,
    "description": "Successfully attack Agnathio",
    "icon": "https://steamcdn-a.akamaihd.net/steamcommunity/public/images/apps/375230/0a597983b290037392ebc752ffe2a0f3c1c51a91.jpg",
    "icongray": "https://steamcdn-a.akamaihd.net/steamcommunity/public/images/apps/375230/56ad58bf3c8d9f41d6c96d0bf68444c1887d21cf.jpg"
  },
  {
    "name": "ACH_MAGGON_STATION_DEFENSE_SCOUT",
    "defaultvalue": 0,
    "displayName": "Maggon Station Defense",
    "hidden": 0,
    "description": "Successfully defend Maggon Station",
    "icon": "https://steamcdn-a.akamaihd.net/steamcommunity/public/images/apps/375230/4941883e3bbf557594a212126a8fb072637fd5dd.jpg",
    "icongray": "https://steamcdn-a.akamaihd.net/steamcommunity/public/images/apps/375230/56ad58bf3c8d9f41d6c96d0bf68444c1887d21cf.jpg"
  },
  {
    "name": "ACH_ZEDEK_DEFENSE_SCOUT",
    "defaultvalue": 0,
    "displayName": "Zedek Defense",
    "hidden": 0,
    "description": "Successfully defend Zedek",
    "icon": "https://steamcdn-a.akamaihd.net/steamcommunity/public/images/apps/375230/078fb8d29122151203112e805eba0553c90fad26.jpg",
    "icongray": "https://steamcdn-a.akamaihd.net/steamcommunity/public/images/apps/375230/56ad58bf3c8d9f41d6c96d0bf68444c1887d21cf.jpg"
  },
  {
    "name": "ACH_MEDUSA_RELAY_DEFENSE_SCOUT",
    "defaultvalue": 0,
    "displayName": "Medusa Relay Defense",
    "hidden": 0,
    "description": "Successfully defend Medusa Relay",
    "icon": "https://steamcdn-a.akamaihd.net/steamcommunity/public/images/apps/375230/280aca86b7b4905ab61084b08c13894625eb6ce6.jpg",
    "icongray": "https://steamcdn-a.akamaihd.net/steamcommunity/public/images/apps/375230/56ad58bf3c8d9f41d6c96d0bf68444c1887d21cf.jpg"
  },
  {
    "name": "ACH_AGNATHIO_DEFENSE_SCOUT",
    "defaultvalue": 0,
    "displayName": "Agnathio Defense",
    "hidden": 0,
    "description": "Successfully defend Agnathio",
    "icon": "https://steamcdn-a.akamaihd.net/steamcommunity/public/images/apps/375230/8e784a6a18d5cdecb97a5ea5cf9ff1b4cb2f6a57.jpg",
    "icongray": "https://steamcdn-a.akamaihd.net/steamcommunity/public/images/apps/375230/56ad58bf3c8d9f41d6c96d0bf68444c1887d21cf.jpg"
  },
  {
    "name": "ACH_SPACE_MARINE_JOURNEYMAN_SCOUT",
    "defaultvalue": 0,
    "displayName": "Space Marine Journeyman",
    "hidden": 0,
    "description": "Earn 5000 XP in a single match for each of the five basic Space Marine classes (XP must be earned on foot)",
    "icon": "https://steamcdn-a.akamaihd.net/steamcommunity/public/images/apps/375230/4b0ac3aae4af4b720c67d1054377cc84216f2a9f.jpg",
    "icongray": "https://steamcdn-a.akamaihd.net/steamcommunity/public/images/apps/375230/56ad58bf3c8d9f41d6c96d0bf68444c1887d21cf.jpg"
  },
  {
    "name": "ACH_CHAOS_SPACE_MARINE_JOURNEYMAN_SCOUT",
    "defaultvalue": 0,
    "displayName": "Chaos Space Marine Journeyman",
    "hidden": 0,
    "description": "Earn 5000 XP in a single match for each of the five basic Chaos Space Marine classes (XP must be earned on foot)",
    "icon": "https://steamcdn-a.akamaihd.net/steamcommunity/public/images/apps/375230/44e7c04d6758abab74ec007acaf488cf3c4b2f86.jpg",
    "icongray": "https://steamcdn-a.akamaihd.net/steamcommunity/public/images/apps/375230/56ad58bf3c8d9f41d6c96d0bf68444c1887d21cf.jpg"
  },
  {
    "name": "ACH_ORK_JOURNEYMAN_SCOUT",
    "defaultvalue": 0,
    "displayName": "Ork Journeyman",
    "hidden": 0,
    "description": "Earn 5000 XP in a single match for each of the five basic Ork classes (XP must be earned on foot)",
    "icon": "https://steamcdn-a.akamaihd.net/steamcommunity/public/images/apps/375230/c3fa3c9bff12446999b2d2b950fde93974194da3.jpg",
    "icongray": "https://steamcdn-a.akamaihd.net/steamcommunity/public/images/apps/375230/56ad58bf3c8d9f41d6c96d0bf68444c1887d21cf.jpg"
  },
  {
    "name": "ACH_ELDAR_JOURNEYMAN_SCOUT",
    "defaultvalue": 0,
    "displayName": "Eldar Journeyman",
    "hidden": 0,
    "description": "Earn 5000 XP in a single match for each of the seven basic Eldar classes (XP must be earned on foot)",
    "icon": "https://steamcdn-a.akamaihd.net/steamcommunity/public/images/apps/375230/b990943035c580c63a88ed3de66ab20d392510d4.jpg",
    "icongray": "https://steamcdn-a.akamaihd.net/steamcommunity/public/images/apps/375230/56ad58bf3c8d9f41d6c96d0bf68444c1887d21cf.jpg"
  },
  {
    "name": "ACH_SPACE_MARINE_WEAPONLORD_SCOUT",
    "defaultvalue": 0,
    "displayName": "Space Marine Weaponlord",
    "hidden": 0,
    "description": "Master all core Space Marine weapons",
    "icon": "https://steamcdn-a.akamaihd.net/steamcommunity/public/images/apps/375230/de1fd60a53289236bcb0d2a8bce2e987060c814a.jpg",
    "icongray": "https://steamcdn-a.akamaihd.net/steamcommunity/public/images/apps/375230/56ad58bf3c8d9f41d6c96d0bf68444c1887d21cf.jpg"
  },
  {
    "name": "ACH_CHAOS_SPACE_MARINE_WEAPONLORD_SCOUT",
    "defaultvalue": 0,
    "displayName": "Chaos Space Marine Weaponlord",
    "hidden": 0,
    "description": "Master all core Chaos Space Marine weapons",
    "icon": "https://steamcdn-a.akamaihd.net/steamcommunity/public/images/apps/375230/9df422f76b795f5c86e12a0782d90dad54e78fc4.jpg",
    "icongray": "https://steamcdn-a.akamaihd.net/steamcommunity/public/images/apps/375230/56ad58bf3c8d9f41d6c96d0bf68444c1887d21cf.jpg"
  },
  {
    "name": "ACH_ORK_WEAPONLORD_SCOUT",
    "defaultvalue": 0,
    "displayName": "Ork Weaponlord",
    "hidden": 0,
    "description": "Master all core Ork weapons",
    "icon": "https://steamcdn-a.akamaihd.net/steamcommunity/public/images/apps/375230/b3f0ce4af73ccb5dc51cc91999e27b4b7c5d594f.jpg",
    "icongray": "https://steamcdn-a.akamaihd.net/steamcommunity/public/images/apps/375230/56ad58bf3c8d9f41d6c96d0bf68444c1887d21cf.jpg"
  },
  {
    "name": "ACH_ELDAR_WEAPONLORD_SCOUT",
    "defaultvalue": 0,
    "displayName": "Eldar Weaponlord",
    "hidden": 0,
    "description": "Master all core Eldar weapons",
    "icon": "https://steamcdn-a.akamaihd.net/steamcommunity/public/images/apps/375230/bd53649fbed7c295572e1a07d1111386d075cd19.jpg",
    "icongray": "https://steamcdn-a.akamaihd.net/steamcommunity/public/images/apps/375230/56ad58bf3c8d9f41d6c96d0bf68444c1887d21cf.jpg"
  },
  {
    "name": "ACH_MASTER_OF_THE_ARSENAL_SCOUT",
    "defaultvalue": 0,
    "displayName": "Master of the Arsenal",
    "hidden": 0,
    "description": "Purchase all Advancements for any character",
    "icon": "https://steamcdn-a.akamaihd.net/steamcommunity/public/images/apps/375230/d3c92a76adc71150021f967a3bcfbe79a39e1a9e.jpg",
    "icongray": "https://steamcdn-a.akamaihd.net/steamcommunity/public/images/apps/375230/56ad58bf3c8d9f41d6c96d0bf68444c1887d21cf.jpg"
  },
  {
    "name": "ACH_SYNAPSE_CUT_SCOUT",
    "defaultvalue": 0,
    "displayName": "Synapse Cut",
    "hidden": 0,
    "description": "Kill a Tyranid Warrior using only personal weapons (Knife or Knuckles)",
    "icon": "https://steamcdn-a.akamaihd.net/steamcommunity/public/images/apps/375230/8a1e7e7cf0e8eb98ddea348ab8b265f6db060f67.jpg",
    "icongray": "https://steamcdn-a.akamaihd.net/steamcommunity/public/images/apps/375230/56ad58bf3c8d9f41d6c96d0bf68444c1887d21cf.jpg"
  },
  {
    "name": "ACH_FIELD_LEADER_SCOUT",
    "defaultvalue": 0,
    "displayName": "Field Leader",
    "hidden": 0,
    "description": "Win a battle with a War Party you created",
    "icon": "https://steamcdn-a.akamaihd.net/steamcommunity/public/images/apps/375230/8856e0eca1cdc4c32696e57a787c355a2e961f85.jpg",
    "icongray": "https://steamcdn-a.akamaihd.net/steamcommunity/public/images/apps/375230/56ad58bf3c8d9f41d6c96d0bf68444c1887d21cf.jpg"
  },
  {
    "name": "ACH_SPACE_MARINE_MVP_SCOUT",
    "defaultvalue": 0,
    "displayName": "Space Marine MVP",
    "hidden": 0,
    "description": "Collect all commendations as a Space Marine",
    "icon": "https://steamcdn-a.akamaihd.net/steamcommunity/public/images/apps/375230/e96ece8dd7e9eb5eeeb181686f5bd01cc81df30d.jpg",
    "icongray": "https://steamcdn-a.akamaihd.net/steamcommunity/public/images/apps/375230/56ad58bf3c8d9f41d6c96d0bf68444c1887d21cf.jpg"
  },
  {
    "name": "ACH_CHAOS_SPACE_MARINE_MVP_SCOUT",
    "defaultvalue": 0,
    "displayName": "Chaos Space Marine MVP",
    "hidden": 0,
    "description": "Collect all commendations as a Chaos Space Marine",
    "icon": "https://steamcdn-a.akamaihd.net/steamcommunity/public/images/apps/375230/42fa8325cc16e4f1d841248a56f192efe4eddd5c.jpg",
    "icongray": "https://steamcdn-a.akamaihd.net/steamcommunity/public/images/apps/375230/56ad58bf3c8d9f41d6c96d0bf68444c1887d21cf.jpg"
  },
  {
    "name": "ACH_ORK_MVP_SCOUT",
    "defaultvalue": 0,
    "displayName": "Ork MVP",
    "hidden": 0,
    "description": "Collect all commendations as an Ork",
    "icon": "https://steamcdn-a.akamaihd.net/steamcommunity/public/images/apps/375230/05e2ea88555446f3400d8e3ec542a77b3c0e1d7d.jpg",
    "icongray": "https://steamcdn-a.akamaihd.net/steamcommunity/public/images/apps/375230/56ad58bf3c8d9f41d6c96d0bf68444c1887d21cf.jpg"
  },
  {
    "name": "ACH_ELDAR_MVP_SCOUT",
    "defaultvalue": 0,
    "displayName": "Eldar MVP",
    "hidden": 0,
    "description": "Collect all commendations as an Eldar",
    "icon": "https://steamcdn-a.akamaihd.net/steamcommunity/public/images/apps/375230/9dd8319942815790c70aca5cd495cdf90aef661c.jpg",
    "icongray": "https://steamcdn-a.akamaihd.net/steamcommunity/public/images/apps/375230/56ad58bf3c8d9f41d6c96d0bf68444c1887d21cf.jpg"
  }
]