﻿[
  {
    "name": "QUICK_LOSS",
    "defaultvalue": 0,
    "displayName": "Early Defeat",
    "hidden": 1,
    "icon": "https://steamcdn-a.akamaihd.net/steamcommunity/public/images/apps/46770/7e4d89af5bda0345201bf014eb0becc197941662.jpg",
    "icongray": "https://steamcdn-a.akamaihd.net/steamcommunity/public/images/apps/46770/51fa2aa5924d4643fdd854c95fdcbee6717cf37c.jpg"
  }
]