﻿{
  "Dlcs": {},
  "Name": "Demonicon",
  "AppId": "215630",
  "ImageUrl": "https://steamcdn-a.akamaihd.net/steam/apps/215630/header.jpg?t=1572886792",
  "Languages": [
    "english",
    "french",
    "german",
    "korean",
    "russian"
  ],
  "Platforms": {
    "windows": true,
    "mac": false,
    "linux": false
  }
}