﻿{
  "Dlcs": {},
  "Name": "Dale Hardshovel HD",
  "AppId": "370170",
  "ImageUrl": "https://steamcdn-a.akamaihd.net/steam/apps/370170/header.jpg?t=1572379428",
  "Languages": [
    "english"
  ],
  "Platforms": {
    "windows": true,
    "mac": true,
    "linux": true
  }
}