﻿[
  {
    "name": "mudpuppy",
    "defaultvalue": 0,
    "displayName": ""
  },
  {
    "name": "aimingclumsy",
    "defaultvalue": 0,
    "displayName": ""
  },
  {
    "name": "aimshoot",
    "defaultvalue": 0,
    "displayName": ""
  },
  {
    "name": "brainsurgery",
    "defaultvalue": 0,
    "displayName": ""
  },
  {
    "name": "breakasweat",
    "defaultvalue": 0,
    "displayName": ""
  },
  {
    "name": "bullettank",
    "defaultvalue": 0,
    "displayName": ""
  },
  {
    "name": "burningflag",
    "defaultvalue": 0,
    "displayName": ""
  },
  {
    "name": "closeup",
    "defaultvalue": 0,
    "displayName": ""
  },
  {
    "name": "deathwithinseconds",
    "defaultvalue": 0,
    "displayName": ""
  },
  {
    "name": "evolution",
    "defaultvalue": 0,
    "displayName": ""
  },
  {
    "name": "goingoutwithabang",
    "defaultvalue": 0,
    "displayName": ""
  },
  {
    "name": "gunbunny",
    "defaultvalue": 0,
    "displayName": ""
  },
  {
    "name": "hidenseek",
    "defaultvalue": 0,
    "displayName": ""
  },
  {
    "name": "immortal",
    "defaultvalue": 0,
    "displayName": ""
  },
  {
    "name": "killthrill",
    "defaultvalue": 0,
    "displayName": ""
  },
  {
    "name": "lastoneloses",
    "defaultvalue": 0,
    "displayName": ""
  },
  {
    "name": "lateforthemeeting",
    "defaultvalue": 0,
    "displayName": ""
  },
  {
    "name": "leaderofmasses",
    "defaultvalue": 0,
    "displayName": ""
  },
  {
    "name": "loudsilence",
    "defaultvalue": 0,
    "displayName": ""
  },
  {
    "name": "nastycut",
    "defaultvalue": 0,
    "displayName": ""
  },
  {
    "name": "nolanding",
    "defaultvalue": 0,
    "displayName": ""
  },
  {
    "name": "ravagingrage",
    "defaultvalue": 0,
    "displayName": ""
  },
  {
    "name": "rockstar",
    "defaultvalue": 0,
    "displayName": ""
  },
  {
    "name": "silentassmoke",
    "defaultvalue": 0,
    "displayName": ""
  },
  {
    "name": "starstruck",
    "defaultvalue": 0,
    "displayName": ""
  },
  {
    "name": "teamplayer",
    "defaultvalue": 0,
    "displayName": ""
  },
  {
    "name": "triggerpuller",
    "defaultvalue": 0,
    "displayName": ""
  },
  {
    "name": "triggerready",
    "defaultvalue": 0,
    "displayName": ""
  },
  {
    "name": "unbeatable",
    "defaultvalue": 0,
    "displayName": ""
  },
  {
    "name": "veteran",
    "defaultvalue": 0,
    "displayName": ""
  },
  {
    "name": "vexillology",
    "defaultvalue": 0,
    "displayName": ""
  },
  {
    "name": "yolo",
    "defaultvalue": 0,
    "displayName": ""
  }
]