﻿{
  "Dlcs": {},
  "Name": "Help",
  "AppId": "541920",
  "ImageUrl": "https://steamcdn-a.akamaihd.net/steam/apps/541920/header.jpg?t=1476404043",
  "Languages": [
    "english",
    "russian"
  ],
  "Platforms": {
    "windows": true,
    "mac": false,
    "linux": false
  }
}