﻿{
  "Dlcs": {
    "212710": {
      "Name": "Party of Sin Soundtrack",
      "ImageUrl": "https://steamcdn-a.akamaihd.net/steam/apps/212710/header.jpg?t=1447357184"
    }
  },
  "Name": "Party of Sin",
  "AppId": "212700",
  "ImageUrl": "https://steamcdn-a.akamaihd.net/steam/apps/212700/header.jpg?t=1478112794",
  "Languages": [
    "english",
    "german",
    "french",
    "italian",
    "spanish",
    "russian"
  ],
  "Platforms": {
    "windows": true,
    "mac": false,
    "linux": false
  }
}