﻿{
  "Dlcs": {},
  "Name": "Rapid Tap",
  "AppId": "746920",
  "ImageUrl": "https://steamcdn-a.akamaihd.net/steam/apps/746920/header.jpg?t=1577860327",
  "Languages": [
    "english"
  ],
  "Platforms": {
    "windows": true,
    "mac": true,
    "linux": true
  }
}