﻿{
  "Dlcs": {},
  "Name": "Conflict: Denied Ops",
  "AppId": "8100",
  "ImageUrl": "https://steamcdn-a.akamaihd.net/steam/apps/8100/header.jpg?t=1592490647",
  "Languages": [
    "english",
    "spanish",
    "french",
    "italian"
  ],
  "Platforms": {
    "windows": true,
    "mac": false,
    "linux": false
  }
}