﻿{
  "Dlcs": {
    "446860": {
      "Name": "The Last NightMary - Soundtrack",
      "ImageUrl": "https://steamcdn-a.akamaihd.net/steam/apps/446860/header.jpg?t=1457989612"
    }
  },
  "Name": "The Last NightMary - A Lenda do Cabeça de Cuia",
  "AppId": "407300",
  "ImageUrl": "https://steamcdn-a.akamaihd.net/steam/apps/407300/header.jpg?t=1457541779",
  "Languages": [
    "english",
    "italian",
    "portuguese",
    "russian",
    "german",
    "spanish"
  ],
  "Platforms": {
    "windows": true,
    "mac": true,
    "linux": true
  }
}