﻿[
  {
    "name": "SurvivalKills_SurvivalKills",
    "defaultvalue": 0,
    "displayName": "Survival Kills"
  },
  {
    "name": "EscapeTime_EscapeTime",
    "defaultvalue": 0,
    "displayName": "Escape Time"
  }
]