﻿[
  {
    "name": "Ach_Press_K",
    "defaultvalue": 0,
    "displayName": "K",
    "hidden": 0,
    "description": "You did it!",
    "icon": "https://steamcdn-a.akamaihd.net/steamcommunity/public/images/apps/359350/3b4dfa4b0671915292dd159d76e1ad1a00cb2d21.jpg",
    "icongray": "https://steamcdn-a.akamaihd.net/steamcommunity/public/images/apps/359350/c2d01a0fe471f2cf12ce915478d4dd7ad848273c.jpg"
  },
  {
    "name": "Ach_Grass_Is_Brass",
    "defaultvalue": 0,
    "displayName": "Lawn Mower",
    "hidden": 0,
    "description": "Complete Grasslands",
    "icon": "https://steamcdn-a.akamaihd.net/steamcommunity/public/images/apps/359350/e6ff1bbaea64ad2c1f45d0c876a45c233ddd2eb3.jpg",
    "icongray": "https://steamcdn-a.akamaihd.net/steamcommunity/public/images/apps/359350/0f5a053db3e7c643c4bc676fecb290bfc76daa62.jpg"
  },
  {
    "name": "Ach_Waste_not_Want_not",
    "defaultvalue": 0,
    "displayName": "Waste Not, Want Not",
    "hidden": 0,
    "description": "Complete Wasteland",
    "icon": "https://steamcdn-a.akamaihd.net/steamcommunity/public/images/apps/359350/1361e1f7a0f99a2140fa9f0e46f751b6556a6d6a.jpg",
    "icongray": "https://steamcdn-a.akamaihd.net/steamcommunity/public/images/apps/359350/4de946b5d9e9e505ba5d047d616329d9a851e92c.jpg"
  },
  {
    "name": "Ach_End_Of_The_Line",
    "defaultvalue": 0,
    "displayName": "End of the Line",
    "hidden": 0,
    "description": "Complete Endgame",
    "icon": "https://steamcdn-a.akamaihd.net/steamcommunity/public/images/apps/359350/460d149a502b26d44feaf1682dabd93a5f42ce36.jpg",
    "icongray": "https://steamcdn-a.akamaihd.net/steamcommunity/public/images/apps/359350/d28584ead14ece61fc9d14701d441a24eee4b57b.jpg"
  },
  {
    "name": "Ach_Apprentice_Collector",
    "defaultvalue": 0,
    "displayName": "Apprentice Collector",
    "hidden": 0,
    "description": "Collect a collectible",
    "icon": "https://steamcdn-a.akamaihd.net/steamcommunity/public/images/apps/359350/30229e9e96ddab2a1522a1cb904ff6bf26e3951d.jpg",
    "icongray": "https://steamcdn-a.akamaihd.net/steamcommunity/public/images/apps/359350/8f49d02e04f9fb781fbc7ca593228cf4ca3dfd61.jpg"
  },
  {
    "name": "Ach_Journeyman_Collector",
    "defaultvalue": 0,
    "displayName": "Journeyman Collector",
    "hidden": 0,
    "description": "Collect 10 collectibles",
    "icon": "https://steamcdn-a.akamaihd.net/steamcommunity/public/images/apps/359350/316d701fc066bb435b1257e754d2f5b87f61ba81.jpg",
    "icongray": "https://steamcdn-a.akamaihd.net/steamcommunity/public/images/apps/359350/b0f1b6579cf2702f76d4af2d4b384ac6df29ec73.jpg"
  },
  {
    "name": "Ach_Expert_Collector",
    "defaultvalue": 0,
    "displayName": "Expert Collector",
    "hidden": 0,
    "description": "Collect 20 collectibles",
    "icon": "https://steamcdn-a.akamaihd.net/steamcommunity/public/images/apps/359350/1faa3f727596d6db2eddef59d4df6d36d7130e26.jpg",
    "icongray": "https://steamcdn-a.akamaihd.net/steamcommunity/public/images/apps/359350/1cd1ffaae09e79cfbfde5e2c7ffb0de1681c6045.jpg"
  },
  {
    "name": "Ach_Master_Collector",
    "defaultvalue": 0,
    "displayName": "Master Collector",
    "hidden": 0,
    "description": "Collect 30 collectibles",
    "icon": "https://steamcdn-a.akamaihd.net/steamcommunity/public/images/apps/359350/55b412ef7b2d6cc253f5b492679cf71a5f6911f1.jpg",
    "icongray": "https://steamcdn-a.akamaihd.net/steamcommunity/public/images/apps/359350/acbd07af14feacf33457c4ac59528ca1006bc627.jpg"
  },
  {
    "name": "Ach_Grand_Master_Collector",
    "defaultvalue": 0,
    "displayName": "Grand Master Collector",
    "hidden": 0,
    "description": "Collect all collectibles",
    "icon": "https://steamcdn-a.akamaihd.net/steamcommunity/public/images/apps/359350/2a8bf8cf75299286ced30b6272751646c53e080e.jpg",
    "icongray": "https://steamcdn-a.akamaihd.net/steamcommunity/public/images/apps/359350/b0cb156d42e4b05728202cb75e787217fabbc4df.jpg"
  },
  {
    "name": "Ach_Adventurer",
    "defaultvalue": 0,
    "displayName": "Adventurer",
    "hidden": 0,
    "description": "Complete Normal Mode",
    "icon": "https://steamcdn-a.akamaihd.net/steamcommunity/public/images/apps/359350/2cb98732622a1f0ffe6b70c232ae128ea9717348.jpg",
    "icongray": "https://steamcdn-a.akamaihd.net/steamcommunity/public/images/apps/359350/7970dc4a1948f1b5ee5f2202cb5e782e38506789.jpg"
  },
  {
    "name": "Ach_All_Bronze",
    "defaultvalue": 0,
    "displayName": "Too Easy!",
    "hidden": 0,
    "description": "Get bronze or higher in Time Trial on all maps",
    "icon": "https://steamcdn-a.akamaihd.net/steamcommunity/public/images/apps/359350/e6e86d185d12727c1044889eed9baea4348c2ba9.jpg",
    "icongray": "https://steamcdn-a.akamaihd.net/steamcommunity/public/images/apps/359350/8a7f8dc59626650be66abf43db4c5394cb774cbe.jpg"
  },
  {
    "name": "Ach_All_Silver",
    "defaultvalue": 0,
    "displayName": "Pff! Is This All You Got?",
    "hidden": 0,
    "description": "Get silver or higher in Time Trial on all maps",
    "icon": "https://steamcdn-a.akamaihd.net/steamcommunity/public/images/apps/359350/9e517ef334f14afe10066aff3f77da86b3a57758.jpg",
    "icongray": "https://steamcdn-a.akamaihd.net/steamcommunity/public/images/apps/359350/a6c63b0b15e1f5724fc56b2aa07b250ef7247f12.jpg"
  },
  {
    "name": "Ach_All_Gold",
    "defaultvalue": 0,
    "displayName": "Uh… Ehm…",
    "hidden": 0,
    "description": "Get gold or higher in Time Trial on all maps",
    "icon": "https://steamcdn-a.akamaihd.net/steamcommunity/public/images/apps/359350/e5a13de00e05ee9836949239b55f34b366fd1c3b.jpg",
    "icongray": "https://steamcdn-a.akamaihd.net/steamcommunity/public/images/apps/359350/1598f1df51b560449a689a5491494bce993d7f52.jpg"
  },
  {
    "name": "Ach_All_Platinum",
    "defaultvalue": 0,
    "displayName": "Aah, Hell No!",
    "hidden": 0,
    "description": "Get platinum in Time Trial on all maps",
    "icon": "https://steamcdn-a.akamaihd.net/steamcommunity/public/images/apps/359350/ecc6346426bb30bd7f1783274070c42f4d675735.jpg",
    "icongray": "https://steamcdn-a.akamaihd.net/steamcommunity/public/images/apps/359350/fb900d5e6f0a42fbdb0a75cd8e34412601f150ba.jpg"
  },
  {
    "name": "Ach_I_Can_Do_Tricks",
    "defaultvalue": 0,
    "displayName": "I Can Do Tricks?!",
    "hidden": 0,
    "description": "Perform a trick in the air",
    "icon": "https://steamcdn-a.akamaihd.net/steamcommunity/public/images/apps/359350/efedd08fd5024f61304137125a75a419ea542e83.jpg",
    "icongray": "https://steamcdn-a.akamaihd.net/steamcommunity/public/images/apps/359350/ec4ed7d347957c70202eece67a5783497ae22604.jpg"
  },
  {
    "name": "Ach_Quick_Trick",
    "defaultvalue": 0,
    "displayName": "Quick Trick",
    "hidden": 0,
    "description": "Perform 2 tricks in the air without touching the ground",
    "icon": "https://steamcdn-a.akamaihd.net/steamcommunity/public/images/apps/359350/4e61a7e6ae2ec509b7e11e30eaade6c7ff879abf.jpg",
    "icongray": "https://steamcdn-a.akamaihd.net/steamcommunity/public/images/apps/359350/379c32c71adaced71b293a18218a3dc0da4dc254.jpg"
  },
  {
    "name": "Ach_Floor_Is_Lava",
    "defaultvalue": 0,
    "displayName": "Floor is Lava",
    "hidden": 0,
    "description": "Spend 5 seconds in the air without touching the ground",
    "icon": "https://steamcdn-a.akamaihd.net/steamcommunity/public/images/apps/359350/878fb5aa8e2f2ca2f67ed3d9fe8d0d90d8330a00.jpg",
    "icongray": "https://steamcdn-a.akamaihd.net/steamcommunity/public/images/apps/359350/ee97eee4422ef2d0ac8885fcdf4e9e4ea61aa78f.jpg"
  },
  {
    "name": "Ach_Secret_Area_CargoShip_01",
    "defaultvalue": 0,
    "displayName": "Ooh! Secrets!",
    "hidden": 0,
    "description": "Find the secret spot in the level \"Home\"",
    "icon": "https://steamcdn-a.akamaihd.net/steamcommunity/public/images/apps/359350/429a00b2a7da3c215d21d56d323da9199dc38c91.jpg",
    "icongray": "https://steamcdn-a.akamaihd.net/steamcommunity/public/images/apps/359350/79ecc9e1c0bcfde933905560334cc21418f16093.jpg"
  },
  {
    "name": "Ach_Secret_Area_Forest_01",
    "defaultvalue": 0,
    "displayName": "More Secrets!",
    "hidden": 0,
    "description": "Find the secret spot in the level \"Into the Woods\"",
    "icon": "https://steamcdn-a.akamaihd.net/steamcommunity/public/images/apps/359350/116fc34e708745038c5de89694dd5637fdb18c10.jpg",
    "icongray": "https://steamcdn-a.akamaihd.net/steamcommunity/public/images/apps/359350/2b9443d8459f7623204281c2d6e94ec3785eb7a9.jpg"
  },
  {
    "name": "Ach_Secret_Area_Oasis_01",
    "defaultvalue": 0,
    "displayName": "El Dorado",
    "hidden": 0,
    "description": "Find the secret spot in the level \"Oasis\"",
    "icon": "https://steamcdn-a.akamaihd.net/steamcommunity/public/images/apps/359350/656a0c17d30d2f5dbba1661411af8f91cba4318f.jpg",
    "icongray": "https://steamcdn-a.akamaihd.net/steamcommunity/public/images/apps/359350/7aa4bbe1a4917b50dcc25653a8b2b3153e254004.jpg"
  },
  {
    "name": "Ach_Secret_Area_Ravine_01",
    "defaultvalue": 0,
    "displayName": "Left Behind",
    "hidden": 0,
    "description": "Find the secret spot in the level \"Rock Bottom\"",
    "icon": "https://steamcdn-a.akamaihd.net/steamcommunity/public/images/apps/359350/04d3784fbd6537309cb03edd325653a3542e2e9a.jpg",
    "icongray": "https://steamcdn-a.akamaihd.net/steamcommunity/public/images/apps/359350/6b8ac0b0e133170a88afebf503710b550d5f168f.jpg"
  },
  {
    "name": "Ach_Sonic_Boom",
    "defaultvalue": 0,
    "displayName": "Sonic Boom!",
    "hidden": 0,
    "description": "Reach max speed and keep it for 3 consecutive seconds",
    "icon": "https://steamcdn-a.akamaihd.net/steamcommunity/public/images/apps/359350/b4da5d0e69fd1579aa6bb5f0bc3fa64e68f5969c.jpg",
    "icongray": "https://steamcdn-a.akamaihd.net/steamcommunity/public/images/apps/359350/0ab3ebcca715d296199f90a70b36b1afce3c814f.jpg"
  },
  {
    "name": "Ach_Trickster",
    "defaultvalue": 0,
    "displayName": "Trickster",
    "hidden": 0,
    "description": "Perform every trick once",
    "icon": "https://steamcdn-a.akamaihd.net/steamcommunity/public/images/apps/359350/4481a5dca1800f0f7d2142df562085a13da0c6a4.jpg",
    "icongray": "https://steamcdn-a.akamaihd.net/steamcommunity/public/images/apps/359350/67d51e3bbc878d6e20270a14173c6ef699b2e2ca.jpg"
  },
  {
    "name": "Ach_Need_For_Speed",
    "defaultvalue": 0,
    "displayName": "Need for Speed",
    "hidden": 0,
    "description": "Solve the level \"Junkyard\" in less than 3 minutes",
    "icon": "https://steamcdn-a.akamaihd.net/steamcommunity/public/images/apps/359350/5f20fa101fd3037bf6fbceb1f6b17f5a557cee21.jpg",
    "icongray": "https://steamcdn-a.akamaihd.net/steamcommunity/public/images/apps/359350/216f09f158d0075e1b5e9c685070609661904ed7.jpg"
  },
  {
    "name": "Ach_Forest_Fever",
    "defaultvalue": 0,
    "displayName": "Forest Fever",
    "hidden": 0,
    "description": "Complete the level \"Into the Woods\" without restarting or dying",
    "icon": "https://steamcdn-a.akamaihd.net/steamcommunity/public/images/apps/359350/72dfacc9c02dbc423b99c918b6b71cc2db78666a.jpg",
    "icongray": "https://steamcdn-a.akamaihd.net/steamcommunity/public/images/apps/359350/2a49437d652fd4c50ce7b18c71d70c975afc740a.jpg"
  },
  {
    "name": "Ach_Survivor",
    "defaultvalue": 0,
    "displayName": "Survivor",
    "hidden": 0,
    "description": "Stay in the trash chute for more than 20 seconds",
    "icon": "https://steamcdn-a.akamaihd.net/steamcommunity/public/images/apps/359350/df51c942cfe4a85c7ac318972a96c4935bad57bc.jpg",
    "icongray": "https://steamcdn-a.akamaihd.net/steamcommunity/public/images/apps/359350/48a00388bf4bbaff0416b6de3e371ba81a91a240.jpg"
  },
  {
    "name": "Ach_Hight_Fright",
    "defaultvalue": 0,
    "displayName": "Height Fright",
    "hidden": 0,
    "description": "Jump 100 meters in the air",
    "icon": "https://steamcdn-a.akamaihd.net/steamcommunity/public/images/apps/359350/e6789867f104ded621435f11c25bca5c381f2172.jpg",
    "icongray": "https://steamcdn-a.akamaihd.net/steamcommunity/public/images/apps/359350/8669ee46e19f309b1a70237c6bc9e60e2090fcf0.jpg"
  },
  {
    "name": "Ach_Tryhard",
    "defaultvalue": 0,
    "displayName": "Tryhard",
    "hidden": 0,
    "description": "Complete the story without dying or restarting in one session",
    "icon": "https://steamcdn-a.akamaihd.net/steamcommunity/public/images/apps/359350/0fc0a295b6f47840f4f80cbf01d0d31e799076c7.jpg",
    "icongray": "https://steamcdn-a.akamaihd.net/steamcommunity/public/images/apps/359350/9aee16359231409c08979987dae9996f332bf207.jpg"
  }
]