﻿[
  {
    "name": "ap2psaBATTLEUSA",
    "defaultvalue": 0,
    "displayName": "Win a Battle - US Army",
    "hidden": 0,
    "description": "Win a Battle as the US Army",
    "icon": "https://steamcdn-a.akamaihd.net/steamcommunity/public/images/apps/244090/ed02970fcf72713e0bc0099a760c75b73f4681b1.jpg",
    "icongray": "https://steamcdn-a.akamaihd.net/steamcommunity/public/images/apps/244090/54a0f6c37d2c09180083d49eb1ddf225f48e627b.jpg"
  },
  {
    "name": "ap2psaBATTLEUSN",
    "defaultvalue": 0,
    "displayName": "Win a Battle - US Navy",
    "hidden": 0,
    "description": "Win a Battle as the US Navy",
    "icon": "https://steamcdn-a.akamaihd.net/steamcommunity/public/images/apps/244090/1db2158f71b5d542c0113f6f7078e26246f89df0.jpg",
    "icongray": "https://steamcdn-a.akamaihd.net/steamcommunity/public/images/apps/244090/481a9502b48c418c68b64fcbb89911381147cdd1.jpg"
  },
  {
    "name": "ap2psaBATTLEJA",
    "defaultvalue": 0,
    "displayName": "Win a Battle - Japanese Army",
    "hidden": 0,
    "description": "Win a Battle as the Japanese Army",
    "icon": "https://steamcdn-a.akamaihd.net/steamcommunity/public/images/apps/244090/c5085ab25e04bd9836f2f784cbc32a0820e8f5d7.jpg",
    "icongray": "https://steamcdn-a.akamaihd.net/steamcommunity/public/images/apps/244090/d505cc77ea168a08da55d7dae2c6997e130b2c79.jpg"
  },
  {
    "name": "ap2psaBATTLEJN",
    "defaultvalue": 0,
    "displayName": "Win a Battle - Japanese Navy",
    "hidden": 0,
    "description": "Win a Battle as the Japanese Navy",
    "icon": "https://steamcdn-a.akamaihd.net/steamcommunity/public/images/apps/244090/c91c73f258366624796761b81bfda1630551cbcb.jpg",
    "icongray": "https://steamcdn-a.akamaihd.net/steamcommunity/public/images/apps/244090/db2c4e2b0042e338b43b5003e2beb2fa88d590d3.jpg"
  },
  {
    "name": "ap2psaCAMPAIGNUSA",
    "defaultvalue": 0,
    "displayName": "Win the Campaign - US Army",
    "hidden": 0,
    "description": "Win the Campaign as the US Army",
    "icon": "https://steamcdn-a.akamaihd.net/steamcommunity/public/images/apps/244090/afb1199a607390c099996c1b7b0e3f6d6149142d.jpg",
    "icongray": "https://steamcdn-a.akamaihd.net/steamcommunity/public/images/apps/244090/9fd82578598564b7878a8a250750f0a98fdece24.jpg"
  },
  {
    "name": "ap2psaCAMPAIGNUSN",
    "defaultvalue": 0,
    "displayName": "Win the Campaign - US Navy",
    "hidden": 0,
    "description": "Win the Campaign as the US Navy",
    "icon": "https://steamcdn-a.akamaihd.net/steamcommunity/public/images/apps/244090/d9eb7d3d487a9c6d5df6f9277b2b9282405f005f.jpg",
    "icongray": "https://steamcdn-a.akamaihd.net/steamcommunity/public/images/apps/244090/792d3f52dc9f4ac4f6623a27f2a68c950a99fb63.jpg"
  },
  {
    "name": "ap2psaCAMPAIGNJA",
    "defaultvalue": 0,
    "displayName": "Win the Campaign - Japanese Army",
    "hidden": 0,
    "description": "Win the Campaign as the Japanese Army",
    "icon": "https://steamcdn-a.akamaihd.net/steamcommunity/public/images/apps/244090/ecc23f16ace6f076aebfb4b641f28de44a3cbe72.jpg",
    "icongray": "https://steamcdn-a.akamaihd.net/steamcommunity/public/images/apps/244090/771b60715d0a4a81561c5ce51b4d5756ba8d7b75.jpg"
  },
  {
    "name": "ap2psaCAMPAIGNJN",
    "defaultvalue": 0,
    "displayName": "Win the Campaign - Japanese Navy",
    "hidden": 0,
    "description": "Win the Campaign as the Japanese Navy",
    "icon": "https://steamcdn-a.akamaihd.net/steamcommunity/public/images/apps/244090/3be112f0412cf7065699d64017c34b20487d843a.jpg",
    "icongray": "https://steamcdn-a.akamaihd.net/steamcommunity/public/images/apps/244090/4c908a9a10142c42a78c659f9f8875ede805f33a.jpg"
  },
  {
    "name": "ap2psaMDIFF1",
    "defaultvalue": 0,
    "displayName": "Win a Mission - Pilot",
    "hidden": 0,
    "description": "Win a Mission at Pilot difficulty level",
    "icon": "https://steamcdn-a.akamaihd.net/steamcommunity/public/images/apps/244090/7bc37e8f8738d0fe2266872bae770a5830276b45.jpg",
    "icongray": "https://steamcdn-a.akamaihd.net/steamcommunity/public/images/apps/244090/0a0582f09c268b0339ef636c1c4fc509c3571d5e.jpg"
  },
  {
    "name": "ap2psaMDIFF2",
    "defaultvalue": 0,
    "displayName": "Win a Mission - Ace",
    "hidden": 0,
    "description": "Win a Mission at Ace difficulty level",
    "icon": "https://steamcdn-a.akamaihd.net/steamcommunity/public/images/apps/244090/dff90fbfa2d78aa5585620bddba6804326c81eec.jpg",
    "icongray": "https://steamcdn-a.akamaihd.net/steamcommunity/public/images/apps/244090/928a172f498d0823fbd19ea3725ed934d0892980.jpg"
  },
  {
    "name": "ap2psaMDIFF3",
    "defaultvalue": 0,
    "displayName": "Win a Mission - Leader",
    "hidden": 0,
    "description": "Win a Mission at Leader difficulty level",
    "icon": "https://steamcdn-a.akamaihd.net/steamcommunity/public/images/apps/244090/a5333951c9e484a293c7f36ad9b7e80a84e8a8f8.jpg",
    "icongray": "https://steamcdn-a.akamaihd.net/steamcommunity/public/images/apps/244090/8cadf5651d591de78f64ed9788efa5a3031b9c67.jpg"
  },
  {
    "name": "ap2psaMDIFF4",
    "defaultvalue": 0,
    "displayName": "Win a Mission - Legend",
    "hidden": 0,
    "description": "Win a Mission at Legend difficulty level",
    "icon": "https://steamcdn-a.akamaihd.net/steamcommunity/public/images/apps/244090/3b5cffa44c14218ed213dfed66962f98b2cfe01b.jpg",
    "icongray": "https://steamcdn-a.akamaihd.net/steamcommunity/public/images/apps/244090/8332598e5542eaef644f658137653ff2530d05ae.jpg"
  },
  {
    "name": "ap2psaS50000USA",
    "defaultvalue": 0,
    "displayName": "50,000 Squadron points - US Army",
    "hidden": 0,
    "description": "Earn 50,000 points with a US Army squadron",
    "icon": "https://steamcdn-a.akamaihd.net/steamcommunity/public/images/apps/244090/ea1f2384321c01eeb34e61c42af1f513074a3c0c.jpg",
    "icongray": "https://steamcdn-a.akamaihd.net/steamcommunity/public/images/apps/244090/4f6eb7d5ce5d606986c09bd4676d75103bbe0cab.jpg"
  },
  {
    "name": "ap2psaS50000USN",
    "defaultvalue": 0,
    "displayName": "50,000 Squadron points - US Navy",
    "hidden": 0,
    "description": "Earn 50,000 points with a US Navy squadron",
    "icon": "https://steamcdn-a.akamaihd.net/steamcommunity/public/images/apps/244090/0070793f59ea71b99ba10cd90418d066dbd61855.jpg",
    "icongray": "https://steamcdn-a.akamaihd.net/steamcommunity/public/images/apps/244090/8ed69268ec7a50d32b75c8483c9fa78a9ca73a04.jpg"
  },
  {
    "name": "ap2psaS50000JA",
    "defaultvalue": 0,
    "displayName": "50,000 Squadron points - Japanese Army",
    "hidden": 0,
    "description": "Earn 50,000 points with a Japanese Army squadron",
    "icon": "https://steamcdn-a.akamaihd.net/steamcommunity/public/images/apps/244090/75966d7c53dbc64ae60d6e33c5cead95de5c171f.jpg",
    "icongray": "https://steamcdn-a.akamaihd.net/steamcommunity/public/images/apps/244090/4a1d4f03c5960845fd7a3e3d3df8335a8eff1364.jpg"
  },
  {
    "name": "ap2psaS50000JN",
    "defaultvalue": 0,
    "displayName": "50,000 Squadron points - Japanese Navy",
    "hidden": 0,
    "description": "Earn 50,000 points with a Japanese Navy squadron",
    "icon": "https://steamcdn-a.akamaihd.net/steamcommunity/public/images/apps/244090/142e85cfcffea29f63d3f6cc4020aa30ce1cbc5a.jpg",
    "icongray": "https://steamcdn-a.akamaihd.net/steamcommunity/public/images/apps/244090/2a66463e10884cf12720d1d3bc23fb72d5170426.jpg"
  },
  {
    "name": "ap2psaS100000USA",
    "defaultvalue": 0,
    "displayName": "100,000 Squadron points - US Army",
    "hidden": 0,
    "description": "Earn 100,000 points with a US Army squadron",
    "icon": "https://steamcdn-a.akamaihd.net/steamcommunity/public/images/apps/244090/bb2e7771f309ccc43426f7284fd72bb5cb518324.jpg",
    "icongray": "https://steamcdn-a.akamaihd.net/steamcommunity/public/images/apps/244090/95626b2f4fb3c98016ff5a98089afc8e3d79c5ea.jpg"
  },
  {
    "name": "ap2psaS100000USN",
    "defaultvalue": 0,
    "displayName": "100,000 Squadron points - US Navy",
    "hidden": 0,
    "description": "Earn 100,000 points with a US Navy squadron",
    "icon": "https://steamcdn-a.akamaihd.net/steamcommunity/public/images/apps/244090/88b6f4c7f44176869313125d5e98dc0e7e2fa245.jpg",
    "icongray": "https://steamcdn-a.akamaihd.net/steamcommunity/public/images/apps/244090/8affce988816d759a46fbead151301acc5caa51f.jpg"
  },
  {
    "name": "ap2psaS100000JA",
    "defaultvalue": 0,
    "displayName": "100,000 Squadron points - Japanese Army",
    "hidden": 0,
    "description": "Earn 100,000 points with a Japanese Army squadron",
    "icon": "https://steamcdn-a.akamaihd.net/steamcommunity/public/images/apps/244090/6d498373f693ee4bdef9f79838856225cb6254b1.jpg",
    "icongray": "https://steamcdn-a.akamaihd.net/steamcommunity/public/images/apps/244090/ad756f25b6f5f5c01b8de23ec92407d21bf7e4b6.jpg"
  },
  {
    "name": "ap2psaS100000JN",
    "defaultvalue": 0,
    "displayName": "100,000 Squadron points - Japanese Navy",
    "hidden": 0,
    "description": "Earn 100,000 points with a Japanese Navy squadron",
    "icon": "https://steamcdn-a.akamaihd.net/steamcommunity/public/images/apps/244090/12cdeec6dff92c3c84e11160fade9b6bc2143ee2.jpg",
    "icongray": "https://steamcdn-a.akamaihd.net/steamcommunity/public/images/apps/244090/a66eceea57279c20c637a6dd5bba964a79652c54.jpg"
  },
  {
    "name": "ap2psaS150000USA",
    "defaultvalue": 0,
    "displayName": "150,000 Squadron points - US Army",
    "hidden": 0,
    "description": "Earn 150,000 points with a US Army squadron",
    "icon": "https://steamcdn-a.akamaihd.net/steamcommunity/public/images/apps/244090/88a8d089d5b23b2a99b256bea074a33819ee4ae0.jpg",
    "icongray": "https://steamcdn-a.akamaihd.net/steamcommunity/public/images/apps/244090/936ce5859da2dad420a29928b67d2d304020f5bf.jpg"
  },
  {
    "name": "ap2psaS150000USN",
    "defaultvalue": 0,
    "displayName": "150,000 Squadron points - US Navy",
    "hidden": 0,
    "description": "Earn 150,000 points with a US Navy squadron",
    "icon": "https://steamcdn-a.akamaihd.net/steamcommunity/public/images/apps/244090/670a2e915157555e4c25e149bf5778d9d286922d.jpg",
    "icongray": "https://steamcdn-a.akamaihd.net/steamcommunity/public/images/apps/244090/79a8ba9474587daa86e99450256d93fa753963aa.jpg"
  },
  {
    "name": "ap2psaS150000JA",
    "defaultvalue": 0,
    "displayName": "150,000 Squadron points - Japanese Army",
    "hidden": 0,
    "description": "Earn 150,000 points with a Japanese Army squadron",
    "icon": "https://steamcdn-a.akamaihd.net/steamcommunity/public/images/apps/244090/9a5ec2b3e98a8e0239ca9c37cb661446529b9d2f.jpg",
    "icongray": "https://steamcdn-a.akamaihd.net/steamcommunity/public/images/apps/244090/a16aacd80caaeeb1b338b6ff22a796218c846340.jpg"
  },
  {
    "name": "ap2psaS150000JN",
    "defaultvalue": 0,
    "displayName": "150,000 Squadron points - Japanese Navy",
    "hidden": 0,
    "description": "Earn 150,000 points with a Japanese Navy squadron",
    "icon": "https://steamcdn-a.akamaihd.net/steamcommunity/public/images/apps/244090/cb4975b06a7d77857f437a6b7ef4fb0705c046bb.jpg",
    "icongray": "https://steamcdn-a.akamaihd.net/steamcommunity/public/images/apps/244090/455b99a52dad1ec1e1983a88452b67bdc66e2409.jpg"
  },
  {
    "name": "ap2psaM5000USA",
    "defaultvalue": 0,
    "displayName": "5,000 point mission - US Army",
    "hidden": 0,
    "description": "Achieve a 5,000 point mission with the US Army",
    "icon": "https://steamcdn-a.akamaihd.net/steamcommunity/public/images/apps/244090/a47be3eaf7b3d43e729120530c2bff625acebaf0.jpg",
    "icongray": "https://steamcdn-a.akamaihd.net/steamcommunity/public/images/apps/244090/ac1b50a180f219fbfc9766b08b94afa3d3c28f0f.jpg"
  },
  {
    "name": "ap2psaM5000JN",
    "defaultvalue": 0,
    "displayName": "5,000 point mission - Japanese Navy",
    "hidden": 0,
    "description": "Achieve a 5,000 point mission with the Japanese Navy",
    "icon": "https://steamcdn-a.akamaihd.net/steamcommunity/public/images/apps/244090/755970b2d71fab3662eda476b011073e2639b156.jpg",
    "icongray": "https://steamcdn-a.akamaihd.net/steamcommunity/public/images/apps/244090/1e4bf2a1a6b6c320851e01fb3e4db51e0f214b47.jpg"
  },
  {
    "name": "ap2psaM10000USA",
    "defaultvalue": 0,
    "displayName": "10,000 point mission - US Army",
    "hidden": 0,
    "description": "Achieve a 10,000 point mission with the US Army",
    "icon": "https://steamcdn-a.akamaihd.net/steamcommunity/public/images/apps/244090/60d7fb165c78f5533075e5266b64183f623e36f2.jpg",
    "icongray": "https://steamcdn-a.akamaihd.net/steamcommunity/public/images/apps/244090/53cdcec79e28e54272f469959e199a5dc26c12ba.jpg"
  },
  {
    "name": "ap2psaM10000USN",
    "defaultvalue": 0,
    "displayName": "10,000 point mission - US Navy",
    "hidden": 0,
    "description": "Achieve a 10,000 point mission with the US Navy",
    "icon": "https://steamcdn-a.akamaihd.net/steamcommunity/public/images/apps/244090/bc4997352aba3b2e3911866bed69f22e1cbab805.jpg",
    "icongray": "https://steamcdn-a.akamaihd.net/steamcommunity/public/images/apps/244090/af67160b06f069f9ed4cec43149288823a1980dc.jpg"
  },
  {
    "name": "ap2psaM10000JA",
    "defaultvalue": 0,
    "displayName": "10,000 point mission - Japanese Army",
    "hidden": 0,
    "description": "Achieve a 10,000 point mission with the Japanese Army",
    "icon": "https://steamcdn-a.akamaihd.net/steamcommunity/public/images/apps/244090/887b9d5a03377c92438bcf2446b0ed0d219dd839.jpg",
    "icongray": "https://steamcdn-a.akamaihd.net/steamcommunity/public/images/apps/244090/cbdca8cacdbcb31f0cd6ec93b78cf2c096938b72.jpg"
  },
  {
    "name": "ap2psaM10000JN",
    "defaultvalue": 0,
    "displayName": "10,000 point mission - Japanese Navy",
    "hidden": 0,
    "description": "Achieve a 10,000 point mission with the Japanese Navy",
    "icon": "https://steamcdn-a.akamaihd.net/steamcommunity/public/images/apps/244090/9ef7340885acf403a9a1c21b348312c1f9c7f0a8.jpg",
    "icongray": "https://steamcdn-a.akamaihd.net/steamcommunity/public/images/apps/244090/059c982ea9129702d0b1da96f04da375ea2a4602.jpg"
  },
  {
    "name": "ap2psaM15000USA",
    "defaultvalue": 0,
    "displayName": "15,000 point mission - US Army",
    "hidden": 0,
    "description": "Achieve a 15,000 point mission with the US Army",
    "icon": "https://steamcdn-a.akamaihd.net/steamcommunity/public/images/apps/244090/0f34886538889a949a43ffa1adea9dd69db23322.jpg",
    "icongray": "https://steamcdn-a.akamaihd.net/steamcommunity/public/images/apps/244090/4ed8bc24d9aa9cb18bca15b45b58d0e42de09529.jpg"
  },
  {
    "name": "ap2psaM15000USN",
    "defaultvalue": 0,
    "displayName": "15,000 point mission - US Navy",
    "hidden": 0,
    "description": "Achieve a 15,000 point mission with the US Navy",
    "icon": "https://steamcdn-a.akamaihd.net/steamcommunity/public/images/apps/244090/74c47a73e6b0dd409e2a39791fe2e8cf0fd8f555.jpg",
    "icongray": "https://steamcdn-a.akamaihd.net/steamcommunity/public/images/apps/244090/c46bf1e6d01dec7f0c7d12dc2e4059a2827fa766.jpg"
  },
  {
    "name": "ap2psaM15000JA",
    "defaultvalue": 0,
    "displayName": "15,000 point mission - Japanese Army",
    "hidden": 0,
    "description": "Achieve a 15,000 point mission with the Japanese Army",
    "icon": "https://steamcdn-a.akamaihd.net/steamcommunity/public/images/apps/244090/43b2b0fedb96e4a452ae10eb3c01d378ea81f63a.jpg",
    "icongray": "https://steamcdn-a.akamaihd.net/steamcommunity/public/images/apps/244090/11bb871e45812b612763709b537b53d037abb2fd.jpg"
  },
  {
    "name": "ap2psaM15000JN",
    "defaultvalue": 0,
    "displayName": "15,000 point mission - Japanese Navy",
    "hidden": 0,
    "description": "Achieve a 15,000 point mission with the Japanese Navy",
    "icon": "https://steamcdn-a.akamaihd.net/steamcommunity/public/images/apps/244090/0cb4b8c75ae5215715306edc35274f1ce8134e3f.jpg",
    "icongray": "https://steamcdn-a.akamaihd.net/steamcommunity/public/images/apps/244090/b36302db3255eccf522300a8cbe6b62ec1c3c99e.jpg"
  },
  {
    "name": "ap2psaACEUSA",
    "defaultvalue": 0,
    "displayName": "US Army Ace Pilot (5 Victories)",
    "hidden": 0,
    "description": "Earn 5 Victories with a US Army Pilot",
    "icon": "https://steamcdn-a.akamaihd.net/steamcommunity/public/images/apps/244090/bbe36a5a18aaa33571f88a37f21a604e3b4c0137.jpg",
    "icongray": "https://steamcdn-a.akamaihd.net/steamcommunity/public/images/apps/244090/d10c60da65687e9accedef09c390d1f33be3cf0c.jpg"
  },
  {
    "name": "ap2psaACEUSN",
    "defaultvalue": 0,
    "displayName": "US Navy Ace Pilot (5 Victories)",
    "hidden": 0,
    "description": "Earn 5 Victories with a US Navy Pilot",
    "icon": "https://steamcdn-a.akamaihd.net/steamcommunity/public/images/apps/244090/ddafee0cc18f17c2a1eb3677b589bf3650a4dc6b.jpg",
    "icongray": "https://steamcdn-a.akamaihd.net/steamcommunity/public/images/apps/244090/655e8a23e21c75b7aed254e44f86a390518751c5.jpg"
  },
  {
    "name": "ap2psaACEJA",
    "defaultvalue": 0,
    "displayName": "Japanese Army Ace Pilot (5 Victories)",
    "hidden": 0,
    "description": "Earn 5 Victories with a Japanese Army  Pilot",
    "icon": "https://steamcdn-a.akamaihd.net/steamcommunity/public/images/apps/244090/975ebb02b295bb5c0f402c2bb45d19323e99918c.jpg",
    "icongray": "https://steamcdn-a.akamaihd.net/steamcommunity/public/images/apps/244090/eea493d87cc45ab8c9c84265f4a509d27e8d0285.jpg"
  },
  {
    "name": "ap2psaACEJN",
    "defaultvalue": 0,
    "displayName": "Japanese Navy Ace Pilot (5 Victories)",
    "hidden": 0,
    "description": "Earn 5 Victories with a Japanese Navy Pilot",
    "icon": "https://steamcdn-a.akamaihd.net/steamcommunity/public/images/apps/244090/72903f0f232b97b77f6d453f8d44a2a488887e09.jpg",
    "icongray": "https://steamcdn-a.akamaihd.net/steamcommunity/public/images/apps/244090/fee10f84afc39db6d783294ee99513a815821f0c.jpg"
  },
  {
    "name": "ap2psaACE50USA",
    "defaultvalue": 0,
    "displayName": "Legendary US Army Pilot (50 Victories)",
    "hidden": 0,
    "description": "Earn 50 Victories with a US Army Pilot",
    "icon": "https://steamcdn-a.akamaihd.net/steamcommunity/public/images/apps/244090/89ccf42114de8b9e88c99d9918252edae278f3b9.jpg",
    "icongray": "https://steamcdn-a.akamaihd.net/steamcommunity/public/images/apps/244090/cc7bfa5c3fa3966d5fb7f3cdfbc663b79df1fce5.jpg"
  },
  {
    "name": "ap2psaACE50USN",
    "defaultvalue": 0,
    "displayName": "Legendary US Navy Pilot (50 Victories)",
    "hidden": 0,
    "description": "Earn 50 Victories with a US Navy Pilot",
    "icon": "https://steamcdn-a.akamaihd.net/steamcommunity/public/images/apps/244090/fea20b725a9119c4d2d1c7d4486b6c3868def331.jpg",
    "icongray": "https://steamcdn-a.akamaihd.net/steamcommunity/public/images/apps/244090/969d30bf0f4dad8d7f38dfe3446056486e2a15c0.jpg"
  },
  {
    "name": "ap2psaACE50JA",
    "defaultvalue": 0,
    "displayName": "Legendary Japanese Army Pilot (50 Victories)",
    "hidden": 0,
    "description": "Earn 50 Victories with a Japanese Army  Pilot",
    "icon": "https://steamcdn-a.akamaihd.net/steamcommunity/public/images/apps/244090/5feebcaa47b14fd0a5da778cdf7395fcff5437e3.jpg",
    "icongray": "https://steamcdn-a.akamaihd.net/steamcommunity/public/images/apps/244090/13403a2517b08a49a79d9ef7e156a1a48577fbd3.jpg"
  },
  {
    "name": "ap2psaACE50JN",
    "defaultvalue": 0,
    "displayName": "Legendary Japanese Navy Pilot (50 Victories)",
    "hidden": 0,
    "description": "Earn 50 Victories with a Japanese Navy Pilot",
    "icon": "https://steamcdn-a.akamaihd.net/steamcommunity/public/images/apps/244090/315b4f237fa66d3f06768acfe59570012cf27d8e.jpg",
    "icongray": "https://steamcdn-a.akamaihd.net/steamcommunity/public/images/apps/244090/798a9a44f915b93c93785dfb5db419e345534d07.jpg"
  },
  {
    "name": "ap2psaHATTRICK0",
    "defaultvalue": 0,
    "displayName": "Hat Trick - Rookie",
    "hidden": 0,
    "description": "Shoot down 3 planes with 1 pilot in 1 mission: Rookie",
    "icon": "https://steamcdn-a.akamaihd.net/steamcommunity/public/images/apps/244090/5b07975dae2c412b5bda77f8a19f3d18f052f205.jpg",
    "icongray": "https://steamcdn-a.akamaihd.net/steamcommunity/public/images/apps/244090/7ec80cb41edf1e4e59b88e94fd912f5b69483927.jpg"
  },
  {
    "name": "ap2psaHATTRICK1",
    "defaultvalue": 0,
    "displayName": "Hat Trick - Pilot",
    "hidden": 0,
    "description": "Shoot down 3 planes with 1 pilot in 1 mission: Pilot",
    "icon": "https://steamcdn-a.akamaihd.net/steamcommunity/public/images/apps/244090/cf4bcb4a231c1ee03b225d41dc4eb2315ba9aff7.jpg",
    "icongray": "https://steamcdn-a.akamaihd.net/steamcommunity/public/images/apps/244090/ec87b578c733a2f1a46f80cb444140f96379c8e1.jpg"
  },
  {
    "name": "ap2psaHATTRICK2",
    "defaultvalue": 0,
    "displayName": "Hat Trick - Ace",
    "hidden": 0,
    "description": "Shoot down 3 planes with 1 pilot in 1 mission: Ace",
    "icon": "https://steamcdn-a.akamaihd.net/steamcommunity/public/images/apps/244090/161cd7e24a44b32cab0d094566e9b802e630b3ba.jpg",
    "icongray": "https://steamcdn-a.akamaihd.net/steamcommunity/public/images/apps/244090/576358d350ae163b201232513b3d0c0d0fa949e5.jpg"
  },
  {
    "name": "ap2psaHATTRICK3",
    "defaultvalue": 0,
    "displayName": "Hat Trick - Leader",
    "hidden": 0,
    "description": "Shoot down 3 planes with 1 pilot in 1 mission: Leader",
    "icon": "https://steamcdn-a.akamaihd.net/steamcommunity/public/images/apps/244090/883ecbb2e346ba311e68a62fef0e0ad372b39853.jpg",
    "icongray": "https://steamcdn-a.akamaihd.net/steamcommunity/public/images/apps/244090/9ab1ab049c989f3f729359f95c8af1f823331b8f.jpg"
  },
  {
    "name": "ap2psaHATTRICK4",
    "defaultvalue": 0,
    "displayName": "Hat Trick - Legend",
    "hidden": 0,
    "description": "Shoot down 3 planes with 1 pilot in 1 mission: Legend",
    "icon": "https://steamcdn-a.akamaihd.net/steamcommunity/public/images/apps/244090/ce2bc3c48c97a61d0546ec35b5b1aab9a20bfd68.jpg",
    "icongray": "https://steamcdn-a.akamaihd.net/steamcommunity/public/images/apps/244090/358c05c43bd30047023a7f0f990d742da72647e6.jpg"
  },
  {
    "name": "ap2psaALLACES",
    "defaultvalue": 0,
    "displayName": "Four Aces",
    "hidden": 0,
    "description": "Create a Squadron with four aces",
    "icon": "https://steamcdn-a.akamaihd.net/steamcommunity/public/images/apps/244090/4be659f3a5f5dc28ee80381e91e9df12fb68fb4b.jpg",
    "icongray": "https://steamcdn-a.akamaihd.net/steamcommunity/public/images/apps/244090/249665d2050476e0da687ff7626148c118c42e0e.jpg"
  },
  {
    "name": "ap2psaM5000USN",
    "defaultvalue": 0,
    "displayName": "5,000 point mission - US Navy",
    "hidden": 0,
    "description": "Achieve a 5,000 point mission with the US Navy",
    "icon": "https://steamcdn-a.akamaihd.net/steamcommunity/public/images/apps/244090/0ceda30a76fa3707e63b8342fd6066738a93dfac.jpg",
    "icongray": "https://steamcdn-a.akamaihd.net/steamcommunity/public/images/apps/244090/fe66bb7b2cf0db0b0a6d7e6f521dd929b088b158.jpg"
  },
  {
    "name": "ap2psaM5000JA",
    "defaultvalue": 0,
    "displayName": "5,000 point mission - Japanese Army",
    "hidden": 0,
    "description": "Achieve a 5,000 point mission with the Japanese Navy",
    "icon": "https://steamcdn-a.akamaihd.net/steamcommunity/public/images/apps/244090/d092e7cf907713627fb268e638abb88a465ce966.jpg",
    "icongray": "https://steamcdn-a.akamaihd.net/steamcommunity/public/images/apps/244090/c8a47ad0e20c0966dff70d9488153306550d65b9.jpg"
  }
]