﻿{
  "Dlcs": {},
  "Name": "Spirit Realm",
  "AppId": "633320",
  "ImageUrl": "https://steamcdn-a.akamaihd.net/steam/apps/633320/header.jpg?t=1519962124",
  "Languages": [
    "english"
  ],
  "Platforms": {
    "windows": true,
    "mac": false,
    "linux": false
  }
}