﻿{
  "Dlcs": {},
  "Name": "Ghoul Kid",
  "AppId": "461750",
  "ImageUrl": "https://steamcdn-a.akamaihd.net/steam/apps/461750/header.jpg?t=1461698513",
  "Languages": [
    "english"
  ],
  "Platforms": {
    "windows": true,
    "mac": false,
    "linux": false
  }
}