﻿{
  "Dlcs": {
    "270940": {
      "Name": "Axis Game Factory's AGFPRO Zombie FPS Player DLC",
      "ImageUrl": "https://steamcdn-a.akamaihd.net/steam/apps/270940/header.jpg?t=1447359829"
    },
    "270941": {
      "Name": "Axis Game Factory's AGFPRO Fantasy Side-Scroller Player",
      "ImageUrl": "https://steamcdn-a.akamaihd.net/steam/apps/270941/header.jpg?t=1447359830"
    },
    "270942": {
      "Name": "Axis Game Factory's AGFPRO BattleMat Multi-Player DLC",
      "ImageUrl": "https://steamcdn-a.akamaihd.net/steam/apps/270942/header.jpg?t=1447359830"
    },
    "337120": {
      "Name": "Axis Game Factory's AGFPRO - Drone Kombat FPS Multiplayer",
      "ImageUrl": "https://steamcdn-a.akamaihd.net/steam/apps/337120/header.jpg?t=1447365770"
    },
    "352111": {
      "Name": "Axis Game Factory's AGFPRO - Voxel Sculpt DLC",
      "ImageUrl": "https://steamcdn-a.akamaihd.net/steam/apps/352111/header.jpg?t=1447369617"
    },
    "361210": {
      "Name": "Axis Game Factory's AGFPRO - Zombie Survival Pack DLC",
      "ImageUrl": "https://steamcdn-a.akamaihd.net/steam/apps/361210/header.jpg?t=1447372075"
    }
  },
  "Name": "Axis Game Factory's AGFPRO v3",
  "AppId": "253370",
  "ImageUrl": "https://steamcdn-a.akamaihd.net/steam/apps/253370/header.jpg?t=1578604957",
  "Languages": [
    "english",
    "french",
    "italian",
    "german",
    "spanish",
    "portuguese",
    "turkish",
    "greek",
    "russian",
    "schinese"
  ],
  "Platforms": {
    "windows": true,
    "mac": true,
    "linux": true
  }
}