﻿{
  "Dlcs": {},
  "Name": "Keebles",
  "AppId": "347040",
  "ImageUrl": "https://steamcdn-a.akamaihd.net/steam/apps/347040/header.jpg?t=1505825029",
  "Languages": [
    "english"
  ],
  "Platforms": {
    "windows": true,
    "mac": true,
    "linux": false
  }
}