﻿{
  "Dlcs": {},
  "Name": "Town of Night",
  "AppId": "546990",
  "ImageUrl": "https://steamcdn-a.akamaihd.net/steam/apps/546990/header.jpg?t=1479387047",
  "Languages": [
    "english"
  ],
  "Platforms": {
    "windows": true,
    "mac": false,
    "linux": false
  }
}