﻿{
  "Dlcs": {},
  "Name": "Unheard Screams - King Leopold II's Rule Over The Congo",
  "AppId": "365080",
  "ImageUrl": "https://steamcdn-a.akamaihd.net/steam/apps/365080/header.jpg?t=1447373038",
  "Languages": [
    "english"
  ],
  "Platforms": {
    "windows": true,
    "mac": false,
    "linux": false
  }
}