﻿{
  "Dlcs": {},
  "Name": "The Battle for Sector 219",
  "AppId": "455200",
  "ImageUrl": "https://steamcdn-a.akamaihd.net/steam/apps/455200/header.jpg?t=1464884968",
  "Languages": [
    "english"
  ],
  "Platforms": {
    "windows": true,
    "mac": true,
    "linux": false
  }
}