﻿{
  "Dlcs": {
    "762390": {
      "Name": "Perceptions of the Dead - Fan Pack",
      "ImageUrl": "https://steamcdn-a.akamaihd.net/steam/apps/762390/header.jpg?t=1513125903"
    }
  },
  "Name": "Perceptions of the Dead",
  "AppId": "745760",
  "ImageUrl": "https://steamcdn-a.akamaihd.net/steam/apps/745760/header.jpg?t=1572905484",
  "Languages": [
    "english"
  ],
  "Platforms": {
    "windows": true,
    "mac": false,
    "linux": true
  }
}