﻿[
  {
    "name": "Ten_Levels_Completed",
    "defaultvalue": 0,
    "displayName": "Ten Levels Completed",
    "hidden": 0,
    "description": "Ten levels completed achievement.",
    "icon": "https://steamcdn-a.akamaihd.net/steamcommunity/public/images/apps/805340/d9264e172761513a97ab8afbbc33b06cfd83b4e0.jpg",
    "icongray": "https://steamcdn-a.akamaihd.net/steamcommunity/public/images/apps/805340/d6fe6fecf12acb185ef7b832c29bbbaf7b0bb1bc.jpg"
  },
  {
    "name": "Thirty_Levels_Completed",
    "defaultvalue": 0,
    "displayName": "Thirty Levels Completed",
    "hidden": 0,
    "description": "Thirty levels completed achievement.",
    "icon": "https://steamcdn-a.akamaihd.net/steamcommunity/public/images/apps/805340/386c66e047849a08182619fd6d818b5924d362af.jpg",
    "icongray": "https://steamcdn-a.akamaihd.net/steamcommunity/public/images/apps/805340/c92907626a63f630f002bd73aab75a466ab66ed1.jpg"
  },
  {
    "name": "Fifty_Levels_Completed",
    "defaultvalue": 0,
    "displayName": "Fifty Levels Completed",
    "hidden": 0,
    "description": "Fifty levels completed achievement.",
    "icon": "https://steamcdn-a.akamaihd.net/steamcommunity/public/images/apps/805340/268a36176cf366eb583bffc020eb12c6eafd1af9.jpg",
    "icongray": "https://steamcdn-a.akamaihd.net/steamcommunity/public/images/apps/805340/ffde41acec548d10d8461e1776bb6b454348680f.jpg"
  },
  {
    "name": "Seventy_Levels_Completed",
    "defaultvalue": 0,
    "displayName": "Seventy Levels Completed",
    "hidden": 0,
    "description": "Seventy levels completed achievement.",
    "icon": "https://steamcdn-a.akamaihd.net/steamcommunity/public/images/apps/805340/013ed8ccc37047e04c5f52dfff8c5a805c73b745.jpg",
    "icongray": "https://steamcdn-a.akamaihd.net/steamcommunity/public/images/apps/805340/e7e685a98e99731eb9705df209a6a50d91a03a69.jpg"
  },
  {
    "name": "Twenty_Levels_Completed",
    "defaultvalue": 0,
    "displayName": "Twenty Levels Completed",
    "hidden": 0,
    "description": "Twenty levels completed achievement.",
    "icon": "https://steamcdn-a.akamaihd.net/steamcommunity/public/images/apps/805340/31a50c9e24b0eb8e6137b1436646f25fd4346fc8.jpg",
    "icongray": "https://steamcdn-a.akamaihd.net/steamcommunity/public/images/apps/805340/0bf35a75c7d8bb64664ae446b8ed888454abe44c.jpg"
  }
]