﻿{
  "Dlcs": {},
  "Name": "Another Perspective",
  "AppId": "305920",
  "ImageUrl": "https://steamcdn-a.akamaihd.net/steam/apps/305920/header.jpg?t=1559587042",
  "Languages": [
    "english",
    "italian",
    "spanish"
  ],
  "Platforms": {
    "windows": true,
    "mac": false,
    "linux": false
  }
}