﻿{
  "Dlcs": {
    "778890": {
      "Name": "Above: The Fallen OST",
      "ImageUrl": "https://steamcdn-a.akamaihd.net/steam/apps/778890/header.jpg?t=1519758665"
    }
  },
  "Name": "Above: The Fallen",
  "AppId": "715490",
  "ImageUrl": "https://steamcdn-a.akamaihd.net/steam/apps/715490/header.jpg?t=1577205738",
  "Languages": [
    "english"
  ],
  "Platforms": {
    "windows": true,
    "mac": false,
    "linux": false
  }
}