﻿[
  {
    "name": "ACH_LeroyJenkins",
    "defaultvalue": 0,
    "displayName": "Leeeeroy Jeeeenkins!",
    "hidden": 0,
    "description": "Kill 10 human characters within a minute",
    "icon": "https://steamcdn-a.akamaihd.net/steamcommunity/public/images/apps/264540/13ff1076edb5e10df1edd30c2ec205502a96479e.jpg",
    "icongray": "https://steamcdn-a.akamaihd.net/steamcommunity/public/images/apps/264540/63ed6c5491277d923ffb3b7aff79714595c14163.jpg"
  },
  {
    "name": "ACH_GetRich1000000",
    "defaultvalue": 0,
    "displayName": "Million dollar man",
    "hidden": 0,
    "description": "Accumulate 1.000.000$",
    "icon": "https://steamcdn-a.akamaihd.net/steamcommunity/public/images/apps/264540/a46398923b7942d35116eef6aadb69794328b12c.jpg",
    "icongray": "https://steamcdn-a.akamaihd.net/steamcommunity/public/images/apps/264540/67860c5b438fc43a3c80b4374a09b0cd03c39d59.jpg"
  },
  {
    "name": "ACH_GetRichMetal250000",
    "defaultvalue": 0,
    "displayName": "Salvager",
    "hidden": 0,
    "description": "Accumulate 250.000$ selling metals",
    "icon": "https://steamcdn-a.akamaihd.net/steamcommunity/public/images/apps/264540/f26a69b1b7d5fb2b5be098fac1bda48bd2033e4e.jpg",
    "icongray": "https://steamcdn-a.akamaihd.net/steamcommunity/public/images/apps/264540/10e256115411e614fb91b4404a8e17098d450ee1.jpg"
  },
  {
    "name": "ACH_GetRichGem500000",
    "defaultvalue": 0,
    "displayName": "Jeweler",
    "hidden": 0,
    "description": "Accumulate 500.000$ selling gems",
    "icon": "https://steamcdn-a.akamaihd.net/steamcommunity/public/images/apps/264540/dbfe8dbbabda1af712094886963a4443404f1c5b.jpg",
    "icongray": "https://steamcdn-a.akamaihd.net/steamcommunity/public/images/apps/264540/6a97c97d8001e26bdebfe712f3dbeaafbac113fd.jpg"
  },
  {
    "name": "ACH_GetRichWeapon250000",
    "defaultvalue": 0,
    "displayName": "Arms dealer",
    "hidden": 0,
    "description": "Accumulate 250.000$ selling weapons",
    "icon": "https://steamcdn-a.akamaihd.net/steamcommunity/public/images/apps/264540/d328e25477460a1fba70b5c0fe17f2210589dcae.jpg",
    "icongray": "https://steamcdn-a.akamaihd.net/steamcommunity/public/images/apps/264540/bd7d69017623f3e287571c54fc4715b607e053c1.jpg"
  },
  {
    "name": "ACH_Kill2000Enemies",
    "defaultvalue": 0,
    "displayName": "Born killer",
    "hidden": 0,
    "description": "Kill 2000 enemies",
    "icon": "https://steamcdn-a.akamaihd.net/steamcommunity/public/images/apps/264540/395d4edffe0637e252f6f63b6c8c680131775407.jpg",
    "icongray": "https://steamcdn-a.akamaihd.net/steamcommunity/public/images/apps/264540/9eb2c13cd96cb61770463085699d05c50236c71e.jpg"
  },
  {
    "name": "ACH_Kill500EnemiesPistol",
    "defaultvalue": 0,
    "displayName": "Pistolero",
    "hidden": 0,
    "description": "Kill 500 enemies with the Pistol",
    "icon": "https://steamcdn-a.akamaihd.net/steamcommunity/public/images/apps/264540/f6f6b598fb89c7ca1263a931c9acd8d147d2dad7.jpg",
    "icongray": "https://steamcdn-a.akamaihd.net/steamcommunity/public/images/apps/264540/5fb519474a190b9563e57d40a8f33f563dd40123.jpg"
  },
  {
    "name": "ACH_Kill500EnemiesShotgun",
    "defaultvalue": 0,
    "displayName": "Shotgun Master",
    "hidden": 0,
    "description": "Kill 500 enemies with the Shotgun",
    "icon": "https://steamcdn-a.akamaihd.net/steamcommunity/public/images/apps/264540/5e3fad4d4d956ed2f910dbaa25166033912200bd.jpg",
    "icongray": "https://steamcdn-a.akamaihd.net/steamcommunity/public/images/apps/264540/dd4247fe9289cf3f06d412ea2cc3e55a68b487df.jpg"
  },
  {
    "name": "ACH_Kill500EnemiesMachinegun",
    "defaultvalue": 0,
    "displayName": "Al Capone",
    "hidden": 0,
    "description": "Kill 500 enemies with the Machinegun",
    "icon": "https://steamcdn-a.akamaihd.net/steamcommunity/public/images/apps/264540/f04df78417f4ad53565e6a8c3e7e612648409aae.jpg",
    "icongray": "https://steamcdn-a.akamaihd.net/steamcommunity/public/images/apps/264540/2703b59542e6124b22621da0bbd8ac6bb6e789f7.jpg"
  },
  {
    "name": "ACH_Kill500EnemiesBazooka",
    "defaultvalue": 0,
    "displayName": "Soldier",
    "hidden": 0,
    "description": "Kill 500 enemies with the Bazooka",
    "icon": "https://steamcdn-a.akamaihd.net/steamcommunity/public/images/apps/264540/04e3b8a1179b55a3c2c225bba4068c133dd443fa.jpg",
    "icongray": "https://steamcdn-a.akamaihd.net/steamcommunity/public/images/apps/264540/1cd6ebf2525da7e7bb97ec1da9fcdd07122c9f5e.jpg"
  },
  {
    "name": "ACH_Everywhere",
    "defaultvalue": 0,
    "displayName": "You're everywhere",
    "hidden": 0,
    "description": "Activate 300 portals",
    "icon": "https://steamcdn-a.akamaihd.net/steamcommunity/public/images/apps/264540/31b00919ceea2f883e7c43f559bb79550da4b8f7.jpg",
    "icongray": "https://steamcdn-a.akamaihd.net/steamcommunity/public/images/apps/264540/2d6f034b089d3eb41219a11277a4723f65c85f7d.jpg"
  },
  {
    "name": "ACH_CreeperHat",
    "defaultvalue": 0,
    "displayName": "Platformines craft",
    "hidden": 0,
    "description": "Equip the Creeper hat",
    "icon": "https://steamcdn-a.akamaihd.net/steamcommunity/public/images/apps/264540/31633e043f5d80649260284d40f8a8d0f051d729.jpg",
    "icongray": "https://steamcdn-a.akamaihd.net/steamcommunity/public/images/apps/264540/b0f57423b594589f2f91a127e3715d4dd6067493.jpg"
  },
  {
    "name": "ACH_LuckyExplorer",
    "defaultvalue": 0,
    "displayName": "Diamond",
    "hidden": 0,
    "description": "Find a diamond in the mines",
    "icon": "https://steamcdn-a.akamaihd.net/steamcommunity/public/images/apps/264540/8dd1e9e3e21b9b3be9da39ff93bb97e5340539c6.jpg",
    "icongray": "https://steamcdn-a.akamaihd.net/steamcommunity/public/images/apps/264540/74f4e2f047c9c4f01ae75a058fb5ad4ddffd83e2.jpg"
  },
  {
    "name": "ACH_Sniper",
    "defaultvalue": 0,
    "displayName": "Sniper",
    "hidden": 0,
    "description": "Hit human character 20 times with bullets without taking any damage",
    "icon": "https://steamcdn-a.akamaihd.net/steamcommunity/public/images/apps/264540/e43ce859940bfdb2111e5d5738f7bf1ec3b3c158.jpg",
    "icongray": "https://steamcdn-a.akamaihd.net/steamcommunity/public/images/apps/264540/6eb4107ff392255a29eb50f2283fe3d655f37387.jpg"
  },
  {
    "name": "ACH_EyeOfTheTiger",
    "defaultvalue": 0,
    "displayName": "Eye of the tiger",
    "hidden": 0,
    "description": "Hit beholders (flying eyes) 20 times in a row without losing any bullet",
    "icon": "https://steamcdn-a.akamaihd.net/steamcommunity/public/images/apps/264540/a3b1eb3e6b986a4aad61ae9d2572a719e8fd8ee9.jpg",
    "icongray": "https://steamcdn-a.akamaihd.net/steamcommunity/public/images/apps/264540/0ad75b9225f58adaba301b5bdbd408fd3a6c9e57.jpg"
  },
  {
    "name": "ACH_TreasureHunter",
    "defaultvalue": 0,
    "displayName": "Treasure hunter",
    "hidden": 0,
    "description": "Open all the big red chests",
    "icon": "https://steamcdn-a.akamaihd.net/steamcommunity/public/images/apps/264540/eb837957ef3b11b32d8a410225b5c1fbc92365c7.jpg",
    "icongray": "https://steamcdn-a.akamaihd.net/steamcommunity/public/images/apps/264540/70800f868566d9b23a2a03128fe82fc3a7e2b362.jpg"
  },
  {
    "name": "ACH_High",
    "defaultvalue": 0,
    "displayName": "Well, that was high",
    "hidden": 0,
    "description": "Fall to your death",
    "icon": "https://steamcdn-a.akamaihd.net/steamcommunity/public/images/apps/264540/a3f4f07c6d2cb5bd0b6910bd476934a532e5ea0a.jpg",
    "icongray": "https://steamcdn-a.akamaihd.net/steamcommunity/public/images/apps/264540/ffcbbfe4e9445e2d7e4033b4e1bee20ca3ca9f8d.jpg"
  },
  {
    "name": "ACH_EndNormal",
    "defaultvalue": 0,
    "displayName": "Winner",
    "hidden": 0,
    "description": "Finish the game in Normal mode",
    "icon": "https://steamcdn-a.akamaihd.net/steamcommunity/public/images/apps/264540/920571f4aad128b6be6663989db61b4d5683f00d.jpg",
    "icongray": "https://steamcdn-a.akamaihd.net/steamcommunity/public/images/apps/264540/1a0ee9e0e3d7dc5c38a90762f3c45764c9a958e7.jpg"
  },
  {
    "name": "ACH_EndHardcore",
    "defaultvalue": 0,
    "displayName": "Hardcore Winner",
    "hidden": 0,
    "description": "Finish the game in Hardcore mode",
    "icon": "https://steamcdn-a.akamaihd.net/steamcommunity/public/images/apps/264540/3c5d9a1275254bbed742d7952799f6e1d7b4aa9d.jpg",
    "icongray": "https://steamcdn-a.akamaihd.net/steamcommunity/public/images/apps/264540/3419d6f274daede424220f07c692219402511ca0.jpg"
  },
  {
    "name": "ACH_EndIronman",
    "defaultvalue": 0,
    "displayName": "Alien",
    "hidden": 0,
    "description": "Finish the game in Ironman mode",
    "icon": "https://steamcdn-a.akamaihd.net/steamcommunity/public/images/apps/264540/4f9b7593de00645762cf71d54b279f8883396558.jpg",
    "icongray": "https://steamcdn-a.akamaihd.net/steamcommunity/public/images/apps/264540/89b6ed80050753b0fcbc1669e666ebabf7c46323.jpg"
  }
]