﻿{
  "Dlcs": {},
  "Name": "Lucid",
  "AppId": "61100",
  "ImageUrl": "https://steamcdn-a.akamaihd.net/steam/apps/61100/header.jpg?t=1447354413",
  "Languages": [
    "english"
  ],
  "Platforms": {
    "windows": true,
    "mac": false,
    "linux": false
  }
}