﻿[
  {
    "name": "com_basic",
    "defaultvalue": 0,
    "displayName": "Completed Basic"
  },
  {
    "name": "com_gattai3",
    "defaultvalue": 0,
    "displayName": "Completed Gattai-3"
  },
  {
    "name": "com_gattai3_diag",
    "defaultvalue": 0,
    "displayName": "Completed Gattai-3 Diagonal"
  },
  {
    "name": "com_gattai3_anti_diag",
    "defaultvalue": 0,
    "displayName": "Completed Gattai-3 Anti Diagonal"
  },
  {
    "name": "com_samurai",
    "defaultvalue": 0,
    "displayName": "Completed Samurai"
  },
  {
    "name": "com_samurai_jig",
    "defaultvalue": 0,
    "displayName": "Completed Samurai Jigsaw"
  },
  {
    "name": "com_samurai_diag",
    "defaultvalue": 0,
    "displayName": "Completed Samurai Diagonal"
  },
  {
    "name": "com_samurai_anti_diag",
    "defaultvalue": 0,
    "displayName": "Completed Samurai Anti Diagonal"
  },
  {
    "name": "com_butterfly",
    "defaultvalue": 0,
    "displayName": "Completed Butterfly"
  },
  {
    "name": "com_cross",
    "defaultvalue": 0,
    "displayName": "Completed Cross"
  },
  {
    "name": "com_flower",
    "defaultvalue": 0,
    "displayName": "Completed Flower"
  },
  {
    "name": "com_sohei",
    "defaultvalue": 0,
    "displayName": "Completed Sohei"
  },
  {
    "name": "com_hyper",
    "defaultvalue": 0,
    "displayName": "Completed Hyper"
  },
  {
    "name": "com_evenodd",
    "defaultvalue": 0,
    "displayName": "Completed Even Odd"
  },
  {
    "name": "com_parquet",
    "defaultvalue": 0,
    "displayName": "Completed Parquet"
  },
  {
    "name": "com_tightfit_6",
    "defaultvalue": 0,
    "displayName": "Completed Tight-Fit 6"
  },
  {
    "name": "com_tightfit_8",
    "defaultvalue": 0,
    "displayName": "Completed Tight-Fit 8"
  },
  {
    "name": "com_tightfit_9",
    "defaultvalue": 0,
    "displayName": "Completed Tight-Fit 9"
  },
  {
    "name": "com_star",
    "defaultvalue": 0,
    "displayName": "Completed Star Sudoku"
  },
  {
    "name": "com_tridoku",
    "defaultvalue": 0,
    "displayName": "Completed Tridoku"
  }
]