﻿{
  "Dlcs": {
    "200590": {
      "Name": "Sonic Generations - Casino Night DLC",
      "ImageUrl": "https://steamcdn-a.akamaihd.net/steam/apps/200590/header.jpg?t=1576067663"
    }
  },
  "Name": "Sonic Generations Collection",
  "AppId": "71340",
  "ImageUrl": "https://steamcdn-a.akamaihd.net/steam/apps/71340/header.jpg?t=1588110759",
  "Languages": [
    "english",
    "french",
    "german",
    "italian",
    "spanish"
  ],
  "Platforms": {
    "windows": true,
    "mac": false,
    "linux": false
  }
}