﻿[
  {
    "name": "FTM2_ACHIEVEMENT_1",
    "defaultvalue": 0,
    "displayName": "Fast as a bean!",
    "hidden": 0,
    "description": "Finish any Minigame in less than 1 minute.",
    "icon": "https://steamcdn-a.akamaihd.net/steamcommunity/public/images/apps/403510/4edc20d8cb811834b27ae69b684c465eb59ad33a.jpg",
    "icongray": "https://steamcdn-a.akamaihd.net/steamcommunity/public/images/apps/403510/1b5a6570eae3c6052fef5b3e92441b3aafbb5bab.jpg"
  },
  {
    "name": "FTM2_ACHIEVEMENT_2",
    "defaultvalue": 0,
    "displayName": "Skilled searcher",
    "hidden": 0,
    "description": "Finish 5 Hidden Object Scenes in a row without using hints.",
    "icon": "https://steamcdn-a.akamaihd.net/steamcommunity/public/images/apps/403510/b24cb64b64f86af20bc3b925b59151fae540b225.jpg",
    "icongray": "https://steamcdn-a.akamaihd.net/steamcommunity/public/images/apps/403510/bab68d1a269f508f3acbf6840ee4da6991583173.jpg"
  },
  {
    "name": "FTM2_ACHIEVEMENT_3",
    "defaultvalue": 0,
    "displayName": "Master searcher",
    "hidden": 0,
    "description": "Finish all Hidden Object Scenes without using hints.",
    "icon": "https://steamcdn-a.akamaihd.net/steamcommunity/public/images/apps/403510/2e29090060fcb554f5fea1e7225cd9490405979e.jpg",
    "icongray": "https://steamcdn-a.akamaihd.net/steamcommunity/public/images/apps/403510/8b36a8fe9299d210e871a4dedd47f7c7ba8b0adf.jpg"
  },
  {
    "name": "FTM2_ACHIEVEMENT_4",
    "defaultvalue": 0,
    "displayName": "Flawless aim",
    "hidden": 0,
    "description": "Finish any Hidden Object Scene with less than 4 mistakes.",
    "icon": "https://steamcdn-a.akamaihd.net/steamcommunity/public/images/apps/403510/337574784553be250d121a527584b84e63ec7898.jpg",
    "icongray": "https://steamcdn-a.akamaihd.net/steamcommunity/public/images/apps/403510/79c119705164b68f74842075fdf910740314b885.jpg"
  },
  {
    "name": "FTM2_ACHIEVEMENT_5",
    "defaultvalue": 0,
    "displayName": "Instant finding",
    "hidden": 0,
    "description": "Find 3 Hidden Objects within 3 seconds.",
    "icon": "https://steamcdn-a.akamaihd.net/steamcommunity/public/images/apps/403510/2d323e4c7536e86e9893cb0d244f2f586421fe47.jpg",
    "icongray": "https://steamcdn-a.akamaihd.net/steamcommunity/public/images/apps/403510/5cf78caea85600c2391b8aa4f9656490d37bf2e5.jpg"
  },
  {
    "name": "FTM2_ACHIEVEMENT_6",
    "defaultvalue": 0,
    "displayName": "Guardian–eyed",
    "hidden": 0,
    "description": "Finish any Hidden Object Scene in less than 1 minute.",
    "icon": "https://steamcdn-a.akamaihd.net/steamcommunity/public/images/apps/403510/7d4c6d2830c46c2e9c6a9b23e8440379e66a9cad.jpg",
    "icongray": "https://steamcdn-a.akamaihd.net/steamcommunity/public/images/apps/403510/006e61182cf84a3c78067c03f3e0d1eb20da34b3.jpg"
  },
  {
    "name": "FTM2_ACHIEVEMENT_7",
    "defaultvalue": 0,
    "displayName": "Grimm–wise mind",
    "hidden": 0,
    "description": "Finish 4 Minigames in a row without skipping.",
    "icon": "https://steamcdn-a.akamaihd.net/steamcommunity/public/images/apps/403510/3d1808907c634b8179e9aa43be174c15489a82c4.jpg",
    "icongray": "https://steamcdn-a.akamaihd.net/steamcommunity/public/images/apps/403510/ea6843e57a07cf417d402d28f4c5d9e5d7069165.jpg"
  },
  {
    "name": "FTM2_ACHIEVEMENT_8",
    "defaultvalue": 0,
    "displayName": "Puzzle expert",
    "hidden": 0,
    "description": "Finish all Minigames without skipping.",
    "icon": "https://steamcdn-a.akamaihd.net/steamcommunity/public/images/apps/403510/c2af2af0adfc61b926c2b6ad332bb65e19237da4.jpg",
    "icongray": "https://steamcdn-a.akamaihd.net/steamcommunity/public/images/apps/403510/e5255313f66f5c79207a69596b7dede22baa32b3.jpg"
  },
  {
    "name": "FTM2_ACHIEVEMENT_9",
    "defaultvalue": 0,
    "displayName": "Finish the game",
    "hidden": 0,
    "description": "Complete the Main Game.",
    "icon": "https://steamcdn-a.akamaihd.net/steamcommunity/public/images/apps/403510/a3253f429eef187f28e4d2bf02be35af8087605a.jpg",
    "icongray": "https://steamcdn-a.akamaihd.net/steamcommunity/public/images/apps/403510/a97e1e10b97cede06c935fc10f80010a13578215.jpg"
  },
  {
    "name": "FTM2_ACHIEVEMENT_10",
    "defaultvalue": 0,
    "displayName": "The whole story",
    "hidden": 0,
    "description": "Finish the Bonus Adventure.",
    "icon": "https://steamcdn-a.akamaihd.net/steamcommunity/public/images/apps/403510/e8ad18f102951d387efcde674a040a3080788adc.jpg",
    "icongray": "https://steamcdn-a.akamaihd.net/steamcommunity/public/images/apps/403510/29e25089f005db5b46b2de6f1e1386a5504611b5.jpg"
  },
  {
    "name": "FTM2_ACHIEVEMENT_11",
    "defaultvalue": 0,
    "displayName": "One of a kind",
    "hidden": 0,
    "description": "Unlock all the Achievements.",
    "icon": "https://steamcdn-a.akamaihd.net/steamcommunity/public/images/apps/403510/ce652c4cf23a7055ef75ee6a1be43eea93e2e4ab.jpg",
    "icongray": "https://steamcdn-a.akamaihd.net/steamcommunity/public/images/apps/403510/9d6f12274280da28cb4c53406e062c089d7938fb.jpg"
  }
]