﻿[
  {
    "name": "tinboy",
    "defaultvalue": 0,
    "displayName": "Tinboy",
    "hidden": 0,
    "description": "Complete all achievements",
    "icon": "https://steamcdn-a.akamaihd.net/steamcommunity/public/images/apps/399430/ed66ce5073648de9a5a593a306c631217c800608.jpg",
    "icongray": "https://steamcdn-a.akamaihd.net/steamcommunity/public/images/apps/399430/9d13e8b156f9bf6de33a8f417f4281f0565392fc.jpg"
  },
  {
    "name": "chip30",
    "defaultvalue": 0,
    "displayName": "Chip finder",
    "hidden": 0,
    "description": "Collected 30 Chips",
    "icon": "https://steamcdn-a.akamaihd.net/steamcommunity/public/images/apps/399430/ae2098d3aa8d3378485374898c66bf297864017a.jpg",
    "icongray": "https://steamcdn-a.akamaihd.net/steamcommunity/public/images/apps/399430/9d13e8b156f9bf6de33a8f417f4281f0565392fc.jpg"
  },
  {
    "name": "chip60",
    "defaultvalue": 0,
    "displayName": "Chip collector",
    "hidden": 0,
    "description": "Collected 60 Chips",
    "icon": "https://steamcdn-a.akamaihd.net/steamcommunity/public/images/apps/399430/a7310222842813c719869e27d3909612063c9af0.jpg",
    "icongray": "https://steamcdn-a.akamaihd.net/steamcommunity/public/images/apps/399430/9d13e8b156f9bf6de33a8f417f4281f0565392fc.jpg"
  },
  {
    "name": "chip120",
    "defaultvalue": 0,
    "displayName": "Chip horder",
    "hidden": 0,
    "description": "Collected 120 Chips",
    "icon": "https://steamcdn-a.akamaihd.net/steamcommunity/public/images/apps/399430/9578a706504fc7db817fefa6603e3d2d82a093c2.jpg",
    "icongray": "https://steamcdn-a.akamaihd.net/steamcommunity/public/images/apps/399430/9d13e8b156f9bf6de33a8f417f4281f0565392fc.jpg"
  },
  {
    "name": "chip150",
    "defaultvalue": 0,
    "displayName": "Chip obsessed/fixated",
    "hidden": 0,
    "description": "Collected 150 Chips",
    "icon": "https://steamcdn-a.akamaihd.net/steamcommunity/public/images/apps/399430/9cb5916240bf910ef8ea1513983445e4b776429f.jpg",
    "icongray": "https://steamcdn-a.akamaihd.net/steamcommunity/public/images/apps/399430/9d13e8b156f9bf6de33a8f417f4281f0565392fc.jpg"
  },
  {
    "name": "chip180",
    "defaultvalue": 0,
    "displayName": "Chip master",
    "hidden": 0,
    "description": "Collected 180 Chips",
    "icon": "https://steamcdn-a.akamaihd.net/steamcommunity/public/images/apps/399430/801907a924c6ec91998303c8c5348ea167a7f26e.jpg",
    "icongray": "https://steamcdn-a.akamaihd.net/steamcommunity/public/images/apps/399430/9d13e8b156f9bf6de33a8f417f4281f0565392fc.jpg"
  },
  {
    "name": "training",
    "defaultvalue": 0,
    "displayName": "Ready for Testing/QA",
    "hidden": 0,
    "description": "Finished tutorial levels",
    "icon": "https://steamcdn-a.akamaihd.net/steamcommunity/public/images/apps/399430/2607e3145fa358bf110e1401f790c447b8e83dea.jpg",
    "icongray": "https://steamcdn-a.akamaihd.net/steamcommunity/public/images/apps/399430/9d13e8b156f9bf6de33a8f417f4281f0565392fc.jpg"
  },
  {
    "name": "level60",
    "defaultvalue": 0,
    "displayName": "QA Approved",
    "hidden": 0,
    "description": "Finished all levels",
    "icon": "https://steamcdn-a.akamaihd.net/steamcommunity/public/images/apps/399430/9245df9d9885f4a72c87ab868c763c59e6b17dfd.jpg",
    "icongray": "https://steamcdn-a.akamaihd.net/steamcommunity/public/images/apps/399430/9d13e8b156f9bf6de33a8f417f4281f0565392fc.jpg"
  },
  {
    "name": "lamp1",
    "defaultvalue": 0,
    "displayName": "I broke it",
    "hidden": 0,
    "description": "Broke 1 lamp",
    "icon": "https://steamcdn-a.akamaihd.net/steamcommunity/public/images/apps/399430/61ab0f2e534ac93cf29fe694d2d0f66d934dcb30.jpg",
    "icongray": "https://steamcdn-a.akamaihd.net/steamcommunity/public/images/apps/399430/9d13e8b156f9bf6de33a8f417f4281f0565392fc.jpg"
  },
  {
    "name": "lamp10",
    "defaultvalue": 0,
    "displayName": "I can see in the dark",
    "hidden": 0,
    "description": "Broke 10 lamps",
    "icon": "https://steamcdn-a.akamaihd.net/steamcommunity/public/images/apps/399430/30d427fa61add26827a735ac29644a62abf2d6ed.jpg",
    "icongray": "https://steamcdn-a.akamaihd.net/steamcommunity/public/images/apps/399430/9d13e8b156f9bf6de33a8f417f4281f0565392fc.jpg"
  },
  {
    "name": "replay",
    "defaultvalue": 0,
    "displayName": "Perseverance",
    "hidden": 0,
    "description": "Replayed one level for more then 5 times",
    "icon": "https://steamcdn-a.akamaihd.net/steamcommunity/public/images/apps/399430/99ac822dc6b72445b10519213c7494a70fd55501.jpg",
    "icongray": "https://steamcdn-a.akamaihd.net/steamcommunity/public/images/apps/399430/9d13e8b156f9bf6de33a8f417f4281f0565392fc.jpg"
  },
  {
    "name": "electrocuted",
    "defaultvalue": 0,
    "displayName": "Overcharged",
    "hidden": 0,
    "description": "Got Electrocuted",
    "icon": "https://steamcdn-a.akamaihd.net/steamcommunity/public/images/apps/399430/bbdbacaa9a1619981793c1314c12bfe922dc7b98.jpg",
    "icongray": "https://steamcdn-a.akamaihd.net/steamcommunity/public/images/apps/399430/9d13e8b156f9bf6de33a8f417f4281f0565392fc.jpg"
  },
  {
    "name": "chip90",
    "defaultvalue": 0,
    "displayName": "Chip hunter",
    "hidden": 0,
    "description": "Collected 90 Chips",
    "icon": "https://steamcdn-a.akamaihd.net/steamcommunity/public/images/apps/399430/b80ccf5f786f5c8e552b8133a7ee29d120e763f2.jpg",
    "icongray": "https://steamcdn-a.akamaihd.net/steamcommunity/public/images/apps/399430/9d13e8b156f9bf6de33a8f417f4281f0565392fc.jpg"
  }
]