﻿{
  "Dlcs": {},
  "Name": "The Ball",
  "AppId": "35460",
  "ImageUrl": "https://steamcdn-a.akamaihd.net/steam/apps/35460/header.jpg?t=1561484917",
  "Languages": [
    "english",
    "danish",
    "dutch",
    "french",
    "german",
    "italian",
    "spanish",
    "swedish",
    "russian"
  ],
  "Platforms": {
    "windows": true,
    "mac": false,
    "linux": false
  }
}