﻿{
  "Dlcs": {},
  "Name": "Geneforge 3",
  "AppId": "200990",
  "ImageUrl": "https://steamcdn-a.akamaihd.net/steam/apps/200990/header.jpg?t=1564011999",
  "Languages": [
    "english"
  ],
  "Platforms": {
    "windows": true,
    "mac": false,
    "linux": false
  }
}