﻿{
  "Dlcs": {},
  "Name": "Lucius",
  "AppId": "218640",
  "ImageUrl": "https://steamcdn-a.akamaihd.net/steam/apps/218640/header.jpg?t=1567622050",
  "Languages": [
    "english",
    "german",
    "russian",
    "italian",
    "spanish",
    "polish",
    "hungarian",
    "schinese",
    "french"
  ],
  "Platforms": {
    "windows": true,
    "mac": false,
    "linux": false
  }
}