﻿[
  {
    "name": "ACH_KILL_1",
    "defaultvalue": 0,
    "displayName": "First blood",
    "hidden": 0,
    "description": "Kill Mary.",
    "icon": "https://steamcdn-a.akamaihd.net/steamcommunity/public/images/apps/218640/01bb6457ad1df96867f824c32f9b95cfb6d8b92b.jpg",
    "icongray": "https://steamcdn-a.akamaihd.net/steamcommunity/public/images/apps/218640/00b292f939f67cbd72437bb5b8f9789fc1485156.jpg"
  },
  {
    "name": "ACH_KILL_2",
    "defaultvalue": 0,
    "displayName": "Double murder",
    "hidden": 0,
    "description": "Kill Gene.",
    "icon": "https://steamcdn-a.akamaihd.net/steamcommunity/public/images/apps/218640/e5f4051f343edb96fbe51fca7f03b4ce7000c17f.jpg",
    "icongray": "https://steamcdn-a.akamaihd.net/steamcommunity/public/images/apps/218640/9c61dc95fde812b5ed2a2a0b3042143a0bc9c9a6.jpg"
  },
  {
    "name": "ACH_KILL_3",
    "defaultvalue": 0,
    "displayName": "Getting the hang of it ",
    "hidden": 0,
    "description": "Kill 3 persons.",
    "icon": "https://steamcdn-a.akamaihd.net/steamcommunity/public/images/apps/218640/329c9aa8264a9ee532f0cb28e58ed646ab6fd951.jpg",
    "icongray": "https://steamcdn-a.akamaihd.net/steamcommunity/public/images/apps/218640/9c311442f2217a4c0b0b826049b85ce1a4b93441.jpg"
  },
  {
    "name": "ACH_KILL_4",
    "defaultvalue": 0,
    "displayName": "Serial killer",
    "hidden": 0,
    "description": "Kill 4 persons.",
    "icon": "https://steamcdn-a.akamaihd.net/steamcommunity/public/images/apps/218640/d202f1b8c7a85b2d6987bfcb12ea513a5f424e5b.jpg",
    "icongray": "https://steamcdn-a.akamaihd.net/steamcommunity/public/images/apps/218640/8a82de6fb698f781d1b35658e7c89a1885aa07ac.jpg"
  },
  {
    "name": "ACH_KILL_5",
    "defaultvalue": 0,
    "displayName": "High five",
    "hidden": 0,
    "description": "Kill 5 persons.",
    "icon": "https://steamcdn-a.akamaihd.net/steamcommunity/public/images/apps/218640/5dd61eb814d19549f3c0bfe94413726ed3e2ed83.jpg",
    "icongray": "https://steamcdn-a.akamaihd.net/steamcommunity/public/images/apps/218640/a5e6973597053a3ecba87ae54d6b58b1ebc6e639.jpg"
  },
  {
    "name": "ACH_KILL_6",
    "defaultvalue": 0,
    "displayName": "My lucky number",
    "hidden": 0,
    "description": "Kill 6 persons.",
    "icon": "https://steamcdn-a.akamaihd.net/steamcommunity/public/images/apps/218640/99021775821ee3f00b0322060186cbc2e3b068a5.jpg",
    "icongray": "https://steamcdn-a.akamaihd.net/steamcommunity/public/images/apps/218640/4537f6a6d3961fa00d968821ea67f4f638110a48.jpg"
  },
  {
    "name": "ACH_KILL_7",
    "defaultvalue": 0,
    "displayName": "Deadly sins",
    "hidden": 0,
    "description": "Kill 7 persons.",
    "icon": "https://steamcdn-a.akamaihd.net/steamcommunity/public/images/apps/218640/078b646f37a512d027daf51bcc4afcd7430529d0.jpg",
    "icongray": "https://steamcdn-a.akamaihd.net/steamcommunity/public/images/apps/218640/2651a950b5851af5190d02ac333748a1bec513fc.jpg"
  },
  {
    "name": "ACH_KILL_8",
    "defaultvalue": 0,
    "displayName": "Killed eight people and loving it",
    "hidden": 0,
    "description": "Kill 8 persons.",
    "icon": "https://steamcdn-a.akamaihd.net/steamcommunity/public/images/apps/218640/09a7624042d1fd43aa726f4e289cb4ac043e2cad.jpg",
    "icongray": "https://steamcdn-a.akamaihd.net/steamcommunity/public/images/apps/218640/c56475b4e0584dc46688ca6889b3602a2a5ea853.jpg"
  },
  {
    "name": "ACH_KILL_9",
    "defaultvalue": 0,
    "displayName": "Nine gates of hell",
    "hidden": 0,
    "description": "Kill 9 persons.",
    "icon": "https://steamcdn-a.akamaihd.net/steamcommunity/public/images/apps/218640/ce49faf3cd39805540f804a8f9296b8242ff510b.jpg",
    "icongray": "https://steamcdn-a.akamaihd.net/steamcommunity/public/images/apps/218640/88e62cb04bbc32ac7d1b2680866c79009926a427.jpg"
  },
  {
    "name": "ACH_KILL_10",
    "defaultvalue": 0,
    "displayName": "Nine of them did not matter\t",
    "hidden": 0,
    "description": "Kill 10 persons.",
    "icon": "https://steamcdn-a.akamaihd.net/steamcommunity/public/images/apps/218640/66a4d554dcaaff669730c8739e7c112a6bde8a71.jpg",
    "icongray": "https://steamcdn-a.akamaihd.net/steamcommunity/public/images/apps/218640/0108725f2b5e01056380f2cf2680d0c88a3724a6.jpg"
  },
  {
    "name": "ACH_KILL_11",
    "defaultvalue": 0,
    "displayName": "Seven to eleven",
    "hidden": 0,
    "description": "Kill 11 persons.",
    "icon": "https://steamcdn-a.akamaihd.net/steamcommunity/public/images/apps/218640/24ba9635a3ada21bb400d2004a5e605c898f1b91.jpg",
    "icongray": "https://steamcdn-a.akamaihd.net/steamcommunity/public/images/apps/218640/a57fd3d90b4b6bad991534601cad9c160b16268d.jpg"
  },
  {
    "name": "ACH_KILL_12",
    "defaultvalue": 0,
    "displayName": "No for homeschooling",
    "hidden": 0,
    "description": "Kill 12 persons.",
    "icon": "https://steamcdn-a.akamaihd.net/steamcommunity/public/images/apps/218640/b8c82ad3d56a204908b1e6c14d1649455e8df83b.jpg",
    "icongray": "https://steamcdn-a.akamaihd.net/steamcommunity/public/images/apps/218640/04d7a2ca58e3717096d5cf289bec326afba876dc.jpg"
  },
  {
    "name": "ACH_KILL_13",
    "defaultvalue": 0,
    "displayName": "Unlucky one",
    "hidden": 0,
    "description": "Kill 13 persons.",
    "icon": "https://steamcdn-a.akamaihd.net/steamcommunity/public/images/apps/218640/3a5272a8098902e99e441689da724e0578eaf845.jpg",
    "icongray": "https://steamcdn-a.akamaihd.net/steamcommunity/public/images/apps/218640/aec70edef56e9e635a4f04a5a9155771e273e5ba.jpg"
  },
  {
    "name": "ACH_KILL_14",
    "defaultvalue": 0,
    "displayName": "Finally no more driving",
    "hidden": 0,
    "description": "Kill 14 persons.",
    "icon": "https://steamcdn-a.akamaihd.net/steamcommunity/public/images/apps/218640/7ef5e63d7e52f7889630ced938c53ff29d234d48.jpg",
    "icongray": "https://steamcdn-a.akamaihd.net/steamcommunity/public/images/apps/218640/081e109c7fbdb13a4173b6eed859e525e000e15d.jpg"
  },
  {
    "name": "ACH_KILL_15",
    "defaultvalue": 0,
    "displayName": "Almost there",
    "hidden": 0,
    "description": "Kill 15 persons.",
    "icon": "https://steamcdn-a.akamaihd.net/steamcommunity/public/images/apps/218640/ac3e48d4b3d7dd188ef0736af0179a1ad0226f85.jpg",
    "icongray": "https://steamcdn-a.akamaihd.net/steamcommunity/public/images/apps/218640/c7058ad1be7bb1f35e06a5ccfaad0028b8e97030.jpg"
  },
  {
    "name": "ACH_KILL_16",
    "defaultvalue": 0,
    "displayName": "Lobotomizer",
    "hidden": 0,
    "description": "Kill 16 persons.",
    "icon": "https://steamcdn-a.akamaihd.net/steamcommunity/public/images/apps/218640/e9ece34b843d4e064efe45eba5b9d782f030e00d.jpg",
    "icongray": "https://steamcdn-a.akamaihd.net/steamcommunity/public/images/apps/218640/3d5fb19db31a5472df0a02aab5be0603f7a9ad0d.jpg"
  },
  {
    "name": "ACH_KILL_17",
    "defaultvalue": 0,
    "displayName": "You all saw him - he had a gun\t",
    "hidden": 0,
    "description": "Kill 17 persons.",
    "icon": "https://steamcdn-a.akamaihd.net/steamcommunity/public/images/apps/218640/239f6b635fc857870f5d918286d2ad8128da959f.jpg",
    "icongray": "https://steamcdn-a.akamaihd.net/steamcommunity/public/images/apps/218640/60e9aa268d1ed76d8bb3ecda3b0d07da7f523614.jpg"
  },
  {
    "name": "ACH_KILL_18",
    "defaultvalue": 0,
    "displayName": "Catholic vengeance",
    "hidden": 0,
    "description": "Kill 18 persons.",
    "icon": "https://steamcdn-a.akamaihd.net/steamcommunity/public/images/apps/218640/6d26acc075a7a1ca8c13ee4bfade0aaf34dfcb36.jpg",
    "icongray": "https://steamcdn-a.akamaihd.net/steamcommunity/public/images/apps/218640/1d72a0abbcaeba7e477ebba62ffc559902276831.jpg"
  },
  {
    "name": "ACH_KILL_19",
    "defaultvalue": 0,
    "displayName": "Two out of three fathers",
    "hidden": 0,
    "description": "Kill 19 persons.",
    "icon": "https://steamcdn-a.akamaihd.net/steamcommunity/public/images/apps/218640/47064057fbdbff3d42398a5caf2d24629f7fb97d.jpg",
    "icongray": "https://steamcdn-a.akamaihd.net/steamcommunity/public/images/apps/218640/e9d08b9596f5fed72802bf0eeb41791aee6d09e4.jpg"
  },
  {
    "name": "ACH_KILL_20",
    "defaultvalue": 0,
    "displayName": "Son of the Devil ",
    "hidden": 0,
    "description": "Kill 20 persons.",
    "icon": "https://steamcdn-a.akamaihd.net/steamcommunity/public/images/apps/218640/257a2ac5f749925cdbfc473604fe4d78b016bc41.jpg",
    "icongray": "https://steamcdn-a.akamaihd.net/steamcommunity/public/images/apps/218640/4b9368028ae40df68bc3cfbdb4cdaacc84bead10.jpg"
  },
  {
    "name": "ACH_LEVEL_MC",
    "defaultvalue": 0,
    "displayName": "Mindtwister",
    "hidden": 0,
    "description": "Get fifth level for mindcontrol.",
    "icon": "https://steamcdn-a.akamaihd.net/steamcommunity/public/images/apps/218640/9038eb9294aef3e3a1ddc3ed8c782ac563769de8.jpg",
    "icongray": "https://steamcdn-a.akamaihd.net/steamcommunity/public/images/apps/218640/817452ffa380e3a3d4ef04dcb419294bde679e7d.jpg"
  },
  {
    "name": "ACH_LEVEL_TELE",
    "defaultvalue": 0,
    "displayName": "Jedi",
    "hidden": 0,
    "description": "Get fifth level for telekenesis.",
    "icon": "https://steamcdn-a.akamaihd.net/steamcommunity/public/images/apps/218640/b0c2635936ead1cfffac133741a6edae8c32fa12.jpg",
    "icongray": "https://steamcdn-a.akamaihd.net/steamcommunity/public/images/apps/218640/aff6f64121eaf65383f689a6099166666252d7e5.jpg"
  },
  {
    "name": "ACH_LEVEL_ME",
    "defaultvalue": 0,
    "displayName": "Memento",
    "hidden": 0,
    "description": "Get fifth level for memoryerase.",
    "icon": "https://steamcdn-a.akamaihd.net/steamcommunity/public/images/apps/218640/73df366b7db9747a776821c53374fd030bc8a3a3.jpg",
    "icongray": "https://steamcdn-a.akamaihd.net/steamcommunity/public/images/apps/218640/4d5bb85be11b10d38428e0500626be11c1bf5d4f.jpg"
  },
  {
    "name": "ACH_LEVEL_COMB",
    "defaultvalue": 0,
    "displayName": "Firemaster\t",
    "hidden": 0,
    "description": "Get fifth level for combustion.",
    "icon": "https://steamcdn-a.akamaihd.net/steamcommunity/public/images/apps/218640/f1162f8c61414ade6baf9acf4b10c94b5beefc4a.jpg",
    "icongray": "https://steamcdn-a.akamaihd.net/steamcommunity/public/images/apps/218640/e8f7f55f3c791cc35abee949b374c19055286a8c.jpg"
  },
  {
    "name": "ACH_FIRESTARTER",
    "defaultvalue": 0,
    "displayName": "Firestarter",
    "hidden": 0,
    "description": "Use lesser combustion 5 times.",
    "icon": "https://steamcdn-a.akamaihd.net/steamcommunity/public/images/apps/218640/63d80f8710b408fdd0b6e3da7b0e631b39647df5.jpg",
    "icongray": "https://steamcdn-a.akamaihd.net/steamcommunity/public/images/apps/218640/8161e7d659ec45f3417465e5e82a60460bf679f8.jpg"
  },
  {
    "name": "ACH_FIRECRACKER",
    "defaultvalue": 0,
    "displayName": "Firecracker",
    "hidden": 0,
    "description": "Use lesser combustion 10 times.",
    "icon": "https://steamcdn-a.akamaihd.net/steamcommunity/public/images/apps/218640/903539506f29556830660ed0223508aa3eb61efa.jpg",
    "icongray": "https://steamcdn-a.akamaihd.net/steamcommunity/public/images/apps/218640/5cb9853b0f76b4ae56a9d0038f0c63e47d654664.jpg"
  },
  {
    "name": "ACH_MEMERROR",
    "defaultvalue": 0,
    "displayName": "Mem-error",
    "hidden": 0,
    "description": "Use memory-erase 5 times.",
    "icon": "https://steamcdn-a.akamaihd.net/steamcommunity/public/images/apps/218640/7ed302c9cce603267d8615c3798bfbc72bf17bbe.jpg",
    "icongray": "https://steamcdn-a.akamaihd.net/steamcommunity/public/images/apps/218640/80daef3992b0d9112e1e3c2953bf626e4843891a.jpg"
  },
  {
    "name": "ACH_ALZHEIMER",
    "defaultvalue": 0,
    "displayName": "Dr. Alzheimer",
    "hidden": 0,
    "description": " Use memory-erase 10 times.",
    "icon": "https://steamcdn-a.akamaihd.net/steamcommunity/public/images/apps/218640/b355635d0f16080895dd679c30cd78c53c15c905.jpg",
    "icongray": "https://steamcdn-a.akamaihd.net/steamcommunity/public/images/apps/218640/9eaae01653ee1292d1248b4102e5d12bfe0710fa.jpg"
  },
  {
    "name": "ACH_MC_5",
    "defaultvalue": 0,
    "displayName": "Inside your head",
    "hidden": 0,
    "description": "Use mindcontrol 5 times.",
    "icon": "https://steamcdn-a.akamaihd.net/steamcommunity/public/images/apps/218640/6e07e02a6fdf8e6fa379a88789e6160905495f22.jpg",
    "icongray": "https://steamcdn-a.akamaihd.net/steamcommunity/public/images/apps/218640/7930a1905e97ad35d1aff0a22a2b31576331c001.jpg"
  },
  {
    "name": "ACH_MC_10",
    "defaultvalue": 0,
    "displayName": "Ultimate devil mindtrick",
    "hidden": 0,
    "description": "Use mindcontrol 10 times.",
    "icon": "https://steamcdn-a.akamaihd.net/steamcommunity/public/images/apps/218640/d26c88db3e2099eed2bdc1f7ea5fa7e2ee759527.jpg",
    "icongray": "https://steamcdn-a.akamaihd.net/steamcommunity/public/images/apps/218640/288cba09d7d5ffdb44c79d8263e03413d225dd08.jpg"
  },
  {
    "name": "ACH_3_SUICIDES",
    "defaultvalue": 0,
    "displayName": "Dr. Kevorkian",
    "hidden": 0,
    "description": "Assist on 3 suicides.",
    "icon": "https://steamcdn-a.akamaihd.net/steamcommunity/public/images/apps/218640/4115da7bfe1d5085e5345b8ef9d469002354fdbb.jpg",
    "icongray": "https://steamcdn-a.akamaihd.net/steamcommunity/public/images/apps/218640/e9d1df39d9a648cdd575380ea4671572150ad1a2.jpg"
  },
  {
    "name": "ACH_EXPLORER",
    "defaultvalue": 0,
    "displayName": "Explorer\t",
    "hidden": 0,
    "description": "Find secret chamber before chapter seven.",
    "icon": "https://steamcdn-a.akamaihd.net/steamcommunity/public/images/apps/218640/2b6b48f3fe170bbb8d4dd617abdccf542d77de6d.jpg",
    "icongray": "https://steamcdn-a.akamaihd.net/steamcommunity/public/images/apps/218640/de63294ec06139623ddbbb661891a59a0df69e34.jpg"
  },
  {
    "name": "ACH_READER",
    "defaultvalue": 0,
    "displayName": "We got ourselves a reader",
    "hidden": 0,
    "description": "Read 20 journal entries.",
    "icon": "https://steamcdn-a.akamaihd.net/steamcommunity/public/images/apps/218640/5006db89672ca5ed333ff2f8f4013501e02e03cd.jpg",
    "icongray": "https://steamcdn-a.akamaihd.net/steamcommunity/public/images/apps/218640/55b00499268aa91b0c8f3517b07f035cf5343293.jpg"
  },
  {
    "name": "ACH_20_ITEMS",
    "defaultvalue": 0,
    "displayName": "Hoarder",
    "hidden": 0,
    "description": "Collect 20 items.",
    "icon": "https://steamcdn-a.akamaihd.net/steamcommunity/public/images/apps/218640/df6e42f6b67996056912b0b1192d371ab54b14a6.jpg",
    "icongray": "https://steamcdn-a.akamaihd.net/steamcommunity/public/images/apps/218640/3224eb8b7bdc91f3f04c4fba1396f4df8e29c610.jpg"
  },
  {
    "name": "ACH_SHOOT_5",
    "defaultvalue": 0,
    "displayName": "Screw hiding.",
    "hidden": 0,
    "description": "Shoot 5 persons.",
    "icon": "https://steamcdn-a.akamaihd.net/steamcommunity/public/images/apps/218640/59e935cf9deee1ee0e98b2d95076953bfe62fe87.jpg",
    "icongray": "https://steamcdn-a.akamaihd.net/steamcommunity/public/images/apps/218640/a9d246b4bdfe7cb388712bd32024ce06df256fa7.jpg"
  },
  {
    "name": "ACH_SHOOT_1",
    "defaultvalue": 0,
    "displayName": "Oops!\t",
    "hidden": 0,
    "description": "Shoot someone.",
    "icon": "https://steamcdn-a.akamaihd.net/steamcommunity/public/images/apps/218640/6a5018af2c0e689cd23187e640d198c0c31afd40.jpg",
    "icongray": "https://steamcdn-a.akamaihd.net/steamcommunity/public/images/apps/218640/882fedcf1cfb6893e1354c695d9001b1a694a65f.jpg"
  },
  {
    "name": "ACH_20_PICTURES",
    "defaultvalue": 0,
    "displayName": "Paparazzi",
    "hidden": 0,
    "description": "Take 20 pictures.",
    "icon": "https://steamcdn-a.akamaihd.net/steamcommunity/public/images/apps/218640/cc3ea5545d0187c0644dc8af550c8be1bcddfcc4.jpg",
    "icongray": "https://steamcdn-a.akamaihd.net/steamcommunity/public/images/apps/218640/e971d6ae308d9c5457286360f0b2de476bf10904.jpg"
  },
  {
    "name": "ACH_50_DRAWERS",
    "defaultvalue": 0,
    "displayName": "Looking for something",
    "hidden": 0,
    "description": "Open 50 drawers.",
    "icon": "https://steamcdn-a.akamaihd.net/steamcommunity/public/images/apps/218640/e1f57a2a013063dc3275d117015ab2f920d7a555.jpg",
    "icongray": "https://steamcdn-a.akamaihd.net/steamcommunity/public/images/apps/218640/1fd18426e07fb942e1ff48f63b4c838c3975ad96.jpg"
  },
  {
    "name": "ACH_BREAK_50",
    "defaultvalue": 0,
    "displayName": "Tasmanian Devil ",
    "hidden": 0,
    "description": "Break 50 objects.",
    "icon": "https://steamcdn-a.akamaihd.net/steamcommunity/public/images/apps/218640/fe229bc9167664b6a84d46bf8d7a3f53b433f3de.jpg",
    "icongray": "https://steamcdn-a.akamaihd.net/steamcommunity/public/images/apps/218640/82cfcceaa32e5fdc687fc20052f74d047b1e8f6c.jpg"
  },
  {
    "name": "ACH_BREAK_30",
    "defaultvalue": 0,
    "displayName": "Rebel without a cause\t",
    "hidden": 0,
    "description": "Break 30 objects.",
    "icon": "https://steamcdn-a.akamaihd.net/steamcommunity/public/images/apps/218640/865ec1349d2887f12ef69740332c96350e630567.jpg",
    "icongray": "https://steamcdn-a.akamaihd.net/steamcommunity/public/images/apps/218640/b118c06fb20b5863859e2c48ea64bce0ca3ecac2.jpg"
  },
  {
    "name": "ACH_BREAK_20",
    "defaultvalue": 0,
    "displayName": "Devils little menace",
    "hidden": 0,
    "description": "Break 20 objects.",
    "icon": "https://steamcdn-a.akamaihd.net/steamcommunity/public/images/apps/218640/5d4cc26177a3a15c9c70cd06b9c60945d57b2cdf.jpg",
    "icongray": "https://steamcdn-a.akamaihd.net/steamcommunity/public/images/apps/218640/193d0323b3a165268aa525fc6a41d43d5fc69439.jpg"
  },
  {
    "name": "ACH_BREAK_10",
    "defaultvalue": 0,
    "displayName": "Accidents do happen\t\t",
    "hidden": 0,
    "description": "Break 10 objects.",
    "icon": "https://steamcdn-a.akamaihd.net/steamcommunity/public/images/apps/218640/69838754d7f01ca37af03a54a30a03f10ed307cc.jpg",
    "icongray": "https://steamcdn-a.akamaihd.net/steamcommunity/public/images/apps/218640/a7c72275f2e6a3d8b992ffb9fd4805ea83946e16.jpg"
  },
  {
    "name": "ACH_MARATHON",
    "defaultvalue": 0,
    "displayName": "Marathon",
    "hidden": 0,
    "description": "Run 26 miles.",
    "icon": "https://steamcdn-a.akamaihd.net/steamcommunity/public/images/apps/218640/d57fd566d05ba0a238d8ebcde2c1bfc213a653bd.jpg",
    "icongray": "https://steamcdn-a.akamaihd.net/steamcommunity/public/images/apps/218640/a004be209516af37daaffdbb747c0ea0b1f93be9.jpg"
  },
  {
    "name": "ACH_TOURDEMANOR",
    "defaultvalue": 0,
    "displayName": "Tour de Dante manor",
    "hidden": 0,
    "description": "Cycle 10 miles.",
    "icon": "https://steamcdn-a.akamaihd.net/steamcommunity/public/images/apps/218640/bc35b3e5b4c2aea33fac4efbad58a1b52330160c.jpg",
    "icongray": "https://steamcdn-a.akamaihd.net/steamcommunity/public/images/apps/218640/1f69ee5dfd7865d53b3e9d4b13d5bdf5548b51c5.jpg"
  },
  {
    "name": "ACH_TALK_10",
    "defaultvalue": 0,
    "displayName": "There is no answer",
    "hidden": 0,
    "description": "Talk to to people 10 times.",
    "icon": "https://steamcdn-a.akamaihd.net/steamcommunity/public/images/apps/218640/55856d7dfa15c6d4b2b49ca1d5ae28a4eec73701.jpg",
    "icongray": "https://steamcdn-a.akamaihd.net/steamcommunity/public/images/apps/218640/180842d66b498c6afa01c94df966903588ac156c.jpg"
  },
  {
    "name": "ACH_5_CROSSES",
    "defaultvalue": 0,
    "displayName": "Are You There God? It's Me, Lucius",
    "hidden": 0,
    "description": "Turn a cross five times.",
    "icon": "https://steamcdn-a.akamaihd.net/steamcommunity/public/images/apps/218640/6711ebbdb5de37ca75093f822c0a1f25fbe827df.jpg",
    "icongray": "https://steamcdn-a.akamaihd.net/steamcommunity/public/images/apps/218640/921c0f1f2623803391ad4a15c267cd4fd611aa41.jpg"
  },
  {
    "name": "ACH_5_TV",
    "defaultvalue": 0,
    "displayName": "TV Addict\t\t",
    "hidden": 0,
    "description": "Turn on the television 5 times.",
    "icon": "https://steamcdn-a.akamaihd.net/steamcommunity/public/images/apps/218640/584b8801c1b520789053d98b7c9b7b1a1cdc04c3.jpg",
    "icongray": "https://steamcdn-a.akamaihd.net/steamcommunity/public/images/apps/218640/c800531d2611a04bf242b9cd651cbf3191791117.jpg"
  },
  {
    "name": "ACH_20_LIGHTS",
    "defaultvalue": 0,
    "displayName": "Let there be Dark!",
    "hidden": 0,
    "description": "Turn off lights 20 times.",
    "icon": "https://steamcdn-a.akamaihd.net/steamcommunity/public/images/apps/218640/a693af6c139178ab82531206eb695b577d77fafd.jpg",
    "icongray": "https://steamcdn-a.akamaihd.net/steamcommunity/public/images/apps/218640/6d83fc306ea307b9e583670eb754f1f1e2fcb775.jpg"
  },
  {
    "name": "ACH_MUSICBOX",
    "defaultvalue": 0,
    "displayName": "Music is all around us",
    "hidden": 0,
    "description": "Find two ways to listen music from the music box.",
    "icon": "https://steamcdn-a.akamaihd.net/steamcommunity/public/images/apps/218640/49c178f2af236a4d9fa762af9657fe325ca59b51.jpg",
    "icongray": "https://steamcdn-a.akamaihd.net/steamcommunity/public/images/apps/218640/f9b5d9a63181788137f68ccd100e67b58d292539.jpg"
  },
  {
    "name": "ACH_5_SPOTTED",
    "defaultvalue": 0,
    "displayName": "They see me rollin",
    "hidden": 0,
    "description": "Get spotted 5 times.",
    "icon": "https://steamcdn-a.akamaihd.net/steamcommunity/public/images/apps/218640/7e9df36b7414d93abfd1a22b90adbf5f116cb1da.jpg",
    "icongray": "https://steamcdn-a.akamaihd.net/steamcommunity/public/images/apps/218640/f6df4f58a6c7721905f82c84f6f41afa62152a6a.jpg"
  },
  {
    "name": "ACH_COMBINE_6",
    "defaultvalue": 0,
    "displayName": "These things belong together",
    "hidden": 0,
    "description": "Combine 6 items.",
    "icon": "https://steamcdn-a.akamaihd.net/steamcommunity/public/images/apps/218640/c00441667baa946e3fd522a42eaf9801bed06769.jpg",
    "icongray": "https://steamcdn-a.akamaihd.net/steamcommunity/public/images/apps/218640/1dbb4919b9991d3647861b26f4b8e9c43eaae7c8.jpg"
  },
  {
    "name": "ACH_SAFE",
    "defaultvalue": 0,
    "displayName": "Sherlock",
    "hidden": 0,
    "description": "Open safe without hints.",
    "icon": "https://steamcdn-a.akamaihd.net/steamcommunity/public/images/apps/218640/876ea5038e4a4364012ed05d83d3d4309d924ef2.jpg",
    "icongray": "https://steamcdn-a.akamaihd.net/steamcommunity/public/images/apps/218640/6146a09e14a042fe5324a9dee5c26d213347f613.jpg"
  },
  {
    "name": "ACH_BURN_5",
    "defaultvalue": 0,
    "displayName": "Pyromaniac",
    "hidden": 0,
    "description": "Let five people burn.",
    "icon": "https://steamcdn-a.akamaihd.net/steamcommunity/public/images/apps/218640/d59bc26562f9f8d82e15dc8362296729062a8e3d.jpg",
    "icongray": "https://steamcdn-a.akamaihd.net/steamcommunity/public/images/apps/218640/f41054a455917d9801a6d0df523e5e0705d2d8f5.jpg"
  },
  {
    "name": "ACH_PLAY_20",
    "defaultvalue": 0,
    "displayName": "I like this game",
    "hidden": 0,
    "description": "Play 20 hours.",
    "icon": "https://steamcdn-a.akamaihd.net/steamcommunity/public/images/apps/218640/e6cc90df96511ab16fa32d2161e05dde2b9b839e.jpg",
    "icongray": "https://steamcdn-a.akamaihd.net/steamcommunity/public/images/apps/218640/fbd31a26702bb71f964bc3b6dc006b418db2e4d0.jpg"
  },
  {
    "name": "ACH_PLAY_40",
    "defaultvalue": 0,
    "displayName": "I'm addicted",
    "hidden": 0,
    "description": "Play 40 hours.",
    "icon": "https://steamcdn-a.akamaihd.net/steamcommunity/public/images/apps/218640/3fde7b131e6b0e9b9d1b19ce084dad082bd3e981.jpg",
    "icongray": "https://steamcdn-a.akamaihd.net/steamcommunity/public/images/apps/218640/78a7a20e701d14fe5244558f13a0e6af93560ec6.jpg"
  },
  {
    "name": "ACH_JAIL",
    "defaultvalue": 0,
    "displayName": "Frank Morris",
    "hidden": 0,
    "description": "Escape from storage jail.",
    "icon": "https://steamcdn-a.akamaihd.net/steamcommunity/public/images/apps/218640/0545cd3d709da74f4ec8807b68fa1e9fb3e57a89.jpg",
    "icongray": "https://steamcdn-a.akamaihd.net/steamcommunity/public/images/apps/218640/adc2509f5fdd9ef90c499e63a5231fd7b779cdef.jpg"
  },
  {
    "name": "ACH_TUTORIALS",
    "defaultvalue": 0,
    "displayName": "Devils Trainee",
    "hidden": 0,
    "description": "Complete all tutorial's.",
    "icon": "https://steamcdn-a.akamaihd.net/steamcommunity/public/images/apps/218640/a721cba254db2a566ace611b33d74cfaaf1a198e.jpg",
    "icongray": "https://steamcdn-a.akamaihd.net/steamcommunity/public/images/apps/218640/80a93ec72a7015dfc3d90b709c51b4b42a4a2732.jpg"
  },
  {
    "name": "ACH_CHORES",
    "defaultvalue": 0,
    "displayName": "Mommy's little helper",
    "hidden": 0,
    "description": "Complete chores for all the presents.",
    "icon": "https://steamcdn-a.akamaihd.net/steamcommunity/public/images/apps/218640/0035c3ad6b612182093eb119fb97110fe2c3417a.jpg",
    "icongray": "https://steamcdn-a.akamaihd.net/steamcommunity/public/images/apps/218640/53ccbdf66b9b34c6fe069afcbb134c6d3512f795.jpg"
  }
]