﻿{
  "Dlcs": {
    "433780": {
      "Name": "Lone Survivor - Original Soundtrack",
      "ImageUrl": "https://steamcdn-a.akamaihd.net/steam/apps/433780/header.jpg?t=1454354554"
    }
  },
  "Name": "Lone Survivor: The Director's Cut",
  "AppId": "209830",
  "ImageUrl": "https://steamcdn-a.akamaihd.net/steam/apps/209830/header.jpg?t=1454353141",
  "Languages": [
    "english"
  ],
  "Platforms": {
    "windows": true,
    "mac": true,
    "linux": false
  }
}