﻿{
  "Dlcs": {},
  "Name": "STRIDER™ / ストライダー飛竜®",
  "AppId": "235210",
  "ImageUrl": "https://steamcdn-a.akamaihd.net/steam/apps/235210/header.jpg?t=1582598961",
  "Languages": [
    "english",
    "french",
    "italian",
    "german",
    "spanish",
    "japanese"
  ],
  "Platforms": {
    "windows": true,
    "mac": false,
    "linux": false
  }
}