﻿{
  "Dlcs": {},
  "Name": "SWR JST DX Selective Memory Erase Effect",
  "AppId": "363920",
  "ImageUrl": "https://steamcdn-a.akamaihd.net/steam/apps/363920/header.jpg?t=1458020473",
  "Languages": [
    "english"
  ],
  "Platforms": {
    "windows": true,
    "mac": false,
    "linux": false
  }
}