﻿[
  {
    "name": "ACHIEVEMENT_ALL_CATS",
    "defaultvalue": 0,
    "displayName": "Hooked on a Feline",
    "hidden": 0,
    "description": "Collect all the Cat Idols",
    "icon": "https://steamcdn-a.akamaihd.net/steamcommunity/public/images/apps/312670/e180963610202f032424d1b7041aecbcda6e8f8c.jpg",
    "icongray": "https://steamcdn-a.akamaihd.net/steamcommunity/public/images/apps/312670/c21e9dc08650d151ae44641a116927d4ec32a523.jpg"
  },
  {
    "name": "ACHIEVEMENT_ALL_JARS",
    "defaultvalue": 0,
    "displayName": "When is a door not a door?",
    "hidden": 0,
    "description": "Collect all the Canopic Jars",
    "icon": "https://steamcdn-a.akamaihd.net/steamcommunity/public/images/apps/312670/7720f0d93e104be0c31444330fa249acf0fdfbab.jpg",
    "icongray": "https://steamcdn-a.akamaihd.net/steamcommunity/public/images/apps/312670/f5ca12460da162cdb0a9546077ffc227c99859fc.jpg"
  },
  {
    "name": "ACHIEVEMENT_ALL_RELICS",
    "defaultvalue": 0,
    "displayName": "To preserve the past is to save the future",
    "hidden": 0,
    "description": "Complete the Main Relic Collection",
    "icon": "https://steamcdn-a.akamaihd.net/steamcommunity/public/images/apps/312670/83676974dd52a28bae2b76b263d799af967ccc4c.jpg",
    "icongray": "https://steamcdn-a.akamaihd.net/steamcommunity/public/images/apps/312670/b9b63de8bcc121b71b0998f194c67351b17f37a5.jpg"
  },
  {
    "name": "ACHIEVEMENT_ALL_DIARIES",
    "defaultvalue": 0,
    "displayName": "Purloined Letters",
    "hidden": 0,
    "description": "Complete the Main Diary Collection",
    "icon": "https://steamcdn-a.akamaihd.net/steamcommunity/public/images/apps/312670/667eee8f7d33fc9c28ce686f769f35ac1e3b3f88.jpg",
    "icongray": "https://steamcdn-a.akamaihd.net/steamcommunity/public/images/apps/312670/49ea7313ae8d19bf066667aa1cc02795bec7cecf.jpg"
  },
  {
    "name": "ACHIEVEMENT_DISTANCE_TRAVELLED",
    "defaultvalue": 0,
    "displayName": "7 league boots",
    "hidden": 0,
    "description": "Travel for a little over 24 miles",
    "icon": "https://steamcdn-a.akamaihd.net/steamcommunity/public/images/apps/312670/976038ea6c1a2e369e905e544d59b223af662792.jpg",
    "icongray": "https://steamcdn-a.akamaihd.net/steamcommunity/public/images/apps/312670/815dbe5bc17e8b8058b51e0ec79516658998a4e2.jpg"
  },
  {
    "name": "ACHIEVEMENT_ALL_WEAPONS",
    "defaultvalue": 0,
    "displayName": "Master of the Armoury",
    "hidden": 0,
    "description": "Unlock all the weapons",
    "icon": "https://steamcdn-a.akamaihd.net/steamcommunity/public/images/apps/312670/fcb6e52437d239bfe95d57ee4bb8d57991760f0f.jpg",
    "icongray": "https://steamcdn-a.akamaihd.net/steamcommunity/public/images/apps/312670/e029a71848e48df086181415e5b52f2806bc8118.jpg"
  },
  {
    "name": "ACHIEVEMENT_ALL_AMULETS_GEMS",
    "defaultvalue": 0,
    "displayName": "Master of the Mystical",
    "hidden": 0,
    "description": "Unlock/Find every kind of Amulet and Gem",
    "icon": "https://steamcdn-a.akamaihd.net/steamcommunity/public/images/apps/312670/28800e3935a82d7d9f73f4c2639422ba392fd9ea.jpg",
    "icongray": "https://steamcdn-a.akamaihd.net/steamcommunity/public/images/apps/312670/355f523a8f933e3e55770adffecff6a892c1f1f3.jpg"
  },
  {
    "name": "ACHIEVEMENT_AMULET_ATTACK_CHAIN",
    "defaultvalue": 0,
    "displayName": "Nobody Likes a Show-Off",
    "hidden": 0,
    "description": "Chain 3 Amulet Attacks in a row",
    "icon": "https://steamcdn-a.akamaihd.net/steamcommunity/public/images/apps/312670/706c9b553177c5c0452197d0d8079503aa16294c.jpg",
    "icongray": "https://steamcdn-a.akamaihd.net/steamcommunity/public/images/apps/312670/b4fc93b847f14a5899bda321353e1fbc1903b396.jpg"
  },
  {
    "name": "ACHIEVEMENT_SETEKI_LEAVE",
    "defaultvalue": 0,
    "displayName": "For King and Country",
    "hidden": 0,
    "description": "Banish Ammit and defeat Seteki without delivering the Coup de Grace",
    "icon": "https://steamcdn-a.akamaihd.net/steamcommunity/public/images/apps/312670/65083bc6313cab0ded859956574f20dec54c7540.jpg",
    "icongray": "https://steamcdn-a.akamaihd.net/steamcommunity/public/images/apps/312670/b7e5a494b1fddaf4573ae4f41218bc47f4fa542d.jpg"
  },
  {
    "name": "ACHIEVEMENT_SETEKI_SHOOT",
    "defaultvalue": 0,
    "displayName": "Smile, you Son of a B…",
    "hidden": 0,
    "description": "Shoot Seteki from Ammit's Jaws",
    "icon": "https://steamcdn-a.akamaihd.net/steamcommunity/public/images/apps/312670/3568f1b836440c9f64f9638186d56fdaeccef6af.jpg",
    "icongray": "https://steamcdn-a.akamaihd.net/steamcommunity/public/images/apps/312670/3d49aeff1af25814f8a83b79967d53ba4f99b1f0.jpg"
  },
  {
    "name": "ACHIEVEMENT_ENEMIES_KILLED",
    "defaultvalue": 0,
    "displayName": "Not Out",
    "hidden": 0,
    "description": "Kill 501 Enemies",
    "icon": "https://steamcdn-a.akamaihd.net/steamcommunity/public/images/apps/312670/1dceca20909093f0058be610a252bde1a610b03b.jpg",
    "icongray": "https://steamcdn-a.akamaihd.net/steamcommunity/public/images/apps/312670/f8461e984666e9d4650b13f0f22ce212a916b6c2.jpg"
  },
  {
    "name": "ACHIEVEMENT_ENEMIES_MELEED",
    "defaultvalue": 0,
    "displayName": "Queensberry Rules, ok?",
    "hidden": 0,
    "description": "Flatten 100 enemies with a melee attack",
    "icon": "https://steamcdn-a.akamaihd.net/steamcommunity/public/images/apps/312670/3541b3086e2efee1f52f71b3504868c5b2338929.jpg",
    "icongray": "https://steamcdn-a.akamaihd.net/steamcommunity/public/images/apps/312670/312e41c92e0a847b039a0f1768fca3b7f8c984a8.jpg"
  },
  {
    "name": "ACHIEVEMENT_GOLD_FROM_CHESTS",
    "defaultvalue": 0,
    "displayName": "Minted",
    "hidden": 0,
    "description": "Collect 10000 Gold from Chests",
    "icon": "https://steamcdn-a.akamaihd.net/steamcommunity/public/images/apps/312670/34254909148d15a33663c482b187301d9f945e93.jpg",
    "icongray": "https://steamcdn-a.akamaihd.net/steamcommunity/public/images/apps/312670/5a2135823b6a6ac797704fc672febf502866ff61.jpg"
  },
  {
    "name": "ACHIEVEMENT_POTTERY_VANDAL",
    "defaultvalue": 0,
    "displayName": "What have you got against pottery?",
    "hidden": 0,
    "description": "Destroy 100 pots",
    "icon": "https://steamcdn-a.akamaihd.net/steamcommunity/public/images/apps/312670/19418ba61f188556efc877f26b8a3bac6fd5bd9a.jpg",
    "icongray": "https://steamcdn-a.akamaihd.net/steamcommunity/public/images/apps/312670/905a41a33067fee46eb412ca8c8a2d0e6eb6a5b0.jpg"
  },
  {
    "name": "ACHIEVEMENT_MANY_DEATHS",
    "defaultvalue": 0,
    "displayName": "The Pharoah's Curse",
    "hidden": 0,
    "description": "Die 50 times",
    "icon": "https://steamcdn-a.akamaihd.net/steamcommunity/public/images/apps/312670/48482aff0d586113a3b71fc8d58b2b5900c29f96.jpg",
    "icongray": "https://steamcdn-a.akamaihd.net/steamcommunity/public/images/apps/312670/26c6409744aaa67cfd572d0ccdc469e141444d6e.jpg"
  },
  {
    "name": "ACHIEVEMENT_FIND_RELIC",
    "defaultvalue": 0,
    "displayName": "It's not theft if you put it in a museum",
    "hidden": 0,
    "description": "Find a Relic",
    "icon": "https://steamcdn-a.akamaihd.net/steamcommunity/public/images/apps/312670/e5015463577522cef84f377b33287f509432558f.jpg",
    "icongray": "https://steamcdn-a.akamaihd.net/steamcommunity/public/images/apps/312670/565ba3309a871177a1e9413490811827fca4d793.jpg"
  },
  {
    "name": "ACHIEVEMENT_POTION_DRINKER",
    "defaultvalue": 0,
    "displayName": "For Medicinal Purposes",
    "hidden": 0,
    "description": "Drink 6 health potions within a level without dying or restarting",
    "icon": "https://steamcdn-a.akamaihd.net/steamcommunity/public/images/apps/312670/2f3c2117460eb719e19557c395bee8734031f8a0.jpg",
    "icongray": "https://steamcdn-a.akamaihd.net/steamcommunity/public/images/apps/312670/804f1516975afa120d50a02f4d9ffdfbde8658df.jpg"
  },
  {
    "name": "ACHIEVEMENT_SERIAL_REVIVEE",
    "defaultvalue": 0,
    "displayName": "This Is Becoming A Little Awkward",
    "hidden": 0,
    "description": "Exit a Sarcophagus 5 times without restarting",
    "icon": "https://steamcdn-a.akamaihd.net/steamcommunity/public/images/apps/312670/fe5ddd56f69e4267b7ab2eea96b167ffe55bd7f3.jpg",
    "icongray": "https://steamcdn-a.akamaihd.net/steamcommunity/public/images/apps/312670/194da1e8c3bd74a9686f01d9936be9df3ceb2897.jpg"
  },
  {
    "name": "ACHIEVEMENT_SKELETONS_KILLED",
    "defaultvalue": 0,
    "displayName": "Hydra's Teeth",
    "hidden": 0,
    "description": "Kill 100 skeletons",
    "icon": "https://steamcdn-a.akamaihd.net/steamcommunity/public/images/apps/312670/99f5dfcfc7075e08f85819e3e99ed78e421d254c.jpg",
    "icongray": "https://steamcdn-a.akamaihd.net/steamcommunity/public/images/apps/312670/993b8eff67eb0a237353c6bd3b2b0345342114ed.jpg"
  },
  {
    "name": "ACHIEVEMENT_LOW_HEALTH_DURATION",
    "defaultvalue": 0,
    "displayName": "The trick is not minding that it hurts",
    "hidden": 0,
    "description": "Spend a total of 20 minute at the low health level",
    "icon": "https://steamcdn-a.akamaihd.net/steamcommunity/public/images/apps/312670/1a0fc9736223251f661f98891a08ccf0c38eb185.jpg",
    "icongray": "https://steamcdn-a.akamaihd.net/steamcommunity/public/images/apps/312670/cf5ce093058990e3694239fe53a879636ff5b5c1.jpg"
  },
  {
    "name": "ACHIEVEMENT_USE_ALL_CHARACTERS",
    "defaultvalue": 0,
    "displayName": "There's no 'I' in Team…but there is a 'me'",
    "hidden": 0,
    "description": "Complete a level with each of the first four Brigade members",
    "icon": "https://steamcdn-a.akamaihd.net/steamcommunity/public/images/apps/312670/f9f7b770e7bf7e658aa2c39d3e1aa4ffa1237e6c.jpg",
    "icongray": "https://steamcdn-a.akamaihd.net/steamcommunity/public/images/apps/312670/d08e0d16ac67d4790939314e927ec919b2fce971.jpg"
  },
  {
    "name": "ACHIEVEMENT_PUZZLE_PRO",
    "defaultvalue": 0,
    "displayName": "Tinker, Tailor, Soldier, Savant",
    "hidden": 0,
    "description": "Solve every kind of puzzle door across the game",
    "icon": "https://steamcdn-a.akamaihd.net/steamcommunity/public/images/apps/312670/8c123665916ae94f7562544e75b9442e12eca8b0.jpg",
    "icongray": "https://steamcdn-a.akamaihd.net/steamcommunity/public/images/apps/312670/a19d90ce899efbb16d4bb3c0d6168e8c0e318ed6.jpg"
  },
  {
    "name": "ACHIEVEMENT_ONE_SHOT_MULTI_KILL",
    "defaultvalue": 0,
    "displayName": "Capital shot!",
    "hidden": 0,
    "description": "Kill 3 enemies with a single shot",
    "icon": "https://steamcdn-a.akamaihd.net/steamcommunity/public/images/apps/312670/d0ae49a6eacc6f6dba1b5ecd3c7df046970c13a3.jpg",
    "icongray": "https://steamcdn-a.akamaihd.net/steamcommunity/public/images/apps/312670/de7d9cd19c1e8dc1bc23c849d68c96d0ce941e6f.jpg"
  },
  {
    "name": "ACHIEVEMENT_ANNOY_NARRATOR",
    "defaultvalue": 0,
    "displayName": "One Simply Doesn't Rush These Things",
    "hidden": 0,
    "description": "Annoy the Narrator",
    "icon": "https://steamcdn-a.akamaihd.net/steamcommunity/public/images/apps/312670/aeec4eded0c28215bd4ed08d022fe0714fa65ae1.jpg",
    "icongray": "https://steamcdn-a.akamaihd.net/steamcommunity/public/images/apps/312670/c01c7af54adfb8a0500f8b71d0aab342f1696048.jpg"
  },
  {
    "name": "ACHIEVEMENT_MELEE_SPEED",
    "defaultvalue": 0,
    "displayName": "These Are My Fighting Trousers",
    "hidden": 0,
    "description": "Melee kill 5 enemies in 30 seconds",
    "icon": "https://steamcdn-a.akamaihd.net/steamcommunity/public/images/apps/312670/c60457ac3db6c54e4191802e6a44e31d2a9ad914.jpg",
    "icongray": "https://steamcdn-a.akamaihd.net/steamcommunity/public/images/apps/312670/31c26b18035a41c3a773def1f771cfa5395524bb.jpg"
  },
  {
    "name": "ACHIEVEMENT_LOW_HEALTH_KILLER",
    "defaultvalue": 0,
    "displayName": "Stiff Upper Lip",
    "hidden": 0,
    "description": "Kill 20 enemies while on low health",
    "icon": "https://steamcdn-a.akamaihd.net/steamcommunity/public/images/apps/312670/d6980ccda2d6ce14713b0c89182d25d49937ad05.jpg",
    "icongray": "https://steamcdn-a.akamaihd.net/steamcommunity/public/images/apps/312670/acbeb5f7e873789dd6e77604432986aecfe72ef6.jpg"
  },
  {
    "name": "ACHIEVEMENT_DESTROY_SOUL_CAGE",
    "defaultvalue": 0,
    "displayName": "Save Our Souls",
    "hidden": 0,
    "description": "Destroy a Soul Cage",
    "icon": "https://steamcdn-a.akamaihd.net/steamcommunity/public/images/apps/312670/62384798fd90f4b4e10897a692519aa01eb4cb0e.jpg",
    "icongray": "https://steamcdn-a.akamaihd.net/steamcommunity/public/images/apps/312670/8d9a7525ecd9d7703e7fdf2ae72d2779aab716ee.jpg"
  },
  {
    "name": "ACHIEVEMENT_LEVEL_HARBINS",
    "defaultvalue": 0,
    "displayName": "Wonderful Things",
    "hidden": 1,
    "icon": "https://steamcdn-a.akamaihd.net/steamcommunity/public/images/apps/312670/0852d3262d2d8203b3fb4abb93d78547ce93a14d.jpg",
    "icongray": "https://steamcdn-a.akamaihd.net/steamcommunity/public/images/apps/312670/37ecc426118041886387ea550691ac5b7fd2524d.jpg"
  },
  {
    "name": "ACHIEVEMENT_LEVEL_POND_PATHS",
    "defaultvalue": 0,
    "displayName": "Bully For You!",
    "hidden": 1,
    "icon": "https://steamcdn-a.akamaihd.net/steamcommunity/public/images/apps/312670/5ed8e33bda56cf0220f90c245bd6f12d15b04ce0.jpg",
    "icongray": "https://steamcdn-a.akamaihd.net/steamcommunity/public/images/apps/312670/6c77fcb259ac65cd7214d4adc6b1216919eaa01a.jpg"
  },
  {
    "name": "ACHIEVEMENT_LEVEL_TUNNELS",
    "defaultvalue": 0,
    "displayName": "The Mote out of thine eye",
    "hidden": 1,
    "icon": "https://steamcdn-a.akamaihd.net/steamcommunity/public/images/apps/312670/aa0888e868ebe4b5bd0209c6852689d142268eeb.jpg",
    "icongray": "https://steamcdn-a.akamaihd.net/steamcommunity/public/images/apps/312670/0b970a69aee9018f78883943c1c0cb46e41e78df.jpg"
  },
  {
    "name": "ACHIEVEMENT_LEVEL_STONE_CHURCH",
    "defaultvalue": 0,
    "displayName": "Get down, Shep!",
    "hidden": 1,
    "icon": "https://steamcdn-a.akamaihd.net/steamcommunity/public/images/apps/312670/8f46e0beab03f44fb0e4748978bd3b9cf098f4a6.jpg",
    "icongray": "https://steamcdn-a.akamaihd.net/steamcommunity/public/images/apps/312670/dc4d33edef737fa4afcdace3dd8affe2e00d1830.jpg"
  },
  {
    "name": "ACHIEVEMENT_LEVEL_SACRED_CAVE",
    "defaultvalue": 0,
    "displayName": "Dangers Untold",
    "hidden": 1,
    "icon": "https://steamcdn-a.akamaihd.net/steamcommunity/public/images/apps/312670/7be012c4e8622f981edce15819d3cb574df5bea7.jpg",
    "icongray": "https://steamcdn-a.akamaihd.net/steamcommunity/public/images/apps/312670/c4f96418fc3eba2b930d811c13b74532e5f69629.jpg"
  },
  {
    "name": "ACHIEVEMENT_LEVEL_VILLAGE",
    "defaultvalue": 0,
    "displayName": "Hammer of the Gods",
    "hidden": 1,
    "icon": "https://steamcdn-a.akamaihd.net/steamcommunity/public/images/apps/312670/1b6f02365b62656549d16d04b75fb108743a5fc8.jpg",
    "icongray": "https://steamcdn-a.akamaihd.net/steamcommunity/public/images/apps/312670/ed61774699f66ce896dd23c1b9d10e2a75523ecb.jpg"
  },
  {
    "name": "ACHIEVEMENT_LEVEL_STORM_TOWN",
    "defaultvalue": 0,
    "displayName": "A secret door to another world?",
    "hidden": 1,
    "icon": "https://steamcdn-a.akamaihd.net/steamcommunity/public/images/apps/312670/5b34fb79897db642b866b0824e7d01d5d66f97f5.jpg",
    "icongray": "https://steamcdn-a.akamaihd.net/steamcommunity/public/images/apps/312670/8e4aa3665b6dfa2a0a23c988f870f7d637bb64e0.jpg"
  },
  {
    "name": "ACHIEVEMENT_LEVEL_GREAT_PYRAMID",
    "defaultvalue": 0,
    "displayName": "Eye say!",
    "hidden": 1,
    "icon": "https://steamcdn-a.akamaihd.net/steamcommunity/public/images/apps/312670/1371cb64552c1e7a448505e7fda4698016d4e9a0.jpg",
    "icongray": "https://steamcdn-a.akamaihd.net/steamcommunity/public/images/apps/312670/84a2e0a2e4759df6e6c51b798c28bed98c6d74e8.jpg"
  },
  {
    "name": "ACHIEVEMENT_HORDE_BEAT_ROUND",
    "defaultvalue": 0,
    "displayName": "Back From the Mouth of Hell",
    "hidden": 0,
    "description": "Complete the First Round in Horde",
    "icon": "https://steamcdn-a.akamaihd.net/steamcommunity/public/images/apps/312670/9ff9d413234b9af1c0c48f8803e761dae8c9eb0b.jpg",
    "icongray": "https://steamcdn-a.akamaihd.net/steamcommunity/public/images/apps/312670/192f7e2a95298d176ad9c3dd7969cf0488d305b5.jpg"
  },
  {
    "name": "ACHIEVEMENT_HORDE_CANT_TOUCH_THIS",
    "defaultvalue": 0,
    "displayName": "Evasive Action",
    "hidden": 0,
    "description": "Get to Horde Wave 4 without taking any damage",
    "icon": "https://steamcdn-a.akamaihd.net/steamcommunity/public/images/apps/312670/6aa23b0810b2322064f8081440bce0cdb2193343.jpg",
    "icongray": "https://steamcdn-a.akamaihd.net/steamcommunity/public/images/apps/312670/1dfaa1966d1aa9b45c8f7a860a1f86410c3ab865.jpg"
  },
  {
    "name": "ACHIEVEMENT_HORDE_GOLD_DOOR",
    "defaultvalue": 0,
    "displayName": "Pay the Piper",
    "hidden": 0,
    "description": "Open a Gold Door in Horde",
    "icon": "https://steamcdn-a.akamaihd.net/steamcommunity/public/images/apps/312670/82bdabd8198a467e99a84d8e1761bb8e035428b8.jpg",
    "icongray": "https://steamcdn-a.akamaihd.net/steamcommunity/public/images/apps/312670/df8967b6d9236bc4e20a7b5a01a227315b67e977.jpg"
  },
  {
    "name": "ACHIEVEMENT_COOP_TEAM_MATE_REVIVES",
    "defaultvalue": 0,
    "displayName": "Everybody needs a hobby",
    "hidden": 0,
    "description": "Rescue a teammate from a sarcophagus 10 times",
    "icon": "https://steamcdn-a.akamaihd.net/steamcommunity/public/images/apps/312670/711bf8c934f0160ecfe818f53e85d633d9deb465.jpg",
    "icongray": "https://steamcdn-a.akamaihd.net/steamcommunity/public/images/apps/312670/29ea4cecf7f03ad83aa2291c2d98cc2a9b3ba257.jpg"
  },
  {
    "name": "ACHIEVEMENT_COOP_GOLD_HOG",
    "defaultvalue": 0,
    "displayName": "I'm stuck with a valuable friend",
    "hidden": 0,
    "description": "Collect double the Gold of each of your teammates",
    "icon": "https://steamcdn-a.akamaihd.net/steamcommunity/public/images/apps/312670/a7e25972f608f3c8f581fcb0b2008f0f3e259e16.jpg",
    "icongray": "https://steamcdn-a.akamaihd.net/steamcommunity/public/images/apps/312670/76bf8e1d832f3f0560bcf988a9184df01b57931b.jpg"
  },
  {
    "name": "ACHIEVEMENT_COOP_TEAM_MATE_KILLER",
    "defaultvalue": 0,
    "displayName": "Now That's Just Not Cricket",
    "hidden": 0,
    "description": "Kill a teammate with any kind of trap",
    "icon": "https://steamcdn-a.akamaihd.net/steamcommunity/public/images/apps/312670/b882a9b638c65938bbb2c2a57668b4733bdd1966.jpg",
    "icongray": "https://steamcdn-a.akamaihd.net/steamcommunity/public/images/apps/312670/1ece83d9b22ba23a04b1c5c99ab8e0736771bf36.jpg"
  },
  {
    "name": "ACHIEVEMENT_DLC_1_ALL_CATS",
    "defaultvalue": 0,
    "displayName": "Cat got your tongue?",
    "hidden": 0,
    "description": "Collect the golden Cat Idol from the jungle",
    "icon": "https://steamcdn-a.akamaihd.net/steamcommunity/public/images/apps/312670/66c2062e8368f7e17e1caf1f7427c4232a373e07.jpg",
    "icongray": "https://steamcdn-a.akamaihd.net/steamcommunity/public/images/apps/312670/5dd738e7337f16986b038c8df800ea2658440bcc.jpg"
  },
  {
    "name": "ACHIEVEMENT_DLC_1_ALL_RELICS",
    "defaultvalue": 0,
    "displayName": "Pirates' Plunder!",
    "hidden": 0,
    "description": "Dig up all of the figures lost to the jungle",
    "icon": "https://steamcdn-a.akamaihd.net/steamcommunity/public/images/apps/312670/82a58246ad53ddf2b751ffee9fab09a68dd33198.jpg",
    "icongray": "https://steamcdn-a.akamaihd.net/steamcommunity/public/images/apps/312670/03b342f40377bde87502ef4fa651dc4acfb5b694.jpg"
  },
  {
    "name": "ACHIEVEMENT_DLC_1_ALL_JARS",
    "defaultvalue": 0,
    "displayName": "A smashing good time! ",
    "hidden": 0,
    "description": "Destroy all Canopic Jars hidden in the jungle",
    "icon": "https://steamcdn-a.akamaihd.net/steamcommunity/public/images/apps/312670/7a6bd50ff6f470815a81d5d2bb945599b9580aea.jpg",
    "icongray": "https://steamcdn-a.akamaihd.net/steamcommunity/public/images/apps/312670/4719bd1c0e669b4f5fe09231f02eddae34cb80d1.jpg"
  },
  {
    "name": "ACHIEVEMENT_DLC_1_ALL_DIARIES",
    "defaultvalue": 0,
    "displayName": "Well-Read!",
    "hidden": 0,
    "description": "Find all of the Diaries in the jungle",
    "icon": "https://steamcdn-a.akamaihd.net/steamcommunity/public/images/apps/312670/2248d23dee5d1890927e9316d2d0131ed205bfc9.jpg",
    "icongray": "https://steamcdn-a.akamaihd.net/steamcommunity/public/images/apps/312670/084756240217dd6b5c3a8a65c0e2e77598ef1a33.jpg"
  },
  {
    "name": "ACHIEVEMENT_DLC_1_LEVEL_JUNGLE_ISLAND",
    "defaultvalue": 0,
    "displayName": "By George, I think they've got it!",
    "hidden": 0,
    "description": "Collect the first half of the Shield of Bes",
    "icon": "https://steamcdn-a.akamaihd.net/steamcommunity/public/images/apps/312670/4db36311b2f022a85804bb248fee943fcb2a69c9.jpg",
    "icongray": "https://steamcdn-a.akamaihd.net/steamcommunity/public/images/apps/312670/592fcb20b7870a41843def62d1f281c27d3b4095.jpg"
  },
  {
    "name": "ACHIEVEMENT_DLC_2_ALL_CATS",
    "defaultvalue": 0,
    "displayName": "The cat that got the cream....",
    "hidden": 0,
    "description": "Collect the Cat Idol from the cave",
    "icon": "https://steamcdn-a.akamaihd.net/steamcommunity/public/images/apps/312670/4dd22ec0272c61b2870f05c75286fe14496d7fae.jpg",
    "icongray": "https://steamcdn-a.akamaihd.net/steamcommunity/public/images/apps/312670/6e9450e40acf5233a69b5d7208754fe3d2dd3a9b.jpg"
  },
  {
    "name": "ACHIEVEMENT_DLC_2_ALL_RELICS",
    "defaultvalue": 0,
    "displayName": "Treasures of the Earth!",
    "hidden": 0,
    "description": "Unearth all of the figures lost to the cave",
    "icon": "https://steamcdn-a.akamaihd.net/steamcommunity/public/images/apps/312670/a8d30e749a1adedcf44653ec16f2144751a4e503.jpg",
    "icongray": "https://steamcdn-a.akamaihd.net/steamcommunity/public/images/apps/312670/cab23dfabefafab3aec1eaa40c9c219868d4f01a.jpg"
  },
  {
    "name": "ACHIEVEMENT_DLC_2_ALL_JARS",
    "defaultvalue": 0,
    "displayName": "Conopic chaos complete!",
    "hidden": 0,
    "description": "Destroy all Canopic Jars hidden in the cave",
    "icon": "https://steamcdn-a.akamaihd.net/steamcommunity/public/images/apps/312670/f51e7696b18c0a8ca0c1dafdfbcd8fe55e713889.jpg",
    "icongray": "https://steamcdn-a.akamaihd.net/steamcommunity/public/images/apps/312670/f2f1f8c889b60c25e636633e2f8367d7de7c26ba.jpg"
  },
  {
    "name": "ACHIEVEMENT_DLC_2_ALL_DIARIES",
    "defaultvalue": 0,
    "displayName": "Knowledge is power!",
    "hidden": 0,
    "description": "Find all of the Diaries in the cave",
    "icon": "https://steamcdn-a.akamaihd.net/steamcommunity/public/images/apps/312670/3253d9c89ff026b95cc03091d629c2bf0eda417d.jpg",
    "icongray": "https://steamcdn-a.akamaihd.net/steamcommunity/public/images/apps/312670/41397ea991f5b05ce20c4848587f331bbca4391e.jpg"
  },
  {
    "name": "ACHIEVEMENT_DLC_2_LEVEL_CAVE_TEMPLE",
    "defaultvalue": 0,
    "displayName": "The heart of the mountain!",
    "hidden": 0,
    "description": "Collect the second half of the shield of Bes",
    "icon": "https://steamcdn-a.akamaihd.net/steamcommunity/public/images/apps/312670/046e1af1148bd0d4fc65bd2ff6e10924e32f02e2.jpg",
    "icongray": "https://steamcdn-a.akamaihd.net/steamcommunity/public/images/apps/312670/5aed86191b63ad6634aa9f21ad0b5b69c5462bff.jpg"
  },
  {
    "name": "ACHIEVEMENT_DLC_3_ALL_CATS",
    "defaultvalue": 0,
    "displayName": "Combing the Cat-a-combs",
    "hidden": 0,
    "description": "Collect the Cat Idol from beyond the Pyramids",
    "icon": "https://steamcdn-a.akamaihd.net/steamcommunity/public/images/apps/312670/c387eb5c274ab4b735318c617183d8143900fa11.jpg",
    "icongray": "https://steamcdn-a.akamaihd.net/steamcommunity/public/images/apps/312670/831aaf4d3c2f9e33f23ff7b1552612a80490bde8.jpg"
  },
  {
    "name": "ACHIEVEMENT_DLC_3_ALL_RELICS",
    "defaultvalue": 0,
    "displayName": "Ancient Action-Figures!",
    "hidden": 0,
    "description": "Find all of the figures lost in Egypt",
    "icon": "https://steamcdn-a.akamaihd.net/steamcommunity/public/images/apps/312670/043e42a5a9bf39ece036aea53d49e3d0dcbbda87.jpg",
    "icongray": "https://steamcdn-a.akamaihd.net/steamcommunity/public/images/apps/312670/936920efe081cb8649dfeb7dd40fc36d4c0dce29.jpg"
  },
  {
    "name": "ACHIEVEMENT_DLC_3_ALL_JARS",
    "defaultvalue": 0,
    "displayName": "Don't go breaking my jar!",
    "hidden": 0,
    "description": "Destroy all Canopic Jars hidden at the Pyramid",
    "icon": "https://steamcdn-a.akamaihd.net/steamcommunity/public/images/apps/312670/caa11134bb1ae2a1d79a5ec898d03d704279cc68.jpg",
    "icongray": "https://steamcdn-a.akamaihd.net/steamcommunity/public/images/apps/312670/63eddfd6fe51dca3856cb4b31b7e87da59ea8651.jpg"
  },
  {
    "name": "ACHIEVEMENT_DLC_3_ALL_DIARIES",
    "defaultvalue": 0,
    "displayName": "...and read all over!",
    "hidden": 0,
    "description": "Find all Diaries near the Pyramid",
    "icon": "https://steamcdn-a.akamaihd.net/steamcommunity/public/images/apps/312670/a2e286ae07144f01d63c13de1654f43d90218e35.jpg",
    "icongray": "https://steamcdn-a.akamaihd.net/steamcommunity/public/images/apps/312670/5d95ac5c7b2bd9fa5298c84f2b2ef316a70f1f93.jpg"
  },
  {
    "name": "ACHIEVEMENT_DLC_3_LEVEL_NEW_EGYPT",
    "defaultvalue": 0,
    "displayName": "Is that the Bes you can do?",
    "hidden": 0,
    "description": "Reassemble the Shield of Bes",
    "icon": "https://steamcdn-a.akamaihd.net/steamcommunity/public/images/apps/312670/7038acbfc3b126d4f29f5112e9acd75f505761ca.jpg",
    "icongray": "https://steamcdn-a.akamaihd.net/steamcommunity/public/images/apps/312670/9efbd9869592cca5f5f671ac04b82f4e1b1eabc9.jpg"
  },
  {
    "name": "ACHIEVEMENT_DLC_3_KILL_SETEKI",
    "defaultvalue": 0,
    "displayName": "And stay down!",
    "hidden": 0,
    "description": "Defeat the evil that lurks in the Pyramid",
    "icon": "https://steamcdn-a.akamaihd.net/steamcommunity/public/images/apps/312670/24c3d70fdba911acc63400db5510fb51593f85c5.jpg",
    "icongray": "https://steamcdn-a.akamaihd.net/steamcommunity/public/images/apps/312670/b96c52fc2eec2b765c1347cd2138e52f78924c58.jpg"
  },
  {
    "name": "ACHIEVEMENT_PHOTO_FIRST_TIME",
    "defaultvalue": 0,
    "displayName": "Snap Decision",
    "hidden": 0,
    "description": "Enter photo mode",
    "icon": "https://steamcdn-a.akamaihd.net/steamcommunity/public/images/apps/312670/7aaa241b273fffc75e211e016846dfe9c61d95f4.jpg",
    "icongray": "https://steamcdn-a.akamaihd.net/steamcommunity/public/images/apps/312670/81c34df37493a2ec18d89f5b9422450785553fc2.jpg"
  },
  {
    "name": "ACHIEVEMENT_PHOTO_PLAYER_PIC",
    "defaultvalue": 0,
    "displayName": "Portrait of an adventurer",
    "hidden": 0,
    "description": "Unhide the player and hide UI in a picture. Point camera at the player",
    "icon": "https://steamcdn-a.akamaihd.net/steamcommunity/public/images/apps/312670/7bca158a6b1e7b1f2e45ba08366dd7cc3cd48f07.jpg",
    "icongray": "https://steamcdn-a.akamaihd.net/steamcommunity/public/images/apps/312670/4cf5ba2c49b4fb851db23c6fe8a958c01834bd65.jpg"
  },
  {
    "name": "ACHIEVEMENT_EXTREME_LEVELS",
    "defaultvalue": 0,
    "displayName": "Definition of courage",
    "hidden": 0,
    "description": "Complete the game on Extreme difficulty",
    "icon": "https://steamcdn-a.akamaihd.net/steamcommunity/public/images/apps/312670/5160f2390276d8e6bbbadce69d7c8d66d2ee6019.jpg",
    "icongray": "https://steamcdn-a.akamaihd.net/steamcommunity/public/images/apps/312670/96520230c6aa7c0261b11f8dc9b8d6115692bd04.jpg"
  }
]