﻿[
  {
    "name": "HL2_HIT_CANCOP_WITHCAN",
    "defaultvalue": 0,
    "displayName": "Defiant",
    "hidden": 1,
    "icon": "https://steamcdn-a.akamaihd.net/steamcommunity/public/images/apps/220/hl2_hit_cancop_withcan.jpg",
    "icongray": "https://steamcdn-a.akamaihd.net/steamcommunity/public/images/apps/220/hl2_hit_cancop_withcan_bw.jpg"
  },
  {
    "name": "HL2_PUT_CANINTRASH",
    "defaultvalue": 0,
    "displayName": "Submissive",
    "hidden": 1,
    "icon": "https://steamcdn-a.akamaihd.net/steamcommunity/public/images/apps/220/hl2_put_canintrash.jpg",
    "icongray": "https://steamcdn-a.akamaihd.net/steamcommunity/public/images/apps/220/hl2_put_canintrash_bw.jpg"
  },
  {
    "name": "HL2_ESCAPE_APARTMENTRAID",
    "defaultvalue": 0,
    "displayName": "Malcontent",
    "hidden": 0,
    "description": "Escape the apartment block raid.",
    "icon": "https://steamcdn-a.akamaihd.net/steamcommunity/public/images/apps/220/hl2_escape_apartmentraid.jpg",
    "icongray": "https://steamcdn-a.akamaihd.net/steamcommunity/public/images/apps/220/hl2_escape_apartmentraid_bw.jpg"
  },
  {
    "name": "HL2_BREAK_MINITELEPORTER",
    "defaultvalue": 0,
    "displayName": "What cat?",
    "hidden": 0,
    "description": "Break the mini-teleporter in Kleiner's lab.",
    "icon": "https://steamcdn-a.akamaihd.net/steamcommunity/public/images/apps/220/hl2_break_miniteleporter.jpg",
    "icongray": "https://steamcdn-a.akamaihd.net/steamcommunity/public/images/apps/220/hl2_break_miniteleporter_bw.jpg"
  },
  {
    "name": "HL2_GET_CROWBAR",
    "defaultvalue": 0,
    "displayName": "Trusty Hardware",
    "hidden": 0,
    "description": "Get the crowbar.",
    "icon": "https://steamcdn-a.akamaihd.net/steamcommunity/public/images/apps/220/hl2_get_crowbar.jpg",
    "icongray": "https://steamcdn-a.akamaihd.net/steamcommunity/public/images/apps/220/hl2_get_crowbar_bw.jpg"
  },
  {
    "name": "HL2_KILL_BARNACLESWITHBARREL",
    "defaultvalue": 0,
    "displayName": "Barnacle Bowling",
    "hidden": 0,
    "description": "Kill five barnacles with one barrel.",
    "icon": "https://steamcdn-a.akamaihd.net/steamcommunity/public/images/apps/220/hl2_kill_barnacleswithbarrel.jpg",
    "icongray": "https://steamcdn-a.akamaihd.net/steamcommunity/public/images/apps/220/hl2_kill_barnacleswithbarrel_bw.jpg"
  },
  {
    "name": "HL2_GET_AIRBOAT",
    "defaultvalue": 0,
    "displayName": "Anchor's Aweigh!",
    "hidden": 0,
    "description": "Get the airboat.",
    "icon": "https://steamcdn-a.akamaihd.net/steamcommunity/public/images/apps/220/hl2_get_airboat.jpg",
    "icongray": "https://steamcdn-a.akamaihd.net/steamcommunity/public/images/apps/220/hl2_get_airboat_bw.jpg"
  },
  {
    "name": "HL2_GET_AIRBOATGUN",
    "defaultvalue": 0,
    "displayName": "Heavy Weapons",
    "hidden": 0,
    "description": "Get the airboat's mounted gun.",
    "icon": "https://steamcdn-a.akamaihd.net/steamcommunity/public/images/apps/220/hl2_get_airboatgun.jpg",
    "icongray": "https://steamcdn-a.akamaihd.net/steamcommunity/public/images/apps/220/hl2_get_airboatgun_bw.jpg"
  },
  {
    "name": "HL2_FIND_VORTIGAUNTCAVE",
    "defaultvalue": 0,
    "displayName": "Vorticough",
    "hidden": 0,
    "description": "Discover the hidden singing vortigaunt cave in chapter Water Hazard.",
    "icon": "https://steamcdn-a.akamaihd.net/steamcommunity/public/images/apps/220/hl2_find_vortigauntcave.jpg",
    "icongray": "https://steamcdn-a.akamaihd.net/steamcommunity/public/images/apps/220/hl2_find_vortigauntcave_bw.jpg"
  },
  {
    "name": "HL2_KILL_CHOPPER",
    "defaultvalue": 0,
    "displayName": "Revenge!",
    "hidden": 0,
    "description": "Destroy the hunter-chopper in Half-Life 2.",
    "icon": "https://steamcdn-a.akamaihd.net/steamcommunity/public/images/apps/220/hl2_kill_chopper.jpg",
    "icongray": "https://steamcdn-a.akamaihd.net/steamcommunity/public/images/apps/220/hl2_kill_chopper_bw.jpg"
  },
  {
    "name": "HL2_FIND_HEVFACEPLATE",
    "defaultvalue": 0,
    "displayName": "Blast from the Past",
    "hidden": 0,
    "description": "Find the HEV Suit Charger faceplate in Eli's scrapyard.",
    "icon": "https://steamcdn-a.akamaihd.net/steamcommunity/public/images/apps/220/hl2_find_hevfaceplate.jpg",
    "icongray": "https://steamcdn-a.akamaihd.net/steamcommunity/public/images/apps/220/hl2_find_hevfaceplate_bw.jpg"
  },
  {
    "name": "HL2_GET_GRAVITYGUN",
    "defaultvalue": 0,
    "displayName": "Zero-Point Energy",
    "hidden": 0,
    "description": "Get the Gravity Gun in Black Mesa East.",
    "icon": "https://steamcdn-a.akamaihd.net/steamcommunity/public/images/apps/220/hl2_get_gravitygun.jpg",
    "icongray": "https://steamcdn-a.akamaihd.net/steamcommunity/public/images/apps/220/hl2_get_gravitygun_bw.jpg"
  },
  {
    "name": "HL2_MAKEABASKET",
    "defaultvalue": 0,
    "displayName": "Two Points",
    "hidden": 0,
    "description": "Use DOG's ball to make a basket in Eli's scrapyard.",
    "icon": "https://steamcdn-a.akamaihd.net/steamcommunity/public/images/apps/220/hl2_makeabasket.jpg",
    "icongray": "https://steamcdn-a.akamaihd.net/steamcommunity/public/images/apps/220/hl2_makeabasket_bw.jpg"
  },
  {
    "name": "HL2_BEAT_RAVENHOLM_NOWEAPONS",
    "defaultvalue": 0,
    "displayName": "Zombie Chopper",
    "hidden": 0,
    "description": "Play through Ravenholm using only the Gravity Gun.",
    "icon": "https://steamcdn-a.akamaihd.net/steamcommunity/public/images/apps/220/hl2_beat_ravenholm_noweapons.jpg",
    "icongray": "https://steamcdn-a.akamaihd.net/steamcommunity/public/images/apps/220/hl2_beat_ravenholm_noweapons_bw.jpg"
  },
  {
    "name": "HL2_BEAT_CEMETERY",
    "defaultvalue": 0,
    "displayName": "Hallowed Ground",
    "hidden": 1,
    "icon": "https://steamcdn-a.akamaihd.net/steamcommunity/public/images/apps/220/hl2_beat_cemetery.jpg",
    "icongray": "https://steamcdn-a.akamaihd.net/steamcommunity/public/images/apps/220/hl2_beat_cemetery_bw.jpg"
  },
  {
    "name": "HL2_KILL_ENEMIES_WITHCRANE",
    "defaultvalue": 0,
    "displayName": "OSHA Violation",
    "hidden": 0,
    "description": "Kill 3 enemies using the crane.",
    "icon": "https://steamcdn-a.akamaihd.net/steamcommunity/public/images/apps/220/hl2_kill_enemies_withcrane.jpg",
    "icongray": "https://steamcdn-a.akamaihd.net/steamcommunity/public/images/apps/220/hl2_kill_enemies_withcrane_bw.jpg"
  },
  {
    "name": "HL2_PIN_SOLDIER_TOBILLBOARD",
    "defaultvalue": 0,
    "displayName": "Targetted Advertising",
    "hidden": 0,
    "description": "Pin a soldier to the billboard in chapter Highway 17.",
    "icon": "https://steamcdn-a.akamaihd.net/steamcommunity/public/images/apps/220/hl2_pin_soldier_tobillboard.jpg",
    "icongray": "https://steamcdn-a.akamaihd.net/steamcommunity/public/images/apps/220/hl2_pin_soldier_tobillboard_bw.jpg"
  },
  {
    "name": "HL2_KILL_ODESSAGUNSHIP",
    "defaultvalue": 0,
    "displayName": "Where Cubbage Fears to Tread",
    "hidden": 1,
    "icon": "https://steamcdn-a.akamaihd.net/steamcommunity/public/images/apps/220/hl2_kill_odessagunship.jpg",
    "icongray": "https://steamcdn-a.akamaihd.net/steamcommunity/public/images/apps/220/hl2_kill_odessagunship_bw.jpg"
  },
  {
    "name": "HL2_KILL_THREEGUNSHIPS",
    "defaultvalue": 0,
    "displayName": "One Man Army",
    "hidden": 0,
    "description": "Destroy six gunships in Half-Life 2.",
    "icon": "https://steamcdn-a.akamaihd.net/steamcommunity/public/images/apps/220/hl2_kill_threegunships.jpg",
    "icongray": "https://steamcdn-a.akamaihd.net/steamcommunity/public/images/apps/220/hl2_kill_threegunships_bw.jpg"
  },
  {
    "name": "HL2_BEAT_DONTTOUCHSAND",
    "defaultvalue": 0,
    "displayName": "Keep Off the Sand!",
    "hidden": 0,
    "description": "Cross the antlion beach in chapter Sandtraps without touching the sand.",
    "icon": "https://steamcdn-a.akamaihd.net/steamcommunity/public/images/apps/220/hl2_beat_donttouchsand.jpg",
    "icongray": "https://steamcdn-a.akamaihd.net/steamcommunity/public/images/apps/220/hl2_beat_donttouchsand_bw.jpg"
  },
  {
    "name": "HL2_KILL_ENEMIES_WITHANTLIONS",
    "defaultvalue": 0,
    "displayName": "Bug Hunt",
    "hidden": 0,
    "description": "Use the antlions to kill 50 enemies.",
    "icon": "https://steamcdn-a.akamaihd.net/steamcommunity/public/images/apps/220/hl2_kill_enemies_withantlions.jpg",
    "icongray": "https://steamcdn-a.akamaihd.net/steamcommunity/public/images/apps/220/hl2_kill_enemies_withantlions_bw.jpg"
  },
  {
    "name": "HL2_KILL_ENEMY_WITHTOILET",
    "defaultvalue": 0,
    "displayName": "Flushed",
    "hidden": 0,
    "description": "Kill an enemy with a toilet.",
    "icon": "https://steamcdn-a.akamaihd.net/steamcommunity/public/images/apps/220/hl2_kill_enemy_withtoilet.jpg",
    "icongray": "https://steamcdn-a.akamaihd.net/steamcommunity/public/images/apps/220/hl2_kill_enemy_withtoilet_bw.jpg"
  },
  {
    "name": "HL2_BEAT_TURRETSTANDOFF2",
    "defaultvalue": 0,
    "displayName": "Warden Freeman",
    "hidden": 0,
    "description": "Survive the second turret standoff in Nova Prospekt.",
    "icon": "https://steamcdn-a.akamaihd.net/steamcommunity/public/images/apps/220/hl2_beat_turretstandoff2.jpg",
    "icongray": "https://steamcdn-a.akamaihd.net/steamcommunity/public/images/apps/220/hl2_beat_turretstandoff2_bw.jpg"
  },
  {
    "name": "HL2_FOLLOWFREEMAN",
    "defaultvalue": 0,
    "displayName": "Follow Freeman",
    "hidden": 0,
    "description": "Gain command of a squad of rebels in the uprising.",
    "icon": "https://steamcdn-a.akamaihd.net/steamcommunity/public/images/apps/220/hl2_followfreeman.jpg",
    "icongray": "https://steamcdn-a.akamaihd.net/steamcommunity/public/images/apps/220/hl2_followfreeman_bw.jpg"
  },
  {
    "name": "HL2_BEAT_TOXICTUNNEL",
    "defaultvalue": 0,
    "displayName": "Radiation Levels Detected",
    "hidden": 0,
    "description": "Get through the toxic tunnel under City 17 in Half-Life 2.",
    "icon": "https://steamcdn-a.akamaihd.net/steamcommunity/public/images/apps/220/hl2_beat_toxictunnel.jpg",
    "icongray": "https://steamcdn-a.akamaihd.net/steamcommunity/public/images/apps/220/hl2_beat_toxictunnel_bw.jpg"
  },
  {
    "name": "HL2_BEAT_PLAZASTANDOFF",
    "defaultvalue": 0,
    "displayName": "Plaza Defender",
    "hidden": 0,
    "description": "Survive the generator plaza standoff in chapter Anticitizen One.",
    "icon": "https://steamcdn-a.akamaihd.net/steamcommunity/public/images/apps/220/hl2_beat_plazastandoff.jpg",
    "icongray": "https://steamcdn-a.akamaihd.net/steamcommunity/public/images/apps/220/hl2_beat_plazastandoff_bw.jpg"
  },
  {
    "name": "HL2_KILL_ALLC1709SNIPERS",
    "defaultvalue": 0,
    "displayName": "Counter-Sniper",
    "hidden": 0,
    "description": "Kill all of the snipers in City 17.",
    "icon": "https://steamcdn-a.akamaihd.net/steamcommunity/public/images/apps/220/hl2_kill_allc1709snipers.jpg",
    "icongray": "https://steamcdn-a.akamaihd.net/steamcommunity/public/images/apps/220/hl2_kill_allc1709snipers_bw.jpg"
  },
  {
    "name": "HL2_BEAT_SUPRESSIONDEVICE",
    "defaultvalue": 0,
    "displayName": "Fight the Power",
    "hidden": 0,
    "description": "Shut down the supression device by disabling its generators.",
    "icon": "https://steamcdn-a.akamaihd.net/steamcommunity/public/images/apps/220/hl2_beat_supressiondevice.jpg",
    "icongray": "https://steamcdn-a.akamaihd.net/steamcommunity/public/images/apps/220/hl2_beat_supressiondevice_bw.jpg"
  },
  {
    "name": "HL2_BEAT_C1713STRIDERSTANDOFF",
    "defaultvalue": 0,
    "displayName": "Giant Killer",
    "hidden": 0,
    "description": "Survive the rooftop strider battle in the ruins of City 17.",
    "icon": "https://steamcdn-a.akamaihd.net/steamcommunity/public/images/apps/220/hl2_beat_c1713striderstandoff.jpg",
    "icongray": "https://steamcdn-a.akamaihd.net/steamcommunity/public/images/apps/220/hl2_beat_c1713striderstandoff_bw.jpg"
  },
  {
    "name": "HL2_DISINTEGRATE_SOLDIERSINFIELD",
    "defaultvalue": 0,
    "displayName": "Atomizer",
    "hidden": 0,
    "description": "Disintegrate 15 soldiers by throwing them into a Combine ball field.",
    "icon": "https://steamcdn-a.akamaihd.net/steamcommunity/public/images/apps/220/hl2_disintegrate_soldiersinfield.jpg",
    "icongray": "https://steamcdn-a.akamaihd.net/steamcommunity/public/images/apps/220/hl2_disintegrate_soldiersinfield_bw.jpg"
  },
  {
    "name": "HL2_BEAT_GAME",
    "defaultvalue": 0,
    "displayName": "Singularity Collapse",
    "hidden": 1,
    "icon": "https://steamcdn-a.akamaihd.net/steamcommunity/public/images/apps/220/hl2_beat_game.jpg",
    "icongray": "https://steamcdn-a.akamaihd.net/steamcommunity/public/images/apps/220/hl2_beat_game_bw.jpg"
  },
  {
    "name": "HL2_FIND_ALLLAMBDAS",
    "defaultvalue": 0,
    "displayName": "Lambda Locator",
    "hidden": 0,
    "description": "Find all lambda caches in Half-Life 2.",
    "icon": "https://steamcdn-a.akamaihd.net/steamcommunity/public/images/apps/220/hl2_find_alllambdas.jpg",
    "icongray": "https://steamcdn-a.akamaihd.net/steamcommunity/public/images/apps/220/hl2_find_alllambdas_bw.jpg"
  },
  {
    "name": "HLX_KILL_ENEMIES_WITHMANHACK",
    "defaultvalue": 0,
    "displayName": "Hack Attack!",
    "hidden": 0,
    "description": "Kill five enemies with a Manhack.",
    "icon": "https://steamcdn-a.akamaihd.net/steamcommunity/public/images/apps/220/hlx_kill_enemies_withmanhack.jpg",
    "icongray": "https://steamcdn-a.akamaihd.net/steamcommunity/public/images/apps/220/hlx_kill_enemies_withmanhack_bw.jpg"
  }
]