﻿{
  "Dlcs": {},
  "Name": "The Prism",
  "AppId": "399420",
  "ImageUrl": "https://steamcdn-a.akamaihd.net/steam/apps/399420/header.jpg?t=1451714085",
  "Languages": [
    "english"
  ],
  "Platforms": {
    "windows": true,
    "mac": false,
    "linux": false
  }
}