﻿{
  "Dlcs": {
    "1251730": {
      "Name": "Heroes of Civilizations - Supporter Pack",
      "ImageUrl": "https://steamcdn-a.akamaihd.net/steam/apps/1251730/header.jpg?t=1582201618"
    }
  },
  "Name": "Heroes of Civilizations",
  "AppId": "676490",
  "ImageUrl": "https://steamcdn-a.akamaihd.net/steam/apps/676490/header.jpg?t=1581896320",
  "Languages": [
    "english",
    "french",
    "italian",
    "german",
    "spanish",
    "portuguese"
  ],
  "Platforms": {
    "windows": true,
    "mac": false,
    "linux": false
  }
}