﻿{
  "Dlcs": {},
  "Name": "Aces High III",
  "AppId": "651090",
  "ImageUrl": "https://steamcdn-a.akamaihd.net/steam/apps/651090/header.jpg?t=1544740113",
  "Languages": [
    "english"
  ],
  "Platforms": {
    "windows": true,
    "mac": false,
    "linux": false
  }
}