﻿[
  {
    "name": "ACH_1000_SMASHES",
    "defaultvalue": 0,
    "displayName": "Smashtastic",
    "hidden": 0,
    "description": "1000 Smashes Given",
    "icon": "https://steamcdn-a.akamaihd.net/steamcommunity/public/images/apps/468650/4a0c6c72d4141b71bc59e1ed07ea2926e1a70020.jpg",
    "icongray": "https://steamcdn-a.akamaihd.net/steamcommunity/public/images/apps/468650/54dec7f38b6994e007e06f040c29c30927f87e65.jpg"
  },
  {
    "name": "ACH_100_DODOCO",
    "defaultvalue": 0,
    "displayName": "Accident Prone",
    "hidden": 0,
    "description": "100 Dodoco workers defeated",
    "icon": "https://steamcdn-a.akamaihd.net/steamcommunity/public/images/apps/468650/f50564c32c66857a006056a1818a097edb4c9f7f.jpg",
    "icongray": "https://steamcdn-a.akamaihd.net/steamcommunity/public/images/apps/468650/3737f95c3bd3992911566c855f33c0deafaf793a.jpg"
  },
  {
    "name": "ACH_100_COMBO",
    "defaultvalue": 0,
    "displayName": "Combo King",
    "hidden": 0,
    "description": "100 Hit Combo Achieved",
    "icon": "https://steamcdn-a.akamaihd.net/steamcommunity/public/images/apps/468650/0f9b083d53c1b756acff511ffbef6007f56b8a4f.jpg",
    "icongray": "https://steamcdn-a.akamaihd.net/steamcommunity/public/images/apps/468650/9285f53f8ce47501d021ba7eab790a31554d0294.jpg"
  },
  {
    "name": "ACH_50_WALL",
    "defaultvalue": 0,
    "displayName": "Nuggest to the wall",
    "hidden": 0,
    "description": "50 Wall Smashed",
    "icon": "https://steamcdn-a.akamaihd.net/steamcommunity/public/images/apps/468650/503158b189d8ef6604231aa97fa2d62e2cae1da7.jpg",
    "icongray": "https://steamcdn-a.akamaihd.net/steamcommunity/public/images/apps/468650/5e1a532d469dfe4a143e494b2cda64f5ca58388a.jpg"
  },
  {
    "name": "ACH_BOSSP",
    "defaultvalue": 0,
    "displayName": "Boss P Pulverized",
    "hidden": 0,
    "description": "50 Hit Combo during Boss P Battle",
    "icon": "https://steamcdn-a.akamaihd.net/steamcommunity/public/images/apps/468650/3b7c4c7756b2660e75f5abb092e7dd56cdfbe2f1.jpg",
    "icongray": "https://steamcdn-a.akamaihd.net/steamcommunity/public/images/apps/468650/5d334408ea346f6417712efcf2b2a8f54166ec25.jpg"
  },
  {
    "name": "ACH_SUPERVISOR",
    "defaultvalue": 0,
    "displayName": "Fapjack Flopped Out",
    "hidden": 0,
    "description": "50 Hit Combo during Fapjack Battle",
    "icon": "https://steamcdn-a.akamaihd.net/steamcommunity/public/images/apps/468650/0e9892f7be2e73817092e4cfc65a5ec1410b8435.jpg",
    "icongray": "https://steamcdn-a.akamaihd.net/steamcommunity/public/images/apps/468650/37c757817966d3170a16ca6f87c9f28dcd39f942.jpg"
  },
  {
    "name": "ACH_GG",
    "defaultvalue": 0,
    "displayName": "Gorilla Gripped",
    "hidden": 0,
    "description": "50 Hit Combo during the first Gorilla Grip Battle",
    "icon": "https://steamcdn-a.akamaihd.net/steamcommunity/public/images/apps/468650/e084781ab1eb64d6fa78918b354ac24ba82dc8ec.jpg",
    "icongray": "https://steamcdn-a.akamaihd.net/steamcommunity/public/images/apps/468650/45a3dea893f1c67d8be4902f977ccc3b71db6aa6.jpg"
  },
  {
    "name": "ACH_PERFECT_RUN",
    "defaultvalue": 0,
    "displayName": "Perfect Run",
    "hidden": 0,
    "description": "Make it through a stage with full health bar",
    "icon": "https://steamcdn-a.akamaihd.net/steamcommunity/public/images/apps/468650/c58b5446a79ea330a60361e84e03ec4e75ec3257.jpg",
    "icongray": "https://steamcdn-a.akamaihd.net/steamcommunity/public/images/apps/468650/3a9816cffab6fbdb5a36dff2e9a71f1e4018258a.jpg"
  },
  {
    "name": "ACH_SHOP_A_HOLIC",
    "defaultvalue": 0,
    "displayName": "Shop-A-Holic",
    "hidden": 0,
    "description": "Buy all moves and perks",
    "icon": "https://steamcdn-a.akamaihd.net/steamcommunity/public/images/apps/468650/06f00a7b50a7fc7b14c240352a39a1a13c704167.jpg",
    "icongray": "https://steamcdn-a.akamaihd.net/steamcommunity/public/images/apps/468650/f0819f4b63f759ddbfe1adb1b23e29f5875c600a.jpg"
  },
  {
    "name": "ACH_50_CRATES",
    "defaultvalue": 0,
    "displayName": "Slap Box",
    "hidden": 0,
    "description": "50 Crates Smashed",
    "icon": "https://steamcdn-a.akamaihd.net/steamcommunity/public/images/apps/468650/2059d865eade07feb14ea4365e9f470ae68602df.jpg",
    "icongray": "https://steamcdn-a.akamaihd.net/steamcommunity/public/images/apps/468650/b91e16a089a78e395ebe0a06cb4717b2c975eb6b.jpg"
  },
  {
    "name": "ACH_STICKERS",
    "defaultvalue": 0,
    "displayName": "Sticker Head",
    "hidden": 0,
    "description": "Collect all stickers in game",
    "icon": "https://steamcdn-a.akamaihd.net/steamcommunity/public/images/apps/468650/39879e315a59178a358f0d76ba081c26d54024f8.jpg",
    "icongray": "https://steamcdn-a.akamaihd.net/steamcommunity/public/images/apps/468650/310550f1808dabab7fe0cf947c275dc63b096340.jpg"
  },
  {
    "name": "ACH_GET_HIRED",
    "defaultvalue": 0,
    "displayName": "Get Hired!",
    "hidden": 0,
    "description": "Complete 1st Stage",
    "icon": "https://steamcdn-a.akamaihd.net/steamcommunity/public/images/apps/468650/d17d1b26c39565b89700440579e1b60976498cf5.jpg",
    "icongray": "https://steamcdn-a.akamaihd.net/steamcommunity/public/images/apps/468650/6276c744843b68aa9829fc03a2c615dfa081a517.jpg"
  },
  {
    "name": "ACH_COMPLETE_GAME",
    "defaultvalue": 0,
    "displayName": "Get Fired! Severance Check Get!",
    "hidden": 0,
    "description": "Complete the game",
    "icon": "https://steamcdn-a.akamaihd.net/steamcommunity/public/images/apps/468650/3544ed0ff53781d9cb8ba53cdd160e995a87ef33.jpg",
    "icongray": "https://steamcdn-a.akamaihd.net/steamcommunity/public/images/apps/468650/bcd9a75157adc7ec45f87f5aa47468f122fb9ba3.jpg"
  },
  {
    "name": "ACH_HEALTH_PICKUP",
    "defaultvalue": 0,
    "displayName": "Fruit Finder",
    "hidden": 0,
    "description": "Consume one of each of the health pick up",
    "icon": "https://steamcdn-a.akamaihd.net/steamcommunity/public/images/apps/468650/0b7081bd44c59e9525c4de9035b52e9108c491a9.jpg",
    "icongray": "https://steamcdn-a.akamaihd.net/steamcommunity/public/images/apps/468650/2e37e9756efe000ae146196b1d03b2dd5afda261.jpg"
  },
  {
    "name": "ACH_PLATINUM",
    "defaultvalue": 0,
    "displayName": "Go Platinum",
    "hidden": 0,
    "description": "Get highest rating on every stage",
    "icon": "https://steamcdn-a.akamaihd.net/steamcommunity/public/images/apps/468650/40a176b2186153fc6b960e4381e98c5ee21657f5.jpg",
    "icongray": "https://steamcdn-a.akamaihd.net/steamcommunity/public/images/apps/468650/701c6fcdb0684d2ca0f93b08e1cc1abb32e398b5.jpg"
  },
  {
    "name": "ACH_BACK_SMASH",
    "defaultvalue": 0,
    "displayName": "Fanny Twister",
    "hidden": 0,
    "description": "100 Back Smashes Delivered",
    "icon": "https://steamcdn-a.akamaihd.net/steamcommunity/public/images/apps/468650/80dbf00eb22a684f1e60c9c55b3ce569845c5a79.jpg",
    "icongray": "https://steamcdn-a.akamaihd.net/steamcommunity/public/images/apps/468650/dbf0cd41a1e4f5ab580fc5eb0da794bb130a88db.jpg"
  },
  {
    "name": "ACH_PARRY",
    "defaultvalue": 0,
    "displayName": "Reversal Riot",
    "hidden": 0,
    "description": "Parry 50 Attacks",
    "icon": "https://steamcdn-a.akamaihd.net/steamcommunity/public/images/apps/468650/8acc96d5a6e6f2a6be38cd6588b84d048ab61de0.jpg",
    "icongray": "https://steamcdn-a.akamaihd.net/steamcommunity/public/images/apps/468650/4d24943ea0877d0852bd38531311a7caad2802e8.jpg"
  },
  {
    "name": "ACH_FIREBALL",
    "defaultvalue": 0,
    "displayName": "Fireball Fiend",
    "hidden": 0,
    "description": "50 Fireballs hit enemies",
    "icon": "https://steamcdn-a.akamaihd.net/steamcommunity/public/images/apps/468650/e0ea98e7acb94048a632d84569c4cf5cd2ec35c4.jpg",
    "icongray": "https://steamcdn-a.akamaihd.net/steamcommunity/public/images/apps/468650/9f27c1828c218104428114a1974588610a093817.jpg"
  },
  {
    "name": "ACH_UPPERCUT",
    "defaultvalue": 0,
    "displayName": "Up in Flames",
    "hidden": 0,
    "description": "100 Fire Uppercuts hit enemies",
    "icon": "https://steamcdn-a.akamaihd.net/steamcommunity/public/images/apps/468650/ad201a747edf27f0fca98c6015d25fea084a2ee7.jpg",
    "icongray": "https://steamcdn-a.akamaihd.net/steamcommunity/public/images/apps/468650/e5e28929ae992bb2283ca57f4813781e8825ac35.jpg"
  },
  {
    "name": "ACH_PERK",
    "defaultvalue": 0,
    "displayName": "Perk Perfection",
    "hidden": 0,
    "description": "Purchased every perk in the combo store",
    "icon": "https://steamcdn-a.akamaihd.net/steamcommunity/public/images/apps/468650/e7cc649cfea4bcdada0c4a7f257e5713eb0ca889.jpg",
    "icongray": "https://steamcdn-a.akamaihd.net/steamcommunity/public/images/apps/468650/4c3b8cec92665a1486b6997e026e2159643dbe39.jpg"
  }
]