﻿{
  "Dlcs": {
    "794000": {
      "Name": "Sphere III - Starter Pack",
      "ImageUrl": "https://steamcdn-a.akamaihd.net/steam/apps/794000/header.jpg?t=1590760591"
    },
    "794010": {
      "Name": "Sphere III - Premium Pack",
      "ImageUrl": "https://steamcdn-a.akamaihd.net/steam/apps/794010/header.jpg?t=1582112764"
    },
    "794020": {
      "Name": "Sphere III - Elite Pack",
      "ImageUrl": "https://steamcdn-a.akamaihd.net/steam/apps/794020/header.jpg?t=1582112091"
    }
  },
  "Name": "Sphere III: Rage of the Devastator",
  "AppId": "397040",
  "ImageUrl": "https://steamcdn-a.akamaihd.net/steam/apps/397040/header.jpg?t=1586171780",
  "Languages": [
    "english",
    "russian"
  ],
  "Platforms": {
    "windows": true,
    "mac": false,
    "linux": false
  }
}