﻿{
  "Dlcs": {},
  "Name": "Star Boss",
  "AppId": "519890",
  "ImageUrl": "https://steamcdn-a.akamaihd.net/steam/apps/519890/header.jpg?t=1580374884",
  "Languages": [
    "english"
  ],
  "Platforms": {
    "windows": true,
    "mac": false,
    "linux": false
  }
}