﻿{
  "Dlcs": {
    "741350": {
      "Name": "Titan Quest: Ragnarök",
      "ImageUrl": "https://steamcdn-a.akamaihd.net/steam/apps/741350/header.jpg?t=1544515370"
    },
    "1071200": {
      "Name": "Titan Quest: Atlantis",
      "ImageUrl": "https://steamcdn-a.akamaihd.net/steam/apps/1071200/header.jpg?t=1557424117"
    }
  },
  "Name": "Titan Quest Anniversary Edition",
  "AppId": "475150",
  "ImageUrl": "https://steamcdn-a.akamaihd.net/steam/apps/475150/header.jpg?t=1590128613",
  "Languages": [
    "english",
    "french",
    "italian",
    "german",
    "spanish",
    "czech",
    "polish",
    "russian",
    "japanese",
    "korean",
    "schinese",
    "ukrainian",
    "portuguese"
  ],
  "Platforms": {
    "windows": true,
    "mac": false,
    "linux": false
  }
}