﻿{
  "Dlcs": {},
  "Name": "Think of the Children",
  "AppId": "573600",
  "ImageUrl": "https://steamcdn-a.akamaihd.net/steam/apps/573600/header.jpg?t=1590500587",
  "Languages": [
    "english"
  ],
  "Platforms": {
    "windows": true,
    "mac": false,
    "linux": false
  }
}