﻿{
  "Dlcs": {
    "630300": {
      "Name": "Extra Life Backpack",
      "ImageUrl": "https://steamcdn-a.akamaihd.net/steam/apps/630300/header.jpg?t=1493754053"
    }
  },
  "Name": "Skull Ball Heroes",
  "AppId": "521330",
  "ImageUrl": "https://steamcdn-a.akamaihd.net/steam/apps/521330/header.jpg?t=1598556766",
  "Languages": [
    "english",
    "french",
    "italian",
    "german",
    "spanish",
    "arabic",
    "japanese",
    "korean",
    "polish",
    "portuguese",
    "russian",
    "schinese",
    "swedish",
    "ukrainian"
  ],
  "Platforms": {
    "windows": true,
    "mac": false,
    "linux": false
  }
}