﻿[
  {
    "name": "R5",
    "defaultvalue": 0,
    "displayName": "R5",
    "hidden": 0,
    "description": "pilot rating",
    "icon": "https://steamcdn-a.akamaihd.net/steamcommunity/public/images/apps/658570/51fd14c7a540ce56eccb396e6657cc7bd0a8940f.jpg",
    "icongray": "https://steamcdn-a.akamaihd.net/steamcommunity/public/images/apps/658570/36936d994211f12f3a7c42ce041af500d50dcb81.jpg"
  },
  {
    "name": "R10",
    "defaultvalue": 0,
    "displayName": "R10",
    "hidden": 0,
    "description": "pilot rating",
    "icon": "https://steamcdn-a.akamaihd.net/steamcommunity/public/images/apps/658570/911c5aae1db109becc83da3ab6019b8a941aa768.jpg",
    "icongray": "https://steamcdn-a.akamaihd.net/steamcommunity/public/images/apps/658570/c06420516f71dd5acceb51606f7cf5d48125280d.jpg"
  },
  {
    "name": "R20",
    "defaultvalue": 0,
    "displayName": "R20",
    "hidden": 0,
    "description": "pilot rating",
    "icon": "https://steamcdn-a.akamaihd.net/steamcommunity/public/images/apps/658570/71eb664e541c092bd235e5b8e4ec8ddc176add8a.jpg",
    "icongray": "https://steamcdn-a.akamaihd.net/steamcommunity/public/images/apps/658570/a0722db4bf6a2aa001bdb7d0103e948011218883.jpg"
  },
  {
    "name": "R25",
    "defaultvalue": 0,
    "displayName": "R25",
    "hidden": 0,
    "description": "pilot rating",
    "icon": "https://steamcdn-a.akamaihd.net/steamcommunity/public/images/apps/658570/36d3afef32494da1d84ae0b895d367de6ae6b772.jpg",
    "icongray": "https://steamcdn-a.akamaihd.net/steamcommunity/public/images/apps/658570/c20ef5c13f42500d43447cf45ce8313a758c537e.jpg"
  },
  {
    "name": "R30",
    "defaultvalue": 0,
    "displayName": "R30",
    "hidden": 0,
    "description": "pilot rating",
    "icon": "https://steamcdn-a.akamaihd.net/steamcommunity/public/images/apps/658570/fa85db8bb0a0204294e0f209d1368ca4266d31eb.jpg",
    "icongray": "https://steamcdn-a.akamaihd.net/steamcommunity/public/images/apps/658570/5ba422cccef325a6045ae33c79a3f665257fa298.jpg"
  },
  {
    "name": "R35",
    "defaultvalue": 0,
    "displayName": "R35",
    "hidden": 0,
    "description": "pilot rating",
    "icon": "https://steamcdn-a.akamaihd.net/steamcommunity/public/images/apps/658570/aa465d6bd2c788a2d0208bcadd1c8f1930582e63.jpg",
    "icongray": "https://steamcdn-a.akamaihd.net/steamcommunity/public/images/apps/658570/6c94820c214752a45345141e29b02dd7da8605c9.jpg"
  },
  {
    "name": "R40",
    "defaultvalue": 0,
    "displayName": "R40",
    "hidden": 0,
    "description": "pilot rating",
    "icon": "https://steamcdn-a.akamaihd.net/steamcommunity/public/images/apps/658570/2459284c6553885c2a7c1aa0a425db477c05df74.jpg",
    "icongray": "https://steamcdn-a.akamaihd.net/steamcommunity/public/images/apps/658570/b73f58c24b513e9df492afd646493212ca3dfd0d.jpg"
  },
  {
    "name": "R45",
    "defaultvalue": 0,
    "displayName": "R45",
    "hidden": 0,
    "description": "pilot rating",
    "icon": "https://steamcdn-a.akamaihd.net/steamcommunity/public/images/apps/658570/ebbfd4c80e11fe2d03e13f83c60a3ea52783bd2f.jpg",
    "icongray": "https://steamcdn-a.akamaihd.net/steamcommunity/public/images/apps/658570/25fa63e7744a77faeb374255dcbbfb1711b993f9.jpg"
  },
  {
    "name": "R50",
    "defaultvalue": 0,
    "displayName": "R50",
    "hidden": 0,
    "description": "pilot rating",
    "icon": "https://steamcdn-a.akamaihd.net/steamcommunity/public/images/apps/658570/a7d1a2b358a4a1c1eb1c73db337b22c6b574dc71.jpg",
    "icongray": "https://steamcdn-a.akamaihd.net/steamcommunity/public/images/apps/658570/6ae3731e0949a498784b57a1d3a5aa404be6e145.jpg"
  },
  {
    "name": "R60",
    "defaultvalue": 0,
    "displayName": "R60",
    "hidden": 0,
    "description": "pilot rating",
    "icon": "https://steamcdn-a.akamaihd.net/steamcommunity/public/images/apps/658570/3b205aad5263a4992ab5a1a54a22019777172168.jpg",
    "icongray": "https://steamcdn-a.akamaihd.net/steamcommunity/public/images/apps/658570/192bb9f2ab9a24c1ae00d567812f98b4908ba02e.jpg"
  },
  {
    "name": "R70",
    "defaultvalue": 0,
    "displayName": "R70",
    "hidden": 0,
    "description": "pilot rating",
    "icon": "https://steamcdn-a.akamaihd.net/steamcommunity/public/images/apps/658570/b26297600500dd53fbe6097976cc4ef2ed8c457e.jpg",
    "icongray": "https://steamcdn-a.akamaihd.net/steamcommunity/public/images/apps/658570/a1b16ba35eb70fe444ca9825a20e9857a136bb41.jpg"
  },
  {
    "name": "R80",
    "defaultvalue": 0,
    "displayName": "R80",
    "hidden": 0,
    "description": "pilot rating",
    "icon": "https://steamcdn-a.akamaihd.net/steamcommunity/public/images/apps/658570/e368d32abfa703938c737848181712879504dd81.jpg",
    "icongray": "https://steamcdn-a.akamaihd.net/steamcommunity/public/images/apps/658570/5ffbee5c5f8c0f407033d55c4b980b9e9b7f8d10.jpg"
  },
  {
    "name": "R90",
    "defaultvalue": 0,
    "displayName": "R90",
    "hidden": 0,
    "description": "pilot rating",
    "icon": "https://steamcdn-a.akamaihd.net/steamcommunity/public/images/apps/658570/2f1978ea1e02110ae3c1a50b0b4f63aceab38b76.jpg",
    "icongray": "https://steamcdn-a.akamaihd.net/steamcommunity/public/images/apps/658570/02f092ec939c005aceb921cf8ca9961b281f8437.jpg"
  },
  {
    "name": "R100",
    "defaultvalue": 0,
    "displayName": "R100",
    "hidden": 0,
    "description": "pilot rating",
    "icon": "https://steamcdn-a.akamaihd.net/steamcommunity/public/images/apps/658570/fa88ce388769843fb568210594bf5190f3005e97.jpg",
    "icongray": "https://steamcdn-a.akamaihd.net/steamcommunity/public/images/apps/658570/dabdb6c11855bcecf32d84682c0a6f92bad71970.jpg"
  },
  {
    "name": "R120",
    "defaultvalue": 0,
    "displayName": "R120",
    "hidden": 0,
    "description": "pilot rating",
    "icon": "https://steamcdn-a.akamaihd.net/steamcommunity/public/images/apps/658570/4cb9d49ff6c7ae5d510ba09cd96636483fddda76.jpg",
    "icongray": "https://steamcdn-a.akamaihd.net/steamcommunity/public/images/apps/658570/5704644d38000a0b1749c8dae3140eb48f0a5a61.jpg"
  },
  {
    "name": "R140",
    "defaultvalue": 0,
    "displayName": "R140",
    "hidden": 0,
    "description": "pilot rating",
    "icon": "https://steamcdn-a.akamaihd.net/steamcommunity/public/images/apps/658570/bd59623fbfd2ab55032bbe9484b4720804e033b1.jpg",
    "icongray": "https://steamcdn-a.akamaihd.net/steamcommunity/public/images/apps/658570/1417d6c7fee450c77a01b69770d873c607f668b8.jpg"
  },
  {
    "name": "R160",
    "defaultvalue": 0,
    "displayName": "R160",
    "hidden": 0,
    "description": "pilot rating",
    "icon": "https://steamcdn-a.akamaihd.net/steamcommunity/public/images/apps/658570/3e5618cc7562176af4e11d3dde3b38418060a8b9.jpg",
    "icongray": "https://steamcdn-a.akamaihd.net/steamcommunity/public/images/apps/658570/007c437ddf42f2c32c6d9412e4fc48684f6b7bcc.jpg"
  },
  {
    "name": "R180",
    "defaultvalue": 0,
    "displayName": "R180",
    "hidden": 0,
    "description": "pilot rating",
    "icon": "https://steamcdn-a.akamaihd.net/steamcommunity/public/images/apps/658570/2f954632a791502277fb98783afbdfe5012d09d7.jpg",
    "icongray": "https://steamcdn-a.akamaihd.net/steamcommunity/public/images/apps/658570/feb67fd04dd98005ae6909d44276be81f2ab897d.jpg"
  },
  {
    "name": "R200",
    "defaultvalue": 0,
    "displayName": "R200",
    "hidden": 0,
    "description": "pilot rating",
    "icon": "https://steamcdn-a.akamaihd.net/steamcommunity/public/images/apps/658570/3a2438adc2cfe9b59d62e06974ccc0b56fb7d244.jpg",
    "icongray": "https://steamcdn-a.akamaihd.net/steamcommunity/public/images/apps/658570/8f4473d9da94b068a192bd0cbb449b3fe83d13ca.jpg"
  },
  {
    "name": "R250",
    "defaultvalue": 0,
    "displayName": "R250",
    "hidden": 0,
    "description": "pilot rating",
    "icon": "https://steamcdn-a.akamaihd.net/steamcommunity/public/images/apps/658570/ee48ce9d03156ea0d5ecf545a3a3afe478e61cd2.jpg",
    "icongray": "https://steamcdn-a.akamaihd.net/steamcommunity/public/images/apps/658570/c560816a7ee2bf49546d7da791d1f59b901fe4f1.jpg"
  },
  {
    "name": "R300",
    "defaultvalue": 0,
    "displayName": "R300",
    "hidden": 0,
    "description": "pilot rating",
    "icon": "https://steamcdn-a.akamaihd.net/steamcommunity/public/images/apps/658570/4d41663e902a7bf79feaaeb2e7cbca0aa194bc57.jpg",
    "icongray": "https://steamcdn-a.akamaihd.net/steamcommunity/public/images/apps/658570/0a822ccffdce300ee9ce3461dff963b8fb752708.jpg"
  },
  {
    "name": "R350",
    "defaultvalue": 0,
    "displayName": "R350",
    "hidden": 0,
    "description": "pilot rating",
    "icon": "https://steamcdn-a.akamaihd.net/steamcommunity/public/images/apps/658570/5b67edc149ea18aa71c97a27ea5aa0e8e35f9e1c.jpg",
    "icongray": "https://steamcdn-a.akamaihd.net/steamcommunity/public/images/apps/658570/069d0dec79b7ad23a0e4f0eeb56da8dd09619df0.jpg"
  },
  {
    "name": "R400",
    "defaultvalue": 0,
    "displayName": "R400",
    "hidden": 0,
    "description": "pilot rating",
    "icon": "https://steamcdn-a.akamaihd.net/steamcommunity/public/images/apps/658570/e1ed1e2e6abdf7fe8fb4063304d9f96a0b7721c5.jpg",
    "icongray": "https://steamcdn-a.akamaihd.net/steamcommunity/public/images/apps/658570/741e49d3afe4a13a60f2b21cd1502d999aa82f49.jpg"
  },
  {
    "name": "R450",
    "defaultvalue": 0,
    "displayName": "R450",
    "hidden": 0,
    "description": "pilot rating",
    "icon": "https://steamcdn-a.akamaihd.net/steamcommunity/public/images/apps/658570/9db9b433f1431aa5f066317360809fdcf6d0335f.jpg",
    "icongray": "https://steamcdn-a.akamaihd.net/steamcommunity/public/images/apps/658570/5137fe1ec2c6dd7ff603d6c308eeb84563dc4696.jpg"
  },
  {
    "name": "R500",
    "defaultvalue": 0,
    "displayName": "R500",
    "hidden": 0,
    "description": "pilot rating",
    "icon": "https://steamcdn-a.akamaihd.net/steamcommunity/public/images/apps/658570/fea1a62135417c294b5a2d0e313bf899428ef765.jpg",
    "icongray": "https://steamcdn-a.akamaihd.net/steamcommunity/public/images/apps/658570/3dbcbfff89917b9147278bc43e8bd5659f55ebcd.jpg"
  },
  {
    "name": "C5",
    "defaultvalue": 0,
    "displayName": "5 CLIPPING POINTS",
    "hidden": 0,
    "description": "5 Clipping Points in one competition!",
    "icon": "https://steamcdn-a.akamaihd.net/steamcommunity/public/images/apps/658570/41eb2e289ff8ad8ed448982bf05dfae044fc2bb7.jpg",
    "icongray": "https://steamcdn-a.akamaihd.net/steamcommunity/public/images/apps/658570/9ade68a16c8ac520cf4898e3e781ba4dc3cea1e3.jpg"
  },
  {
    "name": "C10",
    "defaultvalue": 0,
    "displayName": "10 CLIPPING POINTS",
    "hidden": 0,
    "description": "10 Clipping Points in one competition!",
    "icon": "https://steamcdn-a.akamaihd.net/steamcommunity/public/images/apps/658570/13f3e5280ece9b296bb6426820715b9c0b9e3967.jpg",
    "icongray": "https://steamcdn-a.akamaihd.net/steamcommunity/public/images/apps/658570/9af04fdf4121aab74b7f513a7c87484e0eab4238.jpg"
  },
  {
    "name": "C15",
    "defaultvalue": 0,
    "displayName": "15 CLIPPING POINTS",
    "hidden": 0,
    "description": "15 Clipping Points in one competition!",
    "icon": "https://steamcdn-a.akamaihd.net/steamcommunity/public/images/apps/658570/1d731f907794e1e9f575c838dfed70204214a3b9.jpg",
    "icongray": "https://steamcdn-a.akamaihd.net/steamcommunity/public/images/apps/658570/43a95e13d3dfec8804c553a9284f20c3e8d7d5c6.jpg"
  },
  {
    "name": "C20",
    "defaultvalue": 0,
    "displayName": "20 CLIPPING POINTS",
    "hidden": 0,
    "description": "20 Clipping Points in one competition!",
    "icon": "https://steamcdn-a.akamaihd.net/steamcommunity/public/images/apps/658570/10db98b1f2fdb02d0cc1dfab8b93d6b94c016be6.jpg",
    "icongray": "https://steamcdn-a.akamaihd.net/steamcommunity/public/images/apps/658570/633eadc3ce605ef0e23505caafdf38835992a047.jpg"
  },
  {
    "name": "C25",
    "defaultvalue": 0,
    "displayName": "25 CLIPPING POINTS",
    "hidden": 0,
    "description": "25 Clipping Points in one competition!",
    "icon": "https://steamcdn-a.akamaihd.net/steamcommunity/public/images/apps/658570/77753e82d837d934fab3f786bf2e43a1cd008c20.jpg",
    "icongray": "https://steamcdn-a.akamaihd.net/steamcommunity/public/images/apps/658570/2b38d960d30c959d2636495b62a415fb8d6f8063.jpg"
  },
  {
    "name": "C30",
    "defaultvalue": 0,
    "displayName": "30 CLIPPING POINTS",
    "hidden": 0,
    "description": "30 Clipping Points in one competition!",
    "icon": "https://steamcdn-a.akamaihd.net/steamcommunity/public/images/apps/658570/309c53979f0bce06646bba048f5d9cfe1deb4457.jpg",
    "icongray": "https://steamcdn-a.akamaihd.net/steamcommunity/public/images/apps/658570/644a7b525b5176374647d07b398f65421f2ddf31.jpg"
  },
  {
    "name": "C35",
    "defaultvalue": 0,
    "displayName": "35 CLIPPING POINTS",
    "hidden": 0,
    "description": "35 Clipping Points in one competition!",
    "icon": "https://steamcdn-a.akamaihd.net/steamcommunity/public/images/apps/658570/ef2eeeaba3b0b93f56fab07f266bb2b0db2d6340.jpg",
    "icongray": "https://steamcdn-a.akamaihd.net/steamcommunity/public/images/apps/658570/9d8cef2c8d760e92e2f3aa22d74a1447fdf4599c.jpg"
  },
  {
    "name": "C40",
    "defaultvalue": 0,
    "displayName": "40 CLIPPING POINTS",
    "hidden": 0,
    "description": "40 Clipping Points in one competition!",
    "icon": "https://steamcdn-a.akamaihd.net/steamcommunity/public/images/apps/658570/8d633474d183905608ebc044b3807c2ce150f904.jpg",
    "icongray": "https://steamcdn-a.akamaihd.net/steamcommunity/public/images/apps/658570/e42da903f7ad0966942791d716a3378ff337e35e.jpg"
  },
  {
    "name": "C45",
    "defaultvalue": 0,
    "displayName": "45 CLIPPING POINTS",
    "hidden": 0,
    "description": "45 Clipping Points in one competition!",
    "icon": "https://steamcdn-a.akamaihd.net/steamcommunity/public/images/apps/658570/93316c23f725aac783a4e92a1a2b460df744a9a0.jpg",
    "icongray": "https://steamcdn-a.akamaihd.net/steamcommunity/public/images/apps/658570/b9a7fc08c5c2b4910ffecd511e43cb66d5204628.jpg"
  },
  {
    "name": "C50",
    "defaultvalue": 0,
    "displayName": "50 CLIPPING POINTS",
    "hidden": 0,
    "description": "50 Clipping Points in one competition!",
    "icon": "https://steamcdn-a.akamaihd.net/steamcommunity/public/images/apps/658570/f04801fd64ddd2f57214a48f136098b11fad2139.jpg",
    "icongray": "https://steamcdn-a.akamaihd.net/steamcommunity/public/images/apps/658570/5a107eb39bd644b5e9eaca115f187a753784e75b.jpg"
  },
  {
    "name": "C55",
    "defaultvalue": 0,
    "displayName": "55 CLIPPING POINTS",
    "hidden": 0,
    "description": "55 Clipping Points in one competition!",
    "icon": "https://steamcdn-a.akamaihd.net/steamcommunity/public/images/apps/658570/e3ea2848a4a594a93d875f45bdb3806e31b9be1b.jpg",
    "icongray": "https://steamcdn-a.akamaihd.net/steamcommunity/public/images/apps/658570/479d572b28fcc15fef50c1e8a0b0e8b92bf91033.jpg"
  },
  {
    "name": "C60",
    "defaultvalue": 0,
    "displayName": "60 CLIPPING POINTS",
    "hidden": 0,
    "description": "60 Clipping Points in one competition!",
    "icon": "https://steamcdn-a.akamaihd.net/steamcommunity/public/images/apps/658570/8ab609a5f993a4325ca4416bbf7121af8f8ec5fd.jpg",
    "icongray": "https://steamcdn-a.akamaihd.net/steamcommunity/public/images/apps/658570/99dbec01ca14f3761edf2b8431d265777a8b0a1d.jpg"
  },
  {
    "name": "P500",
    "defaultvalue": 0,
    "displayName": "INITIAL DRIFT!",
    "hidden": 0,
    "description": "500 PTS!",
    "icon": "https://steamcdn-a.akamaihd.net/steamcommunity/public/images/apps/658570/059e95bdefbc17d06598b11357fbf69472df999c.jpg",
    "icongray": "https://steamcdn-a.akamaihd.net/steamcommunity/public/images/apps/658570/58f2cc52c4bdd21b0d9dc0bcb4ea176e26b0ba76.jpg"
  },
  {
    "name": "P1000",
    "defaultvalue": 0,
    "displayName": "IMPRESSIVE DRIFT!",
    "hidden": 0,
    "description": "1,000 PTS!",
    "icon": "https://steamcdn-a.akamaihd.net/steamcommunity/public/images/apps/658570/656fccb02cb9883dd33816f61dad7c1b22ec2704.jpg",
    "icongray": "https://steamcdn-a.akamaihd.net/steamcommunity/public/images/apps/658570/cf7679ecdd6071179479857455b71478351dd244.jpg"
  },
  {
    "name": "P1500",
    "defaultvalue": 0,
    "displayName": "EXCELLENT DRIFT!",
    "hidden": 0,
    "description": "1,500 PTS!",
    "icon": "https://steamcdn-a.akamaihd.net/steamcommunity/public/images/apps/658570/6b26d707160fbfcf14a46b7b48a1c28c13f2d4f3.jpg",
    "icongray": "https://steamcdn-a.akamaihd.net/steamcommunity/public/images/apps/658570/76b2f05ddcef57fa73a3663a3e54e167378c112e.jpg"
  },
  {
    "name": "P2500",
    "defaultvalue": 0,
    "displayName": "SHOCKING DRIFT!",
    "hidden": 0,
    "description": "2,500 PTS!",
    "icon": "https://steamcdn-a.akamaihd.net/steamcommunity/public/images/apps/658570/2d81e7edb1ad22589104f9bfca76a22a0810d4e1.jpg",
    "icongray": "https://steamcdn-a.akamaihd.net/steamcommunity/public/images/apps/658570/f23977e16a34eb65b62355b985cfaabbe55cbf36.jpg"
  },
  {
    "name": "P4000",
    "defaultvalue": 0,
    "displayName": "IMPOSING DRIFT!",
    "hidden": 0,
    "description": "4,000 PTS!",
    "icon": "https://steamcdn-a.akamaihd.net/steamcommunity/public/images/apps/658570/cfae9917fc6882f02b9a2a4f8842031f2937f043.jpg",
    "icongray": "https://steamcdn-a.akamaihd.net/steamcommunity/public/images/apps/658570/40da4d6fc38f3a6c68bc6e1846d689b4b4f700a5.jpg"
  },
  {
    "name": "P6000",
    "defaultvalue": 0,
    "displayName": "EXTREMELY DRIFT!",
    "hidden": 0,
    "description": "6,000 PTS!",
    "icon": "https://steamcdn-a.akamaihd.net/steamcommunity/public/images/apps/658570/43224c8035d2e1f192bbfcae04f578c215e92562.jpg",
    "icongray": "https://steamcdn-a.akamaihd.net/steamcommunity/public/images/apps/658570/39f9c56f3251e5b06871463bbac41eda39a91177.jpg"
  },
  {
    "name": "P8000",
    "defaultvalue": 0,
    "displayName": "INCREDIBLE DRIFT!",
    "hidden": 0,
    "description": "8,000 PTS!",
    "icon": "https://steamcdn-a.akamaihd.net/steamcommunity/public/images/apps/658570/b0824444153b4ce650f0538d9ac4a1fa69a1ec78.jpg",
    "icongray": "https://steamcdn-a.akamaihd.net/steamcommunity/public/images/apps/658570/464097c73130066d7ae4e8fe8b4f1c0cdbdbdf90.jpg"
  },
  {
    "name": "P10000",
    "defaultvalue": 0,
    "displayName": "SUPER DRIFT!!!",
    "hidden": 0,
    "description": "10,000 PTS!",
    "icon": "https://steamcdn-a.akamaihd.net/steamcommunity/public/images/apps/658570/00d8663b57582ddfec9b3db8800e6cf587ffa86a.jpg",
    "icongray": "https://steamcdn-a.akamaihd.net/steamcommunity/public/images/apps/658570/4cda46e840c31b9f1360c1944a8694099b73cf63.jpg"
  },
  {
    "name": "P15000",
    "defaultvalue": 0,
    "displayName": "MEGA DRIFT!!!",
    "hidden": 0,
    "description": "15,000 PTS!",
    "icon": "https://steamcdn-a.akamaihd.net/steamcommunity/public/images/apps/658570/e56e7df757df87446be49f8df3214922272fe602.jpg",
    "icongray": "https://steamcdn-a.akamaihd.net/steamcommunity/public/images/apps/658570/097635fe6ad4175770d2319a605716411d8fe826.jpg"
  },
  {
    "name": "P20000",
    "defaultvalue": 0,
    "displayName": "DRIFT KING!!!",
    "hidden": 0,
    "description": "20,000 PTS!",
    "icon": "https://steamcdn-a.akamaihd.net/steamcommunity/public/images/apps/658570/339d5f705d77ff967ef785045cc796b1a1f7366b.jpg",
    "icongray": "https://steamcdn-a.akamaihd.net/steamcommunity/public/images/apps/658570/d6bd6d903ffcb3270871dddfbd1c435c6340aba0.jpg"
  },
  {
    "name": "P25000",
    "defaultvalue": 0,
    "displayName": "DRIFT LEGEND!!!",
    "hidden": 0,
    "description": "25,000 PTS!",
    "icon": "https://steamcdn-a.akamaihd.net/steamcommunity/public/images/apps/658570/9521e00c21a13c56e72420eb813e61505244dcb9.jpg",
    "icongray": "https://steamcdn-a.akamaihd.net/steamcommunity/public/images/apps/658570/c6165220ecf38ce721e1d5954351888ab2636762.jpg"
  },
  {
    "name": "S120",
    "defaultvalue": 0,
    "displayName": "DRIFT SPEED",
    "hidden": 0,
    "description": "120 kmh drift!",
    "icon": "https://steamcdn-a.akamaihd.net/steamcommunity/public/images/apps/658570/f17596baa3efff9496da275aefaa499bd7921d2d.jpg",
    "icongray": "https://steamcdn-a.akamaihd.net/steamcommunity/public/images/apps/658570/5f5d853681db6633ea2e844d1f04c998715e9f0f.jpg"
  },
  {
    "name": "S130",
    "defaultvalue": 0,
    "displayName": "DRIFT SPEED",
    "hidden": 0,
    "description": "130 kmh drift!",
    "icon": "https://steamcdn-a.akamaihd.net/steamcommunity/public/images/apps/658570/af2ed3774c0c992073c93e1ef53ae6672e15b27e.jpg",
    "icongray": "https://steamcdn-a.akamaihd.net/steamcommunity/public/images/apps/658570/fc704834455fa2f769d469cb35bdc2b464bd4476.jpg"
  },
  {
    "name": "S140",
    "defaultvalue": 0,
    "displayName": "DRIFT SPEED",
    "hidden": 0,
    "description": "140 kmh drift!",
    "icon": "https://steamcdn-a.akamaihd.net/steamcommunity/public/images/apps/658570/0c2cb942cab1de685e7a6553c1de59b3b6489202.jpg",
    "icongray": "https://steamcdn-a.akamaihd.net/steamcommunity/public/images/apps/658570/b355cd3eaf6ffff5b8b61538761224ec396b53ea.jpg"
  },
  {
    "name": "S150",
    "defaultvalue": 0,
    "displayName": "DRIFT SPEED",
    "hidden": 0,
    "description": "150 kmh drift!",
    "icon": "https://steamcdn-a.akamaihd.net/steamcommunity/public/images/apps/658570/3a2f9e1c5afb79bb28aa441351cde799d4c04763.jpg",
    "icongray": "https://steamcdn-a.akamaihd.net/steamcommunity/public/images/apps/658570/e0a5e05ed549fd343b76c37d5264629bbf9d2697.jpg"
  },
  {
    "name": "S160",
    "defaultvalue": 0,
    "displayName": "DRIFT SPEED",
    "hidden": 0,
    "description": "160 kmh drift!",
    "icon": "https://steamcdn-a.akamaihd.net/steamcommunity/public/images/apps/658570/2f0f955aa3a38e26b810c4fc3f2e8b54753ba009.jpg",
    "icongray": "https://steamcdn-a.akamaihd.net/steamcommunity/public/images/apps/658570/318fbc328c8efb1e955861663dd01ad14ba9f4f1.jpg"
  },
  {
    "name": "S180",
    "defaultvalue": 0,
    "displayName": "DRIFT SPEED",
    "hidden": 0,
    "description": "180 kmh drift!",
    "icon": "https://steamcdn-a.akamaihd.net/steamcommunity/public/images/apps/658570/ce6a7f54b107376903c8935f5435092a6b2c7e7c.jpg",
    "icongray": "https://steamcdn-a.akamaihd.net/steamcommunity/public/images/apps/658570/b3df6358ab6be531496b283763e48390dd8e55a0.jpg"
  },
  {
    "name": "S200",
    "defaultvalue": 0,
    "displayName": "DRIFT SPEED",
    "hidden": 0,
    "description": "200 kmh drift!",
    "icon": "https://steamcdn-a.akamaihd.net/steamcommunity/public/images/apps/658570/3b45ab9575797e30ade424fdf427d7790ae4059a.jpg",
    "icongray": "https://steamcdn-a.akamaihd.net/steamcommunity/public/images/apps/658570/1e1d423fcde0b24410702b2b51a2a992b128653d.jpg"
  },
  {
    "name": "S220",
    "defaultvalue": 0,
    "displayName": "DRIFT SPEED",
    "hidden": 0,
    "description": "220 kmh drift!",
    "icon": "https://steamcdn-a.akamaihd.net/steamcommunity/public/images/apps/658570/1488cbb332c85cd2ece3bcdc1a26e8ecd2039f71.jpg",
    "icongray": "https://steamcdn-a.akamaihd.net/steamcommunity/public/images/apps/658570/7a5224296085986c73f3906dbbbc10cc9e43c2d9.jpg"
  },
  {
    "name": "S240",
    "defaultvalue": 0,
    "displayName": "DRIFT SPEED",
    "hidden": 0,
    "description": "240 kmh drift!",
    "icon": "https://steamcdn-a.akamaihd.net/steamcommunity/public/images/apps/658570/f11bc115040ee3cec558a627cbe9c35ae76f7597.jpg",
    "icongray": "https://steamcdn-a.akamaihd.net/steamcommunity/public/images/apps/658570/55ca80f3e9e9eb14fea92c4f22281a87cff76d4d.jpg"
  },
  {
    "name": "S260",
    "defaultvalue": 0,
    "displayName": "DRIFT SPEED",
    "hidden": 0,
    "description": "260 kmh drift!",
    "icon": "https://steamcdn-a.akamaihd.net/steamcommunity/public/images/apps/658570/2e3545a27d775e289113b4f91010b3fb7a699abc.jpg",
    "icongray": "https://steamcdn-a.akamaihd.net/steamcommunity/public/images/apps/658570/9584f8339565a182cce1347604ad6556b43cd12d.jpg"
  },
  {
    "name": "S280",
    "defaultvalue": 0,
    "displayName": "DRIFT SPEED",
    "hidden": 0,
    "description": "280 kmh drift!",
    "icon": "https://steamcdn-a.akamaihd.net/steamcommunity/public/images/apps/658570/cf0698062dd7dbe4a5d3f1e75c4cc17ed09c3850.jpg",
    "icongray": "https://steamcdn-a.akamaihd.net/steamcommunity/public/images/apps/658570/eb5275597d0df9276680386eb1dc33e600797e24.jpg"
  },
  {
    "name": "S300",
    "defaultvalue": 0,
    "displayName": "DRIFT SPEED",
    "hidden": 0,
    "description": "300 kmh drift!",
    "icon": "https://steamcdn-a.akamaihd.net/steamcommunity/public/images/apps/658570/89d856f08a93969139b45ffd244b57967c393de9.jpg",
    "icongray": "https://steamcdn-a.akamaihd.net/steamcommunity/public/images/apps/658570/72fa700f220f4270a26b1d7ab8017a8422f9720d.jpg"
  }
]