﻿{
  "Dlcs": {},
  "Name": "Secret of Harrow Manor",
  "AppId": "838840",
  "ImageUrl": "https://steamcdn-a.akamaihd.net/steam/apps/838840/header.jpg?t=1549405030",
  "Languages": [
    "english"
  ],
  "Platforms": {
    "windows": true,
    "mac": true,
    "linux": true
  }
}