﻿{
  "Dlcs": {},
  "Name": "Haldor",
  "AppId": "803320",
  "ImageUrl": "https://steamcdn-a.akamaihd.net/steam/apps/803320/header.jpg?t=1524288251",
  "Languages": [
    "english"
  ],
  "Platforms": {
    "windows": true,
    "mac": false,
    "linux": false
  }
}