﻿[
  {
    "name": "start",
    "defaultvalue": 0,
    "displayName": "start",
    "hidden": 0,
    "description": "start",
    "icon": "https://steamcdn-a.akamaihd.net/steamcommunity/public/images/apps/575700/ef29e63ae67d598c83fffc6b26513e0c5aa3fc3d.jpg",
    "icongray": "https://steamcdn-a.akamaihd.net/steamcommunity/public/images/apps/575700/57c525ea54e8a45623197653c8e6b9f0f26d7fc8.jpg"
  },
  {
    "name": "1",
    "defaultvalue": 0,
    "displayName": "1",
    "hidden": 0,
    "description": "Score: 5",
    "icon": "https://steamcdn-a.akamaihd.net/steamcommunity/public/images/apps/575700/937b0022aa699c5b26ca431d2bfe8b7b5cb500fb.jpg",
    "icongray": "https://steamcdn-a.akamaihd.net/steamcommunity/public/images/apps/575700/39d069c561cb2f8012c4962761bb3331120c6e38.jpg"
  },
  {
    "name": "2",
    "defaultvalue": 0,
    "displayName": "2",
    "hidden": 0,
    "description": "Score: 10",
    "icon": "https://steamcdn-a.akamaihd.net/steamcommunity/public/images/apps/575700/c95284fdcf751746bd592b5ac1ef11d34f800806.jpg",
    "icongray": "https://steamcdn-a.akamaihd.net/steamcommunity/public/images/apps/575700/27c80eed270261a5e2fff71fdb9833203fb9b12a.jpg"
  },
  {
    "name": "3",
    "defaultvalue": 0,
    "displayName": "3",
    "hidden": 0,
    "description": "Score: 15",
    "icon": "https://steamcdn-a.akamaihd.net/steamcommunity/public/images/apps/575700/0064fbc3711488f2a0b27754122f99b86630e11a.jpg",
    "icongray": "https://steamcdn-a.akamaihd.net/steamcommunity/public/images/apps/575700/2f342b799b80e095b3fcec389f074833c4891bdf.jpg"
  },
  {
    "name": "4",
    "defaultvalue": 0,
    "displayName": "4",
    "hidden": 0,
    "description": "Score: 20",
    "icon": "https://steamcdn-a.akamaihd.net/steamcommunity/public/images/apps/575700/f688a74d206a4db0627b0abc199d318b06038cf6.jpg",
    "icongray": "https://steamcdn-a.akamaihd.net/steamcommunity/public/images/apps/575700/061afb3db06b140d115f3db7bdefd1a15a051b87.jpg"
  },
  {
    "name": "5",
    "defaultvalue": 0,
    "displayName": "5",
    "hidden": 0,
    "description": "score: 25",
    "icon": "https://steamcdn-a.akamaihd.net/steamcommunity/public/images/apps/575700/000a9ddc0b680517a5741de84dd6636d981769f4.jpg",
    "icongray": "https://steamcdn-a.akamaihd.net/steamcommunity/public/images/apps/575700/343359d17659f64c6d7e72098a9f11174431c732.jpg"
  },
  {
    "name": "6",
    "defaultvalue": 0,
    "displayName": "6",
    "hidden": 0,
    "description": "Score:30",
    "icon": "https://steamcdn-a.akamaihd.net/steamcommunity/public/images/apps/575700/00903b8e6bbf1c34a1b8f2e7b9aab4943b8e39ff.jpg",
    "icongray": "https://steamcdn-a.akamaihd.net/steamcommunity/public/images/apps/575700/d72077048560826baf078531e32581a2699a20ba.jpg"
  },
  {
    "name": "7",
    "defaultvalue": 0,
    "displayName": "7",
    "hidden": 0,
    "description": "score:35",
    "icon": "https://steamcdn-a.akamaihd.net/steamcommunity/public/images/apps/575700/1eb52ab3e8eba6dcd7fd821419e5070514ebd060.jpg",
    "icongray": "https://steamcdn-a.akamaihd.net/steamcommunity/public/images/apps/575700/2b1f58dd0cc6acba709973dd2260bd18df79b798.jpg"
  },
  {
    "name": "8",
    "defaultvalue": 0,
    "displayName": "8",
    "hidden": 0,
    "description": "score 40",
    "icon": "https://steamcdn-a.akamaihd.net/steamcommunity/public/images/apps/575700/0103d98e025bc605f80ae535041f6a7297585c3b.jpg",
    "icongray": "https://steamcdn-a.akamaihd.net/steamcommunity/public/images/apps/575700/e725709ba8bc79228b8089efeb428048d972f208.jpg"
  },
  {
    "name": "9",
    "defaultvalue": 0,
    "displayName": "9",
    "hidden": 0,
    "description": "score: 45",
    "icon": "https://steamcdn-a.akamaihd.net/steamcommunity/public/images/apps/575700/c41bd65e826b16d24b5ae710202750da6932b18c.jpg",
    "icongray": "https://steamcdn-a.akamaihd.net/steamcommunity/public/images/apps/575700/e88c3db9e258e221eb1d6ddf0637be8f28d5009c.jpg"
  },
  {
    "name": "10",
    "defaultvalue": 0,
    "displayName": "10",
    "hidden": 0,
    "description": "score: 50",
    "icon": "https://steamcdn-a.akamaihd.net/steamcommunity/public/images/apps/575700/5149f13ed1a96d4c310731258e5999d8ee891cf2.jpg",
    "icongray": "https://steamcdn-a.akamaihd.net/steamcommunity/public/images/apps/575700/342ec15ffa7719bb1298d50684c5ab5bd80eba69.jpg"
  },
  {
    "name": "11",
    "defaultvalue": 0,
    "displayName": "11",
    "hidden": 0,
    "description": "score: 55",
    "icon": "https://steamcdn-a.akamaihd.net/steamcommunity/public/images/apps/575700/395d350a30a9f6549a59dc8d7fa220f99d8dc2f0.jpg",
    "icongray": "https://steamcdn-a.akamaihd.net/steamcommunity/public/images/apps/575700/10c627795ce60a2607788a304e4fa35eb635457d.jpg"
  },
  {
    "name": "12",
    "defaultvalue": 0,
    "displayName": "12",
    "hidden": 0,
    "description": "score:60",
    "icon": "https://steamcdn-a.akamaihd.net/steamcommunity/public/images/apps/575700/a4d3c60b54f07441db71b83e530d65dbbf9c416e.jpg",
    "icongray": "https://steamcdn-a.akamaihd.net/steamcommunity/public/images/apps/575700/16d4737c939865ac873dbbfca458b22fb9e2698a.jpg"
  },
  {
    "name": "13",
    "defaultvalue": 0,
    "displayName": "13",
    "hidden": 0,
    "description": "Score: 65",
    "icon": "https://steamcdn-a.akamaihd.net/steamcommunity/public/images/apps/575700/31358567bf88a3c4dc778eaf5240fff8389a06a3.jpg",
    "icongray": "https://steamcdn-a.akamaihd.net/steamcommunity/public/images/apps/575700/6223d87b2c20c691adc64ea9a4bfc31ebb12e159.jpg"
  },
  {
    "name": "14",
    "defaultvalue": 0,
    "displayName": "14",
    "hidden": 0,
    "description": "Score: 70",
    "icon": "https://steamcdn-a.akamaihd.net/steamcommunity/public/images/apps/575700/d371587b797eeb64e66d4564b53fb6f03c781bd8.jpg",
    "icongray": "https://steamcdn-a.akamaihd.net/steamcommunity/public/images/apps/575700/b63958547d523a7f06e3288b49d7c86c61ac476a.jpg"
  },
  {
    "name": "15",
    "defaultvalue": 0,
    "displayName": "15",
    "hidden": 0,
    "description": "Score: 75",
    "icon": "https://steamcdn-a.akamaihd.net/steamcommunity/public/images/apps/575700/b890ff3d87c522ec3553e8dedd346f0ee982bc7e.jpg",
    "icongray": "https://steamcdn-a.akamaihd.net/steamcommunity/public/images/apps/575700/1a05ffd3012a4ca980c53d206f03b64904e050ab.jpg"
  },
  {
    "name": "16",
    "defaultvalue": 0,
    "displayName": "16",
    "hidden": 0,
    "description": "Score: 80",
    "icon": "https://steamcdn-a.akamaihd.net/steamcommunity/public/images/apps/575700/67c5bd766cb465abfbe76924d1fea8a9e6f5faeb.jpg",
    "icongray": "https://steamcdn-a.akamaihd.net/steamcommunity/public/images/apps/575700/d4bd464614d2a21b289ce916a14cc2449eaeaae0.jpg"
  },
  {
    "name": "17",
    "defaultvalue": 0,
    "displayName": "17",
    "hidden": 0,
    "description": "Score: 85",
    "icon": "https://steamcdn-a.akamaihd.net/steamcommunity/public/images/apps/575700/8b47f8b8eb585ca7356e384455e61dae791e8bfe.jpg",
    "icongray": "https://steamcdn-a.akamaihd.net/steamcommunity/public/images/apps/575700/b0661aeaeb519114f198e313f84556d1ac4efd34.jpg"
  },
  {
    "name": "18",
    "defaultvalue": 0,
    "displayName": "18",
    "hidden": 0,
    "description": "Score: 90",
    "icon": "https://steamcdn-a.akamaihd.net/steamcommunity/public/images/apps/575700/0609944bb74b2c4316500372ef1aeb190dc74dca.jpg",
    "icongray": "https://steamcdn-a.akamaihd.net/steamcommunity/public/images/apps/575700/69cb66211596726fd4178a2a13039283e22f563b.jpg"
  },
  {
    "name": "19",
    "defaultvalue": 0,
    "displayName": "19",
    "hidden": 0,
    "description": "Score: 100",
    "icon": "https://steamcdn-a.akamaihd.net/steamcommunity/public/images/apps/575700/2ac1af479057eb8eebb1f0f8f1cd0ee7e0e3fc57.jpg",
    "icongray": "https://steamcdn-a.akamaihd.net/steamcommunity/public/images/apps/575700/8d8fdfa63760de8f9d2ab011df30b367b062e035.jpg"
  },
  {
    "name": "20",
    "defaultvalue": 0,
    "displayName": "20",
    "hidden": 0,
    "description": "Score: 105",
    "icon": "https://steamcdn-a.akamaihd.net/steamcommunity/public/images/apps/575700/ce581918465962519beec8ebe0fcaab92d63057b.jpg",
    "icongray": "https://steamcdn-a.akamaihd.net/steamcommunity/public/images/apps/575700/9f89c2e285ec0d042084f1047c2266631328f1cf.jpg"
  },
  {
    "name": "21",
    "defaultvalue": 0,
    "displayName": "21",
    "hidden": 0,
    "description": "Score: 110",
    "icon": "https://steamcdn-a.akamaihd.net/steamcommunity/public/images/apps/575700/9f180bd76ea74f2ac74bd7d8a8356cd289866734.jpg",
    "icongray": "https://steamcdn-a.akamaihd.net/steamcommunity/public/images/apps/575700/56646cdf2981b24d8a8f5c17c92cb11589e85f02.jpg"
  },
  {
    "name": "22",
    "defaultvalue": 0,
    "displayName": "22",
    "hidden": 0,
    "description": "Score: 115",
    "icon": "https://steamcdn-a.akamaihd.net/steamcommunity/public/images/apps/575700/8729a11146300c7923a92d59733ec324c7cdca9f.jpg",
    "icongray": "https://steamcdn-a.akamaihd.net/steamcommunity/public/images/apps/575700/3d08642379576229862ff96b91e3c7b9b44e11a2.jpg"
  },
  {
    "name": "23",
    "defaultvalue": 0,
    "displayName": "23",
    "hidden": 0,
    "description": "Score: 120",
    "icon": "https://steamcdn-a.akamaihd.net/steamcommunity/public/images/apps/575700/fdf286f1d3a84fe0efaf89aad483c285724a5fc4.jpg",
    "icongray": "https://steamcdn-a.akamaihd.net/steamcommunity/public/images/apps/575700/c96561a087f3852e860e239772446c8823d05231.jpg"
  },
  {
    "name": "24",
    "defaultvalue": 0,
    "displayName": "24",
    "hidden": 0,
    "description": "Score: 125",
    "icon": "https://steamcdn-a.akamaihd.net/steamcommunity/public/images/apps/575700/4e6bdcdefcd1ebc038c147c687d2426fd6b0386f.jpg",
    "icongray": "https://steamcdn-a.akamaihd.net/steamcommunity/public/images/apps/575700/427c0a32c8bc64dd0c64d23b4d2671396cd924cb.jpg"
  },
  {
    "name": "25",
    "defaultvalue": 0,
    "displayName": "25",
    "hidden": 0,
    "description": "Score: 130",
    "icon": "https://steamcdn-a.akamaihd.net/steamcommunity/public/images/apps/575700/70e2a5e3924ca9e732248100506c9de6ab20e5cd.jpg",
    "icongray": "https://steamcdn-a.akamaihd.net/steamcommunity/public/images/apps/575700/be483f2ca2805affa0241421d665dd2bcdfff3c5.jpg"
  },
  {
    "name": "26",
    "defaultvalue": 0,
    "displayName": "26",
    "hidden": 0,
    "description": "Score: 135",
    "icon": "https://steamcdn-a.akamaihd.net/steamcommunity/public/images/apps/575700/146171c482e04a5bee5cb7c8e00e88ea6374966e.jpg",
    "icongray": "https://steamcdn-a.akamaihd.net/steamcommunity/public/images/apps/575700/31ca3928fd2ab43cec319a3f1164766de2f986af.jpg"
  },
  {
    "name": "27",
    "defaultvalue": 0,
    "displayName": "27",
    "hidden": 0,
    "description": "Score: 140",
    "icon": "https://steamcdn-a.akamaihd.net/steamcommunity/public/images/apps/575700/12876dae386f17208547b9f48a8c52fe08d4c21b.jpg",
    "icongray": "https://steamcdn-a.akamaihd.net/steamcommunity/public/images/apps/575700/1bab7183b5870212e4b9f67741281cc17d19c4ba.jpg"
  },
  {
    "name": "28",
    "defaultvalue": 0,
    "displayName": "28",
    "hidden": 0,
    "description": "Score: 145",
    "icon": "https://steamcdn-a.akamaihd.net/steamcommunity/public/images/apps/575700/56997fd3ae595e3bb0b087a2f97a53df7e03620a.jpg",
    "icongray": "https://steamcdn-a.akamaihd.net/steamcommunity/public/images/apps/575700/5b2a2684f5adb514d9d26cc5407514a5f2a77e2a.jpg"
  },
  {
    "name": "29",
    "defaultvalue": 0,
    "displayName": "29",
    "hidden": 0,
    "description": "Score: 150",
    "icon": "https://steamcdn-a.akamaihd.net/steamcommunity/public/images/apps/575700/b72ce443df5aa023005f6fa66cfe8998535e8a75.jpg",
    "icongray": "https://steamcdn-a.akamaihd.net/steamcommunity/public/images/apps/575700/ef1ecbe72c103c7cf6fb2c6fe41b07ddc07a591c.jpg"
  },
  {
    "name": "30",
    "defaultvalue": 0,
    "displayName": "30",
    "hidden": 0,
    "description": "Score: 155",
    "icon": "https://steamcdn-a.akamaihd.net/steamcommunity/public/images/apps/575700/bf0f5f9890dc0e2f268faa910ad6d9bc0f5fc5b4.jpg",
    "icongray": "https://steamcdn-a.akamaihd.net/steamcommunity/public/images/apps/575700/b7c87e9bd36ac11f159caa9037bc6c8575401a1f.jpg"
  },
  {
    "name": "31",
    "defaultvalue": 0,
    "displayName": "31",
    "hidden": 0,
    "description": "Score: 160",
    "icon": "https://steamcdn-a.akamaihd.net/steamcommunity/public/images/apps/575700/597c55e6c654d6cd6893b139f6896507f9685f90.jpg",
    "icongray": "https://steamcdn-a.akamaihd.net/steamcommunity/public/images/apps/575700/d8d38808c651921b64e9b9913307124a1d73f1b0.jpg"
  },
  {
    "name": "32",
    "defaultvalue": 0,
    "displayName": "32",
    "hidden": 0,
    "description": "Score: 165",
    "icon": "https://steamcdn-a.akamaihd.net/steamcommunity/public/images/apps/575700/79cf9127413c445afdcd43bfe19a1653d0bfd265.jpg",
    "icongray": "https://steamcdn-a.akamaihd.net/steamcommunity/public/images/apps/575700/0482dd216fa233d58d5b1b8128dde9e97f8bb786.jpg"
  },
  {
    "name": "33",
    "defaultvalue": 0,
    "displayName": "33",
    "hidden": 0,
    "description": "Score: 170",
    "icon": "https://steamcdn-a.akamaihd.net/steamcommunity/public/images/apps/575700/864cbd4032bea6f8f9d47f4f55038eb131a3be6c.jpg",
    "icongray": "https://steamcdn-a.akamaihd.net/steamcommunity/public/images/apps/575700/8e9d93dd15781ac1b6d32ee42767138ed3f63949.jpg"
  },
  {
    "name": "34",
    "defaultvalue": 0,
    "displayName": "34",
    "hidden": 0,
    "description": "Score: 175",
    "icon": "https://steamcdn-a.akamaihd.net/steamcommunity/public/images/apps/575700/611b1358832811380ec0f817bbd43872ff5090a3.jpg",
    "icongray": "https://steamcdn-a.akamaihd.net/steamcommunity/public/images/apps/575700/fd684fcda41e3ccc1f57e37b5adf22a35a7a18a6.jpg"
  },
  {
    "name": "35",
    "defaultvalue": 0,
    "displayName": "35",
    "hidden": 0,
    "description": "Score: 180",
    "icon": "https://steamcdn-a.akamaihd.net/steamcommunity/public/images/apps/575700/650b2a856ae0f3bd152b0b3e19db84092db8f7fd.jpg",
    "icongray": "https://steamcdn-a.akamaihd.net/steamcommunity/public/images/apps/575700/e4073b7142daaa8e3fdbd6267fc15fa0b5d904cb.jpg"
  },
  {
    "name": "36",
    "defaultvalue": 0,
    "displayName": "36",
    "hidden": 0,
    "description": "Score: 185",
    "icon": "https://steamcdn-a.akamaihd.net/steamcommunity/public/images/apps/575700/b002f9a5357eaff70cacc78e950d7f5855bd6663.jpg",
    "icongray": "https://steamcdn-a.akamaihd.net/steamcommunity/public/images/apps/575700/0499a397e1e287e6689938ab855a9a468c316933.jpg"
  },
  {
    "name": "37",
    "defaultvalue": 0,
    "displayName": "37",
    "hidden": 0,
    "description": "Score: 190",
    "icon": "https://steamcdn-a.akamaihd.net/steamcommunity/public/images/apps/575700/fd003e1270539a10e3eebe1f7b871ad7c34db179.jpg",
    "icongray": "https://steamcdn-a.akamaihd.net/steamcommunity/public/images/apps/575700/1d7ef443188dc56c124ae0a70c50b5685a08e719.jpg"
  },
  {
    "name": "38",
    "defaultvalue": 0,
    "displayName": "38",
    "hidden": 0,
    "description": "Score: 195",
    "icon": "https://steamcdn-a.akamaihd.net/steamcommunity/public/images/apps/575700/2b8a24519ce03eb5564b824ccc21cc4e9f600b5b.jpg",
    "icongray": "https://steamcdn-a.akamaihd.net/steamcommunity/public/images/apps/575700/f9c99f877d4926e8c94d30389d12ff446bc91b8e.jpg"
  },
  {
    "name": "39",
    "defaultvalue": 0,
    "displayName": "39",
    "hidden": 0,
    "description": "Score: 200",
    "icon": "https://steamcdn-a.akamaihd.net/steamcommunity/public/images/apps/575700/27244df0efd50ccc14984ad1ef5dd223e17704a0.jpg",
    "icongray": "https://steamcdn-a.akamaihd.net/steamcommunity/public/images/apps/575700/cb5108723a8bfd6331fa27721b9acce268e09f59.jpg"
  },
  {
    "name": "40",
    "defaultvalue": 0,
    "displayName": "40",
    "hidden": 0,
    "description": "Score: 205",
    "icon": "https://steamcdn-a.akamaihd.net/steamcommunity/public/images/apps/575700/a0b5d7c189706515d0bc3a8e779846b0d1e63940.jpg",
    "icongray": "https://steamcdn-a.akamaihd.net/steamcommunity/public/images/apps/575700/529dd6f55d89b1f6e3c0279af4a0c87b534b0dbb.jpg"
  },
  {
    "name": "41",
    "defaultvalue": 0,
    "displayName": "41",
    "hidden": 0,
    "description": "Score: 210",
    "icon": "https://steamcdn-a.akamaihd.net/steamcommunity/public/images/apps/575700/ae142b1778e9520952733aa8b7dbb726821a7cc1.jpg",
    "icongray": "https://steamcdn-a.akamaihd.net/steamcommunity/public/images/apps/575700/03413b2abb28669cc2c1268411320cea9cb66ff6.jpg"
  },
  {
    "name": "42",
    "defaultvalue": 0,
    "displayName": "42",
    "hidden": 0,
    "description": "Score: 215",
    "icon": "https://steamcdn-a.akamaihd.net/steamcommunity/public/images/apps/575700/15c492ec46f3be04042f03941798f1c92bb903bd.jpg",
    "icongray": "https://steamcdn-a.akamaihd.net/steamcommunity/public/images/apps/575700/6de2e6f8c4d84062014c64e2d66d935d40a52538.jpg"
  },
  {
    "name": "43",
    "defaultvalue": 0,
    "displayName": "43",
    "hidden": 0,
    "description": "Score: 220",
    "icon": "https://steamcdn-a.akamaihd.net/steamcommunity/public/images/apps/575700/a864d3ee52dc07556bd1d8579430799a5387a7c6.jpg",
    "icongray": "https://steamcdn-a.akamaihd.net/steamcommunity/public/images/apps/575700/265696faff3a746cb45a56e089fe47ea53d5f1ce.jpg"
  },
  {
    "name": "44",
    "defaultvalue": 0,
    "displayName": "44",
    "hidden": 0,
    "description": "Score: 225",
    "icon": "https://steamcdn-a.akamaihd.net/steamcommunity/public/images/apps/575700/f21633e66330322ade2f5eda6422719f1ab9ad96.jpg",
    "icongray": "https://steamcdn-a.akamaihd.net/steamcommunity/public/images/apps/575700/eb5a39dd333204ec90549238a3b6fc8bb1f08f22.jpg"
  },
  {
    "name": "45",
    "defaultvalue": 0,
    "displayName": "45",
    "hidden": 0,
    "description": "Score: 230",
    "icon": "https://steamcdn-a.akamaihd.net/steamcommunity/public/images/apps/575700/04b06c00ddd0dbc42cf70bada8857745461532af.jpg",
    "icongray": "https://steamcdn-a.akamaihd.net/steamcommunity/public/images/apps/575700/3550e8f5192bfb063e3ea61caaf05d1e7ff49c1e.jpg"
  },
  {
    "name": "46",
    "defaultvalue": 0,
    "displayName": "46",
    "hidden": 0,
    "description": "Score: 235",
    "icon": "https://steamcdn-a.akamaihd.net/steamcommunity/public/images/apps/575700/ee7bf430fe7cce9b591260f5c7b1126e3dd13002.jpg",
    "icongray": "https://steamcdn-a.akamaihd.net/steamcommunity/public/images/apps/575700/75d42f38bace3550854f44af8b9a28de8145191c.jpg"
  },
  {
    "name": "47",
    "defaultvalue": 0,
    "displayName": "47",
    "hidden": 0,
    "description": "Score: 240",
    "icon": "https://steamcdn-a.akamaihd.net/steamcommunity/public/images/apps/575700/a05f6fb4e33fc362d6e24e2d5673aa6ea70e1ac2.jpg",
    "icongray": "https://steamcdn-a.akamaihd.net/steamcommunity/public/images/apps/575700/70d0467b8b9c14e24f84c270da7eb87fc2c535e7.jpg"
  },
  {
    "name": "48",
    "defaultvalue": 0,
    "displayName": "48",
    "hidden": 0,
    "description": "Score: 245",
    "icon": "https://steamcdn-a.akamaihd.net/steamcommunity/public/images/apps/575700/2ab5eccb2fccb0db74caede57998f77a924eb8e6.jpg",
    "icongray": "https://steamcdn-a.akamaihd.net/steamcommunity/public/images/apps/575700/ffb2e0f008f733d67ba0e96389e1edada658f408.jpg"
  },
  {
    "name": "49",
    "defaultvalue": 0,
    "displayName": "49",
    "hidden": 0,
    "description": "Score: 250",
    "icon": "https://steamcdn-a.akamaihd.net/steamcommunity/public/images/apps/575700/0dbaa19524d072a9fad041f9c9b754451fb7a627.jpg",
    "icongray": "https://steamcdn-a.akamaihd.net/steamcommunity/public/images/apps/575700/6633e0bb4c19e1c1b904c91188faf5e95669b858.jpg"
  },
  {
    "name": "50",
    "defaultvalue": 0,
    "displayName": "50",
    "hidden": 0,
    "description": "Score: 255",
    "icon": "https://steamcdn-a.akamaihd.net/steamcommunity/public/images/apps/575700/620cc71fdf4b56398780584ef36fc546c9615d49.jpg",
    "icongray": "https://steamcdn-a.akamaihd.net/steamcommunity/public/images/apps/575700/8b91ac2df085ad770cb138802c9adaee95651ef1.jpg"
  },
  {
    "name": "51",
    "defaultvalue": 0,
    "displayName": "51",
    "hidden": 0,
    "description": "Score: 260",
    "icon": "https://steamcdn-a.akamaihd.net/steamcommunity/public/images/apps/575700/b6450af3773d6f4a1378bbdbf6dd06e975bad543.jpg",
    "icongray": "https://steamcdn-a.akamaihd.net/steamcommunity/public/images/apps/575700/16b789b9904504bbec4049dd49237290baae332a.jpg"
  },
  {
    "name": "52",
    "defaultvalue": 0,
    "displayName": "52",
    "hidden": 0,
    "description": "Score: 265",
    "icon": "https://steamcdn-a.akamaihd.net/steamcommunity/public/images/apps/575700/61c18d2f02e9efa632b4aa90476cbd6fb80de145.jpg",
    "icongray": "https://steamcdn-a.akamaihd.net/steamcommunity/public/images/apps/575700/c1e49a9757b8a7fe6ae7c9dcccda96f179e5ab9c.jpg"
  },
  {
    "name": "53",
    "defaultvalue": 0,
    "displayName": "53",
    "hidden": 0,
    "description": "Score: 270",
    "icon": "https://steamcdn-a.akamaihd.net/steamcommunity/public/images/apps/575700/a9be5d3eea64fd7df2be05b133202fa416b2b149.jpg",
    "icongray": "https://steamcdn-a.akamaihd.net/steamcommunity/public/images/apps/575700/5bdc5a2df3d61726324355c888ed4751e9679340.jpg"
  },
  {
    "name": "54",
    "defaultvalue": 0,
    "displayName": "54",
    "hidden": 0,
    "description": "Score: 275",
    "icon": "https://steamcdn-a.akamaihd.net/steamcommunity/public/images/apps/575700/c60e2dd966d0318acb35be462a3f16400444b250.jpg",
    "icongray": "https://steamcdn-a.akamaihd.net/steamcommunity/public/images/apps/575700/0dcf2417757d70b5da9993befe6388ed18f0e3f1.jpg"
  },
  {
    "name": "55",
    "defaultvalue": 0,
    "displayName": "55",
    "hidden": 0,
    "description": "Score: 280",
    "icon": "https://steamcdn-a.akamaihd.net/steamcommunity/public/images/apps/575700/3521a2dad538b5cdfd5cbc99403725c50b73e687.jpg",
    "icongray": "https://steamcdn-a.akamaihd.net/steamcommunity/public/images/apps/575700/6b0e028181f11809e9ba798b5322d130ab4de323.jpg"
  },
  {
    "name": "56",
    "defaultvalue": 0,
    "displayName": "56",
    "hidden": 0,
    "description": "Score: 285",
    "icon": "https://steamcdn-a.akamaihd.net/steamcommunity/public/images/apps/575700/c37bbff7d864b011ab7d3ac5de493ad7ec951639.jpg",
    "icongray": "https://steamcdn-a.akamaihd.net/steamcommunity/public/images/apps/575700/e719a24ff95615a8dcef0f69cfa468392cdc63ac.jpg"
  },
  {
    "name": "57",
    "defaultvalue": 0,
    "displayName": "57",
    "hidden": 0,
    "description": "Score: 290",
    "icon": "https://steamcdn-a.akamaihd.net/steamcommunity/public/images/apps/575700/e2b31eb801a832b319b64886b6ce72534e8049e2.jpg",
    "icongray": "https://steamcdn-a.akamaihd.net/steamcommunity/public/images/apps/575700/9ac0bc0c740dd143069b33f770b4a8062ff83fe4.jpg"
  },
  {
    "name": "58",
    "defaultvalue": 0,
    "displayName": "58",
    "hidden": 0,
    "description": "Score: 295",
    "icon": "https://steamcdn-a.akamaihd.net/steamcommunity/public/images/apps/575700/5acc60fed053693056873d315d515b42db9910d9.jpg",
    "icongray": "https://steamcdn-a.akamaihd.net/steamcommunity/public/images/apps/575700/86b432fc81e3b99ffb4fe68f894fefb4db2a579d.jpg"
  },
  {
    "name": "59",
    "defaultvalue": 0,
    "displayName": "59",
    "hidden": 0,
    "description": "Score: 300",
    "icon": "https://steamcdn-a.akamaihd.net/steamcommunity/public/images/apps/575700/65233743e8dce42db7f5c58a176557881516e0e1.jpg",
    "icongray": "https://steamcdn-a.akamaihd.net/steamcommunity/public/images/apps/575700/e901772a2b238d55b46509885c1161d0e83f6080.jpg"
  },
  {
    "name": "60",
    "defaultvalue": 0,
    "displayName": "60",
    "hidden": 0,
    "description": "Score: 305",
    "icon": "https://steamcdn-a.akamaihd.net/steamcommunity/public/images/apps/575700/a16239d9d5c2d68d53cf921ee088d0ccade0d859.jpg",
    "icongray": "https://steamcdn-a.akamaihd.net/steamcommunity/public/images/apps/575700/e4419a31c5b6841d4d20afb774c1a0f80c18e9ed.jpg"
  },
  {
    "name": "61",
    "defaultvalue": 0,
    "displayName": "61",
    "hidden": 0,
    "description": "Score: 310",
    "icon": "https://steamcdn-a.akamaihd.net/steamcommunity/public/images/apps/575700/4a64152d64e5f977aa8bc392a233fdd3374198d2.jpg",
    "icongray": "https://steamcdn-a.akamaihd.net/steamcommunity/public/images/apps/575700/75d3751e1b23e81243551343e0a314c1cb18bf01.jpg"
  },
  {
    "name": "62",
    "defaultvalue": 0,
    "displayName": "62",
    "hidden": 0,
    "description": "Score: 315",
    "icon": "https://steamcdn-a.akamaihd.net/steamcommunity/public/images/apps/575700/385b94a2333fde7d747a11ef876e814f6b7918e5.jpg",
    "icongray": "https://steamcdn-a.akamaihd.net/steamcommunity/public/images/apps/575700/561d0478f1fc357e1f5df84192256922f6ceefe8.jpg"
  },
  {
    "name": "63",
    "defaultvalue": 0,
    "displayName": "63",
    "hidden": 0,
    "description": "Score: 320",
    "icon": "https://steamcdn-a.akamaihd.net/steamcommunity/public/images/apps/575700/6444b62bb8a9e54553432518c950510a5893ad1d.jpg",
    "icongray": "https://steamcdn-a.akamaihd.net/steamcommunity/public/images/apps/575700/7d95c965c7c069906efbe0b200d83cde857f057d.jpg"
  },
  {
    "name": "64",
    "defaultvalue": 0,
    "displayName": "64",
    "hidden": 0,
    "description": "Score: 325",
    "icon": "https://steamcdn-a.akamaihd.net/steamcommunity/public/images/apps/575700/fa7bcf76388f75ee7af0311429fbc9b037370cf6.jpg",
    "icongray": "https://steamcdn-a.akamaihd.net/steamcommunity/public/images/apps/575700/23de276731ae55ea3ffa56786563f1e6d6e15dd3.jpg"
  },
  {
    "name": "65",
    "defaultvalue": 0,
    "displayName": "65",
    "hidden": 0,
    "description": "Score: 330",
    "icon": "https://steamcdn-a.akamaihd.net/steamcommunity/public/images/apps/575700/bed2eb815806823bc03d2d81fdd84ab356322e22.jpg",
    "icongray": "https://steamcdn-a.akamaihd.net/steamcommunity/public/images/apps/575700/7e68eaae6d6579d184af8aa8391feb649e9a978d.jpg"
  },
  {
    "name": "66",
    "defaultvalue": 0,
    "displayName": "66",
    "hidden": 0,
    "description": "Score: 335",
    "icon": "https://steamcdn-a.akamaihd.net/steamcommunity/public/images/apps/575700/d6c28e1a19f2ba3dd4bb73be167def016fbed065.jpg",
    "icongray": "https://steamcdn-a.akamaihd.net/steamcommunity/public/images/apps/575700/82f253687be4860cda440400525e546563477fa4.jpg"
  },
  {
    "name": "67",
    "defaultvalue": 0,
    "displayName": "67",
    "hidden": 0,
    "description": "Score: 340",
    "icon": "https://steamcdn-a.akamaihd.net/steamcommunity/public/images/apps/575700/47f6cc96d9e24a0c3e2a22817ba7185db8381968.jpg",
    "icongray": "https://steamcdn-a.akamaihd.net/steamcommunity/public/images/apps/575700/78b51be52159da3c9432f59179f0869d3d316ec4.jpg"
  },
  {
    "name": "68",
    "defaultvalue": 0,
    "displayName": "68",
    "hidden": 0,
    "description": "Score: 345",
    "icon": "https://steamcdn-a.akamaihd.net/steamcommunity/public/images/apps/575700/ba34fcb737e999a496f4b582720c31ce3b9d37b2.jpg",
    "icongray": "https://steamcdn-a.akamaihd.net/steamcommunity/public/images/apps/575700/4620fd81b61659bee40ab35c92d94c1d7d1ca008.jpg"
  },
  {
    "name": "69",
    "defaultvalue": 0,
    "displayName": "69",
    "hidden": 0,
    "description": "Score: 350",
    "icon": "https://steamcdn-a.akamaihd.net/steamcommunity/public/images/apps/575700/65c92ae64774404ae229bd90c8e8b49e1d96a9f8.jpg",
    "icongray": "https://steamcdn-a.akamaihd.net/steamcommunity/public/images/apps/575700/7ce46ef116d3ae4a6ed600f3c4a5e336ba924775.jpg"
  },
  {
    "name": "70",
    "defaultvalue": 0,
    "displayName": "70",
    "hidden": 0,
    "description": "Score: 355",
    "icon": "https://steamcdn-a.akamaihd.net/steamcommunity/public/images/apps/575700/ccbec2ddf231536262a267197df38d19e1b49c1d.jpg",
    "icongray": "https://steamcdn-a.akamaihd.net/steamcommunity/public/images/apps/575700/4b07e3519ddb9b1604fc3e811e43f643d2eb126c.jpg"
  },
  {
    "name": "71",
    "defaultvalue": 0,
    "displayName": "71",
    "hidden": 0,
    "description": "Score: 360",
    "icon": "https://steamcdn-a.akamaihd.net/steamcommunity/public/images/apps/575700/7961feb93574b4a2dcd934335f0bf9390a587ac3.jpg",
    "icongray": "https://steamcdn-a.akamaihd.net/steamcommunity/public/images/apps/575700/02bc400b528489e7368ca9e0df95bd3600730d54.jpg"
  },
  {
    "name": "72",
    "defaultvalue": 0,
    "displayName": "72",
    "hidden": 0,
    "description": "Score: 365",
    "icon": "https://steamcdn-a.akamaihd.net/steamcommunity/public/images/apps/575700/99dcf940f12cd8d218797562196f6ef754554054.jpg",
    "icongray": "https://steamcdn-a.akamaihd.net/steamcommunity/public/images/apps/575700/d27e7f8d6c17140d110bb36f32e9965f0f054d73.jpg"
  },
  {
    "name": "73",
    "defaultvalue": 0,
    "displayName": "73",
    "hidden": 0,
    "description": "Score: 370",
    "icon": "https://steamcdn-a.akamaihd.net/steamcommunity/public/images/apps/575700/874212bd3e23110572c2ae824321fb7b6f5e4f5a.jpg",
    "icongray": "https://steamcdn-a.akamaihd.net/steamcommunity/public/images/apps/575700/cfa071e0128bd3a99e2779b4e82c021ca1fc37ca.jpg"
  },
  {
    "name": "74",
    "defaultvalue": 0,
    "displayName": "74",
    "hidden": 0,
    "description": "Score: 375",
    "icon": "https://steamcdn-a.akamaihd.net/steamcommunity/public/images/apps/575700/136d40f0a02d62bce0ef9f73669434df5285fb7a.jpg",
    "icongray": "https://steamcdn-a.akamaihd.net/steamcommunity/public/images/apps/575700/0acd65cfb62854d913a712b133121f8d45cf36f7.jpg"
  },
  {
    "name": "75",
    "defaultvalue": 0,
    "displayName": "75",
    "hidden": 0,
    "description": "Score: 380",
    "icon": "https://steamcdn-a.akamaihd.net/steamcommunity/public/images/apps/575700/fb59b306c4f4bf019b50d8b4c7bec53d4286707c.jpg",
    "icongray": "https://steamcdn-a.akamaihd.net/steamcommunity/public/images/apps/575700/7313c896ed1f277d92555afed27074b618a74d00.jpg"
  },
  {
    "name": "76",
    "defaultvalue": 0,
    "displayName": "76",
    "hidden": 0,
    "description": "Score: 385",
    "icon": "https://steamcdn-a.akamaihd.net/steamcommunity/public/images/apps/575700/06654d3077a9c6e949243fbb47c3c5e9bce80166.jpg",
    "icongray": "https://steamcdn-a.akamaihd.net/steamcommunity/public/images/apps/575700/915c0ecc62e1159457119c98e0df8c7c9aa5073a.jpg"
  },
  {
    "name": "77",
    "defaultvalue": 0,
    "displayName": "77",
    "hidden": 0,
    "description": "Score: 390",
    "icon": "https://steamcdn-a.akamaihd.net/steamcommunity/public/images/apps/575700/ffe60eae56f0085e32a82e93c3e01aea6ad921ee.jpg",
    "icongray": "https://steamcdn-a.akamaihd.net/steamcommunity/public/images/apps/575700/28636c1ddd2ec463e89e5d19213e44d12046b97c.jpg"
  },
  {
    "name": "78",
    "defaultvalue": 0,
    "displayName": "78",
    "hidden": 0,
    "description": "Score: 395",
    "icon": "https://steamcdn-a.akamaihd.net/steamcommunity/public/images/apps/575700/10c1e48479e8335057ff09e9b19a514f1ad844df.jpg",
    "icongray": "https://steamcdn-a.akamaihd.net/steamcommunity/public/images/apps/575700/b521531df26bb1e1cc035f35fb45f947c2a04821.jpg"
  },
  {
    "name": "79",
    "defaultvalue": 0,
    "displayName": "79",
    "hidden": 0,
    "description": "Score: 400",
    "icon": "https://steamcdn-a.akamaihd.net/steamcommunity/public/images/apps/575700/88579004840a9b3a4599ffe4304901b7bf285e7d.jpg",
    "icongray": "https://steamcdn-a.akamaihd.net/steamcommunity/public/images/apps/575700/34c3d97e98f1019d1ee67272cb912420701e0a0d.jpg"
  },
  {
    "name": "80",
    "defaultvalue": 0,
    "displayName": "80",
    "hidden": 0,
    "description": "Score: 405",
    "icon": "https://steamcdn-a.akamaihd.net/steamcommunity/public/images/apps/575700/bf646d397b299079d45f055bbecfbde7545e9e04.jpg",
    "icongray": "https://steamcdn-a.akamaihd.net/steamcommunity/public/images/apps/575700/2167f31a48cb16fbcaa150d88ad113d70e18d09e.jpg"
  },
  {
    "name": "81",
    "defaultvalue": 0,
    "displayName": "81",
    "hidden": 0,
    "description": "Score: 410",
    "icon": "https://steamcdn-a.akamaihd.net/steamcommunity/public/images/apps/575700/1112a018865c0c860a92174d5347a41fe83d34dc.jpg",
    "icongray": "https://steamcdn-a.akamaihd.net/steamcommunity/public/images/apps/575700/fd51ef7cc150bbb06d599d4c83e25468f483ae3c.jpg"
  },
  {
    "name": "82",
    "defaultvalue": 0,
    "displayName": "82",
    "hidden": 0,
    "description": "Score: 415",
    "icon": "https://steamcdn-a.akamaihd.net/steamcommunity/public/images/apps/575700/2fd81b664dff5cbadb9338e5884488e869582b39.jpg",
    "icongray": "https://steamcdn-a.akamaihd.net/steamcommunity/public/images/apps/575700/2185832a7d46cc0a6401934e468c33fae5ded7be.jpg"
  },
  {
    "name": "83",
    "defaultvalue": 0,
    "displayName": "83",
    "hidden": 0,
    "description": "Score: 420",
    "icon": "https://steamcdn-a.akamaihd.net/steamcommunity/public/images/apps/575700/b5f641237a1c255ede3bed7cb77f28322f44a0a2.jpg",
    "icongray": "https://steamcdn-a.akamaihd.net/steamcommunity/public/images/apps/575700/4f3254ffaa7e5c6f0442fe1fad856a144f1b5f1f.jpg"
  },
  {
    "name": "84",
    "defaultvalue": 0,
    "displayName": "84",
    "hidden": 0,
    "description": "Score: 425",
    "icon": "https://steamcdn-a.akamaihd.net/steamcommunity/public/images/apps/575700/3bf019611e963983177914b472f2c72c6b6d148d.jpg",
    "icongray": "https://steamcdn-a.akamaihd.net/steamcommunity/public/images/apps/575700/668efc235ac7ec376349a8404021cf4983100897.jpg"
  },
  {
    "name": "85",
    "defaultvalue": 0,
    "displayName": "85",
    "hidden": 0,
    "description": "Score: 430",
    "icon": "https://steamcdn-a.akamaihd.net/steamcommunity/public/images/apps/575700/af2d5bb0c2b727ba5e18f0fe4fa6c74508e2443e.jpg",
    "icongray": "https://steamcdn-a.akamaihd.net/steamcommunity/public/images/apps/575700/a982158e13612f9f93f360c40f06a63336cba301.jpg"
  },
  {
    "name": "86",
    "defaultvalue": 0,
    "displayName": "86",
    "hidden": 0,
    "description": "Score: 435",
    "icon": "https://steamcdn-a.akamaihd.net/steamcommunity/public/images/apps/575700/5cd8fbaf8f049b5bc5ae3cc3019602d06c7979c7.jpg",
    "icongray": "https://steamcdn-a.akamaihd.net/steamcommunity/public/images/apps/575700/e7b6eb33522760f88378c838284d6d6d5655d955.jpg"
  },
  {
    "name": "87",
    "defaultvalue": 0,
    "displayName": "87",
    "hidden": 0,
    "description": "Score: 440",
    "icon": "https://steamcdn-a.akamaihd.net/steamcommunity/public/images/apps/575700/863a2b8f211721bfd7b6abd8ac0964cdaa8ed9ae.jpg",
    "icongray": "https://steamcdn-a.akamaihd.net/steamcommunity/public/images/apps/575700/8abc3cfe65905f440c93cb2c471d8fab392a383c.jpg"
  },
  {
    "name": "88",
    "defaultvalue": 0,
    "displayName": "88",
    "hidden": 0,
    "description": "Score: 445",
    "icon": "https://steamcdn-a.akamaihd.net/steamcommunity/public/images/apps/575700/8f86788710d27348b2d86543b397a71c43639f38.jpg",
    "icongray": "https://steamcdn-a.akamaihd.net/steamcommunity/public/images/apps/575700/03064f7a273bb1a41eb56e515a0681107fe13e9c.jpg"
  },
  {
    "name": "89",
    "defaultvalue": 0,
    "displayName": "89",
    "hidden": 0,
    "description": "Score: 450",
    "icon": "https://steamcdn-a.akamaihd.net/steamcommunity/public/images/apps/575700/10c53e26a65734d0db1a9cb67e5c5a0a211d27e8.jpg",
    "icongray": "https://steamcdn-a.akamaihd.net/steamcommunity/public/images/apps/575700/ee2c2c9f9058ac6bc04621a7202460edf1317444.jpg"
  },
  {
    "name": "90",
    "defaultvalue": 0,
    "displayName": "90",
    "hidden": 0,
    "description": "Score: 455",
    "icon": "https://steamcdn-a.akamaihd.net/steamcommunity/public/images/apps/575700/3be36587afd8b1b5136b97a3dc5edaedc0930a39.jpg",
    "icongray": "https://steamcdn-a.akamaihd.net/steamcommunity/public/images/apps/575700/fe0a5aff736a8ddaca67c37d70a080888a751e91.jpg"
  },
  {
    "name": "91",
    "defaultvalue": 0,
    "displayName": "91",
    "hidden": 0,
    "description": "Score: 460",
    "icon": "https://steamcdn-a.akamaihd.net/steamcommunity/public/images/apps/575700/de375d5d0a0b2cd145527b025edd8bc301c13dfa.jpg",
    "icongray": "https://steamcdn-a.akamaihd.net/steamcommunity/public/images/apps/575700/4dd3070536fef32560510354bf1db5ef8bb6821d.jpg"
  },
  {
    "name": "92",
    "defaultvalue": 0,
    "displayName": "92",
    "hidden": 0,
    "description": "Score: 465",
    "icon": "https://steamcdn-a.akamaihd.net/steamcommunity/public/images/apps/575700/534c101f96c599675253c3b8566c65d653f06a68.jpg",
    "icongray": "https://steamcdn-a.akamaihd.net/steamcommunity/public/images/apps/575700/e0014a4dc864c3d57a1183244e05cb5b8ef1597d.jpg"
  },
  {
    "name": "93",
    "defaultvalue": 0,
    "displayName": "93",
    "hidden": 0,
    "description": "Score: 470",
    "icon": "https://steamcdn-a.akamaihd.net/steamcommunity/public/images/apps/575700/7b0f1ca2aa64a058e7c2787285846b36999856ca.jpg",
    "icongray": "https://steamcdn-a.akamaihd.net/steamcommunity/public/images/apps/575700/277931be174927c38e7458aa57da03b105c135c3.jpg"
  },
  {
    "name": "94",
    "defaultvalue": 0,
    "displayName": "94",
    "hidden": 0,
    "description": "Score: 475",
    "icon": "https://steamcdn-a.akamaihd.net/steamcommunity/public/images/apps/575700/ff9535c810851b5182b4d8127ac8262818da0df5.jpg",
    "icongray": "https://steamcdn-a.akamaihd.net/steamcommunity/public/images/apps/575700/9ab778ac72d1152c67e75fa6f9aa38956a873794.jpg"
  },
  {
    "name": "95",
    "defaultvalue": 0,
    "displayName": "95",
    "hidden": 0,
    "description": "Score: 480",
    "icon": "https://steamcdn-a.akamaihd.net/steamcommunity/public/images/apps/575700/4f2d4746e85db755bcb230751cef6df21dae65a7.jpg",
    "icongray": "https://steamcdn-a.akamaihd.net/steamcommunity/public/images/apps/575700/fc36940a9055399c649deed4d520de6b4cbf1953.jpg"
  },
  {
    "name": "96",
    "defaultvalue": 0,
    "displayName": "96",
    "hidden": 0,
    "description": "Score: 485",
    "icon": "https://steamcdn-a.akamaihd.net/steamcommunity/public/images/apps/575700/f861d4688568d50640aee5779f3c8a099edb89e9.jpg",
    "icongray": "https://steamcdn-a.akamaihd.net/steamcommunity/public/images/apps/575700/f23c4566d1b39ff6b7b946ddc757cb2354c67871.jpg"
  },
  {
    "name": "97",
    "defaultvalue": 0,
    "displayName": "97",
    "hidden": 0,
    "description": "Score: 490",
    "icon": "https://steamcdn-a.akamaihd.net/steamcommunity/public/images/apps/575700/fcef20596665ef2286a3eb1e3ebab33a4beb4b8d.jpg",
    "icongray": "https://steamcdn-a.akamaihd.net/steamcommunity/public/images/apps/575700/c119a89348e2ee4b524ac3fbc6bcd932e58a8edb.jpg"
  },
  {
    "name": "98",
    "defaultvalue": 0,
    "displayName": "98",
    "hidden": 0,
    "description": "Score: 495",
    "icon": "https://steamcdn-a.akamaihd.net/steamcommunity/public/images/apps/575700/6fc454f832d30b63d06b1dfb422f283b8043f207.jpg",
    "icongray": "https://steamcdn-a.akamaihd.net/steamcommunity/public/images/apps/575700/e3c0721c73eabd1d254793dd3db263c7492e718f.jpg"
  },
  {
    "name": "99",
    "defaultvalue": 0,
    "displayName": "99",
    "hidden": 0,
    "description": "Score: 500",
    "icon": "https://steamcdn-a.akamaihd.net/steamcommunity/public/images/apps/575700/cfab15bc2d5349bb983aab4bf6d84f562d8d9ff4.jpg",
    "icongray": "https://steamcdn-a.akamaihd.net/steamcommunity/public/images/apps/575700/e5dc9f3c2bb97b3c1679c471d1da4e5138673247.jpg"
  },
  {
    "name": "100",
    "defaultvalue": 0,
    "displayName": "100",
    "hidden": 0,
    "description": "Score: 1000",
    "icon": "https://steamcdn-a.akamaihd.net/steamcommunity/public/images/apps/575700/5e1e5977cbbce3e81d4c4216e03705403f764047.jpg",
    "icongray": "https://steamcdn-a.akamaihd.net/steamcommunity/public/images/apps/575700/7fcfe86dde61bcd1c6da538d5470081c18beffe2.jpg"
  }
]