﻿[
  {
    "name": "FirstDeath",
    "defaultvalue": 0,
    "displayName": "You are dead",
    "hidden": 0,
    "description": ":D",
    "icon": "https://steamcdn-a.akamaihd.net/steamcommunity/public/images/apps/514660/cd627e8a45880840463525b7127d542cad0b589c.jpg",
    "icongray": "https://steamcdn-a.akamaihd.net/steamcommunity/public/images/apps/514660/742377a1df1a106eabd0fe60a85781d475504a8a.jpg"
  },
  {
    "name": "Annihilator1",
    "defaultvalue": 0,
    "displayName": "Annihilator I",
    "hidden": 0,
    "description": "Killed 1 024 mobs",
    "icon": "https://steamcdn-a.akamaihd.net/steamcommunity/public/images/apps/514660/6ba56d5797b293bb1d6351e02643c898f8dc46d6.jpg",
    "icongray": "https://steamcdn-a.akamaihd.net/steamcommunity/public/images/apps/514660/ca0312a62af9cce36423b3726bc313a05cf78f8f.jpg"
  },
  {
    "name": "Annihilator2",
    "defaultvalue": 0,
    "displayName": "Annihilator II",
    "hidden": 0,
    "description": "Killed 32 768 mobs",
    "icon": "https://steamcdn-a.akamaihd.net/steamcommunity/public/images/apps/514660/f3b94b9a99376f840f14b118bbda312510c2f9ab.jpg",
    "icongray": "https://steamcdn-a.akamaihd.net/steamcommunity/public/images/apps/514660/0bd93516cd7d4ef393a0eaa309608b8cf903a612.jpg"
  },
  {
    "name": "Annihilator3",
    "defaultvalue": 0,
    "displayName": "Annihilator III",
    "hidden": 0,
    "description": "Killed 524 288 mobs",
    "icon": "https://steamcdn-a.akamaihd.net/steamcommunity/public/images/apps/514660/b6afb84d0daa957c32b984910a4fd3b55116a06a.jpg",
    "icongray": "https://steamcdn-a.akamaihd.net/steamcommunity/public/images/apps/514660/a3f38c291212b19250bc0d3d36c4211258cf6956.jpg"
  },
  {
    "name": "BossSwarm",
    "defaultvalue": 0,
    "displayName": "Bug Butcher",
    "hidden": 0,
    "description": "Defeat the Swarm boss at least once",
    "icon": "https://steamcdn-a.akamaihd.net/steamcommunity/public/images/apps/514660/8fc06e30bb495f1c5d8b8ab66c69cf17b1dcf850.jpg",
    "icongray": "https://steamcdn-a.akamaihd.net/steamcommunity/public/images/apps/514660/6c1bf3b237f17bab1b20e64df6d43561f42080dc.jpg"
  },
  {
    "name": "BossTwin",
    "defaultvalue": 0,
    "displayName": "Die, Jackanapes!",
    "hidden": 0,
    "description": "Defeat the Twin boss at least once",
    "icon": "https://steamcdn-a.akamaihd.net/steamcommunity/public/images/apps/514660/35e00a3f55021b8df0b5fb4a30334c3a75ad8c18.jpg",
    "icongray": "https://steamcdn-a.akamaihd.net/steamcommunity/public/images/apps/514660/1155fdc1aed37182cd7ce3b4553bfba96ccb84cb.jpg"
  },
  {
    "name": "BossDragon",
    "defaultvalue": 0,
    "displayName": "Snake Killer",
    "hidden": 0,
    "description": "Defeat the Dragon boss at least once",
    "icon": "https://steamcdn-a.akamaihd.net/steamcommunity/public/images/apps/514660/802c59f38b4531b49d74488977bc2b8db92d56f5.jpg",
    "icongray": "https://steamcdn-a.akamaihd.net/steamcommunity/public/images/apps/514660/b0caebcd215881bfbbb3667adc05fe33b43a3eed.jpg"
  },
  {
    "name": "BossStronghold",
    "defaultvalue": 0,
    "displayName": "Wrecking Ball",
    "hidden": 0,
    "description": "Defeat the Stronghold boss at least once",
    "icon": "https://steamcdn-a.akamaihd.net/steamcommunity/public/images/apps/514660/7410e9b3789963825b978657271eb9facfecc3ef.jpg",
    "icongray": "https://steamcdn-a.akamaihd.net/steamcommunity/public/images/apps/514660/9d7a6cdfab9195562306bee6fbce0989cbdaf152.jpg"
  },
  {
    "name": "BossDefender",
    "defaultvalue": 0,
    "displayName": "UFO destructor",
    "hidden": 0,
    "description": "Defeat the Vortex Defender at least once",
    "icon": "https://steamcdn-a.akamaihd.net/steamcommunity/public/images/apps/514660/a11d63b3423885aa495c6d6d940334f6dddf7df1.jpg",
    "icongray": "https://steamcdn-a.akamaihd.net/steamcommunity/public/images/apps/514660/b26b9cecc7b8576ed293d3f82a1108cb2a94e22b.jpg"
  },
  {
    "name": "Stage2",
    "defaultvalue": 0,
    "displayName": "Stage 2",
    "hidden": 0,
    "description": "Survive till the second stage",
    "icon": "https://steamcdn-a.akamaihd.net/steamcommunity/public/images/apps/514660/fbdf24e216c1c7a0c07cf2c77e3e2d0704f08aaa.jpg",
    "icongray": "https://steamcdn-a.akamaihd.net/steamcommunity/public/images/apps/514660/53b10daf85f76716b0d0377692ad62d59ca6001f.jpg"
  },
  {
    "name": "Stage3",
    "defaultvalue": 0,
    "displayName": "Stage 3",
    "hidden": 0,
    "description": "Survive till the third stage",
    "icon": "https://steamcdn-a.akamaihd.net/steamcommunity/public/images/apps/514660/239af13f7c2629ab72be857bcd7f3bda72b63c4c.jpg",
    "icongray": "https://steamcdn-a.akamaihd.net/steamcommunity/public/images/apps/514660/4039509ab329965dc8545c7f24b48fecd4cbb0b3.jpg"
  },
  {
    "name": "Stage4",
    "defaultvalue": 0,
    "displayName": "Stage 4",
    "hidden": 0,
    "description": "Survive till the fourth stage",
    "icon": "https://steamcdn-a.akamaihd.net/steamcommunity/public/images/apps/514660/a19d9f675487e03d2c37b358fe02c44524f66ac6.jpg",
    "icongray": "https://steamcdn-a.akamaihd.net/steamcommunity/public/images/apps/514660/c34be9a7bdc3941d32fb8838695ecd52189e5572.jpg"
  },
  {
    "name": "Stage5",
    "defaultvalue": 0,
    "displayName": "Stage 5",
    "hidden": 0,
    "description": "Survive till the fifth stage",
    "icon": "https://steamcdn-a.akamaihd.net/steamcommunity/public/images/apps/514660/a9a516801e18f7a3d49bdcca064deb2ac410db89.jpg",
    "icongray": "https://steamcdn-a.akamaihd.net/steamcommunity/public/images/apps/514660/a4903d388ea9a64d760d7779d78c56513314199c.jpg"
  },
  {
    "name": "Fullhouse",
    "defaultvalue": 0,
    "displayName": "Fullhouse",
    "hidden": 0,
    "description": "Unlock all the five heroes",
    "icon": "https://steamcdn-a.akamaihd.net/steamcommunity/public/images/apps/514660/624489d2004ebf86419e5255764532f88cc619d8.jpg",
    "icongray": "https://steamcdn-a.akamaihd.net/steamcommunity/public/images/apps/514660/d1d8e077ae547f80fd2c990c2363de14ad11a188.jpg"
  },
  {
    "name": "Breach1",
    "defaultvalue": 0,
    "displayName": "The Breach",
    "hidden": 0,
    "description": "Escape the Factor city and break the Fourth Wall",
    "icon": "https://steamcdn-a.akamaihd.net/steamcommunity/public/images/apps/514660/3060f3a43c15471e82561dac0e8ef1283a743234.jpg",
    "icongray": "https://steamcdn-a.akamaihd.net/steamcommunity/public/images/apps/514660/a90012584db5c38cca6be7cc1fa1588ae92f36de.jpg"
  },
  {
    "name": "Breach2",
    "defaultvalue": 0,
    "displayName": "Suicide Quad",
    "hidden": 0,
    "description": "All heroes escaped the Factor city",
    "icon": "https://steamcdn-a.akamaihd.net/steamcommunity/public/images/apps/514660/567764344ceb192da9c6e9c08d9e94e7bbbe6581.jpg",
    "icongray": "https://steamcdn-a.akamaihd.net/steamcommunity/public/images/apps/514660/318b91b88d9d2e2ef46cc9723b83a781ecfddf97.jpg"
  },
  {
    "name": "NoSlowMo",
    "defaultvalue": 0,
    "displayName": "Buffs? Nah.",
    "hidden": 0,
    "description": "Defeat the Dragon without using time crystals",
    "icon": "https://steamcdn-a.akamaihd.net/steamcommunity/public/images/apps/514660/bd1d00fd54fe66e2142cc12716a5c0b2daf70b66.jpg",
    "icongray": "https://steamcdn-a.akamaihd.net/steamcommunity/public/images/apps/514660/1be78a1109b34cdcc764c72b7b862cf207b87bde.jpg"
  },
  {
    "name": "TooBrisk",
    "defaultvalue": 0,
    "displayName": "Too Brisk",
    "hidden": 0,
    "description": "Defeat the Vortex Defender without taking any damage",
    "icon": "https://steamcdn-a.akamaihd.net/steamcommunity/public/images/apps/514660/190282e5fe178f86fcb1839fa6236e5fc2c38243.jpg",
    "icongray": "https://steamcdn-a.akamaihd.net/steamcommunity/public/images/apps/514660/3ff0464188b88f79ebd297426e461030746bd54e.jpg"
  }
]