﻿{
  "Dlcs": {},
  "Name": "Maze Run VR",
  "AppId": "681550",
  "ImageUrl": "https://steamcdn-a.akamaihd.net/steam/apps/681550/header.jpg?t=1504336720",
  "Languages": [
    "english"
  ],
  "Platforms": {
    "windows": true,
    "mac": false,
    "linux": false
  }
}