﻿[
  {
    "name": "AirElement",
    "defaultvalue": 0,
    "displayName": "Air Element",
    "hidden": 1,
    "icon": "https://steamcdn-a.akamaihd.net/steamcommunity/public/images/apps/564310/95c9ad6bb28b4edd785774ccb07c26b4aac9b435.jpg",
    "icongray": "https://steamcdn-a.akamaihd.net/steamcommunity/public/images/apps/564310/d7bdf6fdd4470b1f174b9cfffa96774ac2f12a1d.jpg"
  },
  {
    "name": "EarthElement",
    "defaultvalue": 0,
    "displayName": "Earth Element",
    "hidden": 1,
    "icon": "https://steamcdn-a.akamaihd.net/steamcommunity/public/images/apps/564310/cf1a0d77c655f90a6c809ac08896b1eb9e7d714f.jpg",
    "icongray": "https://steamcdn-a.akamaihd.net/steamcommunity/public/images/apps/564310/8146ed5781d7a9331fca0e1aa68b324f1d94959f.jpg"
  },
  {
    "name": "FireElement",
    "defaultvalue": 0,
    "displayName": "Fire Element",
    "hidden": 1,
    "icon": "https://steamcdn-a.akamaihd.net/steamcommunity/public/images/apps/564310/83c98cea8c794b67ae1d77b2c3e40396513df69c.jpg",
    "icongray": "https://steamcdn-a.akamaihd.net/steamcommunity/public/images/apps/564310/3b859032ad7651b57995a7ebeb5e92028e7e68bf.jpg"
  },
  {
    "name": "WaterElement",
    "defaultvalue": 0,
    "displayName": "Water Element",
    "hidden": 1,
    "icon": "https://steamcdn-a.akamaihd.net/steamcommunity/public/images/apps/564310/e681a1f0db82bf1a35f7c22376efcb2032edbb30.jpg",
    "icongray": "https://steamcdn-a.akamaihd.net/steamcommunity/public/images/apps/564310/e0962654c9f2f21f19b35d835b813ccd5467d79b.jpg"
  },
  {
    "name": "HugePileOfLava",
    "defaultvalue": 0,
    "displayName": "Huge Pile of Lava",
    "hidden": 1,
    "icon": "https://steamcdn-a.akamaihd.net/steamcommunity/public/images/apps/564310/f576ec45ec8a1ff9bbe2b2b6dcc52ccbc74ac2f4.jpg",
    "icongray": "https://steamcdn-a.akamaihd.net/steamcommunity/public/images/apps/564310/470916261858dc97508e3276fefca3583af1de75.jpg"
  },
  {
    "name": "HeyThatsCheating",
    "defaultvalue": 0,
    "displayName": "Hey! That's cheating!",
    "hidden": 1,
    "icon": "https://steamcdn-a.akamaihd.net/steamcommunity/public/images/apps/564310/0ed5214b2465419f771f10d2ad0f9ef6260a2e7e.jpg",
    "icongray": "https://steamcdn-a.akamaihd.net/steamcommunity/public/images/apps/564310/f312bb76b449f64f5ad16568b177dea5d81fcdf2.jpg"
  },
  {
    "name": "QuickDraw",
    "defaultvalue": 0,
    "displayName": "Quick Draw",
    "hidden": 1,
    "icon": "https://steamcdn-a.akamaihd.net/steamcommunity/public/images/apps/564310/edfc13f6ce6261215a1eafc0a60b8cd72fbc936d.jpg",
    "icongray": "https://steamcdn-a.akamaihd.net/steamcommunity/public/images/apps/564310/67b6e14151324ba5560c8bc08008cfe5ccf0e461.jpg"
  },
  {
    "name": "WallOfBullets",
    "defaultvalue": 0,
    "displayName": "Wall of Bullets",
    "hidden": 0,
    "description": "Kill 20 enemies with the Minigun without releasing the trigger.",
    "icon": "https://steamcdn-a.akamaihd.net/steamcommunity/public/images/apps/564310/0c7b3fe7caa3c77db663b0b49017fc329394cac5.jpg",
    "icongray": "https://steamcdn-a.akamaihd.net/steamcommunity/public/images/apps/564310/653b40759b1231ba1294e901b475fe46043fd88e.jpg"
  },
  {
    "name": "CannonExpert",
    "defaultvalue": 0,
    "displayName": "Cannon Expert",
    "hidden": 0,
    "description": "Pierce at least 10 enemies with a single cannonball.",
    "icon": "https://steamcdn-a.akamaihd.net/steamcommunity/public/images/apps/564310/3d1b1852f9dbbc30a3ab279faf6ac0e8a56e956b.jpg",
    "icongray": "https://steamcdn-a.akamaihd.net/steamcommunity/public/images/apps/564310/7d78c420055f564ec7707c7a4cca5e55a07819bb.jpg"
  },
  {
    "name": "LookItsASecret",
    "defaultvalue": 0,
    "displayName": "Look, it's a secret!",
    "hidden": 0,
    "description": "Find at least 30 secrets in single player.",
    "icon": "https://steamcdn-a.akamaihd.net/steamcommunity/public/images/apps/564310/f476c3e1814844018638aa15a778f19f7453700d.jpg",
    "icongray": "https://steamcdn-a.akamaihd.net/steamcommunity/public/images/apps/564310/bf1c2adb634ffa5727b5ee46ccb57a193787cb2d.jpg"
  },
  {
    "name": "LeapOfFaith",
    "defaultvalue": 0,
    "displayName": "Leap of Faith",
    "hidden": 0,
    "description": "Leap into the unknown on Luxor.",
    "icon": "https://steamcdn-a.akamaihd.net/steamcommunity/public/images/apps/564310/09eafac29ce6054e05ac6be5c7ef9ecd539a5382.jpg",
    "icongray": "https://steamcdn-a.akamaihd.net/steamcommunity/public/images/apps/564310/0bfa40739a11d2d23d5265dff55620caff216f74.jpg"
  },
  {
    "name": "ILoveMyCannon",
    "defaultvalue": 0,
    "displayName": "I love my Cannon",
    "hidden": 0,
    "description": "Kill 100 Enemies with the Cannon.",
    "icon": "https://steamcdn-a.akamaihd.net/steamcommunity/public/images/apps/564310/c8d96241e863625a1ababf91323041d7168eac51.jpg",
    "icongray": "https://steamcdn-a.akamaihd.net/steamcommunity/public/images/apps/564310/87eba895ff272ac46c995e6d8cae787e3f7b8646.jpg"
  },
  {
    "name": "ILoveMyRocketLauncher",
    "defaultvalue": 0,
    "displayName": "I love my Rocket Launcher",
    "hidden": 0,
    "description": "Kill 150 Enemies with the Rocket Launcher.",
    "icon": "https://steamcdn-a.akamaihd.net/steamcommunity/public/images/apps/564310/44a4f8575050404806227d67d05327b6afbcab08.jpg",
    "icongray": "https://steamcdn-a.akamaihd.net/steamcommunity/public/images/apps/564310/6c003bb6e4a02259bb0baab6c346b396f958f7e8.jpg"
  },
  {
    "name": "ILoveMyThompson",
    "defaultvalue": 0,
    "displayName": "I love my Thompson",
    "hidden": 0,
    "description": "Kill 200 Enemies with the Thompson Submachine gun.",
    "icon": "https://steamcdn-a.akamaihd.net/steamcommunity/public/images/apps/564310/115bcb3bd9a4de901b3ad7dc6b2804d3fbc07b69.jpg",
    "icongray": "https://steamcdn-a.akamaihd.net/steamcommunity/public/images/apps/564310/152940d39f2d0505e5e74dd453c8f98f92d806da.jpg"
  },
  {
    "name": "ILoveMyShotguns",
    "defaultvalue": 0,
    "displayName": "I love my Shotguns",
    "hidden": 0,
    "description": "Kill 250 Enemies with a shotgun.",
    "icon": "https://steamcdn-a.akamaihd.net/steamcommunity/public/images/apps/564310/7629ce9d2622dd463076ea44ceef951393133b5f.jpg",
    "icongray": "https://steamcdn-a.akamaihd.net/steamcommunity/public/images/apps/564310/a51b4b4363a2f289f4366888ab9df0ee1d37671d.jpg"
  },
  {
    "name": "ILoveMyMinigun",
    "defaultvalue": 0,
    "displayName": "I love my Minigun",
    "hidden": 0,
    "description": "Kill 300 Enemies with the Minigun.",
    "icon": "https://steamcdn-a.akamaihd.net/steamcommunity/public/images/apps/564310/727f9f7a2d849e4f065a5a564b51a0d492acf30c.jpg",
    "icongray": "https://steamcdn-a.akamaihd.net/steamcommunity/public/images/apps/564310/b8e41cf471932cda25a83fd4b428fddff2ee7baf.jpg"
  },
  {
    "name": "SeriousBeginner",
    "defaultvalue": 0,
    "displayName": "Serious Beginner",
    "hidden": 0,
    "description": "Complete any level in single player.",
    "icon": "https://steamcdn-a.akamaihd.net/steamcommunity/public/images/apps/564310/687e77135f61efd70613660e1f5385a86e848539.jpg",
    "icongray": "https://steamcdn-a.akamaihd.net/steamcommunity/public/images/apps/564310/373da703e570feaec590e35c98948c2790094b06.jpg"
  },
  {
    "name": "MetropolisKing",
    "defaultvalue": 0,
    "displayName": "Metropolis King",
    "hidden": 0,
    "description": "Complete the Metropolis level in single player on unmodified serious difficulty.",
    "icon": "https://steamcdn-a.akamaihd.net/steamcommunity/public/images/apps/564310/1e75bf62b467c1e74a35bfe214301b1e3f45aee0.jpg",
    "icongray": "https://steamcdn-a.akamaihd.net/steamcommunity/public/images/apps/564310/269a98ce4576e7d68a5f0388ecac23bea8fb56bd.jpg"
  },
  {
    "name": "CoopBeginner",
    "defaultvalue": 0,
    "displayName": "Co-op Beginner",
    "hidden": 0,
    "description": "Complete any level in co-op.",
    "icon": "https://steamcdn-a.akamaihd.net/steamcommunity/public/images/apps/564310/5bdb6ac83a2fad1646e73f0144d1da1e09ff400e.jpg",
    "icongray": "https://steamcdn-a.akamaihd.net/steamcommunity/public/images/apps/564310/64410e6bdf23eda19a5c0c60fb149020083a74aa.jpg"
  },
  {
    "name": "CoopHippy",
    "defaultvalue": 0,
    "displayName": "Co-op Hippy",
    "hidden": 0,
    "description": "Complete a level in co-op with blood option set to hippy.",
    "icon": "https://steamcdn-a.akamaihd.net/steamcommunity/public/images/apps/564310/ee5f46b21227e7fa13bfd7fa81d0d364fa7ea3fa.jpg",
    "icongray": "https://steamcdn-a.akamaihd.net/steamcommunity/public/images/apps/564310/686b1c3e080043e752ee953e6372613823192712.jpg"
  },
  {
    "name": "LookMaIWon",
    "defaultvalue": 0,
    "displayName": "Look Ma, I won!",
    "hidden": 0,
    "description": "Win a versus match.",
    "icon": "https://steamcdn-a.akamaihd.net/steamcommunity/public/images/apps/564310/ed23dd29d0a4863e51c2e09cc23944aae4849548.jpg",
    "icongray": "https://steamcdn-a.akamaihd.net/steamcommunity/public/images/apps/564310/c7fda35b971e42a22ac9efe07f6bfca0efebc600.jpg"
  },
  {
    "name": "Fragger",
    "defaultvalue": 0,
    "displayName": "Fragger",
    "hidden": 0,
    "description": "Frag a total of 100 players.",
    "icon": "https://steamcdn-a.akamaihd.net/steamcommunity/public/images/apps/564310/7a32c4d2e7c78b019637f3a4cc39fa9ff9ec7638.jpg",
    "icongray": "https://steamcdn-a.akamaihd.net/steamcommunity/public/images/apps/564310/c79afaeed922d6868e96d7c763a45d3f02f4211f.jpg"
  },
  {
    "name": "LookMaImALumberjack",
    "defaultvalue": 0,
    "displayName": "Look Ma, I'm a Lumberjack!",
    "hidden": 1,
    "icon": "https://steamcdn-a.akamaihd.net/steamcommunity/public/images/apps/564310/ec9deffec7680f99359643fcc061893d28785e0d.jpg",
    "icongray": "https://steamcdn-a.akamaihd.net/steamcommunity/public/images/apps/564310/fef910790323676083a55c83fe10468e5404e007.jpg"
  },
  {
    "name": "TreasureDiving",
    "defaultvalue": 0,
    "displayName": "Treasure Diving",
    "hidden": 0,
    "description": "Find a secret under water.",
    "icon": "https://steamcdn-a.akamaihd.net/steamcommunity/public/images/apps/564310/5a39ab80ca57665aea584bb59f2c3b4c35a2fb2e.jpg",
    "icongray": "https://steamcdn-a.akamaihd.net/steamcommunity/public/images/apps/564310/978c38c9e82753a6650542d9a4a99166617e5b01.jpg"
  },
  {
    "name": "NiceTry",
    "defaultvalue": 0,
    "displayName": "Nice Try",
    "hidden": 1,
    "icon": "https://steamcdn-a.akamaihd.net/steamcommunity/public/images/apps/564310/e8f01d2533e8a8d02f354af2da3ee694f85fbed4.jpg",
    "icongray": "https://steamcdn-a.akamaihd.net/steamcommunity/public/images/apps/564310/4459fef36c8eec5354dfd09ec958138a35610fc9.jpg"
  },
  {
    "name": "MinesBiggerThanYours",
    "defaultvalue": 0,
    "displayName": "Mine's bigger than yours",
    "hidden": 0,
    "description": "Destroy an enemy cannon with your own cannon.",
    "icon": "https://steamcdn-a.akamaihd.net/steamcommunity/public/images/apps/564310/01602558db0331da791ce7bd1374e16b55575d83.jpg",
    "icongray": "https://steamcdn-a.akamaihd.net/steamcommunity/public/images/apps/564310/3b4c2f48300e01e0df9fd06e2e3c5f0ecb345abe.jpg"
  },
  {
    "name": "ThePerfectStorm",
    "defaultvalue": 0,
    "displayName": "The Perfect Storm",
    "hidden": 1,
    "icon": "https://steamcdn-a.akamaihd.net/steamcommunity/public/images/apps/564310/14f007adade69939b7c01dd6369dd048e4180f50.jpg",
    "icongray": "https://steamcdn-a.akamaihd.net/steamcommunity/public/images/apps/564310/1ed2d6b0bd3bff702694df7e34128062206f2ad5.jpg"
  },
  {
    "name": "TrickOrTreat",
    "defaultvalue": 0,
    "displayName": "Trick or Treat",
    "hidden": 0,
    "description": "Kill 50 Cucurbitos.",
    "icon": "https://steamcdn-a.akamaihd.net/steamcommunity/public/images/apps/564310/340d4f94f9aa0ab063fac3abd554ac14c9c96ba3.jpg",
    "icongray": "https://steamcdn-a.akamaihd.net/steamcommunity/public/images/apps/564310/b764bb781c42abe6aa07141461a4a280204ad981.jpg"
  },
  {
    "name": "Rrrrrrrrrr",
    "defaultvalue": 0,
    "displayName": "Rrrrrrrrrr",
    "hidden": 0,
    "description": "Kill 10 enemies with the Chainsaw without releasing the trigger.",
    "icon": "https://steamcdn-a.akamaihd.net/steamcommunity/public/images/apps/564310/971698e41f150cda1aa5d5f61286f795219ab764.jpg",
    "icongray": "https://steamcdn-a.akamaihd.net/steamcommunity/public/images/apps/564310/9969b27e4a4e0c03bbcc91f2539cb5759cb2e720.jpg"
  },
  {
    "name": "MakeItCount",
    "defaultvalue": 0,
    "displayName": "Make it count",
    "hidden": 0,
    "description": "Kill at least 30 enemies with a single Serious Bomb.",
    "icon": "https://steamcdn-a.akamaihd.net/steamcommunity/public/images/apps/564310/2aa7639d19d31ebcbb9e2521426e33a316e1b617.jpg",
    "icongray": "https://steamcdn-a.akamaihd.net/steamcommunity/public/images/apps/564310/6495f9780c57c5927ea0bf67404779d5e1f85221.jpg"
  },
  {
    "name": "BurnBabyBurn",
    "defaultvalue": 0,
    "displayName": "Burn Baby, Burn",
    "hidden": 0,
    "description": "Burn 100 enemies to death.",
    "icon": "https://steamcdn-a.akamaihd.net/steamcommunity/public/images/apps/564310/f17b0664cfe9261ccfe55d617f722d53a466903c.jpg",
    "icongray": "https://steamcdn-a.akamaihd.net/steamcommunity/public/images/apps/564310/422cd49912012f5749209867a3ad59a50376bae8.jpg"
  },
  {
    "name": "SeriousDamage",
    "defaultvalue": 0,
    "displayName": "Serious Damage",
    "hidden": 0,
    "description": "Kill 100 enemies with Serious Damage active.",
    "icon": "https://steamcdn-a.akamaihd.net/steamcommunity/public/images/apps/564310/fd11aa35354493980c36701e7304785d35557bf4.jpg",
    "icongray": "https://steamcdn-a.akamaihd.net/steamcommunity/public/images/apps/564310/af92ea6681223acd55a81230eb1e0d12eb6708a4.jpg"
  },
  {
    "name": "Crunchy",
    "defaultvalue": 0,
    "displayName": "Crunchy",
    "hidden": 0,
    "description": "Kill 100 Kleers with the Cannon.",
    "icon": "https://steamcdn-a.akamaihd.net/steamcommunity/public/images/apps/564310/19f332f6d4390d8569e432619841916a8beff15d.jpg",
    "icongray": "https://steamcdn-a.akamaihd.net/steamcommunity/public/images/apps/564310/922def574860ae3d07a504fa1461e7ce2eb35ce7.jpg"
  },
  {
    "name": "BirdHunter",
    "defaultvalue": 0,
    "displayName": "Bird Hunter",
    "hidden": 0,
    "description": "Kill 20 Harpies with the Sniper rifle.",
    "icon": "https://steamcdn-a.akamaihd.net/steamcommunity/public/images/apps/564310/a33a657ade836629de083f541aecf29a9a91c5e9.jpg",
    "icongray": "https://steamcdn-a.akamaihd.net/steamcommunity/public/images/apps/564310/c09eef09c2f85a400dc22f992a4efd1427a3d932.jpg"
  },
  {
    "name": "SpaceMarine",
    "defaultvalue": 0,
    "displayName": "Space Marine",
    "hidden": 0,
    "description": "Kill 200 enemies with the Laser gun.",
    "icon": "https://steamcdn-a.akamaihd.net/steamcommunity/public/images/apps/564310/8eff27012ecced6a0df9624a041a45301458ee10.jpg",
    "icongray": "https://steamcdn-a.akamaihd.net/steamcommunity/public/images/apps/564310/f17634a24bab72903d79925cc017b84691f53c6e.jpg"
  },
  {
    "name": "SouthAmericaMaster",
    "defaultvalue": 0,
    "displayName": "South America Master",
    "hidden": 0,
    "description": "Complete the South America episode in single player or cooperative.",
    "icon": "https://steamcdn-a.akamaihd.net/steamcommunity/public/images/apps/564310/218acbb495eec75e966d2d1b45ff422f9aaac30a.jpg",
    "icongray": "https://steamcdn-a.akamaihd.net/steamcommunity/public/images/apps/564310/706e0c85c99992c66101eb62709c34a9f6c1dc9d.jpg"
  },
  {
    "name": "PersiaMaster",
    "defaultvalue": 0,
    "displayName": "Persia Master",
    "hidden": 0,
    "description": "Complete the Persia episode in single player or cooperative.",
    "icon": "https://steamcdn-a.akamaihd.net/steamcommunity/public/images/apps/564310/a19446dd40f8ebbe3e8504156423d8903311e2bf.jpg",
    "icongray": "https://steamcdn-a.akamaihd.net/steamcommunity/public/images/apps/564310/a8fc829ed2355d3dd58cbc242d902cbbd0c36edd.jpg"
  },
  {
    "name": "MedievalMaster",
    "defaultvalue": 0,
    "displayName": "Medieval Master",
    "hidden": 0,
    "description": "Complete the Medieval episode in single player or cooperative.",
    "icon": "https://steamcdn-a.akamaihd.net/steamcommunity/public/images/apps/564310/2583a1079093edaad3b6981b114b682ce7957842.jpg",
    "icongray": "https://steamcdn-a.akamaihd.net/steamcommunity/public/images/apps/564310/eacc7b91bf1bc647783bc0f5a51a9af3082b983e.jpg"
  },
  {
    "name": "CoopSurvivor",
    "defaultvalue": 0,
    "displayName": "Co-op Survivor",
    "hidden": 0,
    "description": "Earn a gold medal on any level in cooperative Survival.",
    "icon": "https://steamcdn-a.akamaihd.net/steamcommunity/public/images/apps/564310/0b5824f607100e79f53a130ac8bb7c0357979f23.jpg",
    "icongray": "https://steamcdn-a.akamaihd.net/steamcommunity/public/images/apps/564310/21424840639f694b494785bd5b7aeed269a5f29e.jpg"
  },
  {
    "name": "Survivor",
    "defaultvalue": 0,
    "displayName": "Survivor",
    "hidden": 0,
    "description": "Earn a gold medal on any level in single player Survival.",
    "icon": "https://steamcdn-a.akamaihd.net/steamcommunity/public/images/apps/564310/5095803527063502ff70e34b9419952fda931dd8.jpg",
    "icongray": "https://steamcdn-a.akamaihd.net/steamcommunity/public/images/apps/564310/a9b17c4e246d09276b34310eaa16e239d8c3b7dd.jpg"
  },
  {
    "name": "TheBeast",
    "defaultvalue": 0,
    "displayName": "The Beast",
    "hidden": 0,
    "description": "Finish the Legend of the Beast campaign in single player or cooperative.",
    "icon": "https://steamcdn-a.akamaihd.net/steamcommunity/public/images/apps/564310/e7d3f35441d33ec1e997ada155e823adc937e8ed.jpg",
    "icongray": "https://steamcdn-a.akamaihd.net/steamcommunity/public/images/apps/564310/8ecf9be7b860df952481d849395aee5e20e799b4.jpg"
  },
  {
    "name": "WantedDeadOrAlive",
    "defaultvalue": 0,
    "displayName": "Wanted Dead or Alive",
    "hidden": 0,
    "description": "Rescue professor Stein. So to say.",
    "icon": "https://steamcdn-a.akamaihd.net/steamcommunity/public/images/apps/564310/1844c88c7dfb80a0278ab2aa9fb1cb75d49a2611.jpg",
    "icongray": "https://steamcdn-a.akamaihd.net/steamcommunity/public/images/apps/564310/62d27bba646a99592875d0da8effe5b4e0b4be44.jpg"
  },
  {
    "name": "ChainExplosion",
    "defaultvalue": 0,
    "displayName": "Chain Explosion",
    "hidden": 0,
    "description": "Kill at least 5 headless kamikazes in one explosion.",
    "icon": "https://steamcdn-a.akamaihd.net/steamcommunity/public/images/apps/564310/f4e2298314323c0fd1d321506937ddb642263fb5.jpg",
    "icongray": "https://steamcdn-a.akamaihd.net/steamcommunity/public/images/apps/564310/03c4efff1f16f097f7a074ab54959bbb256e1172.jpg"
  },
  {
    "name": "BugHunt",
    "defaultvalue": 0,
    "displayName": "Bug Hunt",
    "hidden": 0,
    "description": "Squash 10 Hatchling spiders.",
    "icon": "https://steamcdn-a.akamaihd.net/steamcommunity/public/images/apps/564310/e8220aef4ff978be1ca143d6dac54fc2a8678bfe.jpg",
    "icongray": "https://steamcdn-a.akamaihd.net/steamcommunity/public/images/apps/564310/71e3e12f6d30890c7d2c70f74d07cbf3c08a51e6.jpg"
  },
  {
    "name": "GetTheHellOffMyRide",
    "defaultvalue": 0,
    "displayName": "Get the hell off my ride!",
    "hidden": 0,
    "description": "Secure the bird.",
    "icon": "https://steamcdn-a.akamaihd.net/steamcommunity/public/images/apps/564310/d8c3f7783547901ea5a4769a07b894762b1019af.jpg",
    "icongray": "https://steamcdn-a.akamaihd.net/steamcommunity/public/images/apps/564310/2255c079f90064eb3b45494c84258ce5dd1cbffb.jpg"
  },
  {
    "name": "Arachnophobia",
    "defaultvalue": 0,
    "displayName": "Arachnophobia",
    "hidden": 0,
    "description": "Rip 10 Juvenile spiders apart.",
    "icon": "https://steamcdn-a.akamaihd.net/steamcommunity/public/images/apps/564310/f177fce8067494a54b9db445a2e011e7df4023c6.jpg",
    "icongray": "https://steamcdn-a.akamaihd.net/steamcommunity/public/images/apps/564310/71dc5e8d055c96a3dc75c2cb6de1093725aebbfc.jpg"
  },
  {
    "name": "ApprenticeEgyptologist",
    "defaultvalue": 0,
    "displayName": "Apprentice Egyptologist",
    "hidden": 0,
    "description": "Decipher an Egyptian text.",
    "icon": "https://steamcdn-a.akamaihd.net/steamcommunity/public/images/apps/564310/7225df3e25c78cd89ea4b84b21f85d87a526b0bf.jpg",
    "icongray": "https://steamcdn-a.akamaihd.net/steamcommunity/public/images/apps/564310/49eddb84e65a918754b425d72b70290a31a62e87.jpg"
  },
  {
    "name": "Ophthalmologist",
    "defaultvalue": 0,
    "displayName": "Ophthalmologist",
    "hidden": 0,
    "description": "Remove 10 Gnaar eyes.",
    "icon": "https://steamcdn-a.akamaihd.net/steamcommunity/public/images/apps/564310/d1f575691e38639ba588ef83a28c1effa6b06a78.jpg",
    "icongray": "https://steamcdn-a.akamaihd.net/steamcommunity/public/images/apps/564310/2f2376218e0f342fb40609a92122270e661e26e7.jpg"
  },
  {
    "name": "AllYourBaseAreBelongToUs",
    "defaultvalue": 0,
    "displayName": "All Your Base Are Belong To Us",
    "hidden": 0,
    "description": "Defeat the spaceship.",
    "icon": "https://steamcdn-a.akamaihd.net/steamcommunity/public/images/apps/564310/ed451706cb301c127eb873bcaeddcfd7512ac9ce.jpg",
    "icongray": "https://steamcdn-a.akamaihd.net/steamcommunity/public/images/apps/564310/a00bc9c557607bf25a4874c91fc857d4b54ab87d.jpg"
  },
  {
    "name": "KillerJewelry",
    "defaultvalue": 0,
    "displayName": "Killer Jewelry",
    "hidden": 0,
    "description": "Kill an enemy using the Mutilator.",
    "icon": "https://steamcdn-a.akamaihd.net/steamcommunity/public/images/apps/564310/dfc79c6ccc71c6b70a4da469c13e97c047016244.jpg",
    "icongray": "https://steamcdn-a.akamaihd.net/steamcommunity/public/images/apps/564310/b918eca8abee861b862938fae4fe666e28d9fbcd.jpg"
  },
  {
    "name": "ProblemSolver",
    "defaultvalue": 0,
    "displayName": "Problem solver",
    "hidden": 0,
    "description": "Solve the riddle of the Sphynx.",
    "icon": "https://steamcdn-a.akamaihd.net/steamcommunity/public/images/apps/564310/da59b9c504c66777ab4578e969842a4931a26bd8.jpg",
    "icongray": "https://steamcdn-a.akamaihd.net/steamcommunity/public/images/apps/564310/d540152b4c3b40ccc0a7e798fdd482d7c68f4ffb.jpg"
  },
  {
    "name": "KleerWrestler",
    "defaultvalue": 0,
    "displayName": "Kleer Wrestler",
    "hidden": 0,
    "description": "Tear off 10 Kleer heads.",
    "icon": "https://steamcdn-a.akamaihd.net/steamcommunity/public/images/apps/564310/e01ef088c37b77bd339873b2bab76c94fca3b23a.jpg",
    "icongray": "https://steamcdn-a.akamaihd.net/steamcommunity/public/images/apps/564310/d8301b19f27aea734453a018c5e97bacc084c141.jpg"
  },
  {
    "name": "UsefulTrophy",
    "defaultvalue": 0,
    "displayName": "Useful Trophy",
    "hidden": 0,
    "description": "Kill an enemy with a gib torn from another enemy.",
    "icon": "https://steamcdn-a.akamaihd.net/steamcommunity/public/images/apps/564310/af14fa21dd7a73ec3b172f8fda584bd5dd078d18.jpg",
    "icongray": "https://steamcdn-a.akamaihd.net/steamcommunity/public/images/apps/564310/5fce611e38c5610e870522adf470085e41aa5ed8.jpg"
  },
  {
    "name": "PainfulDivorce",
    "defaultvalue": 0,
    "displayName": "Painful Divorce",
    "hidden": 0,
    "description": "Kill a Witch-Bride of Achriman.",
    "icon": "https://steamcdn-a.akamaihd.net/steamcommunity/public/images/apps/564310/921f02523703f5a0fb939e7a266f85133dd453e7.jpg",
    "icongray": "https://steamcdn-a.akamaihd.net/steamcommunity/public/images/apps/564310/e0132cf911a013f892ec96dc320434e22c1036bb.jpg"
  },
  {
    "name": "CardiacSurgeon",
    "defaultvalue": 0,
    "displayName": "Cardiac Surgeon",
    "hidden": 0,
    "description": "Rip out 10 Rocketeer hearts.",
    "icon": "https://steamcdn-a.akamaihd.net/steamcommunity/public/images/apps/564310/4100d2f83e8fe2c9d5920e5a058e37f7f742b2c3.jpg",
    "icongray": "https://steamcdn-a.akamaihd.net/steamcommunity/public/images/apps/564310/f043ed5e5d7095829f00d83f48b3b74c3855be39.jpg"
  },
  {
    "name": "ScorpionSlayer",
    "defaultvalue": 0,
    "displayName": "Scorpion Slayer",
    "hidden": 0,
    "description": "Break 5 Arachnoid necks.",
    "icon": "https://steamcdn-a.akamaihd.net/steamcommunity/public/images/apps/564310/b27158b8e708243892236d7882384016c5be8965.jpg",
    "icongray": "https://steamcdn-a.akamaihd.net/steamcommunity/public/images/apps/564310/e7a7ca5ed00cf8692f1a835baf0c7d3e4d501264.jpg"
  },
  {
    "name": "BoneCrusher",
    "defaultvalue": 0,
    "displayName": "Bone Crusher",
    "hidden": 0,
    "description": "Smash 20 Kleers with the Sledgehammer.",
    "icon": "https://steamcdn-a.akamaihd.net/steamcommunity/public/images/apps/564310/efa421d02e0e2e066d4da96c5f403d432efda128.jpg",
    "icongray": "https://steamcdn-a.akamaihd.net/steamcommunity/public/images/apps/564310/e6f67c74b401266ac69851c07fb7a4c431f74993.jpg"
  },
  {
    "name": "TrickShot",
    "defaultvalue": 0,
    "displayName": "Trick Shot",
    "hidden": 0,
    "description": "Kill the kicked enemy while it is still in the air.",
    "icon": "https://steamcdn-a.akamaihd.net/steamcommunity/public/images/apps/564310/7b8b50091fd733f4920a0c84fb6679c0817ce7d9.jpg",
    "icongray": "https://steamcdn-a.akamaihd.net/steamcommunity/public/images/apps/564310/76b6b40737f26482bc61254416fd3fe3e8f27189.jpg"
  },
  {
    "name": "MissionCompleted",
    "defaultvalue": 0,
    "displayName": "Mission completed",
    "hidden": 0,
    "description": "Power up the Timelock.",
    "icon": "https://steamcdn-a.akamaihd.net/steamcommunity/public/images/apps/564310/3a6111238f54308c2558738886b9e434a8f0b1eb.jpg",
    "icongray": "https://steamcdn-a.akamaihd.net/steamcommunity/public/images/apps/564310/78a1541b94a32975efee721308a66f2308f872d8.jpg"
  },
  {
    "name": "DetroitSteel",
    "defaultvalue": 0,
    "displayName": "Detroit Steel",
    "hidden": 0,
    "description": "Start the car.",
    "icon": "https://steamcdn-a.akamaihd.net/steamcommunity/public/images/apps/564310/876923a6b61ee00212e76fedfb0152a9e73abe67.jpg",
    "icongray": "https://steamcdn-a.akamaihd.net/steamcommunity/public/images/apps/564310/39b3d3eb34b5efbc5e995db73f94a5b6dcd6924c.jpg"
  },
  {
    "name": "ClassicOutfit",
    "defaultvalue": 0,
    "displayName": "Classic Outfit",
    "hidden": 0,
    "description": "Find Sam's classic outfit.",
    "icon": "https://steamcdn-a.akamaihd.net/steamcommunity/public/images/apps/564310/d9b79d90a51b92a1fc8775335293c2ecdb33ba78.jpg",
    "icongray": "https://steamcdn-a.akamaihd.net/steamcommunity/public/images/apps/564310/f035f9517e591d1cde43ab4a271e7c39e26dc956.jpg"
  },
  {
    "name": "TheDoormanShouldWearASuit",
    "defaultvalue": 0,
    "displayName": "The Doorman Should Wear a Suit",
    "hidden": 0,
    "description": "Awake the Guardian of Time.",
    "icon": "https://steamcdn-a.akamaihd.net/steamcommunity/public/images/apps/564310/10e37071eb766664d2ea72362da6b26529e71729.jpg",
    "icongray": "https://steamcdn-a.akamaihd.net/steamcommunity/public/images/apps/564310/71e80b5ea5c3155dbe09de81fbe23222aa1d6b5f.jpg"
  },
  {
    "name": "Chiropractor",
    "defaultvalue": 0,
    "displayName": "Chiropractor",
    "hidden": 0,
    "description": "Break 10 Soldier necks.",
    "icon": "https://steamcdn-a.akamaihd.net/steamcommunity/public/images/apps/564310/3befde29b877d1aaab64b5de5154250f7e57a5a9.jpg",
    "icongray": "https://steamcdn-a.akamaihd.net/steamcommunity/public/images/apps/564310/2d3a659f3278bfb57e97820581e9159019ff8b50.jpg"
  },
  {
    "name": "ClayPigeons",
    "defaultvalue": 0,
    "displayName": "Clay Pigeons",
    "hidden": 0,
    "description": "Kill 5 Cave Demons while they're in air.",
    "icon": "https://steamcdn-a.akamaihd.net/steamcommunity/public/images/apps/564310/2591ae86cc4a6c2fe05c24f6c4b5649a446c2786.jpg",
    "icongray": "https://steamcdn-a.akamaihd.net/steamcommunity/public/images/apps/564310/27345fd206d34f536a4f0e295daab2faa92ba572.jpg"
  },
  {
    "name": "UpCloseAndPersonal",
    "defaultvalue": 0,
    "displayName": "Up Close and Personal",
    "hidden": 0,
    "description": "Gib 20 enemies from close range with a shotgun.",
    "icon": "https://steamcdn-a.akamaihd.net/steamcommunity/public/images/apps/564310/c250e7c51010827b0093fe9701a8dccb90a3ae35.jpg",
    "icongray": "https://steamcdn-a.akamaihd.net/steamcommunity/public/images/apps/564310/ffb9acd311d428e00fe140d49490e0d3ed365bd7.jpg"
  },
  {
    "name": "LoadOfScrap",
    "defaultvalue": 0,
    "displayName": "Load of Scrap",
    "hidden": 0,
    "description": "Rip Scrapjack's head off.",
    "icon": "https://steamcdn-a.akamaihd.net/steamcommunity/public/images/apps/564310/c458d0bf5201e38d466c7ed163585862ae2b6cb7.jpg",
    "icongray": "https://steamcdn-a.akamaihd.net/steamcommunity/public/images/apps/564310/e3dfa66062ab787392449896e289d785f31b3e8a.jpg"
  },
  {
    "name": "MaintenanceTime",
    "defaultvalue": 0,
    "displayName": "Maintenance time",
    "hidden": 0,
    "description": "Blow a Major Biomechanoid into pieces.",
    "icon": "https://steamcdn-a.akamaihd.net/steamcommunity/public/images/apps/564310/8ed4452724c95a4976932f3f2a4341d70eec233d.jpg",
    "icongray": "https://steamcdn-a.akamaihd.net/steamcommunity/public/images/apps/564310/0455a6700ab8691fade38530fdc86692430d4349.jpg"
  },
  {
    "name": "RodeoSurfer",
    "defaultvalue": 0,
    "displayName": "Rodeo Surfer",
    "hidden": 0,
    "description": "Use the Mutilator to surf after a Werebull.",
    "icon": "https://steamcdn-a.akamaihd.net/steamcommunity/public/images/apps/564310/f32bd131bdc9f9dd41afead544c4f08247a510cb.jpg",
    "icongray": "https://steamcdn-a.akamaihd.net/steamcommunity/public/images/apps/564310/94070c1fcab3db8a7157969a498c4f779b2cd8fe.jpg"
  },
  {
    "name": "KungFuFighter",
    "defaultvalue": 0,
    "displayName": "Kung fu Fighter",
    "hidden": 0,
    "description": "Perform all possible finishing moves in the game.",
    "icon": "https://steamcdn-a.akamaihd.net/steamcommunity/public/images/apps/564310/08bfc38df38b5f6d8b887c3d5f460c99e37b55a0.jpg",
    "icongray": "https://steamcdn-a.akamaihd.net/steamcommunity/public/images/apps/564310/f8f9e287abbb2da8ae735b218314d043114a9059.jpg"
  },
  {
    "name": "Berserker",
    "defaultvalue": 0,
    "displayName": "Berserker",
    "hidden": 0,
    "description": "Kill 3 enemies in one sprint with the Sledgehammer.",
    "icon": "https://steamcdn-a.akamaihd.net/steamcommunity/public/images/apps/564310/b09d37f28650614679012bca2e214eddcbc68157.jpg",
    "icongray": "https://steamcdn-a.akamaihd.net/steamcommunity/public/images/apps/564310/4a6fe5298cf7da9feb52f7acf845040c6d141faa.jpg"
  },
  {
    "name": "CircleOfDeath",
    "defaultvalue": 0,
    "displayName": "Circle of Death",
    "hidden": 0,
    "description": "Kill at least 3 enemies in one spinning Sledgehammer attack.",
    "icon": "https://steamcdn-a.akamaihd.net/steamcommunity/public/images/apps/564310/1e261433392fd6bcd6970ef9b2f27833ec7a8a2c.jpg",
    "icongray": "https://steamcdn-a.akamaihd.net/steamcommunity/public/images/apps/564310/0d4d55e09a40605ca452d9196f9290f72ac36b9d.jpg"
  },
  {
    "name": "JewelOfTheNile",
    "defaultvalue": 0,
    "displayName": "Jewel of the Nile",
    "hidden": 0,
    "description": "Complete the Jewel of The Nile single player campaign.",
    "icon": "https://steamcdn-a.akamaihd.net/steamcommunity/public/images/apps/564310/4bd933015e93c2d59699ae7fc7c9b7850e1df613.jpg",
    "icongray": "https://steamcdn-a.akamaihd.net/steamcommunity/public/images/apps/564310/1d83f1d9bb0b6c6dfb1ce671690adcb62ad2e562.jpg"
  },
  {
    "name": "SeriousSam",
    "defaultvalue": 0,
    "displayName": "Serious Sam",
    "hidden": 0,
    "description": "Complete TFE, TSE and BFE single player campaigns.",
    "icon": "https://steamcdn-a.akamaihd.net/steamcommunity/public/images/apps/564310/2c4de48e207df0e5035ce047bdbc7a854fa0aa6a.jpg",
    "icongray": "https://steamcdn-a.akamaihd.net/steamcommunity/public/images/apps/564310/d1bd4745026cd08ea2f623bbfcd905094578fad5.jpg"
  },
  {
    "name": "AreYouSerious",
    "defaultvalue": 0,
    "displayName": "Are You Serious!?",
    "hidden": 0,
    "description": "Complete TFE, TSE and BFE single player campaigns on unmodified serious difficulty.",
    "icon": "https://steamcdn-a.akamaihd.net/steamcommunity/public/images/apps/564310/c7fb38db37812c01ac0daf11bc38d0f29b93f071.jpg",
    "icongray": "https://steamcdn-a.akamaihd.net/steamcommunity/public/images/apps/564310/e060d59f9f539dd99200c84d037fa8a0391d2883.jpg"
  },
  {
    "name": "SeriousRun",
    "defaultvalue": 0,
    "displayName": "Serious Run",
    "hidden": 0,
    "description": "Complete TFE, TSE and BFE single player campaigns in the estimated time on each level.",
    "icon": "https://steamcdn-a.akamaihd.net/steamcommunity/public/images/apps/564310/b73e39eeced5791a2eecf658a06976c130a0575b.jpg",
    "icongray": "https://steamcdn-a.akamaihd.net/steamcommunity/public/images/apps/564310/191263bcd901c8e4845574419754528d289c9173.jpg"
  },
  {
    "name": "SeriousCoop",
    "defaultvalue": 0,
    "displayName": "Serious Co-op",
    "hidden": 0,
    "description": "Complete TFE, TSE and BFE campaigns in co-op on unmodified serious difficulty.",
    "icon": "https://steamcdn-a.akamaihd.net/steamcommunity/public/images/apps/564310/e7e77b73b57e2784d8069e9bc9ea5d4041d0ae8b.jpg",
    "icongray": "https://steamcdn-a.akamaihd.net/steamcommunity/public/images/apps/564310/87f481fde4fff5291fd3ba71bd139c8626d13cec.jpg"
  }
]