﻿{
  "Dlcs": {},
  "Name": "Jets'n'Guns Gold",
  "AppId": "262260",
  "ImageUrl": "https://steamcdn-a.akamaihd.net/steam/apps/262260/header.jpg?t=1573052501",
  "Languages": [
    "english"
  ],
  "Platforms": {
    "windows": true,
    "mac": true,
    "linux": true
  }
}