﻿[
  {
    "name": "ATLANTIS_ACH_01",
    "defaultvalue": 0,
    "displayName": "Forest Clearing",
    "hidden": 0,
    "description": "12 trees are chopped down on a single level",
    "icon": "https://steamcdn-a.akamaihd.net/steamcommunity/public/images/apps/347520/198e5fa17cd23752017bb3b7e85caa021bb89c17.jpg",
    "icongray": "https://steamcdn-a.akamaihd.net/steamcommunity/public/images/apps/347520/2b23e21911f29981ba3e76587e790ea4bba087f1.jpg"
  },
  {
    "name": "ATLANTIS_ACH_02",
    "defaultvalue": 0,
    "displayName": "Construction Time",
    "hidden": 0,
    "description": "3 buildings are being built or upgraded simultaneously",
    "icon": "https://steamcdn-a.akamaihd.net/steamcommunity/public/images/apps/347520/568c7d0af02cb0e516b578fde387284ad28dcc60.jpg",
    "icongray": "https://steamcdn-a.akamaihd.net/steamcommunity/public/images/apps/347520/fe83a7f0e2d0e5b4192b1da37b1e0fd1d019dd9c.jpg"
  },
  {
    "name": "ATLANTIS_ACH_03",
    "defaultvalue": 0,
    "displayName": "Pioneer",
    "hidden": 0,
    "description": "3 obstacles are being cleared simultaneously",
    "icon": "https://steamcdn-a.akamaihd.net/steamcommunity/public/images/apps/347520/95c5c75df8194e257b4ed02f1c666c425ac28ec2.jpg",
    "icongray": "https://steamcdn-a.akamaihd.net/steamcommunity/public/images/apps/347520/1ecf939378bc67fd9970d6d356749788b9bab044.jpg"
  },
  {
    "name": "ATLANTIS_ACH_04",
    "defaultvalue": 0,
    "displayName": "Manpower",
    "hidden": 0,
    "description": "Workers' Lodge is upgraded to level 3 in the first minute",
    "icon": "https://steamcdn-a.akamaihd.net/steamcommunity/public/images/apps/347520/c4c71af931d1e1681154b50b8e9a3a8a53c78bbd.jpg",
    "icongray": "https://steamcdn-a.akamaihd.net/steamcommunity/public/images/apps/347520/365af0b5167b1fefa278004041598e50f3b19081.jpg"
  },
  {
    "name": "ATLANTIS_ACH_05",
    "defaultvalue": 0,
    "displayName": "Maximum Production",
    "hidden": 0,
    "description": "All 4 production buildings (Sawmill, Crystal Mine, Well and Quarry) upgraded to level 3 on a single level",
    "icon": "https://steamcdn-a.akamaihd.net/steamcommunity/public/images/apps/347520/4b8ab4fcca848009fa9406ab19be4e6e312e0a51.jpg",
    "icongray": "https://steamcdn-a.akamaihd.net/steamcommunity/public/images/apps/347520/cba95391e423058176b1a2e1fb58840538bbbd27.jpg"
  },
  {
    "name": "ATLANTIS_ACH_06",
    "defaultvalue": 0,
    "displayName": "Totally Lazy",
    "hidden": 0,
    "description": "One of the workers not doing anything for a minute",
    "icon": "https://steamcdn-a.akamaihd.net/steamcommunity/public/images/apps/347520/24387cd2f6603dd933cff0fe1cf49a3b8870d227.jpg",
    "icongray": "https://steamcdn-a.akamaihd.net/steamcommunity/public/images/apps/347520/cbfa02dc2e5817a00348e9f51cd2c18a3ee9f890.jpg"
  },
  {
    "name": "ATLANTIS_ACH_07",
    "defaultvalue": 0,
    "displayName": "Trader",
    "hidden": 0,
    "description": "10 successful merchant deals on a single level",
    "icon": "https://steamcdn-a.akamaihd.net/steamcommunity/public/images/apps/347520/2c40bcc5af5dbe843299afbbe352757f209df65b.jpg",
    "icongray": "https://steamcdn-a.akamaihd.net/steamcommunity/public/images/apps/347520/2dda9065c876f90e8d8116bbfa1eaad778088be7.jpg"
  },
  {
    "name": "ATLANTIS_ACH_08",
    "defaultvalue": 0,
    "displayName": "Storage Full",
    "hidden": 0,
    "description": "99 pieces are reached from any resource type",
    "icon": "https://steamcdn-a.akamaihd.net/steamcommunity/public/images/apps/347520/ab5a19240af1ded406859d63773975581c4798ec.jpg",
    "icongray": "https://steamcdn-a.akamaihd.net/steamcommunity/public/images/apps/347520/9074f395f42c16c75284d9fa6c69f7282171cb98.jpg"
  },
  {
    "name": "ATLANTIS_ACH_09",
    "defaultvalue": 0,
    "displayName": "Woodshed",
    "hidden": 0,
    "description": "50 pieces of Wood remained at the end of the level",
    "icon": "https://steamcdn-a.akamaihd.net/steamcommunity/public/images/apps/347520/2fde6c02ed081b5cb9e769ef84c1cf469b46b6d2.jpg",
    "icongray": "https://steamcdn-a.akamaihd.net/steamcommunity/public/images/apps/347520/ab76504be0eb42963250d5478c223658fb52f2ec.jpg"
  },
  {
    "name": "ATLANTIS_ACH_10",
    "defaultvalue": 0,
    "displayName": "Jeweller",
    "hidden": 0,
    "description": "50 pieces of Crystals remained at the end of the level",
    "icon": "https://steamcdn-a.akamaihd.net/steamcommunity/public/images/apps/347520/191f1b0d68992538c5b3f82177ef8923619a21a9.jpg",
    "icongray": "https://steamcdn-a.akamaihd.net/steamcommunity/public/images/apps/347520/a34b5db96a1197fa03c94d224d6dbd525223f153.jpg"
  },
  {
    "name": "ATLANTIS_ACH_11",
    "defaultvalue": 0,
    "displayName": "Aquarius",
    "hidden": 0,
    "description": "50 buckets of Water remained at the end of the level",
    "icon": "https://steamcdn-a.akamaihd.net/steamcommunity/public/images/apps/347520/536a2dd3ebae33df4df5c36e829234de0cf4266a.jpg",
    "icongray": "https://steamcdn-a.akamaihd.net/steamcommunity/public/images/apps/347520/bc7bb451d20dafe291f47c768c06ca82c65afbe3.jpg"
  },
  {
    "name": "ATLANTIS_ACH_12",
    "defaultvalue": 0,
    "displayName": "Stone Age",
    "hidden": 0,
    "description": "50 pieces of Stone remained at the end of the level",
    "icon": "https://steamcdn-a.akamaihd.net/steamcommunity/public/images/apps/347520/6be2f830ce39719e952c0616a3414f89ddcdfdd2.jpg",
    "icongray": "https://steamcdn-a.akamaihd.net/steamcommunity/public/images/apps/347520/f79b141ff6599dea636aea9dadede2aabdf52268.jpg"
  },
  {
    "name": "ATLANTIS_ACH_13",
    "defaultvalue": 0,
    "displayName": "Crime Does Not Pay",
    "hidden": 0,
    "description": "3 Robbers are defeated within a minute",
    "icon": "https://steamcdn-a.akamaihd.net/steamcommunity/public/images/apps/347520/896bc76ca446a5395518dfcf7c675be11b4ef0e2.jpg",
    "icongray": "https://steamcdn-a.akamaihd.net/steamcommunity/public/images/apps/347520/1a6162ea90070ca0cdb87ec98000f6d9226df859.jpg"
  },
  {
    "name": "ATLANTIS_ACH_14",
    "defaultvalue": 0,
    "displayName": "Hunting Season",
    "hidden": 0,
    "description": "3 Monsters are defeated within a minute",
    "icon": "https://steamcdn-a.akamaihd.net/steamcommunity/public/images/apps/347520/7683bfde0f724931e45cf2018b19d62abd9ccba8.jpg",
    "icongray": "https://steamcdn-a.akamaihd.net/steamcommunity/public/images/apps/347520/60e044ba7d9ec56c9f5df32bdd91f97d1fe281d1.jpg"
  },
  {
    "name": "ATLANTIS_ACH_15",
    "defaultvalue": 0,
    "displayName": "Automatization",
    "hidden": 0,
    "description": "3 Clockwork Men are active at the same time",
    "icon": "https://steamcdn-a.akamaihd.net/steamcommunity/public/images/apps/347520/71b67b6da5a66b65229d0df071bb35abce695db0.jpg",
    "icongray": "https://steamcdn-a.akamaihd.net/steamcommunity/public/images/apps/347520/658a26474820d0eacd619f0663dba3ba3f4c0473.jpg"
  },
  {
    "name": "ATLANTIS_ACH_16",
    "defaultvalue": 0,
    "displayName": "Gambler",
    "hidden": 0,
    "description": "Fortune Machine is used 5 times on a single level",
    "icon": "https://steamcdn-a.akamaihd.net/steamcommunity/public/images/apps/347520/8e64a59fec0db46f3fca392b61ab21954b9fa8f8.jpg",
    "icongray": "https://steamcdn-a.akamaihd.net/steamcommunity/public/images/apps/347520/2489da9d5f031825d4c0808007a5a6ef1dfa670a.jpg"
  },
  {
    "name": "ATLANTIS_ACH_17",
    "defaultvalue": 0,
    "displayName": "Lucky",
    "hidden": 0,
    "description": "3 of a kind on the Fortune Machine without a wildcard",
    "icon": "https://steamcdn-a.akamaihd.net/steamcommunity/public/images/apps/347520/04f448a0beeebf399b0b09e231903adecac4baa0.jpg",
    "icongray": "https://steamcdn-a.akamaihd.net/steamcommunity/public/images/apps/347520/4d278f3fd890f70fa13ceb80220368a6785733b9.jpg"
  },
  {
    "name": "ATLANTIS_ACH_18",
    "defaultvalue": 0,
    "displayName": "Eagle-eye",
    "hidden": 0,
    "description": "Any hidden object level completed in 45 seconds",
    "icon": "https://steamcdn-a.akamaihd.net/steamcommunity/public/images/apps/347520/22be6767670008e7cd39dbd9a0d0a29e21e90814.jpg",
    "icongray": "https://steamcdn-a.akamaihd.net/steamcommunity/public/images/apps/347520/045c3033887af44ef074190053e2a5c7d800b53a.jpg"
  }
]