﻿[
  {
    "appid": "227300",
    "itemdefid": "1",
    "Timestamp": "2019-09-23T13:36:41Z",
    "modified": "20190923T133641Z",
    "date_created": "20190923T133641Z",
    "type": "item",
    "display_type": "Cabin Accessory",
    "name": "Heart of Paris",
    "quantity": 0,
    "description": "A weighty little copper statue of an iconic landmark. Nice looking interior decoration to accompany you through your deliveries and bring back memories of places you have visited.",
    "background_color": "081700",
    "icon_url": "https://s3-eu-west-1.amazonaws.com/sinventory.online.scssoft.com/eut2/eiffel_200.png",
    "icon_url_large": "https://s3-eu-west-1.amazonaws.com/sinventory.online.scssoft.com/eut2/eiffel_2048.png",
    "name_color": "abde03",
    "tags": "type:cabin_accessory",
    "tradable": true,
    "marketable": true,
    "commodity": false,
    "store_hidden": true
  },
  {
    "appid": "227300",
    "itemdefid": "2",
    "Timestamp": "2019-09-23T13:36:41Z",
    "modified": "20190923T133641Z",
    "date_created": "20190923T133641Z",
    "type": "item",
    "display_type": "Cabin Accessory",
    "name": "Czech Republic - Pennant",
    "quantity": 0,
    "description": "A pennant of a country you may have passed through on your travels - Czech Republic. Use it as to further customize your truck interior.",
    "background_color": "111111",
    "icon_url": "https://s3-eu-west-1.amazonaws.com/sinventory.online.scssoft.com/eut2/cz_pennant_200.png",
    "icon_url_large": "https://s3-eu-west-1.amazonaws.com/sinventory.online.scssoft.com/eut2/cz_pennant_2048.png",
    "name_color": "a9a9a9",
    "tags": "type:cabin_accessory",
    "tradable": true,
    "marketable": true,
    "commodity": false,
    "store_hidden": true
  },
  {
    "appid": "227300",
    "itemdefid": "3",
    "Timestamp": "2019-09-23T13:36:41Z",
    "modified": "20190923T133641Z",
    "date_created": "20190923T133641Z",
    "type": "item",
    "display_type": "Cabin Accessory",
    "name": "UK - Pennant",
    "quantity": 0,
    "description": "A pennant of a country you may have passed through on your travels - UK. Use it as to further customize your truck interior.",
    "background_color": "111111",
    "icon_url": "https://s3-eu-west-1.amazonaws.com/sinventory.online.scssoft.com/eut2/uk_pennant_200.png",
    "icon_url_large": "https://s3-eu-west-1.amazonaws.com/sinventory.online.scssoft.com/eut2/uk_pennant_2048.png",
    "name_color": "a9a9a9",
    "tags": "type:cabin_accessory",
    "tradable": true,
    "marketable": true,
    "commodity": false,
    "store_hidden": true
  },
  {
    "appid": "227300",
    "itemdefid": "4",
    "Timestamp": "2019-09-23T13:36:41Z",
    "modified": "20190923T133641Z",
    "date_created": "20190923T133641Z",
    "type": "item",
    "display_type": "Cabin Accessory",
    "name": "Germany - Pennant",
    "quantity": 0,
    "description": "A pennant of a country you may have passed through on your travels - Germany. Use it as to further customize your truck interior.",
    "background_color": "111111",
    "icon_url": "https://s3-eu-west-1.amazonaws.com/sinventory.online.scssoft.com/eut2/de_pennant_200.png",
    "icon_url_large": "https://s3-eu-west-1.amazonaws.com/sinventory.online.scssoft.com/eut2/de_pennant_2048.png",
    "name_color": "a9a9a9",
    "tags": "type:cabin_accessory",
    "tradable": true,
    "marketable": true,
    "commodity": false,
    "store_hidden": true
  },
  {
    "appid": "227300",
    "itemdefid": "5",
    "Timestamp": "2019-09-23T13:36:41Z",
    "modified": "20190923T133641Z",
    "date_created": "20190923T133641Z",
    "type": "item",
    "display_type": "Cabin Accessory",
    "name": "Poland - Pennant",
    "quantity": 0,
    "description": "A pennant of a country you may have passed through on your travels - Poland. Use it as to further customize your truck interior.",
    "background_color": "111111",
    "icon_url": "https://s3-eu-west-1.amazonaws.com/sinventory.online.scssoft.com/eut2/pl_pennant_200.png",
    "icon_url_large": "https://s3-eu-west-1.amazonaws.com/sinventory.online.scssoft.com/eut2/pl_pennant_2048.png",
    "name_color": "a9a9a9",
    "tags": "type:cabin_accessory",
    "tradable": true,
    "marketable": true,
    "commodity": false,
    "store_hidden": true
  },
  {
    "appid": "227300",
    "itemdefid": "6",
    "Timestamp": "2019-09-23T13:36:41Z",
    "modified": "20190923T133641Z",
    "date_created": "20190923T133641Z",
    "type": "item",
    "display_type": "Cabin Accessory",
    "name": "Hungary - Pennant",
    "quantity": 0,
    "description": "A pennant of a country you may have passed through on your travels - Hungary. Use it as to further customize your truck interior.",
    "background_color": "111111",
    "icon_url": "https://s3-eu-west-1.amazonaws.com/sinventory.online.scssoft.com/eut2/hu_pennant_200.png",
    "icon_url_large": "https://s3-eu-west-1.amazonaws.com/sinventory.online.scssoft.com/eut2/hu_pennant_2048.png",
    "name_color": "a9a9a9",
    "tags": "type:cabin_accessory",
    "tradable": true,
    "marketable": true,
    "commodity": false,
    "store_hidden": true
  },
  {
    "appid": "227300",
    "itemdefid": "7",
    "Timestamp": "2019-09-23T13:36:41Z",
    "modified": "20190923T133641Z",
    "date_created": "20190923T133641Z",
    "type": "item",
    "display_type": "Cabin Accessory",
    "name": "Italy - Pennant",
    "quantity": 0,
    "description": "A pennant of a country you may have passed through on your travels - Italy. Use it as to further customize your truck interior.",
    "background_color": "111111",
    "icon_url": "https://s3-eu-west-1.amazonaws.com/sinventory.online.scssoft.com/eut2/it_pennant_200.png",
    "icon_url_large": "https://s3-eu-west-1.amazonaws.com/sinventory.online.scssoft.com/eut2/it_pennant_2048.png",
    "name_color": "a9a9a9",
    "tags": "type:cabin_accessory",
    "tradable": true,
    "marketable": true,
    "commodity": false,
    "store_hidden": true
  },
  {
    "appid": "227300",
    "itemdefid": "8",
    "Timestamp": "2019-09-23T13:36:41Z",
    "modified": "20190923T133641Z",
    "date_created": "20190923T133641Z",
    "type": "item",
    "display_type": "Cabin Accessory",
    "name": "Austria - Pennant",
    "quantity": 0,
    "description": "A pennant of a country you may have passed through on your travels - Austria. Use it as to further customize your truck interior.",
    "background_color": "111111",
    "icon_url": "https://s3-eu-west-1.amazonaws.com/sinventory.online.scssoft.com/eut2/at_pennant_200.png",
    "icon_url_large": "https://s3-eu-west-1.amazonaws.com/sinventory.online.scssoft.com/eut2/at_pennant_2048.png",
    "name_color": "a9a9a9",
    "tags": "type:cabin_accessory",
    "tradable": true,
    "marketable": true,
    "commodity": false,
    "store_hidden": true
  },
  {
    "appid": "227300",
    "itemdefid": "9",
    "Timestamp": "2019-09-23T13:36:41Z",
    "modified": "20190923T133641Z",
    "date_created": "20190923T133641Z",
    "type": "item",
    "display_type": "Cabin Accessory",
    "name": "Netherlands - Pennant",
    "quantity": 0,
    "description": "A pennant of a country you may have passed through on your travels - Netherlands. Use it as to further customize your truck interior.",
    "background_color": "111111",
    "icon_url": "https://s3-eu-west-1.amazonaws.com/sinventory.online.scssoft.com/eut2/nl_pennant_200.png",
    "icon_url_large": "https://s3-eu-west-1.amazonaws.com/sinventory.online.scssoft.com/eut2/nl_pennant_2048.png",
    "name_color": "a9a9a9",
    "tags": "type:cabin_accessory",
    "tradable": true,
    "marketable": true,
    "commodity": false,
    "store_hidden": true
  },
  {
    "appid": "227300",
    "itemdefid": "10",
    "Timestamp": "2019-09-23T13:36:41Z",
    "modified": "20190923T133641Z",
    "date_created": "20190923T133641Z",
    "type": "item",
    "display_type": "Cabin Accessory",
    "name": "Belgium - Pennant",
    "quantity": 0,
    "description": "A pennant of a country you may have passed through on your travels - Belgium. Use it as to further customize your truck interior.",
    "background_color": "111111",
    "icon_url": "https://s3-eu-west-1.amazonaws.com/sinventory.online.scssoft.com/eut2/be_pennant_200.png",
    "icon_url_large": "https://s3-eu-west-1.amazonaws.com/sinventory.online.scssoft.com/eut2/be_pennant_2048.png",
    "name_color": "a9a9a9",
    "tags": "type:cabin_accessory",
    "tradable": true,
    "marketable": true,
    "commodity": false,
    "store_hidden": true
  },
  {
    "appid": "227300",
    "itemdefid": "11",
    "Timestamp": "2019-09-23T13:36:41Z",
    "modified": "20190923T133641Z",
    "date_created": "20190923T133641Z",
    "type": "item",
    "display_type": "Cabin Accessory",
    "name": "Denmark - Pennant",
    "quantity": 0,
    "description": "A pennant of a country you may have passed through on your travels - Denmark. Use it as to further customize your truck interior.",
    "background_color": "111111",
    "icon_url": "https://s3-eu-west-1.amazonaws.com/sinventory.online.scssoft.com/eut2/dk_pennant_200.png",
    "icon_url_large": "https://s3-eu-west-1.amazonaws.com/sinventory.online.scssoft.com/eut2/dk_pennant_2048.png",
    "name_color": "a9a9a9",
    "tags": "type:cabin_accessory",
    "tradable": true,
    "marketable": true,
    "commodity": false,
    "store_hidden": true
  },
  {
    "appid": "227300",
    "itemdefid": "12",
    "Timestamp": "2019-09-23T13:36:41Z",
    "modified": "20190923T133641Z",
    "date_created": "20190923T133641Z",
    "type": "item",
    "display_type": "Cabin Accessory",
    "name": "Sweden - Pennant",
    "quantity": 0,
    "description": "A pennant of a country you may have passed through on your travels - Sweden. Use it as to further customize your truck interior.",
    "background_color": "111111",
    "icon_url": "https://s3-eu-west-1.amazonaws.com/sinventory.online.scssoft.com/eut2/se_pennant_200.png",
    "icon_url_large": "https://s3-eu-west-1.amazonaws.com/sinventory.online.scssoft.com/eut2/se_pennant_2048.png",
    "name_color": "a9a9a9",
    "tags": "type:cabin_accessory",
    "tradable": true,
    "marketable": true,
    "commodity": false,
    "store_hidden": true
  },
  {
    "appid": "227300",
    "itemdefid": "13",
    "Timestamp": "2019-09-23T13:36:41Z",
    "modified": "20190923T133641Z",
    "date_created": "20190923T133641Z",
    "type": "item",
    "display_type": "Cabin Accessory",
    "name": "Slovakia - Pennant",
    "quantity": 0,
    "description": "A pennant of a country you may have passed through on your travels - Slovakia. Use it as to further customize your truck interior.",
    "background_color": "111111",
    "icon_url": "https://s3-eu-west-1.amazonaws.com/sinventory.online.scssoft.com/eut2/sk_pennant_200.png",
    "icon_url_large": "https://s3-eu-west-1.amazonaws.com/sinventory.online.scssoft.com/eut2/sk_pennant_2048.png",
    "name_color": "a9a9a9",
    "tags": "type:cabin_accessory",
    "tradable": true,
    "marketable": true,
    "commodity": false,
    "store_hidden": true
  },
  {
    "appid": "227300",
    "itemdefid": "14",
    "Timestamp": "2019-09-23T13:36:41Z",
    "modified": "20190923T133641Z",
    "date_created": "20190923T133641Z",
    "type": "item",
    "display_type": "Cabin Accessory",
    "name": "France - Pennant",
    "quantity": 0,
    "description": "A pennant of a country you may have passed through on your travels - France. Use it as to further customize your truck interior.",
    "background_color": "111111",
    "icon_url": "https://s3-eu-west-1.amazonaws.com/sinventory.online.scssoft.com/eut2/fr_pennant_200.png",
    "icon_url_large": "https://s3-eu-west-1.amazonaws.com/sinventory.online.scssoft.com/eut2/fr_pennant_2048.png",
    "name_color": "a9a9a9",
    "tags": "type:cabin_accessory",
    "tradable": true,
    "marketable": true,
    "commodity": false,
    "store_hidden": true
  },
  {
    "appid": "227300",
    "itemdefid": "15",
    "Timestamp": "2019-09-23T13:36:41Z",
    "modified": "20190923T133641Z",
    "date_created": "20190923T133641Z",
    "type": "item",
    "display_type": "Cabin Accessory",
    "name": "France - Gold Pennant",
    "quantity": 0,
    "description": "A rare variant pennant of a country you may have passed through on your travels - France. Use it as to further customize your truck interior.",
    "background_color": "010e18",
    "icon_url": "https://s3-eu-west-1.amazonaws.com/sinventory.online.scssoft.com/eut2/fr_pennant_gold_200.png",
    "icon_url_large": "https://s3-eu-west-1.amazonaws.com/sinventory.online.scssoft.com/eut2/fr_pennant_gold_2048.png",
    "name_color": "0c8cef",
    "tags": "type:cabin_accessory",
    "tradable": true,
    "marketable": true,
    "commodity": false,
    "store_hidden": true
  },
  {
    "appid": "227300",
    "itemdefid": "16",
    "Timestamp": "2019-09-23T13:36:41Z",
    "modified": "20190923T133641Z",
    "date_created": "20190923T133641Z",
    "type": "item",
    "display_type": "Cabin Accessory",
    "name": "Switzerland - Pennant",
    "quantity": 0,
    "description": "A pennant of a country you may have passed through on your travels - Switzerland. Use it as to further customize your truck interior.",
    "background_color": "111111",
    "icon_url": "https://s3-eu-west-1.amazonaws.com/sinventory.online.scssoft.com/eut2/ch_pennant_200.png",
    "icon_url_large": "https://s3-eu-west-1.amazonaws.com/sinventory.online.scssoft.com/eut2/ch_pennant_2048.png",
    "name_color": "a9a9a9",
    "tags": "type:cabin_accessory",
    "tradable": true,
    "marketable": true,
    "commodity": false,
    "store_hidden": true
  },
  {
    "appid": "227300",
    "itemdefid": "17",
    "Timestamp": "2019-09-23T13:36:41Z",
    "modified": "20190923T133641Z",
    "date_created": "20190923T133641Z",
    "type": "item",
    "display_type": "Cabin Accessory",
    "name": "Norway - Pennant",
    "quantity": 0,
    "description": "A pennant of a country you may have passed through on your travels - Norway. Use it as to further customize your truck interior.",
    "background_color": "111111",
    "icon_url": "https://s3-eu-west-1.amazonaws.com/sinventory.online.scssoft.com/eut2/no_pennant_200.png",
    "icon_url_large": "https://s3-eu-west-1.amazonaws.com/sinventory.online.scssoft.com/eut2/no_pennant_2048.png",
    "name_color": "a9a9a9",
    "tags": "type:cabin_accessory",
    "tradable": true,
    "marketable": true,
    "commodity": false,
    "store_hidden": true
  },
  {
    "appid": "227300",
    "itemdefid": "18",
    "Timestamp": "2019-09-23T13:36:42Z",
    "modified": "20190923T133642Z",
    "date_created": "20190923T133642Z",
    "type": "item",
    "display_type": "Cabin Accessory",
    "name": "Luxembourg - Pennant",
    "quantity": 0,
    "description": "A pennant of a country you may have passed through on your travels - Luxembourg. Use it as to further customize your truck interior.",
    "background_color": "111111",
    "icon_url": "https://s3-eu-west-1.amazonaws.com/sinventory.online.scssoft.com/eut2/lu_pennant_200.png",
    "icon_url_large": "https://s3-eu-west-1.amazonaws.com/sinventory.online.scssoft.com/eut2/lu_pennant_2048.png",
    "name_color": "a9a9a9",
    "tags": "type:cabin_accessory",
    "tradable": true,
    "marketable": true,
    "commodity": false,
    "store_hidden": true
  },
  {
    "appid": "227300",
    "itemdefid": "20",
    "Timestamp": "2019-09-23T13:36:42Z",
    "modified": "20190923T133642Z",
    "date_created": "20190923T133642Z",
    "type": "item",
    "display_type": "Cabin Accessory",
    "name": "Xmas Ball",
    "quantity": 0,
    "description": "A little cabin decoration to take the spirit of Christmas along with you on the road.",
    "background_color": "081700",
    "icon_url": "https://s3-eu-west-1.amazonaws.com/sinventory.online.scssoft.com/eut2/xmas_ball_200.png",
    "icon_url_large": "https://s3-eu-west-1.amazonaws.com/sinventory.online.scssoft.com/eut2/xmas_ball_2048.png",
    "name_color": "abde03",
    "tags": "type:cabin_accessory",
    "tradable": true,
    "marketable": true,
    "commodity": false,
    "store_hidden": true
  },
  {
    "appid": "227300",
    "itemdefid": "21",
    "Timestamp": "2019-09-23T13:36:42Z",
    "modified": "20190923T133642Z",
    "date_created": "20190923T133642Z",
    "type": "item",
    "display_type": "Cabin Accessory",
    "name": "Plush Bear",
    "quantity": 0,
    "description": "It's so fluffy! Take this little fellow with you on your travels across the European roads!",
    "background_color": "081700",
    "icon_url": "https://s3-eu-west-1.amazonaws.com/sinventory.online.scssoft.com/eut2/plush_bear_200.png",
    "icon_url_large": "https://s3-eu-west-1.amazonaws.com/sinventory.online.scssoft.com/eut2/plush_bear_2048.png",
    "name_color": "abde03",
    "tags": "type:cabin_accessory",
    "tradable": true,
    "marketable": true,
    "commodity": false,
    "store_hidden": true
  },
  {
    "appid": "227300",
    "itemdefid": "22",
    "Timestamp": "2019-09-23T13:36:42Z",
    "modified": "20190923T133642Z",
    "date_created": "20190923T133642Z",
    "type": "item",
    "display_type": "Desktop Background",
    "name": "Magic Time",
    "quantity": 0,
    "description": "Celebrate Christmas time with this beautiful background theme! There is a gift for everyone under this tree!",
    "background_color": "081700",
    "icon_url": "https://s3-eu-west-1.amazonaws.com/sinventory.online.scssoft.com/eut2/magic_time_200.png",
    "icon_url_large": "https://s3-eu-west-1.amazonaws.com/sinventory.online.scssoft.com/eut2/magic_time_2048.png",
    "name_color": "abde03",
    "tags": "type:desktop_background",
    "tradable": true,
    "marketable": true,
    "commodity": false,
    "store_hidden": true
  },
  {
    "appid": "227300",
    "itemdefid": "23",
    "Timestamp": "2019-09-23T13:36:42Z",
    "modified": "20190923T133642Z",
    "date_created": "20190923T133642Z",
    "type": "item",
    "display_type": "Cabin Accessory",
    "name": "Polar Beast",
    "quantity": 0,
    "description": "Let this mighty beast accompany you on your travels and keep you safe from harm!",
    "background_color": "081700",
    "icon_url": "https://s3-eu-west-1.amazonaws.com/sinventory.online.scssoft.com/eut2/polar_beast_200.png",
    "icon_url_large": "https://s3-eu-west-1.amazonaws.com/sinventory.online.scssoft.com/eut2/polar_beast_2048.png",
    "name_color": "abde03",
    "tags": "type:cabin_accessory",
    "tradable": true,
    "marketable": true,
    "commodity": false,
    "store_hidden": true
  },
  {
    "appid": "227300",
    "itemdefid": "24",
    "Timestamp": "2019-09-23T13:36:42Z",
    "modified": "20190923T133642Z",
    "date_created": "20190923T133642Z",
    "type": "item",
    "display_type": "Cabin Accessory",
    "name": "Snowman Trucker",
    "quantity": 0,
    "description": "Everyone wants to be a trucker! Even snowmen! Just think twice before you'll turn on the heating in your cabin!",
    "background_color": "081700",
    "icon_url": "https://s3-eu-west-1.amazonaws.com/sinventory.online.scssoft.com/eut2/snowman_trucker_ets2_200.png",
    "icon_url_large": "https://s3-eu-west-1.amazonaws.com/sinventory.online.scssoft.com/eut2/snowman_trucker_ets2_2048.png",
    "name_color": "abde03",
    "tags": "type:cabin_accessory",
    "tradable": true,
    "marketable": true,
    "commodity": false,
    "store_hidden": true
  },
  {
    "appid": "227300",
    "itemdefid": "25",
    "Timestamp": "2019-09-23T13:36:42Z",
    "modified": "20190923T133642Z",
    "date_created": "20190923T133642Z",
    "type": "item",
    "display_type": "Paint Job",
    "name": "Crystal Dimension",
    "quantity": 0,
    "description": "When the winter comes, the ice covers everything in a cold, shattered crystal dimension. Even your mighty diesel beast! And it looks so cool!",
    "background_color": "081700",
    "icon_url": "https://s3-eu-west-1.amazonaws.com/sinventory.online.scssoft.com/eut2/crystal_dimention_200.png",
    "icon_url_large": "https://s3-eu-west-1.amazonaws.com/sinventory.online.scssoft.com/eut2/crystal_dimention_2048.png",
    "name_color": "abde03",
    "tags": "type:paint_job",
    "tradable": true,
    "marketable": true,
    "commodity": false,
    "store_hidden": true
  },
  {
    "appid": "227300",
    "itemdefid": "26",
    "Timestamp": "2019-09-23T13:36:42Z",
    "modified": "20190923T133642Z",
    "date_created": "20190923T133642Z",
    "type": "item",
    "display_type": "Desktop Background",
    "name": "On top of the world",
    "quantity": 0,
    "description": "Your private parking space at the gates of the North Pole. Parking is allowed only to a chosen few for their mighty trucks here!",
    "background_color": "081700",
    "icon_url": "https://s3-eu-west-1.amazonaws.com/sinventory.online.scssoft.com/eut2/snow_200.png",
    "icon_url_large": "https://s3-eu-west-1.amazonaws.com/sinventory.online.scssoft.com/eut2/snow_2048.png",
    "name_color": "abde03",
    "tags": "type:desktop_background",
    "tradable": true,
    "marketable": true,
    "commodity": false,
    "store_hidden": true
  },
  {
    "appid": "227300",
    "itemdefid": "27",
    "Timestamp": "2019-09-23T13:36:42Z",
    "modified": "20190923T133642Z",
    "date_created": "20190923T133642Z",
    "type": "item",
    "display_type": "Cabin Accessory",
    "name": "Viking Warrior",
    "quantity": 0,
    "description": "Cute marble statue of the Viking warrior. Nice looking interior decoration to accompany you through your deliveries and bring back memories of places you have visited.",
    "background_color": "081700",
    "icon_url": "https://s3-eu-west-1.amazonaws.com/sinventory.online.scssoft.com/eut2/viking_warrior_200.png",
    "icon_url_large": "https://s3-eu-west-1.amazonaws.com/sinventory.online.scssoft.com/eut2/viking_warrior_2048.png",
    "name_color": "abde03",
    "tags": "type:cabin_accessory",
    "tradable": true,
    "marketable": true,
    "commodity": false,
    "store_hidden": true
  },
  {
    "appid": "227300",
    "itemdefid": "28",
    "Timestamp": "2019-09-23T13:36:42Z",
    "modified": "20190923T133642Z",
    "date_created": "20190923T133642Z",
    "type": "item",
    "display_type": "Desktop Background",
    "name": "Northern Lights",
    "quantity": 0,
    "description": "A beautiful panorama of the northern lake, mountains and northern lights surrounding your truck. An ideal location for relaxing your mind in this calming atmosphere of the North.",
    "background_color": "081700",
    "icon_url": "https://s3-eu-west-1.amazonaws.com/sinventory.online.scssoft.com/eut2/northern_lights_200.png",
    "icon_url_large": "https://s3-eu-west-1.amazonaws.com/sinventory.online.scssoft.com/eut2/northern_lights_2048.png",
    "name_color": "abde03",
    "tags": "type:desktop_background",
    "tradable": true,
    "marketable": true,
    "commodity": false,
    "store_hidden": true
  },
  {
    "appid": "227300",
    "itemdefid": "29",
    "Timestamp": "2019-09-23T13:36:42Z",
    "modified": "20190923T133642Z",
    "date_created": "20190923T133642Z",
    "type": "item",
    "display_type": "Cabin Accessory",
    "name": "Sweden - Gold Pennant",
    "quantity": 0,
    "description": "A rare variant pennant of a country you may have passed through on your travels - Sweden. Use it as to further customize your truck interior.",
    "background_color": "010e18",
    "icon_url": "https://s3-eu-west-1.amazonaws.com/sinventory.online.scssoft.com/eut2/se_pennant_gold_200.png",
    "icon_url_large": "https://s3-eu-west-1.amazonaws.com/sinventory.online.scssoft.com/eut2/se_pennant_gold_2048.png",
    "name_color": "0c8cef",
    "tags": "type:cabin_accessory",
    "tradable": true,
    "marketable": true,
    "commodity": false,
    "store_hidden": true
  },
  {
    "appid": "227300",
    "itemdefid": "30",
    "Timestamp": "2019-09-23T13:36:42Z",
    "modified": "20190923T133642Z",
    "date_created": "20190923T133642Z",
    "type": "item",
    "display_type": "Cabin Accessory",
    "name": "Sweden - Three Crowns Pennant",
    "quantity": 0,
    "description": "A rare variant pennant of a country you may have passed through on your travels - Sweden. Use it as to further customize your truck interior.",
    "background_color": "010e18",
    "icon_url": "https://s3-eu-west-1.amazonaws.com/sinventory.online.scssoft.com/eut2/se_pennant_three_crowns_200.png",
    "icon_url_large": "https://s3-eu-west-1.amazonaws.com/sinventory.online.scssoft.com/eut2/se_pennant_three_crowns_2048.png",
    "name_color": "0c8cef",
    "tags": "type:cabin_accessory",
    "tradable": true,
    "marketable": true,
    "commodity": false,
    "store_hidden": true
  },
  {
    "appid": "227300",
    "itemdefid": "31",
    "Timestamp": "2019-09-23T13:36:42Z",
    "modified": "20190923T133642Z",
    "date_created": "20190923T133642Z",
    "type": "item",
    "display_type": "Paint Job",
    "name": "Slipstream",
    "quantity": 0,
    "description": "With this paint job your truck will always deliver the cargo through the finish line!",
    "background_color": "081700",
    "icon_url": "https://s3-eu-west-1.amazonaws.com/sinventory.online.scssoft.com/eut2/slipstream_200.png",
    "icon_url_large": "https://s3-eu-west-1.amazonaws.com/sinventory.online.scssoft.com/eut2/slipstream_2048.png",
    "name_color": "abde03",
    "tags": "type:paint_job",
    "tradable": true,
    "marketable": true,
    "commodity": false,
    "store_hidden": true
  },
  {
    "appid": "227300",
    "itemdefid": "32",
    "Timestamp": "2019-09-23T13:36:42Z",
    "modified": "20190923T133642Z",
    "date_created": "20190923T133642Z",
    "type": "item",
    "display_type": "Cabin Accessory",
    "name": "Pace Pete",
    "quantity": 0,
    "description": "Pace Pete likes Euro Truck Simulator 2 so much he somehow finds his way into the game world as a cabin toy. He also makes your turns sharper than before!",
    "background_color": "081700",
    "icon_url": "https://s3-eu-west-1.amazonaws.com/sinventory.online.scssoft.com/eut2/pp_bobblehead_200.png",
    "icon_url_large": "https://s3-eu-west-1.amazonaws.com/sinventory.online.scssoft.com/eut2/pp_bobblehead_2048.png",
    "name_color": "abde03",
    "tags": "type:cabin_accessory",
    "tradable": true,
    "marketable": true,
    "commodity": false,
    "store_hidden": true
  },
  {
    "appid": "227300",
    "itemdefid": "33",
    "Timestamp": "2019-09-23T13:36:42Z",
    "modified": "20190923T133642Z",
    "date_created": "20190923T133642Z",
    "type": "item",
    "display_type": "Cabin Accessory",
    "name": "Goodyear - Pennant",
    "quantity": 0,
    "description": "A hanging window accessory pennant for all fans of GoodYear tires. GoodYear - Made to feel good",
    "background_color": "081700",
    "icon_url": "https://s3-eu-west-1.amazonaws.com/sinventory.online.scssoft.com/eut2/goodyear_pennant_200.png",
    "icon_url_large": "https://s3-eu-west-1.amazonaws.com/sinventory.online.scssoft.com/eut2/goodyear_pennant_2048.png",
    "name_color": "abde03",
    "tags": "type:cabin_accessory",
    "tradable": true,
    "marketable": true,
    "commodity": false,
    "store_hidden": true
  },
  {
    "appid": "227300",
    "itemdefid": "34",
    "Timestamp": "2019-09-23T13:36:42Z",
    "modified": "20190923T133642Z",
    "date_created": "20190923T133642Z",
    "type": "item",
    "display_type": "Cabin Accessory",
    "name": "Krone - Pennant",
    "quantity": 0,
    "description": "A hanging window accessory pennant for all fans of Krone Trailers. Krone - We deliver the future",
    "background_color": "081700",
    "icon_url": "https://s3-eu-west-1.amazonaws.com/sinventory.online.scssoft.com/eut2/krone_pennant_200.png",
    "icon_url_large": "https://s3-eu-west-1.amazonaws.com/sinventory.online.scssoft.com/eut2/krone_pennant_2048.png",
    "name_color": "abde03",
    "tags": "type:cabin_accessory",
    "tradable": true,
    "marketable": true,
    "commodity": false,
    "store_hidden": true
  },
  {
    "appid": "227300",
    "itemdefid": "35",
    "Timestamp": "2019-09-23T13:36:43Z",
    "modified": "20190923T133643Z",
    "date_created": "20190923T133643Z",
    "type": "item",
    "display_type": "Cabin Accessory",
    "name": "ETRC - Pennant",
    "quantity": 0,
    "description": "A hanging window accessory pennant commemorating the 2018 season of FIA European Truck Racing Championship",
    "background_color": "081700",
    "icon_url": "https://s3-eu-west-1.amazonaws.com/sinventory.online.scssoft.com/eut2/etrc_pennant_200.png",
    "icon_url_large": "https://s3-eu-west-1.amazonaws.com/sinventory.online.scssoft.com/eut2/etrc_pennant_2048.png",
    "name_color": "abde03",
    "tags": "type:cabin_accessory",
    "tradable": true,
    "marketable": true,
    "commodity": false,
    "store_hidden": true
  },
  {
    "appid": "227300",
    "itemdefid": "36",
    "Timestamp": "2019-09-23T13:36:43Z",
    "modified": "20190923T133643Z",
    "date_created": "20190923T133643Z",
    "type": "item",
    "display_type": "Cabin Accessory",
    "name": "Brandenburg Gate",
    "quantity": 0,
    "description": "A weighty little bronze statue of the famous landmark. A pretty interior decoration to accompany you through your deliveries and bring back memories of places you have visited.",
    "background_color": "081700",
    "icon_url": "https://s3-eu-west-1.amazonaws.com/sinventory.online.scssoft.com/eut2/bb_gate_200.png",
    "icon_url_large": "https://s3-eu-west-1.amazonaws.com/sinventory.online.scssoft.com/eut2/bb_gate_2048.png",
    "name_color": "abde03",
    "tags": "type:cabin_accessory",
    "tradable": true,
    "marketable": true,
    "commodity": false,
    "store_hidden": true
  },
  {
    "appid": "227300",
    "itemdefid": "37",
    "Timestamp": "2019-09-23T13:36:43Z",
    "modified": "20190923T133643Z",
    "date_created": "20190923T133643Z",
    "type": "item",
    "display_type": "Cabin Accessory",
    "name": "Germany - Gold Pennant",
    "quantity": 0,
    "description": "A rare variant pennant of a country you may have passed through on your travels - Germany. Use it as to further customize your truck interior.",
    "background_color": "010e18",
    "icon_url": "https://s3-eu-west-1.amazonaws.com/sinventory.online.scssoft.com/eut2/de_pennant_gold_200.png",
    "icon_url_large": "https://s3-eu-west-1.amazonaws.com/sinventory.online.scssoft.com/eut2/de_pennant_gold_2048.png",
    "name_color": "0c8cef",
    "tags": "type:cabin_accessory",
    "tradable": true,
    "marketable": true,
    "commodity": false,
    "store_hidden": true
  },
  {
    "appid": "227300",
    "itemdefid": "38",
    "Timestamp": "2019-09-23T13:36:43Z",
    "modified": "20190923T133643Z",
    "date_created": "20190923T133643Z",
    "type": "item",
    "display_type": "Desktop Background",
    "name": "Under the Bridge",
    "quantity": 0,
    "description": "Very stylish and bright environment under the massive bridge that produces gorgeous reflections on your truck. What a great place to admire your beast in full glory!",
    "background_color": "081700",
    "icon_url": "https://s3-eu-west-1.amazonaws.com/sinventory.online.scssoft.com/eut2/under_bridge_200.png",
    "icon_url_large": "https://s3-eu-west-1.amazonaws.com/sinventory.online.scssoft.com/eut2/under_bridge_2048.png",
    "name_color": "abde03",
    "tags": "type:desktop_background",
    "tradable": true,
    "marketable": true,
    "commodity": false,
    "store_hidden": true
  },
  {
    "appid": "227300",
    "itemdefid": "39",
    "Timestamp": "2019-09-23T13:36:43Z",
    "modified": "20190923T133643Z",
    "date_created": "20190923T133643Z",
    "type": "item",
    "display_type": "Cabin Accessory",
    "name": "Golden Stag",
    "quantity": 0,
    "description": "Magnificent golden statue of a golden stag is a charming and impressive symbol of traditions, connections and heritage. It is also a joyful collection piece in your truck interior decoration.",
    "background_color": "081700",
    "icon_url": "https://s3-eu-west-1.amazonaws.com/sinventory.online.scssoft.com/eut2/golden_deer_200.png",
    "icon_url_large": "https://s3-eu-west-1.amazonaws.com/sinventory.online.scssoft.com/eut2/golden_deer_2048.png",
    "name_color": "abde03",
    "tags": "type:cabin_accessory",
    "tradable": true,
    "marketable": true,
    "commodity": false,
    "store_hidden": true
  },
  {
    "appid": "227300",
    "itemdefid": "40",
    "Timestamp": "2019-09-23T13:36:43Z",
    "modified": "20190923T133643Z",
    "date_created": "20190923T133643Z",
    "type": "item",
    "display_type": "Cabin Accessory",
    "name": "Shepherd Bobblehead",
    "quantity": 0,
    "description": "Cute bobblehead of a charming shepherd will positively nod along with you in all of your journeys.",
    "background_color": "081700",
    "icon_url": "https://s3-eu-west-1.amazonaws.com/sinventory.online.scssoft.com/eut2/shepherd_200.png",
    "icon_url_large": "https://s3-eu-west-1.amazonaws.com/sinventory.online.scssoft.com/eut2/shepherd_2048.png",
    "name_color": "abde03",
    "tags": "type:cabin_accessory",
    "tradable": true,
    "marketable": true,
    "commodity": false,
    "store_hidden": true
  },
  {
    "appid": "227300",
    "itemdefid": "41",
    "Timestamp": "2019-09-23T13:36:43Z",
    "modified": "20190923T133643Z",
    "date_created": "20190923T133643Z",
    "type": "item",
    "display_type": "Cabin Accessory",
    "name": "Gingerbread House",
    "quantity": 0,
    "description": "Just like in a fairy-tale! Tiny, cute, and surely tasty decoration for your truck cabin.",
    "background_color": "081700",
    "icon_url": "https://s3-eu-west-1.amazonaws.com/sinventory.online.scssoft.com/eut2/cozy_house_200.png?v=1",
    "icon_url_large": "https://s3-eu-west-1.amazonaws.com/sinventory.online.scssoft.com/eut2/cozy_house_2048.png?v=1",
    "name_color": "abde03",
    "tags": "type:cabin_accessory",
    "tradable": true,
    "marketable": true,
    "commodity": false,
    "store_hidden": true
  },
  {
    "appid": "227300",
    "itemdefid": "42",
    "Timestamp": "2019-09-23T13:36:43Z",
    "modified": "20190923T133643Z",
    "date_created": "20190923T133643Z",
    "type": "item",
    "display_type": "Paint Job",
    "name": "Starlight Burst (Truck)",
    "quantity": 0,
    "description": "Not everyone has been lucky enough to see a star burst in their life. Paint your truck with this beautiful paint job.",
    "background_color": "081700",
    "icon_url": "https://s3-eu-west-1.amazonaws.com/sinventory.online.scssoft.com/eut2/starlight_burst_truck_200.png",
    "icon_url_large": "https://s3-eu-west-1.amazonaws.com/sinventory.online.scssoft.com/eut2/starlight_burst_truck_2048.png",
    "name_color": "abde03",
    "tags": "type:paint_job",
    "tradable": true,
    "marketable": true,
    "commodity": false,
    "store_hidden": true
  },
  {
    "appid": "227300",
    "itemdefid": "43",
    "Timestamp": "2019-09-23T13:36:43Z",
    "modified": "20190923T133643Z",
    "date_created": "20190923T133643Z",
    "type": "item",
    "display_type": "Paint Job",
    "name": "Starlight Burst (Trailer)",
    "quantity": 0,
    "description": "Not everyone has been lucky enough to see a star burst in their life. Paint your trailer with this beautiful paint job.",
    "background_color": "081700",
    "icon_url": "https://s3-eu-west-1.amazonaws.com/sinventory.online.scssoft.com/eut2/starlight_burst_trailer_200.png",
    "icon_url_large": "https://s3-eu-west-1.amazonaws.com/sinventory.online.scssoft.com/eut2/starlight_burst_trailer_2048.png",
    "name_color": "abde03",
    "tags": "type:paint_job",
    "tradable": true,
    "marketable": true,
    "commodity": false,
    "store_hidden": true
  },
  {
    "appid": "227300",
    "itemdefid": "44",
    "Timestamp": "2019-09-23T13:36:43Z",
    "modified": "20190923T133643Z",
    "date_created": "20190923T133643Z",
    "type": "item",
    "display_type": "Cabin Accessory",
    "name": "Xmas Tree",
    "quantity": 0,
    "description": "A cute little golden tree planted in the tire. Subtle but cool hanging interior decoration. An award for those who made an extra effort completing personal contribution of World of Trucks' Christmas event 2018 in both American Truck Simulator and Euro Truck Simulator 2.",
    "background_color": "081700",
    "icon_url": "https://s3-eu-west-1.amazonaws.com/sinventory.online.scssoft.com/eut2/xmas_tree_200.png",
    "icon_url_large": "https://s3-eu-west-1.amazonaws.com/sinventory.online.scssoft.com/eut2/xmas_tree_2048.png",
    "name_color": "abde03",
    "tags": "type:cabin_accessory",
    "tradable": true,
    "marketable": true,
    "commodity": false,
    "store_hidden": true
  },
  {
    "appid": "227300",
    "itemdefid": "45",
    "Timestamp": "2019-09-23T13:36:43Z",
    "modified": "20190923T133643Z",
    "date_created": "20190923T133643Z",
    "type": "item",
    "display_type": "Cabin Accessory",
    "name": "Timber Tree",
    "quantity": 0,
    "description": "A memory relic of taking part in reaching 250,000 deliveries in the World of Trucks Christmas event in 2018. Hang this excellent piece of wooden art in your cabin!",
    "background_color": "081700",
    "icon_url": "https://s3-eu-west-1.amazonaws.com/sinventory.online.scssoft.com/eut2/xmas_tree_1_timber_200.png",
    "icon_url_large": "https://s3-eu-west-1.amazonaws.com/sinventory.online.scssoft.com/eut2/xmas_tree_1_timber_2048.png",
    "name_color": "abde03",
    "tags": "type:cabin_accessory",
    "tradable": true,
    "marketable": true,
    "commodity": false,
    "store_hidden": true
  },
  {
    "appid": "227300",
    "itemdefid": "46",
    "Timestamp": "2019-09-23T13:36:43Z",
    "modified": "20190923T133643Z",
    "date_created": "20190923T133643Z",
    "type": "item",
    "display_type": "Cabin Accessory",
    "name": "Craftsman Tree",
    "quantity": 0,
    "description": "A memory relic of taking part in reaching 500,000 deliveries in the World of Trucks Christmas event in 2018. Hang this piece of precise leather-work in your cabin!",
    "background_color": "081700",
    "icon_url": "https://s3-eu-west-1.amazonaws.com/sinventory.online.scssoft.com/eut2/xmas_tree_2_craftsman_200.png",
    "icon_url_large": "https://s3-eu-west-1.amazonaws.com/sinventory.online.scssoft.com/eut2/xmas_tree_2_craftsman_2048.png",
    "name_color": "abde03",
    "tags": "type:cabin_accessory",
    "tradable": true,
    "marketable": true,
    "commodity": false,
    "store_hidden": true
  },
  {
    "appid": "227300",
    "itemdefid": "47",
    "Timestamp": "2019-09-23T13:36:43Z",
    "modified": "20190923T133643Z",
    "date_created": "20190923T133643Z",
    "type": "item",
    "display_type": "Cabin Accessory",
    "name": "Silver Tree",
    "quantity": 0,
    "description": "A memory relic of taking part in reaching 750,000 deliveries in the World of Trucks Christmas event in 2018. Hang it as a fine piece of an exclusive silver jewellery!",
    "background_color": "081700",
    "icon_url": "https://s3-eu-west-1.amazonaws.com/sinventory.online.scssoft.com/eut2/xmas_tree_3_silver_200.png",
    "icon_url_large": "https://s3-eu-west-1.amazonaws.com/sinventory.online.scssoft.com/eut2/xmas_tree_3_silver_2048.png",
    "name_color": "abde03",
    "tags": "type:cabin_accessory",
    "tradable": true,
    "marketable": true,
    "commodity": false,
    "store_hidden": true
  },
  {
    "appid": "227300",
    "itemdefid": "48",
    "Timestamp": "2019-09-23T13:36:43Z",
    "modified": "20190923T133643Z",
    "date_created": "20190923T133643Z",
    "type": "item",
    "display_type": "Cabin Accessory",
    "name": "Golden Tree",
    "quantity": 0,
    "description": "A memory relic of taking part in reaching 1,000,000 deliveries in the World of Trucks Christmas event in 2018. Hang it as a piece of fine 999 gold jewellery!",
    "background_color": "081700",
    "icon_url": "https://s3-eu-west-1.amazonaws.com/sinventory.online.scssoft.com/eut2/xmas_tree_4_gold_200.png",
    "icon_url_large": "https://s3-eu-west-1.amazonaws.com/sinventory.online.scssoft.com/eut2/xmas_tree_4_gold_2048.png",
    "name_color": "abde03",
    "tags": "type:cabin_accessory",
    "tradable": true,
    "marketable": true,
    "commodity": false,
    "store_hidden": true
  },
  {
    "appid": "227300",
    "itemdefid": "49",
    "Timestamp": "2019-09-23T13:36:43Z",
    "modified": "20190923T133643Z",
    "date_created": "20190923T133643Z",
    "type": "item",
    "display_type": "Cabin Accessory",
    "name": "Magical Spiral",
    "quantity": 0,
    "description": "You didn't believe in fairy tales until you found the magical snowflake in your cabin as a reward for your hauling duty. No one knows where it comes from.",
    "background_color": "081700",
    "icon_url": "https://s3-eu-west-1.amazonaws.com/sinventory.online.scssoft.com/eut2/spiral_200.png",
    "icon_url_large": "https://s3-eu-west-1.amazonaws.com/sinventory.online.scssoft.com/eut2/spiral_2048.png",
    "name_color": "abde03",
    "tags": "type:cabin_accessory",
    "tradable": true,
    "marketable": true,
    "commodity": false,
    "store_hidden": true
  },
  {
    "appid": "227300",
    "itemdefid": "50",
    "Timestamp": "2019-09-23T13:36:43Z",
    "modified": "20190923T133643Z",
    "date_created": "20190923T133643Z",
    "type": "item",
    "display_type": "Desktop Background",
    "name": "First Class",
    "quantity": 0,
    "description": "Haul hard, relax like a millionaire. And that goes for your truck as well. Park it in the First Class hangar and give it the luxury care it deserves.",
    "background_color": "081700",
    "icon_url": "https://s3-eu-west-1.amazonaws.com/sinventory.online.scssoft.com/eut2/hangar_200.png",
    "icon_url_large": "https://s3-eu-west-1.amazonaws.com/sinventory.online.scssoft.com/eut2/hangar_2048.png",
    "name_color": "abde03",
    "tags": "type:desktop_background",
    "tradable": true,
    "marketable": true,
    "commodity": false,
    "store_hidden": true
  },
  {
    "appid": "227300",
    "itemdefid": "51",
    "Timestamp": "2019-09-23T13:36:43Z",
    "modified": "20190923T133643Z",
    "date_created": "20190923T133643Z",
    "type": "item",
    "display_type": "Cabin Accessory",
    "name": "Platinum Tree",
    "quantity": 0,
    "description": "A memory relic of taking part in reaching 1,250,000 deliveries in the World of Trucks Christmas event in 2018. Hang it as a fine piece of a rare metal jewellery!",
    "background_color": "081700",
    "icon_url": "https://s3-eu-west-1.amazonaws.com/sinventory.online.scssoft.com/eut2/xmas_tree_5_platinum_200.png",
    "icon_url_large": "https://s3-eu-west-1.amazonaws.com/sinventory.online.scssoft.com/eut2/xmas_tree_5_platinum_2048.png",
    "name_color": "abde03",
    "tags": "type:cabin_accessory",
    "tradable": true,
    "marketable": true,
    "commodity": false,
    "store_hidden": true
  },
  {
    "appid": "227300",
    "itemdefid": "52",
    "Timestamp": "2019-09-23T13:36:43Z",
    "modified": "20190923T133643Z",
    "date_created": "20190923T133643Z",
    "type": "item",
    "display_type": "Cabin Accessory",
    "name": "Festive Tree",
    "quantity": 0,
    "description": "A memory relic of taking part in reaching 1,500,000 deliveries in the World of Trucks Christmas event in 2018. Hang it and make your cabin festive like it's Christmas time!",
    "background_color": "081700",
    "icon_url": "https://s3-eu-west-1.amazonaws.com/sinventory.online.scssoft.com/eut2/xmas_tree_6_festive_200.png",
    "icon_url_large": "https://s3-eu-west-1.amazonaws.com/sinventory.online.scssoft.com/eut2/xmas_tree_6_festive_2048.png",
    "name_color": "abde03",
    "tags": "type:cabin_accessory",
    "tradable": true,
    "marketable": true,
    "commodity": false,
    "store_hidden": true
  },
  {
    "appid": "227300",
    "itemdefid": "55",
    "Timestamp": "2019-09-23T13:36:44Z",
    "modified": "20190923T133644Z",
    "date_created": "20190923T133644Z",
    "type": "item",
    "display_type": "Cabin Accessory",
    "name": "ETRC Mug",
    "quantity": 0,
    "description": "The FIA ETRC mug! Take it with you on your travels - you never know when you'll need to get a really fast coffee break!",
    "background_color": "081700",
    "icon_url": "https://s3-eu-west-1.amazonaws.com/sinventory.online.scssoft.com/eut2/etrc_mug_200.png",
    "icon_url_large": "https://s3-eu-west-1.amazonaws.com/sinventory.online.scssoft.com/eut2/etrc_mug_2048.png",
    "name_color": "abde03",
    "tags": "type:cabin_accessory",
    "tradable": true,
    "marketable": true,
    "commodity": false,
    "store_hidden": true
  },
  {
    "appid": "227300",
    "itemdefid": "56",
    "Timestamp": "2019-09-23T13:36:44Z",
    "modified": "20190923T133644Z",
    "date_created": "20190923T133644Z",
    "type": "item",
    "display_type": "Cabin Accessory",
    "name": "ETRC Cap",
    "quantity": 0,
    "description": "The FIA ETRC cap! Take it with you on your travels - you never know when you'll need to prove you can make your delivery fast!",
    "background_color": "081700",
    "icon_url": "https://s3-eu-west-1.amazonaws.com/sinventory.online.scssoft.com/eut2/etrc_cap_200.png",
    "icon_url_large": "https://s3-eu-west-1.amazonaws.com/sinventory.online.scssoft.com/eut2/etrc_cap_2048.png",
    "name_color": "abde03",
    "tags": "type:cabin_accessory",
    "tradable": true,
    "marketable": true,
    "commodity": false,
    "store_hidden": true
  },
  {
    "appid": "227300",
    "itemdefid": "57",
    "Timestamp": "2019-09-23T13:36:44Z",
    "modified": "20190923T133644Z",
    "date_created": "20190923T133644Z",
    "type": "item",
    "display_type": "Cabin Accessory",
    "name": "Adam Lacko Buggyra Model 1:50",
    "quantity": 0,
    "description": "Adam Lacko's winning beast of the FIA ETRC 2017 season! Put it into your cabin and you'll always have the best time!",
    "background_color": "111111",
    "icon_url": "https://s3-eu-west-1.amazonaws.com/sinventory.online.scssoft.com/eut2/etrc_bbhead_lacko_200.png",
    "icon_url_large": "https://s3-eu-west-1.amazonaws.com/sinventory.online.scssoft.com/eut2/etrc_bbhead_lacko_2048.png",
    "name_color": "a9a9a9",
    "tags": "type:cabin_accessory",
    "tradable": true,
    "marketable": true,
    "commodity": false,
    "store_hidden": true
  },
  {
    "appid": "227300",
    "itemdefid": "58",
    "Timestamp": "2019-09-23T13:36:44Z",
    "modified": "20190923T133644Z",
    "date_created": "20190923T133644Z",
    "type": "item",
    "display_type": "Cabin Accessory",
    "name": "Jochen Hahn Iveco Model 1:50",
    "quantity": 0,
    "description": "Jochen Hahn - the five-time champion - won the FIA ETRC 2018 season with this mighty beast! Place it in your cabin and it might help you to not lose any second on your deliveries!",
    "background_color": "111111",
    "icon_url": "https://s3-eu-west-1.amazonaws.com/sinventory.online.scssoft.com/eut2/etrc_bbhead_jhahn_200.png",
    "icon_url_large": "https://s3-eu-west-1.amazonaws.com/sinventory.online.scssoft.com/eut2/etrc_bbhead_jhahn_2048.png",
    "name_color": "a9a9a9",
    "tags": "type:cabin_accessory",
    "tradable": true,
    "marketable": true,
    "commodity": false,
    "store_hidden": true
  },
  {
    "appid": "227300",
    "itemdefid": "59",
    "Timestamp": "2019-09-23T13:36:44Z",
    "modified": "20190923T133644Z",
    "date_created": "20190923T133644Z",
    "type": "item",
    "display_type": "Cabin Accessory",
    "name": "Norbert Kiss Mercedes Model 1:50",
    "quantity": 0,
    "description": "Norbert Kiss - the double FIA ETRC champion - drives this mighty beast! Place it in your cabin and it might help you to not lose any second on your deliveries!",
    "background_color": "111111",
    "icon_url": "https://s3-eu-west-1.amazonaws.com/sinventory.online.scssoft.com/eut2/etrc_bbhead_kiss_200.png",
    "icon_url_large": "https://s3-eu-west-1.amazonaws.com/sinventory.online.scssoft.com/eut2/etrc_bbhead_kiss_2048.png",
    "name_color": "a9a9a9",
    "tags": "type:cabin_accessory",
    "tradable": true,
    "marketable": true,
    "commodity": false,
    "store_hidden": true
  },
  {
    "appid": "227300",
    "itemdefid": "60",
    "Timestamp": "2019-09-23T13:36:44Z",
    "modified": "20190923T133644Z",
    "date_created": "20190923T133644Z",
    "type": "item",
    "display_type": "Paint Job",
    "name": "Pit Stop",
    "quantity": 0,
    "description": "Cover your truck with this racing inspired paint job. This motif will not make your truck go faster, but you'll definitely look like a part of the team.",
    "background_color": "081700",
    "icon_url": "https://s3-eu-west-1.amazonaws.com/sinventory.online.scssoft.com/eut2/etrc_pit_stop_200.png",
    "icon_url_large": "https://s3-eu-west-1.amazonaws.com/sinventory.online.scssoft.com/eut2/etrc_pit_stop_2048.png",
    "name_color": "abde03",
    "tags": "type:paint_job",
    "tradable": true,
    "marketable": true,
    "commodity": false,
    "store_hidden": true
  },
  {
    "appid": "227300",
    "itemdefid": "61",
    "Timestamp": "2019-09-23T13:36:44Z",
    "modified": "20190923T133644Z",
    "date_created": "20190923T133644Z",
    "type": "item",
    "display_type": "Cabin Accessory",
    "name": "Goodyear Blimp",
    "quantity": 0,
    "description": "The Goodyear Blimp, the iconic airship that roams our friendly skies. Add it to your cabin to remind you of all the good years of trucking ahead!",
    "background_color": "081700",
    "icon_url": "https://s3-eu-west-1.amazonaws.com/sinventory.online.scssoft.com/eut2/goodyear_blimp_200.png",
    "icon_url_large": "https://s3-eu-west-1.amazonaws.com/sinventory.online.scssoft.com/eut2/goodyear_blimp_2048.png",
    "name_color": "abde03",
    "tags": "type:cabin_accessory",
    "tradable": true,
    "marketable": true,
    "commodity": false,
    "store_hidden": true
  },
  {
    "appid": "227300",
    "itemdefid": "62",
    "Timestamp": "2019-10-01T07:46:52Z",
    "modified": "20191001T074652Z",
    "date_created": "20191001T074652Z",
    "type": "item",
    "display_type": "Cabin Accessory",
    "name": "Boxing Gloves",
    "quantity": 0,
    "description": "What better way to symbolise the fight against breast cancer than a pair of pink ribbon emblazoned Boxing Gloves! Add them to your cabin to show your support for the cause.",
    "background_color": "081700",
    "icon_url": "https://s3-eu-west-1.amazonaws.com/sinventory.online.scssoft.com/eut2/boxing_gloves_200.png",
    "icon_url_large": "https://s3-eu-west-1.amazonaws.com/sinventory.online.scssoft.com/eut2/boxing_gloves_2048.png",
    "name_color": "abde03",
    "tags": "type:cabin_accessory",
    "tradable": true,
    "marketable": true,
    "commodity": false,
    "store_hidden": true
  },
  {
    "appid": "227300",
    "itemdefid": "63",
    "Timestamp": "2019-10-01T07:46:53Z",
    "modified": "20191001T074653Z",
    "date_created": "20191001T074653Z",
    "type": "item",
    "display_type": "Cabin Accessory",
    "name": "Winning Dice",
    "quantity": 0,
    "description": "We all appreciate winning dice from time to time, and these also show pink ribbons however they roll! Add them to your cabin to show your support in the fight against breast cancer.",
    "background_color": "081700",
    "icon_url": "https://s3-eu-west-1.amazonaws.com/sinventory.online.scssoft.com/eut2/winning_dice_200.png",
    "icon_url_large": "https://s3-eu-west-1.amazonaws.com/sinventory.online.scssoft.com/eut2/winning_dice_2048.png",
    "name_color": "abde03",
    "tags": "type:cabin_accessory",
    "tradable": true,
    "marketable": true,
    "commodity": false,
    "store_hidden": true
  },
  {
    "appid": "227300",
    "itemdefid": "64",
    "Timestamp": "2019-12-17T10:16:29Z",
    "modified": "20191217T101629Z",
    "date_created": "20191217T101629Z",
    "type": "item",
    "display_type": "Cabin Accessory",
    "name": "Christmas Sock",
    "quantity": 0,
    "description": "What goodies can be found in this attractive wool knit Christmas Sock. Add it to your cabin to celebrate the season of giving!",
    "background_color": "081700",
    "icon_url": "https://s3-eu-west-1.amazonaws.com/sinventory.online.scssoft.com/eut2/xmas_sock_200.png",
    "icon_url_large": "https://s3-eu-west-1.amazonaws.com/sinventory.online.scssoft.com/eut2/xmas_sock_2048.png",
    "name_color": "abde03",
    "tags": "type:cabin_accessory",
    "tradable": true,
    "marketable": true,
    "commodity": false,
    "store_hidden": true
  },
  {
    "appid": "227300",
    "itemdefid": "65",
    "Timestamp": "2019-12-17T10:16:29Z",
    "modified": "20191217T101629Z",
    "date_created": "20191217T101629Z",
    "type": "item",
    "display_type": "Paint Job",
    "name": "Under Wraps",
    "quantity": 0,
    "description": "What secret delivery will you be making in this beautiful Christmas themed paint job during this season of giving.",
    "background_color": "081700",
    "icon_url": "https://s3-eu-west-1.amazonaws.com/sinventory.online.scssoft.com/eut2/chr_gif_200.png",
    "icon_url_large": "https://s3-eu-west-1.amazonaws.com/sinventory.online.scssoft.com/eut2/chr_gif_2048.png",
    "name_color": "abde03",
    "tags": "type:paint_job",
    "tradable": true,
    "marketable": true,
    "commodity": false,
    "store_hidden": true
  },
  {
    "appid": "227300",
    "itemdefid": "66",
    "Timestamp": "2019-12-17T10:16:29Z",
    "modified": "20191217T101629Z",
    "date_created": "20191217T101629Z",
    "type": "item",
    "display_type": "Paint Job",
    "name": "Crystal Chill",
    "quantity": 0,
    "description": "Every snowflake crystal in the world is unique, and so is this amazing paint job. Paint your truck with it to chill out while driving.",
    "background_color": "081700",
    "icon_url": "https://s3-eu-west-1.amazonaws.com/sinventory.online.scssoft.com/eut2/chr_sta_200.png",
    "icon_url_large": "https://s3-eu-west-1.amazonaws.com/sinventory.online.scssoft.com/eut2/chr_sta_2048.png",
    "name_color": "abde03",
    "tags": "type:paint_job",
    "tradable": true,
    "marketable": true,
    "commodity": false,
    "store_hidden": true
  },
  {
    "appid": "227300",
    "itemdefid": "67",
    "Timestamp": "2019-12-17T10:16:29Z",
    "modified": "20191217T101629Z",
    "date_created": "20191217T101629Z",
    "type": "item",
    "display_type": "Paint Job",
    "name": "Spot the Holly",
    "quantity": 0,
    "description": "Straight out of a stylish, early 20th century parlour, this paint job offers hidden holly branches in a charming vintage pattern. Visit the spirit of Christmas past with it.",
    "background_color": "081700",
    "icon_url": "https://s3-eu-west-1.amazonaws.com/sinventory.online.scssoft.com/eut2/chr_til_200.png",
    "icon_url_large": "https://s3-eu-west-1.amazonaws.com/sinventory.online.scssoft.com/eut2/chr_til_2048.png",
    "name_color": "abde03",
    "tags": "type:paint_job",
    "tradable": true,
    "marketable": true,
    "commodity": false,
    "store_hidden": true
  },
  {
    "appid": "227300",
    "itemdefid": "68",
    "Timestamp": "2019-12-17T10:16:29Z",
    "modified": "20191217T101629Z",
    "date_created": "20191217T101629Z",
    "type": "item",
    "display_type": "Cabin Accessory",
    "name": "Autumn Star",
    "quantity": 0,
    "description": "A shiny ornamental reward for reaching 200 stars in the Christmas Grand Giving event 2019. Hang it within your cabin in preparation for the holiday season.",
    "background_color": "081700",
    "icon_url": "https://s3-eu-west-1.amazonaws.com/sinventory.online.scssoft.com/eut2/xmas_star_1_200.png",
    "icon_url_large": "https://s3-eu-west-1.amazonaws.com/sinventory.online.scssoft.com/eut2/xmas_star_1_2048.png",
    "name_color": "abde03",
    "tags": "type:cabin_accessory",
    "tradable": true,
    "marketable": true,
    "commodity": false,
    "store_hidden": true
  },
  {
    "appid": "227300",
    "itemdefid": "69",
    "Timestamp": "2019-12-17T10:16:29Z",
    "modified": "20191217T101629Z",
    "date_created": "20191217T101629Z",
    "type": "item",
    "display_type": "Cabin Accessory",
    "name": "Twinkle Star",
    "quantity": 0,
    "description": "An eye catching ornamental reward for reaching 400 stars in the Christmas Grand Giving event 2019. Hang it in your cabin with pride of the community's achievement.",
    "background_color": "081700",
    "icon_url": "https://s3-eu-west-1.amazonaws.com/sinventory.online.scssoft.com/eut2/xmas_star_2_200.png",
    "icon_url_large": "https://s3-eu-west-1.amazonaws.com/sinventory.online.scssoft.com/eut2/xmas_star_2_2048.png",
    "name_color": "abde03",
    "tags": "type:cabin_accessory",
    "tradable": true,
    "marketable": true,
    "commodity": false,
    "store_hidden": true
  },
  {
    "appid": "227300",
    "itemdefid": "70",
    "Timestamp": "2019-12-17T10:16:29Z",
    "modified": "20191217T101629Z",
    "date_created": "20191217T101629Z",
    "type": "item",
    "display_type": "Cabin Accessory",
    "name": "Frosty Star",
    "quantity": 0,
    "description": "A very cool ornamental reward for reaching 600 stars in the Christmas Grand Giving event 2019. Hang it up in your cabin, you'll be cool and frosty while driving.",
    "background_color": "081700",
    "icon_url": "https://s3-eu-west-1.amazonaws.com/sinventory.online.scssoft.com/eut2/xmas_star_3_200.png",
    "icon_url_large": "https://s3-eu-west-1.amazonaws.com/sinventory.online.scssoft.com/eut2/xmas_star_3_2048.png",
    "name_color": "abde03",
    "tags": "type:cabin_accessory",
    "tradable": true,
    "marketable": true,
    "commodity": false,
    "store_hidden": true
  },
  {
    "appid": "227300",
    "itemdefid": "71",
    "Timestamp": "2019-12-17T10:16:30Z",
    "modified": "20191217T101630Z",
    "date_created": "20191217T101630Z",
    "type": "item",
    "display_type": "Cabin Accessory",
    "name": "Winter Star",
    "quantity": 0,
    "description": "A dazzling ornamental reward for reaching 800 stars in the Christmas Grand Giving event 2019. Enjoy its many pretty facets as it hangs in your cabin.",
    "background_color": "081700",
    "icon_url": "https://s3-eu-west-1.amazonaws.com/sinventory.online.scssoft.com/eut2/xmas_star_4_200.png",
    "icon_url_large": "https://s3-eu-west-1.amazonaws.com/sinventory.online.scssoft.com/eut2/xmas_star_4_2048.png",
    "name_color": "abde03",
    "tags": "type:cabin_accessory",
    "tradable": true,
    "marketable": true,
    "commodity": false,
    "store_hidden": true
  },
  {
    "appid": "227300",
    "itemdefid": "72",
    "Timestamp": "2019-12-17T10:16:30Z",
    "modified": "20191217T101630Z",
    "date_created": "20191217T101630Z",
    "type": "item",
    "display_type": "Cabin Accessory",
    "name": "Christmas Star",
    "quantity": 0,
    "description": "A beautiful ornamental reward for reaching 1000 stars in the Christmas Grand Giving event 2019. Hang it in your cabin as a tribute to the spirit of Christmas giving!",
    "background_color": "081700",
    "icon_url": "https://s3-eu-west-1.amazonaws.com/sinventory.online.scssoft.com/eut2/xmas_star_5_200.png",
    "icon_url_large": "https://s3-eu-west-1.amazonaws.com/sinventory.online.scssoft.com/eut2/xmas_star_5_2048.png",
    "name_color": "abde03",
    "tags": "type:cabin_accessory",
    "tradable": true,
    "marketable": true,
    "commodity": false,
    "store_hidden": true
  },
  {
    "appid": "227300",
    "itemdefid": "73",
    "Timestamp": "2019-12-17T10:16:30Z",
    "modified": "20191217T101630Z",
    "date_created": "20191217T101630Z",
    "type": "item",
    "display_type": "Cabin Accessory",
    "name": "Wishing Star",
    "quantity": 0,
    "description": "A very special ornamental reward for reaching 1200 stars in the Christmas Grand Giving event 2019. What will you wish for with this hanging in your cabin?",
    "background_color": "081700",
    "icon_url": "https://s3-eu-west-1.amazonaws.com/sinventory.online.scssoft.com/eut2/xmas_star_6_200.png",
    "icon_url_large": "https://s3-eu-west-1.amazonaws.com/sinventory.online.scssoft.com/eut2/xmas_star_6_2048.png",
    "name_color": "abde03",
    "tags": "type:cabin_accessory",
    "tradable": true,
    "marketable": true,
    "commodity": false,
    "store_hidden": true
  },
  {
    "appid": "227300",
    "itemdefid": "74",
    "Timestamp": "2020-01-16T13:03:02Z",
    "modified": "20200116T130302Z",
    "date_created": "20200116T130302Z",
    "type": "item",
    "display_type": "Cabin Accessory",
    "name": "Diamond Star",
    "quantity": 0,
    "description": "An impressive ornamental reward for helping the community by delivering more than the personal goal limit, in the Christmas Grand Giving event 2019. Hang it in your cabin for bling that only a diamond star can bring!",
    "background_color": "081700",
    "icon_url": "https://s3-eu-west-1.amazonaws.com/sinventory.online.scssoft.com/eut2/xmas_star_7_200.png",
    "icon_url_large": "https://s3-eu-west-1.amazonaws.com/sinventory.online.scssoft.com/eut2/xmas_star_7_2048.png",
    "name_color": "abde03",
    "tags": "type:cabin_accessory",
    "tradable": true,
    "marketable": true,
    "commodity": false,
    "store_hidden": true
  },
  {
    "appid": "227300",
    "itemdefid": "75",
    "Timestamp": "2020-01-16T13:03:03Z",
    "modified": "20200116T130303Z",
    "date_created": "20200116T130303Z",
    "type": "item",
    "display_type": "Cabin Accessory",
    "name": "Grand Star",
    "quantity": 0,
    "description": "A magnificent ornamental reward for helping the community by delivering no less than twice the personal goal limit, in the Christmas Grand Giving event 2019. Hanging in your cabin, it will symbolise an unmatched personal contribution towards the community goal!",
    "background_color": "0d0b18",
    "icon_url": "https://s3-eu-west-1.amazonaws.com/sinventory.online.scssoft.com/eut2/xmas_star_8_200.png",
    "icon_url_large": "https://s3-eu-west-1.amazonaws.com/sinventory.online.scssoft.com/eut2/xmas_star_8_2048.png",
    "name_color": "8067e7",
    "tags": "type:cabin_accessory",
    "tradable": true,
    "marketable": true,
    "commodity": false,
    "store_hidden": true
  },
  {
    "appid": "227300",
    "itemdefid": "76",
    "Timestamp": "2020-05-07T13:33:14Z",
    "modified": "20200507T133314Z",
    "date_created": "20200507T133314Z",
    "type": "item",
    "display_type": "Cabin Accessory",
    "name": "Home Trucker Insignia",
    "quantity": 0,
    "description": "This beautifully embossed, shiny Home Trucker Insignia represents our thanks and your achievement in keeping the world a safer place during our unprecedented Truck At Home event. Hang it in your cabin with pride!",
    "background_color": "081700",
    "icon_url": "https://s3-eu-west-1.amazonaws.com/sinventory.online.scssoft.com/eut2/home_trucker_badge_200.png",
    "icon_url_large": "https://s3-eu-west-1.amazonaws.com/sinventory.online.scssoft.com/eut2/home_trucker_badge_2048.png",
    "name_color": "abde03",
    "tags": "type:cabin_accessory",
    "tradable": true,
    "marketable": true,
    "commodity": false,
    "store_hidden": true
  },
  {
    "appid": "227300",
    "itemdefid": "77",
    "Timestamp": "2020-06-04T08:25:41Z",
    "modified": "20200604T082541Z",
    "date_created": "20200604T082541Z",
    "type": "item",
    "display_type": "Paint Job",
    "name": "Terra Constructor",
    "quantity": 0,
    "description": "A formidable paint job that looks as it sounds and reminds you of the job to be done, whatever may come. Colour your truck with its design to celebrate your participation in the Operation Genoa Bridge event.",
    "background_color": "081700",
    "icon_url": "https://s3-eu-west-1.amazonaws.com/sinventory.online.scssoft.com/eut2/terra_constructor_200.png",
    "icon_url_large": "https://s3-eu-west-1.amazonaws.com/sinventory.online.scssoft.com/eut2/terra_constructor_2048.png",
    "name_color": "abde03",
    "tags": "type:paint_job",
    "tradable": true,
    "marketable": true,
    "commodity": false,
    "store_hidden": true
  },
  {
    "appid": "227300",
    "itemdefid": "78",
    "Timestamp": "2020-06-04T08:25:41Z",
    "modified": "20200604T082541Z",
    "date_created": "20200604T082541Z",
    "type": "item",
    "display_type": "Cabin Accessory",
    "name": "Plush Terra Road Roller",
    "quantity": 0,
    "description": "Your soft companion during a hard task, hang it in your cabin for company as a reminder of the community pulling together to get Operation Genoa Bridge successfully completed!",
    "background_color": "081700",
    "icon_url": "https://s3-eu-west-1.amazonaws.com/sinventory.online.scssoft.com/eut2/road_roller_200.png",
    "icon_url_large": "https://s3-eu-west-1.amazonaws.com/sinventory.online.scssoft.com/eut2/road_roller_2048.png",
    "name_color": "abde03",
    "tags": "type:cabin_accessory",
    "tradable": true,
    "marketable": true,
    "commodity": false,
    "store_hidden": true
  }
]