﻿[
  {
    "name": "SG_COMPLETED_LEVEL",
    "defaultvalue": 0,
    "displayName": "Completionist",
    "hidden": 0,
    "description": "You completed one game!",
    "icon": "https://steamcdn-a.akamaihd.net/steamcommunity/public/images/apps/579080/ed71c3e23135f57d8d85a42bc853c9851fe6e183.jpg",
    "icongray": "https://steamcdn-a.akamaihd.net/steamcommunity/public/images/apps/579080/a3bcd472f111bc21f7ac2d581c78dd06e6564ad6.jpg"
  },
  {
    "name": "SG_COMPLETED_SA",
    "defaultvalue": 0,
    "displayName": "Score Attacker",
    "hidden": 0,
    "description": "You completed a game of Score Attack!",
    "icon": "https://steamcdn-a.akamaihd.net/steamcommunity/public/images/apps/579080/1e8e88a1ed108c56e61107952244e93b92581400.jpg",
    "icongray": "https://steamcdn-a.akamaihd.net/steamcommunity/public/images/apps/579080/401ea273a0eef74972d0471ebe896f5b40f52b7c.jpg"
  },
  {
    "name": "SG_COMPLETED_A",
    "defaultvalue": 0,
    "displayName": "Arcade-er",
    "hidden": 0,
    "description": "You completed a game of Arcade Mode!",
    "icon": "https://steamcdn-a.akamaihd.net/steamcommunity/public/images/apps/579080/99e092a47639246a04f5b406f03b62175dcbe456.jpg",
    "icongray": "https://steamcdn-a.akamaihd.net/steamcommunity/public/images/apps/579080/efdbb223ad54d854ddfa2209947b68cdea9d9a24.jpg"
  },
  {
    "name": "SG_SA_FIFTY",
    "defaultvalue": 0,
    "displayName": "Marksman",
    "hidden": 0,
    "description": "You scored fifty points in Score Attack!",
    "icon": "https://steamcdn-a.akamaihd.net/steamcommunity/public/images/apps/579080/71d836ce05d16cedcdd7aca835040e89c40466de.jpg",
    "icongray": "https://steamcdn-a.akamaihd.net/steamcommunity/public/images/apps/579080/0017910fe9c9d251202cd5adb3cb136f16ab3e5d.jpg"
  },
  {
    "name": "SG_A_ONEHUNDRED",
    "defaultvalue": 0,
    "displayName": "Warrior",
    "hidden": 0,
    "description": "You scored one hundred points in Arcade Mode!",
    "icon": "https://steamcdn-a.akamaihd.net/steamcommunity/public/images/apps/579080/eade4e2514afd887b8fb38ca55a6d07e5c88681a.jpg",
    "icongray": "https://steamcdn-a.akamaihd.net/steamcommunity/public/images/apps/579080/3b42bd3c63d96d171b7c8fe84e7340789e10b350.jpg"
  },
  {
    "name": "SG_COMPLETED_TUTORIAL",
    "defaultvalue": 0,
    "displayName": "Student",
    "hidden": 0,
    "description": "You did it! The Tutorial! Wow!",
    "icon": "https://steamcdn-a.akamaihd.net/steamcommunity/public/images/apps/579080/6231bcd848c9edb0be3d2c6f1aae5c4c76cfd59a.jpg",
    "icongray": "https://steamcdn-a.akamaihd.net/steamcommunity/public/images/apps/579080/a90ecb5f47ae3583b248e4d86d1a72d9eaf63bac.jpg"
  },
  {
    "name": "SG_QUIT",
    "defaultvalue": 0,
    "displayName": "BYE",
    "hidden": 0,
    "description": "You quit... ",
    "icon": "https://steamcdn-a.akamaihd.net/steamcommunity/public/images/apps/579080/d86356740b4c7c738e9344f275e843829fd098ee.jpg",
    "icongray": "https://steamcdn-a.akamaihd.net/steamcommunity/public/images/apps/579080/65c3e0ee189638f6d0822a202c93faea3041eda6.jpg"
  }
]