﻿{
  "Dlcs": {},
  "Name": "Stories of Bethem: Full Moon",
  "AppId": "412270",
  "ImageUrl": "https://steamcdn-a.akamaihd.net/steam/apps/412270/header.jpg?t=1577186093",
  "Languages": [
    "english",
    "spanish"
  ],
  "Platforms": {
    "windows": true,
    "mac": true,
    "linux": true
  }
}