﻿{
  "Dlcs": {},
  "Name": "Digimon Masters Online",
  "AppId": "537180",
  "ImageUrl": "https://steamcdn-a.akamaihd.net/steam/apps/537180/header.jpg?t=1563233484",
  "Languages": [
    "english"
  ],
  "Platforms": {
    "windows": true,
    "mac": false,
    "linux": false
  }
}