﻿{
  "Dlcs": {},
  "Name": "Return to Castle Wolfenstein",
  "AppId": "9010",
  "ImageUrl": "https://steamcdn-a.akamaihd.net/steam/apps/9010/header.jpg?t=1573221747",
  "Languages": [
    "english"
  ],
  "Platforms": {
    "windows": true,
    "mac": false,
    "linux": false
  }
}