﻿[
  {
    "name": "50_kills",
    "defaultvalue": 0,
    "displayName": "Ninja Novice",
    "hidden": 0,
    "description": "Kill 50 enemies in a single game",
    "icon": "https://steamcdn-a.akamaihd.net/steamcommunity/public/images/apps/224820/e78d2bcb0724c4a18de58d5c0471654b82127c2a.jpg",
    "icongray": "https://steamcdn-a.akamaihd.net/steamcommunity/public/images/apps/224820/7f8c811462601c483973f5e37ed208cf20fd4724.jpg"
  },
  {
    "name": "100_kills",
    "defaultvalue": 0,
    "displayName": "Century Club Killa",
    "hidden": 0,
    "description": "Kill 100 enemies in a single game",
    "icon": "https://steamcdn-a.akamaihd.net/steamcommunity/public/images/apps/224820/82dd3c7947741a7076a52b53a3f1d948344db8b7.jpg",
    "icongray": "https://steamcdn-a.akamaihd.net/steamcommunity/public/images/apps/224820/7f8c811462601c483973f5e37ed208cf20fd4724.jpg"
  },
  {
    "name": "250000_points",
    "defaultvalue": 0,
    "displayName": "Quarter Mil",
    "hidden": 0,
    "description": "Score 250,000 points in a single game",
    "icon": "https://steamcdn-a.akamaihd.net/steamcommunity/public/images/apps/224820/f501280474a8964780e1aa3fabe0e2d3aae5fa82.jpg",
    "icongray": "https://steamcdn-a.akamaihd.net/steamcommunity/public/images/apps/224820/7c678bece6b3d58f69afcc8c2514257df80da1df.jpg"
  },
  {
    "name": "500000_points",
    "defaultvalue": 0,
    "displayName": "Half A Mil",
    "hidden": 0,
    "description": "Score 500,000 points in a single game",
    "icon": "https://steamcdn-a.akamaihd.net/steamcommunity/public/images/apps/224820/9ce6b1158c86f923b85c94b5c5b45f137f91896e.jpg",
    "icongray": "https://steamcdn-a.akamaihd.net/steamcommunity/public/images/apps/224820/c6d9396a987377a83bd81028aa62ab22b0d8d1e8.jpg"
  },
  {
    "name": "1000000_points",
    "defaultvalue": 0,
    "displayName": "Murder Millionaire",
    "hidden": 0,
    "description": "Score 1,000,000 points in a single game",
    "icon": "https://steamcdn-a.akamaihd.net/steamcommunity/public/images/apps/224820/cc5a632391ec00c02b5acc9f71f042ca6ff9f538.jpg",
    "icongray": "https://steamcdn-a.akamaihd.net/steamcommunity/public/images/apps/224820/4885c0e5a73cc326f49b2566fd9678bc1813f314.jpg"
  },
  {
    "name": "2000000",
    "defaultvalue": 0,
    "displayName": "Multi Millionaire",
    "hidden": 0,
    "description": "Score 2,000,000 points in a single game",
    "icon": "https://steamcdn-a.akamaihd.net/steamcommunity/public/images/apps/224820/b6a5e66165a69dbade1bca78fd27e71dc2b7f9cd.jpg",
    "icongray": "https://steamcdn-a.akamaihd.net/steamcommunity/public/images/apps/224820/dd909c142424aba45da0722ca987cc7e2c379250.jpg"
  },
  {
    "name": "100_kills_magic",
    "defaultvalue": 0,
    "displayName": "Wizard",
    "hidden": 0,
    "description": "Kill 100 enemies with magic in a single game",
    "icon": "https://steamcdn-a.akamaihd.net/steamcommunity/public/images/apps/224820/432a219d430d5282afbc85914540fefdc12f05e4.jpg",
    "icongray": "https://steamcdn-a.akamaihd.net/steamcommunity/public/images/apps/224820/4b248e02bb6120272aa4196b68337a557560e51a.jpg"
  },
  {
    "name": "100_beheadings",
    "defaultvalue": 0,
    "displayName": "Queen of Hearts",
    "hidden": 0,
    "description": "\"Off with their heads!\"",
    "icon": "https://steamcdn-a.akamaihd.net/steamcommunity/public/images/apps/224820/19378a332b0ae73fb835d2b5b698756574495e56.jpg",
    "icongray": "https://steamcdn-a.akamaihd.net/steamcommunity/public/images/apps/224820/4bd050d46e7bff9e66749676e5a46bfb9ab7ef3d.jpg"
  },
  {
    "name": "5_bomb_kills",
    "defaultvalue": 0,
    "displayName": "Mad Bomber",
    "hidden": 0,
    "description": "Kill 5 enemies with bombs in one game",
    "icon": "https://steamcdn-a.akamaihd.net/steamcommunity/public/images/apps/224820/67ed13507d6025188ae88584195be641cbdbefeb.jpg",
    "icongray": "https://steamcdn-a.akamaihd.net/steamcommunity/public/images/apps/224820/81c8c649346bb4619131e190d996e5b531fefed7.jpg"
  },
  {
    "name": "20_bomb_kills",
    "defaultvalue": 0,
    "displayName": "Grenadier",
    "hidden": 0,
    "description": "Kill 20 enemies with bombs in one game",
    "icon": "https://steamcdn-a.akamaihd.net/steamcommunity/public/images/apps/224820/131443c1c24056a1930a4c40b6b78c05d06fd44d.jpg",
    "icongray": "https://steamcdn-a.akamaihd.net/steamcommunity/public/images/apps/224820/819a1f7b4ca2bdb7415daccbb581c33cfb967320.jpg"
  },
  {
    "name": "50_bomb_kills",
    "defaultvalue": 0,
    "displayName": "Explosives Expert",
    "hidden": 0,
    "description": "Kill 50 enemies with bombs in one game",
    "icon": "https://steamcdn-a.akamaihd.net/steamcommunity/public/images/apps/224820/43f1e2a3527657cdac9eda0e8b401c3fe6b6a461.jpg",
    "icongray": "https://steamcdn-a.akamaihd.net/steamcommunity/public/images/apps/224820/b5039ff8ca587445a7e60c385c172c48bd771ca2.jpg"
  },
  {
    "name": "100_treasures_collected",
    "defaultvalue": 0,
    "displayName": "Gold Digger",
    "hidden": 0,
    "description": "Collect 100 treasures",
    "icon": "https://steamcdn-a.akamaihd.net/steamcommunity/public/images/apps/224820/fb1df341d72c1558259df739ab72dd5ad4a7a32b.jpg",
    "icongray": "https://steamcdn-a.akamaihd.net/steamcommunity/public/images/apps/224820/58f42f14731915446b8586292f6dd63082be07a7.jpg"
  },
  {
    "name": "10_ghosts",
    "defaultvalue": 0,
    "displayName": "Medium At Large",
    "hidden": 0,
    "description": "Have a conversation with 10 ghosts in one game",
    "icon": "https://steamcdn-a.akamaihd.net/steamcommunity/public/images/apps/224820/2337a2d76cfff2bbb201d391c06cd2e1088bfee8.jpg",
    "icongray": "https://steamcdn-a.akamaihd.net/steamcommunity/public/images/apps/224820/efd6e1c215e0ac5f3e857adcb2c5222416dc88d3.jpg"
  },
  {
    "name": "1000_deaths",
    "defaultvalue": 0,
    "displayName": "Dedication",
    "hidden": 0,
    "description": "Die 1000 times",
    "icon": "https://steamcdn-a.akamaihd.net/steamcommunity/public/images/apps/224820/c7ccdebba4e1f0699e5bd6d0c217bca7df7fbbcd.jpg",
    "icongray": "https://steamcdn-a.akamaihd.net/steamcommunity/public/images/apps/224820/546c55b5b91c4ff58a7995160153cc7a5d82f4b0.jpg"
  },
  {
    "name": "50_floors_no_kills",
    "defaultvalue": 0,
    "displayName": "Passive Aggressive",
    "hidden": 0,
    "description": "Descend 50 floors without killing anything",
    "icon": "https://steamcdn-a.akamaihd.net/steamcommunity/public/images/apps/224820/25a6f7eb828d781e72708023a4314e10c5744edd.jpg",
    "icongray": "https://steamcdn-a.akamaihd.net/steamcommunity/public/images/apps/224820/cc5d2d378fcb580fbfc9d4e2ffe4f25253239771.jpg"
  },
  {
    "name": "9_lives_collected",
    "defaultvalue": 0,
    "displayName": "Catlike Reflexes",
    "hidden": 0,
    "description": "Collect nine hearts in one game",
    "icon": "https://steamcdn-a.akamaihd.net/steamcommunity/public/images/apps/224820/0000b2f36cab9c826d26c629d4b14a853009c1c8.jpg",
    "icongray": "https://steamcdn-a.akamaihd.net/steamcommunity/public/images/apps/224820/4740faea161595ee8095cc40dd9a9130441213ff.jpg"
  },
  {
    "name": "5_rages",
    "defaultvalue": 0,
    "displayName": "Anger Mismanagement",
    "hidden": 0,
    "description": "Achieve Rage five times in one game",
    "icon": "https://steamcdn-a.akamaihd.net/steamcommunity/public/images/apps/224820/e4f1c33b870b505eebab0a20761cf8c840094759.jpg",
    "icongray": "https://steamcdn-a.akamaihd.net/steamcommunity/public/images/apps/224820/488a6b0d7a65605b30c7ef244d75c5fb05120486.jpg"
  },
  {
    "name": "15_tickets_collected",
    "defaultvalue": 0,
    "displayName": "Redemption Game",
    "hidden": 0,
    "description": "Collect 15 tickets",
    "icon": "https://steamcdn-a.akamaihd.net/steamcommunity/public/images/apps/224820/493ee46fb1e9a7138474b3e22c9ca6e2185c5ec7.jpg",
    "icongray": "https://steamcdn-a.akamaihd.net/steamcommunity/public/images/apps/224820/db92d12f01a47458d22339151bf78b52a3511c58.jpg"
  },
  {
    "name": "kill_spite",
    "defaultvalue": 0,
    "displayName": "In Spite Of All Dangers",
    "hidden": 0,
    "description": "Kill Spite",
    "icon": "https://steamcdn-a.akamaihd.net/steamcommunity/public/images/apps/224820/23d2519ad61b6b2f54f61fefe04e5792343c7711.jpg",
    "icongray": "https://steamcdn-a.akamaihd.net/steamcommunity/public/images/apps/224820/90337f57268d5544f7bf63c06197b2394172a242.jpg"
  },
  {
    "name": "kill_torment",
    "defaultvalue": 0,
    "displayName": "No Torment Too Great",
    "hidden": 0,
    "description": "Kill Torment",
    "icon": "https://steamcdn-a.akamaihd.net/steamcommunity/public/images/apps/224820/68a0363b66a891d3b9c4e89ee86f321e73353532.jpg",
    "icongray": "https://steamcdn-a.akamaihd.net/steamcommunity/public/images/apps/224820/5333a0215537f71a93e9aabca3c8ec8fddf8be9b.jpg"
  },
  {
    "name": "kill_rage",
    "defaultvalue": 0,
    "displayName": "Control Your Rage",
    "hidden": 0,
    "description": "Kill Rage",
    "icon": "https://steamcdn-a.akamaihd.net/steamcommunity/public/images/apps/224820/7e32a9662e04b768a88dbf2bae27c01265b7c8f7.jpg",
    "icongray": "https://steamcdn-a.akamaihd.net/steamcommunity/public/images/apps/224820/3e145cb6e4008658a91e4f311b2e843204143d62.jpg"
  },
  {
    "name": "kill_ninja",
    "defaultvalue": 0,
    "displayName": "I'll Take The Other One",
    "hidden": 0,
    "description": "Defeat the One-Armed Ninja",
    "icon": "https://steamcdn-a.akamaihd.net/steamcommunity/public/images/apps/224820/9d3e4e6e9a950a35ff923758f3507978ec9395c3.jpg",
    "icongray": "https://steamcdn-a.akamaihd.net/steamcommunity/public/images/apps/224820/88deb84ec9778312d2dcfca2a581261dd1de8480.jpg"
  },
  {
    "name": "kill_horror",
    "defaultvalue": 0,
    "displayName": "Horror Show",
    "hidden": 0,
    "description": "Kill Horror",
    "icon": "https://steamcdn-a.akamaihd.net/steamcommunity/public/images/apps/224820/bd05a0ebab72006159bc2610fbd3a824aad501c0.jpg",
    "icongray": "https://steamcdn-a.akamaihd.net/steamcommunity/public/images/apps/224820/d59fb3ee7e99eb3a11f0d99a943f0c19001b4e44.jpg"
  },
  {
    "name": "kill_doom",
    "defaultvalue": 0,
    "displayName": "Doom's Day",
    "hidden": 0,
    "description": "Kill Doom",
    "icon": "https://steamcdn-a.akamaihd.net/steamcommunity/public/images/apps/224820/1b1d6840e32f9b235e2a3a42dddb79b0974ab241.jpg",
    "icongray": "https://steamcdn-a.akamaihd.net/steamcommunity/public/images/apps/224820/1a63b79c25d7bae89d1bf963b6c72a42e93c189c.jpg"
  },
  {
    "name": "kill_disgust",
    "defaultvalue": 0,
    "displayName": "Disgust Dusted",
    "hidden": 0,
    "description": "Kill Disgust",
    "icon": "https://steamcdn-a.akamaihd.net/steamcommunity/public/images/apps/224820/b4e2ab44c9749e9f23822b0ec33255fc59439d17.jpg",
    "icongray": "https://steamcdn-a.akamaihd.net/steamcommunity/public/images/apps/224820/fc14a8aa17f0332ed55c78356cb935760f57fb00.jpg"
  },
  {
    "name": "kill_abarghus",
    "defaultvalue": 0,
    "displayName": "The Ultimate Ninja",
    "hidden": 0,
    "description": "Kill Abarghus",
    "icon": "https://steamcdn-a.akamaihd.net/steamcommunity/public/images/apps/224820/0da93421209d9b2a494ab43193431c34eaa1e650.jpg",
    "icongray": "https://steamcdn-a.akamaihd.net/steamcommunity/public/images/apps/224820/86e3aec671ff040099fae8c61c93546676b67294.jpg"
  },
  {
    "name": "anti_magic",
    "defaultvalue": 0,
    "displayName": "Anti-Magic",
    "hidden": 0,
    "description": "Beat the game without ever using magic",
    "icon": "https://steamcdn-a.akamaihd.net/steamcommunity/public/images/apps/224820/eb597ca05e90bbfdd4f6a73b114584ec197167b7.jpg",
    "icongray": "https://steamcdn-a.akamaihd.net/steamcommunity/public/images/apps/224820/784996d252a4dc1418f78a105727dc37e75dd11c.jpg"
  },
  {
    "name": "bomb_free",
    "defaultvalue": 0,
    "displayName": "Bomb Free",
    "hidden": 0,
    "description": "Beat the game without ever using bombs",
    "icon": "https://steamcdn-a.akamaihd.net/steamcommunity/public/images/apps/224820/4b95be87fc1e9899f4cad182494465ffb501771e.jpg",
    "icongray": "https://steamcdn-a.akamaihd.net/steamcommunity/public/images/apps/224820/1919b565fc3b5eb2986c784d6c02a201b1ee56e1.jpg"
  },
  {
    "name": "no_throw",
    "defaultvalue": 0,
    "displayName": "No Throw",
    "hidden": 0,
    "description": "Beat the game without ever using projectiles",
    "icon": "https://steamcdn-a.akamaihd.net/steamcommunity/public/images/apps/224820/df204c8fc1389427a33cb004bdf0d8eb06b9dfaf.jpg",
    "icongray": "https://steamcdn-a.akamaihd.net/steamcommunity/public/images/apps/224820/bc67ed853278535c7b929d38a6463871067d512a.jpg"
  },
  {
    "name": "7_minutes_in_hell",
    "defaultvalue": 0,
    "displayName": "7 Minutes In Hell",
    "hidden": 0,
    "description": "Beat the game in under 7 minutes",
    "icon": "https://steamcdn-a.akamaihd.net/steamcommunity/public/images/apps/224820/77bfcfd109eaee3b6bb34299f34e29561febd045.jpg",
    "icongray": "https://steamcdn-a.akamaihd.net/steamcommunity/public/images/apps/224820/44aa57ae0dbf2dbcaa10ba39442064d03b6537ce.jpg"
  },
  {
    "name": "chaotic_good",
    "defaultvalue": 0,
    "displayName": "Chaotic Good",
    "hidden": 0,
    "description": "Beat the game with Chaos Mode active",
    "icon": "https://steamcdn-a.akamaihd.net/steamcommunity/public/images/apps/224820/2461275d265b4a2143279d1ad4950816d83d4903.jpg",
    "icongray": "https://steamcdn-a.akamaihd.net/steamcommunity/public/images/apps/224820/c6375a5c8ef62059e3e5a1cbef3de353666b7b8f.jpg"
  },
  {
    "name": "fungal_friend",
    "defaultvalue": 0,
    "displayName": "Fungal Friend",
    "hidden": 0,
    "description": "Run through Transdimensional Leakage without killing any mushrooms",
    "icon": "https://steamcdn-a.akamaihd.net/steamcommunity/public/images/apps/224820/d02287fd9ae5ba68af4465d2d70dff686c6578f9.jpg",
    "icongray": "https://steamcdn-a.akamaihd.net/steamcommunity/public/images/apps/224820/d6d9dc9ba6140175e3071e92c51271b847b2ae55.jpg"
  },
  {
    "name": "just_browsing",
    "defaultvalue": 0,
    "displayName": "Just Browsing",
    "hidden": 0,
    "description": "Play at least 10 custom levels",
    "icon": "https://steamcdn-a.akamaihd.net/steamcommunity/public/images/apps/224820/2782505183f269ca64166800fb0ee4fb13ad03b5.jpg",
    "icongray": "https://steamcdn-a.akamaihd.net/steamcommunity/public/images/apps/224820/375376fdac2c02d6b83532ddb58d20680ce7a5b6.jpg"
  },
  {
    "name": "master_builder",
    "defaultvalue": 0,
    "displayName": "Master Builder",
    "hidden": 0,
    "description": "Publish a Custom Map",
    "icon": "https://steamcdn-a.akamaihd.net/steamcommunity/public/images/apps/224820/bcb3b339dc83cddfda98bcc124dc9a42dbf6a423.jpg",
    "icongray": "https://steamcdn-a.akamaihd.net/steamcommunity/public/images/apps/224820/f85c3636eb150b0cedf9cee83f467d77773f8164.jpg"
  },
  {
    "name": "tinker_tailor",
    "defaultvalue": 0,
    "displayName": "Tinker Tailor",
    "hidden": 0,
    "description": "Create 4 custom costumes",
    "icon": "https://steamcdn-a.akamaihd.net/steamcommunity/public/images/apps/224820/e43091e4204a5c30f6cee17db1e975c42602afac.jpg",
    "icongray": "https://steamcdn-a.akamaihd.net/steamcommunity/public/images/apps/224820/0a99ca933cdcf02942e279a9cea931177ae32682.jpg"
  },
  {
    "name": "the_hard_stuff",
    "defaultvalue": 0,
    "displayName": "The Hard Stuff",
    "hidden": 0,
    "description": "Beat the game on Hard / See the True Ending",
    "icon": "https://steamcdn-a.akamaihd.net/steamcommunity/public/images/apps/224820/77f94928b5e3046d861fba7f67727ab27096b3fc.jpg",
    "icongray": "https://steamcdn-a.akamaihd.net/steamcommunity/public/images/apps/224820/064cce5edb5ffd55f8b5cc2777499e478004cebe.jpg"
  },
  {
    "name": "complete_ninja",
    "defaultvalue": 0,
    "displayName": "Go Ninja!",
    "hidden": 0,
    "description": "Complete the game on \"Ninja\" difficulty, starting from the roof.",
    "icon": "https://steamcdn-a.akamaihd.net/steamcommunity/public/images/apps/224820/7630ec1c6697134f15e92c9a8f0c71843e9c02be.jpg",
    "icongray": "https://steamcdn-a.akamaihd.net/steamcommunity/public/images/apps/224820/132339eb0d3dd7d8ef73893a5be134787a04f1b6.jpg"
  },
  {
    "name": "abarghus_domain_ninja",
    "defaultvalue": 0,
    "displayName": "Impossible Mission",
    "hidden": 0,
    "description": "Reach the bottom of Abarghus' Domain on \"Ninja\" difficulty.",
    "icon": "https://steamcdn-a.akamaihd.net/steamcommunity/public/images/apps/224820/79d24f5e7cc3c883b58c2243d792a242173d6dae.jpg",
    "icongray": "https://steamcdn-a.akamaihd.net/steamcommunity/public/images/apps/224820/6ef59395b0ba2de253af1dea5e15d9d50015b845.jpg"
  },
  {
    "name": "tdl_ninja",
    "defaultvalue": 0,
    "displayName": "Stuff Of Nightmares",
    "hidden": 0,
    "description": "Complete Transdimensional Leakage on \"Ninja\" difficulty.",
    "icon": "https://steamcdn-a.akamaihd.net/steamcommunity/public/images/apps/224820/7f0b1dd3fa396db06a1f73769b6bc436d30f27dd.jpg",
    "icongray": "https://steamcdn-a.akamaihd.net/steamcommunity/public/images/apps/224820/d41bd1b941fe52d56aa2cdf41b10173fe07e7257.jpg"
  },
  {
    "name": "boss_rush_hard",
    "defaultvalue": 0,
    "displayName": "Boss Rush Hard",
    "hidden": 0,
    "description": "Complete Boss Rush on \"Hard\".",
    "icon": "https://steamcdn-a.akamaihd.net/steamcommunity/public/images/apps/224820/efa1c0361fb975eeeedda2b33a7caf58cebc1b58.jpg",
    "icongray": "https://steamcdn-a.akamaihd.net/steamcommunity/public/images/apps/224820/3d13ac3492c8beb0332a7b080729df882d809b8f.jpg"
  },
  {
    "name": "boss_rush_ninja",
    "defaultvalue": 0,
    "displayName": "Boss Rush Ninja",
    "hidden": 0,
    "description": "Complete Boss Rush on \"Ninja\".",
    "icon": "https://steamcdn-a.akamaihd.net/steamcommunity/public/images/apps/224820/1a5218b92c5e17ce627662afc22ef357eb8c0200.jpg",
    "icongray": "https://steamcdn-a.akamaihd.net/steamcommunity/public/images/apps/224820/668f1296cb005bf57f0ca187d47bcc849b7e6a12.jpg"
  },
  {
    "name": "complete_with_oan",
    "defaultvalue": 0,
    "displayName": "One-Armed Challenge",
    "hidden": 0,
    "description": "Complete the game with the One-Armed Ninja.",
    "icon": "https://steamcdn-a.akamaihd.net/steamcommunity/public/images/apps/224820/c911d4f6bca77181da1d70732522dc0c9d979dac.jpg",
    "icongray": "https://steamcdn-a.akamaihd.net/steamcommunity/public/images/apps/224820/e6e1aeff00528b4928d9749c663a75fac94f4a98.jpg"
  },
  {
    "name": "speed_run_6_hard",
    "defaultvalue": 0,
    "displayName": "6 Minute Dash",
    "hidden": 0,
    "description": "Achieve a 6 minute speed run or less on \"Hard\".",
    "icon": "https://steamcdn-a.akamaihd.net/steamcommunity/public/images/apps/224820/46d76eda5e8a1e0048fba3ae1ffe662b0ea1e343.jpg",
    "icongray": "https://steamcdn-a.akamaihd.net/steamcommunity/public/images/apps/224820/a9ef561ec4e5b99276758f7bfdc95d22b55032e8.jpg"
  },
  {
    "name": "speed_run_6_ninja",
    "defaultvalue": 0,
    "displayName": "6 Minutes Of Madness",
    "hidden": 0,
    "description": "Achieve a 6 minute speed run or less on \"Ninja\".",
    "icon": "https://steamcdn-a.akamaihd.net/steamcommunity/public/images/apps/224820/1ef9d654e493eeec50270eecef00c1bab03ad411.jpg",
    "icongray": "https://steamcdn-a.akamaihd.net/steamcommunity/public/images/apps/224820/d4d76e2dc333e75ec6cdf9fa0aaf26c419bcf135.jpg"
  },
  {
    "name": "500k_ninja",
    "defaultvalue": 0,
    "displayName": "500K Ninja",
    "hidden": 0,
    "description": "Score 500,000 points in Ninja mode.",
    "icon": "https://steamcdn-a.akamaihd.net/steamcommunity/public/images/apps/224820/9ae6ced4d3304850dd7b3628428608905d30ea20.jpg",
    "icongray": "https://steamcdn-a.akamaihd.net/steamcommunity/public/images/apps/224820/0e1d8c9418f12668afb577f47beb6d818f845224.jpg"
  },
  {
    "name": "1m_ninja",
    "defaultvalue": 0,
    "displayName": "High Scoring Ninja",
    "hidden": 0,
    "description": "Score 1 million points in Ninja mode.",
    "icon": "https://steamcdn-a.akamaihd.net/steamcommunity/public/images/apps/224820/cdf35ce7984be310ec6f3119451cbff65aecd261.jpg",
    "icongray": "https://steamcdn-a.akamaihd.net/steamcommunity/public/images/apps/224820/9a9a17e69855053ac418b1f259a8c788c09e1b77.jpg"
  }
]