﻿{
  "Dlcs": {
    "299190": {
      "Name": "ibb & obb - Soundtrack by Kettel",
      "ImageUrl": "https://steamcdn-a.akamaihd.net/steam/apps/299190/header.jpg?t=1447361724"
    }
  },
  "Name": "ibb & obb",
  "AppId": "95400",
  "ImageUrl": "https://steamcdn-a.akamaihd.net/steam/apps/95400/header.jpg?t=1590420876",
  "Languages": [
    "english",
    "french",
    "italian",
    "german",
    "spanish",
    "danish",
    "dutch",
    "finnish",
    "norwegian",
    "portuguese",
    "russian",
    "swedish",
    "turkish",
    "polish",
    "japanese",
    "schinese"
  ],
  "Platforms": {
    "windows": true,
    "mac": false,
    "linux": true
  }
}