﻿{
  "Dlcs": {},
  "Name": "The 11th Hour",
  "AppId": "255940",
  "ImageUrl": "https://steamcdn-a.akamaihd.net/steam/apps/255940/header.jpg?t=1569538461",
  "Languages": [
    "english"
  ],
  "Platforms": {
    "windows": true,
    "mac": true,
    "linux": false
  }
}