﻿{
  "Dlcs": {},
  "Name": "The Next BIG Thing",
  "AppId": "58570",
  "ImageUrl": "https://steamcdn-a.akamaihd.net/steam/apps/58570/header.jpg?t=1597260036",
  "Languages": [
    "english",
    "french",
    "german",
    "russian"
  ],
  "Platforms": {
    "windows": true,
    "mac": true,
    "linux": false
  }
}