﻿[
  {
    "name": "ACHIEVEMENT_BASIC_TRAINING",
    "defaultvalue": 0,
    "displayName": "Basic Training",
    "hidden": 0,
    "description": "Complete 'Basic Training' to gain this achievement.",
    "icon": "https://steamcdn-a.akamaihd.net/steamcommunity/public/images/apps/251390/62821f7006c10db3cff3651fb76202332719b411.jpg",
    "icongray": "https://steamcdn-a.akamaihd.net/steamcommunity/public/images/apps/251390/04f49f85cee7a637270369f55c3dee8c892c59a5.jpg"
  },
  {
    "name": "ACHIEVEMENT_BATTLE_WINNER",
    "defaultvalue": 0,
    "displayName": "Battle Winner",
    "hidden": 0,
    "description": "Complete mission 'The Battle of Pudding Lane' to gain this achievement.",
    "icon": "https://steamcdn-a.akamaihd.net/steamcommunity/public/images/apps/251390/62821f7006c10db3cff3651fb76202332719b411.jpg",
    "icongray": "https://steamcdn-a.akamaihd.net/steamcommunity/public/images/apps/251390/04f49f85cee7a637270369f55c3dee8c892c59a5.jpg"
  },
  {
    "name": "ACHIEVEMENT_BATTLE_VICTOR",
    "defaultvalue": 0,
    "displayName": "Battle Victor",
    "hidden": 0,
    "description": "Complete 'The Battle of Pudding Lane' with a score of 1100 or more.",
    "icon": "https://steamcdn-a.akamaihd.net/steamcommunity/public/images/apps/251390/13bf1c840fa0bd331d0ac86c619485684a89cb1c.jpg",
    "icongray": "https://steamcdn-a.akamaihd.net/steamcommunity/public/images/apps/251390/04f49f85cee7a637270369f55c3dee8c892c59a5.jpg"
  },
  {
    "name": "ACHIEVEMENT_THE_RAID",
    "defaultvalue": 0,
    "displayName": "The Raid",
    "hidden": 0,
    "description": "Complete mission 'The Raid' to gain this achievement.",
    "icon": "https://steamcdn-a.akamaihd.net/steamcommunity/public/images/apps/251390/62821f7006c10db3cff3651fb76202332719b411.jpg",
    "icongray": "https://steamcdn-a.akamaihd.net/steamcommunity/public/images/apps/251390/04f49f85cee7a637270369f55c3dee8c892c59a5.jpg"
  },
  {
    "name": "ACHIEVEMENT_SUPER_RAIDER",
    "defaultvalue": 0,
    "displayName": "Super Raider",
    "hidden": 0,
    "description": "Complete 'The Raid' with a score of 1100 or more.",
    "icon": "https://steamcdn-a.akamaihd.net/steamcommunity/public/images/apps/251390/13bf1c840fa0bd331d0ac86c619485684a89cb1c.jpg",
    "icongray": "https://steamcdn-a.akamaihd.net/steamcommunity/public/images/apps/251390/04f49f85cee7a637270369f55c3dee8c892c59a5.jpg"
  },
  {
    "name": "ACHIEVEMENT_THE_MANY_VOICES",
    "defaultvalue": 0,
    "displayName": "The Many  Voices",
    "hidden": 0,
    "description": "Complete mission 'The Many Voices' to gain this achievement.",
    "icon": "https://steamcdn-a.akamaihd.net/steamcommunity/public/images/apps/251390/62821f7006c10db3cff3651fb76202332719b411.jpg",
    "icongray": "https://steamcdn-a.akamaihd.net/steamcommunity/public/images/apps/251390/04f49f85cee7a637270369f55c3dee8c892c59a5.jpg"
  },
  {
    "name": "ACHIEVEMENT_THE_MANY_MANY_VOICES",
    "defaultvalue": 0,
    "displayName": "Many Many Voices",
    "hidden": 0,
    "description": "Complete 'The Many Voices' with a score of 1100 or more.",
    "icon": "https://steamcdn-a.akamaihd.net/steamcommunity/public/images/apps/251390/13bf1c840fa0bd331d0ac86c619485684a89cb1c.jpg",
    "icongray": "https://steamcdn-a.akamaihd.net/steamcommunity/public/images/apps/251390/04f49f85cee7a637270369f55c3dee8c892c59a5.jpg"
  },
  {
    "name": "ACHIEVEMENT_BURYING_THE_DEAD",
    "defaultvalue": 0,
    "displayName": "Burying the Dead",
    "hidden": 0,
    "description": "Complete mission 'Burying the Dead' to gain this achievement.",
    "icon": "https://steamcdn-a.akamaihd.net/steamcommunity/public/images/apps/251390/62821f7006c10db3cff3651fb76202332719b411.jpg",
    "icongray": "https://steamcdn-a.akamaihd.net/steamcommunity/public/images/apps/251390/04f49f85cee7a637270369f55c3dee8c892c59a5.jpg"
  },
  {
    "name": "ACHIEVEMENT_DEAD_AND_BURIED",
    "defaultvalue": 0,
    "displayName": "Dead and Buried",
    "hidden": 0,
    "description": "Complete 'Burying the Dead' with a score of 1100 or more.",
    "icon": "https://steamcdn-a.akamaihd.net/steamcommunity/public/images/apps/251390/13bf1c840fa0bd331d0ac86c619485684a89cb1c.jpg",
    "icongray": "https://steamcdn-a.akamaihd.net/steamcommunity/public/images/apps/251390/04f49f85cee7a637270369f55c3dee8c892c59a5.jpg"
  },
  {
    "name": "ACHIEVEMENT_DEATH_BY_GAS",
    "defaultvalue": 0,
    "displayName": "Death by Gas",
    "hidden": 0,
    "description": "Complete Mission 'Death by Gas' to gain this achievement.",
    "icon": "https://steamcdn-a.akamaihd.net/steamcommunity/public/images/apps/251390/62821f7006c10db3cff3651fb76202332719b411.jpg",
    "icongray": "https://steamcdn-a.akamaihd.net/steamcommunity/public/images/apps/251390/04f49f85cee7a637270369f55c3dee8c892c59a5.jpg"
  },
  {
    "name": "ACHIEVEMENT_DEATH_OF_GAS",
    "defaultvalue": 0,
    "displayName": "Death of Gas",
    "hidden": 0,
    "description": "Complete 'Death by Gas' with a score of 1100 or more.",
    "icon": "https://steamcdn-a.akamaihd.net/steamcommunity/public/images/apps/251390/13bf1c840fa0bd331d0ac86c619485684a89cb1c.jpg",
    "icongray": "https://steamcdn-a.akamaihd.net/steamcommunity/public/images/apps/251390/04f49f85cee7a637270369f55c3dee8c892c59a5.jpg"
  },
  {
    "name": "ACHIEVEMENT_THE_FIRE_SPEAKS",
    "defaultvalue": 0,
    "displayName": "The Fire Speaks",
    "hidden": 0,
    "description": "Complete mission 'The Fire Speaks' to gain this achievement.",
    "icon": "https://steamcdn-a.akamaihd.net/steamcommunity/public/images/apps/251390/62821f7006c10db3cff3651fb76202332719b411.jpg",
    "icongray": "https://steamcdn-a.akamaihd.net/steamcommunity/public/images/apps/251390/04f49f85cee7a637270369f55c3dee8c892c59a5.jpg"
  },
  {
    "name": "ACHIEVEMENT_THE_FIRE_SHOUTS",
    "defaultvalue": 0,
    "displayName": "The Fire Shouts",
    "hidden": 0,
    "description": "Complete 'The Fire Speaks' with a score of 1100 or more.",
    "icon": "https://steamcdn-a.akamaihd.net/steamcommunity/public/images/apps/251390/13bf1c840fa0bd331d0ac86c619485684a89cb1c.jpg",
    "icongray": "https://steamcdn-a.akamaihd.net/steamcommunity/public/images/apps/251390/04f49f85cee7a637270369f55c3dee8c892c59a5.jpg"
  },
  {
    "name": "ACHIEVEMENT_CHESS_WITH_THE_DEAD",
    "defaultvalue": 0,
    "displayName": "Chess with the Dead",
    "hidden": 0,
    "description": "Complete mission 'Chess with the Dead' to gain this achievement.",
    "icon": "https://steamcdn-a.akamaihd.net/steamcommunity/public/images/apps/251390/13bf1c840fa0bd331d0ac86c619485684a89cb1c.jpg",
    "icongray": "https://steamcdn-a.akamaihd.net/steamcommunity/public/images/apps/251390/04f49f85cee7a637270369f55c3dee8c892c59a5.jpg"
  },
  {
    "name": "ACHIEVEMENT_DEAD_DRAUGHTS",
    "defaultvalue": 0,
    "displayName": "Dead Draughts",
    "hidden": 0,
    "description": "Complete 'Chess with the Dead' with a score of 1100 or more.",
    "icon": "https://steamcdn-a.akamaihd.net/steamcommunity/public/images/apps/251390/13bf1c840fa0bd331d0ac86c619485684a89cb1c.jpg",
    "icongray": "https://steamcdn-a.akamaihd.net/steamcommunity/public/images/apps/251390/04f49f85cee7a637270369f55c3dee8c892c59a5.jpg"
  },
  {
    "name": "ACHIEVEMENT_THE_WARNING_THUNDER",
    "defaultvalue": 0,
    "displayName": "The Warning Thunder",
    "hidden": 0,
    "description": "Complete mission 'The Thunder Speaks' to gain this achievement.",
    "icon": "https://steamcdn-a.akamaihd.net/steamcommunity/public/images/apps/251390/62821f7006c10db3cff3651fb76202332719b411.jpg",
    "icongray": "https://steamcdn-a.akamaihd.net/steamcommunity/public/images/apps/251390/04f49f85cee7a637270369f55c3dee8c892c59a5.jpg"
  },
  {
    "name": "ACHIEVEMENT_THE_THUNDER_ROARS",
    "defaultvalue": 0,
    "displayName": "The Thunder Roars",
    "hidden": 0,
    "description": "Complete 'The Thunder Speaks' with a score of 1100 or more.",
    "icon": "https://steamcdn-a.akamaihd.net/steamcommunity/public/images/apps/251390/13bf1c840fa0bd331d0ac86c619485684a89cb1c.jpg",
    "icongray": "https://steamcdn-a.akamaihd.net/steamcommunity/public/images/apps/251390/04f49f85cee7a637270369f55c3dee8c892c59a5.jpg"
  },
  {
    "name": "ACHIEVEMENT_NOT_YET_DEAD",
    "defaultvalue": 0,
    "displayName": "Not Dead Yet",
    "hidden": 0,
    "description": "Complete Mission 'Not Dead But Dreaming' to gain this achievement.",
    "icon": "https://steamcdn-a.akamaihd.net/steamcommunity/public/images/apps/251390/62821f7006c10db3cff3651fb76202332719b411.jpg",
    "icongray": "https://steamcdn-a.akamaihd.net/steamcommunity/public/images/apps/251390/04f49f85cee7a637270369f55c3dee8c892c59a5.jpg"
  },
  {
    "name": "ACHIEVEMENT_DEAD_AND_DREAMING",
    "defaultvalue": 0,
    "displayName": "Dead and Dreaming",
    "hidden": 0,
    "description": "Complete 'Not Dead But Dreaming' with a score of 1100 or more.",
    "icon": "https://steamcdn-a.akamaihd.net/steamcommunity/public/images/apps/251390/13bf1c840fa0bd331d0ac86c619485684a89cb1c.jpg",
    "icongray": "https://steamcdn-a.akamaihd.net/steamcommunity/public/images/apps/251390/04f49f85cee7a637270369f55c3dee8c892c59a5.jpg"
  },
  {
    "name": "ACHIEVEMENT_THE_HARD_ROAD",
    "defaultvalue": 0,
    "displayName": "The Hard Road",
    "hidden": 0,
    "description": "Complete campaign (all missions) on Hard difficulty.",
    "icon": "https://steamcdn-a.akamaihd.net/steamcommunity/public/images/apps/251390/8226607e87bfb29fea049dbc704847dad13d7303.jpg",
    "icongray": "https://steamcdn-a.akamaihd.net/steamcommunity/public/images/apps/251390/04f49f85cee7a637270369f55c3dee8c892c59a5.jpg"
  },
  {
    "name": "ACHIEVEMENT_REANIMATE_SLAYER",
    "defaultvalue": 0,
    "displayName": "Reanimate Slayer",
    "hidden": 0,
    "description": "Kill 25 Reanimates.",
    "icon": "https://steamcdn-a.akamaihd.net/steamcommunity/public/images/apps/251390/62821f7006c10db3cff3651fb76202332719b411.jpg",
    "icongray": "https://steamcdn-a.akamaihd.net/steamcommunity/public/images/apps/251390/04f49f85cee7a637270369f55c3dee8c892c59a5.jpg"
  },
  {
    "name": "ACHIEVEMENT_DEANIMATOR",
    "defaultvalue": 0,
    "displayName": "Deanimator",
    "hidden": 0,
    "description": "Kill 50 Reanimates.",
    "icon": "https://steamcdn-a.akamaihd.net/steamcommunity/public/images/apps/251390/13bf1c840fa0bd331d0ac86c619485684a89cb1c.jpg",
    "icongray": "https://steamcdn-a.akamaihd.net/steamcommunity/public/images/apps/251390/04f49f85cee7a637270369f55c3dee8c892c59a5.jpg"
  }
]