﻿{
  "Dlcs": {
    "891250": {
      "Name": "Making of Traum",
      "ImageUrl": "https://steamcdn-a.akamaihd.net/steam/apps/891250/header.jpg?t=1563828193"
    }
  },
  "Name": "Traum",
  "AppId": "810230",
  "ImageUrl": "https://steamcdn-a.akamaihd.net/steam/apps/810230/header.jpg?t=1530205699",
  "Languages": [
    "english"
  ],
  "Platforms": {
    "windows": true,
    "mac": false,
    "linux": false
  }
}