﻿{
  "Dlcs": {},
  "Name": "Sankhara",
  "AppId": "639190",
  "ImageUrl": "https://steamcdn-a.akamaihd.net/steam/apps/639190/header.jpg?t=1554228044",
  "Languages": [
    "english"
  ],
  "Platforms": {
    "windows": true,
    "mac": false,
    "linux": false
  }
}