﻿{
  "Dlcs": {},
  "Name": "Sam & Max 301: The Penal Zone",
  "AppId": "31220",
  "ImageUrl": "https://steamcdn-a.akamaihd.net/steam/apps/31220/header.jpg?t=1583185663",
  "Languages": [
    "english"
  ],
  "Platforms": {
    "windows": true,
    "mac": false,
    "linux": false
  }
}