﻿[
  {
    "name": "ach_warriors",
    "defaultvalue": 0,
    "displayName": "Victorious Warrior",
    "hidden": 0,
    "description": "Complete the game with one of the Warriors.",
    "icon": "https://steamcdn-a.akamaihd.net/steamcommunity/public/images/apps/343100/5bb5bc6b6222977b479e4df58d2250f7477134a5.jpg",
    "icongray": "https://steamcdn-a.akamaihd.net/steamcommunity/public/images/apps/343100/ce83bef278635f66c281c03b2cecf6da75ab3764.jpg"
  },
  {
    "name": "ach_rogues",
    "defaultvalue": 0,
    "displayName": "Victorious Rogue",
    "hidden": 0,
    "description": "Complete the game with one of the Rogues.",
    "icon": "https://steamcdn-a.akamaihd.net/steamcommunity/public/images/apps/343100/edf49300cfab95b4570119005eb026f52dfc071d.jpg",
    "icongray": "https://steamcdn-a.akamaihd.net/steamcommunity/public/images/apps/343100/e898065e842c827285b4145fdd7c696f65f89914.jpg"
  },
  {
    "name": "ach_mages",
    "defaultvalue": 0,
    "displayName": "Victorious Mage",
    "hidden": 0,
    "description": "Complete the game with one of the Mages.",
    "icon": "https://steamcdn-a.akamaihd.net/steamcommunity/public/images/apps/343100/4bd5891d077975934f43987e02159926724ac5c4.jpg",
    "icongray": "https://steamcdn-a.akamaihd.net/steamcommunity/public/images/apps/343100/8799603f7310ee66958424f24b23c5fe5f959720.jpg"
  },
  {
    "name": "ach_shamans",
    "defaultvalue": 0,
    "displayName": "Victorious Shaman",
    "hidden": 0,
    "description": "Complete the game with one of the Shamans.",
    "icon": "https://steamcdn-a.akamaihd.net/steamcommunity/public/images/apps/343100/8b4e82b33f52dbc6d788c88680a97ae3a08df3ad.jpg",
    "icongray": "https://steamcdn-a.akamaihd.net/steamcommunity/public/images/apps/343100/75bf3845fcd5ce6b0ee2a1918e2710844788eec5.jpg"
  }
]