﻿{
  "Dlcs": {},
  "Name": "New York Taxi Simulator",
  "AppId": "446470",
  "ImageUrl": "https://steamcdn-a.akamaihd.net/steam/apps/446470/header.jpg?t=1457089684",
  "Languages": [
    "english",
    "french",
    "italian",
    "german",
    "spanish",
    "polish"
  ],
  "Platforms": {
    "windows": true,
    "mac": false,
    "linux": false
  }
}