﻿[
  {
    "name": "grindTime1",
    "defaultvalue": 0,
    "displayName": "Pepper Grinder",
    "hidden": 0,
    "description": "Grind for a total of 120 seconds",
    "icon": "https://steamcdn-a.akamaihd.net/steamcommunity/public/images/apps/244930/bac3c43f592a69c0e842351a20c0aa967ba933c1.jpg",
    "icongray": "https://steamcdn-a.akamaihd.net/steamcommunity/public/images/apps/244930/62ecae43c24023ba5c59ed02e2f943a373c71432.jpg"
  },
  {
    "name": "grindTime2",
    "defaultvalue": 0,
    "displayName": "On the grind",
    "hidden": 0,
    "description": "Grind for a total of 500 seconds",
    "icon": "https://steamcdn-a.akamaihd.net/steamcommunity/public/images/apps/244930/03f828a6adab2242a298c61af78d419285f8a217.jpg",
    "icongray": "https://steamcdn-a.akamaihd.net/steamcommunity/public/images/apps/244930/ccb3e6ae8de0330bc1c36dbf8eeff6226d042162.jpg"
  },
  {
    "name": "grindTime3",
    "defaultvalue": 0,
    "displayName": "Grinding your teeth",
    "hidden": 0,
    "description": "Grind for a total of 2,000 seconds",
    "icon": "https://steamcdn-a.akamaihd.net/steamcommunity/public/images/apps/244930/57bcbef18b63a9b7e9fadfcc0b4a2bf9182dcb94.jpg",
    "icongray": "https://steamcdn-a.akamaihd.net/steamcommunity/public/images/apps/244930/94f5ea1f30f2a6c5324c6aa4291a34acc5eea7d6.jpg"
  },
  {
    "name": "perfectLanding1",
    "defaultvalue": 0,
    "displayName": "Stomp",
    "hidden": 0,
    "description": "Achieve 50 Perfect Landings",
    "icon": "https://steamcdn-a.akamaihd.net/steamcommunity/public/images/apps/244930/f0dafcd72fe872748599677613a6fb61ac19115f.jpg",
    "icongray": "https://steamcdn-a.akamaihd.net/steamcommunity/public/images/apps/244930/7b00124ffb0a3ec92763dea736545052b6a5628f.jpg"
  },
  {
    "name": "perfectLanding2",
    "defaultvalue": 0,
    "displayName": "Stomper",
    "hidden": 0,
    "description": "Achieve 200 Perfect Landings",
    "icon": "https://steamcdn-a.akamaihd.net/steamcommunity/public/images/apps/244930/0d42396caf9e9afc759c1ffa8cf02a55da625d53.jpg",
    "icongray": "https://steamcdn-a.akamaihd.net/steamcommunity/public/images/apps/244930/e3760a6ad8c189007c389064f4c307ccd27182f2.jpg"
  },
  {
    "name": "perfectLanding3",
    "defaultvalue": 0,
    "displayName": "Stompest",
    "hidden": 0,
    "description": "Achieve 1,000 Perfect Landings",
    "icon": "https://steamcdn-a.akamaihd.net/steamcommunity/public/images/apps/244930/128bd68b7e44c5806b1c60a812ed3e7e3ccb5c13.jpg",
    "icongray": "https://steamcdn-a.akamaihd.net/steamcommunity/public/images/apps/244930/ca06e15a1606732adf1b63903a4bbae9325221ca.jpg"
  },
  {
    "name": "airTime1",
    "defaultvalue": 0,
    "displayName": "Up in the air",
    "hidden": 0,
    "description": "Spend a total of 300 seconds in the air",
    "icon": "https://steamcdn-a.akamaihd.net/steamcommunity/public/images/apps/244930/4bdfba800ce0b84cff9d26a11f01170230b42a30.jpg",
    "icongray": "https://steamcdn-a.akamaihd.net/steamcommunity/public/images/apps/244930/a988e7c9ce434cd79af9e5457ddd8106c796037a.jpg"
  },
  {
    "name": "airTime2",
    "defaultvalue": 0,
    "displayName": "Air Miles",
    "hidden": 0,
    "description": "Spend a total of 1,000 seconds in the air",
    "icon": "https://steamcdn-a.akamaihd.net/steamcommunity/public/images/apps/244930/79908d28ac5cbc22ca0574968220c5fd8bbb8539.jpg",
    "icongray": "https://steamcdn-a.akamaihd.net/steamcommunity/public/images/apps/244930/30a56479c795de5dc6e3821f775368bb5b646c49.jpg"
  },
  {
    "name": "airTime3",
    "defaultvalue": 0,
    "displayName": "Frequent Flyer",
    "hidden": 0,
    "description": "Spend a total of 5,000 seconds in the air",
    "icon": "https://steamcdn-a.akamaihd.net/steamcommunity/public/images/apps/244930/b8392a46cb32e0fd864517a8809e1f0c0445c9b4.jpg",
    "icongray": "https://steamcdn-a.akamaihd.net/steamcommunity/public/images/apps/244930/ef50a940111f1428a5c26b2991f7bf5ebdb1e374.jpg"
  },
  {
    "name": "flip1",
    "defaultvalue": 0,
    "displayName": "Flipper",
    "hidden": 0,
    "description": "Flip a total of 36,000°",
    "icon": "https://steamcdn-a.akamaihd.net/steamcommunity/public/images/apps/244930/2e2132e041b03741389e79d90fb7289397519575.jpg",
    "icongray": "https://steamcdn-a.akamaihd.net/steamcommunity/public/images/apps/244930/1bf589b8de2fc38806b8bff3c124ebc4589cc98d.jpg"
  },
  {
    "name": "flip2",
    "defaultvalue": 0,
    "displayName": "Flip Flop",
    "hidden": 0,
    "description": "Flip a total of 180,000°",
    "icon": "https://steamcdn-a.akamaihd.net/steamcommunity/public/images/apps/244930/92f5827955cc0db91c659c5aecdd42230e0b33cd.jpg",
    "icongray": "https://steamcdn-a.akamaihd.net/steamcommunity/public/images/apps/244930/fd2f5013f40ca94b8effb4ed8d908095971f3a5c.jpg"
  },
  {
    "name": "flip3",
    "defaultvalue": 0,
    "displayName": "Flipping the Bird",
    "hidden": 0,
    "description": "Flip a total of 360,000°",
    "icon": "https://steamcdn-a.akamaihd.net/steamcommunity/public/images/apps/244930/33e7c445b174c5e6f75ac07572e3b748eca698b9.jpg",
    "icongray": "https://steamcdn-a.akamaihd.net/steamcommunity/public/images/apps/244930/0954cab6e819a1867f4a41408cc78386d5938ca5.jpg"
  },
  {
    "name": "roll1",
    "defaultvalue": 0,
    "displayName": "On a Roll",
    "hidden": 0,
    "description": "Roll a total of 36,000°",
    "icon": "https://steamcdn-a.akamaihd.net/steamcommunity/public/images/apps/244930/ac4a05f6535c656f9459045ea9a2bdf7def240ef.jpg",
    "icongray": "https://steamcdn-a.akamaihd.net/steamcommunity/public/images/apps/244930/49fcd86ba7f455c0422e4d0a5845031f6ea23bfb.jpg"
  },
  {
    "name": "roll2",
    "defaultvalue": 0,
    "displayName": "Keep Rollin",
    "hidden": 0,
    "description": "Roll a total of 180,000°",
    "icon": "https://steamcdn-a.akamaihd.net/steamcommunity/public/images/apps/244930/31f28d782a8f6f6850c053ba5d8b7ef9be698766.jpg",
    "icongray": "https://steamcdn-a.akamaihd.net/steamcommunity/public/images/apps/244930/c8c8b16d51956d598a82325a2167765ab8416e9d.jpg"
  },
  {
    "name": "roll3",
    "defaultvalue": 0,
    "displayName": "You've gotta roll with it",
    "hidden": 0,
    "description": "Roll a total of 360,000°",
    "icon": "https://steamcdn-a.akamaihd.net/steamcommunity/public/images/apps/244930/f6a0f6fc1812841f4e7eb461f8bf05e41c60c6dd.jpg",
    "icongray": "https://steamcdn-a.akamaihd.net/steamcommunity/public/images/apps/244930/afe90cc0c30c051a6e14717ab347d53aa62126b7.jpg"
  },
  {
    "name": "spin1",
    "defaultvalue": 0,
    "displayName": "Spinning top",
    "hidden": 0,
    "description": "Spin a total of 18,000°",
    "icon": "https://steamcdn-a.akamaihd.net/steamcommunity/public/images/apps/244930/91ceae89decc90d83b1a6177a54337e1cb662698.jpg",
    "icongray": "https://steamcdn-a.akamaihd.net/steamcommunity/public/images/apps/244930/d104ab5ab044b08ebc0d6f135041cd0999f09287.jpg"
  },
  {
    "name": "spin2",
    "defaultvalue": 0,
    "displayName": "Spin to win",
    "hidden": 0,
    "description": "Spin a total of 36,000°",
    "icon": "https://steamcdn-a.akamaihd.net/steamcommunity/public/images/apps/244930/b4303146c7f9263a1998aab52aa713eef851618c.jpg",
    "icongray": "https://steamcdn-a.akamaihd.net/steamcommunity/public/images/apps/244930/ae8ee2c166a1ad08f3ccea3db9aadefa639a009e.jpg"
  },
  {
    "name": "spin3",
    "defaultvalue": 0,
    "displayName": "Future Spin",
    "hidden": 0,
    "description": "Spin a total of 540,000°",
    "icon": "https://steamcdn-a.akamaihd.net/steamcommunity/public/images/apps/244930/19142cf8744b83a0ab20dae0b62b841849a58056.jpg",
    "icongray": "https://steamcdn-a.akamaihd.net/steamcommunity/public/images/apps/244930/b7a4b8106ae0634ca7499832ff411223f0aa8319.jpg"
  },
  {
    "name": "speed1",
    "defaultvalue": 0,
    "displayName": "Speed demon",
    "hidden": 0,
    "description": "Achieve a speed of 30m/s",
    "icon": "https://steamcdn-a.akamaihd.net/steamcommunity/public/images/apps/244930/68885be6321511a008e92e29e76bc0e529cd7cf2.jpg",
    "icongray": "https://steamcdn-a.akamaihd.net/steamcommunity/public/images/apps/244930/56e9f16c45ad709643794314da84e41eacbdabc5.jpg"
  },
  {
    "name": "speed2",
    "defaultvalue": 0,
    "displayName": "I've got the need...",
    "hidden": 0,
    "description": "Achieve a speed of 40m/s",
    "icon": "https://steamcdn-a.akamaihd.net/steamcommunity/public/images/apps/244930/f3ad37f1d59120d5ecf565dc46ede304ba97c10b.jpg",
    "icongray": "https://steamcdn-a.akamaihd.net/steamcommunity/public/images/apps/244930/a4a08718f576f3bf571774a83282fee731f6b15e.jpg"
  },
  {
    "name": "speed3",
    "defaultvalue": 0,
    "displayName": "...The need, for speed!",
    "hidden": 0,
    "description": "Achieve a speed of 50m/s",
    "icon": "https://steamcdn-a.akamaihd.net/steamcommunity/public/images/apps/244930/21eb1c02dbb07c9709bc3b94de99ba4527d7597e.jpg",
    "icongray": "https://steamcdn-a.akamaihd.net/steamcommunity/public/images/apps/244930/45c81f0d72211cff1b7179a5e72b8ae5caaf0ef3.jpg"
  },
  {
    "name": "distance1",
    "defaultvalue": 0,
    "displayName": "Touring",
    "hidden": 0,
    "description": "Travel a total distance of 50km",
    "icon": "https://steamcdn-a.akamaihd.net/steamcommunity/public/images/apps/244930/8a2af7c2578d7df7e8c87af69ac96c00bd4f5bf6.jpg",
    "icongray": "https://steamcdn-a.akamaihd.net/steamcommunity/public/images/apps/244930/567fa45048ecb02c2f0c3bed7656b7d7e16d52ce.jpg"
  },
  {
    "name": "distance2",
    "defaultvalue": 0,
    "displayName": "Boring",
    "hidden": 0,
    "description": "Travel a total distance of 500km",
    "icon": "https://steamcdn-a.akamaihd.net/steamcommunity/public/images/apps/244930/6ef4fe6fa492a4425ab718bcd37fd9977f43d04e.jpg",
    "icongray": "https://steamcdn-a.akamaihd.net/steamcommunity/public/images/apps/244930/70b30c93a0814ef46f7dd604cea27c25e3e5ff58.jpg"
  },
  {
    "name": "distance3",
    "defaultvalue": 0,
    "displayName": "Snoring",
    "hidden": 0,
    "description": "Travel a total distance of 5,000km",
    "icon": "https://steamcdn-a.akamaihd.net/steamcommunity/public/images/apps/244930/23556fe17c39e5f67ce3e68dcce117d1cb8988fc.jpg",
    "icongray": "https://steamcdn-a.akamaihd.net/steamcommunity/public/images/apps/244930/a5014e5206fcea60097171f5584116ec221df778.jpg"
  },
  {
    "name": "distanceSwitch1",
    "defaultvalue": 0,
    "displayName": "Back to front",
    "hidden": 0,
    "description": "Ride switch a total distance of 25km",
    "icon": "https://steamcdn-a.akamaihd.net/steamcommunity/public/images/apps/244930/109d8b7749da5e59f8bab0cb0e175f74bc61a6b4.jpg",
    "icongray": "https://steamcdn-a.akamaihd.net/steamcommunity/public/images/apps/244930/8b285e435676b56cf14ab2144fd352ca880dd208.jpg"
  },
  {
    "name": "distanceSwitch2",
    "defaultvalue": 0,
    "displayName": "Sdrawkcab",
    "hidden": 0,
    "description": "Ride switch a total distance of 250km",
    "icon": "https://steamcdn-a.akamaihd.net/steamcommunity/public/images/apps/244930/8cf1cc428073b26c314da39be277d7e9d32dac3d.jpg",
    "icongray": "https://steamcdn-a.akamaihd.net/steamcommunity/public/images/apps/244930/d90103937465fa12a31377104effb146db748406.jpg"
  },
  {
    "name": "distanceSwitch3",
    "defaultvalue": 0,
    "displayName": "It feels like we're only going backwards",
    "hidden": 0,
    "description": "Ride switch a total distance of 1,000km",
    "icon": "https://steamcdn-a.akamaihd.net/steamcommunity/public/images/apps/244930/1acbb5de5037481edb18a63cdc9d86329b77c62a.jpg",
    "icongray": "https://steamcdn-a.akamaihd.net/steamcommunity/public/images/apps/244930/7b7c864d4153b2fbf3c7a50accc6857b13dae9a0.jpg"
  },
  {
    "name": "score1",
    "defaultvalue": 0,
    "displayName": "That counts",
    "hidden": 0,
    "description": "Accumulate 10,000 points",
    "icon": "https://steamcdn-a.akamaihd.net/steamcommunity/public/images/apps/244930/f983ec702011c705d3293726d989a721c8d97820.jpg",
    "icongray": "https://steamcdn-a.akamaihd.net/steamcommunity/public/images/apps/244930/976e0eab9b8ae5364cad78b83568748ce694456a.jpg"
  },
  {
    "name": "score2",
    "defaultvalue": 0,
    "displayName": "I get the point",
    "hidden": 0,
    "description": "Accumulate 30,000 points",
    "icon": "https://steamcdn-a.akamaihd.net/steamcommunity/public/images/apps/244930/8461683ae767d6ad66f336868104daf9810f6233.jpg",
    "icongray": "https://steamcdn-a.akamaihd.net/steamcommunity/public/images/apps/244930/dca65a510947951a2239ddb706ad59e1ce34877d.jpg"
  },
  {
    "name": "score3",
    "defaultvalue": 0,
    "displayName": "Count Dracula",
    "hidden": 0,
    "description": "Accumulate 100,000 points",
    "icon": "https://steamcdn-a.akamaihd.net/steamcommunity/public/images/apps/244930/08ce7073d9b110a88ac279560e6da0a6648c524a.jpg",
    "icongray": "https://steamcdn-a.akamaihd.net/steamcommunity/public/images/apps/244930/f335a1f3eabc98734fd1c59c661f744ea0b14422.jpg"
  },
  {
    "name": "level1",
    "defaultvalue": 0,
    "displayName": "Level playing field",
    "hidden": 0,
    "description": "Reach level 10",
    "icon": "https://steamcdn-a.akamaihd.net/steamcommunity/public/images/apps/244930/87e89ec2250b69c10aa52b5c40e175e150fca9ee.jpg",
    "icongray": "https://steamcdn-a.akamaihd.net/steamcommunity/public/images/apps/244930/be7451a151510b705cbf7983b041e66e4592feb7.jpg"
  },
  {
    "name": "level2",
    "defaultvalue": 0,
    "displayName": "Do you need a level?",
    "hidden": 0,
    "description": "Reach level 30",
    "icon": "https://steamcdn-a.akamaihd.net/steamcommunity/public/images/apps/244930/e87c6bd3e4e29fbc9688ff1b24db7aca5278041e.jpg",
    "icongray": "https://steamcdn-a.akamaihd.net/steamcommunity/public/images/apps/244930/fa1b9ef4dc006a4dbd41d82f408a6f4106476c03.jpg"
  },
  {
    "name": "level3",
    "defaultvalue": 0,
    "displayName": "Let me level with you",
    "hidden": 0,
    "description": "Reach level 60",
    "icon": "https://steamcdn-a.akamaihd.net/steamcommunity/public/images/apps/244930/9c729367d3a70f1279fd25922cffce5c3f11f1ed.jpg",
    "icongray": "https://steamcdn-a.akamaihd.net/steamcommunity/public/images/apps/244930/3cd5a2f08e965793aaafd1ccc71ebd4a10a11df6.jpg"
  }
]