﻿{
  "Dlcs": {},
  "Name": "it's always monday",
  "AppId": "558660",
  "ImageUrl": "https://steamcdn-a.akamaihd.net/steam/apps/558660/header.jpg?t=1593313401",
  "Languages": [
    "english"
  ],
  "Platforms": {
    "windows": true,
    "mac": false,
    "linux": false
  }
}