﻿{
  "Dlcs": {},
  "Name": "Tekling",
  "AppId": "678460",
  "ImageUrl": "https://steamcdn-a.akamaihd.net/steam/apps/678460/header.jpg?t=1592247374",
  "Languages": [
    "english"
  ],
  "Platforms": {
    "windows": true,
    "mac": false,
    "linux": false
  }
}