﻿{
  "Dlcs": {},
  "Name": "The Monk and the Warrior. The Heart of the King.",
  "AppId": "732060",
  "ImageUrl": "https://steamcdn-a.akamaihd.net/steam/apps/732060/header.jpg?t=1520014126",
  "Languages": [
    "english",
    "russian"
  ],
  "Platforms": {
    "windows": true,
    "mac": false,
    "linux": false
  }
}