﻿[
  {
    "name": "SweetExistence",
    "defaultvalue": 0,
    "displayName": "Sweet Existence",
    "hidden": 1,
    "icon": "https://steamcdn-a.akamaihd.net/steamcommunity/public/images/apps/462480/63e468c1efcd087dfc660c433237093b7ed02c68.jpg",
    "icongray": "https://steamcdn-a.akamaihd.net/steamcommunity/public/images/apps/462480/1bfc8f4d2b68745ec870bd1e048545219b86bbc9.jpg"
  },
  {
    "name": "YourJourneyAwaits",
    "defaultvalue": 0,
    "displayName": "Your Journey Awaits",
    "hidden": 1,
    "icon": "https://steamcdn-a.akamaihd.net/steamcommunity/public/images/apps/462480/d18f174a97335048a4471ec05c3e7084ae6b92e1.jpg",
    "icongray": "https://steamcdn-a.akamaihd.net/steamcommunity/public/images/apps/462480/91299db217b446e3cd37370b85ffe6ed54884ae9.jpg"
  },
  {
    "name": "GhostlySoulAcquired",
    "defaultvalue": 0,
    "displayName": "Ghostly Soul Acquired",
    "hidden": 1,
    "icon": "https://steamcdn-a.akamaihd.net/steamcommunity/public/images/apps/462480/7f642f110b65f4197ffa70aae8cb5f223c6ed137.jpg",
    "icongray": "https://steamcdn-a.akamaihd.net/steamcommunity/public/images/apps/462480/5ae28cd45b43a6f3c97b55314e76c4d2a95c9c9d.jpg"
  },
  {
    "name": "CheckYourselfOut",
    "defaultvalue": 0,
    "displayName": "Check Yourself Out",
    "hidden": 1,
    "icon": "https://steamcdn-a.akamaihd.net/steamcommunity/public/images/apps/462480/2b4ea040388acb594b4b70a2c4f2846086e63168.jpg",
    "icongray": "https://steamcdn-a.akamaihd.net/steamcommunity/public/images/apps/462480/072f0890577c37039f10cb206f9f659d144c15f6.jpg"
  },
  {
    "name": "ItHasBegun",
    "defaultvalue": 0,
    "displayName": "It Has Begun",
    "hidden": 1,
    "icon": "https://steamcdn-a.akamaihd.net/steamcommunity/public/images/apps/462480/91226b69d19189aa813c1585dfcf5f3107de73d9.jpg",
    "icongray": "https://steamcdn-a.akamaihd.net/steamcommunity/public/images/apps/462480/1cbb5a9a4242bc7dedfdcbae355f1675ec4570cb.jpg"
  },
  {
    "name": "AHeroIsBorn",
    "defaultvalue": 0,
    "displayName": "A Hero Is Born",
    "hidden": 1,
    "icon": "https://steamcdn-a.akamaihd.net/steamcommunity/public/images/apps/462480/826a68bf014c5bbf8e38a9249b69ef8b3e2e2f98.jpg",
    "icongray": "https://steamcdn-a.akamaihd.net/steamcommunity/public/images/apps/462480/b951f83536bcf04fa10e5b66e653b015e28845ad.jpg"
  },
  {
    "name": "NoSleepForTheWicked",
    "defaultvalue": 0,
    "displayName": "No Sleep For The Wicked",
    "hidden": 1,
    "icon": "https://steamcdn-a.akamaihd.net/steamcommunity/public/images/apps/462480/0f06f816fa5dcf2f9f3b051702780e7a4f038fda.jpg",
    "icongray": "https://steamcdn-a.akamaihd.net/steamcommunity/public/images/apps/462480/87eaf2da7a150087ce0552b623ecbad8f49f4125.jpg"
  },
  {
    "name": "CantSleepClownsWillEatMe",
    "defaultvalue": 0,
    "displayName": "Cant Sleep Clowns Will Eat Me",
    "hidden": 1,
    "icon": "https://steamcdn-a.akamaihd.net/steamcommunity/public/images/apps/462480/b1c90919bc41e54e4e7c961a41f1d76f474d9834.jpg",
    "icongray": "https://steamcdn-a.akamaihd.net/steamcommunity/public/images/apps/462480/5cd8db6d2950ebafc79434730a55e6702eaafd0a.jpg"
  },
  {
    "name": "NoStoneUnturned",
    "defaultvalue": 0,
    "displayName": "No Stone Unturned",
    "hidden": 1,
    "icon": "https://steamcdn-a.akamaihd.net/steamcommunity/public/images/apps/462480/827d4a25504a58dc9bce04b864e2bf4cc71bdaac.jpg",
    "icongray": "https://steamcdn-a.akamaihd.net/steamcommunity/public/images/apps/462480/3b0ee197fa786b82ded5c8fe7c33c562d9a7c13d.jpg"
  },
  {
    "name": "Tarzan",
    "defaultvalue": 0,
    "displayName": "Tarzan",
    "hidden": 1,
    "icon": "https://steamcdn-a.akamaihd.net/steamcommunity/public/images/apps/462480/f9601954f2912b11e188312bbc9ce36f302dc58f.jpg",
    "icongray": "https://steamcdn-a.akamaihd.net/steamcommunity/public/images/apps/462480/a554194f233c1c219a0e1e0d630342b9879949ea.jpg"
  },
  {
    "name": "CaeserGoodApe",
    "defaultvalue": 0,
    "displayName": "Caeser Good Ape",
    "hidden": 1,
    "icon": "https://steamcdn-a.akamaihd.net/steamcommunity/public/images/apps/462480/f9ce36e9299c64fef3bcbec72c1332e72adb6a7d.jpg",
    "icongray": "https://steamcdn-a.akamaihd.net/steamcommunity/public/images/apps/462480/c97ff2b2a2a3c41983f5379bf85131450ef77374.jpg"
  },
  {
    "name": "KingDonkeyKong",
    "defaultvalue": 0,
    "displayName": "King Donkey Kong",
    "hidden": 1,
    "icon": "https://steamcdn-a.akamaihd.net/steamcommunity/public/images/apps/462480/de467058690ee7a106d18f8e2b3d7ee1db5940d9.jpg",
    "icongray": "https://steamcdn-a.akamaihd.net/steamcommunity/public/images/apps/462480/159c419ec86641eeb393be5be3b7c03a99107ea0.jpg"
  },
  {
    "name": "HulkSmash",
    "defaultvalue": 0,
    "displayName": "Hulk Smash",
    "hidden": 1,
    "icon": "https://steamcdn-a.akamaihd.net/steamcommunity/public/images/apps/462480/ed1da7f28d536c585539b21e554db2f2ca118513.jpg",
    "icongray": "https://steamcdn-a.akamaihd.net/steamcommunity/public/images/apps/462480/d39aee340b8f5c8fa3bd85e38bab0d718740e186.jpg"
  },
  {
    "name": "OneArmedMan",
    "defaultvalue": 0,
    "displayName": "One Armed Man",
    "hidden": 1,
    "icon": "https://steamcdn-a.akamaihd.net/steamcommunity/public/images/apps/462480/149f972c2305ff3429971a5847e3f39bf0444826.jpg",
    "icongray": "https://steamcdn-a.akamaihd.net/steamcommunity/public/images/apps/462480/678f27caf8a5030ac752dd19d398d43929fe6b12.jpg"
  },
  {
    "name": "SummonAFriend",
    "defaultvalue": 0,
    "displayName": "Summon A Friend",
    "hidden": 1,
    "icon": "https://steamcdn-a.akamaihd.net/steamcommunity/public/images/apps/462480/9ee722c598fd9d3c3aa4b4fa7a706d2ebb07f8f4.jpg",
    "icongray": "https://steamcdn-a.akamaihd.net/steamcommunity/public/images/apps/462480/db78d2c0e71190e8aeadd1f819de0fa6a22173d1.jpg"
  },
  {
    "name": "BetterTogether",
    "defaultvalue": 0,
    "displayName": "Better Together",
    "hidden": 1,
    "icon": "https://steamcdn-a.akamaihd.net/steamcommunity/public/images/apps/462480/9f9bd2914e4a534069a48c214265d250a54d8c5d.jpg",
    "icongray": "https://steamcdn-a.akamaihd.net/steamcommunity/public/images/apps/462480/0aea2aac62e03376d0a298b077812c73663132b8.jpg"
  },
  {
    "name": "ForLetItBeWritten",
    "defaultvalue": 0,
    "displayName": "For Let It Be Written",
    "hidden": 1,
    "icon": "https://steamcdn-a.akamaihd.net/steamcommunity/public/images/apps/462480/a8dcbe0eac0f603f4fd510922814101b74a4e4ea.jpg",
    "icongray": "https://steamcdn-a.akamaihd.net/steamcommunity/public/images/apps/462480/6fbbdd2f3af8c93413db18b4ff1e19f8e8d25301.jpg"
  },
  {
    "name": "FriendsToTheEnd",
    "defaultvalue": 0,
    "displayName": "Friends To The End",
    "hidden": 1,
    "icon": "https://steamcdn-a.akamaihd.net/steamcommunity/public/images/apps/462480/b8ecf33fe7563db0358aab86fb682d104d5d98a2.jpg",
    "icongray": "https://steamcdn-a.akamaihd.net/steamcommunity/public/images/apps/462480/005d1feafe19e1d426423a39ef9447b194249b2d.jpg"
  },
  {
    "name": "TheGameIsAfoot",
    "defaultvalue": 0,
    "displayName": "The Game is Afoot",
    "hidden": 1,
    "icon": "https://steamcdn-a.akamaihd.net/steamcommunity/public/images/apps/462480/b19ad1dec5acdc443e35f4c39a1aab96b67343f9.jpg",
    "icongray": "https://steamcdn-a.akamaihd.net/steamcommunity/public/images/apps/462480/1fe47217a186a74add0fa85ac362a7d48c136be5.jpg"
  },
  {
    "name": "GrandGoldenMaster",
    "defaultvalue": 0,
    "displayName": "Grand Golden Master",
    "hidden": 1,
    "icon": "https://steamcdn-a.akamaihd.net/steamcommunity/public/images/apps/462480/e02aad0d93f706168d3b5dc4fa07b78d76faee1d.jpg",
    "icongray": "https://steamcdn-a.akamaihd.net/steamcommunity/public/images/apps/462480/597517a4a5a93ce718329669e1e2aa6bf40390dd.jpg"
  },
  {
    "name": "Finalist",
    "defaultvalue": 0,
    "displayName": "Finalist",
    "hidden": 1,
    "icon": "https://steamcdn-a.akamaihd.net/steamcommunity/public/images/apps/462480/d789880cc0e666e13de114118f63c5767fd2bc98.jpg",
    "icongray": "https://steamcdn-a.akamaihd.net/steamcommunity/public/images/apps/462480/1d0d9acf3b6af8a8e5fa4d8466a7303feac4f19f.jpg"
  },
  {
    "name": "OnTheHealsOfChampionship",
    "defaultvalue": 0,
    "displayName": "On The Heals Of Championship",
    "hidden": 1,
    "icon": "https://steamcdn-a.akamaihd.net/steamcommunity/public/images/apps/462480/5ab22ea65f61e910724cd0c1b0595b7fea087095.jpg",
    "icongray": "https://steamcdn-a.akamaihd.net/steamcommunity/public/images/apps/462480/94f36e8e06ccb2e40961004fc6586cc3c060870d.jpg"
  },
  {
    "name": "HeadOfThePack",
    "defaultvalue": 0,
    "displayName": "Head of the Pack",
    "hidden": 1,
    "icon": "https://steamcdn-a.akamaihd.net/steamcommunity/public/images/apps/462480/43795a7429dcc22073af2a96a4bcd088d64b5a67.jpg",
    "icongray": "https://steamcdn-a.akamaihd.net/steamcommunity/public/images/apps/462480/2710f72968c066e8830c6e04fa8c287426bb1bbc.jpg"
  },
  {
    "name": "SpeedyGonzales",
    "defaultvalue": 0,
    "displayName": "Speedy Gonzales",
    "hidden": 1,
    "icon": "https://steamcdn-a.akamaihd.net/steamcommunity/public/images/apps/462480/fa8ca3244e1a0c6c118bc2fc01e01e0df7eb790b.jpg",
    "icongray": "https://steamcdn-a.akamaihd.net/steamcommunity/public/images/apps/462480/9efdea0bbde8f08a5aab8e73ee0a1ec7f64d0e11.jpg"
  },
  {
    "name": "TheFirstOneIsTheHardest",
    "defaultvalue": 0,
    "displayName": "The First One Is The Hardest",
    "hidden": 1,
    "icon": "https://steamcdn-a.akamaihd.net/steamcommunity/public/images/apps/462480/b8229ddb793133b80fed4b4b6c8a76047aa5f2b5.jpg",
    "icongray": "https://steamcdn-a.akamaihd.net/steamcommunity/public/images/apps/462480/b2ff83245b7af2e3f4ced959ffa5378c3cb0ade1.jpg"
  },
  {
    "name": "JudgeDredful",
    "defaultvalue": 0,
    "displayName": "Judge Dredful",
    "hidden": 1,
    "icon": "https://steamcdn-a.akamaihd.net/steamcommunity/public/images/apps/462480/35eeb1f98253636601141575c831206193885c56.jpg",
    "icongray": "https://steamcdn-a.akamaihd.net/steamcommunity/public/images/apps/462480/7a3d7e1b23ad8ac51a9bc9b507229e25401bec8f.jpg"
  },
  {
    "name": "CobraKai",
    "defaultvalue": 0,
    "displayName": "Cobra Kai",
    "hidden": 1,
    "icon": "https://steamcdn-a.akamaihd.net/steamcommunity/public/images/apps/462480/2b6bd52383f92dd8f09b4fdd6c3e979a1d028d48.jpg",
    "icongray": "https://steamcdn-a.akamaihd.net/steamcommunity/public/images/apps/462480/1202dd0ee87e7855c770b9c428a5bc4edadde4be.jpg"
  },
  {
    "name": "LetsBoogieDown",
    "defaultvalue": 0,
    "displayName": "Lets Boogie Down",
    "hidden": 1,
    "icon": "https://steamcdn-a.akamaihd.net/steamcommunity/public/images/apps/462480/73b41c71972b94ae92377b5091ba90982fd86c7f.jpg",
    "icongray": "https://steamcdn-a.akamaihd.net/steamcommunity/public/images/apps/462480/97f454db22be74b65ea707264e832cad03e9ebe2.jpg"
  },
  {
    "name": "PartyMaker",
    "defaultvalue": 0,
    "displayName": "Party Maker",
    "hidden": 1,
    "icon": "https://steamcdn-a.akamaihd.net/steamcommunity/public/images/apps/462480/6239b0e9f266011d334d42fe07d307f3f4d12d5d.jpg",
    "icongray": "https://steamcdn-a.akamaihd.net/steamcommunity/public/images/apps/462480/815294019cbe8b6e4194215f619d9c4ddc8a0c61.jpg"
  },
  {
    "name": "KingParty",
    "defaultvalue": 0,
    "displayName": "King Party",
    "hidden": 1,
    "icon": "https://steamcdn-a.akamaihd.net/steamcommunity/public/images/apps/462480/7e6d5e24e23f2671f96c6fe574200587d11ad972.jpg",
    "icongray": "https://steamcdn-a.akamaihd.net/steamcommunity/public/images/apps/462480/fdf0886b38db791a53c0abc64b68112152ffcfd1.jpg"
  },
  {
    "name": "Beetlejuiced",
    "defaultvalue": 0,
    "displayName": "Beetlejuiced",
    "hidden": 1,
    "icon": "https://steamcdn-a.akamaihd.net/steamcommunity/public/images/apps/462480/39bf23cb013965cea97283262aa53fadf1d143d7.jpg",
    "icongray": "https://steamcdn-a.akamaihd.net/steamcommunity/public/images/apps/462480/51b447b4802831c3c29a8287af69456e897c2e54.jpg"
  },
  {
    "name": "MercifulSpirit",
    "defaultvalue": 0,
    "displayName": "Merciful Spirit",
    "hidden": 1,
    "icon": "https://steamcdn-a.akamaihd.net/steamcommunity/public/images/apps/462480/7e5be75aaf04b2feadfafc7464bbcd09b35d826e.jpg",
    "icongray": "https://steamcdn-a.akamaihd.net/steamcommunity/public/images/apps/462480/639d96a3e2e18223050ccf6f5e0e560603024551.jpg"
  },
  {
    "name": "EtTuBrute",
    "defaultvalue": 0,
    "displayName": "Et Tu Brute",
    "hidden": 1,
    "icon": "https://steamcdn-a.akamaihd.net/steamcommunity/public/images/apps/462480/d7b377f98eb8de40778e84feb6404cfcafffe980.jpg",
    "icongray": "https://steamcdn-a.akamaihd.net/steamcommunity/public/images/apps/462480/51675abe80161c49c2d37fa54fd904d497ba952d.jpg"
  }
]