﻿{
  "Dlcs": {},
  "Name": "Voodoo Chronicles: The First Sign HD - Director’s Cut Edition",
  "AppId": "304750",
  "ImageUrl": "https://steamcdn-a.akamaihd.net/steam/apps/304750/header.jpg?t=1466978174",
  "Languages": [
    "english",
    "french",
    "italian",
    "german",
    "spanish"
  ],
  "Platforms": {
    "windows": true,
    "mac": false,
    "linux": false
  }
}