﻿{
  "Dlcs": {},
  "Name": "The Tower Of Elements",
  "AppId": "377310",
  "ImageUrl": "https://steamcdn-a.akamaihd.net/steam/apps/377310/header.jpg?t=1448555111",
  "Languages": [
    "english"
  ],
  "Platforms": {
    "windows": true,
    "mac": true,
    "linux": true
  }
}