﻿{
  "Dlcs": {},
  "Name": "Savage Lands",
  "AppId": "307880",
  "ImageUrl": "https://steamcdn-a.akamaihd.net/steam/apps/307880/header.jpg?t=1598067786",
  "Languages": [
    "english"
  ],
  "Platforms": {
    "windows": true,
    "mac": false,
    "linux": false
  }
}