﻿{
  "Dlcs": {},
  "Name": "Diorama No.1 : Blocked In",
  "AppId": "431390",
  "ImageUrl": "https://steamcdn-a.akamaihd.net/steam/apps/431390/header.jpg?t=1491409082",
  "Languages": [
    "english"
  ],
  "Platforms": {
    "windows": true,
    "mac": false,
    "linux": false
  }
}