﻿[
  {
    "name": "stat_winning_coins",
    "defaultvalue": 0,
    "displayName": "Winning Coin Count!"
  },
  {
    "name": "stat_won_game",
    "defaultvalue": 0,
    "displayName": "Won the Game!"
  },
  {
    "name": "stat_player_hp",
    "defaultvalue": 20,
    "displayName": "HP!"
  },
  {
    "name": "stat_won_with_hat_on",
    "defaultvalue": 0,
    "displayName": "Beat game wearing hat"
  },
  {
    "name": "stat_completion",
    "defaultvalue": 0,
    "displayName": "100% Game Completion"
  },
  {
    "name": "stat_brick_count",
    "defaultvalue": 0,
    "displayName": "Number of wall bricks you've made"
  },
  {
    "name": "stat_tweet_count",
    "defaultvalue": 0,
    "displayName": "Number of tweets!"
  },
  {
    "name": "stat_buy_game",
    "defaultvalue": 0,
    "displayName": "Bought Full Game"
  }
]