﻿{
  "Dlcs": {},
  "Name": "Breach & Clear: Deadline Rebirth (2016)",
  "AppId": "310890",
  "ImageUrl": "https://steamcdn-a.akamaihd.net/steam/apps/310890/header.jpg?t=1505118697",
  "Languages": [
    "english",
    "german",
    "polish",
    "russian",
    "french"
  ],
  "Platforms": {
    "windows": true,
    "mac": true,
    "linux": true
  }
}