﻿{
  "Dlcs": {},
  "Name": "Z1 Battle Royale: Test Server",
  "AppId": "439700",
  "ImageUrl": "https://steamcdn-a.akamaihd.net/steam/apps/439700/header.jpg?t=1586366584",
  "Languages": [
    "english"
  ],
  "Platforms": {
    "windows": true,
    "mac": false,
    "linux": false
  }
}