﻿{
  "Dlcs": {},
  "Name": "Aurora Trail",
  "AppId": "755150",
  "ImageUrl": "https://steamcdn-a.akamaihd.net/steam/apps/755150/header.jpg?t=1517439235",
  "Languages": [
    "english"
  ],
  "Platforms": {
    "windows": true,
    "mac": false,
    "linux": false
  }
}