﻿[
  {
    "name": "USER_STAT_MOUNT_KILLS",
    "defaultvalue": 0,
    "displayName": ""
  },
  {
    "name": "USER_STAT_ENVIRONMENTAL_KILLS",
    "defaultvalue": 0,
    "displayName": ""
  },
  {
    "name": "USER_STAT_DROWN_KILLS",
    "defaultvalue": 0,
    "displayName": ""
  }
]