﻿{
  "Dlcs": {
    "1123890": {
      "Name": "Vicious Circle - Founder's Pack",
      "ImageUrl": "https://steamcdn-a.akamaihd.net/steam/apps/1123890/header.jpg?t=1572645586"
    }
  },
  "Name": "Vicious Circle",
  "AppId": "556440",
  "ImageUrl": "https://steamcdn-a.akamaihd.net/steam/apps/556440/header.jpg?t=1587756111",
  "Languages": [
    "english",
    "french",
    "italian",
    "german",
    "spanish",
    "japanese",
    "polish",
    "portuguese",
    "russian",
    "schinese"
  ],
  "Platforms": {
    "windows": true,
    "mac": false,
    "linux": false
  }
}