﻿[
  {
    "name": "ACH_RANK1",
    "defaultvalue": 0,
    "displayName": "Packing Mule",
    "hidden": 0,
    "description": "A Cargo Corp trophy for reaching the rank of Packing Mule trainee.",
    "icon": "https://steamcdn-a.akamaihd.net/steamcommunity/public/images/apps/220460/7127a5138ff33ef7b74e351818f2973b4969357c.jpg",
    "icongray": "https://steamcdn-a.akamaihd.net/steamcommunity/public/images/apps/220460/e27de180b3436d08caea74e07e8e3b618016c35c.jpg"
  },
  {
    "name": "ACH_RANK2",
    "defaultvalue": 0,
    "displayName": "Bearer Of Coffee",
    "hidden": 0,
    "description": "A Cargo Corp trophy for reaching the rank of Bearer of Coffee trainee.",
    "icon": "https://steamcdn-a.akamaihd.net/steamcommunity/public/images/apps/220460/cebf68df9786050153ea7e1f08d049e6e5664184.jpg",
    "icongray": "https://steamcdn-a.akamaihd.net/steamcommunity/public/images/apps/220460/ca2a9286f7a044df31c49d1cac245c706d75b7aa.jpg"
  },
  {
    "name": "ACH_RANK3",
    "defaultvalue": 0,
    "displayName": "Cargo Commander",
    "hidden": 0,
    "description": "A Cargo Corp trophy for reaching the rank of junior Cargo Commander.",
    "icon": "https://steamcdn-a.akamaihd.net/steamcommunity/public/images/apps/220460/55ae5ee24dc7ab4c0d0f9962e6424f24af748215.jpg",
    "icongray": "https://steamcdn-a.akamaihd.net/steamcommunity/public/images/apps/220460/655871c908b3b521d364e4db03fef32c5ea738a3.jpg"
  },
  {
    "name": "ACH_WON",
    "defaultvalue": 0,
    "displayName": "Home Sweet Home",
    "hidden": 1,
    "icon": "https://steamcdn-a.akamaihd.net/steamcommunity/public/images/apps/220460/6c1fef20e07ea93cfc7f0ce0bcc824124adeb228.jpg",
    "icongray": "https://steamcdn-a.akamaihd.net/steamcommunity/public/images/apps/220460/972bb357a578dd3fd13509af78ca04d17faade14.jpg"
  },
  {
    "name": "ACH_DAY50",
    "defaultvalue": 0,
    "displayName": "50 Days On The Job",
    "hidden": 0,
    "description": "Cargo Corp honored your 50th day on the job with a small picture of a gold watch.",
    "icon": "https://steamcdn-a.akamaihd.net/steamcommunity/public/images/apps/220460/fd751686f99aefaed97f2b45cfdb1e1fc3440b38.jpg",
    "icongray": "https://steamcdn-a.akamaihd.net/steamcommunity/public/images/apps/220460/e3dec7515ded651fdd46dcb5d12d3193f956bd1f.jpg"
  },
  {
    "name": "ACH_CAN_VS_ENEMY",
    "defaultvalue": 0,
    "displayName": "Healthy Headshot",
    "hidden": 1,
    "icon": "https://steamcdn-a.akamaihd.net/steamcommunity/public/images/apps/220460/071e57c6890ef8e0384706673ada4ba4a686d83c.jpg",
    "icongray": "https://steamcdn-a.akamaihd.net/steamcommunity/public/images/apps/220460/972bb357a578dd3fd13509af78ca04d17faade14.jpg"
  },
  {
    "name": "ACH_COFFEE_TRIP",
    "defaultvalue": 0,
    "displayName": "Memory Of A Mug",
    "hidden": 0,
    "description": "After carrying your coffee mug through 5 containers of a wave without breaking it, you remembered the day your wife bought it for you.",
    "icon": "https://steamcdn-a.akamaihd.net/steamcommunity/public/images/apps/220460/013932659e3c2ff1446299616fa2ade7ee2371c4.jpg",
    "icongray": "https://steamcdn-a.akamaihd.net/steamcommunity/public/images/apps/220460/fa1d8e59f3ed3969d962801355d68ee746f009d3.jpg"
  },
  {
    "name": "ACH_KILL_WHILE_CHOKING",
    "defaultvalue": 0,
    "displayName": "Priorities",
    "hidden": 1,
    "icon": "https://steamcdn-a.akamaihd.net/steamcommunity/public/images/apps/220460/2e30b9323be2fd371ddf07bfdc838606c54e98e1.jpg",
    "icongray": "https://steamcdn-a.akamaihd.net/steamcommunity/public/images/apps/220460/972bb357a578dd3fd13509af78ca04d17faade14.jpg"
  },
  {
    "name": "ACH_TOILET_IN_SPACE",
    "defaultvalue": 0,
    "displayName": "Toilet In Space",
    "hidden": 1,
    "icon": "https://steamcdn-a.akamaihd.net/steamcommunity/public/images/apps/220460/02c1c9031c0df0e04b29a548a97b60829567ab04.jpg",
    "icongray": "https://steamcdn-a.akamaihd.net/steamcommunity/public/images/apps/220460/972bb357a578dd3fd13509af78ca04d17faade14.jpg"
  },
  {
    "name": "ACH_CAPS_HOARDED",
    "defaultvalue": 0,
    "displayName": "Cap Hoarder",
    "hidden": 0,
    "description": "Cargo Corp has noticed that you collected 100 caps. Please spend your money to buy Cargo Corp equipment.",
    "icon": "https://steamcdn-a.akamaihd.net/steamcommunity/public/images/apps/220460/d0db8dd77aaaaa6aab16528078c0b2c31f61e7c9.jpg",
    "icongray": "https://steamcdn-a.akamaihd.net/steamcommunity/public/images/apps/220460/e0f0773f8ad3b1e5ef07a529c1409f031a53ab25.jpg"
  },
  {
    "name": "ACH_MULTIKILL",
    "defaultvalue": 0,
    "displayName": "Multikill",
    "hidden": 0,
    "description": "Killing 5 mutants with one bullet reminded you of your son breaking his hand on five wooden boards with one strike on his karate training.",
    "icon": "https://steamcdn-a.akamaihd.net/steamcommunity/public/images/apps/220460/b491dc4dfbd4db9a40c3f147175ced52d2b30a5e.jpg",
    "icongray": "https://steamcdn-a.akamaihd.net/steamcommunity/public/images/apps/220460/d5ed4777c2f23c47baef9cc949d2e33572d7bde8.jpg"
  },
  {
    "name": "ACH_MAX_UPGRADES",
    "defaultvalue": 0,
    "displayName": "World's Strongest Dad",
    "hidden": 0,
    "description": "Here's a drawing of you dad, with all guns and armor and explosives and upgrades!",
    "icon": "https://steamcdn-a.akamaihd.net/steamcommunity/public/images/apps/220460/27a9d9fd1e08324e4b9f248ac49f54cb8f614ee9.jpg",
    "icongray": "https://steamcdn-a.akamaihd.net/steamcommunity/public/images/apps/220460/f1718c9ec85196982ae3003151879a07121382e8.jpg"
  },
  {
    "name": "ACH_TUT_ALL_CARGO",
    "defaultvalue": 0,
    "displayName": "Fast Learner",
    "hidden": 0,
    "description": "Cargo Corp wishes to congratulate you with finding all possible cargo on your first day.",
    "icon": "https://steamcdn-a.akamaihd.net/steamcommunity/public/images/apps/220460/7bba1c65ba40b806239fddfa915d18b48a648774.jpg",
    "icongray": "https://steamcdn-a.akamaihd.net/steamcommunity/public/images/apps/220460/3bc7678dd3bd03c5ccb5b2e45f0125bf30da9702.jpg"
  },
  {
    "name": "ACH_PARCELS",
    "defaultvalue": 0,
    "displayName": "Parcel Warning",
    "hidden": 0,
    "description": "Cargo Corp has noticed all the parcels you received from home. Please contact your designated office shrink for homesickness tests.",
    "icon": "https://steamcdn-a.akamaihd.net/steamcommunity/public/images/apps/220460/131b1cc425a2a77e04ae49e97fe8e0cee793c145.jpg",
    "icongray": "https://steamcdn-a.akamaihd.net/steamcommunity/public/images/apps/220460/c3526b67c19746c7575d305fc72128be1d4230e8.jpg"
  },
  {
    "name": "ACH_FYOU_100",
    "defaultvalue": 0,
    "displayName": "Curse Quota Exceeded",
    "hidden": 1,
    "icon": "https://steamcdn-a.akamaihd.net/steamcommunity/public/images/apps/220460/240df1cc0fc2b967390f00b32f5d8c7bd711512d.jpg",
    "icongray": "https://steamcdn-a.akamaihd.net/steamcommunity/public/images/apps/220460/972bb357a578dd3fd13509af78ca04d17faade14.jpg"
  },
  {
    "name": "ACH_CORPSES_LOOTED_50",
    "defaultvalue": 0,
    "displayName": "Team Building",
    "hidden": 1,
    "icon": "https://steamcdn-a.akamaihd.net/steamcommunity/public/images/apps/220460/f98ad55a6426260582d3fad31adce5fe36cc1950.jpg",
    "icongray": "https://steamcdn-a.akamaihd.net/steamcommunity/public/images/apps/220460/972bb357a578dd3fd13509af78ca04d17faade14.jpg"
  },
  {
    "name": "ACH_KILLED_20",
    "defaultvalue": 0,
    "displayName": "Eradicator",
    "hidden": 0,
    "description": "You are the best dad! On this drawing you have just smashed 20 monsters!",
    "icon": "https://steamcdn-a.akamaihd.net/steamcommunity/public/images/apps/220460/b18b26e645c31e7341c3a0f29e4bed245cda76e6.jpg",
    "icongray": "https://steamcdn-a.akamaihd.net/steamcommunity/public/images/apps/220460/bf81a919a09da12b0ed57d416c659181419e8318.jpg"
  },
  {
    "name": "ACH_KILLED_200",
    "defaultvalue": 0,
    "displayName": "Exterminator",
    "hidden": 0,
    "description": "You are the best dad! On this drawing you have just smashed 200 monsters!",
    "icon": "https://steamcdn-a.akamaihd.net/steamcommunity/public/images/apps/220460/abe8d3af7ccfd779913682f7eecb7966449f7d5b.jpg",
    "icongray": "https://steamcdn-a.akamaihd.net/steamcommunity/public/images/apps/220460/7707c646ddc1e2a1ed4f0b0e24a658cbbe818951.jpg"
  },
  {
    "name": "ACH_KILLED_1000",
    "defaultvalue": 0,
    "displayName": "Annihilator",
    "hidden": 0,
    "description": "You are the best dad! On this drawing you have just smashed 1000 monsters!",
    "icon": "https://steamcdn-a.akamaihd.net/steamcommunity/public/images/apps/220460/443e850be64ba1aa6e91356a5db54162426e9f41.jpg",
    "icongray": "https://steamcdn-a.akamaihd.net/steamcommunity/public/images/apps/220460/963a86e9f8e1ff3b66c7b3f29ffbc32d9bc3f124.jpg"
  }
]