﻿{
  "Dlcs": {},
  "Name": "On Board",
  "AppId": "757290",
  "ImageUrl": "https://steamcdn-a.akamaihd.net/steam/apps/757290/header.jpg?t=1523679723",
  "Languages": [
    "english"
  ],
  "Platforms": {
    "windows": true,
    "mac": false,
    "linux": false
  }
}