﻿{
  "Dlcs": {},
  "Name": "Ino",
  "AppId": "398140",
  "ImageUrl": "https://steamcdn-a.akamaihd.net/steam/apps/398140/header.jpg?t=1488527696",
  "Languages": [
    "english"
  ],
  "Platforms": {
    "windows": true,
    "mac": false,
    "linux": false
  }
}