﻿{
  "Dlcs": {},
  "Name": "METAL GEAR SOLID V: GROUND ZEROES",
  "AppId": "311340",
  "ImageUrl": "https://steamcdn-a.akamaihd.net/steam/apps/311340/header.jpg?t=1581382125",
  "Languages": [
    "english",
    "french",
    "italian",
    "german",
    "spanish",
    "japanese",
    "portuguese",
    "russian"
  ],
  "Platforms": {
    "windows": true,
    "mac": false,
    "linux": false
  }
}