﻿{
  "Dlcs": {},
  "Name": "Procyon",
  "AppId": "266250",
  "ImageUrl": "https://steamcdn-a.akamaihd.net/steam/apps/266250/header.jpg?t=1560412778",
  "Languages": [
    "english"
  ],
  "Platforms": {
    "windows": true,
    "mac": false,
    "linux": false
  }
}