﻿[
  {
    "name": "stat_enemies_killed",
    "defaultvalue": 0,
    "displayName": "Enemies Killed"
  },
  {
    "name": "stat_deaths",
    "defaultvalue": 0,
    "displayName": "Deaths"
  },
  {
    "name": "stat_game_overs",
    "defaultvalue": 0,
    "displayName": "Game Overs"
  },
  {
    "name": "stat_bullets_blocked",
    "defaultvalue": 0,
    "displayName": "Bullets Blocked"
  },
  {
    "name": "stat_enemies_bullet_killed",
    "defaultvalue": 0,
    "displayName": "Enemies Killed With Bullets"
  },
  {
    "name": "stat_enemies_beam_killed",
    "defaultvalue": 0,
    "displayName": "Enemies Killed With Beams"
  },
  {
    "name": "stat_enemies_lightning_killed",
    "defaultvalue": 0,
    "displayName": "Enemies Killed With Lightning"
  },
  {
    "name": "stat_level_bitfield_easy",
    "defaultvalue": 0,
    "displayName": ""
  },
  {
    "name": "stat_level_bitfield_normal",
    "defaultvalue": 0,
    "displayName": ""
  },
  {
    "name": "stat_level_bitfield_hard",
    "defaultvalue": 0,
    "displayName": ""
  }
]