﻿{
  "Dlcs": {},
  "Name": "Logout",
  "AppId": "798950",
  "ImageUrl": "https://steamcdn-a.akamaihd.net/steam/apps/798950/header.jpg?t=1525233749",
  "Languages": [
    "english"
  ],
  "Platforms": {
    "windows": true,
    "mac": false,
    "linux": false
  }
}