﻿[
  {
    "name": "ALL_ACHIEVEMENTS",
    "defaultvalue": 0,
    "displayName": "Holy Moly!",
    "hidden": 0,
    "description": "Earn all Achievements",
    "icon": "https://steamcdn-a.akamaihd.net/steamcommunity/public/images/apps/310810/18e7e895c45ec211eca9c48519e70c9bc0208fbd.jpg",
    "icongray": "https://steamcdn-a.akamaihd.net/steamcommunity/public/images/apps/310810/7ac0888c926b5ed65f0670606f52f5d665d59583.jpg"
  },
  {
    "name": "ALL_LEVELS_TIME_ATTACK",
    "defaultvalue": 0,
    "displayName": "No Time to Zork Around",
    "hidden": 0,
    "description": "Complete all levels in Time Attack mode",
    "icon": "https://steamcdn-a.akamaihd.net/steamcommunity/public/images/apps/310810/32c184c5572f3f4d6c0bca84f304e07f83e09802.jpg",
    "icongray": "https://steamcdn-a.akamaihd.net/steamcommunity/public/images/apps/310810/36a530d43aa77ac1166ffabeb97f9b34434d61b2.jpg"
  },
  {
    "name": "COMPLETE_GAME",
    "defaultvalue": 0,
    "displayName": "Zomegacorp Employee of the Month",
    "hidden": 0,
    "description": "Complete the game",
    "icon": "https://steamcdn-a.akamaihd.net/steamcommunity/public/images/apps/310810/cef4685d47dd9ce27ffdbaa91d91c4a9e0e90ff0.jpg",
    "icongray": "https://steamcdn-a.akamaihd.net/steamcommunity/public/images/apps/310810/56172adcd75956b1ca4bee82358dc559bdd06e13.jpg"
  },
  {
    "name": "COLLECT_ALL_PICKUPS",
    "defaultvalue": 0,
    "displayName": "Sugar Rush",
    "hidden": 0,
    "description": "Collect all 150 bottles of Black Hola Cola",
    "icon": "https://steamcdn-a.akamaihd.net/steamcommunity/public/images/apps/310810/3662cb30d515f2a4ae783a59d6bf4e6114b79c3e.jpg",
    "icongray": "https://steamcdn-a.akamaihd.net/steamcommunity/public/images/apps/310810/a19a3467daa7f46bec6039eef1ef38852a2f78d6.jpg"
  },
  {
    "name": "WRAP_AROUND_ASSET",
    "defaultvalue": 0,
    "displayName": "That's a Wrap",
    "hidden": 1,
    "icon": "https://steamcdn-a.akamaihd.net/steamcommunity/public/images/apps/310810/ce5b9df76607f027dbbff59847ede1d56969c66a.jpg",
    "icongray": "https://steamcdn-a.akamaihd.net/steamcommunity/public/images/apps/310810/1d914056bd5f522a355df90e4b9f28405b7a6260.jpg"
  },
  {
    "name": "DEFEAT_ALL_BOSSES",
    "defaultvalue": 0,
    "displayName": "Last Zork Standing",
    "hidden": 0,
    "description": "Defeat the giant robot bosses in each world without dying",
    "icon": "https://steamcdn-a.akamaihd.net/steamcommunity/public/images/apps/310810/d258b38d6d0623004280e261cb6319d86ad10c79.jpg",
    "icongray": "https://steamcdn-a.akamaihd.net/steamcommunity/public/images/apps/310810/4aa1dc9a5c418478c4659a0f4f563d45449d5422.jpg"
  },
  {
    "name": "STUCK_AT_OBJECTIVE",
    "defaultvalue": 0,
    "displayName": "Panic Box!",
    "hidden": 0,
    "description": "Get stuck at the objective in Level 9 on Hyperactivia",
    "icon": "https://steamcdn-a.akamaihd.net/steamcommunity/public/images/apps/310810/c1d53f967a64282c0dab1739a4fe1c07899507ab.jpg",
    "icongray": "https://steamcdn-a.akamaihd.net/steamcommunity/public/images/apps/310810/240de464dc860aeb1d2e30fa9a3f19ea69c1c5b0.jpg"
  },
  {
    "name": "ALL_DEATHS",
    "defaultvalue": 0,
    "displayName": "Been There, Died Like That",
    "hidden": 0,
    "description": "Meet your end in six different ways",
    "icon": "https://steamcdn-a.akamaihd.net/steamcommunity/public/images/apps/310810/3d4d7d44712ac185f180c58842530a5c5d3c5f25.jpg",
    "icongray": "https://steamcdn-a.akamaihd.net/steamcommunity/public/images/apps/310810/5791f1402c93abca14bf821b9e12e9f8379d6cb1.jpg"
  },
  {
    "name": "COLLECT_PICKUPS_IN_ONE_WORLD",
    "defaultvalue": 0,
    "displayName": "Hoarding the Cola",
    "hidden": 0,
    "description": "Collect 30 bottles of Black Hola Cola in a single world",
    "icon": "https://steamcdn-a.akamaihd.net/steamcommunity/public/images/apps/310810/7369e653add76777100af8c0c1a44da9d5efd95a.jpg",
    "icongray": "https://steamcdn-a.akamaihd.net/steamcommunity/public/images/apps/310810/94edd81e2a731e702a3c618a65c3ca4df1452fca.jpg"
  },
  {
    "name": "JUMP_HAMMERBOT",
    "defaultvalue": 0,
    "displayName": "No Guts, No Glory",
    "hidden": 0,
    "description": "Jump on Hammerbot's head and live to tell the tale",
    "icon": "https://steamcdn-a.akamaihd.net/steamcommunity/public/images/apps/310810/6c56b31add09c73cdec38d9632d3e32f822f3256.jpg",
    "icongray": "https://steamcdn-a.akamaihd.net/steamcommunity/public/images/apps/310810/daf0ae86362a9f1bd0b735f2a0adc6b6499353b2.jpg"
  },
  {
    "name": "COMPLETE_4_10_JUMP",
    "defaultvalue": 0,
    "displayName": "Defied by Gravity",
    "hidden": 0,
    "description": "Complete Earth 2.0 level 10 while jumping no more than 5 times",
    "icon": "https://steamcdn-a.akamaihd.net/steamcommunity/public/images/apps/310810/957e2a833490523a0312afad550702c448b1239c.jpg",
    "icongray": "https://steamcdn-a.akamaihd.net/steamcommunity/public/images/apps/310810/6d357687f5fc7286310358ce9288e75b4185756a.jpg"
  },
  {
    "name": "COMPLETE_1_3__JUMP",
    "defaultvalue": 0,
    "displayName": "Up to You",
    "hidden": 0,
    "description": "Complete Event Horizon Level 3 while jumping no more than 14 times",
    "icon": "https://steamcdn-a.akamaihd.net/steamcommunity/public/images/apps/310810/a50c679b96b63fcafb224a97be4b08c411900f1d.jpg",
    "icongray": "https://steamcdn-a.akamaihd.net/steamcommunity/public/images/apps/310810/8129598ef2aa8283d1f3f35408db06170a6d2a02.jpg"
  },
  {
    "name": "COMPLETE_4_10_SWITCH",
    "defaultvalue": 0,
    "displayName": "Beswitched",
    "hidden": 0,
    "description": "Complete Earth 2.0 level 10 while swapping no more than 11 times",
    "icon": "https://steamcdn-a.akamaihd.net/steamcommunity/public/images/apps/310810/9ccb4f327a31642ea389c67dfb0cae6153b998e2.jpg",
    "icongray": "https://steamcdn-a.akamaihd.net/steamcommunity/public/images/apps/310810/804b9e1deb07b0635f8813031eec70195ed05dcd.jpg"
  },
  {
    "name": "AIRTIME",
    "defaultvalue": 0,
    "displayName": "Both in the Same Float",
    "hidden": 0,
    "description": "Keep both characters suspended in air at the same time for 4 seconds",
    "icon": "https://steamcdn-a.akamaihd.net/steamcommunity/public/images/apps/310810/67fae502951bc78a083cc3496e812623713e283d.jpg",
    "icongray": "https://steamcdn-a.akamaihd.net/steamcommunity/public/images/apps/310810/9db9dc83468ddd402bba5b4a40d2d406c9cd8145.jpg"
  },
  {
    "name": "SPEEDRUN_W01",
    "defaultvalue": 0,
    "displayName": "Sucky Speed",
    "hidden": 0,
    "description": "Finish Event Horizon in under 16 minutes",
    "icon": "https://steamcdn-a.akamaihd.net/steamcommunity/public/images/apps/310810/42bd5369e25c298835ca46c942cb354cebb90918.jpg",
    "icongray": "https://steamcdn-a.akamaihd.net/steamcommunity/public/images/apps/310810/1469d5a446406450c7a68a1a392d36b118d87545.jpg"
  },
  {
    "name": "SPEEDRUN_W02",
    "defaultvalue": 0,
    "displayName": "Speedy Bonzo",
    "hidden": 0,
    "description": "Finish Hyperactivia in under 24 minutes",
    "icon": "https://steamcdn-a.akamaihd.net/steamcommunity/public/images/apps/310810/11daa127d4da435762854084381b559efc3b1b80.jpg",
    "icongray": "https://steamcdn-a.akamaihd.net/steamcommunity/public/images/apps/310810/19d21c020748855953101ae37d3228adc4f02a01.jpg"
  },
  {
    "name": "SPEEDRUN_W03",
    "defaultvalue": 0,
    "displayName": "Malcolm at the Front",
    "hidden": 0,
    "description": "Finish Veraville in under 26 minutes",
    "icon": "https://steamcdn-a.akamaihd.net/steamcommunity/public/images/apps/310810/7716af5bc632856e7c2d91af207dbde5b7cf5f1e.jpg",
    "icongray": "https://steamcdn-a.akamaihd.net/steamcommunity/public/images/apps/310810/a0d19fe20494da577fefdeeba75e81182e073ccf.jpg"
  },
  {
    "name": "SPEEDRUN_W04",
    "defaultvalue": 0,
    "displayName": "Mooned in Time",
    "hidden": 0,
    "description": "Finish Earth 2.0 in under 31 minutes",
    "icon": "https://steamcdn-a.akamaihd.net/steamcommunity/public/images/apps/310810/128c5aa43a73a0d9ef2fb4b440fd1cc7d7a3dee1.jpg",
    "icongray": "https://steamcdn-a.akamaihd.net/steamcommunity/public/images/apps/310810/26d65e0cf4828ea789603c004053c1a4dabf7702.jpg"
  },
  {
    "name": "SPEEDRUN_W05",
    "defaultvalue": 0,
    "displayName": "Crafty Velocity",
    "hidden": 0,
    "description": "Finish Sherbert in under 34 minutes",
    "icon": "https://steamcdn-a.akamaihd.net/steamcommunity/public/images/apps/310810/9507fb41d7daf73fa8fa2e5b021904ab73d30259.jpg",
    "icongray": "https://steamcdn-a.akamaihd.net/steamcommunity/public/images/apps/310810/b9105fda192434f1e37ec125116921a9ca1e41e9.jpg"
  },
  {
    "name": "COLLECT_ALL_PICKUPS_ONE_LEVEL",
    "defaultvalue": 0,
    "displayName": "Newbie Hoarder",
    "hidden": 0,
    "description": "Collect all bottles of Black Hola Cola in a single level",
    "icon": "https://steamcdn-a.akamaihd.net/steamcommunity/public/images/apps/310810/a4b070447b73c253afa0540c3b6f684d96caecfd.jpg",
    "icongray": "https://steamcdn-a.akamaihd.net/steamcommunity/public/images/apps/310810/ed3a839ada16369af51d219ac8ee782cd556eb50.jpg"
  },
  {
    "name": "COMPLETE_1_3_SWITCH",
    "defaultvalue": 0,
    "displayName": "Switched at Birth",
    "hidden": 0,
    "description": "Complete Event Horizon Level 3 while swapping no more than 11 times",
    "icon": "https://steamcdn-a.akamaihd.net/steamcommunity/public/images/apps/310810/40fcd16bf20c3c2ad0ffc93a3df8c22bace47b98.jpg",
    "icongray": "https://steamcdn-a.akamaihd.net/steamcommunity/public/images/apps/310810/05ee73df46d296815e06c8363272d9185d0f5cbd.jpg"
  },
  {
    "name": "MULTIPLAYER_RANDOM",
    "defaultvalue": 0,
    "displayName": "I'll Be Your Friend Til the End",
    "hidden": 0,
    "description": "Complete a level with a random multiplayer partner",
    "icon": "https://steamcdn-a.akamaihd.net/steamcommunity/public/images/apps/310810/e4b340d4d23064e3931532d97f98da87056b796c.jpg",
    "icongray": "https://steamcdn-a.akamaihd.net/steamcommunity/public/images/apps/310810/56395b73d928a6c707d6daa93538bcb0fe2db2f3.jpg"
  },
  {
    "name": "FINISH_W01",
    "defaultvalue": 0,
    "displayName": "No Sucking Involved",
    "hidden": 0,
    "description": "Finish Event Horizon",
    "icon": "https://steamcdn-a.akamaihd.net/steamcommunity/public/images/apps/310810/d0c0e50a5e8e6108ca63bce3d9472b69c23f7331.jpg",
    "icongray": "https://steamcdn-a.akamaihd.net/steamcommunity/public/images/apps/310810/7a7f41e769145b302379a45b9cb6b99a74f638ff.jpg"
  },
  {
    "name": "FINISH_W02",
    "defaultvalue": 0,
    "displayName": "Met at the Candy Shop",
    "hidden": 0,
    "description": "Finish Hyperactivia",
    "icon": "https://steamcdn-a.akamaihd.net/steamcommunity/public/images/apps/310810/4ca0285b1b363f64cd7113b71f6f968164a25b98.jpg",
    "icongray": "https://steamcdn-a.akamaihd.net/steamcommunity/public/images/apps/310810/c5a590209270b137e209ad929333528936da746b.jpg"
  },
  {
    "name": "FINISH_W03",
    "defaultvalue": 0,
    "displayName": "A Fistful of Zorks",
    "hidden": 0,
    "description": "Finish Veraville",
    "icon": "https://steamcdn-a.akamaihd.net/steamcommunity/public/images/apps/310810/cdf8ef2ab6de2eb3ca3f481ffcba5d630b99d90d.jpg",
    "icongray": "https://steamcdn-a.akamaihd.net/steamcommunity/public/images/apps/310810/31157a157b9f838f6cf38ac96016298190db998c.jpg"
  },
  {
    "name": "FINISH_W04",
    "defaultvalue": 0,
    "displayName": "One Small Step for a Zork",
    "hidden": 0,
    "description": "Finish Earth 2.0",
    "icon": "https://steamcdn-a.akamaihd.net/steamcommunity/public/images/apps/310810/b7dc793c150a9eaeb9f3d46882f4aede3a0901c4.jpg",
    "icongray": "https://steamcdn-a.akamaihd.net/steamcommunity/public/images/apps/310810/053b96d54903f838acde11a08c032daabfb01051.jpg"
  },
  {
    "name": "FINISH_W05",
    "defaultvalue": 0,
    "displayName": "Way of the Tentacle",
    "hidden": 0,
    "description": "Finish Sherbert",
    "icon": "https://steamcdn-a.akamaihd.net/steamcommunity/public/images/apps/310810/21389573f2bbd31a085cdfba0be20b95b4e082f4.jpg",
    "icongray": "https://steamcdn-a.akamaihd.net/steamcommunity/public/images/apps/310810/f19cc70eed3f45e2b443aeae46daf0a42af2b16b.jpg"
  },
  {
    "name": "INVITE_FRIEND",
    "defaultvalue": 0,
    "displayName": "Wanna Play With Me?",
    "hidden": 0,
    "description": "Invite a friend to a multiplayer match",
    "icon": "https://steamcdn-a.akamaihd.net/steamcommunity/public/images/apps/310810/c625b0230d8abc3d137afbe1a6a70c5c39b64579.jpg",
    "icongray": "https://steamcdn-a.akamaihd.net/steamcommunity/public/images/apps/310810/9718a4a4b90a7ac763c8888385d7746e32c66680.jpg"
  },
  {
    "name": "SHIFT_ONCE",
    "defaultvalue": 0,
    "displayName": "Bloated",
    "hidden": 0,
    "description": "Shift for the first time",
    "icon": "https://steamcdn-a.akamaihd.net/steamcommunity/public/images/apps/310810/2d5884c4d6e03a990a95d07818ab42eaf42d1ab4.jpg",
    "icongray": "https://steamcdn-a.akamaihd.net/steamcommunity/public/images/apps/310810/a3323070c9d81e6917d512b21c17724186932803.jpg"
  }
]