﻿[
  {
    "name": "unlock_factions",
    "defaultvalue": 0,
    "displayName": "Ready to Fight!",
    "hidden": 0,
    "description": "Unlock all 6 factions.",
    "icon": "https://steamcdn-a.akamaihd.net/steamcommunity/public/images/apps/360730/98b41a2b4a75dfba1322745a723d990990cbea0e.jpg",
    "icongray": "https://steamcdn-a.akamaihd.net/steamcommunity/public/images/apps/360730/591238595c0ae35c036ea7b9bd9b3b33f1ec6f2b.jpg"
  },
  {
    "name": "craft_card",
    "defaultvalue": 0,
    "displayName": "Let There Be Card!",
    "hidden": 0,
    "description": "Craft one card using shards.",
    "icon": "https://steamcdn-a.akamaihd.net/steamcommunity/public/images/apps/360730/fb424736287897a44d460c6451b622d099363bbc.jpg",
    "icongray": "https://steamcdn-a.akamaihd.net/steamcommunity/public/images/apps/360730/6abfa5d0bac2170f1685a2858ebd8082484545ec.jpg"
  },
  {
    "name": "lose_game",
    "defaultvalue": 0,
    "displayName": "If At First You Don't Succeed...",
    "hidden": 0,
    "description": "Lose a multiplayer game. It's ok, really!",
    "icon": "https://steamcdn-a.akamaihd.net/steamcommunity/public/images/apps/360730/eadf93145080d664535b7c9e0735a4424f72fa0f.jpg",
    "icongray": "https://steamcdn-a.akamaihd.net/steamcommunity/public/images/apps/360730/9bb7bdc045eb059a62a812f316ed1a45e2f4391b.jpg"
  },
  {
    "name": "win_game",
    "defaultvalue": 0,
    "displayName": "The Victor",
    "hidden": 0,
    "description": "Win a multiplayer game.",
    "icon": "https://steamcdn-a.akamaihd.net/steamcommunity/public/images/apps/360730/560fe28ad5628a11d691b4018a4bd0002af08ec2.jpg",
    "icongray": "https://steamcdn-a.akamaihd.net/steamcommunity/public/images/apps/360730/4e960aa57cc7e73fbcb67662c8a197510608c825.jpg"
  },
  {
    "name": "draft_3_wins",
    "defaultvalue": 0,
    "displayName": "Draft Skills",
    "hidden": 0,
    "description": "Win 3 or more matches in a single draft.",
    "icon": "https://steamcdn-a.akamaihd.net/steamcommunity/public/images/apps/360730/2f3c57e1701910542d7c51564aca9a81b4c336e1.jpg",
    "icongray": "https://steamcdn-a.akamaihd.net/steamcommunity/public/images/apps/360730/7adbb0b3fd70e4827cd2fc10783fdd40c3ba699b.jpg"
  },
  {
    "name": "combo_10_damage",
    "defaultvalue": 0,
    "displayName": "Killer Combo",
    "hidden": 0,
    "description": "Deal 10 or more damage in a single attack.",
    "icon": "https://steamcdn-a.akamaihd.net/steamcommunity/public/images/apps/360730/72db5022fe6d54cdd8ebcca33ea48edf9ec25a90.jpg",
    "icongray": "https://steamcdn-a.akamaihd.net/steamcommunity/public/images/apps/360730/8e65f227f5ab59f73bc7b24104b00ef470c0bf05.jpg"
  },
  {
    "name": "master_builder",
    "defaultvalue": 0,
    "displayName": "Master Builder",
    "hidden": 0,
    "description": "End a turn with at least 6 buildings in play.",
    "icon": "https://steamcdn-a.akamaihd.net/steamcommunity/public/images/apps/360730/9b53d35c684ae23e42945620ecdd10831ce66dfc.jpg",
    "icongray": "https://steamcdn-a.akamaihd.net/steamcommunity/public/images/apps/360730/82522fe0c23edbef505e9668bdf881781edbd3d8.jpg"
  },
  {
    "name": "acquire_legendary_card",
    "defaultvalue": 0,
    "displayName": "Legendary Collection",
    "hidden": 0,
    "description": "Collect at least one legendary card!",
    "icon": "https://steamcdn-a.akamaihd.net/steamcommunity/public/images/apps/360730/5d1dcb34514c36de43a40f420184579ee7199935.jpg",
    "icongray": "https://steamcdn-a.akamaihd.net/steamcommunity/public/images/apps/360730/6a96a8ac16af3af046ff21c3bd4f2e3f4268fb53.jpg"
  },
  {
    "name": "rekt",
    "defaultvalue": 0,
    "displayName": "Get REKT",
    "hidden": 0,
    "description": "Destroy the enemy castle while the opponent has no units in play.",
    "icon": "https://steamcdn-a.akamaihd.net/steamcommunity/public/images/apps/360730/ab8955af9442aa2760f2878b5333ae0072ac793c.jpg",
    "icongray": "https://steamcdn-a.akamaihd.net/steamcommunity/public/images/apps/360730/fbc9b3808afdcfd18adb0eba68f4e5f843b9f824.jpg"
  },
  {
    "name": "win_10_games",
    "defaultvalue": 0,
    "displayName": "You Are the Champion, My Friend",
    "hidden": 0,
    "description": "Win 10 multiplayer games.",
    "icon": "https://steamcdn-a.akamaihd.net/steamcommunity/public/images/apps/360730/f1bda86371c3c22bf9b9341585a8c25499a0e5b0.jpg",
    "icongray": "https://steamcdn-a.akamaihd.net/steamcommunity/public/images/apps/360730/bd7bad4d145f481c63cd13f48f087d579eeabd5d.jpg"
  },
  {
    "name": "disenchant",
    "defaultvalue": 0,
    "displayName": "Disenchantment",
    "hidden": 0,
    "description": "Disenchant a card!",
    "icon": "https://steamcdn-a.akamaihd.net/steamcommunity/public/images/apps/360730/2277c1262cf0ac21656cca95932ea3e98bedb2d0.jpg",
    "icongray": "https://steamcdn-a.akamaihd.net/steamcommunity/public/images/apps/360730/99227c87139f8dd9141584c0ae87fc07fb4c6dad.jpg"
  },
  {
    "name": "acquire_5_legendary",
    "defaultvalue": 0,
    "displayName": "More Legendaries!",
    "hidden": 0,
    "description": "Collect 5 legendary cards.",
    "icon": "https://steamcdn-a.akamaihd.net/steamcommunity/public/images/apps/360730/aeeef4f2ff2f7542573cc763f638b13a110f23ad.jpg",
    "icongray": "https://steamcdn-a.akamaihd.net/steamcommunity/public/images/apps/360730/120947d8671bf0bb1da84b840bd42e6e0ed378d0.jpg"
  },
  {
    "name": "close_call",
    "defaultvalue": 0,
    "displayName": "Close Call",
    "hidden": 0,
    "description": "Win a game with only 1 health left on your castle.",
    "icon": "https://steamcdn-a.akamaihd.net/steamcommunity/public/images/apps/360730/97610375259bf5c07e9a5c47517e129c649a1d6a.jpg",
    "icongray": "https://steamcdn-a.akamaihd.net/steamcommunity/public/images/apps/360730/5abdf4e41014c9107567ff00f0430de048328505.jpg"
  },
  {
    "name": "craft_10_card",
    "defaultvalue": 0,
    "displayName": "Card Craftsmanship",
    "hidden": 0,
    "description": "Craft 10 cards!",
    "icon": "https://steamcdn-a.akamaihd.net/steamcommunity/public/images/apps/360730/e0727aec2d6a2efb7d4226001cd5cc4e8e45d738.jpg",
    "icongray": "https://steamcdn-a.akamaihd.net/steamcommunity/public/images/apps/360730/ad0a06f0d8bd22eafac396faf89639f9ae6ce082.jpg"
  },
  {
    "name": "deal_1000_damage",
    "defaultvalue": 0,
    "displayName": "Total Destruction",
    "hidden": 0,
    "description": "Deal 1000 total damage from attacks.",
    "icon": "https://steamcdn-a.akamaihd.net/steamcommunity/public/images/apps/360730/22f41a8854021e7b137a3afcbe058ec42bce2897.jpg",
    "icongray": "https://steamcdn-a.akamaihd.net/steamcommunity/public/images/apps/360730/fd0ca71f4f36383813fda058c61a918aa1c8b916.jpg"
  },
  {
    "name": "craft_50_card",
    "defaultvalue": 0,
    "displayName": "Crafting Connoisseur",
    "hidden": 0,
    "description": "Craft 50 cards!",
    "icon": "https://steamcdn-a.akamaihd.net/steamcommunity/public/images/apps/360730/28a0bd1f45a857c5eb3229a40eb63c3f5636c3c1.jpg",
    "icongray": "https://steamcdn-a.akamaihd.net/steamcommunity/public/images/apps/360730/4f1677bb219b12217e2cb64a1ebc43ff219aba0e.jpg"
  }
]