﻿[
  {
    "name": "ach_normal_01",
    "defaultvalue": 0,
    "displayName": "Reach Lv. 20",
    "hidden": 0,
    "description": "Reach Lv. 20 with a character",
    "icon": "https://steamcdn-a.akamaihd.net/steamcommunity/public/images/apps/495910/ebc24166b9944c3b6b87bf36941bc1d81ff1c16b.jpg",
    "icongray": "https://steamcdn-a.akamaihd.net/steamcommunity/public/images/apps/495910/2a8ea226f7ab547c3ad0c7cf92e01958fdd3bfac.jpg"
  },
  {
    "name": "ach_normal_02",
    "defaultvalue": 0,
    "displayName": "Reach Lv. 40",
    "hidden": 0,
    "description": "Reach Lv. 40 with a character",
    "icon": "https://steamcdn-a.akamaihd.net/steamcommunity/public/images/apps/495910/14097f66ac42c7ea50a80f09cc6cb912fb194f5e.jpg",
    "icongray": "https://steamcdn-a.akamaihd.net/steamcommunity/public/images/apps/495910/dc2f104cd8a513991d99fc6cc20c30448532a5cf.jpg"
  },
  {
    "name": "ach_normal_03",
    "defaultvalue": 0,
    "displayName": "Reach Lv. 50",
    "hidden": 0,
    "description": "Reach Lv. 50 with a character",
    "icon": "https://steamcdn-a.akamaihd.net/steamcommunity/public/images/apps/495910/a8e6c3f3b3e618480a7eb1ce3258985124756f60.jpg",
    "icongray": "https://steamcdn-a.akamaihd.net/steamcommunity/public/images/apps/495910/0be1d1a657c2c7b657ddaf8740c30116c5b9f092.jpg"
  },
  {
    "name": "ach_normal_04",
    "defaultvalue": 0,
    "displayName": "Reach Lv. 60",
    "hidden": 0,
    "description": "Reach Lv. 60 with a character",
    "icon": "https://steamcdn-a.akamaihd.net/steamcommunity/public/images/apps/495910/fe8a91df2d9126996e8f8645a67502b7031e1a69.jpg",
    "icongray": "https://steamcdn-a.akamaihd.net/steamcommunity/public/images/apps/495910/ff4008123ceeef14730d4feb991929173bee323b.jpg"
  },
  {
    "name": "ach_normal_05",
    "defaultvalue": 0,
    "displayName": "Reach Lv. 70",
    "hidden": 0,
    "description": "Reach Lv. 70 with a character",
    "icon": "https://steamcdn-a.akamaihd.net/steamcommunity/public/images/apps/495910/9ee819b7ebe16af26cd477c4874e9d5666cd04f4.jpg",
    "icongray": "https://steamcdn-a.akamaihd.net/steamcommunity/public/images/apps/495910/457f3f3218d9d60062bf0416280f7f2af5c3bbd0.jpg"
  },
  {
    "name": "ach_normal_06",
    "defaultvalue": 0,
    "displayName": "Reach Lv. 80",
    "hidden": 0,
    "description": "Reach Lv. 80 with a character",
    "icon": "https://steamcdn-a.akamaihd.net/steamcommunity/public/images/apps/495910/ebb34bf0e9872f182e208caa029b61c11206f98b.jpg",
    "icongray": "https://steamcdn-a.akamaihd.net/steamcommunity/public/images/apps/495910/09e2f9283d5ac9947a29cb6096b63a6d883c2dde.jpg"
  },
  {
    "name": "ach_normal_07",
    "defaultvalue": 0,
    "displayName": "Reach Lv. 85",
    "hidden": 0,
    "description": "Reach Lv. 85 with a character",
    "icon": "https://steamcdn-a.akamaihd.net/steamcommunity/public/images/apps/495910/51c2e4f42a36fb8f0db788bcb266dcbb5995afce.jpg",
    "icongray": "https://steamcdn-a.akamaihd.net/steamcommunity/public/images/apps/495910/456fe7aefa1f88dd8bcd1b1ec6f2ce1d0321e6f8.jpg"
  },
  {
    "name": "ach_normal_08",
    "defaultvalue": 0,
    "displayName": "Reach Lv. 86",
    "hidden": 0,
    "description": "Reach Lv. 86 with a character",
    "icon": "https://steamcdn-a.akamaihd.net/steamcommunity/public/images/apps/495910/465c49a0cdfee2c19879d6479a37f256d65dcd77.jpg",
    "icongray": "https://steamcdn-a.akamaihd.net/steamcommunity/public/images/apps/495910/9b713015b3ca4ab5e0d3da1f2f694f8673212e2d.jpg"
  },
  {
    "name": "ach_special_01",
    "defaultvalue": 0,
    "displayName": "Challenging Will",
    "hidden": 0,
    "description": "Complete 9 sub-achievements of [Challenging Will]",
    "icon": "https://steamcdn-a.akamaihd.net/steamcommunity/public/images/apps/495910/0d10efcdb412a5f6a4d6b841a88f48374a1b7256.jpg",
    "icongray": "https://steamcdn-a.akamaihd.net/steamcommunity/public/images/apps/495910/689c2a927d41516e799dddb3a2b13ac0a37fc1a2.jpg"
  },
  {
    "name": "ach_special_02",
    "defaultvalue": 0,
    "displayName": "Otherverse",
    "hidden": 0,
    "description": "Complete 10 sub-achievements of [Otherverse]",
    "icon": "https://steamcdn-a.akamaihd.net/steamcommunity/public/images/apps/495910/36b7abd44e9e1614958c11e40c050890d459e2d8.jpg",
    "icongray": "https://steamcdn-a.akamaihd.net/steamcommunity/public/images/apps/495910/3983b3043b6dc3a253926156f169b859409ebc18.jpg"
  },
  {
    "name": "ach_special_03",
    "defaultvalue": 0,
    "displayName": "Equip",
    "hidden": 0,
    "description": "Complete 4 sub-achievements of [Equip]",
    "icon": "https://steamcdn-a.akamaihd.net/steamcommunity/public/images/apps/495910/5bcee71bff733075986628d87991366e4c7c3271.jpg",
    "icongray": "https://steamcdn-a.akamaihd.net/steamcommunity/public/images/apps/495910/cb012cfc9af33aa514e9197524f9a3b3aca65ea5.jpg"
  },
  {
    "name": "ach_special_04",
    "defaultvalue": 0,
    "displayName": "Upper Class of Arad",
    "hidden": 0,
    "description": "Complete 4 sub-achievements of [Upper Class of Arad]",
    "icon": "https://steamcdn-a.akamaihd.net/steamcommunity/public/images/apps/495910/ea11799db06d3c2bf243270d35ac63616defb552.jpg",
    "icongray": "https://steamcdn-a.akamaihd.net/steamcommunity/public/images/apps/495910/f1a9206b69bfa28e906b82d0b49098b65c4276c1.jpg"
  },
  {
    "name": "ach_special_05",
    "defaultvalue": 0,
    "displayName": "Together with Kiri",
    "hidden": 0,
    "description": "Complete 3 sub-achievements of [Together with Kiri]",
    "icon": "https://steamcdn-a.akamaihd.net/steamcommunity/public/images/apps/495910/a7886ef8442037fdee89818bef5a796b2ed76302.jpg",
    "icongray": "https://steamcdn-a.akamaihd.net/steamcommunity/public/images/apps/495910/664b4dd0b1ecbf6b81b5d26b11c0d7cb056f1389.jpg"
  },
  {
    "name": "ach_special_06",
    "defaultvalue": 0,
    "displayName": "You and I",
    "hidden": 0,
    "description": "Complete 5 sub-achievements of [You and I]",
    "icon": "https://steamcdn-a.akamaihd.net/steamcommunity/public/images/apps/495910/3b88eb216b8085332c2ab3f40c434cca95596770.jpg",
    "icongray": "https://steamcdn-a.akamaihd.net/steamcommunity/public/images/apps/495910/1f78426929888eaf47d90de0539705bf59d69f78.jpg"
  },
  {
    "name": "ach_special_07",
    "defaultvalue": 0,
    "displayName": "Savings Go a Long Way",
    "hidden": 0,
    "description": "Complete 5 sub-achievements of [Savings Go a Long Way]",
    "icon": "https://steamcdn-a.akamaihd.net/steamcommunity/public/images/apps/495910/f1ecdfca20c3bb4b88f4dde6edcdcc58339b419e.jpg",
    "icongray": "https://steamcdn-a.akamaihd.net/steamcommunity/public/images/apps/495910/8dacc00557290a422ab6c8079a6099f4c594e7ac.jpg"
  },
  {
    "name": "ach_special_explorer_01",
    "defaultvalue": 0,
    "displayName": "Arad Explorer Lv. 2",
    "hidden": 0,
    "description": "Reach Arad Explorer Club Lv. 2",
    "icon": "https://steamcdn-a.akamaihd.net/steamcommunity/public/images/apps/495910/9bac5eec3549da214c344b0db6e0962cc8eee7cc.jpg",
    "icongray": "https://steamcdn-a.akamaihd.net/steamcommunity/public/images/apps/495910/cf5539ecef4946716c23d41155f0808b10398686.jpg"
  },
  {
    "name": "ach_special_explorer_02",
    "defaultvalue": 0,
    "displayName": "Arad Explorer Lv. 3",
    "hidden": 0,
    "description": "Reach Arad Explorer Club Lv. 3",
    "icon": "https://steamcdn-a.akamaihd.net/steamcommunity/public/images/apps/495910/88b3a000c066553869bb1d7c9420b268129e69ed.jpg",
    "icongray": "https://steamcdn-a.akamaihd.net/steamcommunity/public/images/apps/495910/7bd04f00c1775a0a44ff67dbdc18f4b6c803b52b.jpg"
  },
  {
    "name": "ach_special_explorer_03",
    "defaultvalue": 0,
    "displayName": "Arad Explorer Lv. 4",
    "hidden": 0,
    "description": "Reach Arad Explorer Club Lv. 4",
    "icon": "https://steamcdn-a.akamaihd.net/steamcommunity/public/images/apps/495910/a860b1a06fb53d869fa1aebaa13bc03b0a49889f.jpg",
    "icongray": "https://steamcdn-a.akamaihd.net/steamcommunity/public/images/apps/495910/40d690f9cd4635844cabd6ec713b2fa0f1731c62.jpg"
  },
  {
    "name": "ach_special_explorer_04",
    "defaultvalue": 0,
    "displayName": "Arad Explorer Lv. 5",
    "hidden": 0,
    "description": "Reach Arad Explorer Club Lv. 5",
    "icon": "https://steamcdn-a.akamaihd.net/steamcommunity/public/images/apps/495910/11f729cf173485f668233969923849d150dc8efd.jpg",
    "icongray": "https://steamcdn-a.akamaihd.net/steamcommunity/public/images/apps/495910/5150cc3fd33aa63dc4bcf0af5975d41ba1597da7.jpg"
  },
  {
    "name": "ach_special_explorer_05",
    "defaultvalue": 0,
    "displayName": "Arad Explorer Lv. 6",
    "hidden": 0,
    "description": "Reach Arad Explorer Club Lv. 6",
    "icon": "https://steamcdn-a.akamaihd.net/steamcommunity/public/images/apps/495910/51272de851777b4d099657f68d54fef26be4b2d1.jpg",
    "icongray": "https://steamcdn-a.akamaihd.net/steamcommunity/public/images/apps/495910/19111f6c6b6a9d3159581643c546d798d7812cc5.jpg"
  },
  {
    "name": "ach_special_explorer_06",
    "defaultvalue": 0,
    "displayName": "Arad Explorer Lv. 7",
    "hidden": 0,
    "description": "Reach Arad Explorer Club Lv. 7",
    "icon": "https://steamcdn-a.akamaihd.net/steamcommunity/public/images/apps/495910/3d8e85d55bd95d4e7a6fe8f218ac22d715b70315.jpg",
    "icongray": "https://steamcdn-a.akamaihd.net/steamcommunity/public/images/apps/495910/f0d6a675555d5151c386c63f98999f1ba59eab17.jpg"
  },
  {
    "name": "ach_special_explorer_07",
    "defaultvalue": 0,
    "displayName": "Arad Explorer Lv. 8",
    "hidden": 0,
    "description": "Reach Arad Explorer Club Lv. 8",
    "icon": "https://steamcdn-a.akamaihd.net/steamcommunity/public/images/apps/495910/d51112a490a529afab526d85ba1ba297c7526548.jpg",
    "icongray": "https://steamcdn-a.akamaihd.net/steamcommunity/public/images/apps/495910/56e6ba3bcecb2f5f79f742530505c3484f2ad44e.jpg"
  },
  {
    "name": "ach_special_explorer_08",
    "defaultvalue": 0,
    "displayName": "Arad Explorer Lv. 9",
    "hidden": 0,
    "description": "Reach Arad Explorer Club Lv. 9",
    "icon": "https://steamcdn-a.akamaihd.net/steamcommunity/public/images/apps/495910/08141f807f29c5ace661ee167d49f9c106ae0fc6.jpg",
    "icongray": "https://steamcdn-a.akamaihd.net/steamcommunity/public/images/apps/495910/8bd8b8f8d5db5bbe56e2e2af921826a37b81ead6.jpg"
  },
  {
    "name": "ach_special_explorer_09",
    "defaultvalue": 0,
    "displayName": "Arad Explorer Lv. 10",
    "hidden": 0,
    "description": "Reach Arad Explorer Club Lv. 10",
    "icon": "https://steamcdn-a.akamaihd.net/steamcommunity/public/images/apps/495910/d1236fa8942113101c360ab05b146dc7df27aa5c.jpg",
    "icongray": "https://steamcdn-a.akamaihd.net/steamcommunity/public/images/apps/495910/e1b30d15f3025dd32721ded9279aaeb988ab9777.jpg"
  },
  {
    "name": "ach_special_explorer_10",
    "defaultvalue": 0,
    "displayName": "Arad Explorer Lv. 11",
    "hidden": 0,
    "description": "Reach Arad Explorer Club Lv. 11",
    "icon": "https://steamcdn-a.akamaihd.net/steamcommunity/public/images/apps/495910/7147ce2d6cdf90f1240b02551768e53d23397b75.jpg",
    "icongray": "https://steamcdn-a.akamaihd.net/steamcommunity/public/images/apps/495910/649dacfb28eea1c7994a9f559a3fa6545dad9030.jpg"
  },
  {
    "name": "ach_special_honor_01",
    "defaultvalue": 0,
    "displayName": "Expert Expertise",
    "hidden": 0,
    "description": "Achieive Expert Character Expertise",
    "icon": "https://steamcdn-a.akamaihd.net/steamcommunity/public/images/apps/495910/cbe82c1f4efbb9573e55e121fe4497a933f2ea6c.jpg",
    "icongray": "https://steamcdn-a.akamaihd.net/steamcommunity/public/images/apps/495910/56516bfbbcf8165a167a26185b8f818530b02fc1.jpg"
  },
  {
    "name": "ach_special_honor_02",
    "defaultvalue": 0,
    "displayName": "Leader Expertise",
    "hidden": 0,
    "description": "Achieve Leader Character Expertise",
    "icon": "https://steamcdn-a.akamaihd.net/steamcommunity/public/images/apps/495910/0c8ea75f7a3d0a188235d460d354647ced1f91b7.jpg",
    "icongray": "https://steamcdn-a.akamaihd.net/steamcommunity/public/images/apps/495910/c13f4f470a5c852721a031eb21de21bd548802a1.jpg"
  },
  {
    "name": "ach_special_honor_03",
    "defaultvalue": 0,
    "displayName": "Guru Expertise",
    "hidden": 0,
    "description": "Achieve Guru Character Expertise",
    "icon": "https://steamcdn-a.akamaihd.net/steamcommunity/public/images/apps/495910/4022ffc04712b7311dd92353f59f0f468144b20f.jpg",
    "icongray": "https://steamcdn-a.akamaihd.net/steamcommunity/public/images/apps/495910/adb5769efad78f6f7873c44b03fc6a9ff040699f.jpg"
  },
  {
    "name": "ach_special_honor_04",
    "defaultvalue": 0,
    "displayName": "Legend Expertise",
    "hidden": 0,
    "description": "Achieve Legend Character Expertise",
    "icon": "https://steamcdn-a.akamaihd.net/steamcommunity/public/images/apps/495910/75df576b302d915789d8bcfca3ceee2d5c623b47.jpg",
    "icongray": "https://steamcdn-a.akamaihd.net/steamcommunity/public/images/apps/495910/4e254b296fde850da002faaefb8084333fee6df3.jpg"
  },
  {
    "name": "ach_special_honor_05",
    "defaultvalue": 0,
    "displayName": "Hero Expertise",
    "hidden": 0,
    "description": "Achieve Hero Character Expertise",
    "icon": "https://steamcdn-a.akamaihd.net/steamcommunity/public/images/apps/495910/fb001495d322c445146867891c4f2f7cbf63a084.jpg",
    "icongray": "https://steamcdn-a.akamaihd.net/steamcommunity/public/images/apps/495910/24ced0e6ce1df044f5ced758a7a2617dbe4ec288.jpg"
  },
  {
    "name": "ach_special_master_01",
    "defaultvalue": 0,
    "displayName": "Male Slayer Master",
    "hidden": 0,
    "description": "Reach Lv. 85 with all Male Slayer Classes",
    "icon": "https://steamcdn-a.akamaihd.net/steamcommunity/public/images/apps/495910/dba9f84ef578d70ca282bf833afcca6dcc1ffbab.jpg",
    "icongray": "https://steamcdn-a.akamaihd.net/steamcommunity/public/images/apps/495910/fcf8fc2f7b31e17b1f36866b65d6d9bb1fdaf393.jpg"
  },
  {
    "name": "ach_special_master_02",
    "defaultvalue": 0,
    "displayName": "Female Slayer Master",
    "hidden": 0,
    "description": "Reach Lv. 85 with all Female Slayer Classes",
    "icon": "https://steamcdn-a.akamaihd.net/steamcommunity/public/images/apps/495910/6bf8a4964a1e35d578c2a9c2a275100ad7422a62.jpg",
    "icongray": "https://steamcdn-a.akamaihd.net/steamcommunity/public/images/apps/495910/e7f3759d0a1fd778ba4ede92e04bb754ad056ff2.jpg"
  },
  {
    "name": "ach_special_master_03",
    "defaultvalue": 0,
    "displayName": "Male Gunner Master",
    "hidden": 0,
    "description": "Reach Lv. 85 with all Male Gunner Classes",
    "icon": "https://steamcdn-a.akamaihd.net/steamcommunity/public/images/apps/495910/4b21ba8ba33be75a6c3f1a72c8c9ff99ef85f136.jpg",
    "icongray": "https://steamcdn-a.akamaihd.net/steamcommunity/public/images/apps/495910/5c02f31cfcd91562ea4f5f43f028e7c1823b5d6b.jpg"
  },
  {
    "name": "ach_special_master_04",
    "defaultvalue": 0,
    "displayName": "Female Gunner Master",
    "hidden": 0,
    "description": "Reach Lv. 85 with all Female Gunner Classes",
    "icon": "https://steamcdn-a.akamaihd.net/steamcommunity/public/images/apps/495910/e220602234bd2799a4e2299a50c8abcc64c3496f.jpg",
    "icongray": "https://steamcdn-a.akamaihd.net/steamcommunity/public/images/apps/495910/b3b082e1af6dfbe203229c6b05e2ae4655aa9b7a.jpg"
  },
  {
    "name": "ach_special_master_05",
    "defaultvalue": 0,
    "displayName": "Male Fighter Master",
    "hidden": 0,
    "description": "Reach Lv. 85 with all Male Fighter Classes",
    "icon": "https://steamcdn-a.akamaihd.net/steamcommunity/public/images/apps/495910/b2b65482f71abd23f3730dd3c4c5b09562152638.jpg",
    "icongray": "https://steamcdn-a.akamaihd.net/steamcommunity/public/images/apps/495910/8b655b7e259222a5c236627df2b602c23ba7bb3f.jpg"
  },
  {
    "name": "ach_special_master_06",
    "defaultvalue": 0,
    "displayName": "Female Fighter Master",
    "hidden": 0,
    "description": "Reach Lv. 85 with all Female Fighter Classes",
    "icon": "https://steamcdn-a.akamaihd.net/steamcommunity/public/images/apps/495910/e1073f2b463d56e15f72f60847c7fc75ced8b49a.jpg",
    "icongray": "https://steamcdn-a.akamaihd.net/steamcommunity/public/images/apps/495910/fc13a8f8a88edbfb8f30feb7889b1cd2e21024ef.jpg"
  },
  {
    "name": "ach_special_master_07",
    "defaultvalue": 0,
    "displayName": "Male Mage Master I",
    "hidden": 0,
    "description": "Reach Lv. 85 with Elemental Bomber, Glacial Master",
    "icon": "https://steamcdn-a.akamaihd.net/steamcommunity/public/images/apps/495910/3efcb721b4cfe038f981df5961983d9704368356.jpg",
    "icongray": "https://steamcdn-a.akamaihd.net/steamcommunity/public/images/apps/495910/2105f816fafbd51d24dfd4e8e290afd14decac6a.jpg"
  },
  {
    "name": "ach_special_master_08",
    "defaultvalue": 0,
    "displayName": "Female Mage Master",
    "hidden": 0,
    "description": "Reach Lv. 85 with all Female Mage Classes",
    "icon": "https://steamcdn-a.akamaihd.net/steamcommunity/public/images/apps/495910/bba0d1f65eb91776cde1f1d3d6f5d2e277307045.jpg",
    "icongray": "https://steamcdn-a.akamaihd.net/steamcommunity/public/images/apps/495910/00680bfbf43626ed2997f1e7984a4bc8bdfecd28.jpg"
  },
  {
    "name": "ach_special_master_09",
    "defaultvalue": 0,
    "displayName": "Priest Master",
    "hidden": 0,
    "description": "Reach Lv. 85 with all Priest Classes",
    "icon": "https://steamcdn-a.akamaihd.net/steamcommunity/public/images/apps/495910/5c75575d782e132780a1b71009e2c82b684ef5b3.jpg",
    "icongray": "https://steamcdn-a.akamaihd.net/steamcommunity/public/images/apps/495910/0277c4942872d18e9e42f02d48ff31a944a368aa.jpg"
  },
  {
    "name": "ach_special_master_10",
    "defaultvalue": 0,
    "displayName": "Thief Master",
    "hidden": 0,
    "description": "Reach Lv. 85 with all Thief Classes",
    "icon": "https://steamcdn-a.akamaihd.net/steamcommunity/public/images/apps/495910/ffc79b8bd7446619e618eeb2283eb84de6a8fda7.jpg",
    "icongray": "https://steamcdn-a.akamaihd.net/steamcommunity/public/images/apps/495910/05afaa2a4f9421eb5b58983216e8f5458ee0f627.jpg"
  },
  {
    "name": "ach_special_master_11",
    "defaultvalue": 0,
    "displayName": "Knight Master I",
    "hidden": 0,
    "description": "Reach Lv. 85 with Elven Knight, Chaos",
    "icon": "https://steamcdn-a.akamaihd.net/steamcommunity/public/images/apps/495910/dcb69b3c45eab6b1a4aadba2b5c6e9badfe4faad.jpg",
    "icongray": "https://steamcdn-a.akamaihd.net/steamcommunity/public/images/apps/495910/4004352c407580f3d053f15cb47bfcc55479ca9c.jpg"
  },
  {
    "name": "ach_special_master_12",
    "defaultvalue": 0,
    "displayName": "Dark Knight Master",
    "hidden": 0,
    "description": "Reach Lv. 85 with Dark Knight Class",
    "icon": "https://steamcdn-a.akamaihd.net/steamcommunity/public/images/apps/495910/a2e05ed532393afdbfca57c1905cdf7681edd82a.jpg",
    "icongray": "https://steamcdn-a.akamaihd.net/steamcommunity/public/images/apps/495910/cff8e5f30f1f23e720e16e842793fd4b0ab3322a.jpg"
  },
  {
    "name": "ach_special_master_13",
    "defaultvalue": 0,
    "displayName": "Creator Master",
    "hidden": 0,
    "description": "Reach Lv. 85 with Creator Class",
    "icon": "https://steamcdn-a.akamaihd.net/steamcommunity/public/images/apps/495910/800f676c41c9d577dc1975fd2d2353c97104fc78.jpg",
    "icongray": "https://steamcdn-a.akamaihd.net/steamcommunity/public/images/apps/495910/47e16c10fb79f4da19270f786202521ebdd528a4.jpg"
  },
  {
    "name": "ach_special_master_14",
    "defaultvalue": 0,
    "displayName": "Demonic Lancer Master I",
    "hidden": 0,
    "description": "Reach Lv. 85 with Skirmisher, Vanguard",
    "icon": "https://steamcdn-a.akamaihd.net/steamcommunity/public/images/apps/495910/644a0a470ef2356260e046df0aa9b318915dc208.jpg",
    "icongray": "https://steamcdn-a.akamaihd.net/steamcommunity/public/images/apps/495910/8dce19ca1e0cbf38d5b0d3355edd11326d6b5b0a.jpg"
  },
  {
    "name": "ach_normal_09",
    "defaultvalue": 0,
    "displayName": "Reach Lv. 90",
    "hidden": 0,
    "description": "Reach Lv. 90 with a character",
    "icon": "https://steamcdn-a.akamaihd.net/steamcommunity/public/images/apps/495910/61a2a7ab4750a0c9a0e3401ce162dde5923f899f.jpg",
    "icongray": "https://steamcdn-a.akamaihd.net/steamcommunity/public/images/apps/495910/ed20b3bb5bd548d801a2892f128e5c3113499e6f.jpg"
  },
  {
    "name": "ach_special_explorer_11",
    "defaultvalue": 0,
    "displayName": "Arad Explorer Lv. 12",
    "hidden": 0,
    "description": "Reach Arad Explorer Club Lv. 12",
    "icon": "https://steamcdn-a.akamaihd.net/steamcommunity/public/images/apps/495910/666ef87cad9c67ec6f8fb95332e23a5eeb81e40c.jpg",
    "icongray": "https://steamcdn-a.akamaihd.net/steamcommunity/public/images/apps/495910/f4f1f064e03386a1e0c937b39fffcfddac425511.jpg"
  },
  {
    "name": "ach_special_master_15",
    "defaultvalue": 0,
    "displayName": "Male Mage Master II",
    "hidden": 0,
    "description": "Reach Lv. 85 with Blood Mage, Swift Master, Dimension Walker",
    "icon": "https://steamcdn-a.akamaihd.net/steamcommunity/public/images/apps/495910/3efcb721b4cfe038f981df5961983d9704368356.jpg",
    "icongray": "https://steamcdn-a.akamaihd.net/steamcommunity/public/images/apps/495910/2105f816fafbd51d24dfd4e8e290afd14decac6a.jpg"
  },
  {
    "name": "ach_special_master_16",
    "defaultvalue": 0,
    "displayName": "Female Priest Master",
    "hidden": 0,
    "description": "Reach Lv. 85 with all Female Priest Classes",
    "icon": "https://steamcdn-a.akamaihd.net/steamcommunity/public/images/apps/495910/2d6000fc156e8fd3a57938474f602a0c9b9297c0.jpg",
    "icongray": "https://steamcdn-a.akamaihd.net/steamcommunity/public/images/apps/495910/57a702f595857e2d698d64095c3ae37da8bc7b97.jpg"
  },
  {
    "name": "ach_special_explorer_12",
    "defaultvalue": 0,
    "displayName": "Arad Explorer Lv. 13",
    "hidden": 0,
    "description": "Reach Arad Explorer Club Lv. 13",
    "icon": "https://steamcdn-a.akamaihd.net/steamcommunity/public/images/apps/495910/8610a5911b7788beaf97df53f3b25b9ba256f51f.jpg",
    "icongray": "https://steamcdn-a.akamaihd.net/steamcommunity/public/images/apps/495910/11c2cf4186f864f0d8f10f6377ba25464c24c0e8.jpg"
  },
  {
    "name": "ach_special_explorer_13",
    "defaultvalue": 0,
    "displayName": "Arad Explorer Lv. 14",
    "hidden": 0,
    "description": "Reach Arad Explorer Club Lv. 14",
    "icon": "https://steamcdn-a.akamaihd.net/steamcommunity/public/images/apps/495910/7089429251b9144871d9fe8fb8e5ad87ea541063.jpg",
    "icongray": "https://steamcdn-a.akamaihd.net/steamcommunity/public/images/apps/495910/a7f2395c422188b41a7c26a88394b1faaf1c983c.jpg"
  },
  {
    "name": "ach_special_explorer_14",
    "defaultvalue": 0,
    "displayName": "Arad Explorer Lv. 15",
    "hidden": 0,
    "description": "Reach Arad Explorer Club Lv. 15",
    "icon": "https://steamcdn-a.akamaihd.net/steamcommunity/public/images/apps/495910/321c4ea80f1aa61356162bd4e13d5aa5f3f61d1a.jpg",
    "icongray": "https://steamcdn-a.akamaihd.net/steamcommunity/public/images/apps/495910/faa643eb825b0b75ec79956b696fcb5dbe2a5a31.jpg"
  },
  {
    "name": "ach_special_explorer_20",
    "defaultvalue": 0,
    "displayName": "Arad Explorer Lv. 20",
    "hidden": 0,
    "description": "Reach Arad Explorer Club Lv. 20",
    "icon": "https://steamcdn-a.akamaihd.net/steamcommunity/public/images/apps/495910/73103d39ee2259979512e4f3edcc84cbfe2645a3.jpg",
    "icongray": "https://steamcdn-a.akamaihd.net/steamcommunity/public/images/apps/495910/8250375ba16c2ab189d32c33459ef99c2faaa9cf.jpg"
  },
  {
    "name": "ach_special_explorer_25",
    "defaultvalue": 0,
    "displayName": "Arad Explorer Lv. 25",
    "hidden": 0,
    "description": "Reach Arad Explorer Club Lv. 25",
    "icon": "https://steamcdn-a.akamaihd.net/steamcommunity/public/images/apps/495910/2a29b642b17b443aefcb9683daaeb8a8003b876b.jpg",
    "icongray": "https://steamcdn-a.akamaihd.net/steamcommunity/public/images/apps/495910/028b873929517d50ca6cb0a72636bf10cbbb18eb.jpg"
  },
  {
    "name": "ach_special_explorer_30",
    "defaultvalue": 0,
    "displayName": "Arad Explorer Lv. 30",
    "hidden": 0,
    "description": "Reach Arad Explorer Club Lv. 30",
    "icon": "https://steamcdn-a.akamaihd.net/steamcommunity/public/images/apps/495910/ce6a93055a0b8eef2f55baf9c3f1feb60ea52c26.jpg",
    "icongray": "https://steamcdn-a.akamaihd.net/steamcommunity/public/images/apps/495910/8b4d149b5e39ab42312cc1995de44610e90febb2.jpg"
  },
  {
    "name": "ach_special_master_17",
    "defaultvalue": 0,
    "displayName": "Agent Master",
    "hidden": 0,
    "description": "Reach Lv. 85 with all Agent Classes",
    "icon": "https://steamcdn-a.akamaihd.net/steamcommunity/public/images/apps/495910/a74abd9ff6aa905e991d745db9d467789831e68b.jpg",
    "icongray": "https://steamcdn-a.akamaihd.net/steamcommunity/public/images/apps/495910/b31e593390039e12045dd1d26e59b614d2a5bc33.jpg"
  },
  {
    "name": "ach_special_master_18",
    "defaultvalue": 0,
    "displayName": "Knight Master II",
    "hidden": 0,
    "description": "Reach Lv. 85 with all Lightbringer, Dragon Knight",
    "icon": "https://steamcdn-a.akamaihd.net/steamcommunity/public/images/apps/495910/dcb69b3c45eab6b1a4aadba2b5c6e9badfe4faad.jpg",
    "icongray": "https://steamcdn-a.akamaihd.net/steamcommunity/public/images/apps/495910/c67543d1a0a9c4cbe976ecb1ed0f745936c26798.jpg"
  },
  {
    "name": "ach_special_master_19",
    "defaultvalue": 0,
    "displayName": "Demonic Lancer Master II",
    "hidden": 0,
    "description": "Reach Lv. 85 with all Impaler, Dragoon",
    "icon": "https://steamcdn-a.akamaihd.net/steamcommunity/public/images/apps/495910/644a0a470ef2356260e046df0aa9b318915dc208.jpg",
    "icongray": "https://steamcdn-a.akamaihd.net/steamcommunity/public/images/apps/495910/c123b35793f02746dbf27f244272f11d9c2ab7e5.jpg"
  },
  {
    "name": "ach_normal_10",
    "defaultvalue": 0,
    "displayName": "Reach Lv. 95",
    "hidden": 0,
    "description": "Reach Lv. 95 with a character",
    "icon": "https://steamcdn-a.akamaihd.net/steamcommunity/public/images/apps/495910/fa156527525249c2df8e5ba2d9ff63106bbd3c8b.jpg",
    "icongray": "https://steamcdn-a.akamaihd.net/steamcommunity/public/images/apps/495910/93536201692dd3eb43e5ae5801a620e3ff0305a0.jpg"
  },
  {
    "name": "ach_special_explorer_35",
    "defaultvalue": 0,
    "displayName": "Arrad Explorer Lv. 35",
    "hidden": 0,
    "description": "Reach Arad Explorer Club Lv. 35",
    "icon": "https://steamcdn-a.akamaihd.net/steamcommunity/public/images/apps/495910/156af7c1b64048c9bd81e2530aa231ef5758aa58.jpg",
    "icongray": "https://steamcdn-a.akamaihd.net/steamcommunity/public/images/apps/495910/800902c3c4844a2c5ee161e0e4d609fdf0f719a3.jpg"
  },
  {
    "name": "ach_special_master_20",
    "defaultvalue": 0,
    "displayName": "Ghostblade Master",
    "hidden": 0,
    "description": "Reach Lv. 85 with Ghostblade",
    "icon": "https://steamcdn-a.akamaihd.net/steamcommunity/public/images/apps/495910/dba9f84ef578d70ca282bf833afcca6dcc1ffbab.jpg",
    "icongray": "https://steamcdn-a.akamaihd.net/steamcommunity/public/images/apps/495910/26502c954cefadb5f46505ef7bf48699a05dd3b2.jpg"
  },
  {
    "name": "ach_special_master_21",
    "defaultvalue": 0,
    "displayName": "Enchantress Master",
    "hidden": 0,
    "description": "Reach Lv. 85 with Enchantress",
    "icon": "https://steamcdn-a.akamaihd.net/steamcommunity/public/images/apps/495910/bba0d1f65eb91776cde1f1d3d6f5d2e277307045.jpg",
    "icongray": "https://steamcdn-a.akamaihd.net/steamcommunity/public/images/apps/495910/614253aea616a39bc6d47082bbcff53824fd6e9a.jpg"
  },
  {
    "name": "ach_normal_11",
    "defaultvalue": 0,
    "displayName": "Reach Lv. 100",
    "hidden": 0,
    "description": "Reach Lv. 100 with a character",
    "icon": "https://steamcdn-a.akamaihd.net/steamcommunity/public/images/apps/495910/0eebec60eb95f06fed7dc15a71f4a2d27bf9fc29.jpg",
    "icongray": "https://steamcdn-a.akamaihd.net/steamcommunity/public/images/apps/495910/1aa3f20addb83bf12ebac6e5f2ee8fee8a65b1be.jpg"
  },
  {
    "name": "ach_special_explorer_40",
    "defaultvalue": 0,
    "displayName": "Arrad Explorer Lv. 40",
    "hidden": 0,
    "description": "Reach Arad Explorer Club Lv. 40",
    "icon": "https://steamcdn-a.akamaihd.net/steamcommunity/public/images/apps/495910/aa390128ea23acfb4545afbfc6d2c9f23e0dc36e.jpg",
    "icongray": "https://steamcdn-a.akamaihd.net/steamcommunity/public/images/apps/495910/36e2906f2ce0f28b5263e5c00edf30fea08520c4.jpg"
  }
]