﻿{
  "Dlcs": {
    "357450": {
      "Name": "Orbit Soundtrack",
      "ImageUrl": "https://steamcdn-a.akamaihd.net/steam/apps/357450/header.jpg?t=1450778346"
    }
  },
  "Name": "Orbit HD",
  "AppId": "356380",
  "ImageUrl": "https://steamcdn-a.akamaihd.net/steam/apps/356380/header.jpg?t=1455807252",
  "Languages": [
    "english"
  ],
  "Platforms": {
    "windows": true,
    "mac": true,
    "linux": true
  }
}