﻿[
  {
    "name": "STAT_SOLIDERKILLED",
    "defaultvalue": 0,
    "displayName": "Soldier cucumber killed"
  },
  {
    "name": "STAT_ARCHERKILLED",
    "defaultvalue": 0,
    "displayName": "Archer cucumber killed"
  },
  {
    "name": "STAT_ARMOREDKILLED",
    "defaultvalue": 0,
    "displayName": "Armored cucumber killed"
  },
  {
    "name": "STAT_NINJAKILLED",
    "defaultvalue": 0,
    "displayName": "Ninja Turnip killed"
  },
  {
    "name": "STAT_MONSTERKILLED",
    "defaultvalue": 0,
    "displayName": "Spicy Chili killed"
  },
  {
    "name": "STAT_ENEMIESKILLED",
    "defaultvalue": 0,
    "displayName": "Enemies killed"
  },
  {
    "name": "STAT_OBJECTSTOUCHED",
    "defaultvalue": 0,
    "displayName": "Objects touched"
  }
]