﻿{
  "Dlcs": {},
  "Name": "RIP - Trilogy™",
  "AppId": "2545",
  "ImageUrl": "https://steamcdn-a.akamaihd.net/steam/apps/2540/header.jpg?t=1501868093",
  "Languages": [
    "english"
  ],
  "Platforms": {
    "windows": true,
    "mac": false,
    "linux": false
  }
}