﻿[
  {
    "appid": "531960",
    "itemdefid": "10",
    "Timestamp": "2019-02-27T18:57:56Z",
    "modified": "20190227T185756Z",
    "date_created": "20190227T185756Z",
    "type": "item",
    "display_type": "",
    "name": "2$",
    "price": "1;VLV200",
    "quantity": 0,
    "description": "Thank you!",
    "icon_url": "http://www.f0-games.com/items/item_011.png",
    "icon_url_large": "http://www.f0-games.com/items/item_011_big.png",
    "store_tags": "support,donate",
    "tradable": true,
    "marketable": true,
    "commodity": false,
    "drop_interval": 0,
    "drop_max_per_window": 0,
    "workshopid": "0"
  },
  {
    "appid": "531960",
    "itemdefid": "100",
    "Timestamp": "2019-02-27T18:59:41Z",
    "modified": "20190227T185941Z",
    "date_created": "20190227T185941Z",
    "type": "item",
    "display_type": "",
    "name": "10$",
    "price": "1;VLV1000",
    "quantity": 0,
    "description": "That can not be! Thank you so much!",
    "icon_url": "http://www.f0-games.com/items/item_04.png",
    "icon_url_large": "http://www.f0-games.com/items/item_04_big.png",
    "store_tags": "support,donate",
    "tradable": true,
    "marketable": true,
    "commodity": false,
    "drop_interval": 0,
    "drop_max_per_window": 0,
    "workshopid": "0"
  },
  {
    "appid": "531960",
    "itemdefid": "11",
    "Timestamp": "2019-02-27T18:59:29Z",
    "modified": "20190227T185929Z",
    "date_created": "20190227T185929Z",
    "type": "item",
    "display_type": "",
    "name": "1$",
    "price": "1;VLV100",
    "quantity": 0,
    "description": "Thank you!",
    "icon_url": "http://www.f0-games.com/items/item_12.png",
    "icon_url_large": "http://www.f0-games.com/items/item_12_big.png",
    "store_tags": "support,donate",
    "tradable": true,
    "marketable": true,
    "commodity": false,
    "drop_interval": 0,
    "drop_max_per_window": 0,
    "workshopid": "0"
  },
  {
    "appid": "531960",
    "itemdefid": "200",
    "Timestamp": "2019-02-27T18:59:52Z",
    "modified": "20190227T185952Z",
    "date_created": "20190227T185952Z",
    "type": "item",
    "display_type": "",
    "name": "20$",
    "price": "1;VLV2000",
    "quantity": 0,
    "description": "Thank you so much! May the force be with you.)))",
    "icon_url": "http://www.f0-games.com/items/item_05.png",
    "icon_url_large": "http://www.f0-games.com/items/item_05_big.png",
    "store_tags": "support,donate",
    "tradable": true,
    "marketable": true,
    "commodity": false,
    "drop_interval": 0,
    "drop_max_per_window": 0,
    "workshopid": "0"
  },
  {
    "appid": "531960",
    "itemdefid": "30",
    "Timestamp": "2019-02-27T18:57:56Z",
    "modified": "20190227T185756Z",
    "date_created": "20190227T185756Z",
    "type": "item",
    "display_type": "",
    "name": "3$",
    "price": "1;VLV300",
    "quantity": 0,
    "description": "Many thanks!",
    "icon_url": "http://www.f0-games.com/items/item_02.png",
    "icon_url_large": "http://www.f0-games.com/items/item_02_big.png",
    "store_tags": "support,donate",
    "tradable": true,
    "marketable": true,
    "commodity": false,
    "drop_interval": 0,
    "drop_max_per_window": 0,
    "workshopid": "0"
  },
  {
    "appid": "531960",
    "itemdefid": "50",
    "Timestamp": "2019-02-27T18:57:56Z",
    "modified": "20190227T185756Z",
    "date_created": "20190227T185756Z",
    "type": "item",
    "display_type": "",
    "name": "5$",
    "price": "1;VLV500",
    "quantity": 0,
    "description": "Thank you so much!",
    "icon_url": "http://www.f0-games.com/items/item_03.png",
    "icon_url_large": "http://www.f0-games.com/items/item_03_big.png",
    "store_tags": "support,donate",
    "tradable": true,
    "marketable": true,
    "commodity": false,
    "drop_interval": 0,
    "drop_max_per_window": 0,
    "workshopid": "0"
  },
  {
    "appid": "531960",
    "itemdefid": "60",
    "Timestamp": "2019-02-27T18:57:56Z",
    "modified": "20190227T185756Z",
    "date_created": "20190227T185756Z",
    "type": "item",
    "display_type": "",
    "name": "7$",
    "price": "1;VLV700",
    "quantity": 0,
    "description": "That can not be! Thank you so much!",
    "icon_url": "http://www.f0-games.com/items/item_07.png",
    "icon_url_large": "http://www.f0-games.com/items/item_07_big.png",
    "store_tags": "support,donate",
    "tradable": true,
    "marketable": true,
    "commodity": false,
    "drop_interval": 0,
    "drop_max_per_window": 0,
    "workshopid": "0"
  },
  {
    "appid": "531960",
    "itemdefid": "70",
    "Timestamp": "2019-02-27T18:57:56Z",
    "modified": "20190227T185756Z",
    "date_created": "20190227T185756Z",
    "type": "item",
    "display_type": "",
    "name": "15$",
    "price": "1;VLV1500",
    "quantity": 0,
    "description": "Thank you so much! May the force be with you.)))",
    "icon_url": "http://www.f0-games.com/items/item_06.png",
    "icon_url_large": "http://www.f0-games.com/items/item_06_big.png",
    "store_tags": "support,donate",
    "tradable": true,
    "marketable": true,
    "commodity": false,
    "drop_interval": 0,
    "drop_max_per_window": 0,
    "workshopid": "0"
  }
]