﻿{
  "Dlcs": {},
  "Name": "Alpha/Omega: The Christian RPG",
  "AppId": "781310",
  "ImageUrl": "https://steamcdn-a.akamaihd.net/steam/apps/781310/header.jpg?t=1591296571",
  "Languages": [
    "english"
  ],
  "Platforms": {
    "windows": true,
    "mac": false,
    "linux": false
  }
}