﻿{
  "Dlcs": {},
  "Name": "Invasion: Brain Craving",
  "AppId": "423710",
  "ImageUrl": "https://steamcdn-a.akamaihd.net/steam/apps/423710/header.jpg?t=1466627030",
  "Languages": [
    "english"
  ],
  "Platforms": {
    "windows": true,
    "mac": false,
    "linux": false
  }
}