﻿{
  "Dlcs": {},
  "Name": "RUSH",
  "AppId": "38720",
  "ImageUrl": "https://steamcdn-a.akamaihd.net/steam/apps/38720/header.jpg?t=1488470929",
  "Languages": [
    "dutch",
    "english",
    "french",
    "german",
    "italian",
    "spanish"
  ],
  "Platforms": {
    "windows": true,
    "mac": true,
    "linux": true
  }
}