﻿[
  {
    "name": "ACH_0",
    "defaultvalue": 0,
    "displayName": "The Result of Previous Training",
    "hidden": 0,
    "description": "Complete Freeform Training in the Prologue.",
    "icon": "https://steamcdn-a.akamaihd.net/steamcommunity/public/images/apps/863550/3cc5c24225219111957cf2e04dfd72a5fb96a0f5.jpg",
    "icongray": "https://steamcdn-a.akamaihd.net/steamcommunity/public/images/apps/863550/89d35dd342bec21222701ba06fb9c60cd186180e.jpg"
  },
  {
    "name": "ACH_1",
    "defaultvalue": 0,
    "displayName": "Cleared for Field Duty",
    "hidden": 0,
    "description": "Complete The Final Test in the Prologue.",
    "icon": "https://steamcdn-a.akamaihd.net/steamcommunity/public/images/apps/863550/d3751d40b768867cc989153204e3ffb826d242bb.jpg",
    "icongray": "https://steamcdn-a.akamaihd.net/steamcommunity/public/images/apps/863550/3d1efc77644a0b49f745ebe731adf897e172f8f9.jpg"
  },
  {
    "name": "ACH_2",
    "defaultvalue": 0,
    "displayName": "Seizing the Opportunity",
    "hidden": 0,
    "description": "Complete any Mission Story in The Final Test.",
    "icon": "https://steamcdn-a.akamaihd.net/steamcommunity/public/images/apps/863550/ed61a425beb7509ac5cc198d31cb6c2afc39a128.jpg",
    "icongray": "https://steamcdn-a.akamaihd.net/steamcommunity/public/images/apps/863550/d81caf676ee9e8d38b94b46171d024fe81949ab8.jpg"
  },
  {
    "name": "ACH_3",
    "defaultvalue": 0,
    "displayName": "The Creative Assassin",
    "hidden": 0,
    "description": "Complete the Contract Creation Tutorial.",
    "icon": "https://steamcdn-a.akamaihd.net/steamcommunity/public/images/apps/863550/d5ea0a8dddedb2f76fa223c0b02fd301a245c07f.jpg",
    "icongray": "https://steamcdn-a.akamaihd.net/steamcommunity/public/images/apps/863550/818f59931c5d4c01f80d3a9cdf0206f07acdb8b1.jpg"
  },
  {
    "name": "ACH_4",
    "defaultvalue": 0,
    "displayName": "Unexpected Guest",
    "hidden": 1,
    "icon": "https://steamcdn-a.akamaihd.net/steamcommunity/public/images/apps/863550/8d11d7fc634047c4089b777678623af3173b3302.jpg",
    "icongray": "https://steamcdn-a.akamaihd.net/steamcommunity/public/images/apps/863550/e140d19dd8bc87e837138e83cf08497f4798e44d.jpg"
  },
  {
    "name": "ACH_5",
    "defaultvalue": 0,
    "displayName": "K-36D",
    "hidden": 1,
    "icon": "https://steamcdn-a.akamaihd.net/steamcommunity/public/images/apps/863550/c7b6b1e4f8498ccbd055adb4cb4d999e1e540e76.jpg",
    "icongray": "https://steamcdn-a.akamaihd.net/steamcommunity/public/images/apps/863550/1ba369073d92f99b48054e7a975d1d19a7706063.jpg"
  },
  {
    "name": "ACH_6",
    "defaultvalue": 0,
    "displayName": "Defection Deterred",
    "hidden": 1,
    "icon": "https://steamcdn-a.akamaihd.net/steamcommunity/public/images/apps/863550/4c7b9bc6dc5202d84f7c854cbafa8ebfbf9dda6e.jpg",
    "icongray": "https://steamcdn-a.akamaihd.net/steamcommunity/public/images/apps/863550/4287b9c11e425ae9e53ce81e8b8a3b6517dbc918.jpg"
  },
  {
    "name": "ACH_7",
    "defaultvalue": 0,
    "displayName": "Silent Assassin",
    "hidden": 0,
    "description": "Complete The Final Test unspotted. Kill only Jasper Knight, ensuring his body is not found.",
    "icon": "https://steamcdn-a.akamaihd.net/steamcommunity/public/images/apps/863550/cef66a5b3241e1fe0ceda4ca2d9354bfed607973.jpg",
    "icongray": "https://steamcdn-a.akamaihd.net/steamcommunity/public/images/apps/863550/1651174890e3f1d00558405c686b02db8f8ba00b.jpg"
  },
  {
    "name": "ACH_8",
    "defaultvalue": 0,
    "displayName": "Security Defeated",
    "hidden": 0,
    "description": "Arrange matters so that a guard finds a discarded weapon and moves it into the hangar.",
    "icon": "https://steamcdn-a.akamaihd.net/steamcommunity/public/images/apps/863550/98ac6342cc04f52e3a196350b285c38ef663878d.jpg",
    "icongray": "https://steamcdn-a.akamaihd.net/steamcommunity/public/images/apps/863550/e31d6518b38c72c6dcbcf3ccea39b9e423e110cd.jpg"
  },
  {
    "name": "ACH_9",
    "defaultvalue": 0,
    "displayName": "Chameleon",
    "hidden": 0,
    "description": "Change your disguise during The Final Test.",
    "icon": "https://steamcdn-a.akamaihd.net/steamcommunity/public/images/apps/863550/bb889e504ede2caa6ab71e0345bda1b78f0b61ee.jpg",
    "icongray": "https://steamcdn-a.akamaihd.net/steamcommunity/public/images/apps/863550/4446bea006e0c1fc3ed96ea644bd8e9ece208803.jpg"
  },
  {
    "name": "ACH_10",
    "defaultvalue": 0,
    "displayName": "Training Escalated",
    "hidden": 0,
    "description": "Complete Level 5 of an Escalation Contract set in the ICA Facility.",
    "icon": "https://steamcdn-a.akamaihd.net/steamcommunity/public/images/apps/863550/760defd86c703cc2f357b0f8937ff07644c760e4.jpg",
    "icongray": "https://steamcdn-a.akamaihd.net/steamcommunity/public/images/apps/863550/5b578a077c0ba758fab4e540a3f947db009d0e82.jpg"
  },
  {
    "name": "ACH_11",
    "defaultvalue": 0,
    "displayName": "Contract Assassin",
    "hidden": 0,
    "description": "Complete 10 Contracts.",
    "icon": "https://steamcdn-a.akamaihd.net/steamcommunity/public/images/apps/863550/3d94957f8ac5fe7201bc99ced0d8f00da52e7198.jpg",
    "icongray": "https://steamcdn-a.akamaihd.net/steamcommunity/public/images/apps/863550/e00571608e742609523e90442d286c3e47b6114e.jpg"
  },
  {
    "name": "ACH_12",
    "defaultvalue": 0,
    "displayName": "Top of the Class",
    "hidden": 0,
    "description": "Set the high score on a Contract.",
    "icon": "https://steamcdn-a.akamaihd.net/steamcommunity/public/images/apps/863550/47db23503efedc4c47c07f7e330a3d1f6d0dea81.jpg",
    "icongray": "https://steamcdn-a.akamaihd.net/steamcommunity/public/images/apps/863550/c284191b8d5e5234f29a76c4fb4503dea6bd2f2c.jpg"
  },
  {
    "name": "ACH_13",
    "defaultvalue": 0,
    "displayName": "A New Profile",
    "hidden": 0,
    "description": "Complete a Featured Contract.",
    "icon": "https://steamcdn-a.akamaihd.net/steamcommunity/public/images/apps/863550/0293588632c6569f7e1579e04799b9cd22440362.jpg",
    "icongray": "https://steamcdn-a.akamaihd.net/steamcommunity/public/images/apps/863550/7abd2cf99cf70ad78b2b38ea50b9d0f8dc663a49.jpg"
  },
  {
    "name": "ACH_14",
    "defaultvalue": 0,
    "displayName": "Shhhh",
    "hidden": 1,
    "icon": "https://steamcdn-a.akamaihd.net/steamcommunity/public/images/apps/863550/fda46d357d4b4f7a1499c3f0e3ac745f318749da.jpg",
    "icongray": "https://steamcdn-a.akamaihd.net/steamcommunity/public/images/apps/863550/ed3343eabe409fa2c499da59d74d0f2bcb7c3e18.jpg"
  },
  {
    "name": "ACH_15",
    "defaultvalue": 0,
    "displayName": "Tools of the Trade",
    "hidden": 0,
    "description": "Assassinate Targets with Ballistic, Accident and Explosion Kills.",
    "icon": "https://steamcdn-a.akamaihd.net/steamcommunity/public/images/apps/863550/0ea1312996889dff981a3f88bdbda97c6a7ca2b0.jpg",
    "icongray": "https://steamcdn-a.akamaihd.net/steamcommunity/public/images/apps/863550/a3ba47555d0417f4757a6bb75783bf2e4252a761.jpg"
  },
  {
    "name": "ACH_16",
    "defaultvalue": 0,
    "displayName": "Unseen Assassin",
    "hidden": 0,
    "description": "Assassinate a Target without getting spotted.",
    "icon": "https://steamcdn-a.akamaihd.net/steamcommunity/public/images/apps/863550/8de5803249ba38160685aebea10488f562f2275e.jpg",
    "icongray": "https://steamcdn-a.akamaihd.net/steamcommunity/public/images/apps/863550/ded3d77edc8b5d98d2f41bb44885497d55e0400c.jpg"
  },
  {
    "name": "ACH_17",
    "defaultvalue": 0,
    "displayName": "Infiltrator",
    "hidden": 0,
    "description": "Complete Nightcall.",
    "icon": "https://steamcdn-a.akamaihd.net/steamcommunity/public/images/apps/863550/a2c87db6951d1298a5e79f173e47327b44a79651.jpg",
    "icongray": "https://steamcdn-a.akamaihd.net/steamcommunity/public/images/apps/863550/ae37bb65fb34341a36770f7b92b5370ff6aa66a2.jpg"
  },
  {
    "name": "ACH_18",
    "defaultvalue": 0,
    "displayName": "House Cleaning",
    "hidden": 1,
    "icon": "https://steamcdn-a.akamaihd.net/steamcommunity/public/images/apps/863550/b4912a3b514114cc262e066d8a874c9b0b7e7eaa.jpg",
    "icongray": "https://steamcdn-a.akamaihd.net/steamcommunity/public/images/apps/863550/87870b472b59d138e51d044f60f088d53dfb8bde.jpg"
  },
  {
    "name": "ACH_19",
    "defaultvalue": 0,
    "displayName": "Blunt Trauma",
    "hidden": 1,
    "icon": "https://steamcdn-a.akamaihd.net/steamcommunity/public/images/apps/863550/b3fbf5b987f42bbedbec6d666e9a6b88444d4fd2.jpg",
    "icongray": "https://steamcdn-a.akamaihd.net/steamcommunity/public/images/apps/863550/3f8083889d8e6178381f93bad5a00cc2357f4ae7.jpg"
  },
  {
    "name": "ACH_20",
    "defaultvalue": 0,
    "displayName": "Completionist",
    "hidden": 0,
    "description": "Complete all Nightcall Challenges.",
    "icon": "https://steamcdn-a.akamaihd.net/steamcommunity/public/images/apps/863550/9e62fca0df47865fe09d41f3301e8cc2686cd207.jpg",
    "icongray": "https://steamcdn-a.akamaihd.net/steamcommunity/public/images/apps/863550/f13b374a9c706cee7c248d6cd708360d38d17c87.jpg"
  },
  {
    "name": "ACH_21",
    "defaultvalue": 0,
    "displayName": "Strategic Disadvantage",
    "hidden": 0,
    "description": "Complete Nightcall on Master Difficulty.",
    "icon": "https://steamcdn-a.akamaihd.net/steamcommunity/public/images/apps/863550/33289cf10edd8fa4181ef628ae05783f38d1e028.jpg",
    "icongray": "https://steamcdn-a.akamaihd.net/steamcommunity/public/images/apps/863550/349e6701e67b494eafab149a0e1e710cc026ae81.jpg"
  },
  {
    "name": "ACH_22",
    "defaultvalue": 0,
    "displayName": "Come Prepared",
    "hidden": 0,
    "description": "Select a Starting Location and use an Agency Pickup to smuggle an item into Hawke's Bay.",
    "icon": "https://steamcdn-a.akamaihd.net/steamcommunity/public/images/apps/863550/d1161da9d4d18c5f2959c0e3cb36da7864e63c7d.jpg",
    "icongray": "https://steamcdn-a.akamaihd.net/steamcommunity/public/images/apps/863550/1908cb0626a2d5448bdd153a87527c56adc650a0.jpg"
  },
  {
    "name": "ACH_23",
    "defaultvalue": 0,
    "displayName": "Local Knowledge",
    "hidden": 0,
    "description": "Reach Hawke's Bay Mastery Level 5.",
    "icon": "https://steamcdn-a.akamaihd.net/steamcommunity/public/images/apps/863550/f3632c121a02b20eb3a48d4ca9d25e80ca680037.jpg",
    "icongray": "https://steamcdn-a.akamaihd.net/steamcommunity/public/images/apps/863550/adbbf24d12dbceb889ef68158314fddc030baedd.jpg"
  },
  {
    "name": "ACH_24",
    "defaultvalue": 0,
    "displayName": "Damage Control",
    "hidden": 0,
    "description": "Complete The Finish Line.",
    "icon": "https://steamcdn-a.akamaihd.net/steamcommunity/public/images/apps/863550/a67a5e181261d6b771c417e83c69b4cfd2b0bb21.jpg",
    "icongray": "https://steamcdn-a.akamaihd.net/steamcommunity/public/images/apps/863550/bdcc63033add2161d890a8ec2482d39c2e1f32c5.jpg"
  },
  {
    "name": "ACH_25",
    "defaultvalue": 0,
    "displayName": "Blaze of Glory",
    "hidden": 1,
    "icon": "https://steamcdn-a.akamaihd.net/steamcommunity/public/images/apps/863550/6314aec5ef923024f84009a5f255a10cd026ef92.jpg",
    "icongray": "https://steamcdn-a.akamaihd.net/steamcommunity/public/images/apps/863550/5dc9e0079ae8506f86c35dc822706af51516ff17.jpg"
  },
  {
    "name": "ACH_26",
    "defaultvalue": 0,
    "displayName": "Pink Army",
    "hidden": 1,
    "icon": "https://steamcdn-a.akamaihd.net/steamcommunity/public/images/apps/863550/a9158f9ce47cc33a39f63902d48decae8497dc1c.jpg",
    "icongray": "https://steamcdn-a.akamaihd.net/steamcommunity/public/images/apps/863550/ee968de6176d9761c89a76ae69853806f1ce2fe1.jpg"
  },
  {
    "name": "ACH_27",
    "defaultvalue": 0,
    "displayName": "Full Value",
    "hidden": 0,
    "description": "Complete all Mission Stories in The Finish Line.",
    "icon": "https://steamcdn-a.akamaihd.net/steamcommunity/public/images/apps/863550/77a5d89aaecfc56f7ceae98b3bf11e378b600aec.jpg",
    "icongray": "https://steamcdn-a.akamaihd.net/steamcommunity/public/images/apps/863550/b865f65f7facfe1678f9d5a3716d447fb3a49cfa.jpg"
  },
  {
    "name": "ACH_28",
    "defaultvalue": 0,
    "displayName": "Showrunner",
    "hidden": 0,
    "description": "Complete The Finish Line on Master Difficulty.",
    "icon": "https://steamcdn-a.akamaihd.net/steamcommunity/public/images/apps/863550/3bf5df90d4626f44b93606a4798ececa10cdd605.jpg",
    "icongray": "https://steamcdn-a.akamaihd.net/steamcommunity/public/images/apps/863550/9d3ff0694701e2fef05215923affe0b3fade1146.jpg"
  },
  {
    "name": "ACH_29",
    "defaultvalue": 0,
    "displayName": "Event Planner",
    "hidden": 0,
    "description": "Select a Starting Location and use an Agency Pickup to smuggle an item into Miami.",
    "icon": "https://steamcdn-a.akamaihd.net/steamcommunity/public/images/apps/863550/0a380010da475fd39310ac75abbba3201141386e.jpg",
    "icongray": "https://steamcdn-a.akamaihd.net/steamcommunity/public/images/apps/863550/713ced809d78d0c1b293dd5625b0141953fa7073.jpg"
  },
  {
    "name": "ACH_30",
    "defaultvalue": 0,
    "displayName": "Miami Wise",
    "hidden": 0,
    "description": "Reach Miami Mastery Level 20.",
    "icon": "https://steamcdn-a.akamaihd.net/steamcommunity/public/images/apps/863550/42660dd41145eefeb371132805ab12233db6a78b.jpg",
    "icongray": "https://steamcdn-a.akamaihd.net/steamcommunity/public/images/apps/863550/1f84e064e2fedb0f4a82900252f430e7a8793166.jpg"
  },
  {
    "name": "ACH_31",
    "defaultvalue": 0,
    "displayName": "Tactical Strike",
    "hidden": 0,
    "description": "Complete Three-Headed Serpent.",
    "icon": "https://steamcdn-a.akamaihd.net/steamcommunity/public/images/apps/863550/5708518bdfccbf402c1a94641172d0d0c5086277.jpg",
    "icongray": "https://steamcdn-a.akamaihd.net/steamcommunity/public/images/apps/863550/2326c67186482f2b608a45009dd551e75b1b8949.jpg"
  },
  {
    "name": "ACH_32",
    "defaultvalue": 0,
    "displayName": "Cartel Wrecker",
    "hidden": 1,
    "icon": "https://steamcdn-a.akamaihd.net/steamcommunity/public/images/apps/863550/374712241204b9267c3c446e8dd2376f171e6c37.jpg",
    "icongray": "https://steamcdn-a.akamaihd.net/steamcommunity/public/images/apps/863550/cadf41cddf0a5bcbed1c7e9f156cdd8f7b971f68.jpg"
  },
  {
    "name": "ACH_33",
    "defaultvalue": 0,
    "displayName": "It Belongs in a Museum",
    "hidden": 1,
    "icon": "https://steamcdn-a.akamaihd.net/steamcommunity/public/images/apps/863550/6403aa5a57ffe9ef393c7eaed5dc7ca562ef9d49.jpg",
    "icongray": "https://steamcdn-a.akamaihd.net/steamcommunity/public/images/apps/863550/837e8fea6493aed0f4c18fff00f9c8be879b3553.jpg"
  },
  {
    "name": "ACH_34",
    "defaultvalue": 0,
    "displayName": "Heads Will Roll",
    "hidden": 0,
    "description": "Complete all Mission Stories in Three-Headed Serpent.",
    "icon": "https://steamcdn-a.akamaihd.net/steamcommunity/public/images/apps/863550/10f029cb5f4d10d1c3f9efa699ce88460f62ad2f.jpg",
    "icongray": "https://steamcdn-a.akamaihd.net/steamcommunity/public/images/apps/863550/1783d6603d3a8d790ca7e44e1368ddcc86740075.jpg"
  },
  {
    "name": "ACH_35",
    "defaultvalue": 0,
    "displayName": "Ghost of the Jungle",
    "hidden": 0,
    "description": "Complete Three-Headed Serpent on Master Difficulty.",
    "icon": "https://steamcdn-a.akamaihd.net/steamcommunity/public/images/apps/863550/82c8d4bae12e6d92e2c87d6b12bf7533339c7cdc.jpg",
    "icongray": "https://steamcdn-a.akamaihd.net/steamcommunity/public/images/apps/863550/159e27077b5c45c3242e80151909ba31adc72a46.jpg"
  },
  {
    "name": "ACH_36",
    "defaultvalue": 0,
    "displayName": "Recon Specialist",
    "hidden": 0,
    "description": "Select a Starting Location and use an Agency Pickup to smuggle an item into Santa Fortuna.",
    "icon": "https://steamcdn-a.akamaihd.net/steamcommunity/public/images/apps/863550/e5efbca031e50422f52e3300d17a5b065782c870.jpg",
    "icongray": "https://steamcdn-a.akamaihd.net/steamcommunity/public/images/apps/863550/18a434061b0177ccf17d603edcbb2ac59e3e0202.jpg"
  },
  {
    "name": "ACH_37",
    "defaultvalue": 0,
    "displayName": "Dark Tourist",
    "hidden": 0,
    "description": "Reach Santa Fortuna Mastery Level 20.",
    "icon": "https://steamcdn-a.akamaihd.net/steamcommunity/public/images/apps/863550/346ec4cf247db6b197e89600789afedf6a808baa.jpg",
    "icongray": "https://steamcdn-a.akamaihd.net/steamcommunity/public/images/apps/863550/efd1544b45712678c261459db0676089d9cdb3ab.jpg"
  },
  {
    "name": "ACH_38",
    "defaultvalue": 0,
    "displayName": "Pirate Hunter",
    "hidden": 0,
    "description": "Complete Chasing a Ghost.",
    "icon": "https://steamcdn-a.akamaihd.net/steamcommunity/public/images/apps/863550/abc875a3b1c842b11b6d7607be0ffe9251f6b3b1.jpg",
    "icongray": "https://steamcdn-a.akamaihd.net/steamcommunity/public/images/apps/863550/c902592539c4618260a28ebe4472a55ee9f1b2f6.jpg"
  },
  {
    "name": "ACH_39",
    "defaultvalue": 0,
    "displayName": "Cleaning the Streets",
    "hidden": 1,
    "icon": "https://steamcdn-a.akamaihd.net/steamcommunity/public/images/apps/863550/91586aaef404e064eef920087f440cbdaaca0603.jpg",
    "icongray": "https://steamcdn-a.akamaihd.net/steamcommunity/public/images/apps/863550/5450ba776d6ea7988ca86685f601e0dd44cb276e.jpg"
  },
  {
    "name": "ACH_40",
    "defaultvalue": 0,
    "displayName": "Babyface",
    "hidden": 1,
    "icon": "https://steamcdn-a.akamaihd.net/steamcommunity/public/images/apps/863550/9dab6125c961c84b0137e8c43a46b06dbe704e19.jpg",
    "icongray": "https://steamcdn-a.akamaihd.net/steamcommunity/public/images/apps/863550/01f7c80c1c6b41896e937d50d201e5842555cba1.jpg"
  },
  {
    "name": "ACH_41",
    "defaultvalue": 0,
    "displayName": "Busy Schedule",
    "hidden": 0,
    "description": "Complete all Mission Stories in Chasing a Ghost.",
    "icon": "https://steamcdn-a.akamaihd.net/steamcommunity/public/images/apps/863550/4ecf67ddfc15999ab856e0d23146ffdf0adfd65a.jpg",
    "icongray": "https://steamcdn-a.akamaihd.net/steamcommunity/public/images/apps/863550/afeb35d82fe88006166ec5295b7f8e90e7128184.jpg"
  },
  {
    "name": "ACH_42",
    "defaultvalue": 0,
    "displayName": "Street Smart",
    "hidden": 0,
    "description": "Complete Chasing a Ghost on Master Difficulty.",
    "icon": "https://steamcdn-a.akamaihd.net/steamcommunity/public/images/apps/863550/83f1de5d340cd02fe15a35b7bae53312f2960eaa.jpg",
    "icongray": "https://steamcdn-a.akamaihd.net/steamcommunity/public/images/apps/863550/d53d27d68b0ba6d1f88a7c0e0d1bfed54f126e0b.jpg"
  },
  {
    "name": "ACH_43",
    "defaultvalue": 0,
    "displayName": "Urban Planner",
    "hidden": 0,
    "description": "Select a Starting Location and use an Agency Pickup to smuggle an item into Mumbai.",
    "icon": "https://steamcdn-a.akamaihd.net/steamcommunity/public/images/apps/863550/338d95f2415b2ae99eb545c693a2a2e272de0281.jpg",
    "icongray": "https://steamcdn-a.akamaihd.net/steamcommunity/public/images/apps/863550/c6b5c623ba55e990f12028781f25627bc3108e45.jpg"
  },
  {
    "name": "ACH_44",
    "defaultvalue": 0,
    "displayName": "Keys to the City",
    "hidden": 0,
    "description": "Reach Mumbai Mastery Level 20.",
    "icon": "https://steamcdn-a.akamaihd.net/steamcommunity/public/images/apps/863550/d2f596a99b46b93fdeecb8de8d475920037df81a.jpg",
    "icongray": "https://steamcdn-a.akamaihd.net/steamcommunity/public/images/apps/863550/9906ac6fd5ef9cdc0e7d33b0531044fe6a0b126a.jpg"
  },
  {
    "name": "ACH_45",
    "defaultvalue": 0,
    "displayName": "Long Shot",
    "hidden": 0,
    "description": "Complete Another Life.",
    "icon": "https://steamcdn-a.akamaihd.net/steamcommunity/public/images/apps/863550/4017e54423dfff99ca35685264798d5502e604e8.jpg",
    "icongray": "https://steamcdn-a.akamaihd.net/steamcommunity/public/images/apps/863550/d1e0c45b748ab37054426f79708fd2d928046bf9.jpg"
  },
  {
    "name": "ACH_46",
    "defaultvalue": 0,
    "displayName": "Domestic Accidents",
    "hidden": 1,
    "icon": "https://steamcdn-a.akamaihd.net/steamcommunity/public/images/apps/863550/8bf72303a9d2908389d918fc4bc6a9b53f876d87.jpg",
    "icongray": "https://steamcdn-a.akamaihd.net/steamcommunity/public/images/apps/863550/d3a154e1624c07ed43260207899b1e8288e687bb.jpg"
  },
  {
    "name": "ACH_47",
    "defaultvalue": 0,
    "displayName": "Slow Travel",
    "hidden": 1,
    "icon": "https://steamcdn-a.akamaihd.net/steamcommunity/public/images/apps/863550/023747ef93d35b7adb63191f9bd58fc598a67c51.jpg",
    "icongray": "https://steamcdn-a.akamaihd.net/steamcommunity/public/images/apps/863550/53df2f121c3d9b314f7da8bd13fc4fd7e19711b6.jpg"
  },
  {
    "name": "ACH_48",
    "defaultvalue": 0,
    "displayName": "There Goes the Neighborhood",
    "hidden": 0,
    "description": "Complete all Mission Stories in Another Life.",
    "icon": "https://steamcdn-a.akamaihd.net/steamcommunity/public/images/apps/863550/276b3b64040a5cfaa9d824b4651a32ee658110f0.jpg",
    "icongray": "https://steamcdn-a.akamaihd.net/steamcommunity/public/images/apps/863550/82529b6d8468b601c9fe67b74d51da7e0347b3c6.jpg"
  },
  {
    "name": "ACH_49",
    "defaultvalue": 0,
    "displayName": "Perfect Crime",
    "hidden": 0,
    "description": "Complete Another Life on Master Difficulty.",
    "icon": "https://steamcdn-a.akamaihd.net/steamcommunity/public/images/apps/863550/743e8579e1c43b815a0a45ac6597090da943da60.jpg",
    "icongray": "https://steamcdn-a.akamaihd.net/steamcommunity/public/images/apps/863550/b597e64510869086b2136be5d5e6245ace2a0790.jpg"
  },
  {
    "name": "ACH_50",
    "defaultvalue": 0,
    "displayName": "Community Planner",
    "hidden": 0,
    "description": "Select a Starting Location and use an Agency Pickup to smuggle an item into Whittleton Creek.",
    "icon": "https://steamcdn-a.akamaihd.net/steamcommunity/public/images/apps/863550/9c391f02c7f4098e24c54c1b80cb52b3fef1e73a.jpg",
    "icongray": "https://steamcdn-a.akamaihd.net/steamcommunity/public/images/apps/863550/07a5d5c330a29314ccb21100142306033fe17967.jpg"
  },
  {
    "name": "ACH_51",
    "defaultvalue": 0,
    "displayName": "Pillar of the Community",
    "hidden": 0,
    "description": "Reach Whittleton Creek Mastery Level 15.",
    "icon": "https://steamcdn-a.akamaihd.net/steamcommunity/public/images/apps/863550/d1a28e40e61d4655e975de4d8c8d13fc410a5d70.jpg",
    "icongray": "https://steamcdn-a.akamaihd.net/steamcommunity/public/images/apps/863550/0892f88586a9e98133a2537bed271a56f3c4cb67.jpg"
  },
  {
    "name": "ACH_52",
    "defaultvalue": 0,
    "displayName": "This is Maintenance",
    "hidden": 0,
    "description": "Complete The Ark Society.",
    "icon": "https://steamcdn-a.akamaihd.net/steamcommunity/public/images/apps/863550/08776a197d5311a1d5b265b84578fcb00e6bd420.jpg",
    "icongray": "https://steamcdn-a.akamaihd.net/steamcommunity/public/images/apps/863550/d155a936c48f7f06e48b3310a13b4195e009186c.jpg"
  },
  {
    "name": "ACH_53",
    "defaultvalue": 0,
    "displayName": "Doing the Rounds",
    "hidden": 1,
    "icon": "https://steamcdn-a.akamaihd.net/steamcommunity/public/images/apps/863550/097f0a716235ec083fbfbeca365bfe80293b8be7.jpg",
    "icongray": "https://steamcdn-a.akamaihd.net/steamcommunity/public/images/apps/863550/d3b84b7b65ca2714d5d3293d02557faacbb9253d.jpg"
  },
  {
    "name": "ACH_54",
    "defaultvalue": 0,
    "displayName": "Leap of Faith",
    "hidden": 1,
    "icon": "https://steamcdn-a.akamaihd.net/steamcommunity/public/images/apps/863550/47d49f97bcecae7f043fe7ce3717ecbf53c76c3c.jpg",
    "icongray": "https://steamcdn-a.akamaihd.net/steamcommunity/public/images/apps/863550/a557dbbd3e53a28a43632bf1dd9050e5cdb87187.jpg"
  },
  {
    "name": "ACH_55",
    "defaultvalue": 0,
    "displayName": "Anti-Survivalist",
    "hidden": 0,
    "description": "Complete all Mission Stories in The Ark Society.",
    "icon": "https://steamcdn-a.akamaihd.net/steamcommunity/public/images/apps/863550/c8cdfca865fd6a063d545d738cab32f43d6c635f.jpg",
    "icongray": "https://steamcdn-a.akamaihd.net/steamcommunity/public/images/apps/863550/2473f1efbd736abd9f1da4a405df90d389c31a65.jpg"
  },
  {
    "name": "ACH_56",
    "defaultvalue": 0,
    "displayName": "Power Player",
    "hidden": 0,
    "description": "Complete The Ark Society on Master Difficulty.",
    "icon": "https://steamcdn-a.akamaihd.net/steamcommunity/public/images/apps/863550/95015ed1d5affc8ceb63285227015770b10550a2.jpg",
    "icongray": "https://steamcdn-a.akamaihd.net/steamcommunity/public/images/apps/863550/fa5fbe4d706424b435cd05a2ce5c9bacc716d83f.jpg"
  },
  {
    "name": "ACH_57",
    "defaultvalue": 0,
    "displayName": "Party Planner",
    "hidden": 0,
    "description": "Select a Starting Location and use an Agency Pickup to smuggle an item into Isle of Sgàil.",
    "icon": "https://steamcdn-a.akamaihd.net/steamcommunity/public/images/apps/863550/145d30a9c4a3f8523535ed7a1f8802787bfe010b.jpg",
    "icongray": "https://steamcdn-a.akamaihd.net/steamcommunity/public/images/apps/863550/3fc546b5504ba92ae386a2ba49f96fcccb82fcdd.jpg"
  },
  {
    "name": "ACH_58",
    "defaultvalue": 0,
    "displayName": "Honorary Member",
    "hidden": 0,
    "description": "Reach Isle of Sgàil Mastery Level 20.",
    "icon": "https://steamcdn-a.akamaihd.net/steamcommunity/public/images/apps/863550/b7cf2d44c76a512a4ea0e3184f54fb497a5182fd.jpg",
    "icongray": "https://steamcdn-a.akamaihd.net/steamcommunity/public/images/apps/863550/94527736c71103d801d6433964bf9dfe9ccda93c.jpg"
  },
  {
    "name": "ACH_59",
    "defaultvalue": 0,
    "displayName": "Peak Performance",
    "hidden": 0,
    "description": "Get a score above 1,000,000 points on The Last Yardbird.",
    "icon": "https://steamcdn-a.akamaihd.net/steamcommunity/public/images/apps/863550/35f7e9e975f226dad67ec0bf54cca389551eff9f.jpg",
    "icongray": "https://steamcdn-a.akamaihd.net/steamcommunity/public/images/apps/863550/5b78aab13c37af2896981ca66360c884a7db0700.jpg"
  },
  {
    "name": "ACH_60",
    "defaultvalue": 0,
    "displayName": "Cannon Fodder",
    "hidden": 1,
    "icon": "https://steamcdn-a.akamaihd.net/steamcommunity/public/images/apps/863550/619aa944014aeada0c13b3316a34b2716b0574a6.jpg",
    "icongray": "https://steamcdn-a.akamaihd.net/steamcommunity/public/images/apps/863550/d800783398956e481876585eda4dfc09bf473c02.jpg"
  },
  {
    "name": "ACH_61",
    "defaultvalue": 0,
    "displayName": "Party-pooper",
    "hidden": 1,
    "icon": "https://steamcdn-a.akamaihd.net/steamcommunity/public/images/apps/863550/21e4ca3ac244722ab656b008f59c88d0a931f652.jpg",
    "icongray": "https://steamcdn-a.akamaihd.net/steamcommunity/public/images/apps/863550/755608791cf1a31fe3bf73a94d752776eed7b2b9.jpg"
  },
  {
    "name": "ACH_62",
    "defaultvalue": 0,
    "displayName": "Lone Wolf",
    "hidden": 0,
    "description": "Complete The Last Yardbird in Single Player.",
    "icon": "https://steamcdn-a.akamaihd.net/steamcommunity/public/images/apps/863550/3029ea8c26752211dc52ef7131a22268e7fde131.jpg",
    "icongray": "https://steamcdn-a.akamaihd.net/steamcommunity/public/images/apps/863550/1b2eb99f9493233837e735d6eedaf684bde81aa0.jpg"
  },
  {
    "name": "ACH_63",
    "defaultvalue": 0,
    "displayName": "Silent Sniper",
    "hidden": 0,
    "description": "Complete The Last Yardbird as Silent Assassin.",
    "icon": "https://steamcdn-a.akamaihd.net/steamcommunity/public/images/apps/863550/9c73b2db001091e1ad979503f81efe4a5d19be1c.jpg",
    "icongray": "https://steamcdn-a.akamaihd.net/steamcommunity/public/images/apps/863550/5ec137fad7412126a73eb793084788ef00b6177c.jpg"
  },
  {
    "name": "ACH_64",
    "defaultvalue": 0,
    "displayName": "Deadly Duo",
    "hidden": 0,
    "description": "Complete The Last Yardbird in Multiplayer.",
    "icon": "https://steamcdn-a.akamaihd.net/steamcommunity/public/images/apps/863550/feff3d8070e92519a8ffab16980f48287436b3b4.jpg",
    "icongray": "https://steamcdn-a.akamaihd.net/steamcommunity/public/images/apps/863550/1712c460d312ab7cc5f12cc810f6c5768fb7256c.jpg"
  },
  {
    "name": "ACH_65",
    "defaultvalue": 0,
    "displayName": "Completionist",
    "hidden": 0,
    "description": "Complete all The Last Yardbird Challenges.",
    "icon": "https://steamcdn-a.akamaihd.net/steamcommunity/public/images/apps/863550/57f12e96f9da4d5c4feaf39e4890fee8df25ae95.jpg",
    "icongray": "https://steamcdn-a.akamaihd.net/steamcommunity/public/images/apps/863550/dd3f9b35415561b0722e9226f1f046af6b69c65a.jpg"
  },
  {
    "name": "ACH_66",
    "defaultvalue": 0,
    "displayName": "When No One Else Dares",
    "hidden": 0,
    "description": "Complete The Showstopper.",
    "icon": "https://steamcdn-a.akamaihd.net/steamcommunity/public/images/apps/863550/687cc4ca7c5dd8cbb82921ab48bec6b2055752e3.jpg",
    "icongray": "https://steamcdn-a.akamaihd.net/steamcommunity/public/images/apps/863550/51c51b6981d32455a272d04b8fdddcc6f4b9c8ff.jpg"
  },
  {
    "name": "ACH_67",
    "defaultvalue": 0,
    "displayName": "The Showstopper",
    "hidden": 1,
    "icon": "https://steamcdn-a.akamaihd.net/steamcommunity/public/images/apps/863550/bb20b087aba18d8429013c267dca552b1cc7e848.jpg",
    "icongray": "https://steamcdn-a.akamaihd.net/steamcommunity/public/images/apps/863550/de6d0f0280d4df3fd192a0b664b93f1ffa9a4ae1.jpg"
  },
  {
    "name": "ACH_68",
    "defaultvalue": 0,
    "displayName": "Meeting the Rieper",
    "hidden": 1,
    "icon": "https://steamcdn-a.akamaihd.net/steamcommunity/public/images/apps/863550/df342df908651948673a19aae6ec3cbf946aa381.jpg",
    "icongray": "https://steamcdn-a.akamaihd.net/steamcommunity/public/images/apps/863550/2b37235492863efb35144bd3be4340208d58caed.jpg"
  },
  {
    "name": "ACH_69",
    "defaultvalue": 0,
    "displayName": "So Many Ways to Stop the Show",
    "hidden": 0,
    "description": "Complete all Mission Stories in The Showstopper.",
    "icon": "https://steamcdn-a.akamaihd.net/steamcommunity/public/images/apps/863550/4a5efa2559718f17a5a1c2f223ecbed47722da61.jpg",
    "icongray": "https://steamcdn-a.akamaihd.net/steamcommunity/public/images/apps/863550/cdb609e24fb8761d036bc730ee8ef56979604690.jpg"
  },
  {
    "name": "ACH_70",
    "defaultvalue": 0,
    "displayName": "Paris Escalated",
    "hidden": 0,
    "description": "Complete Level 5 of an Escalation Contract set in Paris.",
    "icon": "https://steamcdn-a.akamaihd.net/steamcommunity/public/images/apps/863550/6669cf92a4143810fd707e5d73ea4eb7993a6220.jpg",
    "icongray": "https://steamcdn-a.akamaihd.net/steamcommunity/public/images/apps/863550/6c71992282c8d394149e005091dad14a89f96a10.jpg"
  },
  {
    "name": "ACH_71",
    "defaultvalue": 0,
    "displayName": "Well Prepared",
    "hidden": 0,
    "description": "Select a Starting Location and use an Agency Pickup to smuggle an item into Paris.",
    "icon": "https://steamcdn-a.akamaihd.net/steamcommunity/public/images/apps/863550/5666cb36882f46b80b83f38d3fdb602a7fdf6675.jpg",
    "icongray": "https://steamcdn-a.akamaihd.net/steamcommunity/public/images/apps/863550/b1e52d81de6e283207b521da2d37ca2d01a002c2.jpg"
  },
  {
    "name": "ACH_72",
    "defaultvalue": 0,
    "displayName": "City of Light",
    "hidden": 0,
    "description": "Reach Paris Mastery Level 20.",
    "icon": "https://steamcdn-a.akamaihd.net/steamcommunity/public/images/apps/863550/e001ae498a4166756e195ab8b9b792c33e5b392a.jpg",
    "icongray": "https://steamcdn-a.akamaihd.net/steamcommunity/public/images/apps/863550/f07510922804d5b57c6532230927715c325136ce.jpg"
  },
  {
    "name": "ACH_73",
    "defaultvalue": 0,
    "displayName": "Die by the Sword",
    "hidden": 0,
    "description": "Complete World of Tomorrow.",
    "icon": "https://steamcdn-a.akamaihd.net/steamcommunity/public/images/apps/863550/caad9c8ddd823c9da5af96156441f6935a0358b0.jpg",
    "icongray": "https://steamcdn-a.akamaihd.net/steamcommunity/public/images/apps/863550/1cc7efc39f17cbb37abbfdee8e756e3a688d7283.jpg"
  },
  {
    "name": "ACH_74",
    "defaultvalue": 0,
    "displayName": "The Sapienza Trinity",
    "hidden": 1,
    "icon": "https://steamcdn-a.akamaihd.net/steamcommunity/public/images/apps/863550/f78f3f3404a25d984dd4b7e09b8db95e1ed9afb2.jpg",
    "icongray": "https://steamcdn-a.akamaihd.net/steamcommunity/public/images/apps/863550/1225dcd5a8b95ad36f4209e4c875de5a89fbf84c.jpg"
  },
  {
    "name": "ACH_75",
    "defaultvalue": 0,
    "displayName": "Let No Joyful Voice be Heard",
    "hidden": 1,
    "icon": "https://steamcdn-a.akamaihd.net/steamcommunity/public/images/apps/863550/1c7ab5f8305ed359eeab336de3e1d83c83429ed1.jpg",
    "icongray": "https://steamcdn-a.akamaihd.net/steamcommunity/public/images/apps/863550/769a08d218307c641500ae838567742ff735d729.jpg"
  },
  {
    "name": "ACH_76",
    "defaultvalue": 0,
    "displayName": "Not in the Guidebook",
    "hidden": 0,
    "description": "Complete all Mission Stories in World of Tomorrow.",
    "icon": "https://steamcdn-a.akamaihd.net/steamcommunity/public/images/apps/863550/cbd6ee0318142d7b10cfb82f446cb8337e2d9e8f.jpg",
    "icongray": "https://steamcdn-a.akamaihd.net/steamcommunity/public/images/apps/863550/b1b7dd0755fa7a85c5cc9ba308bbf5f8b8a69139.jpg"
  },
  {
    "name": "ACH_77",
    "defaultvalue": 0,
    "displayName": "Sapienza Escalated",
    "hidden": 0,
    "description": "Complete Level 5 of an Escalation Contract set in Sapienza.",
    "icon": "https://steamcdn-a.akamaihd.net/steamcommunity/public/images/apps/863550/8c66d951f422681c37a20bb4f991114ce93584be.jpg",
    "icongray": "https://steamcdn-a.akamaihd.net/steamcommunity/public/images/apps/863550/d7961908402de405622c4b5b230f9af950d3ffd4.jpg"
  },
  {
    "name": "ACH_78",
    "defaultvalue": 0,
    "displayName": "Plan Ahead",
    "hidden": 0,
    "description": "Select a Starting Location and use an Agency Pickup to smuggle an item into Sapienza.",
    "icon": "https://steamcdn-a.akamaihd.net/steamcommunity/public/images/apps/863550/919bd14595218e02336292a0e50544169fd37ecf.jpg",
    "icongray": "https://steamcdn-a.akamaihd.net/steamcommunity/public/images/apps/863550/47033a77c3f57548583642a269109061c89ba70c.jpg"
  },
  {
    "name": "ACH_79",
    "defaultvalue": 0,
    "displayName": "Amalfi Pearl",
    "hidden": 0,
    "description": "Reach Sapienza Mastery Level 20.",
    "icon": "https://steamcdn-a.akamaihd.net/steamcommunity/public/images/apps/863550/b9ee7629f8393eda704bc271d15628a4bb39163e.jpg",
    "icongray": "https://steamcdn-a.akamaihd.net/steamcommunity/public/images/apps/863550/e6a8e49307185d028dcb121f9ed19f1121ff19f3.jpg"
  },
  {
    "name": "ACH_80",
    "defaultvalue": 0,
    "displayName": "Too Big to Fail",
    "hidden": 0,
    "description": "Complete A Gilded Cage.",
    "icon": "https://steamcdn-a.akamaihd.net/steamcommunity/public/images/apps/863550/1f466d095193b5456d4e59bed407292b76e3b999.jpg",
    "icongray": "https://steamcdn-a.akamaihd.net/steamcommunity/public/images/apps/863550/bdd8ba4ddbaa2e66bcea05e854490d8a6bac7a46.jpg"
  },
  {
    "name": "ACH_81",
    "defaultvalue": 0,
    "displayName": ".50 Personal Touch",
    "hidden": 1,
    "icon": "https://steamcdn-a.akamaihd.net/steamcommunity/public/images/apps/863550/2430eaaa97a6e84b7e4a23198610a44bbefa35e9.jpg",
    "icongray": "https://steamcdn-a.akamaihd.net/steamcommunity/public/images/apps/863550/322411072ea29fdb4080276fc089ce347c6c8b38.jpg"
  },
  {
    "name": "ACH_82",
    "defaultvalue": 0,
    "displayName": "Unfortunate Fortune",
    "hidden": 1,
    "icon": "https://steamcdn-a.akamaihd.net/steamcommunity/public/images/apps/863550/ef942478337ba763ca099f676a0d1449c953690f.jpg",
    "icongray": "https://steamcdn-a.akamaihd.net/steamcommunity/public/images/apps/863550/1c9d83c6bca2d2dc0723f6f73019726e0f34f7c2.jpg"
  },
  {
    "name": "ACH_83",
    "defaultvalue": 0,
    "displayName": "Tourist Attractions",
    "hidden": 0,
    "description": "Complete all Mission Stories in A Gilded Cage.",
    "icon": "https://steamcdn-a.akamaihd.net/steamcommunity/public/images/apps/863550/a7dd69cd557904f3ebd140eaf2c11ba676e6cb15.jpg",
    "icongray": "https://steamcdn-a.akamaihd.net/steamcommunity/public/images/apps/863550/052e2163cd79c81fb80eca7bee455ad298a3fc85.jpg"
  },
  {
    "name": "ACH_84",
    "defaultvalue": 0,
    "displayName": "Marrakesh Escalated",
    "hidden": 0,
    "description": "Complete Level 5 of an Escalation Contract set in Marrakesh.",
    "icon": "https://steamcdn-a.akamaihd.net/steamcommunity/public/images/apps/863550/5b2b01cfdaf2b7d231720ec45e2ec455cc24d9e7.jpg",
    "icongray": "https://steamcdn-a.akamaihd.net/steamcommunity/public/images/apps/863550/62ff2c2e160d656d72408032202cf9bea9c8409e.jpg"
  },
  {
    "name": "ACH_85",
    "defaultvalue": 0,
    "displayName": "Careful Planning",
    "hidden": 0,
    "description": "Select a Starting Location and use an Agency Pickup to smuggle an item into Marrakesh.",
    "icon": "https://steamcdn-a.akamaihd.net/steamcommunity/public/images/apps/863550/6e402a9f7cc015a9bedac3ab5d0ee676e4e6dad4.jpg",
    "icongray": "https://steamcdn-a.akamaihd.net/steamcommunity/public/images/apps/863550/f5b89261edfc6f7777d3ff5a028234eb4deace25.jpg"
  },
  {
    "name": "ACH_86",
    "defaultvalue": 0,
    "displayName": "Ancient Marrakesh",
    "hidden": 0,
    "description": "Reach Marrakesh Mastery Level 20.",
    "icon": "https://steamcdn-a.akamaihd.net/steamcommunity/public/images/apps/863550/eac8441b18f9aa673dc41556af5416bb49ac7a87.jpg",
    "icongray": "https://steamcdn-a.akamaihd.net/steamcommunity/public/images/apps/863550/9289c921c2357602d17f2976f954f7e9b334e8e5.jpg"
  },
  {
    "name": "ACH_87",
    "defaultvalue": 0,
    "displayName": "Perfectionist",
    "hidden": 0,
    "description": "Complete Suit Only and Silent Assassin Challenges on The Icon or A House Built on Sand.",
    "icon": "https://steamcdn-a.akamaihd.net/steamcommunity/public/images/apps/863550/ed6f60186f1f946b8e5c646c03fa5f6df93e1836.jpg",
    "icongray": "https://steamcdn-a.akamaihd.net/steamcommunity/public/images/apps/863550/7671c64b73fb4751167e57ae81d1024af1a58d44.jpg"
  },
  {
    "name": "ACH_88",
    "defaultvalue": 0,
    "displayName": "A Night at the Movies",
    "hidden": 0,
    "description": "Complete The Icon.",
    "icon": "https://steamcdn-a.akamaihd.net/steamcommunity/public/images/apps/863550/b2cf07d44699f74d6d686a20cda9bba39e17b81c.jpg",
    "icongray": "https://steamcdn-a.akamaihd.net/steamcommunity/public/images/apps/863550/00ef0a31e9463284fbeec44f4240b1f0350b51f1.jpg"
  },
  {
    "name": "ACH_89",
    "defaultvalue": 0,
    "displayName": "Stealing the Spotlight",
    "hidden": 1,
    "icon": "https://steamcdn-a.akamaihd.net/steamcommunity/public/images/apps/863550/b0b16058da0e2a10ea4095db3befbe06f2f8ba5b.jpg",
    "icongray": "https://steamcdn-a.akamaihd.net/steamcommunity/public/images/apps/863550/79cb19a6023c8fc1a4a09fb13f4957ba8da42d0e.jpg"
  },
  {
    "name": "ACH_90",
    "defaultvalue": 0,
    "displayName": "Touring the Film Set",
    "hidden": 0,
    "description": "Complete all Mission Stories in The Icon.",
    "icon": "https://steamcdn-a.akamaihd.net/steamcommunity/public/images/apps/863550/a926fa1ed876523ac233a9801d07c95144646596.jpg",
    "icongray": "https://steamcdn-a.akamaihd.net/steamcommunity/public/images/apps/863550/e349ca43a8799bb58bb2b5f94458559812719301.jpg"
  },
  {
    "name": "ACH_91",
    "defaultvalue": 0,
    "displayName": "Moroccan Nights",
    "hidden": 0,
    "description": "Complete A House Built on Sand.",
    "icon": "https://steamcdn-a.akamaihd.net/steamcommunity/public/images/apps/863550/a7857a449172df633aa252e30b559a23ffecfe99.jpg",
    "icongray": "https://steamcdn-a.akamaihd.net/steamcommunity/public/images/apps/863550/2a5e6bbd05c95ab62b1b9055711f8668c7714f8c.jpg"
  },
  {
    "name": "ACH_92",
    "defaultvalue": 0,
    "displayName": "A Series of Unfortunate Events",
    "hidden": 1,
    "icon": "https://steamcdn-a.akamaihd.net/steamcommunity/public/images/apps/863550/296eddc9a8520aa4bf99f22d22f75c7db4674d85.jpg",
    "icongray": "https://steamcdn-a.akamaihd.net/steamcommunity/public/images/apps/863550/cc13c2879eac1a129d32ffadf5bd62e914282d60.jpg"
  },
  {
    "name": "ACH_93",
    "defaultvalue": 0,
    "displayName": "A Golden Opportunity",
    "hidden": 0,
    "description": "Complete all Mission Stories in A House Built on Sand.",
    "icon": "https://steamcdn-a.akamaihd.net/steamcommunity/public/images/apps/863550/a1a5bc1a7f4a97557223b21311e5c823820105f8.jpg",
    "icongray": "https://steamcdn-a.akamaihd.net/steamcommunity/public/images/apps/863550/562e3aaf9b352d930f180105531bb5bab3002a87.jpg"
  },
  {
    "name": "ACH_94",
    "defaultvalue": 0,
    "displayName": "Bravissimo",
    "hidden": 0,
    "description": "Complete Landslide.",
    "icon": "https://steamcdn-a.akamaihd.net/steamcommunity/public/images/apps/863550/b75464ff9141f1b89b2362adf83fac7cad543e7c.jpg",
    "icongray": "https://steamcdn-a.akamaihd.net/steamcommunity/public/images/apps/863550/38aeadcda33fc5ea8901470867fc15157946999b.jpg"
  },
  {
    "name": "ACH_95",
    "defaultvalue": 0,
    "displayName": "Your Vote Counts",
    "hidden": 1,
    "icon": "https://steamcdn-a.akamaihd.net/steamcommunity/public/images/apps/863550/549b293bfe871e1368dc301b8156a9f4ca3cab85.jpg",
    "icongray": "https://steamcdn-a.akamaihd.net/steamcommunity/public/images/apps/863550/d9c54e380e193ce21464efe853ab5d774e0ed68b.jpg"
  },
  {
    "name": "ACH_96",
    "defaultvalue": 0,
    "displayName": "Finito",
    "hidden": 0,
    "description": "Complete all Mission Stories in Landslide.",
    "icon": "https://steamcdn-a.akamaihd.net/steamcommunity/public/images/apps/863550/04967f84dadad3061497050b6ab23c7d1ff21f12.jpg",
    "icongray": "https://steamcdn-a.akamaihd.net/steamcommunity/public/images/apps/863550/d618e08b7f1f7c5403122599950bb2c782acc235.jpg"
  },
  {
    "name": "ACH_97",
    "defaultvalue": 0,
    "displayName": "Shining Bright",
    "hidden": 0,
    "description": "Complete Club 27.",
    "icon": "https://steamcdn-a.akamaihd.net/steamcommunity/public/images/apps/863550/cb7d7bf42a3257f7c761a68a071489c63938a7fd.jpg",
    "icongray": "https://steamcdn-a.akamaihd.net/steamcommunity/public/images/apps/863550/412b2174d8aa0e0258f05c592160bf2c061fc218.jpg"
  },
  {
    "name": "ACH_98",
    "defaultvalue": 0,
    "displayName": "Drop the Bass",
    "hidden": 1,
    "icon": "https://steamcdn-a.akamaihd.net/steamcommunity/public/images/apps/863550/e5260ebb85179048de76ca7aa33e0b04260f0f8d.jpg",
    "icongray": "https://steamcdn-a.akamaihd.net/steamcommunity/public/images/apps/863550/416152b26b18594c19eb51afaa153310e18964f3.jpg"
  },
  {
    "name": "ACH_99",
    "defaultvalue": 0,
    "displayName": "Elephants Never Forget",
    "hidden": 1,
    "icon": "https://steamcdn-a.akamaihd.net/steamcommunity/public/images/apps/863550/95b8ab1764c3aa1f1d5b15f633939815ff0df201.jpg",
    "icongray": "https://steamcdn-a.akamaihd.net/steamcommunity/public/images/apps/863550/ae384e561a78a0769c29cbd4c736e8ede7a1ab3d.jpg"
  },
  {
    "name": "ACH_100",
    "defaultvalue": 0,
    "displayName": "Guest Starring",
    "hidden": 0,
    "description": "Complete all Mission Stories in Club 27.",
    "icon": "https://steamcdn-a.akamaihd.net/steamcommunity/public/images/apps/863550/39c9377e3dedfee0b7096dd4561423634db5da25.jpg",
    "icongray": "https://steamcdn-a.akamaihd.net/steamcommunity/public/images/apps/863550/a77848b1ea592835aa9b081cd8487067f88088b9.jpg"
  },
  {
    "name": "ACH_101",
    "defaultvalue": 0,
    "displayName": "Bangkok Escalated",
    "hidden": 0,
    "description": "Complete level 5 of an Escalation Contract set in Bangkok.",
    "icon": "https://steamcdn-a.akamaihd.net/steamcommunity/public/images/apps/863550/7555357082a456b783162ec57fa66d0404a9f7fa.jpg",
    "icongray": "https://steamcdn-a.akamaihd.net/steamcommunity/public/images/apps/863550/015c7358346b894b4b0c5c0adcb5c88cfedc2b35.jpg"
  },
  {
    "name": "ACH_102",
    "defaultvalue": 0,
    "displayName": "Scouting for Talent",
    "hidden": 0,
    "description": "Select a Starting Location and use an Agency Pickup to smuggle an item into Bangkok.",
    "icon": "https://steamcdn-a.akamaihd.net/steamcommunity/public/images/apps/863550/4539fb2f8e9c4029b515bd1f3da6c3db696423ec.jpg",
    "icongray": "https://steamcdn-a.akamaihd.net/steamcommunity/public/images/apps/863550/5bbc27b287876a2e5750e261ca33215785e6a7a5.jpg"
  },
  {
    "name": "ACH_103",
    "defaultvalue": 0,
    "displayName": "One Night in Bangkok",
    "hidden": 0,
    "description": "Reach Bangkok Mastery Level 20.",
    "icon": "https://steamcdn-a.akamaihd.net/steamcommunity/public/images/apps/863550/cebd936fa8cce417e4f0a933e37240867a67dc5c.jpg",
    "icongray": "https://steamcdn-a.akamaihd.net/steamcommunity/public/images/apps/863550/6466bd1602f7352311e9d782be189a56b5d18cc1.jpg"
  },
  {
    "name": "ACH_104",
    "defaultvalue": 0,
    "displayName": "Guerrilla Warfare",
    "hidden": 0,
    "description": "Complete Freedom Fighters.",
    "icon": "https://steamcdn-a.akamaihd.net/steamcommunity/public/images/apps/863550/a3c60cae76e45b74611cd00365f23f64f6c0204f.jpg",
    "icongray": "https://steamcdn-a.akamaihd.net/steamcommunity/public/images/apps/863550/11efa4f472e829c0a511a0585e06883846d7fd7b.jpg"
  },
  {
    "name": "ACH_105",
    "defaultvalue": 0,
    "displayName": "Soup Sandwich",
    "hidden": 1,
    "icon": "https://steamcdn-a.akamaihd.net/steamcommunity/public/images/apps/863550/f4a2a0e1046f2bcb4cc7f7cacd0bfd5cdfb8ed08.jpg",
    "icongray": "https://steamcdn-a.akamaihd.net/steamcommunity/public/images/apps/863550/836d9dab0e6182b47aa07e91e2dc3b555b6b1d90.jpg"
  },
  {
    "name": "ACH_106",
    "defaultvalue": 0,
    "displayName": "Giddy Up",
    "hidden": 1,
    "icon": "https://steamcdn-a.akamaihd.net/steamcommunity/public/images/apps/863550/2d901ee5e65feb9c90062dd85f330cc399b4eb3b.jpg",
    "icongray": "https://steamcdn-a.akamaihd.net/steamcommunity/public/images/apps/863550/412f53e655c86e4e7dfd366f30ddc56842aae9a8.jpg"
  },
  {
    "name": "ACH_107",
    "defaultvalue": 0,
    "displayName": "A Feather In Your Cap",
    "hidden": 0,
    "description": "Complete all Mission Stories in Freedom Fighters.",
    "icon": "https://steamcdn-a.akamaihd.net/steamcommunity/public/images/apps/863550/4b5e45094de8b8f865afe43e5fbe9b1f8bcb1388.jpg",
    "icongray": "https://steamcdn-a.akamaihd.net/steamcommunity/public/images/apps/863550/ae2d2641d57d279e288bba8ed49cbb58235d658c.jpg"
  },
  {
    "name": "ACH_108",
    "defaultvalue": 0,
    "displayName": "Colorado Escalated",
    "hidden": 0,
    "description": "Complete level 5 of an Escalation Contract set in Colorado.",
    "icon": "https://steamcdn-a.akamaihd.net/steamcommunity/public/images/apps/863550/7c3521fc0d04937e2a0cdba1c4e4455b59d20ded.jpg",
    "icongray": "https://steamcdn-a.akamaihd.net/steamcommunity/public/images/apps/863550/85a9792404628bc7bad30c28b30c462a092151b0.jpg"
  },
  {
    "name": "ACH_109",
    "defaultvalue": 0,
    "displayName": "Joint Operation",
    "hidden": 0,
    "description": "Select a Starting Location and use an Agency Pickup to smuggle an item into Colorado.",
    "icon": "https://steamcdn-a.akamaihd.net/steamcommunity/public/images/apps/863550/46569790340d40842de927d5fad6105add9b2a34.jpg",
    "icongray": "https://steamcdn-a.akamaihd.net/steamcommunity/public/images/apps/863550/e084826b5d11b2aab938e973f5e6e41bc408e612.jpg"
  },
  {
    "name": "ACH_110",
    "defaultvalue": 0,
    "displayName": "Mission Complete",
    "hidden": 0,
    "description": "Reach Colorado Mastery Level 20.",
    "icon": "https://steamcdn-a.akamaihd.net/steamcommunity/public/images/apps/863550/7da91f0ac375c9ff33a4b65f6030f8d4dc35b600.jpg",
    "icongray": "https://steamcdn-a.akamaihd.net/steamcommunity/public/images/apps/863550/2d324847dd3906d3cbbad854644a92e04592abbc.jpg"
  },
  {
    "name": "ACH_111",
    "defaultvalue": 0,
    "displayName": "A Long Time Coming",
    "hidden": 0,
    "description": "Complete Situs Inversus.",
    "icon": "https://steamcdn-a.akamaihd.net/steamcommunity/public/images/apps/863550/42043e694c945a5f00dc85de49d2e428884a552d.jpg",
    "icongray": "https://steamcdn-a.akamaihd.net/steamcommunity/public/images/apps/863550/7350b41e3bd140fe07146887dcf899d9dc4b14b5.jpg"
  },
  {
    "name": "ACH_112",
    "defaultvalue": 0,
    "displayName": "Master of Old and New",
    "hidden": 1,
    "icon": "https://steamcdn-a.akamaihd.net/steamcommunity/public/images/apps/863550/66f04c8a40f815a0daac42aa39142f9d937d925d.jpg",
    "icongray": "https://steamcdn-a.akamaihd.net/steamcommunity/public/images/apps/863550/84254a012bd3e7f0bfaecdfc2143f12df77fdbac.jpg"
  },
  {
    "name": "ACH_113",
    "defaultvalue": 0,
    "displayName": "Flatline",
    "hidden": 1,
    "icon": "https://steamcdn-a.akamaihd.net/steamcommunity/public/images/apps/863550/d830ed95a30e6707bb4b6433ff482173705fb4bf.jpg",
    "icongray": "https://steamcdn-a.akamaihd.net/steamcommunity/public/images/apps/863550/d037f8aa2c15a3481ab24c724b06e7dabfb52c59.jpg"
  },
  {
    "name": "ACH_114",
    "defaultvalue": 0,
    "displayName": "The Sensei",
    "hidden": 0,
    "description": "Complete all Mission Stories in Situs Inversus.",
    "icon": "https://steamcdn-a.akamaihd.net/steamcommunity/public/images/apps/863550/7a41407dfe5d7d83b19b18e40fc090d8e678844b.jpg",
    "icongray": "https://steamcdn-a.akamaihd.net/steamcommunity/public/images/apps/863550/d32cb5310b72f90f36e2b640626c0819e7eb3ae2.jpg"
  },
  {
    "name": "ACH_115",
    "defaultvalue": 0,
    "displayName": "Hokkaido Escalated",
    "hidden": 0,
    "description": "Complete level 5 of an Escalation Contract set in Hokkaido.",
    "icon": "https://steamcdn-a.akamaihd.net/steamcommunity/public/images/apps/863550/31dfc299b8fd7096c2a766d57e32f7b60b0f0e20.jpg",
    "icongray": "https://steamcdn-a.akamaihd.net/steamcommunity/public/images/apps/863550/c7fd87ce887b9ce175946fb096a571820a96c94a.jpg"
  },
  {
    "name": "ACH_116",
    "defaultvalue": 0,
    "displayName": "Come Prepared",
    "hidden": 0,
    "description": "Select a Starting Location and use an Agency Pickup to smuggle an item into Hokkaido.",
    "icon": "https://steamcdn-a.akamaihd.net/steamcommunity/public/images/apps/863550/31d7533444eba4ffc8cc6e60cc352341293767d7.jpg",
    "icongray": "https://steamcdn-a.akamaihd.net/steamcommunity/public/images/apps/863550/caecc3a5c9e6575cdf717bdfb600736e4035f2ea.jpg"
  },
  {
    "name": "ACH_117",
    "defaultvalue": 0,
    "displayName": "Sayōnara",
    "hidden": 0,
    "description": "Reach Hokkaido Mastery Level 20.",
    "icon": "https://steamcdn-a.akamaihd.net/steamcommunity/public/images/apps/863550/caa330f30c58840cb32c7557fdb8d648a499924a.jpg",
    "icongray": "https://steamcdn-a.akamaihd.net/steamcommunity/public/images/apps/863550/8543653e19296115b5e4f1fd27503317febe5294.jpg"
  },
  {
    "name": "ACH_118",
    "defaultvalue": 0,
    "displayName": "Seven Figures",
    "hidden": 0,
    "description": "Get a score above 1,000,000 points on The Pen and the Sword.",
    "icon": "https://steamcdn-a.akamaihd.net/steamcommunity/public/images/apps/863550/474e44278063a3e468a3168e92964201abf77f28.jpg",
    "icongray": "https://steamcdn-a.akamaihd.net/steamcommunity/public/images/apps/863550/65957f43df6d544c1693e6e50154dab4f34f61fa.jpg"
  },
  {
    "name": "ACH_119",
    "defaultvalue": 0,
    "displayName": "No Floating",
    "hidden": 0,
    "description": "Shoot all buoys in the water.",
    "icon": "https://steamcdn-a.akamaihd.net/steamcommunity/public/images/apps/863550/494ee119825b17e344d5d0b3a4e4c92d49e88d7e.jpg",
    "icongray": "https://steamcdn-a.akamaihd.net/steamcommunity/public/images/apps/863550/12c0407bc2b56e62c4942ae29a9fe77df7fb6f63.jpg"
  },
  {
    "name": "ACH_120",
    "defaultvalue": 0,
    "displayName": "Forklift Tagging",
    "hidden": 0,
    "description": "Shoot and hit the forklift driving around in the far section of the harbor.",
    "icon": "https://steamcdn-a.akamaihd.net/steamcommunity/public/images/apps/863550/c133368bcafa08d2a0fef27d256e0560cc23f0dc.jpg",
    "icongray": "https://steamcdn-a.akamaihd.net/steamcommunity/public/images/apps/863550/f6c9552267594d63bea4c31ac8528a121280dc64.jpg"
  },
  {
    "name": "ACH_121",
    "defaultvalue": 0,
    "displayName": "Save the Poet",
    "hidden": 0,
    "description": "Complete The Pen and the Sword in Single Player.",
    "icon": "https://steamcdn-a.akamaihd.net/steamcommunity/public/images/apps/863550/334c6fd6ebddfb7458c0e76f62234e8206154866.jpg",
    "icongray": "https://steamcdn-a.akamaihd.net/steamcommunity/public/images/apps/863550/6f9d75d104ab1dc5be6b88bfbfc5d571e29aeb6c.jpg"
  },
  {
    "name": "ACH_122",
    "defaultvalue": 0,
    "displayName": "Hawkeye",
    "hidden": 0,
    "description": "Complete The Pen and the Sword as Silent Assassin.",
    "icon": "https://steamcdn-a.akamaihd.net/steamcommunity/public/images/apps/863550/b8870569e549aec3c8bc9899c77df0fa93003e2a.jpg",
    "icongray": "https://steamcdn-a.akamaihd.net/steamcommunity/public/images/apps/863550/ce599420699e74880ad4e19609cd2e60c7b51977.jpg"
  },
  {
    "name": "ACH_123",
    "defaultvalue": 0,
    "displayName": "Double Trouble",
    "hidden": 0,
    "description": "Complete The Pen and the Sword in Multiplayer.",
    "icon": "https://steamcdn-a.akamaihd.net/steamcommunity/public/images/apps/863550/81038f09a7e005eecf42e07f4dde607dabb13e77.jpg",
    "icongray": "https://steamcdn-a.akamaihd.net/steamcommunity/public/images/apps/863550/dbbf04a5870dec54c9d151481e97df45b54a152d.jpg"
  },
  {
    "name": "ACH_124",
    "defaultvalue": 0,
    "displayName": "Pure Poetry",
    "hidden": 0,
    "description": "Complete all The Pen and the Sword Challenges.",
    "icon": "https://steamcdn-a.akamaihd.net/steamcommunity/public/images/apps/863550/f432649929816000dc63be54e298b5067ac20c50.jpg",
    "icongray": "https://steamcdn-a.akamaihd.net/steamcommunity/public/images/apps/863550/29b18d73821c1ef45a2f06c69386c62ff68e0938.jpg"
  },
  {
    "name": "ACH_125",
    "defaultvalue": 0,
    "displayName": "Break the Bank",
    "hidden": 0,
    "description": "Complete Golden Handshake.",
    "icon": "https://steamcdn-a.akamaihd.net/steamcommunity/public/images/apps/863550/2cd48c36b28b9ebd9977f5f4ac6f01fcf9ebebd4.jpg",
    "icongray": "https://steamcdn-a.akamaihd.net/steamcommunity/public/images/apps/863550/e36d5cba1048461084a73cf6797856316b162dce.jpg"
  },
  {
    "name": "ACH_126",
    "defaultvalue": 0,
    "displayName": "Defenestration",
    "hidden": 1,
    "icon": "https://steamcdn-a.akamaihd.net/steamcommunity/public/images/apps/863550/4bef1693416918ebb8b45759d70e24d6515dac93.jpg",
    "icongray": "https://steamcdn-a.akamaihd.net/steamcommunity/public/images/apps/863550/aeb76332ea0f6b82cbb43ded54b20df298a5f454.jpg"
  },
  {
    "name": "ACH_127",
    "defaultvalue": 0,
    "displayName": "Award-Core",
    "hidden": 1,
    "icon": "https://steamcdn-a.akamaihd.net/steamcommunity/public/images/apps/863550/f7a805eb9a3d0699f9ca7f61736c3bd2e7ee2719.jpg",
    "icongray": "https://steamcdn-a.akamaihd.net/steamcommunity/public/images/apps/863550/c7856c8decedaac9647d50fbf55eaba30a758916.jpg"
  },
  {
    "name": "ACH_128",
    "defaultvalue": 0,
    "displayName": "Lock, Stock, and Barrel",
    "hidden": 0,
    "description": "Complete all Mission Stories in Golden Handshake.",
    "icon": "https://steamcdn-a.akamaihd.net/steamcommunity/public/images/apps/863550/93f5db81ee81e9efb646629065c4dc15e08a48f8.jpg",
    "icongray": "https://steamcdn-a.akamaihd.net/steamcommunity/public/images/apps/863550/127cab2130a1e91bf485d889cf0a980b27cfa57c.jpg"
  },
  {
    "name": "ACH_129",
    "defaultvalue": 0,
    "displayName": "The Gold Account",
    "hidden": 0,
    "description": "Complete Golden Handshake on Master Difficulty.",
    "icon": "https://steamcdn-a.akamaihd.net/steamcommunity/public/images/apps/863550/dbf180eeca5c7580225bfdee414a5cf9a57e893d.jpg",
    "icongray": "https://steamcdn-a.akamaihd.net/steamcommunity/public/images/apps/863550/1afd37275e3f04bc88b6e5980db92c4072cf2174.jpg"
  },
  {
    "name": "ACH_130",
    "defaultvalue": 0,
    "displayName": "Under the Radar",
    "hidden": 0,
    "description": "Select a Starting Location and use an Informant to smuggle an item into Milton-Fitzpatrick.",
    "icon": "https://steamcdn-a.akamaihd.net/steamcommunity/public/images/apps/863550/96e0173ab0b044a0f1484259702135bbd5483b08.jpg",
    "icongray": "https://steamcdn-a.akamaihd.net/steamcommunity/public/images/apps/863550/fd42fff6f54eecba6aeac15916fef0009016ba34.jpg"
  },
  {
    "name": "ACH_131",
    "defaultvalue": 0,
    "displayName": "Top of the Heap",
    "hidden": 0,
    "description": "Reach New York Mastery Level 15.",
    "icon": "https://steamcdn-a.akamaihd.net/steamcommunity/public/images/apps/863550/0392ac0eeb864b0b9b9ee9f429867b8909bbf7bb.jpg",
    "icongray": "https://steamcdn-a.akamaihd.net/steamcommunity/public/images/apps/863550/ed56b11fabf39cc95a8637dfd74c36bb879c9ae0.jpg"
  },
  {
    "name": "ACH_132",
    "defaultvalue": 0,
    "displayName": "In a League of Their Own",
    "hidden": 0,
    "description": "Get a score above 1,000,000 points on Crime and Punishment.",
    "icon": "https://steamcdn-a.akamaihd.net/steamcommunity/public/images/apps/863550/45a27a15da5c08555e352ec369a33ecd9658ce22.jpg",
    "icongray": "https://steamcdn-a.akamaihd.net/steamcommunity/public/images/apps/863550/19943da3c3b6cfaa50015c024fb7c2759598f93a.jpg"
  },
  {
    "name": "ACH_133",
    "defaultvalue": 0,
    "displayName": "Fragile Alliance",
    "hidden": 1,
    "icon": "https://steamcdn-a.akamaihd.net/steamcommunity/public/images/apps/863550/a0899e1f9af8fd3decec0eb1790f99e106d742f1.jpg",
    "icongray": "https://steamcdn-a.akamaihd.net/steamcommunity/public/images/apps/863550/dcbe64300f9e451350a5170e7c484973c55e16ae.jpg"
  },
  {
    "name": "ACH_134",
    "defaultvalue": 0,
    "displayName": "Second Shooter",
    "hidden": 1,
    "icon": "https://steamcdn-a.akamaihd.net/steamcommunity/public/images/apps/863550/cb41408902876c474d79a81a4903a89108654967.jpg",
    "icongray": "https://steamcdn-a.akamaihd.net/steamcommunity/public/images/apps/863550/5a1e2b3cecb5eeec71544aad0524e1bcd394a0e2.jpg"
  },
  {
    "name": "ACH_135",
    "defaultvalue": 0,
    "displayName": "Falcon and the Snowman",
    "hidden": 0,
    "description": "Complete Crime and Punishment in Single Player.",
    "icon": "https://steamcdn-a.akamaihd.net/steamcommunity/public/images/apps/863550/7f7775b6ae5e7a4839960418dbfa9936801ba122.jpg",
    "icongray": "https://steamcdn-a.akamaihd.net/steamcommunity/public/images/apps/863550/388f9411bcee02135308423259aa7c5c07f742db.jpg"
  },
  {
    "name": "ACH_136",
    "defaultvalue": 0,
    "displayName": "Never Knew What Hit Them",
    "hidden": 0,
    "description": "Complete Crime and Punishment as Silent Assassin.",
    "icon": "https://steamcdn-a.akamaihd.net/steamcommunity/public/images/apps/863550/d5f35ac6cfe953fde6c67f9b5bf9fde04822a92e.jpg",
    "icongray": "https://steamcdn-a.akamaihd.net/steamcommunity/public/images/apps/863550/2b66be59ea1316f93d036b2096860e1411877503.jpg"
  },
  {
    "name": "ACH_137",
    "defaultvalue": 0,
    "displayName": "Two for One",
    "hidden": 0,
    "description": "Complete Crime and Punishment in Multiplayer.",
    "icon": "https://steamcdn-a.akamaihd.net/steamcommunity/public/images/apps/863550/352c709d005f13b1b30503ba98486baeac0e1b26.jpg",
    "icongray": "https://steamcdn-a.akamaihd.net/steamcommunity/public/images/apps/863550/9bdd9fc89362e4870100dfbede03a129f300202a.jpg"
  },
  {
    "name": "ACH_138",
    "defaultvalue": 0,
    "displayName": "Capital Punishment",
    "hidden": 0,
    "description": "Complete all Crime and Punishment Challenges.",
    "icon": "https://steamcdn-a.akamaihd.net/steamcommunity/public/images/apps/863550/bac0e212946d2d55eb49c5f78c0b858b90da6104.jpg",
    "icongray": "https://steamcdn-a.akamaihd.net/steamcommunity/public/images/apps/863550/c8336078f6236b498bb6f7e08ce7bc0aae09c32a.jpg"
  },
  {
    "name": "ACH_139",
    "defaultvalue": 0,
    "displayName": "Island and Chill",
    "hidden": 0,
    "description": "Complete The Last Resort.",
    "icon": "https://steamcdn-a.akamaihd.net/steamcommunity/public/images/apps/863550/a65ccaf04402fa2c86f33b0a17f3119036087371.jpg",
    "icongray": "https://steamcdn-a.akamaihd.net/steamcommunity/public/images/apps/863550/b6bf2c070076782d900d5f2de04acbe91c165834.jpg"
  },
  {
    "name": "ACH_140",
    "defaultvalue": 0,
    "displayName": "The Dundee",
    "hidden": 1,
    "icon": "https://steamcdn-a.akamaihd.net/steamcommunity/public/images/apps/863550/7cd3d7fa2aad60ba8d9abb14dfd6d5ce7a2b5ae7.jpg",
    "icongray": "https://steamcdn-a.akamaihd.net/steamcommunity/public/images/apps/863550/1d3e15ef672b2b7bc20837ef1c08e452b09b307a.jpg"
  },
  {
    "name": "ACH_141",
    "defaultvalue": 0,
    "displayName": "The Pleasure",
    "hidden": 1,
    "icon": "https://steamcdn-a.akamaihd.net/steamcommunity/public/images/apps/863550/e34bc95f74dcf72f499f49fe742e7f9c69a889be.jpg",
    "icongray": "https://steamcdn-a.akamaihd.net/steamcommunity/public/images/apps/863550/a46baa3e09faa313608088850e5005057696d8be.jpg"
  },
  {
    "name": "ACH_142",
    "defaultvalue": 0,
    "displayName": "Full House",
    "hidden": 0,
    "description": "Complete all Mission Stories for The Last Resort.",
    "icon": "https://steamcdn-a.akamaihd.net/steamcommunity/public/images/apps/863550/39985d2083e15646fbd91d39aa93641c7c4654b1.jpg",
    "icongray": "https://steamcdn-a.akamaihd.net/steamcommunity/public/images/apps/863550/f16129979720b4f11caf187df459ebfcaffa47c4.jpg"
  },
  {
    "name": "ACH_143",
    "defaultvalue": 0,
    "displayName": "The Platinum Package",
    "hidden": 0,
    "description": "Complete The Last Resort on Master Difficulty.",
    "icon": "https://steamcdn-a.akamaihd.net/steamcommunity/public/images/apps/863550/80300d8e93692f8b4b23098adba9aab73770515a.jpg",
    "icongray": "https://steamcdn-a.akamaihd.net/steamcommunity/public/images/apps/863550/d16abad05a4de1261dffe5fce224cc0959cea0fb.jpg"
  },
  {
    "name": "ACH_144",
    "defaultvalue": 0,
    "displayName": "Extra Luggage",
    "hidden": 0,
    "description": "Select a Starting Location and use an Informant to smuggle an item onto Haven Island.",
    "icon": "https://steamcdn-a.akamaihd.net/steamcommunity/public/images/apps/863550/fdd3bd7d6c217e2c4e025d7809ec27276a48a4c4.jpg",
    "icongray": "https://steamcdn-a.akamaihd.net/steamcommunity/public/images/apps/863550/e461ab13bbc4e7bc360328792e7a3757d3b63b95.jpg"
  },
  {
    "name": "ACH_145",
    "defaultvalue": 0,
    "displayName": "Null and Void",
    "hidden": 0,
    "description": "Reach Haven Island Mastery Level 20.",
    "icon": "https://steamcdn-a.akamaihd.net/steamcommunity/public/images/apps/863550/584adbb8bc2bc21cf1a6787fcdf60a8652809ddd.jpg",
    "icongray": "https://steamcdn-a.akamaihd.net/steamcommunity/public/images/apps/863550/c71e0446726959d849664e0ab699915435a19c4b.jpg"
  }
]