﻿{
  "Dlcs": {},
  "Name": "Biotix: Phage Genesis",
  "AppId": "799060",
  "ImageUrl": "https://steamcdn-a.akamaihd.net/steam/apps/799060/header.jpg?t=1523873736",
  "Languages": [
    "english",
    "french",
    "romanian",
    "russian"
  ],
  "Platforms": {
    "windows": true,
    "mac": false,
    "linux": false
  }
}