﻿{
  "Dlcs": {
    "216430": {
      "Name": "Gotham City Impostors Free to Play: Weapon Pack - Starter ",
      "ImageUrl": "https://steamcdn-a.akamaihd.net/steam/apps/216430/header.jpg?t=1447356238"
    },
    "216431": {
      "Name": "Gotham City Impostors Free to Play: Weapon Pack - Professional ",
      "ImageUrl": "https://steamcdn-a.akamaihd.net/steam/apps/216431/header.jpg?t=1447356254"
    },
    "216432": {
      "Name": "Gotham City Impostors Free to Play: Weapon Pack - Ultimate ",
      "ImageUrl": "https://steamcdn-a.akamaihd.net/steam/apps/216432/header.jpg?t=1447356255"
    },
    "216433": {
      "Name": "Gotham City Impostors Free to Play: Support Item Pack - Starter ",
      "ImageUrl": "https://steamcdn-a.akamaihd.net/steam/apps/216433/header.jpg?t=1447356256"
    },
    "216434": {
      "Name": "Gotham City Impostors Free to Play: Support Item Pack - Professional ",
      "ImageUrl": "https://steamcdn-a.akamaihd.net/steam/apps/216434/header.jpg?t=1447356258"
    },
    "216435": {
      "Name": "Gotham City Impostors Free to Play: Support Item Pack - Ultimate ",
      "ImageUrl": "https://steamcdn-a.akamaihd.net/steam/apps/216435/header.jpg?t=1447356259"
    },
    "216436": {
      "Name": "Gotham City Impostors Free to Play: Gadget Pack - Starter ",
      "ImageUrl": "https://steamcdn-a.akamaihd.net/steam/apps/216436/header.jpg?t=1447356259"
    },
    "216437": {
      "Name": "Gotham City Impostors Free to Play: Gadget Pack - Professional ",
      "ImageUrl": "https://steamcdn-a.akamaihd.net/steam/apps/216437/header.jpg?t=1447356261"
    },
    "216438": {
      "Name": "Gotham City Impostors Free to Play: Gadget Pack - Ultimate ",
      "ImageUrl": "https://steamcdn-a.akamaihd.net/steam/apps/216438/header.jpg?t=1447356260"
    },
    "216439": {
      "Name": "Gotham City Impostors Free to Play: Character Pack ",
      "ImageUrl": "https://steamcdn-a.akamaihd.net/steam/apps/216439/header.jpg?t=1447356263"
    },
    "216440": {
      "Name": "Gotham City Impostors Free to Play: Personality Pack ",
      "ImageUrl": "https://steamcdn-a.akamaihd.net/steam/apps/216440/header.jpg?t=1447356264"
    },
    "216441": {
      "Name": "Gotham City Impostors Free to Play: Dress-Up Pack ",
      "ImageUrl": "https://steamcdn-a.akamaihd.net/steam/apps/216441/header.jpg?t=1447356265"
    },
    "216442": {
      "Name": "Gotham City Impostors Free to Play: Business Costume ",
      "ImageUrl": "https://steamcdn-a.akamaihd.net/steam/apps/216442/header.jpg?t=1447356266"
    },
    "216443": {
      "Name": "Gotham City Impostors Free to Play: Luchador Costume ",
      "ImageUrl": "https://steamcdn-a.akamaihd.net/steam/apps/216443/header.jpg?t=1447356267"
    },
    "216444": {
      "Name": "Gotham City Impostors Free to Play: Ninja Costume ",
      "ImageUrl": "https://steamcdn-a.akamaihd.net/steam/apps/216444/header.jpg?t=1447356267"
    },
    "216445": {
      "Name": "Gotham City Impostors Free to Play: Pirate Costume ",
      "ImageUrl": "https://steamcdn-a.akamaihd.net/steam/apps/216445/header.jpg?t=1447356275"
    },
    "216446": {
      "Name": "Gotham City Impostors Free to Play: Cowboy Costume ",
      "ImageUrl": "https://steamcdn-a.akamaihd.net/steam/apps/216446/header.jpg?t=1447356276"
    },
    "216447": {
      "Name": "Gotham City Impostors Free to Play: Steampunk Costume ",
      "ImageUrl": "https://steamcdn-a.akamaihd.net/steam/apps/216447/header.jpg?t=1447356277"
    },
    "216448": {
      "Name": "Gotham City Impostors Free to Play: Crocky ",
      "ImageUrl": "https://steamcdn-a.akamaihd.net/steam/apps/216448/header.jpg?t=1447356278"
    },
    "216449": {
      "Name": "Gotham City Impostors Free to Play: Stitches ",
      "ImageUrl": "https://steamcdn-a.akamaihd.net/steam/apps/216449/header.jpg?t=1447356278"
    },
    "216450": {
      "Name": "Gotham City Impostors Free to Play: Beaky ",
      "ImageUrl": "https://steamcdn-a.akamaihd.net/steam/apps/216450/header.jpg?t=1447356279"
    },
    "216451": {
      "Name": "Gotham City Impostors Free to Play: Gary ",
      "ImageUrl": "https://steamcdn-a.akamaihd.net/steam/apps/216451/header.jpg?t=1447356280"
    },
    "216452": {
      "Name": "Gotham City Impostors Free to Play: Office Bat ",
      "ImageUrl": "https://steamcdn-a.akamaihd.net/steam/apps/216452/header.jpg?t=1447356281"
    },
    "216453": {
      "Name": "Gotham City Impostors Free to Play: Pretty Poison ",
      "ImageUrl": "https://steamcdn-a.akamaihd.net/steam/apps/216453/header.jpg?t=1447356282"
    },
    "216454": {
      "Name": "Gotham City Impostors Free to Play: Killah Kitteh ",
      "ImageUrl": "https://steamcdn-a.akamaihd.net/steam/apps/216454/header.jpg?t=1447356282"
    },
    "216455": {
      "Name": "Gotham City Impostors Free to Play: Harlette ",
      "ImageUrl": "https://steamcdn-a.akamaihd.net/steam/apps/216455/header.jpg?t=1447356283"
    },
    "216456": {
      "Name": "Gotham City Impostors Free to Play: Premium Card Pack 1 ",
      "ImageUrl": "https://steamcdn-a.akamaihd.net/steam/apps/216456/header.jpg?t=1447356284"
    },
    "216457": {
      "Name": "Gotham City Impostors Free to Play: Premium Card Pack 2 ",
      "ImageUrl": "https://steamcdn-a.akamaihd.net/steam/apps/216457/header.jpg?t=1447356284"
    },
    "216458": {
      "Name": "Gotham City Impostors Free to Play: Premium Card Pack 3 ",
      "ImageUrl": "https://steamcdn-a.akamaihd.net/steam/apps/216458/header.jpg?t=1447356286"
    },
    "216459": {
      "Name": "Gotham City Impostors Free to Play: Premium Card Pack 4 ",
      "ImageUrl": "https://steamcdn-a.akamaihd.net/steam/apps/216459/header.jpg?t=1447356320"
    },
    "216460": {
      "Name": "Gotham City Impostors Free to Play: Premium Card Pack 5 ",
      "ImageUrl": "https://steamcdn-a.akamaihd.net/steam/apps/216460/header.jpg?t=1447356321"
    },
    "216461": {
      "Name": "Gotham City Impostors Free to Play: Premium Card Pack 6 ",
      "ImageUrl": "https://steamcdn-a.akamaihd.net/steam/apps/216461/header.jpg?t=1447356321"
    },
    "216462": {
      "Name": "Gotham City Impostors Free to Play: Costume Coin Boost - Solo ",
      "ImageUrl": "https://steamcdn-a.akamaihd.net/steam/apps/216462/header.jpg?t=1447356322"
    },
    "216463": {
      "Name": "Gotham City Impostors Free to Play: XP Boost - Solo ",
      "ImageUrl": "https://steamcdn-a.akamaihd.net/steam/apps/216463/header.jpg?t=1447356285"
    },
    "216464": {
      "Name": "Gotham City Impostors Free to Play: Mega XP Boost - Solo ",
      "ImageUrl": "https://steamcdn-a.akamaihd.net/steam/apps/216464/header.jpg?t=1447356286"
    },
    "216465": {
      "Name": "Gotham City Impostors Free to Play: XP Boost - Team ",
      "ImageUrl": "https://steamcdn-a.akamaihd.net/steam/apps/216465/header.jpg?t=1447356287"
    },
    "216466": {
      "Name": "Gotham City Impostors Free to Play: Starter Impostor Kit ",
      "ImageUrl": "https://steamcdn-a.akamaihd.net/steam/apps/216466/header.jpg?t=1447356288"
    },
    "216467": {
      "Name": "Gotham City Impostors Free to Play: Professional Impostor Kit",
      "ImageUrl": "https://steamcdn-a.akamaihd.net/steam/apps/216467/header.jpg?t=1447356288"
    },
    "216468": {
      "Name": "Gotham City Impostors Free to Play: Ultimate Impostor Kit",
      "ImageUrl": "https://steamcdn-a.akamaihd.net/steam/apps/216468/header.jpg?t=1447356306"
    }
  },
  "Name": "Gotham City Impostors Free to Play",
  "AppId": "206210",
  "ImageUrl": "https://steamcdn-a.akamaihd.net/steam/apps/206210/header.jpg?t=1461103628",
  "Languages": [
    "english",
    "french",
    "german",
    "italian",
    "spanish"
  ],
  "Platforms": {
    "windows": true,
    "mac": false,
    "linux": false
  }
}