﻿{
  "Dlcs": {},
  "Name": "HoPiKo",
  "AppId": "437390",
  "ImageUrl": "https://steamcdn-a.akamaihd.net/steam/apps/437390/header.jpg?t=1572356945",
  "Languages": [
    "english",
    "french",
    "german",
    "spanish",
    "russian"
  ],
  "Platforms": {
    "windows": true,
    "mac": true,
    "linux": false
  }
}