﻿{
  "Dlcs": {},
  "Name": "Red Trigger",
  "AppId": "491130",
  "ImageUrl": "https://steamcdn-a.akamaihd.net/steam/apps/491130/header.jpg?t=1482964278",
  "Languages": [
    "english"
  ],
  "Platforms": {
    "windows": true,
    "mac": false,
    "linux": false
  }
}