﻿{
  "Dlcs": {},
  "Name": "Toy Soldiers: Complete",
  "AppId": "262120",
  "ImageUrl": "https://steamcdn-a.akamaihd.net/steam/apps/262120/header.jpg?t=1455739267",
  "Languages": [
    "english"
  ],
  "Platforms": {
    "windows": true,
    "mac": false,
    "linux": false
  }
}