﻿[
  {
    "name": "16c",
    "defaultvalue": 0,
    "displayName": "16 colors",
    "hidden": 0,
    "description": "You unclocked the 16 colors display.",
    "icon": "https://steamcdn-a.akamaihd.net/steamcommunity/public/images/apps/1020470/06f2564f0ed6729e6052bb699f6540eebdc81e7f.jpg",
    "icongray": "https://steamcdn-a.akamaihd.net/steamcommunity/public/images/apps/1020470/37c36c3be6b52463b7d20698fbf70c80ff57f854.jpg"
  },
  {
    "name": "3d",
    "defaultvalue": 0,
    "displayName": "3D",
    "hidden": 0,
    "description": "You unlocked a whole dimension!",
    "icon": "https://steamcdn-a.akamaihd.net/steamcommunity/public/images/apps/1020470/3e80905b583fc7c88192791ef0b678dce2cd66bd.jpg",
    "icongray": "https://steamcdn-a.akamaihd.net/steamcommunity/public/images/apps/1020470/9b676b38c84eeafc403af0e778de3c49183214a9.jpg"
  },
  {
    "name": "xp",
    "defaultvalue": 0,
    "displayName": "Experience Points",
    "hidden": 0,
    "description": "You unlocked a new way to progess in game.",
    "icon": "https://steamcdn-a.akamaihd.net/steamcommunity/public/images/apps/1020470/c85ff1d5bfc91cf82b4b5bc9a298cfb7fd9b4e29.jpg",
    "icongray": "https://steamcdn-a.akamaihd.net/steamcommunity/public/images/apps/1020470/d25015bf58ee76514d0254eee9282dda0c4a756f.jpg"
  },
  {
    "name": "story",
    "defaultvalue": 0,
    "displayName": "Storyline",
    "hidden": 0,
    "description": "Now you know what we're talking about.",
    "icon": "https://steamcdn-a.akamaihd.net/steamcommunity/public/images/apps/1020470/e84e1de6de1a603342b88ad3ff66fdf072760883.jpg",
    "icongray": "https://steamcdn-a.akamaihd.net/steamcommunity/public/images/apps/1020470/e7ba6868813aa1d1517cd6fc2353528291587e36.jpg"
  },
  {
    "name": "dvd",
    "defaultvalue": 0,
    "displayName": "DVD Player",
    "hidden": 0,
    "description": "You bought the DVD player in Aogai.",
    "icon": "https://steamcdn-a.akamaihd.net/steamcommunity/public/images/apps/1020470/6491941f3d02b05e602e2c05fd0caa72e4a32201.jpg",
    "icongray": "https://steamcdn-a.akamaihd.net/steamcommunity/public/images/apps/1020470/ec18fb3011265bdaa0398efc424f32fe2558091d.jpg"
  },
  {
    "name": "cardm",
    "defaultvalue": 0,
    "displayName": "Card Champion",
    "hidden": 0,
    "description": "You have defeated the strongest decks of Double Twin!",
    "icon": "https://steamcdn-a.akamaihd.net/steamcommunity/public/images/apps/1020470/c0aec983c6c40ab71ae1c1d64870d0ca1eba15af.jpg",
    "icongray": "https://steamcdn-a.akamaihd.net/steamcommunity/public/images/apps/1020470/e049ac41774f46f34bcafb61151087369ac4bac8.jpg"
  },
  {
    "name": "mcoll",
    "defaultvalue": 0,
    "displayName": "Master Collector",
    "hidden": 0,
    "description": "You have shown your full deck of cards to Garen!",
    "icon": "https://steamcdn-a.akamaihd.net/steamcommunity/public/images/apps/1020470/08a81b551031849b4e3a4561c2c9214129bbd34a.jpg",
    "icongray": "https://steamcdn-a.akamaihd.net/steamcommunity/public/images/apps/1020470/f9ad413aa1f5a5492d26c12df51e3444dfb98f6f.jpg"
  },
  {
    "name": "exter",
    "defaultvalue": 0,
    "displayName": "Exterminator",
    "hidden": 0,
    "description": "You killed a bat with a bomb.",
    "icon": "https://steamcdn-a.akamaihd.net/steamcommunity/public/images/apps/1020470/17202297fb3b1fccfa1d22250ffdd1d4c563567d.jpg",
    "icongray": "https://steamcdn-a.akamaihd.net/steamcommunity/public/images/apps/1020470/b90117f40005ba5cd01b724bf098d7171d562938.jpg"
  },
  {
    "name": "sniper",
    "defaultvalue": 0,
    "displayName": "Sniper",
    "hidden": 0,
    "description": "You killed a skeleton with the bow.",
    "icon": "https://steamcdn-a.akamaihd.net/steamcommunity/public/images/apps/1020470/6458a08277af17864e24fc86c765a9180f99286c.jpg",
    "icongray": "https://steamcdn-a.akamaihd.net/steamcommunity/public/images/apps/1020470/67203d929baf7f487d6de511fa159a103841b099.jpg"
  },
  {
    "name": "tako",
    "defaultvalue": 0,
    "displayName": "Takoyaki",
    "hidden": 0,
    "description": "You killed an Octorac with a flaming arrow",
    "icon": "https://steamcdn-a.akamaihd.net/steamcommunity/public/images/apps/1020470/2c4b5eb64d2f0e4588a7e15055b85b10a1ff1ebb.jpg",
    "icongray": "https://steamcdn-a.akamaihd.net/steamcommunity/public/images/apps/1020470/8537214ca98b52e6ecbe3b044434ca3ae9061830.jpg"
  },
  {
    "name": "hunter",
    "defaultvalue": 0,
    "displayName": "Choboko Hunter",
    "hidden": 0,
    "description": "You found and killed a Choboko.",
    "icon": "https://steamcdn-a.akamaihd.net/steamcommunity/public/images/apps/1020470/607beac22a29e072d8bc65a839117a5ebebc5f7c.jpg",
    "icongray": "https://steamcdn-a.akamaihd.net/steamcommunity/public/images/apps/1020470/c4ddf013f349174d7ef02692a71baf90fa6bef6b.jpg"
  },
  {
    "name": "starevo",
    "defaultvalue": 0,
    "displayName": "Star of Evoland",
    "hidden": 0,
    "description": "You have found 10 hidden stars.",
    "icon": "https://steamcdn-a.akamaihd.net/steamcommunity/public/images/apps/1020470/bb5a821059049f428c3586e08ec5d03781bd11ef.jpg",
    "icongray": "https://steamcdn-a.akamaihd.net/steamcommunity/public/images/apps/1020470/d1927180118b9b58f66cfa7ab3b7f128ea4052d8.jpg"
  },
  {
    "name": "superevo",
    "defaultvalue": 0,
    "displayName": "Superstar of Evoland",
    "hidden": 0,
    "description": "You have found 20 hidden stars.",
    "icon": "https://steamcdn-a.akamaihd.net/steamcommunity/public/images/apps/1020470/95030657051b5a23afe9af35fc11d8012138accb.jpg",
    "icongray": "https://steamcdn-a.akamaihd.net/steamcommunity/public/images/apps/1020470/7c803204736555ac7cd4ab57ec024c4205b67e71.jpg"
  },
  {
    "name": "megaevo",
    "defaultvalue": 0,
    "displayName": "Megastar of Evoland",
    "hidden": 0,
    "description": "You have found all the hidden stars.",
    "icon": "https://steamcdn-a.akamaihd.net/steamcommunity/public/images/apps/1020470/453318a8842c0d9467dfc417afef48a04e45b819.jpg",
    "icongray": "https://steamcdn-a.akamaihd.net/steamcommunity/public/images/apps/1020470/44910c6e034173ec76ed90ca5143981c766d3582.jpg"
  },
  {
    "name": "cardp",
    "defaultvalue": 0,
    "displayName": "Card Player",
    "hidden": 0,
    "description": "You have won a game of Double Twin.",
    "icon": "https://steamcdn-a.akamaihd.net/steamcommunity/public/images/apps/1020470/76415b3acdfbed83bdaee5431a1dd319a8225bd7.jpg",
    "icongray": "https://steamcdn-a.akamaihd.net/steamcommunity/public/images/apps/1020470/c6aeed3e87944441118dfabc1dd39df5b1b04967.jpg"
  },
  {
    "name": "coll",
    "defaultvalue": 0,
    "displayName": "Card Collector",
    "hidden": 0,
    "description": "You have found 15 Double Twin cards.",
    "icon": "https://steamcdn-a.akamaihd.net/steamcommunity/public/images/apps/1020470/bdbc5d75cfd364edc93f41eb486b8893c9427640.jpg",
    "icongray": "https://steamcdn-a.akamaihd.net/steamcommunity/public/images/apps/1020470/9916a2196caa93d4f65a189ccea7288dfc363b36.jpg"
  },
  {
    "name": "skels",
    "defaultvalue": 0,
    "displayName": "Undertaker",
    "hidden": 0,
    "description": "You have killed 100 skeletons.",
    "icon": "https://steamcdn-a.akamaihd.net/steamcommunity/public/images/apps/1020470/3543aca8fd6a6e56a2b02af3bfac5f1d6f7cb3cc.jpg",
    "icongray": "https://steamcdn-a.akamaihd.net/steamcommunity/public/images/apps/1020470/d6e19a39723ebb8e6f29768a129c47fe128c419a.jpg"
  },
  {
    "name": "turtle",
    "defaultvalue": 0,
    "displayName": "Turtle Soup",
    "hidden": 0,
    "description": "You have killed 10 A'tuins",
    "icon": "https://steamcdn-a.akamaihd.net/steamcommunity/public/images/apps/1020470/20d3243113595bd0c847a61a4afcfcf11bf4204e.jpg",
    "icongray": "https://steamcdn-a.akamaihd.net/steamcommunity/public/images/apps/1020470/eac68d6b8bd9601fcccb20e456f3c291a67dc755.jpg"
  },
  {
    "name": "20k",
    "defaultvalue": 0,
    "displayName": "Heavy Purse",
    "hidden": 0,
    "description": "You have looted 20000 glis in one play.",
    "icon": "https://steamcdn-a.akamaihd.net/steamcommunity/public/images/apps/1020470/81aaf998f8b986eea0f6281a8afeb272d8d04299.jpg",
    "icongray": "https://steamcdn-a.akamaihd.net/steamcommunity/public/images/apps/1020470/3ea5ffc2a0a3a170bab93525fa685f92635baf5d.jpg"
  },
  {
    "name": "50k",
    "defaultvalue": 0,
    "displayName": "Hoarder",
    "hidden": 0,
    "description": "You have looted 50000 glis in one play.",
    "icon": "https://steamcdn-a.akamaihd.net/steamcommunity/public/images/apps/1020470/fcfe653e15d4ccc3933e1afd8a5666229684ed4f.jpg",
    "icongray": "https://steamcdn-a.akamaihd.net/steamcommunity/public/images/apps/1020470/6fa174b5e13780126e383171e91f8ae66451dc55.jpg"
  },
  {
    "name": "20p",
    "defaultvalue": 0,
    "displayName": "It was an accident",
    "hidden": 0,
    "description": "You have destroyed 20 pots in one play.",
    "icon": "https://steamcdn-a.akamaihd.net/steamcommunity/public/images/apps/1020470/74a1f80f1bf4fbbe88c1738ef3f4421f54075629.jpg",
    "icongray": "https://steamcdn-a.akamaihd.net/steamcommunity/public/images/apps/1020470/dc7d1f783b13591500c57ea311fe3809ce9b1836.jpg"
  },
  {
    "name": "bomb",
    "defaultvalue": 0,
    "displayName": "Excavations",
    "hidden": 0,
    "description": "You have used a bomb to destroy a wall.",
    "icon": "https://steamcdn-a.akamaihd.net/steamcommunity/public/images/apps/1020470/5ff2840df8c3d55a682bdaadea58516752d87bb0.jpg",
    "icongray": "https://steamcdn-a.akamaihd.net/steamcommunity/public/images/apps/1020470/e3fee2888cb0904c61501a2fba77b8fa0f15824a.jpg"
  },
  {
    "name": "time",
    "defaultvalue": 0,
    "displayName": "Time Traveller",
    "hidden": 0,
    "description": "You have travelled through time 12 times.",
    "icon": "https://steamcdn-a.akamaihd.net/steamcommunity/public/images/apps/1020470/2d1c17084fbc52c6f110c7840745c4ec6866c682.jpg",
    "icongray": "https://steamcdn-a.akamaihd.net/steamcommunity/public/images/apps/1020470/39ee3f004cceade7b8f007087a3ce04ff92a840f.jpg"
  },
  {
    "name": "dodge",
    "defaultvalue": 0,
    "displayName": "Dodgeball",
    "hidden": 0,
    "description": "You have beaten the Noria Mines boss with full health.",
    "icon": "https://steamcdn-a.akamaihd.net/steamcommunity/public/images/apps/1020470/a96515a0cb0f1171ae41ba2560abe9ec7338029c.jpg",
    "icongray": "https://steamcdn-a.akamaihd.net/steamcommunity/public/images/apps/1020470/6bb210b3564d76c3f1e30a5c82e5f382bf8227e3.jpg"
  },
  {
    "name": "explo",
    "defaultvalue": 0,
    "displayName": "True Explorer",
    "hidden": 0,
    "description": "You have found the Hidden Cave.",
    "icon": "https://steamcdn-a.akamaihd.net/steamcommunity/public/images/apps/1020470/78fb92380a5fe5bbe064f197bcb945d693c4b99f.jpg",
    "icongray": "https://steamcdn-a.akamaihd.net/steamcommunity/public/images/apps/1020470/bd71c87764d02cda3e7969963a8e681cd9b0ca9a.jpg"
  },
  {
    "name": "crawl",
    "defaultvalue": 0,
    "displayName": "Dungeon Crawler",
    "hidden": 0,
    "description": "You have found the Shrine of the Babamut.",
    "icon": "https://steamcdn-a.akamaihd.net/steamcommunity/public/images/apps/1020470/c393635c04d1ccf322e1cc76cb1208796a4b2a8a.jpg",
    "icongray": "https://steamcdn-a.akamaihd.net/steamcommunity/public/images/apps/1020470/01f8440fd07a31124af29e585551d4dc16e6f800.jpg"
  },
  {
    "name": "carto",
    "defaultvalue": 0,
    "displayName": "Cartographer",
    "hidden": 0,
    "description": "You have found the Hidden Lake.",
    "icon": "https://steamcdn-a.akamaihd.net/steamcommunity/public/images/apps/1020470/bfe48119adc2887239cebfe74c03d35348e21714.jpg",
    "icongray": "https://steamcdn-a.akamaihd.net/steamcommunity/public/images/apps/1020470/19fc3c2d91033a63200222500eabdd5db9646c6a.jpg"
  },
  {
    "name": "heroic",
    "defaultvalue": 0,
    "displayName": "Hero",
    "hidden": 0,
    "description": "You have defeated Zephyros.",
    "icon": "https://steamcdn-a.akamaihd.net/steamcommunity/public/images/apps/1020470/0f32a63c6c237e4c103db89f769f1455d890ee2b.jpg",
    "icongray": "https://steamcdn-a.akamaihd.net/steamcommunity/public/images/apps/1020470/37f1af3d7eb444a2029b55ef99ca7b918c0fd3bb.jpg"
  },
  {
    "name": "lvl",
    "defaultvalue": 0,
    "displayName": "Powerlevel",
    "hidden": 0,
    "description": "You have reached level 30",
    "icon": "https://steamcdn-a.akamaihd.net/steamcommunity/public/images/apps/1020470/890fe78b8f552a9f7ce11eb63e92e74c0a0233ae.jpg",
    "icongray": "https://steamcdn-a.akamaihd.net/steamcommunity/public/images/apps/1020470/bee0da6335e874172cfbaa4ca54a71c14cef709c.jpg"
  },
  {
    "name": "worldmap",
    "defaultvalue": 0,
    "displayName": "World Map",
    "hidden": 0,
    "description": "You feel like a true explorer",
    "icon": "https://steamcdn-a.akamaihd.net/steamcommunity/public/images/apps/1020470/cf82144c2ae564ef1bef1803bdf808ca39fe6cef.jpg",
    "icongray": "https://steamcdn-a.akamaihd.net/steamcommunity/public/images/apps/1020470/4af28b2ad5d82dadf024eb0b44e5f475ef810cae.jpg"
  },
  {
    "name": "cardgame",
    "defaultvalue": 0,
    "displayName": "Card Player",
    "hidden": 0,
    "description": "You played your first game of cards",
    "icon": "https://steamcdn-a.akamaihd.net/steamcommunity/public/images/apps/1020470/05f17b6dba5c3a3d9acf8e79893277ec40de32fe.jpg",
    "icongray": "https://steamcdn-a.akamaihd.net/steamcommunity/public/images/apps/1020470/10c0eb8455ef45f31c1fd75f9e9eeb43d5f056f4.jpg"
  },
  {
    "name": "pokerface",
    "defaultvalue": 0,
    "displayName": "Poker Face",
    "hidden": 0,
    "description": "You have won 50 card games!",
    "icon": "https://steamcdn-a.akamaihd.net/steamcommunity/public/images/apps/1020470/bfb62088fdc24c2b3b0a7435bc7b0d3ffcad4c48.jpg",
    "icongray": "https://steamcdn-a.akamaihd.net/steamcommunity/public/images/apps/1020470/0e558a9f1b1ab88cca6c25c73cb1fd0642696c7a.jpg"
  },
  {
    "name": "collector",
    "defaultvalue": 0,
    "displayName": "Collector",
    "hidden": 0,
    "description": "You have found all the cards in Evoland 2!",
    "icon": "https://steamcdn-a.akamaihd.net/steamcommunity/public/images/apps/1020470/24bb612c7c9da7849288f3f3a63e78b0d12747a0.jpg",
    "icongray": "https://steamcdn-a.akamaihd.net/steamcommunity/public/images/apps/1020470/00e707865a200d8ecbf0451955399a6fbe8e361a.jpg"
  },
  {
    "name": "flyingm",
    "defaultvalue": 0,
    "displayName": "Flying Machine",
    "hidden": 0,
    "description": "What could possibly go wrong?",
    "icon": "https://steamcdn-a.akamaihd.net/steamcommunity/public/images/apps/1020470/0ce34ed09f3a182cd68ced4d24cedaa9c1486773.jpg",
    "icongray": "https://steamcdn-a.akamaihd.net/steamcommunity/public/images/apps/1020470/444a93d306ef44e91304f10e4545a34498edfcdc.jpg"
  },
  {
    "name": "fina",
    "defaultvalue": 0,
    "displayName": "A new friend",
    "hidden": 0,
    "description": "Fina has joined your team!",
    "icon": "https://steamcdn-a.akamaihd.net/steamcommunity/public/images/apps/1020470/129a36542a60151a188776e09cd55ba6663ffbf8.jpg",
    "icongray": "https://steamcdn-a.akamaihd.net/steamcommunity/public/images/apps/1020470/1b470ce627477185fc1b550331843c4266542a64.jpg"
  },
  {
    "name": "menos",
    "defaultvalue": 0,
    "displayName": "Another friend",
    "hidden": 0,
    "description": "Menos has joined your team!",
    "icon": "https://steamcdn-a.akamaihd.net/steamcommunity/public/images/apps/1020470/9fe55343735d16e3c1205cc260da94eba1099050.jpg",
    "icongray": "https://steamcdn-a.akamaihd.net/steamcommunity/public/images/apps/1020470/cc3dd2bad8bc8817258e2660e6b0b392f4cbeefb.jpg"
  },
  {
    "name": "velvet",
    "defaultvalue": 0,
    "displayName": "This is getting crowded",
    "hidden": 0,
    "description": "Velvet has joined your team!",
    "icon": "https://steamcdn-a.akamaihd.net/steamcommunity/public/images/apps/1020470/753c9252c432235dadfa86b05436bfad8a77128e.jpg",
    "icongray": "https://steamcdn-a.akamaihd.net/steamcommunity/public/images/apps/1020470/d23997a4e1a50b049a2e2145dd1f68ac565a177c.jpg"
  },
  {
    "name": "finap",
    "defaultvalue": 0,
    "displayName": "Power of Nature",
    "hidden": 0,
    "description": "You have unlocked the true power of Fina",
    "icon": "https://steamcdn-a.akamaihd.net/steamcommunity/public/images/apps/1020470/0ebc82d3a17f67797c76d755fc4a123ac77ef5c0.jpg",
    "icongray": "https://steamcdn-a.akamaihd.net/steamcommunity/public/images/apps/1020470/244ceb305be9090507a2a0eef3066d3f14a826f5.jpg"
  },
  {
    "name": "menosp",
    "defaultvalue": 0,
    "displayName": "Power of Fire and Earth",
    "hidden": 0,
    "description": "You have unlocked the true power of Menos",
    "icon": "https://steamcdn-a.akamaihd.net/steamcommunity/public/images/apps/1020470/2d5ff9b59a2f575d5d9072129acc86e3129f2a48.jpg",
    "icongray": "https://steamcdn-a.akamaihd.net/steamcommunity/public/images/apps/1020470/963f2011c036bf9a63f95df30c0b5557ce4f8f5f.jpg"
  },
  {
    "name": "velvetp",
    "defaultvalue": 0,
    "displayName": "Power of Ice",
    "hidden": 0,
    "description": "You have unlocked the true power of Velvet",
    "icon": "https://steamcdn-a.akamaihd.net/steamcommunity/public/images/apps/1020470/2da2cdd7c2b7a4fd14632b5bd74cbe417a3c50bb.jpg",
    "icongray": "https://steamcdn-a.akamaihd.net/steamcommunity/public/images/apps/1020470/6a934a2940fbcbfd61dc4e26838cc2f2762fc783.jpg"
  },
  {
    "name": "starp",
    "defaultvalue": 0,
    "displayName": "Star Player",
    "hidden": 0,
    "description": "You have found all 30 stars!",
    "icon": "https://steamcdn-a.akamaihd.net/steamcommunity/public/images/apps/1020470/b125daead18e4d05364e55fe71e386c3cf56f91b.jpg",
    "icongray": "https://steamcdn-a.akamaihd.net/steamcommunity/public/images/apps/1020470/346d36ad33402029fd45c0a6f7eb6116040fcfda.jpg"
  },
  {
    "name": "tombr",
    "defaultvalue": 0,
    "displayName": "Tomb Raider",
    "hidden": 0,
    "description": "You have found the hidden tomb",
    "icon": "https://steamcdn-a.akamaihd.net/steamcommunity/public/images/apps/1020470/b3961a15aee090465bc63c26f4f3b1a3a6a8854f.jpg",
    "icongray": "https://steamcdn-a.akamaihd.net/steamcommunity/public/images/apps/1020470/5c7946228b6d767ed4ba48f63f502898cbec47ca.jpg"
  },
  {
    "name": "scholar",
    "defaultvalue": 0,
    "displayName": "Scholar",
    "hidden": 0,
    "description": "You have solved all 8 puzzles in the library",
    "icon": "https://steamcdn-a.akamaihd.net/steamcommunity/public/images/apps/1020470/b61e6f4042d070bc2a0c902008448060a2f3ab1f.jpg",
    "icongray": "https://steamcdn-a.akamaihd.net/steamcommunity/public/images/apps/1020470/51e01dcf2440fe58c898f1526498bbf12d111097.jpg"
  },
  {
    "name": "gold",
    "defaultvalue": 0,
    "displayName": "Over 9000!!!",
    "hidden": 0,
    "description": "You got more than 9000 Gold",
    "icon": "https://steamcdn-a.akamaihd.net/steamcommunity/public/images/apps/1020470/f2668e6ab8af80110d432a9ac8c29ee6b7dde5e1.jpg",
    "icongray": "https://steamcdn-a.akamaihd.net/steamcommunity/public/images/apps/1020470/056dfd448879feee977a1c121d02cd05a9cd6cfd.jpg"
  },
  {
    "name": "future",
    "defaultvalue": 0,
    "displayName": "To the future!",
    "hidden": 0,
    "description": "No trails of fire this time",
    "icon": "https://steamcdn-a.akamaihd.net/steamcommunity/public/images/apps/1020470/c74e4120218fe5bfcbceaf4ab43cd5e2c36511ca.jpg",
    "icongray": "https://steamcdn-a.akamaihd.net/steamcommunity/public/images/apps/1020470/13302025790cd666bb2b111df72706c31606099a.jpg"
  },
  {
    "name": "dual",
    "defaultvalue": 0,
    "displayName": "Dual personality",
    "hidden": 0,
    "description": "I sense a troubling past... or is it a future?",
    "icon": "https://steamcdn-a.akamaihd.net/steamcommunity/public/images/apps/1020470/2e7e735e296f266524076078b803086dcd4cdcfb.jpg",
    "icongray": "https://steamcdn-a.akamaihd.net/steamcommunity/public/images/apps/1020470/62f8dba9a5d5d0a78318b14cb4ff2b92a12e6e28.jpg"
  },
  {
    "name": "mma",
    "defaultvalue": 0,
    "displayName": "MMA Champion",
    "hidden": 0,
    "description": "You have defeated the Prophet",
    "icon": "https://steamcdn-a.akamaihd.net/steamcommunity/public/images/apps/1020470/763b1d4722574dd9a1def95ae67e5577716680a4.jpg",
    "icongray": "https://steamcdn-a.akamaihd.net/steamcommunity/public/images/apps/1020470/0fc47c484fb9a28439f1e5c0cc0f3d7092bbb559.jpg"
  },
  {
    "name": "bridge",
    "defaultvalue": 0,
    "displayName": "You shall pass!",
    "hidden": 0,
    "description": "You have re-opened the Mayenne Bridge",
    "icon": "https://steamcdn-a.akamaihd.net/steamcommunity/public/images/apps/1020470/9fe36f5b5ea9f42a2241dcfdd2d70c13b135fe8e.jpg",
    "icongray": "https://steamcdn-a.akamaihd.net/steamcommunity/public/images/apps/1020470/3943af061df760a0db93e32a5f6f057618bf2248.jpg"
  },
  {
    "name": "dragon",
    "defaultvalue": 0,
    "displayName": "Triple Dragon",
    "hidden": 0,
    "description": "You have escaped the Pirate's Lair",
    "icon": "https://steamcdn-a.akamaihd.net/steamcommunity/public/images/apps/1020470/a4b83714eaf5aede5851a9ea41ebcf77e3c090fc.jpg",
    "icongray": "https://steamcdn-a.akamaihd.net/steamcommunity/public/images/apps/1020470/9008482eb7979fdda27f8c2404746cf50d582c29.jpg"
  },
  {
    "name": "sylves",
    "defaultvalue": 0,
    "displayName": "Mastermind",
    "hidden": 0,
    "description": "You have escaped the Sylphs' Forest",
    "icon": "https://steamcdn-a.akamaihd.net/steamcommunity/public/images/apps/1020470/37ca5f1f55871ed6e66d2145152abb8b4366d14a.jpg",
    "icongray": "https://steamcdn-a.akamaihd.net/steamcommunity/public/images/apps/1020470/bb477f11aca1cdb468e96937016604c3cbeef406.jpg"
  },
  {
    "name": "battle",
    "defaultvalue": 0,
    "displayName": "Battle Master",
    "hidden": 0,
    "description": "You have won the Campaign for Demonia",
    "icon": "https://steamcdn-a.akamaihd.net/steamcommunity/public/images/apps/1020470/4ff6f93e7a654aec7771289b02ad174932be458e.jpg",
    "icongray": "https://steamcdn-a.akamaihd.net/steamcommunity/public/images/apps/1020470/c89e3e2d4dfcd05ad73f4ee0ccffdf99690e147b.jpg"
  },
  {
    "name": "antik",
    "defaultvalue": 0,
    "displayName": "Old Times",
    "hidden": 0,
    "description": "You have travelled to the Ancient Times",
    "icon": "https://steamcdn-a.akamaihd.net/steamcommunity/public/images/apps/1020470/112f2715a5b58feb328ed8ae45233f480b7bd4ac.jpg",
    "icongray": "https://steamcdn-a.akamaihd.net/steamcommunity/public/images/apps/1020470/8389bba4ace75025625f9d19035913717725610e.jpg"
  },
  {
    "name": "glitch",
    "defaultvalue": 0,
    "displayName": "Glitched",
    "hidden": 0,
    "description": "You have discovered the Anomaly",
    "icon": "https://steamcdn-a.akamaihd.net/steamcommunity/public/images/apps/1020470/318f064b5c7ad32dd30b7c3a4a5f468c38472c3b.jpg",
    "icongray": "https://steamcdn-a.akamaihd.net/steamcommunity/public/images/apps/1020470/848a83cd918224cee858d8d2fccb7ad93fe9f096.jpg"
  },
  {
    "name": "match",
    "defaultvalue": 0,
    "displayName": "MatchMaker",
    "hidden": 0,
    "description": "You have defeated J.Snow",
    "icon": "https://steamcdn-a.akamaihd.net/steamcommunity/public/images/apps/1020470/4a162effad23dc72cc9222d4b15342c4ad576c96.jpg",
    "icongray": "https://steamcdn-a.akamaihd.net/steamcommunity/public/images/apps/1020470/3bd3c27bb4edb209dffaa26dd0e1fb59242d7c0d.jpg"
  },
  {
    "name": "fragments",
    "defaultvalue": 0,
    "displayName": "The Key",
    "hidden": 0,
    "description": "You have recovered the Key",
    "icon": "https://steamcdn-a.akamaihd.net/steamcommunity/public/images/apps/1020470/8a58d01bd2c92de915dbf54d641fea8668853f99.jpg",
    "icongray": "https://steamcdn-a.akamaihd.net/steamcommunity/public/images/apps/1020470/d2eb38562a59448337a6d6113d8e6e0d0d0ed2ce.jpg"
  },
  {
    "name": "mgs",
    "defaultvalue": 0,
    "displayName": "The Ear Pull",
    "hidden": 0,
    "description": "You escaped the guards thanks to the cardbox",
    "icon": "https://steamcdn-a.akamaihd.net/steamcommunity/public/images/apps/1020470/f75edb1312dbb94ae59e4d75c608cd00516e4431.jpg",
    "icongray": "https://steamcdn-a.akamaihd.net/steamcommunity/public/images/apps/1020470/d0bcf2268b4d3f547cd6f18fff2e198989cf2c05.jpg"
  },
  {
    "name": "hero",
    "defaultvalue": 0,
    "displayName": "Like a true hero",
    "hidden": 0,
    "description": "You have defeated Evil! Maybe.",
    "icon": "https://steamcdn-a.akamaihd.net/steamcommunity/public/images/apps/1020470/2e5b56fb4e9658616003995244b6e254a8c1dd73.jpg",
    "icongray": "https://steamcdn-a.akamaihd.net/steamcommunity/public/images/apps/1020470/7c365bbcbdf214043a16532e19475863e0e44ba6.jpg"
  },
  {
    "name": "creeper",
    "defaultvalue": 0,
    "displayName": "sssSSSSSss BOOM!",
    "hidden": 0,
    "description": "You died to the Dreaded Creeper",
    "icon": "https://steamcdn-a.akamaihd.net/steamcommunity/public/images/apps/1020470/7d008243e495b1a9e0dc877a894e99edfa1d22d6.jpg",
    "icongray": "https://steamcdn-a.akamaihd.net/steamcommunity/public/images/apps/1020470/bab20cb0afb7dbc3dcd04fb809df006f34263476.jpg"
  },
  {
    "name": "doubletap",
    "defaultvalue": 0,
    "displayName": "Double Tap",
    "hidden": 0,
    "description": "You've killed 40 zombies in the Ghost Forest",
    "icon": "https://steamcdn-a.akamaihd.net/steamcommunity/public/images/apps/1020470/cf43c273bc987ec243996a5b84791e89e2f24bfa.jpg",
    "icongray": "https://steamcdn-a.akamaihd.net/steamcommunity/public/images/apps/1020470/ab84d1f426778ccf5ee1a81dcf8163db1fa3e384.jpg"
  },
  {
    "name": "zelda",
    "defaultvalue": 0,
    "displayName": "Friend of beasts",
    "hidden": 0,
    "description": "You survived the Cluckety Isle",
    "icon": "https://steamcdn-a.akamaihd.net/steamcommunity/public/images/apps/1020470/32e5f18d02cb76c77a8f0b7278976be0b3507460.jpg",
    "icongray": "https://steamcdn-a.akamaihd.net/steamcommunity/public/images/apps/1020470/4e5ed8503013fb6be874df7b16258ef545fe2f32.jpg"
  },
  {
    "name": "sylves2",
    "defaultvalue": 0,
    "displayName": "Video Games Hall of Fame",
    "hidden": 0,
    "description": "You spoke to each old hero",
    "icon": "https://steamcdn-a.akamaihd.net/steamcommunity/public/images/apps/1020470/762c79a98dabd9be16dd6bc7e9cab32bd1a5d7a6.jpg",
    "icongray": "https://steamcdn-a.akamaihd.net/steamcommunity/public/images/apps/1020470/984ef5903b4b4862586602b9a7a6c906794b585e.jpg"
  },
  {
    "name": "lostviking",
    "defaultvalue": 0,
    "displayName": "Lost Wiking",
    "hidden": 0,
    "description": "You found the lost Wiking",
    "icon": "https://steamcdn-a.akamaihd.net/steamcommunity/public/images/apps/1020470/30eef132192e650a4b18b086107ae19eaa9a1565.jpg",
    "icongray": "https://steamcdn-a.akamaihd.net/steamcommunity/public/images/apps/1020470/3d590c87bf52ef952a6abf920a29ddf332de8756.jpg"
  },
  {
    "name": "chitchat",
    "defaultvalue": 0,
    "displayName": "Chit chat",
    "hidden": 0,
    "description": "You talked to 50 different NPC",
    "icon": "https://steamcdn-a.akamaihd.net/steamcommunity/public/images/apps/1020470/8bd538868cc94c18dc4b94d3da02bd8e82933be4.jpg",
    "icongray": "https://steamcdn-a.akamaihd.net/steamcommunity/public/images/apps/1020470/15137f360789bd61d7995a1fab6cd3ee89504cd1.jpg"
  },
  {
    "name": "trim",
    "defaultvalue": 0,
    "displayName": "Trimmer",
    "hidden": 0,
    "description": "You have cut 10 bushes!",
    "icon": "https://steamcdn-a.akamaihd.net/steamcommunity/public/images/apps/1020470/6da47a0cbad2a6a9d21f98bc42a4ff068d3cbcc6.jpg",
    "icongray": "https://steamcdn-a.akamaihd.net/steamcommunity/public/images/apps/1020470/d5e00f8b123efe8d6384f08ea4f1a8b69f2eaba8.jpg"
  },
  {
    "name": "weed",
    "defaultvalue": 0,
    "displayName": "Weedkiller",
    "hidden": 0,
    "description": "That's 100 bushes. You can stop now.",
    "icon": "https://steamcdn-a.akamaihd.net/steamcommunity/public/images/apps/1020470/b6583154351afe9e2642ad9c50942171b841507f.jpg",
    "icongray": "https://steamcdn-a.akamaihd.net/steamcommunity/public/images/apps/1020470/fd35162d50779a10dedc500fbc9a5ebf6aa0a055.jpg"
  }
]