﻿[
  {
    "name": "ACHIEVEMENT_00",
    "defaultvalue": 0,
    "displayName": "Let's get started",
    "hidden": 0,
    "description": "Find the gateway gun",
    "icon": "https://steamcdn-a.akamaihd.net/steamcommunity/public/images/apps/216290/e0c4be410d8bedc91de8c7104f75bbb1ffc60f0a.jpg",
    "icongray": "https://steamcdn-a.akamaihd.net/steamcommunity/public/images/apps/216290/2b7e2cc571cdb0522775d573b6e89bf4aee32403.jpg"
  },
  {
    "name": "ACHIEVEMENT_01",
    "defaultvalue": 0,
    "displayName": "Shed some light",
    "hidden": 0,
    "description": "Find the torch",
    "icon": "https://steamcdn-a.akamaihd.net/steamcommunity/public/images/apps/216290/e3b5b8da0be5b184bec2201d12692ee9982ae68e.jpg",
    "icongray": "https://steamcdn-a.akamaihd.net/steamcommunity/public/images/apps/216290/9179dcf33a6261a9d0f2f50666b124e53622bd73.jpg"
  },
  {
    "name": "ACHIEVEMENT_02",
    "defaultvalue": 0,
    "displayName": "Little and large",
    "hidden": 0,
    "description": "Find the resizing gateway gun",
    "icon": "https://steamcdn-a.akamaihd.net/steamcommunity/public/images/apps/216290/dd3128a7cf00c79e2174e8765b7522b4990297c8.jpg",
    "icongray": "https://steamcdn-a.akamaihd.net/steamcommunity/public/images/apps/216290/9296420d0d357ad46e4f4beb41b007aab635ba0a.jpg"
  },
  {
    "name": "ACHIEVEMENT_03",
    "defaultvalue": 0,
    "displayName": "On reflection",
    "hidden": 0,
    "description": "Find the mirror",
    "icon": "https://steamcdn-a.akamaihd.net/steamcommunity/public/images/apps/216290/9296ba7d56f09409fa1054df2c3d99120c5e118c.jpg",
    "icongray": "https://steamcdn-a.akamaihd.net/steamcommunity/public/images/apps/216290/ee4c1c65b4e41b06616398e84e82679e29c91dc5.jpg"
  },
  {
    "name": "ACHIEVEMENT_04",
    "defaultvalue": 0,
    "displayName": "The time machine",
    "hidden": 0,
    "description": "Find the time travel gateway gun",
    "icon": "https://steamcdn-a.akamaihd.net/steamcommunity/public/images/apps/216290/17d3c21a88a7af376556fc35a57268d03c3a6176.jpg",
    "icongray": "https://steamcdn-a.akamaihd.net/steamcommunity/public/images/apps/216290/adc86ba2cf215d8ef2bdf6700e09747ca72ded73.jpg"
  },
  {
    "name": "ACHIEVEMENT_05",
    "defaultvalue": 0,
    "displayName": "Gravity of the situation",
    "hidden": 0,
    "description": "Find the rotation gateway gun",
    "icon": "https://steamcdn-a.akamaihd.net/steamcommunity/public/images/apps/216290/301a5b3f357285cd2ac2bf8373ec05794c695220.jpg",
    "icongray": "https://steamcdn-a.akamaihd.net/steamcommunity/public/images/apps/216290/427836f9c391b899b176ee933eb2ac5f69a36e51.jpg"
  },
  {
    "name": "ACHIEVEMENT_06",
    "defaultvalue": 0,
    "displayName": "The fun begins",
    "hidden": 0,
    "description": "Find the multi gun",
    "icon": "https://steamcdn-a.akamaihd.net/steamcommunity/public/images/apps/216290/0c50f23b2acdcac880211079da096303a50092da.jpg",
    "icongray": "https://steamcdn-a.akamaihd.net/steamcommunity/public/images/apps/216290/7e9442c7095341922558094bc443fbbf177bea54.jpg"
  },
  {
    "name": "ACHIEVEMENT_07",
    "defaultvalue": 0,
    "displayName": "Master of time",
    "hidden": 0,
    "description": "Find the time suit",
    "icon": "https://steamcdn-a.akamaihd.net/steamcommunity/public/images/apps/216290/29d93378fab89d54e7011cd01d5f48912479b74e.jpg",
    "icongray": "https://steamcdn-a.akamaihd.net/steamcommunity/public/images/apps/216290/fe24ef1937a51a162bb116701650ec3e2e5c0c6a.jpg"
  },
  {
    "name": "ACHIEVEMENT_08",
    "defaultvalue": 0,
    "displayName": "The truth",
    "hidden": 0,
    "description": "Complete the game",
    "icon": "https://steamcdn-a.akamaihd.net/steamcommunity/public/images/apps/216290/2e47ac5cc660dc2eb606c67cc5b47758dd8f4e42.jpg",
    "icongray": "https://steamcdn-a.akamaihd.net/steamcommunity/public/images/apps/216290/9b050ea296cf66fcb8195e5b2a81a48e7e153a22.jpg"
  },
  {
    "name": "ACHIEVEMENT_09",
    "defaultvalue": 0,
    "displayName": "The high jump",
    "hidden": 0,
    "description": "Find all jump boosts",
    "icon": "https://steamcdn-a.akamaihd.net/steamcommunity/public/images/apps/216290/0024f28b2c9313c83b34a94a99c1bbcb10d689da.jpg",
    "icongray": "https://steamcdn-a.akamaihd.net/steamcommunity/public/images/apps/216290/197d0abd2b0d8f8873c63c33357951e90cd17173.jpg"
  },
  {
    "name": "ACHIEVEMENT_10",
    "defaultvalue": 0,
    "displayName": "Picture of health",
    "hidden": 0,
    "description": "Find all health boosts",
    "icon": "https://steamcdn-a.akamaihd.net/steamcommunity/public/images/apps/216290/756ba6d8ab9d2522b5d99d76223c953d30953097.jpg",
    "icongray": "https://steamcdn-a.akamaihd.net/steamcommunity/public/images/apps/216290/8cf49f91b70dab8a0d03766224e7508dcffc8207.jpg"
  },
  {
    "name": "ACHIEVEMENT_11",
    "defaultvalue": 0,
    "displayName": "You again",
    "hidden": 0,
    "description": "Find all extra echo power ups",
    "icon": "https://steamcdn-a.akamaihd.net/steamcommunity/public/images/apps/216290/7c322869de4df6010c39354403fee6144969e527.jpg",
    "icongray": "https://steamcdn-a.akamaihd.net/steamcommunity/public/images/apps/216290/16d899202861d73d599fb323f4ef070aa7edab4d.jpg"
  },
  {
    "name": "ACHIEVEMENT_12",
    "defaultvalue": 0,
    "displayName": "Raising the bar",
    "hidden": 0,
    "description": "Find all time extending power ups",
    "icon": "https://steamcdn-a.akamaihd.net/steamcommunity/public/images/apps/216290/f3c3ff8bbc03a965a2aa4ded0ce4a6a4aa44cd20.jpg",
    "icongray": "https://steamcdn-a.akamaihd.net/steamcommunity/public/images/apps/216290/778470097cc4ecfe085cbac15b57fd9c94fbe085.jpg"
  },
  {
    "name": "ACHIEVEMENT_13",
    "defaultvalue": 0,
    "displayName": "Completionist",
    "hidden": 0,
    "description": "Collect all 500 power orbs",
    "icon": "https://steamcdn-a.akamaihd.net/steamcommunity/public/images/apps/216290/4002adc463675635dfd69753ba5ca5ff0d2dcfca.jpg",
    "icongray": "https://steamcdn-a.akamaihd.net/steamcommunity/public/images/apps/216290/1d6a04ff2bf88292d3683f94a73701ab6dc32641.jpg"
  },
  {
    "name": "ACHIEVEMENT_14",
    "defaultvalue": 0,
    "displayName": "No assistance necessary",
    "hidden": 0,
    "description": "Complete the game with 500 power orbs",
    "icon": "https://steamcdn-a.akamaihd.net/steamcommunity/public/images/apps/216290/33f911913522ac74b79f9e887f79b0fbdf3e4ba1.jpg",
    "icongray": "https://steamcdn-a.akamaihd.net/steamcommunity/public/images/apps/216290/4e34da93a4e9f691469b11bd855c9ed41f19b6f3.jpg"
  },
  {
    "name": "ACHIEVEMENT_15",
    "defaultvalue": 0,
    "displayName": "Die!!!",
    "hidden": 0,
    "description": "Destroy all enemies in the game,... including the recharging ones",
    "icon": "https://steamcdn-a.akamaihd.net/steamcommunity/public/images/apps/216290/3a15aac581f59517ddabb94db97a049268367f3b.jpg",
    "icongray": "https://steamcdn-a.akamaihd.net/steamcommunity/public/images/apps/216290/9f0181b2ebfd328fb496a47afb6364c5c91a2e9b.jpg"
  },
  {
    "name": "ACHIEVEMENT_16",
    "defaultvalue": 0,
    "displayName": "New levels!",
    "hidden": 0,
    "description": "Download a Steam Workshop level",
    "icon": "https://steamcdn-a.akamaihd.net/steamcommunity/public/images/apps/216290/2b3cb4c98ba9d25f5065dac82e8ee2b6607ac1e3.jpg",
    "icongray": "https://steamcdn-a.akamaihd.net/steamcommunity/public/images/apps/216290/8af389bdcd3128f92f7afe797a09744383715fb3.jpg"
  },
  {
    "name": "ACHIEVEMENT_17",
    "defaultvalue": 0,
    "displayName": "That's the way to do it",
    "hidden": 0,
    "description": "Record a solution for a help point in your own level",
    "icon": "https://steamcdn-a.akamaihd.net/steamcommunity/public/images/apps/216290/57ca907f286c53cfe0da06ceb857ab228cce3043.jpg",
    "icongray": "https://steamcdn-a.akamaihd.net/steamcommunity/public/images/apps/216290/97d64bca78e3ec2adb8ddae6899dc6a31e6d419c.jpg"
  }
]