﻿[
  {
    "name": "NumGames",
    "defaultvalue": 0,
    "displayName": "NumGames"
  },
  {
    "name": "NumUseTraps",
    "defaultvalue": 0,
    "displayName": "NumUseTraps"
  },
  {
    "name": "NumKills",
    "defaultvalue": 0,
    "displayName": "NumKills"
  },
  {
    "name": "NumHideBody",
    "defaultvalue": 0,
    "displayName": "NumHideBody"
  },
  {
    "name": "NumPassLevelWithoutTraps",
    "defaultvalue": 0,
    "displayName": "NumPassLevelWithoutTraps"
  },
  {
    "name": "NumKill5PeopleInRow",
    "defaultvalue": 0,
    "displayName": "NumKill5PeopleInRow"
  },
  {
    "name": "NumKill10PeopleInRow",
    "defaultvalue": 0,
    "displayName": "NumKill10PeopleInRow"
  },
  {
    "name": "NumKill15PeopleInRow",
    "defaultvalue": 0,
    "displayName": "NumKill15PeopleInRow"
  },
  {
    "name": "NumEscapeFromCop",
    "defaultvalue": 0,
    "displayName": "NumEscapeFromCom"
  },
  {
    "name": "NumDie",
    "defaultvalue": 0,
    "displayName": "NumDie"
  },
  {
    "name": "NumKillCallingCop",
    "defaultvalue": 0,
    "displayName": "NumKillCollingCop"
  },
  {
    "name": "NumKillVegasThieves",
    "defaultvalue": 0,
    "displayName": "NumKillVegasThieves"
  },
  {
    "name": "NumCompleteGame",
    "defaultvalue": 0,
    "displayName": "NumCompleteGame"
  },
  {
    "name": "NumLoseLevel1Alive",
    "defaultvalue": 0,
    "displayName": "NumLoseLevel1Alive"
  },
  {
    "name": "NumCompleteAllAchievements",
    "defaultvalue": 0,
    "displayName": "NumCompleteAllAchievements"
  },
  {
    "name": "NumGetAssKickForDance",
    "defaultvalue": 0,
    "displayName": "NumGetAssKickForDance"
  },
  {
    "name": "NumKillStunned",
    "defaultvalue": 0,
    "displayName": "NumKillStunned"
  },
  {
    "name": "NumKillWithHorse",
    "defaultvalue": 0,
    "displayName": "NumKillWithHorse"
  },
  {
    "name": "NumCompleteLevelIn3Min",
    "defaultvalue": 0,
    "displayName": "NumCompleteLevelIn3Min"
  },
  {
    "name": "NumKill10PeopleWithCar",
    "defaultvalue": 0,
    "displayName": "NumKill10PeopleWithCar"
  },
  {
    "name": "NumPoisonPeople",
    "defaultvalue": 0,
    "displayName": "NumPoisonPeople"
  },
  {
    "name": "NumCompleteLevelWithFBI",
    "defaultvalue": 0,
    "displayName": "NumCompleteLevelWithFBI"
  },
  {
    "name": "NumKill20PeopleWithoutAlarm",
    "defaultvalue": 0,
    "displayName": "NumKill20PeopleWithoutAlarm"
  },
  {
    "name": "NumCompleteLevelWithoutFoundBody",
    "defaultvalue": 0,
    "displayName": "NumCompleteLevelWithoutFoundBody"
  },
  {
    "name": "NumEscapeCop5TimesInLevel",
    "defaultvalue": 0,
    "displayName": "NumEscapeCop5TimesInLevel"
  },
  {
    "name": "NumCompleteVanKillerLevel",
    "defaultvalue": 0,
    "displayName": "NumCompleteVanKillerLevel"
  }
]