﻿{
  "Dlcs": {},
  "Name": "Castle Invasion: Throne Out",
  "AppId": "504850",
  "ImageUrl": "https://steamcdn-a.akamaihd.net/steam/apps/504850/header.jpg?t=1469610470",
  "Languages": [
    "english"
  ],
  "Platforms": {
    "windows": true,
    "mac": true,
    "linux": false
  }
}