﻿[
  {
    "name": "ACH_0",
    "defaultvalue": 0,
    "displayName": "CEO",
    "hidden": 0,
    "description": "Completed All Story Missions",
    "icon": "https://steamcdn-a.akamaihd.net/steamcommunity/public/images/apps/422900/5dbed49a934823d517499adefbd3149944b74e78.jpg",
    "icongray": "https://steamcdn-a.akamaihd.net/steamcommunity/public/images/apps/422900/2b82b4690f91b24a37fe4fea3e7fa19fca7f0a1e.jpg"
  },
  {
    "name": "ACH_1",
    "defaultvalue": 0,
    "displayName": "Sacrifice",
    "hidden": 0,
    "description": "Completed Story Prologue",
    "icon": "https://steamcdn-a.akamaihd.net/steamcommunity/public/images/apps/422900/eae6e5e4f50f1491c79d88dd8c25107278a55eac.jpg",
    "icongray": "https://steamcdn-a.akamaihd.net/steamcommunity/public/images/apps/422900/439020726a794ba941ab8ad39baa713bb9cef626.jpg"
  },
  {
    "name": "ACH_2",
    "defaultvalue": 0,
    "displayName": "Naivety",
    "hidden": 0,
    "description": "Completed Story Mission 1",
    "icon": "https://steamcdn-a.akamaihd.net/steamcommunity/public/images/apps/422900/d45d5305440800dc9e3cc0ad2c356115202b0247.jpg",
    "icongray": "https://steamcdn-a.akamaihd.net/steamcommunity/public/images/apps/422900/73d1a35ebdd25371aadcabfd96e309aac6a5c87a.jpg"
  },
  {
    "name": "ACH_3",
    "defaultvalue": 0,
    "displayName": "Indelible",
    "hidden": 0,
    "description": "Completed Story Mission 2",
    "icon": "https://steamcdn-a.akamaihd.net/steamcommunity/public/images/apps/422900/04b81b0c345006d138b588cf27e7df8f5853b9a2.jpg",
    "icongray": "https://steamcdn-a.akamaihd.net/steamcommunity/public/images/apps/422900/ac98517b30bfeae056899f4727ffa96b2abe214a.jpg"
  },
  {
    "name": "ACH_4",
    "defaultvalue": 0,
    "displayName": "Unwise",
    "hidden": 0,
    "description": "Completed Story Mission 3",
    "icon": "https://steamcdn-a.akamaihd.net/steamcommunity/public/images/apps/422900/3b7c2d97710cda4e1112715723da39bf5dc9e408.jpg",
    "icongray": "https://steamcdn-a.akamaihd.net/steamcommunity/public/images/apps/422900/a2db147248060dbed64fe42e8f04014789ee6e48.jpg"
  },
  {
    "name": "ACH_5",
    "defaultvalue": 0,
    "displayName": "Insanity",
    "hidden": 0,
    "description": "Completed Story Mission 4",
    "icon": "https://steamcdn-a.akamaihd.net/steamcommunity/public/images/apps/422900/49bee7473a6ad295967c136231c42de8fcdee2f0.jpg",
    "icongray": "https://steamcdn-a.akamaihd.net/steamcommunity/public/images/apps/422900/8a2b0ad8dd7f9959bf2bb8b64d28955ee88e21ce.jpg"
  },
  {
    "name": "ACH_6",
    "defaultvalue": 0,
    "displayName": "Evidence",
    "hidden": 0,
    "description": "Completed Story Mission 5",
    "icon": "https://steamcdn-a.akamaihd.net/steamcommunity/public/images/apps/422900/f385c5545bc2f72c779703fd89a5cedb943361e5.jpg",
    "icongray": "https://steamcdn-a.akamaihd.net/steamcommunity/public/images/apps/422900/f3f9a26fbc85965274512c2bdb65d1ecbbece260.jpg"
  },
  {
    "name": "ACH_7",
    "defaultvalue": 0,
    "displayName": "Stretch",
    "hidden": 0,
    "description": "Completed Story Mission 6",
    "icon": "https://steamcdn-a.akamaihd.net/steamcommunity/public/images/apps/422900/cae16f8a8d173e4dd37d211a044e154e9bfccfb2.jpg",
    "icongray": "https://steamcdn-a.akamaihd.net/steamcommunity/public/images/apps/422900/ccd071bd302aebb6cd60a2fc3510685fa2a3c1b9.jpg"
  },
  {
    "name": "ACH_8",
    "defaultvalue": 0,
    "displayName": "Brute",
    "hidden": 0,
    "description": "Completed Story Mission 7",
    "icon": "https://steamcdn-a.akamaihd.net/steamcommunity/public/images/apps/422900/6894bb00711ecee96cd077bd5f2ee5b84724fbc4.jpg",
    "icongray": "https://steamcdn-a.akamaihd.net/steamcommunity/public/images/apps/422900/3370513b39685a0f7163df2b87b0f8ab0d1eafa3.jpg"
  },
  {
    "name": "ACH_9",
    "defaultvalue": 0,
    "displayName": "Potential",
    "hidden": 0,
    "description": "Completed Story Mission 8",
    "icon": "https://steamcdn-a.akamaihd.net/steamcommunity/public/images/apps/422900/73d6dd56bdf9c5cc968f7052e60e5f3118b10ad1.jpg",
    "icongray": "https://steamcdn-a.akamaihd.net/steamcommunity/public/images/apps/422900/02658fe6cd58e74d4a024a22fa8ef5f0988df4d0.jpg"
  },
  {
    "name": "ACH_10",
    "defaultvalue": 0,
    "displayName": "Emergent",
    "hidden": 0,
    "description": "Completed Story Mission 9",
    "icon": "https://steamcdn-a.akamaihd.net/steamcommunity/public/images/apps/422900/c77bf1279b7088cf583b2469b3806132b63fd3a9.jpg",
    "icongray": "https://steamcdn-a.akamaihd.net/steamcommunity/public/images/apps/422900/858b94f1939a4dd613e18431afa07c14514f79a7.jpg"
  },
  {
    "name": "ACH_11",
    "defaultvalue": 0,
    "displayName": "Ties",
    "hidden": 0,
    "description": "Completed Story Mission 10",
    "icon": "https://steamcdn-a.akamaihd.net/steamcommunity/public/images/apps/422900/f41052d036fa5fd14c763eded7eb25b03c7f636b.jpg",
    "icongray": "https://steamcdn-a.akamaihd.net/steamcommunity/public/images/apps/422900/51a909649b27a8b23d17ef98d25e9e1e29a399a3.jpg"
  },
  {
    "name": "ACH_12",
    "defaultvalue": 0,
    "displayName": "Secrets",
    "hidden": 0,
    "description": "Completed Story Mission 11",
    "icon": "https://steamcdn-a.akamaihd.net/steamcommunity/public/images/apps/422900/bdddcf8169ace08ee2a5f8561e9d8db78c5802e1.jpg",
    "icongray": "https://steamcdn-a.akamaihd.net/steamcommunity/public/images/apps/422900/5144070ca4b55e2923a46b43c573d8feb799fe5f.jpg"
  },
  {
    "name": "ACH_13",
    "defaultvalue": 0,
    "displayName": "Doppelgangers",
    "hidden": 0,
    "description": "Completed Story Mission 12",
    "icon": "https://steamcdn-a.akamaihd.net/steamcommunity/public/images/apps/422900/61b9c50a048ab46bc9d2a58c0df846d8f0736b80.jpg",
    "icongray": "https://steamcdn-a.akamaihd.net/steamcommunity/public/images/apps/422900/f93683581d3037a292e8121c3f1dd90d01e83114.jpg"
  },
  {
    "name": "ACH_14",
    "defaultvalue": 0,
    "displayName": "Intent",
    "hidden": 0,
    "description": "Completed Story Mission 13",
    "icon": "https://steamcdn-a.akamaihd.net/steamcommunity/public/images/apps/422900/4854f9cf91015355fdbb82e7e82d393d83c4ffc3.jpg",
    "icongray": "https://steamcdn-a.akamaihd.net/steamcommunity/public/images/apps/422900/8a1cac35c56c97fc2d23ef1e9a2940b63600c21e.jpg"
  },
  {
    "name": "ACH_15",
    "defaultvalue": 0,
    "displayName": "The 145th",
    "hidden": 0,
    "description": "Completed Story Mission 14",
    "icon": "https://steamcdn-a.akamaihd.net/steamcommunity/public/images/apps/422900/a6f8e60f9e3e55d4c2c8a54897aa17c8ab07ea7b.jpg",
    "icongray": "https://steamcdn-a.akamaihd.net/steamcommunity/public/images/apps/422900/60232a71f03f47d90142606be4555a4a86cc41b8.jpg"
  },
  {
    "name": "ACH_16",
    "defaultvalue": 0,
    "displayName": "Origin",
    "hidden": 0,
    "description": "Completed Story Mission 15",
    "icon": "https://steamcdn-a.akamaihd.net/steamcommunity/public/images/apps/422900/ee2ab6450c55a36283acd64de8d3ab3796aa5fd5.jpg",
    "icongray": "https://steamcdn-a.akamaihd.net/steamcommunity/public/images/apps/422900/93e53711bdd5b6230c6b8f77545598d1f659c7f3.jpg"
  },
  {
    "name": "ACH_17",
    "defaultvalue": 0,
    "displayName": "Codex",
    "hidden": 0,
    "description": "Completed Story Codex",
    "icon": "https://steamcdn-a.akamaihd.net/steamcommunity/public/images/apps/422900/f40619057f0669e4376a6fae9cec51cafdd92ba9.jpg",
    "icongray": "https://steamcdn-a.akamaihd.net/steamcommunity/public/images/apps/422900/fee1fae46b8dcb7e654abd634e37d345054d00af.jpg"
  },
  {
    "name": "ACH_18",
    "defaultvalue": 0,
    "displayName": "Duty",
    "hidden": 0,
    "description": "Completed Story Mission 16",
    "icon": "https://steamcdn-a.akamaihd.net/steamcommunity/public/images/apps/422900/2645b5441d95a8322e34e5e3eb8bcb44ed4b357c.jpg",
    "icongray": "https://steamcdn-a.akamaihd.net/steamcommunity/public/images/apps/422900/77946cb4fb863cf568a5a896bc6479cd0520666e.jpg"
  },
  {
    "name": "ACH_19",
    "defaultvalue": 0,
    "displayName": "Epilogue",
    "hidden": 0,
    "description": "Completed Story Epilogue",
    "icon": "https://steamcdn-a.akamaihd.net/steamcommunity/public/images/apps/422900/b22d3397aa2f7df8da0997e944b7451c533f70bd.jpg",
    "icongray": "https://steamcdn-a.akamaihd.net/steamcommunity/public/images/apps/422900/8e5d049b2776a4cefc84905ee3919af06566665f.jpg"
  }
]