﻿{
  "Dlcs": {},
  "Name": "Mining & Tunneling Simulator",
  "AppId": "273820",
  "ImageUrl": "https://steamcdn-a.akamaihd.net/steam/apps/273820/header.jpg?t=1592385008",
  "Languages": [
    "english",
    "french",
    "german",
    "dutch",
    "hungarian",
    "polish"
  ],
  "Platforms": {
    "windows": true,
    "mac": false,
    "linux": false
  }
}