﻿{
  "Dlcs": {},
  "Name": "INFINITI VR",
  "AppId": "612790",
  "ImageUrl": "https://steamcdn-a.akamaihd.net/steam/apps/612790/header.jpg?t=1491282692",
  "Languages": [
    "english",
    "french",
    "german"
  ],
  "Platforms": {
    "windows": true,
    "mac": false,
    "linux": false
  }
}