﻿[
  {
    "name": "Rank 1",
    "defaultvalue": 0,
    "displayName": "Rank 1",
    "hidden": 0,
    "description": "Unlock ranks as you score up and unlock tanks as you rank up.",
    "icon": "https://steamcdn-a.akamaihd.net/steamcommunity/public/images/apps/977390/d623d068b4ed0d5564ebabd58254668ccd5e5220.jpg",
    "icongray": "https://steamcdn-a.akamaihd.net/steamcommunity/public/images/apps/977390/58c63a7e850457faa802d168a9f4a81d89d56b39.jpg"
  },
  {
    "name": "Rank 2",
    "defaultvalue": 0,
    "displayName": "Rank 2",
    "hidden": 0,
    "description": "Unlock ranks as you score up and unlock tanks as you rank up. This rank unlocks Panzer II ",
    "icon": "https://steamcdn-a.akamaihd.net/steamcommunity/public/images/apps/977390/586f633026783b935ff325bf3226786c7ed1e810.jpg",
    "icongray": "https://steamcdn-a.akamaihd.net/steamcommunity/public/images/apps/977390/c4806bf613f07ede92ad806361c39a28a4e2c39c.jpg"
  },
  {
    "name": "Rank 3",
    "defaultvalue": 0,
    "displayName": "Rank 3",
    "hidden": 0,
    "description": "Unlock ranks as you score up and unlock tanks as you rank up. This rank unlocks Panzer IV",
    "icon": "https://steamcdn-a.akamaihd.net/steamcommunity/public/images/apps/977390/944e1027f14eca580853ebf55b7fa67ab6176069.jpg",
    "icongray": "https://steamcdn-a.akamaihd.net/steamcommunity/public/images/apps/977390/3ea27481a576891bfc4aa2ca005051270d6ae5fb.jpg"
  },
  {
    "name": "Rank 4",
    "defaultvalue": 0,
    "displayName": "Rank 4",
    "hidden": 0,
    "description": "Unlock ranks as you score up and unlock tanks as you rank up. This rank unlocks Cromwell",
    "icon": "https://steamcdn-a.akamaihd.net/steamcommunity/public/images/apps/977390/682dab93d79edfeada607dac92e346280ab508b2.jpg",
    "icongray": "https://steamcdn-a.akamaihd.net/steamcommunity/public/images/apps/977390/0d8884bc406d479dc327145011657e8478b8344e.jpg"
  },
  {
    "name": "Rank 5",
    "defaultvalue": 0,
    "displayName": "Rank 5",
    "hidden": 0,
    "description": "Unlock ranks as you score up and unlock tanks as you rank up. This rank unlocks T72BA & Type90 ",
    "icon": "https://steamcdn-a.akamaihd.net/steamcommunity/public/images/apps/977390/2a5970a09692c670574376a20531f890bb3e8e84.jpg",
    "icongray": "https://steamcdn-a.akamaihd.net/steamcommunity/public/images/apps/977390/662fccb2c37db1fdf07595b929441ac90a4ec4a4.jpg"
  },
  {
    "name": "Rank 6",
    "defaultvalue": 0,
    "displayName": "Rank 6",
    "hidden": 0,
    "description": "Unlock ranks as you score up and unlock tanks as you rank up. This rank unlocks BTR ",
    "icon": "https://steamcdn-a.akamaihd.net/steamcommunity/public/images/apps/977390/9404be126ce11b2c89f11a9385f81fa05ce4a8ce.jpg",
    "icongray": "https://steamcdn-a.akamaihd.net/steamcommunity/public/images/apps/977390/10fc3be5acb13711b7600549936a2df1843804d1.jpg"
  },
  {
    "name": "Rank 7",
    "defaultvalue": 0,
    "displayName": "Rank 7",
    "hidden": 0,
    "description": "Unlock ranks as you score up and unlock tanks as you rank up. This rank unlocks BMD3",
    "icon": "https://steamcdn-a.akamaihd.net/steamcommunity/public/images/apps/977390/8c703bfcdc01d5134743f30eb9aa6638451eccca.jpg",
    "icongray": "https://steamcdn-a.akamaihd.net/steamcommunity/public/images/apps/977390/e635a15d186b5e5cce66df59b8697722a7ff2b4b.jpg"
  },
  {
    "name": "Rank 8",
    "defaultvalue": 0,
    "displayName": "Rank 8",
    "hidden": 0,
    "description": "Unlock ranks as you score up and unlock tanks as you rank up. This ranks unlocks Sherman Firefly",
    "icon": "https://steamcdn-a.akamaihd.net/steamcommunity/public/images/apps/977390/eb12e536e6a9088c4d6b48f6246ccf145853ede6.jpg",
    "icongray": "https://steamcdn-a.akamaihd.net/steamcommunity/public/images/apps/977390/bbb1f408406e08f31bd73633e24bd81046e862b2.jpg"
  },
  {
    "name": "Rank 9",
    "defaultvalue": 0,
    "displayName": "Rank 9",
    "hidden": 0,
    "description": "Unlock ranks as you score up and unlock tanks as you rank up. This rank unlocks Tiger I ",
    "icon": "https://steamcdn-a.akamaihd.net/steamcommunity/public/images/apps/977390/1c7f3ab15dd68ab457e0745b2860cfbc911adcca.jpg",
    "icongray": "https://steamcdn-a.akamaihd.net/steamcommunity/public/images/apps/977390/af39f538fab6e00207e559b4b2e025cba2b180c8.jpg"
  },
  {
    "name": "Rank 10",
    "defaultvalue": 0,
    "displayName": "Rank 10",
    "hidden": 0,
    "description": "Unlock ranks as you score up and unlock tanks as you rank up. This rank unlocks T80U & ZTZ99",
    "icon": "https://steamcdn-a.akamaihd.net/steamcommunity/public/images/apps/977390/48d81a0fa558bc5c428ca227f20a0dc32ed16fda.jpg",
    "icongray": "https://steamcdn-a.akamaihd.net/steamcommunity/public/images/apps/977390/de8da26eb04319fdb05e027d1859748fc69453f0.jpg"
  },
  {
    "name": "Rank 11",
    "defaultvalue": 0,
    "displayName": "Rank 11",
    "hidden": 0,
    "description": "Unlock ranks as you score up and unlock tanks as you rank up. This rank unlocks SA19 & T95 ",
    "icon": "https://steamcdn-a.akamaihd.net/steamcommunity/public/images/apps/977390/ccad88f52e62aaaac3b85e5c4721afff4cc5463d.jpg",
    "icongray": "https://steamcdn-a.akamaihd.net/steamcommunity/public/images/apps/977390/288367ae186ca5a1da8b1ffc6ba7be516e495946.jpg"
  },
  {
    "name": "Rank 12",
    "defaultvalue": 0,
    "displayName": "Rank 12",
    "hidden": 0,
    "description": "Unlock ranks as you score up and unlock tanks as you rank up. This rank unlocks KV1 & Type 10",
    "icon": "https://steamcdn-a.akamaihd.net/steamcommunity/public/images/apps/977390/7609feec03cf3c0daa93e298187ee047ebd92245.jpg",
    "icongray": "https://steamcdn-a.akamaihd.net/steamcommunity/public/images/apps/977390/c89b8fe7e9ff0e623ff406da95d3d8049c1e34b1.jpg"
  },
  {
    "name": "Rank 13",
    "defaultvalue": 0,
    "displayName": "Rank 13",
    "hidden": 0,
    "description": "Unlock ranks as you score up and unlock tanks as you rank up. This rank unlocks Chieftain & Stryker & Type87",
    "icon": "https://steamcdn-a.akamaihd.net/steamcommunity/public/images/apps/977390/91c3cd8d1ef273fd93981d3b62b7fc61a96a3bcf.jpg",
    "icongray": "https://steamcdn-a.akamaihd.net/steamcommunity/public/images/apps/977390/bc892b1660b5cd5d09a7153630f9de93e7cc0270.jpg"
  },
  {
    "name": "Rank 14",
    "defaultvalue": 0,
    "displayName": "Rank 14",
    "hidden": 0,
    "description": "Unlock ranks as you score up and unlock tanks as you rank up. This rank unlocks KV2 & Tiger II",
    "icon": "https://steamcdn-a.akamaihd.net/steamcommunity/public/images/apps/977390/1aa00a3ead9f015dd3a5f394f965db7e9305a35f.jpg",
    "icongray": "https://steamcdn-a.akamaihd.net/steamcommunity/public/images/apps/977390/1a7c030681a05cc7ed1fa46138647934fda892f7.jpg"
  },
  {
    "name": "Rank 15",
    "defaultvalue": 0,
    "displayName": "Rank 15",
    "hidden": 0,
    "description": "Unlock ranks as you score up and unlock tanks as you rank up. This rank unlocks Jagdtiger ",
    "icon": "https://steamcdn-a.akamaihd.net/steamcommunity/public/images/apps/977390/223f2a4a179da6f87691b5d750fef9c4bbda60ce.jpg",
    "icongray": "https://steamcdn-a.akamaihd.net/steamcommunity/public/images/apps/977390/5e963574b8c9c803dcebe94e7d084ef3e0ba66ec.jpg"
  },
  {
    "name": "Rank 16",
    "defaultvalue": 0,
    "displayName": "Rank 16",
    "hidden": 0,
    "description": "Unlock ranks as you score up and unlock tanks as you rank up. This rank unlocks Maus ",
    "icon": "https://steamcdn-a.akamaihd.net/steamcommunity/public/images/apps/977390/cd97f0e7ac56b70d8332752b6d8d7b1b09d37c33.jpg",
    "icongray": "https://steamcdn-a.akamaihd.net/steamcommunity/public/images/apps/977390/a2123e2c405821835ce06a3bbb31d8485a815d5f.jpg"
  },
  {
    "name": "Rank 17",
    "defaultvalue": 0,
    "displayName": "Rank 17",
    "hidden": 0,
    "description": "Unlock ranks as you score up and unlock tanks as you rank up. This rank unlocks Challenger 2",
    "icon": "https://steamcdn-a.akamaihd.net/steamcommunity/public/images/apps/977390/72a4f63c1d2cc0fee0b5a81a2952dff15f4d542f.jpg",
    "icongray": "https://steamcdn-a.akamaihd.net/steamcommunity/public/images/apps/977390/c5d4c1c2ddb9ab2aae1a95799d0f8c50a07dcc09.jpg"
  },
  {
    "name": "Rank 18",
    "defaultvalue": 0,
    "displayName": "Rank 18",
    "hidden": 0,
    "description": "Unlock ranks as you score up and unlock tanks as you rank up. This rank unlocks M1A1 & T14",
    "icon": "https://steamcdn-a.akamaihd.net/steamcommunity/public/images/apps/977390/87e5ff7e2bb6489e05c5cfda5128ea615b72b21e.jpg",
    "icongray": "https://steamcdn-a.akamaihd.net/steamcommunity/public/images/apps/977390/faa057fcfad7bdccdf5655322549dfdc6ee00184.jpg"
  },
  {
    "name": "Rank 19",
    "defaultvalue": 0,
    "displayName": "Rank 19",
    "hidden": 0,
    "description": "This is the final Rank, this unlocks a special vehicle.",
    "icon": "https://steamcdn-a.akamaihd.net/steamcommunity/public/images/apps/977390/dae50b3344ac8924f0fb2ac8f8fdf63a7733be74.jpg",
    "icongray": "https://steamcdn-a.akamaihd.net/steamcommunity/public/images/apps/977390/3bb0444e66dc82d60db401dd8cbe2304d846d84c.jpg"
  },
  {
    "name": "Aerokill",
    "defaultvalue": 0,
    "displayName": "Aerokill",
    "hidden": 0,
    "description": "Score an enemy kill during a graviational anomaly event",
    "icon": "https://steamcdn-a.akamaihd.net/steamcommunity/public/images/apps/977390/1da9332212518e8dd2c09e3378fd1bdabbcabdfa.jpg",
    "icongray": "https://steamcdn-a.akamaihd.net/steamcommunity/public/images/apps/977390/e8a9a94e3a6a06ec966eec3810d329b9a3ee4c3b.jpg"
  },
  {
    "name": "Double Kill",
    "defaultvalue": 0,
    "displayName": "Double Kill",
    "hidden": 0,
    "description": "Score two enemy kills in a short period of time",
    "icon": "https://steamcdn-a.akamaihd.net/steamcommunity/public/images/apps/977390/be2d977593b99143cf7feeec4c7662aed417568f.jpg",
    "icongray": "https://steamcdn-a.akamaihd.net/steamcommunity/public/images/apps/977390/672889b202ccbd42186fe3dded3640cf0f169c8b.jpg"
  },
  {
    "name": "Triple Kill",
    "defaultvalue": 0,
    "displayName": "Triple Kill",
    "hidden": 0,
    "description": "Score three enemy kills in a short period of time",
    "icon": "https://steamcdn-a.akamaihd.net/steamcommunity/public/images/apps/977390/2add7335573dd7a5d0f4e33be70fb1f4a6e9baa8.jpg",
    "icongray": "https://steamcdn-a.akamaihd.net/steamcommunity/public/images/apps/977390/47692bd557f96816fbd1a47a636ba43a643ee441.jpg"
  },
  {
    "name": "Killing Spree",
    "defaultvalue": 0,
    "displayName": "Killing Spree",
    "hidden": 0,
    "description": "Achieve 5 enemy kills in row",
    "icon": "https://steamcdn-a.akamaihd.net/steamcommunity/public/images/apps/977390/58be467c011e6fb16d1bd4797185ca0c81acdd0f.jpg",
    "icongray": "https://steamcdn-a.akamaihd.net/steamcommunity/public/images/apps/977390/9bb7d07a886a9631611b413b6c56c42eecf70b2d.jpg"
  },
  {
    "name": "Survivor",
    "defaultvalue": 0,
    "displayName": "Survivor",
    "hidden": 0,
    "description": "Get along all the 4 waves in the survival match",
    "icon": "https://steamcdn-a.akamaihd.net/steamcommunity/public/images/apps/977390/5466f4f7781537d82afec0d5bb636cc26ce0a698.jpg",
    "icongray": "https://steamcdn-a.akamaihd.net/steamcommunity/public/images/apps/977390/470ef5eb9417daaa253f50eef99a7a0df0e7b24a.jpg"
  },
  {
    "name": "Untouchable",
    "defaultvalue": 0,
    "displayName": "Untouchable",
    "hidden": 0,
    "description": "End a match  that is longer than 10minutes without dying once",
    "icon": "https://steamcdn-a.akamaihd.net/steamcommunity/public/images/apps/977390/cdb1ea493ecf3510a6d838c0af8b012938c8c895.jpg",
    "icongray": "https://steamcdn-a.akamaihd.net/steamcommunity/public/images/apps/977390/e44c6889086db4d731a66c320395acfcef0f845e.jpg"
  },
  {
    "name": "First blood",
    "defaultvalue": 0,
    "displayName": "First blood",
    "hidden": 0,
    "description": "Be the one scoring the first enemy kill",
    "icon": "https://steamcdn-a.akamaihd.net/steamcommunity/public/images/apps/977390/f5e834a65e75906be0ef2f2fe6977629fe1579ae.jpg",
    "icongray": "https://steamcdn-a.akamaihd.net/steamcommunity/public/images/apps/977390/25aa4de0987ce6ace6ef631666592faa7b4a7dbd.jpg"
  },
  {
    "name": "Revenge",
    "defaultvalue": 0,
    "displayName": "Revenge",
    "hidden": 0,
    "description": "Kill back the enmy that shot your tonk down",
    "icon": "https://steamcdn-a.akamaihd.net/steamcommunity/public/images/apps/977390/6c1cca9242934b8017e1671de7ae77273020357f.jpg",
    "icongray": "https://steamcdn-a.akamaihd.net/steamcommunity/public/images/apps/977390/6c1cca9242934b8017e1671de7ae77273020357f.jpg"
  }
]