﻿{
  "Dlcs": {},
  "Name": "Story of the Survivor : Prisoner",
  "AppId": "676210",
  "ImageUrl": "https://steamcdn-a.akamaihd.net/steam/apps/676210/header.jpg?t=1598441606",
  "Languages": [
    "english"
  ],
  "Platforms": {
    "windows": true,
    "mac": false,
    "linux": false
  }
}