﻿{
  "Dlcs": {},
  "Name": "Pixel Painter",
  "AppId": "648120",
  "ImageUrl": "https://steamcdn-a.akamaihd.net/steam/apps/648120/header.jpg?t=1529478933",
  "Languages": [
    "english",
    "spanish",
    "korean",
    "russian",
    "thai",
    "italian",
    "german",
    "schinese",
    "portuguese",
    "ukrainian"
  ],
  "Platforms": {
    "windows": true,
    "mac": false,
    "linux": false
  }
}