﻿{
  "Dlcs": {},
  "Name": "Intake",
  "AppId": "237760",
  "ImageUrl": "https://steamcdn-a.akamaihd.net/steam/apps/237760/header.jpg?t=1447357812",
  "Languages": [
    "english"
  ],
  "Platforms": {
    "windows": true,
    "mac": true,
    "linux": false
  }
}