﻿{
  "Dlcs": {},
  "Name": "Adventures of Hendri",
  "AppId": "792800",
  "ImageUrl": "https://steamcdn-a.akamaihd.net/steam/apps/792800/header.jpg?t=1521367024",
  "Languages": [
    "english"
  ],
  "Platforms": {
    "windows": true,
    "mac": false,
    "linux": false
  }
}