﻿[
  {
    "name": "StartOfSomethingNew",
    "defaultvalue": 0,
    "displayName": "Start Of Something New",
    "hidden": 0,
    "description": "Prologue Completed!",
    "icon": "https://steamcdn-a.akamaihd.net/steamcommunity/public/images/apps/367120/2230ecb261d526e4186db1496ed947c358d47b1f.jpg",
    "icongray": "https://steamcdn-a.akamaihd.net/steamcommunity/public/images/apps/367120/04e9d8a41f7c7702398dfead174ef71e53b9e83e.jpg"
  },
  {
    "name": "MyStory",
    "defaultvalue": 0,
    "displayName": "This is MY Story...",
    "hidden": 0,
    "description": "Rename the Main Character.",
    "icon": "https://steamcdn-a.akamaihd.net/steamcommunity/public/images/apps/367120/d94c73f8889553307ecc06617ecf631bc2fe17b8.jpg",
    "icongray": "https://steamcdn-a.akamaihd.net/steamcommunity/public/images/apps/367120/04e9d8a41f7c7702398dfead174ef71e53b9e83e.jpg"
  },
  {
    "name": "JamesTrue",
    "defaultvalue": 0,
    "displayName": "James's Proposal",
    "hidden": 0,
    "description": "Get Proposed to by James.",
    "icon": "https://steamcdn-a.akamaihd.net/steamcommunity/public/images/apps/367120/b93455073111c6b0d4f4c5e05e13ef9a9c897cba.jpg",
    "icongray": "https://steamcdn-a.akamaihd.net/steamcommunity/public/images/apps/367120/04e9d8a41f7c7702398dfead174ef71e53b9e83e.jpg"
  },
  {
    "name": "ErikTrue",
    "defaultvalue": 0,
    "displayName": "Erik's Kiss",
    "hidden": 0,
    "description": "Kiss Erik under the Moonlight.",
    "icon": "https://steamcdn-a.akamaihd.net/steamcommunity/public/images/apps/367120/75e275995468b72adfda31c831b057b1d8db42d2.jpg",
    "icongray": "https://steamcdn-a.akamaihd.net/steamcommunity/public/images/apps/367120/04e9d8a41f7c7702398dfead174ef71e53b9e83e.jpg"
  },
  {
    "name": "SamTrue",
    "defaultvalue": 0,
    "displayName": "Sam's Acceptance",
    "hidden": 0,
    "description": "Accept Sam for the Man he is.",
    "icon": "https://steamcdn-a.akamaihd.net/steamcommunity/public/images/apps/367120/c0553a18db2a060b7a844c06a8abf48587fc4849.jpg",
    "icongray": "https://steamcdn-a.akamaihd.net/steamcommunity/public/images/apps/367120/04e9d8a41f7c7702398dfead174ef71e53b9e83e.jpg"
  },
  {
    "name": "MatthewTrue",
    "defaultvalue": 0,
    "displayName": "Matthew's Cake",
    "hidden": 0,
    "description": "Share some Cake with Matthew.",
    "icon": "https://steamcdn-a.akamaihd.net/steamcommunity/public/images/apps/367120/d97398b7cd6bba2e87bc7845403ef8707784849d.jpg",
    "icongray": "https://steamcdn-a.akamaihd.net/steamcommunity/public/images/apps/367120/04e9d8a41f7c7702398dfead174ef71e53b9e83e.jpg"
  },
  {
    "name": "DamienTrue",
    "defaultvalue": 0,
    "displayName": "Damien's Humanity",
    "hidden": 0,
    "description": "Give Damien his Humanity.",
    "icon": "https://steamcdn-a.akamaihd.net/steamcommunity/public/images/apps/367120/c7b8868ce0cf532428686a01fa6eee829a909018.jpg",
    "icongray": "https://steamcdn-a.akamaihd.net/steamcommunity/public/images/apps/367120/04e9d8a41f7c7702398dfead174ef71e53b9e83e.jpg"
  },
  {
    "name": "DianaEnd",
    "defaultvalue": 0,
    "displayName": "So Long, Sweetie...",
    "hidden": 0,
    "description": "Be Eaten Alive by Diana's Pit Beast.",
    "icon": "https://steamcdn-a.akamaihd.net/steamcommunity/public/images/apps/367120/86c8d26d241ddf3decedbcfbbb5c62ef6dd22a5c.jpg",
    "icongray": "https://steamcdn-a.akamaihd.net/steamcommunity/public/images/apps/367120/04e9d8a41f7c7702398dfead174ef71e53b9e83e.jpg"
  },
  {
    "name": "SuzuTrue",
    "defaultvalue": 0,
    "displayName": "Suzu's Love",
    "hidden": 0,
    "description": "Prove Your Love to Suzu.",
    "icon": "https://steamcdn-a.akamaihd.net/steamcommunity/public/images/apps/367120/891f72806c23a01a740d2edc1fb72f1baeabbd25.jpg",
    "icongray": "https://steamcdn-a.akamaihd.net/steamcommunity/public/images/apps/367120/04e9d8a41f7c7702398dfead174ef71e53b9e83e.jpg"
  },
  {
    "name": "NaomiTrue",
    "defaultvalue": 0,
    "displayName": "Naomi's Love",
    "hidden": 0,
    "description": "Go To Paris with Naomi.",
    "icon": "https://steamcdn-a.akamaihd.net/steamcommunity/public/images/apps/367120/b9df3f171ad24b60160af92a5236c0a2f7ddaaee.jpg",
    "icongray": "https://steamcdn-a.akamaihd.net/steamcommunity/public/images/apps/367120/04e9d8a41f7c7702398dfead174ef71e53b9e83e.jpg"
  },
  {
    "name": "AndrewTrue",
    "defaultvalue": 0,
    "displayName": "Andrew's Proposal",
    "hidden": 0,
    "description": "Get Proposed to by Andrew.",
    "icon": "https://steamcdn-a.akamaihd.net/steamcommunity/public/images/apps/367120/3b9bdd13522af609bbb95dfcad50e6665475ff57.jpg",
    "icongray": "https://steamcdn-a.akamaihd.net/steamcommunity/public/images/apps/367120/04e9d8a41f7c7702398dfead174ef71e53b9e83e.jpg"
  },
  {
    "name": "LawfulEnd",
    "defaultvalue": 0,
    "displayName": "My Freedom",
    "hidden": 0,
    "description": "Obtain True Freedom.",
    "icon": "https://steamcdn-a.akamaihd.net/steamcommunity/public/images/apps/367120/5ee7d3dcf3e26e4f683f5f0e21d17dad4c148833.jpg",
    "icongray": "https://steamcdn-a.akamaihd.net/steamcommunity/public/images/apps/367120/04e9d8a41f7c7702398dfead174ef71e53b9e83e.jpg"
  },
  {
    "name": "ChaosEnd",
    "defaultvalue": 0,
    "displayName": "My Kingdom",
    "hidden": 0,
    "description": "Obtain True Power.",
    "icon": "https://steamcdn-a.akamaihd.net/steamcommunity/public/images/apps/367120/21eefd3e241b83d1099e21ec2191ee0113485a55.jpg",
    "icongray": "https://steamcdn-a.akamaihd.net/steamcommunity/public/images/apps/367120/04e9d8a41f7c7702398dfead174ef71e53b9e83e.jpg"
  },
  {
    "name": "AngelEnd",
    "defaultvalue": 0,
    "displayName": "Pure. Innocent. Ignorant.",
    "hidden": 0,
    "description": "Be Baptized by Angels.",
    "icon": "https://steamcdn-a.akamaihd.net/steamcommunity/public/images/apps/367120/8292e44e70851b3fcbb6a9f8811e95688339f349.jpg",
    "icongray": "https://steamcdn-a.akamaihd.net/steamcommunity/public/images/apps/367120/04e9d8a41f7c7702398dfead174ef71e53b9e83e.jpg"
  },
  {
    "name": "DianaTrue",
    "defaultvalue": 0,
    "displayName": "My Adventure",
    "hidden": 0,
    "description": "Start your Adventure with Diana.",
    "icon": "https://steamcdn-a.akamaihd.net/steamcommunity/public/images/apps/367120/a13cdd2fef9611a8fa42459e29c24d8a3081076c.jpg",
    "icongray": "https://steamcdn-a.akamaihd.net/steamcommunity/public/images/apps/367120/04e9d8a41f7c7702398dfead174ef71e53b9e83e.jpg"
  },
  {
    "name": "MagicBook",
    "defaultvalue": 0,
    "displayName": "Curiosity is in the Family",
    "hidden": 0,
    "description": "Find Harold Anderson's Magic Books.",
    "icon": "https://steamcdn-a.akamaihd.net/steamcommunity/public/images/apps/367120/856316ccf973ebd7a5c605feb64b721eb0bd6539.jpg",
    "icongray": "https://steamcdn-a.akamaihd.net/steamcommunity/public/images/apps/367120/04e9d8a41f7c7702398dfead174ef71e53b9e83e.jpg"
  },
  {
    "name": "FightMalix",
    "defaultvalue": 0,
    "displayName": "F*** YOU, MALIX!",
    "hidden": 0,
    "description": "Fight Malix Yourself.",
    "icon": "https://steamcdn-a.akamaihd.net/steamcommunity/public/images/apps/367120/e6379bb78280ef89db0b0a681fdbad11d8a66859.jpg",
    "icongray": "https://steamcdn-a.akamaihd.net/steamcommunity/public/images/apps/367120/04e9d8a41f7c7702398dfead174ef71e53b9e83e.jpg"
  },
  {
    "name": "DadApproval",
    "defaultvalue": 0,
    "displayName": "Dad Approves",
    "hidden": 0,
    "description": "Impress the House Party Guests.",
    "icon": "https://steamcdn-a.akamaihd.net/steamcommunity/public/images/apps/367120/3650b89d91c3e2ae6f88618553c5912381880ac6.jpg",
    "icongray": "https://steamcdn-a.akamaihd.net/steamcommunity/public/images/apps/367120/04e9d8a41f7c7702398dfead174ef71e53b9e83e.jpg"
  },
  {
    "name": "DodgeMalix",
    "defaultvalue": 0,
    "displayName": "Can't Catch Me!",
    "hidden": 0,
    "description": "Dodge Malix in time.",
    "icon": "https://steamcdn-a.akamaihd.net/steamcommunity/public/images/apps/367120/ea692298aabafbe627e3d6c26944cf977b689768.jpg",
    "icongray": "https://steamcdn-a.akamaihd.net/steamcommunity/public/images/apps/367120/04e9d8a41f7c7702398dfead174ef71e53b9e83e.jpg"
  },
  {
    "name": "MalixEnd",
    "defaultvalue": 0,
    "displayName": "That's It For You...",
    "hidden": 0,
    "description": "Get Shot in the head by Malix.",
    "icon": "https://steamcdn-a.akamaihd.net/steamcommunity/public/images/apps/367120/a512d4b9d5dd2e63e965801a5a27a0006c11db00.jpg",
    "icongray": "https://steamcdn-a.akamaihd.net/steamcommunity/public/images/apps/367120/04e9d8a41f7c7702398dfead174ef71e53b9e83e.jpg"
  },
  {
    "name": "SimonTabby",
    "defaultvalue": 0,
    "displayName": "Behind The Curtain...",
    "hidden": 0,
    "description": "Witness Simon's Transformation with Diana and someone special...",
    "icon": "https://steamcdn-a.akamaihd.net/steamcommunity/public/images/apps/367120/e804b1de03df5c5a42a0985e6c72daad0c4237c0.jpg",
    "icongray": "https://steamcdn-a.akamaihd.net/steamcommunity/public/images/apps/367120/04e9d8a41f7c7702398dfead174ef71e53b9e83e.jpg"
  },
  {
    "name": "SayNo",
    "defaultvalue": 0,
    "displayName": "It's Okay To Say No.",
    "hidden": 0,
    "description": "Turn down sex, but keep your true love.",
    "icon": "https://steamcdn-a.akamaihd.net/steamcommunity/public/images/apps/367120/7105b8ffec719abb46902cf4a24c1221afc8fabe.jpg",
    "icongray": "https://steamcdn-a.akamaihd.net/steamcommunity/public/images/apps/367120/04e9d8a41f7c7702398dfead174ef71e53b9e83e.jpg"
  },
  {
    "name": "Bloopers1",
    "defaultvalue": 0,
    "displayName": "Green Apples...",
    "hidden": 0,
    "description": "Unlock the First Set of Bloopers!",
    "icon": "https://steamcdn-a.akamaihd.net/steamcommunity/public/images/apps/367120/84312674fb9653169d8ea94ca709e467e2fefba4.jpg",
    "icongray": "https://steamcdn-a.akamaihd.net/steamcommunity/public/images/apps/367120/04e9d8a41f7c7702398dfead174ef71e53b9e83e.jpg"
  },
  {
    "name": "Bloopers2",
    "defaultvalue": 0,
    "displayName": "Someone Get The Caramel! ",
    "hidden": 0,
    "description": "Unlock the Second Set of Bloopers!",
    "icon": "https://steamcdn-a.akamaihd.net/steamcommunity/public/images/apps/367120/28095bb4154889c2cc1311f34c17239b6b831250.jpg",
    "icongray": "https://steamcdn-a.akamaihd.net/steamcommunity/public/images/apps/367120/04e9d8a41f7c7702398dfead174ef71e53b9e83e.jpg"
  },
  {
    "name": "DemonWar",
    "defaultvalue": 0,
    "displayName": "To Be Continued...",
    "hidden": 0,
    "description": "Preview the start of Seduce Me 2: The Demon War!",
    "icon": "https://steamcdn-a.akamaihd.net/steamcommunity/public/images/apps/367120/d5c137a4eb2333b47290a53c7058c78b546ddd91.jpg",
    "icongray": "https://steamcdn-a.akamaihd.net/steamcommunity/public/images/apps/367120/04e9d8a41f7c7702398dfead174ef71e53b9e83e.jpg"
  }
]