﻿{
  "Dlcs": {
    "391860": {
      "Name": "Holy Potatoes! A Weapon Shop?! - Spud Tales: Journey to Olympus",
      "ImageUrl": "https://steamcdn-a.akamaihd.net/steam/apps/391860/header.jpg?t=1480587062"
    }
  },
  "Name": "Holy Potatoes! A Weapon Shop?!",
  "AppId": "363600",
  "ImageUrl": "https://steamcdn-a.akamaihd.net/steam/apps/363600/header.jpg?t=1569148228",
  "Languages": [
    "english",
    "japanese",
    "french",
    "german",
    "russian",
    "schinese",
    "spanish"
  ],
  "Platforms": {
    "windows": true,
    "mac": true,
    "linux": true
  }
}