﻿[
  {
    "name": "com.bulkypix.lonewolf.achievement.001",
    "defaultvalue": 0,
    "displayName": "Second chance",
    "hidden": 0,
    "description": "You have freed Merok",
    "icon": "https://steamcdn-a.akamaihd.net/steamcommunity/public/images/apps/279440/6d88b3b9ab1ae08b824fbbc6a3964158c2d40497.jpg",
    "icongray": "https://steamcdn-a.akamaihd.net/steamcommunity/public/images/apps/279440/8dbd9a0d287b03252e88e06acfa8d111508146f6.jpg"
  },
  {
    "name": "com.bulkypix.lonewolf.achievement.002",
    "defaultvalue": 0,
    "displayName": "Upholding the law",
    "hidden": 0,
    "description": "You have left Merok locked up in his cell",
    "icon": "https://steamcdn-a.akamaihd.net/steamcommunity/public/images/apps/279440/6d88b3b9ab1ae08b824fbbc6a3964158c2d40497.jpg",
    "icongray": "https://steamcdn-a.akamaihd.net/steamcommunity/public/images/apps/279440/8dbd9a0d287b03252e88e06acfa8d111508146f6.jpg"
  },
  {
    "name": "com.bulkypix.lonewolf.achievement.003",
    "defaultvalue": 0,
    "displayName": "Meltdown battle",
    "hidden": 0,
    "description": "You have won the battle of the Foundry",
    "icon": "https://steamcdn-a.akamaihd.net/steamcommunity/public/images/apps/279440/6d88b3b9ab1ae08b824fbbc6a3964158c2d40497.jpg",
    "icongray": "https://steamcdn-a.akamaihd.net/steamcommunity/public/images/apps/279440/8dbd9a0d287b03252e88e06acfa8d111508146f6.jpg"
  },
  {
    "name": "com.bulkypix.lonewolf.achievement.004",
    "defaultvalue": 0,
    "displayName": "Stock Exchange",
    "hidden": 0,
    "description": "You have won the battle of the Warehouse",
    "icon": "https://steamcdn-a.akamaihd.net/steamcommunity/public/images/apps/279440/6d88b3b9ab1ae08b824fbbc6a3964158c2d40497.jpg",
    "icongray": "https://steamcdn-a.akamaihd.net/steamcommunity/public/images/apps/279440/8dbd9a0d287b03252e88e06acfa8d111508146f6.jpg"
  },
  {
    "name": "com.bulkypix.lonewolf.achievement.005",
    "defaultvalue": 0,
    "displayName": "We leave together or not at all",
    "hidden": 0,
    "description": "You have left Rockstarn with Leandra",
    "icon": "https://steamcdn-a.akamaihd.net/steamcommunity/public/images/apps/279440/f02f0d53c1f00fe69a641e579fc67eaed2bdad66.jpg",
    "icongray": "https://steamcdn-a.akamaihd.net/steamcommunity/public/images/apps/279440/8dbd9a0d287b03252e88e06acfa8d111508146f6.jpg"
  },
  {
    "name": "com.bulkypix.lonewolf.achievement.006",
    "defaultvalue": 0,
    "displayName": "Lone priorities",
    "hidden": 0,
    "description": "You have taken the elevator alone",
    "icon": "https://steamcdn-a.akamaihd.net/steamcommunity/public/images/apps/279440/f02f0d53c1f00fe69a641e579fc67eaed2bdad66.jpg",
    "icongray": "https://steamcdn-a.akamaihd.net/steamcommunity/public/images/apps/279440/8dbd9a0d287b03252e88e06acfa8d111508146f6.jpg"
  },
  {
    "name": "com.bulkypix.lonewolf.achievement.007",
    "defaultvalue": 0,
    "displayName": "It begins",
    "hidden": 0,
    "description": "You have completed the first Chapter of Act 1",
    "icon": "https://steamcdn-a.akamaihd.net/steamcommunity/public/images/apps/279440/569ade394669508cba6ea8acde5200d5bc0dd284.jpg",
    "icongray": "https://steamcdn-a.akamaihd.net/steamcommunity/public/images/apps/279440/8dbd9a0d287b03252e88e06acfa8d111508146f6.jpg"
  },
  {
    "name": "com.bulkypix.lonewolf.achievement.008",
    "defaultvalue": 0,
    "displayName": "In Rockstarn",
    "hidden": 0,
    "description": "You have completed the second Chapter of Act 1",
    "icon": "https://steamcdn-a.akamaihd.net/steamcommunity/public/images/apps/279440/6d88b3b9ab1ae08b824fbbc6a3964158c2d40497.jpg",
    "icongray": "https://steamcdn-a.akamaihd.net/steamcommunity/public/images/apps/279440/8dbd9a0d287b03252e88e06acfa8d111508146f6.jpg"
  },
  {
    "name": "com.bulkypix.lonewolf.achievement.009",
    "defaultvalue": 0,
    "displayName": "Here goes nothing!",
    "hidden": 0,
    "description": "You have completed Act 1",
    "icon": "https://steamcdn-a.akamaihd.net/steamcommunity/public/images/apps/279440/6d88b3b9ab1ae08b824fbbc6a3964158c2d40497.jpg",
    "icongray": "https://steamcdn-a.akamaihd.net/steamcommunity/public/images/apps/279440/8dbd9a0d287b03252e88e06acfa8d111508146f6.jpg"
  },
  {
    "name": "com.bulkypix.lonewolf.achievement.010",
    "defaultvalue": 0,
    "displayName": "Discretion",
    "hidden": 1,
    "icon": "https://steamcdn-a.akamaihd.net/steamcommunity/public/images/apps/279440/f02f0d53c1f00fe69a641e579fc67eaed2bdad66.jpg",
    "icongray": "https://steamcdn-a.akamaihd.net/steamcommunity/public/images/apps/279440/8dbd9a0d287b03252e88e06acfa8d111508146f6.jpg"
  },
  {
    "name": "com.bulkypix.lonewolf.achievement.011",
    "defaultvalue": 0,
    "displayName": "Thank you!",
    "hidden": 1,
    "icon": "https://steamcdn-a.akamaihd.net/steamcommunity/public/images/apps/279440/569ade394669508cba6ea8acde5200d5bc0dd284.jpg",
    "icongray": "https://steamcdn-a.akamaihd.net/steamcommunity/public/images/apps/279440/8dbd9a0d287b03252e88e06acfa8d111508146f6.jpg"
  },
  {
    "name": "com.bulkypix.lonewolf.achievement.012",
    "defaultvalue": 0,
    "displayName": "Rockstarn Archivist",
    "hidden": 0,
    "description": "You have unlocked all Act 1 codex entries",
    "icon": "https://steamcdn-a.akamaihd.net/steamcommunity/public/images/apps/279440/569ade394669508cba6ea8acde5200d5bc0dd284.jpg",
    "icongray": "https://steamcdn-a.akamaihd.net/steamcommunity/public/images/apps/279440/8dbd9a0d287b03252e88e06acfa8d111508146f6.jpg"
  },
  {
    "name": "com.bulkypix.lonewolf.achievement.013",
    "defaultvalue": 0,
    "displayName": "Forged",
    "hidden": 0,
    "description": "You have completely upgraded a weapon",
    "icon": "https://steamcdn-a.akamaihd.net/steamcommunity/public/images/apps/279440/569ade394669508cba6ea8acde5200d5bc0dd284.jpg",
    "icongray": "https://steamcdn-a.akamaihd.net/steamcommunity/public/images/apps/279440/8dbd9a0d287b03252e88e06acfa8d111508146f6.jpg"
  },
  {
    "name": "com.bulkypix.lonewolf.achievement.014",
    "defaultvalue": 0,
    "displayName": "Master of Arms",
    "hidden": 1,
    "icon": "https://steamcdn-a.akamaihd.net/steamcommunity/public/images/apps/279440/6d88b3b9ab1ae08b824fbbc6a3964158c2d40497.jpg",
    "icongray": "https://steamcdn-a.akamaihd.net/steamcommunity/public/images/apps/279440/8dbd9a0d287b03252e88e06acfa8d111508146f6.jpg"
  },
  {
    "name": "com.bulkypix.lonewolf.achievement.015",
    "defaultvalue": 0,
    "displayName": "Kai protect me",
    "hidden": 0,
    "description": "You have completely upgraded the Kai Armour",
    "icon": "https://steamcdn-a.akamaihd.net/steamcommunity/public/images/apps/279440/6d88b3b9ab1ae08b824fbbc6a3964158c2d40497.jpg",
    "icongray": "https://steamcdn-a.akamaihd.net/steamcommunity/public/images/apps/279440/8dbd9a0d287b03252e88e06acfa8d111508146f6.jpg"
  },
  {
    "name": "com.bulkypix.lonewolf.achievement.016",
    "defaultvalue": 0,
    "displayName": "War Effort",
    "hidden": 1,
    "icon": "https://steamcdn-a.akamaihd.net/steamcommunity/public/images/apps/279440/f02f0d53c1f00fe69a641e579fc67eaed2bdad66.jpg",
    "icongray": "https://steamcdn-a.akamaihd.net/steamcommunity/public/images/apps/279440/8dbd9a0d287b03252e88e06acfa8d111508146f6.jpg"
  },
  {
    "name": "com.bulkypix.lonewolf.achievement.017",
    "defaultvalue": 0,
    "displayName": "Straightforward",
    "hidden": 0,
    "description": "You have made 25 Reckless choices",
    "icon": "https://steamcdn-a.akamaihd.net/steamcommunity/public/images/apps/279440/569ade394669508cba6ea8acde5200d5bc0dd284.jpg",
    "icongray": "https://steamcdn-a.akamaihd.net/steamcommunity/public/images/apps/279440/8dbd9a0d287b03252e88e06acfa8d111508146f6.jpg"
  },
  {
    "name": "com.bulkypix.lonewolf.achievement.018",
    "defaultvalue": 0,
    "displayName": "Strategist",
    "hidden": 0,
    "description": "You have made 25 Calculating choices",
    "icon": "https://steamcdn-a.akamaihd.net/steamcommunity/public/images/apps/279440/569ade394669508cba6ea8acde5200d5bc0dd284.jpg",
    "icongray": "https://steamcdn-a.akamaihd.net/steamcommunity/public/images/apps/279440/8dbd9a0d287b03252e88e06acfa8d111508146f6.jpg"
  },
  {
    "name": "com.bulkypix.lonewolf.achievement.019",
    "defaultvalue": 0,
    "displayName": "Skilled",
    "hidden": 0,
    "description": "You have made 25 Skillful choices",
    "icon": "https://steamcdn-a.akamaihd.net/steamcommunity/public/images/apps/279440/569ade394669508cba6ea8acde5200d5bc0dd284.jpg",
    "icongray": "https://steamcdn-a.akamaihd.net/steamcommunity/public/images/apps/279440/8dbd9a0d287b03252e88e06acfa8d111508146f6.jpg"
  },
  {
    "name": "com.bulkypix.lonewolf.achievement.020",
    "defaultvalue": 0,
    "displayName": "Sage",
    "hidden": 0,
    "description": "You have made 40 Kai choices",
    "icon": "https://steamcdn-a.akamaihd.net/steamcommunity/public/images/apps/279440/569ade394669508cba6ea8acde5200d5bc0dd284.jpg",
    "icongray": "https://steamcdn-a.akamaihd.net/steamcommunity/public/images/apps/279440/8dbd9a0d287b03252e88e06acfa8d111508146f6.jpg"
  },
  {
    "name": "com.bulkypix.lonewolf.achievement.021",
    "defaultvalue": 0,
    "displayName": "Unbreakable",
    "hidden": 1,
    "icon": "https://steamcdn-a.akamaihd.net/steamcommunity/public/images/apps/279440/a11a3b24141cca3e62dc80175627aeb9ad1adc14.jpg",
    "icongray": "https://steamcdn-a.akamaihd.net/steamcommunity/public/images/apps/279440/8dbd9a0d287b03252e88e06acfa8d111508146f6.jpg"
  },
  {
    "name": "com.bulkypix.lonewolf.achievement.022",
    "defaultvalue": 0,
    "displayName": "Unstoppable",
    "hidden": 1,
    "icon": "https://steamcdn-a.akamaihd.net/steamcommunity/public/images/apps/279440/a11a3b24141cca3e62dc80175627aeb9ad1adc14.jpg",
    "icongray": "https://steamcdn-a.akamaihd.net/steamcommunity/public/images/apps/279440/8dbd9a0d287b03252e88e06acfa8d111508146f6.jpg"
  },
  {
    "name": "com.bulkypix.lonewolf.achievement.023",
    "defaultvalue": 0,
    "displayName": "Kai Tactician",
    "hidden": 1,
    "icon": "https://steamcdn-a.akamaihd.net/steamcommunity/public/images/apps/279440/5a58d49a21a5bbc96e0e93975b4bda2892843d8d.jpg",
    "icongray": "https://steamcdn-a.akamaihd.net/steamcommunity/public/images/apps/279440/8dbd9a0d287b03252e88e06acfa8d111508146f6.jpg"
  },
  {
    "name": "com.bulkypix.lonewolf.achievement.024",
    "defaultvalue": 0,
    "displayName": "The Fencer",
    "hidden": 0,
    "description": "You have successfully performed 50 parry and riposte moves",
    "icon": "https://steamcdn-a.akamaihd.net/steamcommunity/public/images/apps/279440/b40e8a69f4ab3c8be3bd340d7987bc5770352d20.jpg",
    "icongray": "https://steamcdn-a.akamaihd.net/steamcommunity/public/images/apps/279440/8dbd9a0d287b03252e88e06acfa8d111508146f6.jpg"
  },
  {
    "name": "com.bulkypix.lonewolf.achievement.025",
    "defaultvalue": 0,
    "displayName": "You are going to die in 3... 2... 1\u0085",
    "hidden": 1,
    "icon": "https://steamcdn-a.akamaihd.net/steamcommunity/public/images/apps/279440/a11a3b24141cca3e62dc80175627aeb9ad1adc14.jpg",
    "icongray": "https://steamcdn-a.akamaihd.net/steamcommunity/public/images/apps/279440/8dbd9a0d287b03252e88e06acfa8d111508146f6.jpg"
  },
  {
    "name": "com.bulkypix.lonewolf.achievement.026",
    "defaultvalue": 0,
    "displayName": "Giak Hunter",
    "hidden": 0,
    "description": "You have killed 100 Giaks",
    "icon": "https://steamcdn-a.akamaihd.net/steamcommunity/public/images/apps/279440/b40e8a69f4ab3c8be3bd340d7987bc5770352d20.jpg",
    "icongray": "https://steamcdn-a.akamaihd.net/steamcommunity/public/images/apps/279440/8dbd9a0d287b03252e88e06acfa8d111508146f6.jpg"
  },
  {
    "name": "com.bulkypix.lonewolf.achievement.027",
    "defaultvalue": 0,
    "displayName": "Not enough to kill me",
    "hidden": 0,
    "description": "You have survived a fight with fewer than 150 Health Points",
    "icon": "https://steamcdn-a.akamaihd.net/steamcommunity/public/images/apps/279440/a11a3b24141cca3e62dc80175627aeb9ad1adc14.jpg",
    "icongray": "https://steamcdn-a.akamaihd.net/steamcommunity/public/images/apps/279440/8dbd9a0d287b03252e88e06acfa8d111508146f6.jpg"
  },
  {
    "name": "com.bulkypix.lonewolf.achievement.028",
    "defaultvalue": 0,
    "displayName": "Take that!",
    "hidden": 1,
    "icon": "https://steamcdn-a.akamaihd.net/steamcommunity/public/images/apps/279440/a11a3b24141cca3e62dc80175627aeb9ad1adc14.jpg",
    "icongray": "https://steamcdn-a.akamaihd.net/steamcommunity/public/images/apps/279440/8dbd9a0d287b03252e88e06acfa8d111508146f6.jpg"
  },
  {
    "name": "com.bulkypix.lonewolf.achievement.029",
    "defaultvalue": 0,
    "displayName": "Praise the Sun!",
    "hidden": 0,
    "description": "You have killed 2 enemies with the Sommerswerd in a single fight",
    "icon": "https://steamcdn-a.akamaihd.net/steamcommunity/public/images/apps/279440/a11a3b24141cca3e62dc80175627aeb9ad1adc14.jpg",
    "icongray": "https://steamcdn-a.akamaihd.net/steamcommunity/public/images/apps/279440/8dbd9a0d287b03252e88e06acfa8d111508146f6.jpg"
  },
  {
    "name": "com.bulkypix.lonewolf.achievement.030",
    "defaultvalue": 0,
    "displayName": "Drakkar Executioner",
    "hidden": 0,
    "description": "You have killed 50 Drakkarim",
    "icon": "https://steamcdn-a.akamaihd.net/steamcommunity/public/images/apps/279440/b40e8a69f4ab3c8be3bd340d7987bc5770352d20.jpg",
    "icongray": "https://steamcdn-a.akamaihd.net/steamcommunity/public/images/apps/279440/8dbd9a0d287b03252e88e06acfa8d111508146f6.jpg"
  },
  {
    "name": "com.bulkypix.lonewolf.achievement.031",
    "defaultvalue": 0,
    "displayName": "Sheltered",
    "hidden": 0,
    "description": "You have adopted the defensive stance 60 times",
    "icon": "https://steamcdn-a.akamaihd.net/steamcommunity/public/images/apps/279440/b40e8a69f4ab3c8be3bd340d7987bc5770352d20.jpg",
    "icongray": "https://steamcdn-a.akamaihd.net/steamcommunity/public/images/apps/279440/8dbd9a0d287b03252e88e06acfa8d111508146f6.jpg"
  },
  {
    "name": "com.bulkypix.lonewolf.achievement.032",
    "defaultvalue": 0,
    "displayName": "C-c-c-combo!",
    "hidden": 0,
    "description": "You have successfully performed the full Combined Attack 150 times",
    "icon": "https://steamcdn-a.akamaihd.net/steamcommunity/public/images/apps/279440/b40e8a69f4ab3c8be3bd340d7987bc5770352d20.jpg",
    "icongray": "https://steamcdn-a.akamaihd.net/steamcommunity/public/images/apps/279440/8dbd9a0d287b03252e88e06acfa8d111508146f6.jpg"
  },
  {
    "name": "com.bulkypix.lonewolf.achievement.033",
    "defaultvalue": 0,
    "displayName": "Sword Master",
    "hidden": 0,
    "description": "You have unlocked the Sword Mastery bonus",
    "icon": "https://steamcdn-a.akamaihd.net/steamcommunity/public/images/apps/279440/b40e8a69f4ab3c8be3bd340d7987bc5770352d20.jpg",
    "icongray": "https://steamcdn-a.akamaihd.net/steamcommunity/public/images/apps/279440/8dbd9a0d287b03252e88e06acfa8d111508146f6.jpg"
  },
  {
    "name": "com.bulkypix.lonewolf.achievement.034",
    "defaultvalue": 0,
    "displayName": "Axe Master",
    "hidden": 0,
    "description": "You have unlocked the Axe Mastery bonus",
    "icon": "https://steamcdn-a.akamaihd.net/steamcommunity/public/images/apps/279440/b40e8a69f4ab3c8be3bd340d7987bc5770352d20.jpg",
    "icongray": "https://steamcdn-a.akamaihd.net/steamcommunity/public/images/apps/279440/8dbd9a0d287b03252e88e06acfa8d111508146f6.jpg"
  },
  {
    "name": "com.bulkypix.lonewolf.achievement.035",
    "defaultvalue": 0,
    "displayName": "Mace Master",
    "hidden": 0,
    "description": "You have unlocked the Mace Mastery bonus",
    "icon": "https://steamcdn-a.akamaihd.net/steamcommunity/public/images/apps/279440/b40e8a69f4ab3c8be3bd340d7987bc5770352d20.jpg",
    "icongray": "https://steamcdn-a.akamaihd.net/steamcommunity/public/images/apps/279440/8dbd9a0d287b03252e88e06acfa8d111508146f6.jpg"
  },
  {
    "name": "com.bulkypix.lonewolf.achievement.036",
    "defaultvalue": 0,
    "displayName": "Kai torrent",
    "hidden": 1,
    "icon": "https://steamcdn-a.akamaihd.net/steamcommunity/public/images/apps/279440/a11a3b24141cca3e62dc80175627aeb9ad1adc14.jpg",
    "icongray": "https://steamcdn-a.akamaihd.net/steamcommunity/public/images/apps/279440/8dbd9a0d287b03252e88e06acfa8d111508146f6.jpg"
  },
  {
    "name": "com.bulkypix.lonewolf.achievement.037",
    "defaultvalue": 0,
    "displayName": "Head on in Rockstarn",
    "hidden": 0,
    "description": "You have completed Act 1 without ever selecting the easy difficulty level",
    "icon": "https://steamcdn-a.akamaihd.net/steamcommunity/public/images/apps/279440/5a58d49a21a5bbc96e0e93975b4bda2892843d8d.jpg",
    "icongray": "https://steamcdn-a.akamaihd.net/steamcommunity/public/images/apps/279440/8dbd9a0d287b03252e88e06acfa8d111508146f6.jpg"
  },
  {
    "name": "com.bulkypix.lonewolf.achievement.038",
    "defaultvalue": 0,
    "displayName": "Gourgaz Slayer",
    "hidden": 0,
    "description": "You have killed 30 Gourgaz",
    "icon": "https://steamcdn-a.akamaihd.net/steamcommunity/public/images/apps/279440/b40e8a69f4ab3c8be3bd340d7987bc5770352d20.jpg",
    "icongray": "https://steamcdn-a.akamaihd.net/steamcommunity/public/images/apps/279440/8dbd9a0d287b03252e88e06acfa8d111508146f6.jpg"
  },
  {
    "name": "com.bulkypix.lonewolf.achievement.039",
    "defaultvalue": 0,
    "displayName": "Prestidigitator",
    "hidden": 1,
    "icon": "https://steamcdn-a.akamaihd.net/steamcommunity/public/images/apps/279440/6d88b3b9ab1ae08b824fbbc6a3964158c2d40497.jpg",
    "icongray": "https://steamcdn-a.akamaihd.net/steamcommunity/public/images/apps/279440/8dbd9a0d287b03252e88e06acfa8d111508146f6.jpg"
  },
  {
    "name": "com.bulkypix.lonewolf.achievement.040",
    "defaultvalue": 0,
    "displayName": "Deep down in the forest",
    "hidden": 0,
    "description": "You have completed the first Chapter of Act 2",
    "icon": "https://steamcdn-a.akamaihd.net/steamcommunity/public/images/apps/279440/569ade394669508cba6ea8acde5200d5bc0dd284.jpg",
    "icongray": "https://steamcdn-a.akamaihd.net/steamcommunity/public/images/apps/279440/8dbd9a0d287b03252e88e06acfa8d111508146f6.jpg"
  },
  {
    "name": "com.bulkypix.lonewolf.achievement.041",
    "defaultvalue": 0,
    "displayName": "Beyond the Chasm",
    "hidden": 0,
    "description": "You have completed the second Chapter of Act 2",
    "icon": "https://steamcdn-a.akamaihd.net/steamcommunity/public/images/apps/279440/6d88b3b9ab1ae08b824fbbc6a3964158c2d40497.jpg",
    "icongray": "https://steamcdn-a.akamaihd.net/steamcommunity/public/images/apps/279440/8dbd9a0d287b03252e88e06acfa8d111508146f6.jpg"
  },
  {
    "name": "com.bulkypix.lonewolf.achievement.042",
    "defaultvalue": 0,
    "displayName": "What lies next\u0085?",
    "hidden": 0,
    "description": "You have completed Act 2",
    "icon": "https://steamcdn-a.akamaihd.net/steamcommunity/public/images/apps/279440/6d88b3b9ab1ae08b824fbbc6a3964158c2d40497.jpg",
    "icongray": "https://steamcdn-a.akamaihd.net/steamcommunity/public/images/apps/279440/8dbd9a0d287b03252e88e06acfa8d111508146f6.jpg"
  },
  {
    "name": "com.bulkypix.lonewolf.achievement.043",
    "defaultvalue": 0,
    "displayName": "Head on in the Sunken Forest",
    "hidden": 0,
    "description": "You have completed Act 2 without ever selecting the easy difficulty level",
    "icon": "https://steamcdn-a.akamaihd.net/steamcommunity/public/images/apps/279440/5a58d49a21a5bbc96e0e93975b4bda2892843d8d.jpg",
    "icongray": "https://steamcdn-a.akamaihd.net/steamcommunity/public/images/apps/279440/8dbd9a0d287b03252e88e06acfa8d111508146f6.jpg"
  },
  {
    "name": "com.bulkypix.lonewolf.achievement.044",
    "defaultvalue": 0,
    "displayName": "Sunken Forest Archivist",
    "hidden": 0,
    "description": "You have unlocked all Act 2 codex entries",
    "icon": "https://steamcdn-a.akamaihd.net/steamcommunity/public/images/apps/279440/569ade394669508cba6ea8acde5200d5bc0dd284.jpg",
    "icongray": "https://steamcdn-a.akamaihd.net/steamcommunity/public/images/apps/279440/8dbd9a0d287b03252e88e06acfa8d111508146f6.jpg"
  },
  {
    "name": "com.bulkypix.lonewolf.achievement.045",
    "defaultvalue": 0,
    "displayName": "Guess whos back?",
    "hidden": 0,
    "description": "You have cooperated with Merok",
    "icon": "https://steamcdn-a.akamaihd.net/steamcommunity/public/images/apps/279440/6d88b3b9ab1ae08b824fbbc6a3964158c2d40497.jpg",
    "icongray": "https://steamcdn-a.akamaihd.net/steamcommunity/public/images/apps/279440/8dbd9a0d287b03252e88e06acfa8d111508146f6.jpg"
  },
  {
    "name": "com.bulkypix.lonewolf.achievement.046",
    "defaultvalue": 0,
    "displayName": "A prayer to Ishir",
    "hidden": 0,
    "description": "You buried the corpses of the outlaws",
    "icon": "https://steamcdn-a.akamaihd.net/steamcommunity/public/images/apps/279440/6d88b3b9ab1ae08b824fbbc6a3964158c2d40497.jpg",
    "icongray": "https://steamcdn-a.akamaihd.net/steamcommunity/public/images/apps/279440/8dbd9a0d287b03252e88e06acfa8d111508146f6.jpg"
  },
  {
    "name": "com.bulkypix.lonewolf.achievement.047",
    "defaultvalue": 0,
    "displayName": "Over the bridge",
    "hidden": 0,
    "description": "You crossed the Chasm passing through the bridge",
    "icon": "https://steamcdn-a.akamaihd.net/steamcommunity/public/images/apps/279440/6d88b3b9ab1ae08b824fbbc6a3964158c2d40497.jpg",
    "icongray": "https://steamcdn-a.akamaihd.net/steamcommunity/public/images/apps/279440/8dbd9a0d287b03252e88e06acfa8d111508146f6.jpg"
  },
  {
    "name": "com.bulkypix.lonewolf.achievement.048",
    "defaultvalue": 0,
    "displayName": "Through the camp",
    "hidden": 0,
    "description": "You decided to cross the Chasm passing through the Drakkarim Camp",
    "icon": "https://steamcdn-a.akamaihd.net/steamcommunity/public/images/apps/279440/6d88b3b9ab1ae08b824fbbc6a3964158c2d40497.jpg",
    "icongray": "https://steamcdn-a.akamaihd.net/steamcommunity/public/images/apps/279440/8dbd9a0d287b03252e88e06acfa8d111508146f6.jpg"
  },
  {
    "name": "com.bulkypix.lonewolf.achievement.049",
    "defaultvalue": 0,
    "displayName": "Sunken Forest Explorer",
    "hidden": 0,
    "description": "You have explored all the areas you could see from the top of the monumental oak",
    "icon": "https://steamcdn-a.akamaihd.net/steamcommunity/public/images/apps/279440/6d88b3b9ab1ae08b824fbbc6a3964158c2d40497.jpg",
    "icongray": "https://steamcdn-a.akamaihd.net/steamcommunity/public/images/apps/279440/8dbd9a0d287b03252e88e06acfa8d111508146f6.jpg"
  },
  {
    "name": "com.bulkypix.lonewolf.achievement.050",
    "defaultvalue": 0,
    "displayName": "Vordak Reaper",
    "hidden": 0,
    "description": "You have killed 15 Vordaks",
    "icon": "https://steamcdn-a.akamaihd.net/steamcommunity/public/images/apps/279440/b40e8a69f4ab3c8be3bd340d7987bc5770352d20.jpg",
    "icongray": "https://steamcdn-a.akamaihd.net/steamcommunity/public/images/apps/279440/8dbd9a0d287b03252e88e06acfa8d111508146f6.jpg"
  },
  {
    "name": "com.bulkypix.lonewolf.achievement.051",
    "defaultvalue": 0,
    "displayName": "Power of the Sun",
    "hidden": 0,
    "description": "You have mastered all the techniques of the Sommerswerd",
    "icon": "https://steamcdn-a.akamaihd.net/steamcommunity/public/images/apps/279440/5a58d49a21a5bbc96e0e93975b4bda2892843d8d.jpg",
    "icongray": "https://steamcdn-a.akamaihd.net/steamcommunity/public/images/apps/279440/8dbd9a0d287b03252e88e06acfa8d111508146f6.jpg"
  },
  {
    "name": "com.bulkypix.lonewolf.achievement.052",
    "defaultvalue": 0,
    "displayName": "Glimmering Prison",
    "hidden": 0,
    "description": "You have completed the first Chapter of Act 3",
    "icon": "https://steamcdn-a.akamaihd.net/steamcommunity/public/images/apps/279440/569ade394669508cba6ea8acde5200d5bc0dd284.jpg",
    "icongray": "https://steamcdn-a.akamaihd.net/steamcommunity/public/images/apps/279440/8dbd9a0d287b03252e88e06acfa8d111508146f6.jpg"
  },
  {
    "name": "com.bulkypix.lonewolf.achievement.053",
    "defaultvalue": 0,
    "displayName": "The price to pay",
    "hidden": 0,
    "description": "You have completed the second Chapter of Act 3",
    "icon": "https://steamcdn-a.akamaihd.net/steamcommunity/public/images/apps/279440/6d88b3b9ab1ae08b824fbbc6a3964158c2d40497.jpg",
    "icongray": "https://steamcdn-a.akamaihd.net/steamcommunity/public/images/apps/279440/8dbd9a0d287b03252e88e06acfa8d111508146f6.jpg"
  },
  {
    "name": "com.bulkypix.lonewolf.achievement.054",
    "defaultvalue": 0,
    "displayName": "On to V'taag",
    "hidden": 0,
    "description": "You have completed Act 3",
    "icon": "https://steamcdn-a.akamaihd.net/steamcommunity/public/images/apps/279440/6d88b3b9ab1ae08b824fbbc6a3964158c2d40497.jpg",
    "icongray": "https://steamcdn-a.akamaihd.net/steamcommunity/public/images/apps/279440/8dbd9a0d287b03252e88e06acfa8d111508146f6.jpg"
  },
  {
    "name": "com.bulkypix.lonewolf.achievement.055",
    "defaultvalue": 0,
    "displayName": "Head on in the Shianti Halls",
    "hidden": 0,
    "description": "You have completed Act 3 without ever selecting the easy difficulty level",
    "icon": "https://steamcdn-a.akamaihd.net/steamcommunity/public/images/apps/279440/5a58d49a21a5bbc96e0e93975b4bda2892843d8d.jpg",
    "icongray": "https://steamcdn-a.akamaihd.net/steamcommunity/public/images/apps/279440/8dbd9a0d287b03252e88e06acfa8d111508146f6.jpg"
  },
  {
    "name": "com.bulkypix.lonewolf.achievement.056",
    "defaultvalue": 0,
    "displayName": "Shianti Halls Archivist",
    "hidden": 0,
    "description": "You have unlocked all Act 3 codex entries",
    "icon": "https://steamcdn-a.akamaihd.net/steamcommunity/public/images/apps/279440/569ade394669508cba6ea8acde5200d5bc0dd284.jpg",
    "icongray": "https://steamcdn-a.akamaihd.net/steamcommunity/public/images/apps/279440/8dbd9a0d287b03252e88e06acfa8d111508146f6.jpg"
  },
  {
    "name": "com.bulkypix.lonewolf.achievement.057",
    "defaultvalue": 0,
    "displayName": "The greatest foe of all",
    "hidden": 0,
    "description": "You did not surrender to your pride",
    "icon": "https://steamcdn-a.akamaihd.net/steamcommunity/public/images/apps/279440/6d88b3b9ab1ae08b824fbbc6a3964158c2d40497.jpg",
    "icongray": "https://steamcdn-a.akamaihd.net/steamcommunity/public/images/apps/279440/8dbd9a0d287b03252e88e06acfa8d111508146f6.jpg"
  },
  {
    "name": "com.bulkypix.lonewolf.achievement.058",
    "defaultvalue": 0,
    "displayName": "Holding no grudge",
    "hidden": 0,
    "description": "You trusted Ceratar and saved him",
    "icon": "https://steamcdn-a.akamaihd.net/steamcommunity/public/images/apps/279440/6d88b3b9ab1ae08b824fbbc6a3964158c2d40497.jpg",
    "icongray": "https://steamcdn-a.akamaihd.net/steamcommunity/public/images/apps/279440/8dbd9a0d287b03252e88e06acfa8d111508146f6.jpg"
  },
  {
    "name": "com.bulkypix.lonewolf.achievement.059",
    "defaultvalue": 0,
    "displayName": "Dangerous allies",
    "hidden": 0,
    "description": "You gave the Shianti Spirit a chance to reedem itself",
    "icon": "https://steamcdn-a.akamaihd.net/steamcommunity/public/images/apps/279440/6d88b3b9ab1ae08b824fbbc6a3964158c2d40497.jpg",
    "icongray": "https://steamcdn-a.akamaihd.net/steamcommunity/public/images/apps/279440/8dbd9a0d287b03252e88e06acfa8d111508146f6.jpg"
  },
  {
    "name": "com.bulkypix.lonewolf.achievement.060",
    "defaultvalue": 0,
    "displayName": "Treasure hunter",
    "hidden": 0,
    "description": "You have recovered all the ancient Shianti artifacts",
    "icon": "https://steamcdn-a.akamaihd.net/steamcommunity/public/images/apps/279440/6d88b3b9ab1ae08b824fbbc6a3964158c2d40497.jpg",
    "icongray": "https://steamcdn-a.akamaihd.net/steamcommunity/public/images/apps/279440/8dbd9a0d287b03252e88e06acfa8d111508146f6.jpg"
  },
  {
    "name": "com.bulkypix.lonewolf.achievement.061",
    "defaultvalue": 0,
    "displayName": "Sins of the brothers",
    "hidden": 0,
    "description": "Your distrust sealed Ceratar's fate",
    "icon": "https://steamcdn-a.akamaihd.net/steamcommunity/public/images/apps/279440/6d88b3b9ab1ae08b824fbbc6a3964158c2d40497.jpg",
    "icongray": "https://steamcdn-a.akamaihd.net/steamcommunity/public/images/apps/279440/8dbd9a0d287b03252e88e06acfa8d111508146f6.jpg"
  },
  {
    "name": "com.bulkypix.lonewolf.achievement.062",
    "defaultvalue": 0,
    "displayName": "We don't negotiate with necromancers",
    "hidden": 0,
    "description": "You refused the help of the Shianti Spirit and left it in its prison",
    "icon": "https://steamcdn-a.akamaihd.net/steamcommunity/public/images/apps/279440/6d88b3b9ab1ae08b824fbbc6a3964158c2d40497.jpg",
    "icongray": "https://steamcdn-a.akamaihd.net/steamcommunity/public/images/apps/279440/8dbd9a0d287b03252e88e06acfa8d111508146f6.jpg"
  },
  {
    "name": "com.bulkypix.lonewolf.achievement.063",
    "defaultvalue": 0,
    "displayName": "Doomwolf Tamer",
    "hidden": 0,
    "description": "You have killed 15 Doomwolves",
    "icon": "https://steamcdn-a.akamaihd.net/steamcommunity/public/images/apps/279440/b40e8a69f4ab3c8be3bd340d7987bc5770352d20.jpg",
    "icongray": "https://steamcdn-a.akamaihd.net/steamcommunity/public/images/apps/279440/8dbd9a0d287b03252e88e06acfa8d111508146f6.jpg"
  },
  {
    "name": "com.bulkypix.lonewolf.achievement.064",
    "defaultvalue": 0,
    "displayName": "What doesnt kill you\u0085",
    "hidden": 0,
    "description": "You have completed the first Chapter of Act 4",
    "icon": "https://steamcdn-a.akamaihd.net/steamcommunity/public/images/apps/279440/569ade394669508cba6ea8acde5200d5bc0dd284.jpg",
    "icongray": "https://steamcdn-a.akamaihd.net/steamcommunity/public/images/apps/279440/8dbd9a0d287b03252e88e06acfa8d111508146f6.jpg"
  },
  {
    "name": "com.bulkypix.lonewolf.achievement.065",
    "defaultvalue": 0,
    "displayName": "Engulfing darkness",
    "hidden": 0,
    "description": "You have completed the second Chapter of Act 4",
    "icon": "https://steamcdn-a.akamaihd.net/steamcommunity/public/images/apps/279440/6d88b3b9ab1ae08b824fbbc6a3964158c2d40497.jpg",
    "icongray": "https://steamcdn-a.akamaihd.net/steamcommunity/public/images/apps/279440/8dbd9a0d287b03252e88e06acfa8d111508146f6.jpg"
  },
  {
    "name": "com.bulkypix.lonewolf.achievement.066",
    "defaultvalue": 0,
    "displayName": "The sun rises",
    "hidden": 0,
    "description": "You have completed Act 4",
    "icon": "https://steamcdn-a.akamaihd.net/steamcommunity/public/images/apps/279440/6d88b3b9ab1ae08b824fbbc6a3964158c2d40497.jpg",
    "icongray": "https://steamcdn-a.akamaihd.net/steamcommunity/public/images/apps/279440/8dbd9a0d287b03252e88e06acfa8d111508146f6.jpg"
  },
  {
    "name": "com.bulkypix.lonewolf.achievement.067",
    "defaultvalue": 0,
    "displayName": "A long journey",
    "hidden": 1,
    "icon": "https://steamcdn-a.akamaihd.net/steamcommunity/public/images/apps/279440/f02f0d53c1f00fe69a641e579fc67eaed2bdad66.jpg",
    "icongray": "https://steamcdn-a.akamaihd.net/steamcommunity/public/images/apps/279440/8dbd9a0d287b03252e88e06acfa8d111508146f6.jpg"
  },
  {
    "name": "com.bulkypix.lonewolf.achievement.068",
    "defaultvalue": 0,
    "displayName": "Head on in V'taag",
    "hidden": 0,
    "description": "You have completed Act 4 without ever selecting the easy difficulty level",
    "icon": "https://steamcdn-a.akamaihd.net/steamcommunity/public/images/apps/279440/1b4ed012ca1a3f2eadd58fb8ce6636167ff54585.jpg",
    "icongray": "https://steamcdn-a.akamaihd.net/steamcommunity/public/images/apps/279440/8dbd9a0d287b03252e88e06acfa8d111508146f6.jpg"
  },
  {
    "name": "com.bulkypix.lonewolf.achievement.069",
    "defaultvalue": 0,
    "displayName": "V'taag Archivist",
    "hidden": 0,
    "description": "You have unlocked all Act 4 codex entries",
    "icon": "https://steamcdn-a.akamaihd.net/steamcommunity/public/images/apps/279440/569ade394669508cba6ea8acde5200d5bc0dd284.jpg",
    "icongray": "https://steamcdn-a.akamaihd.net/steamcommunity/public/images/apps/279440/8dbd9a0d287b03252e88e06acfa8d111508146f6.jpg"
  },
  {
    "name": "com.bulkypix.lonewolf.achievement.070",
    "defaultvalue": 0,
    "displayName": "Kai Monastery Archivist",
    "hidden": 1,
    "icon": "https://steamcdn-a.akamaihd.net/steamcommunity/public/images/apps/279440/f02f0d53c1f00fe69a641e579fc67eaed2bdad66.jpg",
    "icongray": "https://steamcdn-a.akamaihd.net/steamcommunity/public/images/apps/279440/8dbd9a0d287b03252e88e06acfa8d111508146f6.jpg"
  },
  {
    "name": "com.bulkypix.lonewolf.achievement.071",
    "defaultvalue": 0,
    "displayName": "For Sommerlund and the Kai!",
    "hidden": 1,
    "icon": "https://steamcdn-a.akamaihd.net/steamcommunity/public/images/apps/279440/f02f0d53c1f00fe69a641e579fc67eaed2bdad66.jpg",
    "icongray": "https://steamcdn-a.akamaihd.net/steamcommunity/public/images/apps/279440/8dbd9a0d287b03252e88e06acfa8d111508146f6.jpg"
  },
  {
    "name": "com.bulkypix.lonewolf.achievement.072",
    "defaultvalue": 0,
    "displayName": "V'taag Explorer",
    "hidden": 0,
    "description": "You have completed all the side quests of Act 4",
    "icon": "https://steamcdn-a.akamaihd.net/steamcommunity/public/images/apps/279440/6d88b3b9ab1ae08b824fbbc6a3964158c2d40497.jpg",
    "icongray": "https://steamcdn-a.akamaihd.net/steamcommunity/public/images/apps/279440/8dbd9a0d287b03252e88e06acfa8d111508146f6.jpg"
  },
  {
    "name": "com.bulkypix.lonewolf.achievement.073",
    "defaultvalue": 0,
    "displayName": "True heart",
    "hidden": 1,
    "icon": "https://steamcdn-a.akamaihd.net/steamcommunity/public/images/apps/279440/f02f0d53c1f00fe69a641e579fc67eaed2bdad66.jpg",
    "icongray": "https://steamcdn-a.akamaihd.net/steamcommunity/public/images/apps/279440/8dbd9a0d287b03252e88e06acfa8d111508146f6.jpg"
  },
  {
    "name": "com.bulkypix.lonewolf.achievement.074",
    "defaultvalue": 0,
    "displayName": "Stronger than any doubt",
    "hidden": 1,
    "icon": "https://steamcdn-a.akamaihd.net/steamcommunity/public/images/apps/279440/f02f0d53c1f00fe69a641e579fc67eaed2bdad66.jpg",
    "icongray": "https://steamcdn-a.akamaihd.net/steamcommunity/public/images/apps/279440/8dbd9a0d287b03252e88e06acfa8d111508146f6.jpg"
  },
  {
    "name": "com.bulkypix.lonewolf.achievement.075",
    "defaultvalue": 0,
    "displayName": "Way of the Sword",
    "hidden": 1,
    "icon": "https://steamcdn-a.akamaihd.net/steamcommunity/public/images/apps/279440/6d88b3b9ab1ae08b824fbbc6a3964158c2d40497.jpg",
    "icongray": "https://steamcdn-a.akamaihd.net/steamcommunity/public/images/apps/279440/8dbd9a0d287b03252e88e06acfa8d111508146f6.jpg"
  },
  {
    "name": "com.bulkypix.lonewolf.achievement.076",
    "defaultvalue": 0,
    "displayName": "Way of the Mace",
    "hidden": 1,
    "icon": "https://steamcdn-a.akamaihd.net/steamcommunity/public/images/apps/279440/6d88b3b9ab1ae08b824fbbc6a3964158c2d40497.jpg",
    "icongray": "https://steamcdn-a.akamaihd.net/steamcommunity/public/images/apps/279440/8dbd9a0d287b03252e88e06acfa8d111508146f6.jpg"
  },
  {
    "name": "com.bulkypix.lonewolf.achievement.077",
    "defaultvalue": 0,
    "displayName": "Way of the Axe",
    "hidden": 1,
    "icon": "https://steamcdn-a.akamaihd.net/steamcommunity/public/images/apps/279440/6d88b3b9ab1ae08b824fbbc6a3964158c2d40497.jpg",
    "icongray": "https://steamcdn-a.akamaihd.net/steamcommunity/public/images/apps/279440/8dbd9a0d287b03252e88e06acfa8d111508146f6.jpg"
  },
  {
    "name": "com.bulkypix.lonewolf.achievement.078",
    "defaultvalue": 0,
    "displayName": "Thinking ahead",
    "hidden": 0,
    "description": "You have disposed of the prisoner yourself",
    "icon": "https://steamcdn-a.akamaihd.net/steamcommunity/public/images/apps/279440/6d88b3b9ab1ae08b824fbbc6a3964158c2d40497.jpg",
    "icongray": "https://steamcdn-a.akamaihd.net/steamcommunity/public/images/apps/279440/8dbd9a0d287b03252e88e06acfa8d111508146f6.jpg"
  },
  {
    "name": "com.bulkypix.lonewolf.achievement.079",
    "defaultvalue": 0,
    "displayName": "Whole again",
    "hidden": 1,
    "icon": "https://steamcdn-a.akamaihd.net/steamcommunity/public/images/apps/279440/6d88b3b9ab1ae08b824fbbc6a3964158c2d40497.jpg",
    "icongray": "https://steamcdn-a.akamaihd.net/steamcommunity/public/images/apps/279440/8dbd9a0d287b03252e88e06acfa8d111508146f6.jpg"
  }
]