﻿[
  {
    "name": "LICH_BM_ACHIEVEMENT_9",
    "defaultvalue": 0,
    "displayName": "Apprentice",
    "hidden": 0,
    "description": "Choose your first sigil",
    "icon": "https://steamcdn-a.akamaihd.net/steamcommunity/public/images/apps/261760/4932936743bbe5c6579b5354ab708eda850cf770.jpg",
    "icongray": "https://steamcdn-a.akamaihd.net/steamcommunity/public/images/apps/261760/fa4c7a449696cf6bb9ea309ad1a413743752d922.jpg"
  },
  {
    "name": "LICH_BM_ACHIEVEMENT_25",
    "defaultvalue": 0,
    "displayName": "Artificer",
    "hidden": 0,
    "description": "Craft your first spell",
    "icon": "https://steamcdn-a.akamaihd.net/steamcommunity/public/images/apps/261760/bd2faa41e6e4df344894613608b832ffc9c9845f.jpg",
    "icongray": "https://steamcdn-a.akamaihd.net/steamcommunity/public/images/apps/261760/6b041a4da4fbc45f3e3bdbf5f098708b36ac3314.jpg"
  },
  {
    "name": "LICH_BM_ACHIEVEMENT_10",
    "defaultvalue": 0,
    "displayName": "The First of Many",
    "hidden": 1,
    "icon": "https://steamcdn-a.akamaihd.net/steamcommunity/public/images/apps/261760/0dcbb5889110dfa81a36788df7fcdfbcd095924c.jpg",
    "icongray": "https://steamcdn-a.akamaihd.net/steamcommunity/public/images/apps/261760/fa4c7a449696cf6bb9ea309ad1a413743752d922.jpg"
  },
  {
    "name": "LICH_BM_ACHIEVEMENT_11",
    "defaultvalue": 0,
    "displayName": "Under the Rocks",
    "hidden": 1,
    "icon": "https://steamcdn-a.akamaihd.net/steamcommunity/public/images/apps/261760/33ac24a9f5712389d17be47348002d416e2cd1f2.jpg",
    "icongray": "https://steamcdn-a.akamaihd.net/steamcommunity/public/images/apps/261760/fa4c7a449696cf6bb9ea309ad1a413743752d922.jpg"
  },
  {
    "name": "LICH_BM_ACHIEVEMENT_12",
    "defaultvalue": 0,
    "displayName": "Get the Water Flowing",
    "hidden": 1,
    "icon": "https://steamcdn-a.akamaihd.net/steamcommunity/public/images/apps/261760/eb48252263dda8026d2a068dfbafba39e98604a3.jpg",
    "icongray": "https://steamcdn-a.akamaihd.net/steamcommunity/public/images/apps/261760/fa4c7a449696cf6bb9ea309ad1a413743752d922.jpg"
  },
  {
    "name": "LICH_BM_ACHIEVEMENT_13",
    "defaultvalue": 0,
    "displayName": "Sacrifice",
    "hidden": 1,
    "icon": "https://steamcdn-a.akamaihd.net/steamcommunity/public/images/apps/261760/511d4d1e45c9d06e35b0a21bd0543abeafef9f32.jpg",
    "icongray": "https://steamcdn-a.akamaihd.net/steamcommunity/public/images/apps/261760/fa4c7a449696cf6bb9ea309ad1a413743752d922.jpg"
  },
  {
    "name": "LICH_BM_ACHIEVEMENT_14",
    "defaultvalue": 0,
    "displayName": "Into the Darkness",
    "hidden": 1,
    "icon": "https://steamcdn-a.akamaihd.net/steamcommunity/public/images/apps/261760/937ba11b6b5e8175d1622d97e92199360855e362.jpg",
    "icongray": "https://steamcdn-a.akamaihd.net/steamcommunity/public/images/apps/261760/fa4c7a449696cf6bb9ea309ad1a413743752d922.jpg"
  },
  {
    "name": "LICH_BM_ACHIEVEMENT_15",
    "defaultvalue": 0,
    "displayName": "Bitter Victory",
    "hidden": 1,
    "icon": "https://steamcdn-a.akamaihd.net/steamcommunity/public/images/apps/261760/74a07ffc6d694a9b8867c7dbecb4eb4f6813bc55.jpg",
    "icongray": "https://steamcdn-a.akamaihd.net/steamcommunity/public/images/apps/261760/fa4c7a449696cf6bb9ea309ad1a413743752d922.jpg"
  },
  {
    "name": "LICH_BM_ACHIEVEMENT_16",
    "defaultvalue": 0,
    "displayName": "I Am the Dragon",
    "hidden": 1,
    "icon": "https://steamcdn-a.akamaihd.net/steamcommunity/public/images/apps/261760/e7e30cea283233830ef01a7c8b8e9db0c24194be.jpg",
    "icongray": "https://steamcdn-a.akamaihd.net/steamcommunity/public/images/apps/261760/fa4c7a449696cf6bb9ea309ad1a413743752d922.jpg"
  },
  {
    "name": "LICH_BM_ACHIEVEMENT_1",
    "defaultvalue": 0,
    "displayName": "Pyrosmith",
    "hidden": 0,
    "description": "Level your Fire Sigil to 16",
    "icon": "https://steamcdn-a.akamaihd.net/steamcommunity/public/images/apps/261760/db4651fa1bf8809246cc3dd2261bea1b504d9128.jpg",
    "icongray": "https://steamcdn-a.akamaihd.net/steamcommunity/public/images/apps/261760/6b041a4da4fbc45f3e3bdbf5f098708b36ac3314.jpg"
  },
  {
    "name": "LICH_BM_ACHIEVEMENT_2",
    "defaultvalue": 0,
    "displayName": "Cryosmith",
    "hidden": 0,
    "description": "Level your Ice Sigil to 16",
    "icon": "https://steamcdn-a.akamaihd.net/steamcommunity/public/images/apps/261760/1c39589463422da28e623fe9f28f81640ddf77a8.jpg",
    "icongray": "https://steamcdn-a.akamaihd.net/steamcommunity/public/images/apps/261760/6b041a4da4fbc45f3e3bdbf5f098708b36ac3314.jpg"
  },
  {
    "name": "LICH_BM_ACHIEVEMENT_3",
    "defaultvalue": 0,
    "displayName": "Electrosmith",
    "hidden": 0,
    "description": "Level your Lightning Sigil to 16",
    "icon": "https://steamcdn-a.akamaihd.net/steamcommunity/public/images/apps/261760/46f69c874807c8fdcada403202c044ef4e37ffde.jpg",
    "icongray": "https://steamcdn-a.akamaihd.net/steamcommunity/public/images/apps/261760/6b041a4da4fbc45f3e3bdbf5f098708b36ac3314.jpg"
  },
  {
    "name": "LICH_BM_ACHIEVEMENT_4",
    "defaultvalue": 0,
    "displayName": "Plaguesmith",
    "hidden": 0,
    "description": "Level your Corruption Sigil to 16",
    "icon": "https://steamcdn-a.akamaihd.net/steamcommunity/public/images/apps/261760/1b88a08f7de7dcb930fb0219ada1b8582178097a.jpg",
    "icongray": "https://steamcdn-a.akamaihd.net/steamcommunity/public/images/apps/261760/6b041a4da4fbc45f3e3bdbf5f098708b36ac3314.jpg"
  },
  {
    "name": "LICH_BM_ACHIEVEMENT_5",
    "defaultvalue": 0,
    "displayName": "Corpsesmith",
    "hidden": 0,
    "description": "Level your Necromancy Sigil to 16",
    "icon": "https://steamcdn-a.akamaihd.net/steamcommunity/public/images/apps/261760/988cd377a48be14d44dec672f2e4df395775a366.jpg",
    "icongray": "https://steamcdn-a.akamaihd.net/steamcommunity/public/images/apps/261760/6b041a4da4fbc45f3e3bdbf5f098708b36ac3314.jpg"
  },
  {
    "name": "LICH_BM_ACHIEVEMENT_6",
    "defaultvalue": 0,
    "displayName": "Psychosmith",
    "hidden": 0,
    "description": "Level your Delirium Sigil to 16",
    "icon": "https://steamcdn-a.akamaihd.net/steamcommunity/public/images/apps/261760/adc8d9df4157aedc88ee9abccb34e10fbc057b00.jpg",
    "icongray": "https://steamcdn-a.akamaihd.net/steamcommunity/public/images/apps/261760/6b041a4da4fbc45f3e3bdbf5f098708b36ac3314.jpg"
  },
  {
    "name": "LICH_BM_ACHIEVEMENT_7",
    "defaultvalue": 0,
    "displayName": "Forcesmith",
    "hidden": 0,
    "description": "Level your Kinesis Sigil to 16",
    "icon": "https://steamcdn-a.akamaihd.net/steamcommunity/public/images/apps/261760/f47cc67f13423e03e07778fdf3c488dd53c85e41.jpg",
    "icongray": "https://steamcdn-a.akamaihd.net/steamcommunity/public/images/apps/261760/6b041a4da4fbc45f3e3bdbf5f098708b36ac3314.jpg"
  },
  {
    "name": "LICH_BM_ACHIEVEMENT_8",
    "defaultvalue": 0,
    "displayName": "Phasesmith",
    "hidden": 0,
    "description": "Level your Phase Sigil to 16",
    "icon": "https://steamcdn-a.akamaihd.net/steamcommunity/public/images/apps/261760/128b673acb499d4872260662e47bb53cdc753705.jpg",
    "icongray": "https://steamcdn-a.akamaihd.net/steamcommunity/public/images/apps/261760/6b041a4da4fbc45f3e3bdbf5f098708b36ac3314.jpg"
  },
  {
    "name": "LICH_BM_ACHIEVEMENT_30",
    "defaultvalue": 0,
    "displayName": "Old Drivasser Explorer",
    "hidden": 0,
    "description": "Find all of the Plaques in Old Drivasser",
    "icon": "https://steamcdn-a.akamaihd.net/steamcommunity/public/images/apps/261760/01c62c50c5a28bab16845694e9d77e357a50a17f.jpg",
    "icongray": "https://steamcdn-a.akamaihd.net/steamcommunity/public/images/apps/261760/fa4c7a449696cf6bb9ea309ad1a413743752d922.jpg"
  },
  {
    "name": "LICH_BM_ACHIEVEMENT_31",
    "defaultvalue": 0,
    "displayName": "Grey Teeth Explorer",
    "hidden": 0,
    "description": "Find all of the Plaques in the Grey Teeth",
    "icon": "https://steamcdn-a.akamaihd.net/steamcommunity/public/images/apps/261760/38b83003fb4745c52cebba50c01818e5da0f67ea.jpg",
    "icongray": "https://steamcdn-a.akamaihd.net/steamcommunity/public/images/apps/261760/fa4c7a449696cf6bb9ea309ad1a413743752d922.jpg"
  },
  {
    "name": "LICH_BM_ACHIEVEMENT_32",
    "defaultvalue": 0,
    "displayName": "Maelstrom Explorer",
    "hidden": 0,
    "description": "Find all of the Plaques in the Maelstrom",
    "icon": "https://steamcdn-a.akamaihd.net/steamcommunity/public/images/apps/261760/38b83003fb4745c52cebba50c01818e5da0f67ea.jpg",
    "icongray": "https://steamcdn-a.akamaihd.net/steamcommunity/public/images/apps/261760/fa4c7a449696cf6bb9ea309ad1a413743752d922.jpg"
  },
  {
    "name": "LICH_BM_ACHIEVEMENT_33",
    "defaultvalue": 0,
    "displayName": "Zasad Explorer",
    "hidden": 0,
    "description": "Find all of the Plaques in Zasad",
    "icon": "https://steamcdn-a.akamaihd.net/steamcommunity/public/images/apps/261760/02aee108efcd5529f5b429b1f66ca96a2143a46d.jpg",
    "icongray": "https://steamcdn-a.akamaihd.net/steamcommunity/public/images/apps/261760/fa4c7a449696cf6bb9ea309ad1a413743752d922.jpg"
  },
  {
    "name": "LICH_BM_ACHIEVEMENT_34",
    "defaultvalue": 0,
    "displayName": "Lost Zasad Explorer",
    "hidden": 0,
    "description": "Find all of the Plaques in Lost Zasad",
    "icon": "https://steamcdn-a.akamaihd.net/steamcommunity/public/images/apps/261760/02aee108efcd5529f5b429b1f66ca96a2143a46d.jpg",
    "icongray": "https://steamcdn-a.akamaihd.net/steamcommunity/public/images/apps/261760/fa4c7a449696cf6bb9ea309ad1a413743752d922.jpg"
  },
  {
    "name": "LICH_BM_ACHIEVEMENT_35",
    "defaultvalue": 0,
    "displayName": "Soddentrod Explorer",
    "hidden": 0,
    "description": "Find all of the Plaques in Soddentrod",
    "icon": "https://steamcdn-a.akamaihd.net/steamcommunity/public/images/apps/261760/97e9e42daa3934f668f501093f6c4a04e19189b1.jpg",
    "icongray": "https://steamcdn-a.akamaihd.net/steamcommunity/public/images/apps/261760/fa4c7a449696cf6bb9ea309ad1a413743752d922.jpg"
  },
  {
    "name": "LICH_BM_ACHIEVEMENT_36",
    "defaultvalue": 0,
    "displayName": "Sinkhole Explorer",
    "hidden": 0,
    "description": "Find all of the Plaques in the Sinkhole",
    "icon": "https://steamcdn-a.akamaihd.net/steamcommunity/public/images/apps/261760/97e9e42daa3934f668f501093f6c4a04e19189b1.jpg",
    "icongray": "https://steamcdn-a.akamaihd.net/steamcommunity/public/images/apps/261760/fa4c7a449696cf6bb9ea309ad1a413743752d922.jpg"
  },
  {
    "name": "LICH_BM_ACHIEVEMENT_37",
    "defaultvalue": 0,
    "displayName": "Drivasser Explorer",
    "hidden": 0,
    "description": "Find all of the Plaques in Drivasser",
    "icon": "https://steamcdn-a.akamaihd.net/steamcommunity/public/images/apps/261760/c8427b5ca51b4e68d560b822ff5ce899190b261b.jpg",
    "icongray": "https://steamcdn-a.akamaihd.net/steamcommunity/public/images/apps/261760/fa4c7a449696cf6bb9ea309ad1a413743752d922.jpg"
  },
  {
    "name": "LICH_BM_ACHIEVEMENT_38",
    "defaultvalue": 0,
    "displayName": "Newb Game Plus",
    "hidden": 0,
    "description": "Complete any Vortex Portal",
    "icon": "https://steamcdn-a.akamaihd.net/steamcommunity/public/images/apps/261760/399b5be3639633be384b69fd78701d3f465b4b4a.jpg",
    "icongray": "https://steamcdn-a.akamaihd.net/steamcommunity/public/images/apps/261760/9aa46864847697795a0a34a0d1c45d458cbde920.jpg"
  },
  {
    "name": "LICH_BM_ACHIEVEMENT_39",
    "defaultvalue": 0,
    "displayName": "Bass Ackwards",
    "hidden": 0,
    "description": "Complete all Skirmish Portals",
    "icon": "https://steamcdn-a.akamaihd.net/steamcommunity/public/images/apps/261760/3c55552730fd299d4145f20d45ebf7ae78852be9.jpg",
    "icongray": "https://steamcdn-a.akamaihd.net/steamcommunity/public/images/apps/261760/9aa46864847697795a0a34a0d1c45d458cbde920.jpg"
  },
  {
    "name": "LICH_BM_ACHIEVEMENT_40",
    "defaultvalue": 0,
    "displayName": "Challenge Completed",
    "hidden": 0,
    "description": "Complete an entire New Game Plus sequence",
    "icon": "https://steamcdn-a.akamaihd.net/steamcommunity/public/images/apps/261760/ea9fcef70abb29ccdab55623e570548fe1fc8e58.jpg",
    "icongray": "https://steamcdn-a.akamaihd.net/steamcommunity/public/images/apps/261760/9aa46864847697795a0a34a0d1c45d458cbde920.jpg"
  },
  {
    "name": "LICH_BM_ACHIEVEMENT_41",
    "defaultvalue": 0,
    "displayName": "Magic Hunt",
    "hidden": 0,
    "description": "Complete all Hunt Portals",
    "icon": "https://steamcdn-a.akamaihd.net/steamcommunity/public/images/apps/261760/4f37e1b15679f04ef58038bd36008e0f8674aae3.jpg",
    "icongray": "https://steamcdn-a.akamaihd.net/steamcommunity/public/images/apps/261760/9aa46864847697795a0a34a0d1c45d458cbde920.jpg"
  },
  {
    "name": "LICH_BM_ACHIEVEMENT_43",
    "defaultvalue": 0,
    "displayName": "Cult 45",
    "hidden": 0,
    "description": "Complete all Disable Portals",
    "icon": "https://steamcdn-a.akamaihd.net/steamcommunity/public/images/apps/261760/87faed7a2b1d7f09de0e645fbd6b3fbd2d1b664d.jpg",
    "icongray": "https://steamcdn-a.akamaihd.net/steamcommunity/public/images/apps/261760/9aa46864847697795a0a34a0d1c45d458cbde920.jpg"
  },
  {
    "name": "LICH_BM_ACHIEVEMENT_44",
    "defaultvalue": 0,
    "displayName": "Plus Sized",
    "hidden": 0,
    "description": "Complete three sets of Vortex Portals",
    "icon": "https://steamcdn-a.akamaihd.net/steamcommunity/public/images/apps/261760/6feab5fd329551200ed1f6c5296a4dfdc875e82d.jpg",
    "icongray": "https://steamcdn-a.akamaihd.net/steamcommunity/public/images/apps/261760/9aa46864847697795a0a34a0d1c45d458cbde920.jpg"
  },
  {
    "name": "LICH_BM_ACHIEVEMENT_45",
    "defaultvalue": 0,
    "displayName": "Mouthful",
    "hidden": 0,
    "description": "Complete an entire series of Vortex Portals in one sitting",
    "icon": "https://steamcdn-a.akamaihd.net/steamcommunity/public/images/apps/261760/8f0a9dc001b768a8e080e6b70d3e0472730758a0.jpg",
    "icongray": "https://steamcdn-a.akamaihd.net/steamcommunity/public/images/apps/261760/9aa46864847697795a0a34a0d1c45d458cbde920.jpg"
  },
  {
    "name": "LICH_BM_ACHIEVEMENT_19",
    "defaultvalue": 0,
    "displayName": "It's Comin' Outta Me Like Lava!",
    "hidden": 1,
    "icon": "https://steamcdn-a.akamaihd.net/steamcommunity/public/images/apps/261760/d2dc1409761296efff2cbaeca06a71d3494931ed.jpg",
    "icongray": "https://steamcdn-a.akamaihd.net/steamcommunity/public/images/apps/261760/1589b8db2b73a093e34186234293f44970c01810.jpg"
  },
  {
    "name": "LICH_BM_ACHIEVEMENT_22",
    "defaultvalue": 0,
    "displayName": "A Salt Shaker Half Full",
    "hidden": 1,
    "icon": "https://steamcdn-a.akamaihd.net/steamcommunity/public/images/apps/261760/f5eb52385eb033bb3701df52e151f4f617a4d0c7.jpg",
    "icongray": "https://steamcdn-a.akamaihd.net/steamcommunity/public/images/apps/261760/1589b8db2b73a093e34186234293f44970c01810.jpg"
  },
  {
    "name": "LICH_BM_ACHIEVEMENT_23",
    "defaultvalue": 0,
    "displayName": "Especially When It's Waving a Razor-sharp Hunting Knife In Your Eye",
    "hidden": 1,
    "icon": "https://steamcdn-a.akamaihd.net/steamcommunity/public/images/apps/261760/0c8f82b593cc01501be7db0f3a811b9e0866b060.jpg",
    "icongray": "https://steamcdn-a.akamaihd.net/steamcommunity/public/images/apps/261760/1589b8db2b73a093e34186234293f44970c01810.jpg"
  },
  {
    "name": "LICH_BM_ACHIEVEMENT_24",
    "defaultvalue": 0,
    "displayName": "Mage Against the Machine",
    "hidden": 1,
    "icon": "https://steamcdn-a.akamaihd.net/steamcommunity/public/images/apps/261760/27b369df3d45e22e0eb7ee2cab837bce191e735a.jpg",
    "icongray": "https://steamcdn-a.akamaihd.net/steamcommunity/public/images/apps/261760/1589b8db2b73a093e34186234293f44970c01810.jpg"
  },
  {
    "name": "LICH_BM_ACHIEVEMENT_26",
    "defaultvalue": 0,
    "displayName": "Good, Bad, I’m the One with the Magic",
    "hidden": 1,
    "icon": "https://steamcdn-a.akamaihd.net/steamcommunity/public/images/apps/261760/3513a642f115b7084dbeef4af80db4283837cd46.jpg",
    "icongray": "https://steamcdn-a.akamaihd.net/steamcommunity/public/images/apps/261760/1589b8db2b73a093e34186234293f44970c01810.jpg"
  },
  {
    "name": "LICH_BM_ACHIEVEMENT_27",
    "defaultvalue": 0,
    "displayName": "Twenty Men Enter, Only Him Leave!",
    "hidden": 1,
    "icon": "https://steamcdn-a.akamaihd.net/steamcommunity/public/images/apps/261760/39ba26ffb6120e4a67cb761258808bb0bc81d052.jpg",
    "icongray": "https://steamcdn-a.akamaihd.net/steamcommunity/public/images/apps/261760/1589b8db2b73a093e34186234293f44970c01810.jpg"
  },
  {
    "name": "LICH_BM_ACHIEVEMENT_28",
    "defaultvalue": 0,
    "displayName": "This House is Clean",
    "hidden": 1,
    "icon": "https://steamcdn-a.akamaihd.net/steamcommunity/public/images/apps/261760/b85ad5aab8abc46928a27d84f96440a62f511328.jpg",
    "icongray": "https://steamcdn-a.akamaihd.net/steamcommunity/public/images/apps/261760/1589b8db2b73a093e34186234293f44970c01810.jpg"
  },
  {
    "name": "LICH_BM_ACHIEVEMENT_29",
    "defaultvalue": 0,
    "displayName": "Puking Pustules",
    "hidden": 1,
    "icon": "https://steamcdn-a.akamaihd.net/steamcommunity/public/images/apps/261760/4f4703477222dd70745445b6fd9e28ba79c42d3f.jpg",
    "icongray": "https://steamcdn-a.akamaihd.net/steamcommunity/public/images/apps/261760/1589b8db2b73a093e34186234293f44970c01810.jpg"
  },
  {
    "name": "LICH_BM_ACHIEVEMENT_47",
    "defaultvalue": 0,
    "displayName": "99.1% Pure",
    "hidden": 1,
    "icon": "https://steamcdn-a.akamaihd.net/steamcommunity/public/images/apps/261760/b716ed504751c67f2a8c72cd6d7f7ae5c9c50e71.jpg",
    "icongray": "https://steamcdn-a.akamaihd.net/steamcommunity/public/images/apps/261760/1589b8db2b73a093e34186234293f44970c01810.jpg"
  },
  {
    "name": "LICH_BM_ACHIEVEMENT_48",
    "defaultvalue": 0,
    "displayName": "You Took Too Much, Man. You Took Too Much",
    "hidden": 1,
    "icon": "https://steamcdn-a.akamaihd.net/steamcommunity/public/images/apps/261760/91f2ba9269fddb9efa0676363afabbcf31cc80a4.jpg",
    "icongray": "https://steamcdn-a.akamaihd.net/steamcommunity/public/images/apps/261760/1589b8db2b73a093e34186234293f44970c01810.jpg"
  },
  {
    "name": "LICH_BM_ACHIEVEMENT_49",
    "defaultvalue": 0,
    "displayName": "This One, This One Right Here. This Was My Dream, My Wish",
    "hidden": 0,
    "description": "Find 20 Loot Orbs",
    "icon": "https://steamcdn-a.akamaihd.net/steamcommunity/public/images/apps/261760/da56a5aa7a6b277069c38cb065dffdc285e6769e.jpg",
    "icongray": "https://steamcdn-a.akamaihd.net/steamcommunity/public/images/apps/261760/1589b8db2b73a093e34186234293f44970c01810.jpg"
  },
  {
    "name": "LICH_BM_ACHIEVEMENT_51",
    "defaultvalue": 0,
    "displayName": "Surf and Turf",
    "hidden": 1,
    "icon": "https://steamcdn-a.akamaihd.net/steamcommunity/public/images/apps/261760/6422812367adaf80f88adecbd056213f0ff396d5.jpg",
    "icongray": "https://steamcdn-a.akamaihd.net/steamcommunity/public/images/apps/261760/fa4c7a449696cf6bb9ea309ad1a413743752d922.jpg"
  },
  {
    "name": "LICH_BM_ACHIEVEMENT_52",
    "defaultvalue": 0,
    "displayName": "Dust In The Wind",
    "hidden": 1,
    "icon": "https://steamcdn-a.akamaihd.net/steamcommunity/public/images/apps/261760/be49de20a699a88abc28fcb5e0992744a9a9e485.jpg",
    "icongray": "https://steamcdn-a.akamaihd.net/steamcommunity/public/images/apps/261760/fa4c7a449696cf6bb9ea309ad1a413743752d922.jpg"
  },
  {
    "name": "LICH_BM_ACHIEVEMENT_17",
    "defaultvalue": 0,
    "displayName": "Truly A Badass",
    "hidden": 0,
    "description": "Equip nine unique spells",
    "icon": "https://steamcdn-a.akamaihd.net/steamcommunity/public/images/apps/261760/ef51bfd790f4f688ded81e22d42efb9982515f63.jpg",
    "icongray": "https://steamcdn-a.akamaihd.net/steamcommunity/public/images/apps/261760/6b041a4da4fbc45f3e3bdbf5f098708b36ac3314.jpg"
  },
  {
    "name": "LICH_BM_ACHIEVEMENT_18",
    "defaultvalue": 0,
    "displayName": "This better be good...",
    "hidden": 0,
    "description": "Craft a Spell with a Unique Pattern and 4 Legendary Augments",
    "icon": "https://steamcdn-a.akamaihd.net/steamcommunity/public/images/apps/261760/ad0e84341ce6e423a45b64a87ee24a199511e3b3.jpg",
    "icongray": "https://steamcdn-a.akamaihd.net/steamcommunity/public/images/apps/261760/6b041a4da4fbc45f3e3bdbf5f098708b36ac3314.jpg"
  },
  {
    "name": "LICH_BM_ACHIEVEMENT_53",
    "defaultvalue": 0,
    "displayName": "Dust In The Wind (Badass)",
    "hidden": 1,
    "icon": "https://steamcdn-a.akamaihd.net/steamcommunity/public/images/apps/261760/b3449e64111577deaeedef6677826eb19198fd1e.jpg",
    "icongray": "https://steamcdn-a.akamaihd.net/steamcommunity/public/images/apps/261760/ff1ba2fd8766cb27b04f75f9a294d3238c3e57f6.jpg"
  },
  {
    "name": "LICH_BM_ACHIEVEMENT_54",
    "defaultvalue": 0,
    "displayName": "Dust In The Wind (Battlemage)",
    "hidden": 1,
    "icon": "https://steamcdn-a.akamaihd.net/steamcommunity/public/images/apps/261760/b3449e64111577deaeedef6677826eb19198fd1e.jpg",
    "icongray": "https://steamcdn-a.akamaihd.net/steamcommunity/public/images/apps/261760/ff1ba2fd8766cb27b04f75f9a294d3238c3e57f6.jpg"
  },
  {
    "name": "LICH_BM_ACHIEVEMENT_55",
    "defaultvalue": 0,
    "displayName": "Surf and Turf (Badass)",
    "hidden": 1,
    "icon": "https://steamcdn-a.akamaihd.net/steamcommunity/public/images/apps/261760/a98e40825ce87551aa10c92c03761416a0fc3ade.jpg",
    "icongray": "https://steamcdn-a.akamaihd.net/steamcommunity/public/images/apps/261760/ff1ba2fd8766cb27b04f75f9a294d3238c3e57f6.jpg"
  },
  {
    "name": "LICH_BM_ACHIEVEMENT_56",
    "defaultvalue": 0,
    "displayName": "Surf and Turf (Battlemage)",
    "hidden": 1,
    "icon": "https://steamcdn-a.akamaihd.net/steamcommunity/public/images/apps/261760/a98e40825ce87551aa10c92c03761416a0fc3ade.jpg",
    "icongray": "https://steamcdn-a.akamaihd.net/steamcommunity/public/images/apps/261760/ff1ba2fd8766cb27b04f75f9a294d3238c3e57f6.jpg"
  },
  {
    "name": "LICH_BM_ACHIEVEMENT_57",
    "defaultvalue": 0,
    "displayName": "The First of Many (Badass)",
    "hidden": 1,
    "icon": "https://steamcdn-a.akamaihd.net/steamcommunity/public/images/apps/261760/0187f682b450af181bb19e7d67e2d2eacac03294.jpg",
    "icongray": "https://steamcdn-a.akamaihd.net/steamcommunity/public/images/apps/261760/ff1ba2fd8766cb27b04f75f9a294d3238c3e57f6.jpg"
  },
  {
    "name": "LICH_BM_ACHIEVEMENT_58",
    "defaultvalue": 0,
    "displayName": "The First of Many (Battlemage)",
    "hidden": 1,
    "icon": "https://steamcdn-a.akamaihd.net/steamcommunity/public/images/apps/261760/0187f682b450af181bb19e7d67e2d2eacac03294.jpg",
    "icongray": "https://steamcdn-a.akamaihd.net/steamcommunity/public/images/apps/261760/ff1ba2fd8766cb27b04f75f9a294d3238c3e57f6.jpg"
  },
  {
    "name": "LICH_BM_ACHIEVEMENT_59",
    "defaultvalue": 0,
    "displayName": "It does not get any better than this",
    "hidden": 1,
    "icon": "https://steamcdn-a.akamaihd.net/steamcommunity/public/images/apps/261760/a7d2914691f7a1edb1e455270c3940e1a6601070.jpg",
    "icongray": "https://steamcdn-a.akamaihd.net/steamcommunity/public/images/apps/261760/ff1ba2fd8766cb27b04f75f9a294d3238c3e57f6.jpg"
  },
  {
    "name": "LICH_BM_ACHIEVEMENT_60",
    "defaultvalue": 0,
    "displayName": "A need to acquire every permutation",
    "hidden": 1,
    "icon": "https://steamcdn-a.akamaihd.net/steamcommunity/public/images/apps/261760/f78ef28ad5d209bc1b94cd44adaa791406c25e14.jpg",
    "icongray": "https://steamcdn-a.akamaihd.net/steamcommunity/public/images/apps/261760/ff1ba2fd8766cb27b04f75f9a294d3238c3e57f6.jpg"
  },
  {
    "name": "LICH_BM_ACHIEVEMENT_61",
    "defaultvalue": 0,
    "displayName": "I Am the Dragon (Badass)",
    "hidden": 1,
    "icon": "https://steamcdn-a.akamaihd.net/steamcommunity/public/images/apps/261760/c811889071814156a542169744bee3d0ce702934.jpg",
    "icongray": "https://steamcdn-a.akamaihd.net/steamcommunity/public/images/apps/261760/ff1ba2fd8766cb27b04f75f9a294d3238c3e57f6.jpg"
  },
  {
    "name": "LICH_BM_ACHIEVEMENT_62",
    "defaultvalue": 0,
    "displayName": "I Am the Dragon (Battlemage)",
    "hidden": 1,
    "icon": "https://steamcdn-a.akamaihd.net/steamcommunity/public/images/apps/261760/c811889071814156a542169744bee3d0ce702934.jpg",
    "icongray": "https://steamcdn-a.akamaihd.net/steamcommunity/public/images/apps/261760/ff1ba2fd8766cb27b04f75f9a294d3238c3e57f6.jpg"
  },
  {
    "name": "LICH_BM_ACHIEVEMENT_63",
    "defaultvalue": 0,
    "displayName": "Bitter Victory (Badass)",
    "hidden": 1,
    "icon": "https://steamcdn-a.akamaihd.net/steamcommunity/public/images/apps/261760/e0d53bc50db28f1404a27431e8d806a906f66bcf.jpg",
    "icongray": "https://steamcdn-a.akamaihd.net/steamcommunity/public/images/apps/261760/ff1ba2fd8766cb27b04f75f9a294d3238c3e57f6.jpg"
  },
  {
    "name": "LICH_BM_ACHIEVEMENT_64",
    "defaultvalue": 0,
    "displayName": "Bitter Victory (Battlemage)",
    "hidden": 1,
    "icon": "https://steamcdn-a.akamaihd.net/steamcommunity/public/images/apps/261760/e0d53bc50db28f1404a27431e8d806a906f66bcf.jpg",
    "icongray": "https://steamcdn-a.akamaihd.net/steamcommunity/public/images/apps/261760/ff1ba2fd8766cb27b04f75f9a294d3238c3e57f6.jpg"
  }
]