﻿{
  "Dlcs": {},
  "Name": "Floppy Heroes",
  "AppId": "480450",
  "ImageUrl": "https://steamcdn-a.akamaihd.net/steam/apps/480450/header.jpg?t=1482400679",
  "Languages": [
    "english"
  ],
  "Platforms": {
    "windows": true,
    "mac": false,
    "linux": false
  }
}