﻿{
  "Dlcs": {},
  "Name": "Hero of the Kingdom II",
  "AppId": "346560",
  "ImageUrl": "https://steamcdn-a.akamaihd.net/steam/apps/346560/header.jpg?t=1595841643",
  "Languages": [
    "english",
    "french",
    "german",
    "spanish",
    "russian",
    "turkish",
    "czech",
    "portuguese",
    "hungarian",
    "polish",
    "italian",
    "dutch",
    "ukrainian",
    "danish"
  ],
  "Platforms": {
    "windows": true,
    "mac": true,
    "linux": true
  }
}