﻿[
  {
    "name": "zhs_zhs",
    "defaultvalue": 0,
    "displayName": "headshots"
  },
  {
    "name": "s_s",
    "defaultvalue": 0,
    "displayName": "snake"
  },
  {
    "name": "c_c",
    "defaultvalue": 0,
    "displayName": "crow"
  },
  {
    "name": "n_n",
    "defaultvalue": 0,
    "displayName": "nagantKill"
  },
  {
    "name": "m_m",
    "defaultvalue": 0,
    "displayName": "makarovKill"
  },
  {
    "name": "sh_sh",
    "defaultvalue": 0,
    "displayName": "shotgunKill"
  },
  {
    "name": "a_a",
    "defaultvalue": 0,
    "displayName": "axeKill"
  },
  {
    "name": "sw_sw",
    "defaultvalue": 0,
    "displayName": "swordKill"
  },
  {
    "name": "b_b",
    "defaultvalue": 0,
    "displayName": "fiveBang"
  }
]