﻿{
  "Dlcs": {},
  "Name": "Call of the Ninja!",
  "AppId": "350330",
  "ImageUrl": "https://steamcdn-a.akamaihd.net/steam/apps/350330/header.jpg?t=1573342265",
  "Languages": [
    "english"
  ],
  "Platforms": {
    "windows": true,
    "mac": true,
    "linux": false
  }
}