﻿[
  {
    "name": "Flip",
    "defaultvalue": 0,
    "displayName": "Learn to Flip",
    "hidden": 0,
    "description": "Complete Training Level 1",
    "icon": "https://steamcdn-a.akamaihd.net/steamcommunity/public/images/apps/350330/cf158cba7e8b42395b33689d5f39d8372a0050fc.jpg",
    "icongray": "https://steamcdn-a.akamaihd.net/steamcommunity/public/images/apps/350330/e4c470d67d7f19c9f71795ab2a5c92ae2e66de2a.jpg"
  },
  {
    "name": "Dash",
    "defaultvalue": 0,
    "displayName": "Learn to Dash",
    "hidden": 0,
    "description": "Complete Training Level 2",
    "icon": "https://steamcdn-a.akamaihd.net/steamcommunity/public/images/apps/350330/1d70f86c3f407c41080e4379cc1dc73e482691ea.jpg",
    "icongray": "https://steamcdn-a.akamaihd.net/steamcommunity/public/images/apps/350330/defe4b990b9321d4fa8d6ae6aa71664ed6f91157.jpg"
  },
  {
    "name": "WaterRun",
    "defaultvalue": 0,
    "displayName": "Learn to Water-Run",
    "hidden": 0,
    "description": "Complete Training Level 3",
    "icon": "https://steamcdn-a.akamaihd.net/steamcommunity/public/images/apps/350330/d2815ff7a3e915ff9470b0ef2ce6ad826aeb50bf.jpg",
    "icongray": "https://steamcdn-a.akamaihd.net/steamcommunity/public/images/apps/350330/2b59638713bf368fb74b4302e35fca8b42fba4c0.jpg"
  },
  {
    "name": "Vanish",
    "defaultvalue": 0,
    "displayName": "Learn to Vanish",
    "hidden": 0,
    "description": "Complete Training Level 4",
    "icon": "https://steamcdn-a.akamaihd.net/steamcommunity/public/images/apps/350330/038588b92883bf8f0ba4f7a2dfc400795d662a1c.jpg",
    "icongray": "https://steamcdn-a.akamaihd.net/steamcommunity/public/images/apps/350330/f9dd8a85b7dd4dcdffd4f5c8252331d8d1731947.jpg"
  },
  {
    "name": "Climb",
    "defaultvalue": 0,
    "displayName": "Learn to Climb",
    "hidden": 0,
    "description": "Complete Training Level 5",
    "icon": "https://steamcdn-a.akamaihd.net/steamcommunity/public/images/apps/350330/9e2775102978c069e9186d996609b4160a8ea498.jpg",
    "icongray": "https://steamcdn-a.akamaihd.net/steamcommunity/public/images/apps/350330/eb403d548e6952bbad0581e74c05d1ff4ca8be32.jpg"
  },
  {
    "name": "WipeOut",
    "defaultvalue": 0,
    "displayName": "Wipe Out!",
    "hidden": 0,
    "description": "Lose all your Ninjas!",
    "icon": "https://steamcdn-a.akamaihd.net/steamcommunity/public/images/apps/350330/aaeeab8321472ea9b1084d1ad204f868919cb047.jpg",
    "icongray": "https://steamcdn-a.akamaihd.net/steamcommunity/public/images/apps/350330/3c10eea682d4c97c6844a7e4fbbf8a18f2527337.jpg"
  },
  {
    "name": "SaveAll",
    "defaultvalue": 0,
    "displayName": "Save Everyone!",
    "hidden": 0,
    "description": "Save all your Ninjas on Challenge Level",
    "icon": "https://steamcdn-a.akamaihd.net/steamcommunity/public/images/apps/350330/343465804d54a464774b13daea33c1b484b7c27a.jpg",
    "icongray": "https://steamcdn-a.akamaihd.net/steamcommunity/public/images/apps/350330/ac318c2599562dc7d604c91645fe73fce4956346.jpg"
  },
  {
    "name": "Shuriken",
    "defaultvalue": 0,
    "displayName": "Five Shurikens!",
    "hidden": 0,
    "description": "Collect Five Shurikens",
    "icon": "https://steamcdn-a.akamaihd.net/steamcommunity/public/images/apps/350330/0d9d7d696051615267a127e7ebedab00a3861f14.jpg",
    "icongray": "https://steamcdn-a.akamaihd.net/steamcommunity/public/images/apps/350330/8574ab77f290457cf92a805e0501a44d00711c2b.jpg"
  },
  {
    "name": "Impossible",
    "defaultvalue": 0,
    "displayName": "Impossible Mission",
    "hidden": 0,
    "description": "Beat Level 12",
    "icon": "https://steamcdn-a.akamaihd.net/steamcommunity/public/images/apps/350330/6bfc00fc6dabc9959d6dfe532b9282356d2e90a1.jpg",
    "icongray": "https://steamcdn-a.akamaihd.net/steamcommunity/public/images/apps/350330/2c594eab23b23a92b357503e0338bce7cfb2d83b.jpg"
  },
  {
    "name": "Double",
    "defaultvalue": 0,
    "displayName": "Double Trouble",
    "hidden": 0,
    "description": "Complete Level 20",
    "icon": "https://steamcdn-a.akamaihd.net/steamcommunity/public/images/apps/350330/7b093ca862df8a7ecff7750d2ffd75474891ba1f.jpg",
    "icongray": "https://steamcdn-a.akamaihd.net/steamcommunity/public/images/apps/350330/3e9e60ba627607550d963b55cb93c9ddc9584d04.jpg"
  },
  {
    "name": "Lift",
    "defaultvalue": 0,
    "displayName": "Lift Shaft",
    "hidden": 0,
    "description": "Ninja Level 25",
    "icon": "https://steamcdn-a.akamaihd.net/steamcommunity/public/images/apps/350330/46378bacb9a1682bfd2a6e01d9f95a6dc8478047.jpg",
    "icongray": "https://steamcdn-a.akamaihd.net/steamcommunity/public/images/apps/350330/d57fa30eabd06948b74d655c485c716cc0a08831.jpg"
  },
  {
    "name": "Approach",
    "defaultvalue": 0,
    "displayName": "Nearly There!",
    "hidden": 0,
    "description": "Beat Level 29",
    "icon": "https://steamcdn-a.akamaihd.net/steamcommunity/public/images/apps/350330/4af4e29c7a834e5750a7c63ef683dfdd142c366a.jpg",
    "icongray": "https://steamcdn-a.akamaihd.net/steamcommunity/public/images/apps/350330/ae8c421634d9137052be3d1a20cde686ef8628d6.jpg"
  },
  {
    "name": "Master",
    "defaultvalue": 0,
    "displayName": "Ninja Master!",
    "hidden": 0,
    "description": "Complete the Final Test!",
    "icon": "https://steamcdn-a.akamaihd.net/steamcommunity/public/images/apps/350330/8cb39f194c92c8aa75b98cff8ea7666958402d5f.jpg",
    "icongray": "https://steamcdn-a.akamaihd.net/steamcommunity/public/images/apps/350330/14ec2d97351482077fd4d7bbbb474310e2f23194.jpg"
  }
]