﻿{
  "Dlcs": {},
  "Name": "Sudeki",
  "AppId": "233350",
  "ImageUrl": "https://steamcdn-a.akamaihd.net/steam/apps/233350/header.jpg?t=1573226855",
  "Languages": [
    "english",
    "french",
    "italian",
    "german",
    "spanish"
  ],
  "Platforms": {
    "windows": true,
    "mac": false,
    "linux": false
  }
}