﻿{
  "Dlcs": {},
  "Name": "Diamond Dan",
  "AppId": "70500",
  "ImageUrl": "https://steamcdn-a.akamaihd.net/steam/apps/70500/header.jpg?t=1527585234",
  "Languages": [
    "english"
  ],
  "Platforms": {
    "windows": true,
    "mac": true,
    "linux": false
  }
}