﻿[
  {
    "name": "tutorial",
    "defaultvalue": 0,
    "displayName": "Become a governor",
    "hidden": 0,
    "description": "Finish the tutorial",
    "icon": "https://steamcdn-a.akamaihd.net/steamcommunity/public/images/apps/486540/208dddaec0ed01d0911e19a3a0244901e844a09f.jpg",
    "icongray": "https://steamcdn-a.akamaihd.net/steamcommunity/public/images/apps/486540/de91a2bee623df0c2f431df0abc116d207e0527b.jpg"
  },
  {
    "name": "scenario_tournament",
    "defaultvalue": 0,
    "displayName": "I've been everywhere I",
    "hidden": 0,
    "description": "Finish the scenario \"Tournament\"",
    "icon": "https://steamcdn-a.akamaihd.net/steamcommunity/public/images/apps/486540/2e407b4f89613b9d1dd936274b18f43f076c6044.jpg",
    "icongray": "https://steamcdn-a.akamaihd.net/steamcommunity/public/images/apps/486540/1852e279dfbcdf38c6d06a7be456704eb83e74b1.jpg"
  },
  {
    "name": "scenario_latefall",
    "defaultvalue": 0,
    "displayName": "I've been everywhere II",
    "hidden": 0,
    "description": "Finish the scenario \"Latefall\"",
    "icon": "https://steamcdn-a.akamaihd.net/steamcommunity/public/images/apps/486540/ac956e101166c6b51a43a69c4dec2c387259decd.jpg",
    "icongray": "https://steamcdn-a.akamaihd.net/steamcommunity/public/images/apps/486540/d85d29a78db123e701080640dacf3d1df7666988.jpg"
  },
  {
    "name": "scenario_economycrisis",
    "defaultvalue": 0,
    "displayName": "I've been everywhere III",
    "hidden": 0,
    "description": "Finish the scenario \"Economy Crisis\"",
    "icon": "https://steamcdn-a.akamaihd.net/steamcommunity/public/images/apps/486540/d2a0aac8018afd687f6535f45b05cbebef2badbc.jpg",
    "icongray": "https://steamcdn-a.akamaihd.net/steamcommunity/public/images/apps/486540/17480c9891c0bf19c599ac364cb41f52c4e8e68d.jpg"
  },
  {
    "name": "scenario_draught",
    "defaultvalue": 0,
    "displayName": "I've been everywhere IV",
    "hidden": 0,
    "description": "Finish the scenario \"Draught\"",
    "icon": "https://steamcdn-a.akamaihd.net/steamcommunity/public/images/apps/486540/989826ed094cceb501bcc30d7a18a5e1833eb517.jpg",
    "icongray": "https://steamcdn-a.akamaihd.net/steamcommunity/public/images/apps/486540/3439da36b2a64b9c07a32ee3190774ae5c7fc7af.jpg"
  },
  {
    "name": "scenario_tradingpost",
    "defaultvalue": 0,
    "displayName": "I've been everywhere V",
    "hidden": 0,
    "description": "Finish the scenario \"Trading Post\"",
    "icon": "https://steamcdn-a.akamaihd.net/steamcommunity/public/images/apps/486540/eb2a1c545a6ed1baba4d7a5b9cc1f86afc26ecc6.jpg",
    "icongray": "https://steamcdn-a.akamaihd.net/steamcommunity/public/images/apps/486540/789cecda31307d3ec1672cb4e861686e1e2146cf.jpg"
  },
  {
    "name": "scenario_wedding",
    "defaultvalue": 0,
    "displayName": "I've been everywhere VI",
    "hidden": 0,
    "description": "Finish the scenario \"Wedding\"",
    "icon": "https://steamcdn-a.akamaihd.net/steamcommunity/public/images/apps/486540/9e7e094ceefe94920d4b66b01d4aca7af3c11923.jpg",
    "icongray": "https://steamcdn-a.akamaihd.net/steamcommunity/public/images/apps/486540/916e1948b4802bc34c0455d0b21ca1a8fc572f02.jpg"
  },
  {
    "name": "scenario_monumental",
    "defaultvalue": 0,
    "displayName": "I've been everywhere VII",
    "hidden": 0,
    "description": "Finish the scenario \"Monumental\"",
    "icon": "https://steamcdn-a.akamaihd.net/steamcommunity/public/images/apps/486540/e22c533df0baaa090bae887f2b000b8f02436203.jpg",
    "icongray": "https://steamcdn-a.akamaihd.net/steamcommunity/public/images/apps/486540/e1605f345e455464c9b2dfffeeaf3a6dfb403303.jpg"
  },
  {
    "name": "scenario_harshwinter",
    "defaultvalue": 0,
    "displayName": "I've been everywhere VIII",
    "hidden": 0,
    "description": "Finish the scenario \"Harsh Winter\"",
    "icon": "https://steamcdn-a.akamaihd.net/steamcommunity/public/images/apps/486540/19530fc3a48b624a6462565d3624c71e4b3a794c.jpg",
    "icongray": "https://steamcdn-a.akamaihd.net/steamcommunity/public/images/apps/486540/7539a9020764541cb3afacfe99ac76267189e4be.jpg"
  },
  {
    "name": "scenario_kingsbet",
    "defaultvalue": 0,
    "displayName": " \tI've been everywhere IX",
    "hidden": 0,
    "description": "Finish the scenario \"Kings Bet\"",
    "icon": "https://steamcdn-a.akamaihd.net/steamcommunity/public/images/apps/486540/bc9ed51b236a1343cd51a7654afb77a76b17f2eb.jpg",
    "icongray": "https://steamcdn-a.akamaihd.net/steamcommunity/public/images/apps/486540/97a3de630fbad8a61431c3976bc3f6d7300d6a64.jpg"
  },
  {
    "name": "scenario_insurgents",
    "defaultvalue": 0,
    "displayName": "I've been everywhere X",
    "hidden": 0,
    "description": "Finish the scenario \"Insurgents\"",
    "icon": "https://steamcdn-a.akamaihd.net/steamcommunity/public/images/apps/486540/d78873c305a5e81b153050275284edf4c4409ea3.jpg",
    "icongray": "https://steamcdn-a.akamaihd.net/steamcommunity/public/images/apps/486540/1ee23ba42a920b2685416f554efffd48dc26d0b3.jpg"
  },
  {
    "name": "scenario_basictraining",
    "defaultvalue": 0,
    "displayName": "I've been everywhere XI",
    "hidden": 0,
    "description": "Finish the scenario \"Basic Training\"",
    "icon": "https://steamcdn-a.akamaihd.net/steamcommunity/public/images/apps/486540/8cfa78061319d28e1dc3d36f0f029e1a9ba6de62.jpg",
    "icongray": "https://steamcdn-a.akamaihd.net/steamcommunity/public/images/apps/486540/352328408f7ae0c66255a7c8ca046ef5fa2d10b6.jpg"
  },
  {
    "name": "scenario_brew",
    "defaultvalue": 0,
    "displayName": "I've been everywhere XII",
    "hidden": 0,
    "description": "Finish the scenario \"Brew\"",
    "icon": "https://steamcdn-a.akamaihd.net/steamcommunity/public/images/apps/486540/5124e129d3daa81b8a08dbb0b9efefd9d0595457.jpg",
    "icongray": "https://steamcdn-a.akamaihd.net/steamcommunity/public/images/apps/486540/aa002f3d683e606b6023e965d4f324417fd2d946.jpg"
  },
  {
    "name": "scenario_disease",
    "defaultvalue": 0,
    "displayName": "I've been everywhere XIII",
    "hidden": 0,
    "description": "Finish the scenario \"Disease\"",
    "icon": "https://steamcdn-a.akamaihd.net/steamcommunity/public/images/apps/486540/a0a0ff1a68fdc32cc77e54dff7f073fac7fe8888.jpg",
    "icongray": "https://steamcdn-a.akamaihd.net/steamcommunity/public/images/apps/486540/19106b20c58be82c00adbc6cb7cd0d701ad15902.jpg"
  },
  {
    "name": "scenario_farmland",
    "defaultvalue": 0,
    "displayName": "I've been everywhere XIV",
    "hidden": 0,
    "description": "Finish the scenario \"Farmland\"",
    "icon": "https://steamcdn-a.akamaihd.net/steamcommunity/public/images/apps/486540/0fef174c80a626e4406437f566335beda20ac919.jpg",
    "icongray": "https://steamcdn-a.akamaihd.net/steamcommunity/public/images/apps/486540/f5e986bb735f66535a8ccd812493c2ba88c83811.jpg"
  },
  {
    "name": "scenario_warridden",
    "defaultvalue": 0,
    "displayName": "I've been everywhere XV",
    "hidden": 0,
    "description": "Finish the scenario \"Warridden\"",
    "icon": "https://steamcdn-a.akamaihd.net/steamcommunity/public/images/apps/486540/3766d4104d5f643ce6b1452d8b726ad6749c4405.jpg",
    "icongray": "https://steamcdn-a.akamaihd.net/steamcommunity/public/images/apps/486540/c838c5b99eb7e9bca71d77dd055402d8b62a7825.jpg"
  },
  {
    "name": "scenario_behindblinders",
    "defaultvalue": 0,
    "displayName": "I've been everywhere XVI",
    "hidden": 0,
    "description": "Finish the scenario \"Behind Blinders\"",
    "icon": "https://steamcdn-a.akamaihd.net/steamcommunity/public/images/apps/486540/2de9a2c8b85fa2d03ef0821caadb0cbc749c859e.jpg",
    "icongray": "https://steamcdn-a.akamaihd.net/steamcommunity/public/images/apps/486540/a49e352dd8c083d3a25067f4a8f9f454801038ae.jpg"
  },
  {
    "name": "scenario_girlsdesires",
    "defaultvalue": 0,
    "displayName": "I've been everywhere XVII",
    "hidden": 0,
    "description": "Finish the scenario \"Girls Desires\"",
    "icon": "https://steamcdn-a.akamaihd.net/steamcommunity/public/images/apps/486540/c36ca03738db5c54881d9b5510762602442d4f92.jpg",
    "icongray": "https://steamcdn-a.akamaihd.net/steamcommunity/public/images/apps/486540/8b4ebc5203e2fb739ca35d4d5f4955727da8004c.jpg"
  },
  {
    "name": "quests1",
    "defaultvalue": 0,
    "displayName": "Completionist I",
    "hidden": 0,
    "description": "Complete 50 quests",
    "icon": "https://steamcdn-a.akamaihd.net/steamcommunity/public/images/apps/486540/39484743cdccccbe215049dbe3284ef88e2a9c1c.jpg",
    "icongray": "https://steamcdn-a.akamaihd.net/steamcommunity/public/images/apps/486540/89c0072fb9fb50a963d0686987a1fdd70a4c7900.jpg"
  },
  {
    "name": "quests2",
    "defaultvalue": 0,
    "displayName": "Completionist II",
    "hidden": 0,
    "description": "Complete 150 quests",
    "icon": "https://steamcdn-a.akamaihd.net/steamcommunity/public/images/apps/486540/240f60440920e74580fb2add9dfd01bd9f8f2ade.jpg",
    "icongray": "https://steamcdn-a.akamaihd.net/steamcommunity/public/images/apps/486540/43e7442dd0dc0c606b850878e6a29b660b6f2487.jpg"
  },
  {
    "name": "quests3",
    "defaultvalue": 0,
    "displayName": "Completionist III",
    "hidden": 0,
    "description": "Complete 250 quests",
    "icon": "https://steamcdn-a.akamaihd.net/steamcommunity/public/images/apps/486540/278318d27260263a2b0370b7d6bd458462ee52cc.jpg",
    "icongray": "https://steamcdn-a.akamaihd.net/steamcommunity/public/images/apps/486540/147e72ec3b7590d74ab2f11f5a3306e7c49d0680.jpg"
  },
  {
    "name": "population1",
    "defaultvalue": 0,
    "displayName": "Builder I",
    "hidden": 0,
    "description": "Reach a population of 50",
    "icon": "https://steamcdn-a.akamaihd.net/steamcommunity/public/images/apps/486540/4cffcc93c3abbe6823c787ab3aa70ac01f1b045b.jpg",
    "icongray": "https://steamcdn-a.akamaihd.net/steamcommunity/public/images/apps/486540/1a68971c351dbca3f35baef8df5af773e920f37d.jpg"
  },
  {
    "name": "population2",
    "defaultvalue": 0,
    "displayName": "Builder II",
    "hidden": 0,
    "description": "Reach a population of 100",
    "icon": "https://steamcdn-a.akamaihd.net/steamcommunity/public/images/apps/486540/55c3d6ff5d8f1c159a644b0e2e27bdb1cc1f0994.jpg",
    "icongray": "https://steamcdn-a.akamaihd.net/steamcommunity/public/images/apps/486540/e8619063af280fcb253575d5980d6bfa30715b41.jpg"
  },
  {
    "name": "population3",
    "defaultvalue": 0,
    "displayName": "Builder III",
    "hidden": 0,
    "description": "Reach a population of 200",
    "icon": "https://steamcdn-a.akamaihd.net/steamcommunity/public/images/apps/486540/a1d578122ab1f0281614c9e6f6c812bd4478cc98.jpg",
    "icongray": "https://steamcdn-a.akamaihd.net/steamcommunity/public/images/apps/486540/da340f48922c8ccbbc62795771ef0346b4e59ef5.jpg"
  },
  {
    "name": "population4",
    "defaultvalue": 0,
    "displayName": "Builder IV",
    "hidden": 0,
    "description": "Reach a population of 300",
    "icon": "https://steamcdn-a.akamaihd.net/steamcommunity/public/images/apps/486540/d995039170b06f01669d57a8bfe60758b9623f2d.jpg",
    "icongray": "https://steamcdn-a.akamaihd.net/steamcommunity/public/images/apps/486540/e1f83bbda230b4e4b368a72f7898fac8594c1e7f.jpg"
  },
  {
    "name": "population5",
    "defaultvalue": 0,
    "displayName": "Builder V",
    "hidden": 0,
    "description": "Reach a population of 500",
    "icon": "https://steamcdn-a.akamaihd.net/steamcommunity/public/images/apps/486540/eb167877b0ffb9180bc73154e2684e020d9fb26d.jpg",
    "icongray": "https://steamcdn-a.akamaihd.net/steamcommunity/public/images/apps/486540/2cb5711a97ee4bae79ca6764c306baffc071adde.jpg"
  },
  {
    "name": "taxes1",
    "defaultvalue": 0,
    "displayName": "Tax-man I",
    "hidden": 0,
    "description": "Collect taxes: 1000 Thaler",
    "icon": "https://steamcdn-a.akamaihd.net/steamcommunity/public/images/apps/486540/fa7df284f07f008c91dc3c66217e0ded24022234.jpg",
    "icongray": "https://steamcdn-a.akamaihd.net/steamcommunity/public/images/apps/486540/6e98a826922547c96fdbc9b11917a0a81c516535.jpg"
  },
  {
    "name": "taxes2",
    "defaultvalue": 0,
    "displayName": "Tax-man II",
    "hidden": 0,
    "description": "Collect taxes: 10000 Thaler",
    "icon": "https://steamcdn-a.akamaihd.net/steamcommunity/public/images/apps/486540/cb867378b6476b38f5f6dad1374f6c4872203c6b.jpg",
    "icongray": "https://steamcdn-a.akamaihd.net/steamcommunity/public/images/apps/486540/bf0594e7595d660e8078aa1febcacf2eb20510d2.jpg"
  },
  {
    "name": "taxes3",
    "defaultvalue": 0,
    "displayName": "Tax-man III",
    "hidden": 0,
    "description": "Collect taxes: 50000 Thaler",
    "icon": "https://steamcdn-a.akamaihd.net/steamcommunity/public/images/apps/486540/cc83ec927c5f3355b281724ba47a8dcef4b3a9ea.jpg",
    "icongray": "https://steamcdn-a.akamaihd.net/steamcommunity/public/images/apps/486540/11eda96e3b1cd3ea4cc395343d202ba8fb028af2.jpg"
  },
  {
    "name": "taxes4",
    "defaultvalue": 0,
    "displayName": "Tax-man IV",
    "hidden": 0,
    "description": "Collect taxes: 100000 Thaler",
    "icon": "https://steamcdn-a.akamaihd.net/steamcommunity/public/images/apps/486540/6fb330aaa57cd4ba3ea6f7e97fcce1166a7c9264.jpg",
    "icongray": "https://steamcdn-a.akamaihd.net/steamcommunity/public/images/apps/486540/dda1ca6f20d15421fb59eaddac73baacd7de5a8a.jpg"
  },
  {
    "name": "taxes5",
    "defaultvalue": 0,
    "displayName": "Tax-man V",
    "hidden": 0,
    "description": "Collect taxes: 1000000 Thaler",
    "icon": "https://steamcdn-a.akamaihd.net/steamcommunity/public/images/apps/486540/c01a82b1839512fe1b3c2f801f6e243d70c515eb.jpg",
    "icongray": "https://steamcdn-a.akamaihd.net/steamcommunity/public/images/apps/486540/c8cbfb6e4b1d342707f070c001e8b49048e094c2.jpg"
  },
  {
    "name": "buildings1",
    "defaultvalue": 0,
    "displayName": "I like to build stuff... I",
    "hidden": 0,
    "description": "Build 10 buildings",
    "icon": "https://steamcdn-a.akamaihd.net/steamcommunity/public/images/apps/486540/28b749c0e46fa14c1528551a1a212e6a0b1de33c.jpg",
    "icongray": "https://steamcdn-a.akamaihd.net/steamcommunity/public/images/apps/486540/59ff0cbf0678c3044705393bf57b4dd8abbec547.jpg"
  },
  {
    "name": "buildings2",
    "defaultvalue": 0,
    "displayName": "I like to build stuff... II",
    "hidden": 0,
    "description": "Build 25 buildings",
    "icon": "https://steamcdn-a.akamaihd.net/steamcommunity/public/images/apps/486540/f6d338b97767dceff8d21ef9945111fdc020f927.jpg",
    "icongray": "https://steamcdn-a.akamaihd.net/steamcommunity/public/images/apps/486540/ebc3d01380cda8a64281f4838930b7bf2b3b9922.jpg"
  },
  {
    "name": "buildings3",
    "defaultvalue": 0,
    "displayName": "I like to build stuff... III",
    "hidden": 0,
    "description": "Build 50 buildings",
    "icon": "https://steamcdn-a.akamaihd.net/steamcommunity/public/images/apps/486540/db722714305f1314aec628a4d80be65599204946.jpg",
    "icongray": "https://steamcdn-a.akamaihd.net/steamcommunity/public/images/apps/486540/edbb956f33bcac6aaaf69283253c86fe9807b047.jpg"
  },
  {
    "name": "buildings4",
    "defaultvalue": 0,
    "displayName": "I like to build stuff... IV",
    "hidden": 0,
    "description": "Build 75 buildings",
    "icon": "https://steamcdn-a.akamaihd.net/steamcommunity/public/images/apps/486540/ed0451e0506f2db89ba37bb609edbc057b250cc9.jpg",
    "icongray": "https://steamcdn-a.akamaihd.net/steamcommunity/public/images/apps/486540/92b5c7b29295765dc102eeddf3d7a97391a38984.jpg"
  },
  {
    "name": "buildings5",
    "defaultvalue": 0,
    "displayName": "I like to build stuff... V",
    "hidden": 0,
    "description": "Build 100 buildings",
    "icon": "https://steamcdn-a.akamaihd.net/steamcommunity/public/images/apps/486540/7501c176ec39b4497cfca9e976d032ada9a4d87e.jpg",
    "icongray": "https://steamcdn-a.akamaihd.net/steamcommunity/public/images/apps/486540/7c89583e28c6adac533a3263dc2919f5eabe5771.jpg"
  },
  {
    "name": "bread1",
    "defaultvalue": 0,
    "displayName": "Bread for the people I",
    "hidden": 0,
    "description": "Produce 200 bread",
    "icon": "https://steamcdn-a.akamaihd.net/steamcommunity/public/images/apps/486540/aa1350750ad4b791d5f3d99bf272621c4140952b.jpg",
    "icongray": "https://steamcdn-a.akamaihd.net/steamcommunity/public/images/apps/486540/3de9cf75923b5bf6e808b60ecc19e613b78531bb.jpg"
  },
  {
    "name": "bread2",
    "defaultvalue": 0,
    "displayName": " \tBread for the people II",
    "hidden": 0,
    "description": "Produce 500 bread",
    "icon": "https://steamcdn-a.akamaihd.net/steamcommunity/public/images/apps/486540/3f48066acb3d422fb959836d8f3e6c2b9515755c.jpg",
    "icongray": "https://steamcdn-a.akamaihd.net/steamcommunity/public/images/apps/486540/d348a3b287f83445f819f15f35a1ab7cce22e34a.jpg"
  },
  {
    "name": "bread3",
    "defaultvalue": 0,
    "displayName": " \tBread for the people III",
    "hidden": 0,
    "description": "Produce 1000 bread",
    "icon": "https://steamcdn-a.akamaihd.net/steamcommunity/public/images/apps/486540/1da8dc4a98ffbef5b8b982e7370b42ed86c8df9e.jpg",
    "icongray": "https://steamcdn-a.akamaihd.net/steamcommunity/public/images/apps/486540/60449abdae7f5248f3e37cf21f1ceb42850ec909.jpg"
  },
  {
    "name": "tools1",
    "defaultvalue": 0,
    "displayName": "Tools of the trade I",
    "hidden": 0,
    "description": "Produce 200 tools",
    "icon": "https://steamcdn-a.akamaihd.net/steamcommunity/public/images/apps/486540/e424e36bec1096e3ab3b07167f4e1b08296cb3da.jpg",
    "icongray": "https://steamcdn-a.akamaihd.net/steamcommunity/public/images/apps/486540/8d3c1ff7557719a3f59aaa38c52b29a584fd985a.jpg"
  },
  {
    "name": "tools2",
    "defaultvalue": 0,
    "displayName": "Tools of the trade II",
    "hidden": 0,
    "description": "Produce 500 tools",
    "icon": "https://steamcdn-a.akamaihd.net/steamcommunity/public/images/apps/486540/16487923e7ee0ed084bb971ab4bc8db0cfff6821.jpg",
    "icongray": "https://steamcdn-a.akamaihd.net/steamcommunity/public/images/apps/486540/fb9c72eaa6edfa519dfcdf195a91970482f43152.jpg"
  },
  {
    "name": "tools3",
    "defaultvalue": 0,
    "displayName": "Tools of the trade III",
    "hidden": 0,
    "description": "Produce 1000 tools",
    "icon": "https://steamcdn-a.akamaihd.net/steamcommunity/public/images/apps/486540/17e611835c980384b45d5a88321ffc9b7286d60a.jpg",
    "icongray": "https://steamcdn-a.akamaihd.net/steamcommunity/public/images/apps/486540/a2fa42e99ad0a3a53a80e8139e34289061c8e9ec.jpg"
  },
  {
    "name": "clothes1",
    "defaultvalue": 0,
    "displayName": "The King's new clothes I",
    "hidden": 0,
    "description": "Produce 200 clothes",
    "icon": "https://steamcdn-a.akamaihd.net/steamcommunity/public/images/apps/486540/3fed938fe755f9c4c6a59c564e9a72636bb8c328.jpg",
    "icongray": "https://steamcdn-a.akamaihd.net/steamcommunity/public/images/apps/486540/f8e38e9c6e72b06930ff8b07ab60117d7142e559.jpg"
  },
  {
    "name": "clothes2",
    "defaultvalue": 0,
    "displayName": "The King's new clothes II",
    "hidden": 0,
    "description": "Produce 500 clothes",
    "icon": "https://steamcdn-a.akamaihd.net/steamcommunity/public/images/apps/486540/f242fb00cab9007fde6b72b38db4620f59c03984.jpg",
    "icongray": "https://steamcdn-a.akamaihd.net/steamcommunity/public/images/apps/486540/292ef804273148b1a386a2847801bb71103628d7.jpg"
  },
  {
    "name": "clothes3",
    "defaultvalue": 0,
    "displayName": "The King's new clothes III",
    "hidden": 0,
    "description": "Produce 1000 clothes",
    "icon": "https://steamcdn-a.akamaihd.net/steamcommunity/public/images/apps/486540/05812d0bab5957323030c4f8a6f6010a0350d2fa.jpg",
    "icongray": "https://steamcdn-a.akamaihd.net/steamcommunity/public/images/apps/486540/f3c09d02e72faefb08e77900567e461bb4c880c9.jpg"
  },
  {
    "name": "jewels1",
    "defaultvalue": 0,
    "displayName": "My precious... I",
    "hidden": 0,
    "description": "Produce 200 jewels",
    "icon": "https://steamcdn-a.akamaihd.net/steamcommunity/public/images/apps/486540/159e74f965b5f436a34283e8af54d02a1f04b72d.jpg",
    "icongray": "https://steamcdn-a.akamaihd.net/steamcommunity/public/images/apps/486540/7f0d65cd739ff2e5da43fa6dda019d0946629aca.jpg"
  },
  {
    "name": "jewels2",
    "defaultvalue": 0,
    "displayName": "My precious... II",
    "hidden": 0,
    "description": "Produce 500 jewels",
    "icon": "https://steamcdn-a.akamaihd.net/steamcommunity/public/images/apps/486540/6d5144f3f3e666e00267bff12ba3faa12eeae2bc.jpg",
    "icongray": "https://steamcdn-a.akamaihd.net/steamcommunity/public/images/apps/486540/60f703e5aaf549b1e82944d4ad137e153e4991e0.jpg"
  },
  {
    "name": "jewels3",
    "defaultvalue": 0,
    "displayName": "My precious... III",
    "hidden": 0,
    "description": "Produce 1000 jewels",
    "icon": "https://steamcdn-a.akamaihd.net/steamcommunity/public/images/apps/486540/1ed25051207fc3207da14d5d5d10da97502b8ab2.jpg",
    "icongray": "https://steamcdn-a.akamaihd.net/steamcommunity/public/images/apps/486540/1b3f8a25aad3bd48de9cdac58f3092961071dcb3.jpg"
  },
  {
    "name": "brews",
    "defaultvalue": 0,
    "displayName": "Five brews and a schnitzel",
    "hidden": 0,
    "description": "Brew 1000 beers",
    "icon": "https://steamcdn-a.akamaihd.net/steamcommunity/public/images/apps/486540/05b983e74776b35afccd443507316eeba6e78e5f.jpg",
    "icongray": "https://steamcdn-a.akamaihd.net/steamcommunity/public/images/apps/486540/1cffd8d6589f3ae86295f2447366eeb401c85165.jpg"
  },
  {
    "name": "sausages",
    "defaultvalue": 0,
    "displayName": "Only the sausage has two ends",
    "hidden": 0,
    "description": "Produce 1000 sausages",
    "icon": "https://steamcdn-a.akamaihd.net/steamcommunity/public/images/apps/486540/c9159b9b942f308a4056a943317c290b37dab058.jpg",
    "icongray": "https://steamcdn-a.akamaihd.net/steamcommunity/public/images/apps/486540/f9b1b8a466617e1c6afbc727f674a1720faa1c68.jpg"
  },
  {
    "name": "lordofwar",
    "defaultvalue": 0,
    "displayName": "Lord of War",
    "hidden": 0,
    "description": "Produce 250 weapons and 250 armors",
    "icon": "https://steamcdn-a.akamaihd.net/steamcommunity/public/images/apps/486540/e90c4dfbb87afa5377247d2f05c2acba4654bfde.jpg",
    "icongray": "https://steamcdn-a.akamaihd.net/steamcommunity/public/images/apps/486540/ec5479ccc00370e38d80bc2593aae219a52ec862.jpg"
  },
  {
    "name": "prestige1",
    "defaultvalue": 0,
    "displayName": "An honorable governor I",
    "hidden": 0,
    "description": "Earn 250 Prestige by completing quests.",
    "icon": "https://steamcdn-a.akamaihd.net/steamcommunity/public/images/apps/486540/1df04ea783d1aa27b45060a027efe09fe5eb78cc.jpg",
    "icongray": "https://steamcdn-a.akamaihd.net/steamcommunity/public/images/apps/486540/095e8cfb0b740c7ab084d707508434da240466a1.jpg"
  },
  {
    "name": "prestige2",
    "defaultvalue": 0,
    "displayName": "An honorable governor II",
    "hidden": 0,
    "description": "Earn 750 Prestige by completing quests.",
    "icon": "https://steamcdn-a.akamaihd.net/steamcommunity/public/images/apps/486540/5d5b1f83ba8a84cb8ba83b7f08acde3d111706f9.jpg",
    "icongray": "https://steamcdn-a.akamaihd.net/steamcommunity/public/images/apps/486540/701742b802ea7c2d35bcb94c03e2469bc7dc2ab3.jpg"
  },
  {
    "name": "prestige3",
    "defaultvalue": 0,
    "displayName": "An honorable governor III",
    "hidden": 0,
    "description": "Earn 2500 Prestige by completing quests",
    "icon": "https://steamcdn-a.akamaihd.net/steamcommunity/public/images/apps/486540/3fe0c1bbe6aacbc4b2dd11a7d73a032ecfbb3b91.jpg",
    "icongray": "https://steamcdn-a.akamaihd.net/steamcommunity/public/images/apps/486540/aa2945a4c1acaa1276c93170536f510f5ca131e7.jpg"
  },
  {
    "name": "time1",
    "defaultvalue": 0,
    "displayName": "A time consuming game I",
    "hidden": 0,
    "description": "Play for 60 minutes",
    "icon": "https://steamcdn-a.akamaihd.net/steamcommunity/public/images/apps/486540/0724a56a35f9ecc48c620b9682e8326cecebbf07.jpg",
    "icongray": "https://steamcdn-a.akamaihd.net/steamcommunity/public/images/apps/486540/9a6fdd77a4b81ba9131b7ebaac6cf31c21d4176b.jpg"
  },
  {
    "name": "time2",
    "defaultvalue": 0,
    "displayName": "A time consuming game II",
    "hidden": 0,
    "description": "Play for 120 minutes",
    "icon": "https://steamcdn-a.akamaihd.net/steamcommunity/public/images/apps/486540/ee07728df5cefac65e939629b35e0faabf16b249.jpg",
    "icongray": "https://steamcdn-a.akamaihd.net/steamcommunity/public/images/apps/486540/0190a19f5a684c104fbed4817c73a1b0ab76ed47.jpg"
  },
  {
    "name": "time3",
    "defaultvalue": 0,
    "displayName": "A time consuming game III",
    "hidden": 0,
    "description": "Play for 300 minutes",
    "icon": "https://steamcdn-a.akamaihd.net/steamcommunity/public/images/apps/486540/29a0761deba0b1e96c77b4414ddc53acd05f8383.jpg",
    "icongray": "https://steamcdn-a.akamaihd.net/steamcommunity/public/images/apps/486540/ac550ec3b89ed1b2a850cf5dd0d291a14418bc10.jpg"
  },
  {
    "name": "time4",
    "defaultvalue": 0,
    "displayName": "A time consuming game IV",
    "hidden": 0,
    "description": "Play for 500 minutes",
    "icon": "https://steamcdn-a.akamaihd.net/steamcommunity/public/images/apps/486540/a4746a5b6f7ceeea32e20abfb3833ca89d7476d0.jpg",
    "icongray": "https://steamcdn-a.akamaihd.net/steamcommunity/public/images/apps/486540/2eefa87eb2cb79767deaeaf29116d044fdb9a61c.jpg"
  },
  {
    "name": "time5",
    "defaultvalue": 0,
    "displayName": "A time consuming game V",
    "hidden": 0,
    "description": "Play for 1000 minutes",
    "icon": "https://steamcdn-a.akamaihd.net/steamcommunity/public/images/apps/486540/53327bb05c035ec2405be9b26b808ae6411b511a.jpg",
    "icongray": "https://steamcdn-a.akamaihd.net/steamcommunity/public/images/apps/486540/037fe9badf8e1f7cae3cc5f0664014cd270b8053.jpg"
  },
  {
    "name": "repair1",
    "defaultvalue": 0,
    "displayName": "Full-time job I",
    "hidden": 0,
    "description": "Repair 50 buildings",
    "icon": "https://steamcdn-a.akamaihd.net/steamcommunity/public/images/apps/486540/97686c76002b1daef7c4d00e4198aa3a638b7428.jpg",
    "icongray": "https://steamcdn-a.akamaihd.net/steamcommunity/public/images/apps/486540/aa4932409246b9f0b417a8568d041aea5926a562.jpg"
  },
  {
    "name": "repair2",
    "defaultvalue": 0,
    "displayName": "Full-time job II",
    "hidden": 0,
    "description": "Repair 150 buiildings",
    "icon": "https://steamcdn-a.akamaihd.net/steamcommunity/public/images/apps/486540/d6ab8b8491d9c876746df0762b9fe8555d7af08d.jpg",
    "icongray": "https://steamcdn-a.akamaihd.net/steamcommunity/public/images/apps/486540/41806986e43205ef494eb5fb25c46008f4d52c1f.jpg"
  },
  {
    "name": "repair3",
    "defaultvalue": 0,
    "displayName": "Full-time job III",
    "hidden": 0,
    "description": "Repair 500 buildings",
    "icon": "https://steamcdn-a.akamaihd.net/steamcommunity/public/images/apps/486540/8015f7d0d9088db45d91977c4220839559d04764.jpg",
    "icongray": "https://steamcdn-a.akamaihd.net/steamcommunity/public/images/apps/486540/e87b7cda0cfa182f5b24ee02ebef305cb086cb2a.jpg"
  },
  {
    "name": "fire1",
    "defaultvalue": 0,
    "displayName": "When there's fire...",
    "hidden": 0,
    "description": "Extinguish 100 burning buildings",
    "icon": "https://steamcdn-a.akamaihd.net/steamcommunity/public/images/apps/486540/a4e857828b4f6b42d4883a86f51fdccd7d7b27c1.jpg",
    "icongray": "https://steamcdn-a.akamaihd.net/steamcommunity/public/images/apps/486540/8bdb28fdddd92f6f772e5e84c023eac80f2339a7.jpg"
  },
  {
    "name": "burnedDown1",
    "defaultvalue": 0,
    "displayName": "Just let it burn!",
    "hidden": 0,
    "description": "Lose 100 buildings to fire",
    "icon": "https://steamcdn-a.akamaihd.net/steamcommunity/public/images/apps/486540/bba00138cc93330a2e2998a8451fa7b54ee62571.jpg",
    "icongray": "https://steamcdn-a.akamaihd.net/steamcommunity/public/images/apps/486540/e3051650c80bc0114da6c1c0bc26e5c66a87916f.jpg"
  },
  {
    "name": "rebuiltIt",
    "defaultvalue": 0,
    "displayName": "We can rebuild it!",
    "hidden": 0,
    "description": "Lose every burnable building on the map to fire.",
    "icon": "https://steamcdn-a.akamaihd.net/steamcommunity/public/images/apps/486540/ae77d1bfc8aa7865f83561b6097f229be6506fc4.jpg",
    "icongray": "https://steamcdn-a.akamaihd.net/steamcommunity/public/images/apps/486540/a56602aba02187813bac264a5d70383b7cb869b3.jpg"
  },
  {
    "name": "fireProtector",
    "defaultvalue": 0,
    "displayName": "Saint Florian",
    "hidden": 0,
    "description": "In a scenario, don't lose a single building to fire.",
    "icon": "https://steamcdn-a.akamaihd.net/steamcommunity/public/images/apps/486540/9134565cf411f8320f65a67d4b97f3c4f9abee2e.jpg",
    "icongray": "https://steamcdn-a.akamaihd.net/steamcommunity/public/images/apps/486540/f2f5b0cbeab26e29b9fdbf796575e9d1873843a9.jpg"
  },
  {
    "name": "lostPlague",
    "defaultvalue": 0,
    "displayName": "Cosmas & Damian",
    "hidden": 0,
    "description": "In a scenario, don't lose a single Townie to the plague.",
    "icon": "https://steamcdn-a.akamaihd.net/steamcommunity/public/images/apps/486540/ef2042eb7d95857abbaaaf2ceae11cec9c9abee5.jpg",
    "icongray": "https://steamcdn-a.akamaihd.net/steamcommunity/public/images/apps/486540/99be0c6c95a26f2a809858b32cbf958e4bcb5d5b.jpg"
  },
  {
    "name": "plageAfflicted1",
    "defaultvalue": 0,
    "displayName": "Plague strikes!",
    "hidden": 0,
    "description": "Cure 100 Townies from the plague.",
    "icon": "https://steamcdn-a.akamaihd.net/steamcommunity/public/images/apps/486540/f59b547fb8a95c3e5a8eecc748646357fc654653.jpg",
    "icongray": "https://steamcdn-a.akamaihd.net/steamcommunity/public/images/apps/486540/495d77021d809d5a6962f137ecba4d7d5fbd78ee.jpg"
  },
  {
    "name": "researchCompleted1",
    "defaultvalue": 0,
    "displayName": "Eureka!",
    "hidden": 0,
    "description": "Complete your first research",
    "icon": "https://steamcdn-a.akamaihd.net/steamcommunity/public/images/apps/486540/5c4a92b777ae10a7cf48cad2ac60c8b236b1fa1a.jpg",
    "icongray": "https://steamcdn-a.akamaihd.net/steamcommunity/public/images/apps/486540/3811cc96b43023e3ab8e6cbe2d78a3a0539a9146.jpg"
  },
  {
    "name": "researchCompleted2",
    "defaultvalue": 0,
    "displayName": "Researcher",
    "hidden": 0,
    "description": "Complete 5 researches",
    "icon": "https://steamcdn-a.akamaihd.net/steamcommunity/public/images/apps/486540/f372aff6d8016dd873684f0d2888700eb0f1371d.jpg",
    "icongray": "https://steamcdn-a.akamaihd.net/steamcommunity/public/images/apps/486540/5687bbbdc45466ed2be21321a0644e194d52589d.jpg"
  },
  {
    "name": "researchCompleted3",
    "defaultvalue": 0,
    "displayName": "Genius",
    "hidden": 0,
    "description": "Complete 50 researches",
    "icon": "https://steamcdn-a.akamaihd.net/steamcommunity/public/images/apps/486540/8a914b150d934d38216941bda1f3dbb088e8cb35.jpg",
    "icongray": "https://steamcdn-a.akamaihd.net/steamcommunity/public/images/apps/486540/339111947bb4429dc547eca9ea144737cb3c04e4.jpg"
  },
  {
    "name": "lastmanstanding",
    "defaultvalue": 0,
    "displayName": "Last man standing",
    "hidden": 0,
    "description": "Defeat 4 bandits with one single soldier in a fight",
    "icon": "https://steamcdn-a.akamaihd.net/steamcommunity/public/images/apps/486540/65a8dd30c5ce6b9b38719d9613d5b98b8ad5bfc7.jpg",
    "icongray": "https://steamcdn-a.akamaihd.net/steamcommunity/public/images/apps/486540/4bcb59c42c994fd7f985a24c2acfe37abf3656f3.jpg"
  },
  {
    "name": "youshallnotpass",
    "defaultvalue": 0,
    "displayName": "You shall not pass",
    "hidden": 0,
    "description": "Prevent all bandit raids in a scenario",
    "icon": "https://steamcdn-a.akamaihd.net/steamcommunity/public/images/apps/486540/b64c9f6e32ef9eff44da38eb18b03b7532530fc6.jpg",
    "icongray": "https://steamcdn-a.akamaihd.net/steamcommunity/public/images/apps/486540/c04c54e2713f7d42ee27a703f142b434e2babc1a.jpg"
  },
  {
    "name": "serve_protect",
    "defaultvalue": 0,
    "displayName": "Watchtower",
    "hidden": 0,
    "description": "Have a full watchtower coverage for a 100 Townie city.",
    "icon": "https://steamcdn-a.akamaihd.net/steamcommunity/public/images/apps/486540/eadbf8bbafcc326cc00e7c66f8a5e471ab03d386.jpg",
    "icongray": "https://steamcdn-a.akamaihd.net/steamcommunity/public/images/apps/486540/09575f3c350444ed6143b5787f83dc026a2896cb.jpg"
  },
  {
    "name": "bites_dust",
    "defaultvalue": 0,
    "displayName": "And another one bites the dust",
    "hidden": 0,
    "description": "Defeat 50 bandits",
    "icon": "https://steamcdn-a.akamaihd.net/steamcommunity/public/images/apps/486540/b0e1715d369feefb7281252ba2a5e017df056e1e.jpg",
    "icongray": "https://steamcdn-a.akamaihd.net/steamcommunity/public/images/apps/486540/98308490ffb39f8443fab09881e268637ac65bea.jpg"
  },
  {
    "name": "artofwar",
    "defaultvalue": 0,
    "displayName": "Art of War",
    "hidden": 0,
    "description": "Win 100 fights against bandits",
    "icon": "https://steamcdn-a.akamaihd.net/steamcommunity/public/images/apps/486540/cb36e022328484c4c160b574f8f86687a5ac4a03.jpg",
    "icongray": "https://steamcdn-a.akamaihd.net/steamcommunity/public/images/apps/486540/88bf70f48c0b2b7158c8101e5f45fdfd9fd7412d.jpg"
  }
]