﻿{
  "Dlcs": {},
  "Name": "Mercenary Kings: Reloaded Edition",
  "AppId": "218820",
  "ImageUrl": "https://steamcdn-a.akamaihd.net/steam/apps/218820/header.jpg?t=1592599890",
  "Languages": [
    "english",
    "french",
    "japanese"
  ],
  "Platforms": {
    "windows": true,
    "mac": true,
    "linux": true
  }
}