﻿[
  {
    "name": "STAT_TIMEPLAYED",
    "defaultvalue": 0,
    "displayName": "Time Played"
  },
  {
    "name": "STAT_NB_LOADS",
    "defaultvalue": 0,
    "displayName": "Number save loads"
  },
  {
    "name": "STAT_NB_DEATH",
    "defaultvalue": 0,
    "displayName": "Player deaths"
  },
  {
    "name": "STAT_HOSTAGES_SAVED",
    "defaultvalue": 0,
    "displayName": "Number of hostages saved"
  },
  {
    "name": "STAT_NB_BOSS_KILL",
    "defaultvalue": 0,
    "displayName": "Boss kills"
  },
  {
    "name": "STAT_NB_MINIBOSS_KILL",
    "defaultvalue": 0,
    "displayName": "Mini boss kills"
  },
  {
    "name": "STAT_NB_REVIVE_FRIEND",
    "defaultvalue": 0,
    "displayName": "Friend revives"
  },
  {
    "name": "STAT_NB_SELF_REVIVE",
    "defaultvalue": 0,
    "displayName": "Self revives"
  },
  {
    "name": "STAT_NB_REVIVED",
    "defaultvalue": 0,
    "displayName": "Revived count"
  },
  {
    "name": "STAT_NB_C4_OBJ_DESTROYED",
    "defaultvalue": 0,
    "displayName": "C4 objects destroyed"
  },
  {
    "name": "STAT_MISSION_FAILED",
    "defaultvalue": 0,
    "displayName": "Mission fails"
  },
  {
    "name": "STAT_MISSION_COMPLETE",
    "defaultvalue": 0,
    "displayName": "Completed missions"
  },
  {
    "name": "STAT_ACTIVE_RELOAD_FAIL",
    "defaultvalue": 0,
    "displayName": "Failed active reloads"
  },
  {
    "name": "STAT_ACTIVE_RELOAD_SUCCESS",
    "defaultvalue": 0,
    "displayName": "Normal active reloads"
  },
  {
    "name": "STAT_ACTIVE_RELOAD_SUPER",
    "defaultvalue": 0,
    "displayName": "Super active reloads"
  },
  {
    "name": "STAT_KM_TRAVELLED",
    "defaultvalue": 0,
    "displayName": "Distance travelled"
  },
  {
    "name": "STAT_DOGTANK_MINIBOSS_KILL",
    "defaultvalue": 0,
    "displayName": "Dog Tank mini boss kills"
  },
  {
    "name": "STAT_DOGTANK_BOSS_KILL",
    "defaultvalue": 0,
    "displayName": "Dog Tank boss kills"
  },
  {
    "name": "STAT_EXOSUIT_MINIBOSS_KILL",
    "defaultvalue": 0,
    "displayName": "Exosuit mini boss kills"
  },
  {
    "name": "STAT_EXOSUIT_BOSS_KILL",
    "defaultvalue": 0,
    "displayName": "Exosuit boss kills"
  },
  {
    "name": "STAT_HARRIER_MINIBOSS_KILL",
    "defaultvalue": 0,
    "displayName": "Harrier mini boss kills"
  },
  {
    "name": "STAT_HARRIER_BOSS_KILL",
    "defaultvalue": 0,
    "displayName": "Harrier boss kills"
  },
  {
    "name": "STAT_MUNSTERLANDER_MINIBOSS_KILL",
    "defaultvalue": 0,
    "displayName": "Munster Lander mini boss kills"
  },
  {
    "name": "STAT_MUNSTERLANDER_BOSS_KILL",
    "defaultvalue": 0,
    "displayName": "Munster Lander boss kills"
  },
  {
    "name": "STAT_WARDROID_MINIBOSS_KILL",
    "defaultvalue": 0,
    "displayName": "War Droid mini boss kills"
  },
  {
    "name": "STAT_WARDROID_BOSS_KILL",
    "defaultvalue": 0,
    "displayName": "War Droid boss kills"
  },
  {
    "name": "STAT_NB_MAGNUM_PARTS_CRAFTED",
    "defaultvalue": 0,
    "displayName": "Magnum parts crafted"
  },
  {
    "name": "STAT_NB_ELEMENTAL_PARTS_CRAFTED",
    "defaultvalue": 0,
    "displayName": "Elemental parts crafted"
  },
  {
    "name": "STAT_NB_KNIVES_CRAFTED",
    "defaultvalue": 0,
    "displayName": "Knives crafted"
  },
  {
    "name": "STAT_NB_ELEMENTAL_KNIVES_CRAFTED",
    "defaultvalue": 0,
    "displayName": "Elemental knives crafted"
  },
  {
    "name": "STAT_NB_HANDGUN_PARTS_CRAFTED",
    "defaultvalue": 0,
    "displayName": "Handgun parts crafted"
  },
  {
    "name": "STAT_NB_BIO_MODS_CRAFTED",
    "defaultvalue": 0,
    "displayName": "Bio mods crafted"
  },
  {
    "name": "STAT_NB_ASSAULTRIFLE_PARTS_CRAFTED",
    "defaultvalue": 0,
    "displayName": "Assault rifle parts crafted"
  },
  {
    "name": "STAT_NB_SNIPER_PARTS_CRAFTED",
    "defaultvalue": 0,
    "displayName": "Sniper parts crafted"
  },
  {
    "name": "STAT_NB_SHOTGUN_PARTS_CRAFTED",
    "defaultvalue": 0,
    "displayName": "Shotgun parts crafted"
  },
  {
    "name": "STAT_NB_SMG_PARTS_CRAFTED",
    "defaultvalue": 0,
    "displayName": "Sub machine gun parts crafted"
  },
  {
    "name": "STAT_NB_MACHINEGUN_PARTS_CRAFTED",
    "defaultvalue": 0,
    "displayName": "Machine gun parts crafted"
  },
  {
    "name": "STAT_NB_AMMUNITION_CRAFTED",
    "defaultvalue": 0,
    "displayName": "Ammunition crafted"
  },
  {
    "name": "STAT_ENEMY_KILL",
    "defaultvalue": 0,
    "displayName": "Enemy Kills"
  },
  {
    "name": "STAT_MATERIALS_PICKED_UP",
    "defaultvalue": 0,
    "displayName": "Materials picked up"
  },
  {
    "name": "STAT_MONEY_COLLECTED",
    "defaultvalue": 0,
    "displayName": "Money collected"
  },
  {
    "name": "STAT_ANIMAL_KILL",
    "defaultvalue": 0,
    "displayName": "Animal kills"
  },
  {
    "name": "STAT_ABDUCTOR_KILLS",
    "defaultvalue": 0,
    "displayName": "Abductor kills"
  },
  {
    "name": "STAT_BAT_KILLS",
    "defaultvalue": 0,
    "displayName": "Bat kills"
  },
  {
    "name": "STAT_PATROL_KILLS",
    "defaultvalue": 0,
    "displayName": "Patrol kills"
  }
]