﻿{
  "Dlcs": {},
  "Name": "Grey Cubes",
  "AppId": "371500",
  "ImageUrl": "https://steamcdn-a.akamaihd.net/steam/apps/371500/header.jpg?t=1455456594",
  "Languages": [
    "english",
    "french",
    "italian",
    "german",
    "spanish",
    "dutch",
    "portuguese",
    "turkish"
  ],
  "Platforms": {
    "windows": true,
    "mac": true,
    "linux": true
  }
}