﻿[
  {
    "name": "stat_2",
    "defaultvalue": 0,
    "displayName": ""
  },
  {
    "name": "stat_3",
    "defaultvalue": 0,
    "displayName": ""
  },
  {
    "name": "stat_4",
    "defaultvalue": 0,
    "displayName": ""
  },
  {
    "name": "stat_5",
    "defaultvalue": 0,
    "displayName": ""
  },
  {
    "name": "stat_6",
    "defaultvalue": 0,
    "displayName": ""
  },
  {
    "name": "stat_7",
    "defaultvalue": 0,
    "displayName": ""
  },
  {
    "name": "stat_8",
    "defaultvalue": 0,
    "displayName": ""
  },
  {
    "name": "stat_9",
    "defaultvalue": 0,
    "displayName": ""
  },
  {
    "name": "stat_10",
    "defaultvalue": 0,
    "displayName": ""
  }
]