﻿{
  "Dlcs": {
    "403260": {
      "Name": "Alice's Lullaby: Episode 2",
      "ImageUrl": "https://steamcdn-a.akamaihd.net/steam/apps/403260/header.jpg?t=1517894513"
    },
    "403330": {
      "Name": "Albino Lullaby: Episode 3",
      "ImageUrl": "https://steamcdn-a.akamaihd.net/steam/apps/403330/header.jpg?t=1517892688"
    },
    "403320": {
      "Name": "Albino Lullaby: Episode 1 (Official Video Game Soundtrack)",
      "ImageUrl": "https://steamcdn-a.akamaihd.net/steam/apps/403320/header.jpg?t=1447378072"
    }
  },
  "Name": "Albino Lullaby: Episode 1",
  "AppId": "355860",
  "ImageUrl": "https://steamcdn-a.akamaihd.net/steam/apps/355860/header.jpg?t=1478193061",
  "Languages": [
    "english"
  ],
  "Platforms": {
    "windows": true,
    "mac": false,
    "linux": false
  }
}