﻿[
  {
    "name": "VILLAIN",
    "defaultvalue": 0,
    "displayName": "Villain",
    "hidden": 1,
    "icon": "https://steamcdn-a.akamaihd.net/steamcommunity/public/images/apps/538070/de6b875a4c893c3081de7f014d1706ff17efde22.jpg",
    "icongray": "https://steamcdn-a.akamaihd.net/steamcommunity/public/images/apps/538070/a413195f8d94e54caa7c38ea95bed0b9286701c7.jpg"
  },
  {
    "name": "MESSENGER",
    "defaultvalue": 0,
    "displayName": "Messenger",
    "hidden": 1,
    "icon": "https://steamcdn-a.akamaihd.net/steamcommunity/public/images/apps/538070/46d50dd0df06c0910b3caf2cff60c15a131ee195.jpg",
    "icongray": "https://steamcdn-a.akamaihd.net/steamcommunity/public/images/apps/538070/590c3d1e954e65abd5d9ca8fcbbc42d105e41a69.jpg"
  },
  {
    "name": "VICTIM",
    "defaultvalue": 0,
    "displayName": "Victim",
    "hidden": 1,
    "icon": "https://steamcdn-a.akamaihd.net/steamcommunity/public/images/apps/538070/c8bddbdc66da263f5a9acdf5d5f91a0b37bde9e4.jpg",
    "icongray": "https://steamcdn-a.akamaihd.net/steamcommunity/public/images/apps/538070/44c672096f34138829b45c0d4ed18421e30db535.jpg"
  },
  {
    "name": "REAPER",
    "defaultvalue": 0,
    "displayName": "Grim Reaper",
    "hidden": 1,
    "icon": "https://steamcdn-a.akamaihd.net/steamcommunity/public/images/apps/538070/e5fe41edf5e003ff462c60c00d9f667f17dafa38.jpg",
    "icongray": "https://steamcdn-a.akamaihd.net/steamcommunity/public/images/apps/538070/954ed728409e902d407e4883401d08d1ab1c38d2.jpg"
  },
  {
    "name": "NAP",
    "defaultvalue": 0,
    "displayName": "Peaceful Nap",
    "hidden": 1,
    "icon": "https://steamcdn-a.akamaihd.net/steamcommunity/public/images/apps/538070/52d885bab716e5ce972cc09e569077cc81f7c1d8.jpg",
    "icongray": "https://steamcdn-a.akamaihd.net/steamcommunity/public/images/apps/538070/6aae25cf854dd46928660fba01a8768e024be50f.jpg"
  },
  {
    "name": "THE_END",
    "defaultvalue": 0,
    "displayName": "The End",
    "hidden": 1,
    "icon": "https://steamcdn-a.akamaihd.net/steamcommunity/public/images/apps/538070/eda52b0e87ecd5c272e825ba611bfa2290f012fe.jpg",
    "icongray": "https://steamcdn-a.akamaihd.net/steamcommunity/public/images/apps/538070/bcd6e47484c6dcd093830ca5f49349df2366fc9f.jpg"
  },
  {
    "name": "SECRET_ROOM",
    "defaultvalue": 0,
    "displayName": "Secret Room",
    "hidden": 1,
    "icon": "https://steamcdn-a.akamaihd.net/steamcommunity/public/images/apps/538070/02e1d9b9fbcafd7dbec9852296d84a7e3b4a6ce7.jpg",
    "icongray": "https://steamcdn-a.akamaihd.net/steamcommunity/public/images/apps/538070/fefd7c2ae290f0eb49f3ff77a622950aef833d73.jpg"
  },
  {
    "name": "FISHING",
    "defaultvalue": 0,
    "displayName": "Fishing Master",
    "hidden": 1,
    "icon": "https://steamcdn-a.akamaihd.net/steamcommunity/public/images/apps/538070/3609a6bc659cec1d221c4447d49767da1fa41dc2.jpg",
    "icongray": "https://steamcdn-a.akamaihd.net/steamcommunity/public/images/apps/538070/3ceefc69c370e2adaa4ea79f62d53a9b87ecc7dc.jpg"
  },
  {
    "name": "MASTER_KEY",
    "defaultvalue": 0,
    "displayName": "Master Key",
    "hidden": 1,
    "icon": "https://steamcdn-a.akamaihd.net/steamcommunity/public/images/apps/538070/47bbfc26be7bd2da9bf2b875b7709e1c889f27c4.jpg",
    "icongray": "https://steamcdn-a.akamaihd.net/steamcommunity/public/images/apps/538070/0e2eb16f87c2ff1e4a7ae088bdca3549e98460f6.jpg"
  },
  {
    "name": "WARRIOR",
    "defaultvalue": 0,
    "displayName": "Warrior",
    "hidden": 1,
    "icon": "https://steamcdn-a.akamaihd.net/steamcommunity/public/images/apps/538070/55d2f50b38281231908432148bbbab3fbe6ad4c4.jpg",
    "icongray": "https://steamcdn-a.akamaihd.net/steamcommunity/public/images/apps/538070/d40c5cf48aa517e303cc00aca56b660ec731ddf4.jpg"
  },
  {
    "name": "HAPPY_DOG",
    "defaultvalue": 0,
    "displayName": "Special Treat",
    "hidden": 1,
    "icon": "https://steamcdn-a.akamaihd.net/steamcommunity/public/images/apps/538070/6955c4ce3b2e98a0cf44e73868397979f78b84c5.jpg",
    "icongray": "https://steamcdn-a.akamaihd.net/steamcommunity/public/images/apps/538070/c735e8f00db28cee792538c3d436e7a575343ae4.jpg"
  },
  {
    "name": "GAME_MODDER",
    "defaultvalue": 0,
    "displayName": "Game Modder",
    "hidden": 1,
    "icon": "https://steamcdn-a.akamaihd.net/steamcommunity/public/images/apps/538070/15fabf8c786c76dbc03847fcf5673388f4ac0e1f.jpg",
    "icongray": "https://steamcdn-a.akamaihd.net/steamcommunity/public/images/apps/538070/fd24c8de11a6d7a61a3cb0f3978eaf6b4d2b0fe1.jpg"
  },
  {
    "name": "VOICE_OF_REASON",
    "defaultvalue": 0,
    "displayName": "Voice of Reason",
    "hidden": 1,
    "icon": "https://steamcdn-a.akamaihd.net/steamcommunity/public/images/apps/538070/7bbb169b36ea5fe5256e44f17efd9783285d9948.jpg",
    "icongray": "https://steamcdn-a.akamaihd.net/steamcommunity/public/images/apps/538070/6189174f8dddaef31622bd56b841b30b386dea17.jpg"
  },
  {
    "name": "CALL",
    "defaultvalue": 0,
    "displayName": "Call Me",
    "hidden": 1,
    "icon": "https://steamcdn-a.akamaihd.net/steamcommunity/public/images/apps/538070/430b3c66c5cf07fc7876fc48cf347b12140fd21f.jpg",
    "icongray": "https://steamcdn-a.akamaihd.net/steamcommunity/public/images/apps/538070/2476d369fdecf8c9897c39a2bcc79c47472595ee.jpg"
  },
  {
    "name": "UPPER_FLOOR",
    "defaultvalue": 0,
    "displayName": "Upper Floor",
    "hidden": 1,
    "icon": "https://steamcdn-a.akamaihd.net/steamcommunity/public/images/apps/538070/da241b0f9a5424bcdea1988af3d734d4fc9fa56e.jpg",
    "icongray": "https://steamcdn-a.akamaihd.net/steamcommunity/public/images/apps/538070/4a31f73ebc67c840ae1410f9fa673932f80382d1.jpg"
  },
  {
    "name": "SCISSORS",
    "defaultvalue": 0,
    "displayName": "Tailor",
    "hidden": 1,
    "icon": "https://steamcdn-a.akamaihd.net/steamcommunity/public/images/apps/538070/fe22aa112051d43800101eefa88b57cd0d711c82.jpg",
    "icongray": "https://steamcdn-a.akamaihd.net/steamcommunity/public/images/apps/538070/4a31f73ebc67c840ae1410f9fa673932f80382d1.jpg"
  },
  {
    "name": "FULL_HEALTH",
    "defaultvalue": 0,
    "displayName": "Full of Life",
    "hidden": 1,
    "icon": "https://steamcdn-a.akamaihd.net/steamcommunity/public/images/apps/538070/28c83758a834daf775d960e5b039917e9429c14a.jpg",
    "icongray": "https://steamcdn-a.akamaihd.net/steamcommunity/public/images/apps/538070/6b3c9e4a297d626a1c579c37af13c4a3a71e97e9.jpg"
  },
  {
    "name": "MIRROR",
    "defaultvalue": 0,
    "displayName": "Clean Mirror",
    "hidden": 1,
    "icon": "https://steamcdn-a.akamaihd.net/steamcommunity/public/images/apps/538070/0fb500270b6100af0891a55510a3fde66ba38c9e.jpg",
    "icongray": "https://steamcdn-a.akamaihd.net/steamcommunity/public/images/apps/538070/d15b3a89c0426c5d7d06e411d1f537d511dfe93c.jpg"
  },
  {
    "name": "BUTCHER",
    "defaultvalue": 0,
    "displayName": "Helpful Butcher",
    "hidden": 1,
    "icon": "https://steamcdn-a.akamaihd.net/steamcommunity/public/images/apps/538070/7cb48e4734892cb3344c284a21d09909c1471cc5.jpg",
    "icongray": "https://steamcdn-a.akamaihd.net/steamcommunity/public/images/apps/538070/b7200143d205178926fb62a6fbbc7a27fe311794.jpg"
  },
  {
    "name": "CAMERA",
    "defaultvalue": 0,
    "displayName": "Camera",
    "hidden": 1,
    "icon": "https://steamcdn-a.akamaihd.net/steamcommunity/public/images/apps/538070/a8cdad16aa6264a1dae8cde244eeb4e6fa309276.jpg",
    "icongray": "https://steamcdn-a.akamaihd.net/steamcommunity/public/images/apps/538070/ea395bc64ace29090038977765e13e84eafb1554.jpg"
  },
  {
    "name": "DIRTY_CURSOR",
    "defaultvalue": 0,
    "displayName": "Dirty Cursor",
    "hidden": 1,
    "icon": "https://steamcdn-a.akamaihd.net/steamcommunity/public/images/apps/538070/8ba291c52bc9d01762d1852ed05429a1d9dd8326.jpg",
    "icongray": "https://steamcdn-a.akamaihd.net/steamcommunity/public/images/apps/538070/e97cc48decf82449ce21dbb3e5d7a0a1041ada9f.jpg"
  }
]