﻿[
  {
    "name": "10010013",
    "defaultvalue": 0,
    "displayName": "Astaroth Fire Tail",
    "hidden": 0,
    "description": "Beat Astaroth Fire Tail in Deca",
    "icon": "https://steamcdn-a.akamaihd.net/steamcommunity/public/images/apps/350020/6c1dc4ac1e0b6734e8f0893c8f652b231cd36186.jpg",
    "icongray": "https://steamcdn-a.akamaihd.net/steamcommunity/public/images/apps/350020/d2334c3fea34823a4e488b65ca9ff8b83e64efb4.jpg"
  },
  {
    "name": "10010014",
    "defaultvalue": 0,
    "displayName": "Gaap Great Glare",
    "hidden": 0,
    "description": "Beat Gaap Great Glare in Fumphzen",
    "icon": "https://steamcdn-a.akamaihd.net/steamcommunity/public/images/apps/350020/cdaef241da0928dd5993b1b1fbe7475b6f6a8ddb.jpg",
    "icongray": "https://steamcdn-a.akamaihd.net/steamcommunity/public/images/apps/350020/f348874d7c501d798c64194ac1aee4c734bdae5a.jpg"
  },
  {
    "name": "10010026",
    "defaultvalue": 0,
    "displayName": "Nero Glint Flesh",
    "hidden": 0,
    "description": "Beat Nero Glint Flesh in Ventum",
    "icon": "https://steamcdn-a.akamaihd.net/steamcommunity/public/images/apps/350020/67424b15b69c1fcc2ab950aec2b1a863f0a7681f.jpg",
    "icongray": "https://steamcdn-a.akamaihd.net/steamcommunity/public/images/apps/350020/17ae6f973adb222a961c304ac9465fb36abfbe85.jpg"
  },
  {
    "name": "10010015",
    "defaultvalue": 0,
    "displayName": "Duke Vual Of Ice",
    "hidden": 0,
    "description": "Beat Duke Vual Of Ice in Fridgem",
    "icon": "https://steamcdn-a.akamaihd.net/steamcommunity/public/images/apps/350020/f171a94ce5dc2f21ff491ad1e3178007eb37ad96.jpg",
    "icongray": "https://steamcdn-a.akamaihd.net/steamcommunity/public/images/apps/350020/0f2f8e668a1bd5f0c68cc60256b4c13696484486.jpg"
  },
  {
    "name": "10010016",
    "defaultvalue": 0,
    "displayName": "King Belial",
    "hidden": 0,
    "description": "Beat King Belial in IC2",
    "icon": "https://steamcdn-a.akamaihd.net/steamcommunity/public/images/apps/350020/b950da9d48ce49436ac66f84d8946f5c5f4b466b.jpg",
    "icongray": "https://steamcdn-a.akamaihd.net/steamcommunity/public/images/apps/350020/850db733a20ff0794b020243b131b8619c7a6295.jpg"
  },
  {
    "name": "10010017",
    "defaultvalue": 0,
    "displayName": "Corroding Vepar",
    "hidden": 0,
    "description": "Beat Corroding Vepar in Taglamig",
    "icon": "https://steamcdn-a.akamaihd.net/steamcommunity/public/images/apps/350020/de71f514a63bc544329465183e118276d1b5f4a3.jpg",
    "icongray": "https://steamcdn-a.akamaihd.net/steamcommunity/public/images/apps/350020/e41a099f1aba47dfa8cd60eab20b05eeb6142a4e.jpg"
  },
  {
    "name": "10010027",
    "defaultvalue": 0,
    "displayName": "King Purson",
    "hidden": 0,
    "description": "Beat King Purson in Talvi",
    "icon": "https://steamcdn-a.akamaihd.net/steamcommunity/public/images/apps/350020/51d394544a12ea3b2e8f488bdcdea1d2463d9982.jpg",
    "icongray": "https://steamcdn-a.akamaihd.net/steamcommunity/public/images/apps/350020/fb3ba0405f1137e676d15e2fd35e5eb36e74dd66.jpg"
  },
  {
    "name": "10010025",
    "defaultvalue": 0,
    "displayName": "Marquis Naberius",
    "hidden": 0,
    "description": "Beat Marquis Naberius in Danker",
    "icon": "https://steamcdn-a.akamaihd.net/steamcommunity/public/images/apps/350020/7afe79bc79b99c514079e46ee8c5a28dd6a83075.jpg",
    "icongray": "https://steamcdn-a.akamaihd.net/steamcommunity/public/images/apps/350020/39849bbabc7bd214b0aef9a167784c8f646772c6.jpg"
  },
  {
    "name": "10010018",
    "defaultvalue": 0,
    "displayName": "Raum the Caustic",
    "hidden": 0,
    "description": "Beat Raum the Caustic in Spidra",
    "icon": "https://steamcdn-a.akamaihd.net/steamcommunity/public/images/apps/350020/218ce21e61d6cd35e609c80b39da45992f2686d9.jpg",
    "icongray": "https://steamcdn-a.akamaihd.net/steamcommunity/public/images/apps/350020/67534cd97f5315badb20c0881b9ea9dad7b8d140.jpg"
  },
  {
    "name": "10010019",
    "defaultvalue": 0,
    "displayName": "Prince Orobas",
    "hidden": 0,
    "description": "Beat Prince Orobas in Synistu",
    "icon": "https://steamcdn-a.akamaihd.net/steamcommunity/public/images/apps/350020/db92ba430a265f2ead059c833f1d48ac723cb591.jpg",
    "icongray": "https://steamcdn-a.akamaihd.net/steamcommunity/public/images/apps/350020/09b950ffdbded9b9b36add3481de3ffa7bc93be3.jpg"
  },
  {
    "name": "10010028",
    "defaultvalue": 0,
    "displayName": "Bune of Inferno",
    "hidden": 0,
    "description": "Beat Bune of Inferno in Letea",
    "icon": "https://steamcdn-a.akamaihd.net/steamcommunity/public/images/apps/350020/f330b1c16f0338e9213dfce2a3025a306fa2dfe3.jpg",
    "icongray": "https://steamcdn-a.akamaihd.net/steamcommunity/public/images/apps/350020/517e0c6cd77d49c3a198daf995eb5bd73db1871d.jpg"
  },
  {
    "name": "10010052",
    "defaultvalue": 0,
    "displayName": "Blinding Shabriri",
    "hidden": 0,
    "description": "Beat Blinding Shabriri in Angster",
    "icon": "https://steamcdn-a.akamaihd.net/steamcommunity/public/images/apps/350020/34e2b472413d4e0246cd3762a3cea424a98f6b06.jpg",
    "icongray": "https://steamcdn-a.akamaihd.net/steamcommunity/public/images/apps/350020/67eb137e31935f3e9cb4f2d61d0601be7dcbc464.jpg"
  },
  {
    "name": "10010053",
    "defaultvalue": 0,
    "displayName": "Prince Samael",
    "hidden": 0,
    "description": "Beat Prince Samael in Desacrex",
    "icon": "https://steamcdn-a.akamaihd.net/steamcommunity/public/images/apps/350020/bbefa29c9a2ee17b5362cd2552fc5d942a0d3f18.jpg",
    "icongray": "https://steamcdn-a.akamaihd.net/steamcommunity/public/images/apps/350020/b9aca5322d0994dec27abf7139af25de2c40ec7b.jpg"
  },
  {
    "name": "10010054",
    "defaultvalue": 0,
    "displayName": "Irvene Ice Tears",
    "hidden": 0,
    "description": "Beat Irvene Ice Tears in Doomus",
    "icon": "https://steamcdn-a.akamaihd.net/steamcommunity/public/images/apps/350020/0748652cbb10e2e96f74100536cadd95796b5980.jpg",
    "icongray": "https://steamcdn-a.akamaihd.net/steamcommunity/public/images/apps/350020/c2bc2c6b77940ab583232c2d7a63ba1c031904c4.jpg"
  },
  {
    "name": "10010055",
    "defaultvalue": 0,
    "displayName": "Baron Nergal",
    "hidden": 0,
    "description": "Beat Baron Nergal in Sinistra",
    "icon": "https://steamcdn-a.akamaihd.net/steamcommunity/public/images/apps/350020/b168010ff17b04b11ee579e075628174e93be83d.jpg",
    "icongray": "https://steamcdn-a.akamaihd.net/steamcommunity/public/images/apps/350020/fdf691e2d80bd4493ad275e00746550820224124.jpg"
  },
  {
    "name": "10010001",
    "defaultvalue": 0,
    "displayName": "First Circle Master",
    "hidden": 0,
    "description": "Complete all battles in He-Elzapop",
    "icon": "https://steamcdn-a.akamaihd.net/steamcommunity/public/images/apps/350020/9ef0b71cd5b35667e3a3ed4a8c5e1131c50dff16.jpg",
    "icongray": "https://steamcdn-a.akamaihd.net/steamcommunity/public/images/apps/350020/0fa2a09c2d02a90901660303b1595bf5e0245e63.jpg"
  },
  {
    "name": "10010002",
    "defaultvalue": 0,
    "displayName": "Second Circle Master",
    "hidden": 0,
    "description": "Complete all battles in Articum",
    "icon": "https://steamcdn-a.akamaihd.net/steamcommunity/public/images/apps/350020/a7a8129bb6769c5375e43b4bbacbe7b21bb79ad9.jpg",
    "icongray": "https://steamcdn-a.akamaihd.net/steamcommunity/public/images/apps/350020/f5a556c99bad439441687f88f64a942d148e2608.jpg"
  },
  {
    "name": "10010003",
    "defaultvalue": 0,
    "displayName": "Third Circle Master",
    "hidden": 0,
    "description": "Complete all battles in Subtyranny",
    "icon": "https://steamcdn-a.akamaihd.net/steamcommunity/public/images/apps/350020/3f2c253e12f93820806cd1729125889369ae159a.jpg",
    "icongray": "https://steamcdn-a.akamaihd.net/steamcommunity/public/images/apps/350020/46cf79506203cc84b055e7821497935771712881.jpg"
  },
  {
    "name": "10010059",
    "defaultvalue": 0,
    "displayName": "Fourth Circle Master",
    "hidden": 0,
    "description": "Complete all battles in Hoarhole",
    "icon": "https://steamcdn-a.akamaihd.net/steamcommunity/public/images/apps/350020/dec0a848ff94f28d452f31f704b08a97c3cf40d7.jpg",
    "icongray": "https://steamcdn-a.akamaihd.net/steamcommunity/public/images/apps/350020/13bf8bd9586c0639f7eef42f5be85e3c3a36ebfb.jpg"
  },
  {
    "name": "10010006",
    "defaultvalue": 0,
    "displayName": "Soul Collector",
    "hidden": 0,
    "description": "Get 10 Friends in Game",
    "icon": "https://steamcdn-a.akamaihd.net/steamcommunity/public/images/apps/350020/58842ab7722331f99c916f88462da3a34c27b787.jpg",
    "icongray": "https://steamcdn-a.akamaihd.net/steamcommunity/public/images/apps/350020/858d60753e5ccfb4152f73ca328a797e97547c01.jpg"
  },
  {
    "name": "10010020",
    "defaultvalue": 0,
    "displayName": "Arena Master 10",
    "hidden": 0,
    "description": "Win 10 PVP Arena Battles",
    "icon": "https://steamcdn-a.akamaihd.net/steamcommunity/public/images/apps/350020/414d18de290f1c5a785104566bac0d1a97761891.jpg",
    "icongray": "https://steamcdn-a.akamaihd.net/steamcommunity/public/images/apps/350020/4194ea6d6ce4e8d6e07ade55b5475ca4532eebc2.jpg"
  },
  {
    "name": "10010007",
    "defaultvalue": 0,
    "displayName": "Arena Master 50",
    "hidden": 0,
    "description": "Win 50 PVP Arena Battles",
    "icon": "https://steamcdn-a.akamaihd.net/steamcommunity/public/images/apps/350020/d2d28f6d41e390a0a91246b817e20d3b927647d4.jpg",
    "icongray": "https://steamcdn-a.akamaihd.net/steamcommunity/public/images/apps/350020/73f89396abfd23bd77792bc5c888e54cec5f8329.jpg"
  },
  {
    "name": "10010048",
    "defaultvalue": 0,
    "displayName": "Arena Master 100",
    "hidden": 0,
    "description": "Win 100 Arena Battles",
    "icon": "https://steamcdn-a.akamaihd.net/steamcommunity/public/images/apps/350020/2e210ea63216501f8f5b20020490a9fc9416d5a8.jpg",
    "icongray": "https://steamcdn-a.akamaihd.net/steamcommunity/public/images/apps/350020/de51abdf58670094db040c643473d2fbb55cab05.jpg"
  },
  {
    "name": "10010049",
    "defaultvalue": 0,
    "displayName": "Arena Master 200",
    "hidden": 0,
    "description": "Win 200 Arena Battles",
    "icon": "https://steamcdn-a.akamaihd.net/steamcommunity/public/images/apps/350020/158f6ecd99b76cfbd473b5bd620b385af4d3806e.jpg",
    "icongray": "https://steamcdn-a.akamaihd.net/steamcommunity/public/images/apps/350020/b3811a412681b80ded256b8e25ef739bb8d0a953.jpg"
  },
  {
    "name": "10010008",
    "defaultvalue": 0,
    "displayName": "Soul Master",
    "hidden": 0,
    "description": "Use friend cards in 50 battles",
    "icon": "https://steamcdn-a.akamaihd.net/steamcommunity/public/images/apps/350020/67503325c640832d4fa22321d4f2c8db5e3cc5be.jpg",
    "icongray": "https://steamcdn-a.akamaihd.net/steamcommunity/public/images/apps/350020/0bc86c7abcc81a2884b744035e41f099e202e3ff.jpg"
  },
  {
    "name": "10010010",
    "defaultvalue": 0,
    "displayName": "Master Collector 5",
    "hidden": 0,
    "description": "Finish 5 pages of Collection",
    "icon": "https://steamcdn-a.akamaihd.net/steamcommunity/public/images/apps/350020/fcaaccc731174cac4c7be1e68bb4c06c2c37457d.jpg",
    "icongray": "https://steamcdn-a.akamaihd.net/steamcommunity/public/images/apps/350020/855ef76d07c9ced557ad6f89121898cb114a9d42.jpg"
  },
  {
    "name": "10010011",
    "defaultvalue": 0,
    "displayName": "Master Collector 10",
    "hidden": 0,
    "description": "Finish 10 pages of Collection",
    "icon": "https://steamcdn-a.akamaihd.net/steamcommunity/public/images/apps/350020/f432a95da74209786521f0a6a532b50dbd971afc.jpg",
    "icongray": "https://steamcdn-a.akamaihd.net/steamcommunity/public/images/apps/350020/6bb4aaab4ec4d2571fa770a50be46adaeb023a16.jpg"
  },
  {
    "name": "10010022",
    "defaultvalue": 0,
    "displayName": "Arena Chain 5",
    "hidden": 0,
    "description": "Get 5 Win Chain in Arena",
    "icon": "https://steamcdn-a.akamaihd.net/steamcommunity/public/images/apps/350020/d44f20ef0e8237b7e352405054c95c777dcb4bf0.jpg",
    "icongray": "https://steamcdn-a.akamaihd.net/steamcommunity/public/images/apps/350020/c884aeaf4fcddfd77a2497c2fda143a7e1aa174b.jpg"
  },
  {
    "name": "10010023",
    "defaultvalue": 0,
    "displayName": "Arena Chain 10",
    "hidden": 0,
    "description": "Get 10 Win Chain in Arena",
    "icon": "https://steamcdn-a.akamaihd.net/steamcommunity/public/images/apps/350020/17f28ee9c7b9285df4fdf2329086e9e11d0dbb67.jpg",
    "icongray": "https://steamcdn-a.akamaihd.net/steamcommunity/public/images/apps/350020/d0cde6bca3c57fb439ff7e58567bc1361af1d7d4.jpg"
  },
  {
    "name": "10010024",
    "defaultvalue": 0,
    "displayName": "Train 20 Skills",
    "hidden": 0,
    "description": "Train 20 Skills",
    "icon": "https://steamcdn-a.akamaihd.net/steamcommunity/public/images/apps/350020/19cdb220f55f2f27bbccf3d4ca69bab80c666641.jpg",
    "icongray": "https://steamcdn-a.akamaihd.net/steamcommunity/public/images/apps/350020/8a9a0ab06d641154a6a8d299a37f8d2e343b956a.jpg"
  },
  {
    "name": "10010050",
    "defaultvalue": 0,
    "displayName": "He-elzapop 50",
    "hidden": 0,
    "description": "Win 50 battles in He-elzapop",
    "icon": "https://steamcdn-a.akamaihd.net/steamcommunity/public/images/apps/350020/9820e39b58722361aee4f015a8091519a0c1c903.jpg",
    "icongray": "https://steamcdn-a.akamaihd.net/steamcommunity/public/images/apps/350020/2c6908ca312e4437b4d18eb1ceb2b7f59a7f68e5.jpg"
  },
  {
    "name": "10010051",
    "defaultvalue": 0,
    "displayName": "He-elzapop 100",
    "hidden": 0,
    "description": "Win 100 battles in He-elzapop",
    "icon": "https://steamcdn-a.akamaihd.net/steamcommunity/public/images/apps/350020/1e5dfcf2b2c8acac0b80a6c6850acb6678a842dc.jpg",
    "icongray": "https://steamcdn-a.akamaihd.net/steamcommunity/public/images/apps/350020/ea4e0c5e201089fbd27635cf721f0b894beec73c.jpg"
  },
  {
    "name": "10010029",
    "defaultvalue": 0,
    "displayName": "He-elzapop 200",
    "hidden": 0,
    "description": "Win 200 battles in He-elzapop",
    "icon": "https://steamcdn-a.akamaihd.net/steamcommunity/public/images/apps/350020/4c89b5f1278f5aee00ef1fc05f873a898c0e3a90.jpg",
    "icongray": "https://steamcdn-a.akamaihd.net/steamcommunity/public/images/apps/350020/366df43d95fb40efece1817c0dbad3d1781d7ee9.jpg"
  },
  {
    "name": "10010030",
    "defaultvalue": 0,
    "displayName": "Articum 50",
    "hidden": 0,
    "description": "Win 50 battles in Articum",
    "icon": "https://steamcdn-a.akamaihd.net/steamcommunity/public/images/apps/350020/95fe9fb7f508ac4f1aa4b9a3959af159ba50d8fc.jpg",
    "icongray": "https://steamcdn-a.akamaihd.net/steamcommunity/public/images/apps/350020/26068ee1262978f6557ea112d9473735602b1fb7.jpg"
  },
  {
    "name": "10010031",
    "defaultvalue": 0,
    "displayName": "Articum 100",
    "hidden": 0,
    "description": "Win 100 battles in Articum",
    "icon": "https://steamcdn-a.akamaihd.net/steamcommunity/public/images/apps/350020/cc09e7c9f9a8654fb6b4eefcd5db2b5bb477d76c.jpg",
    "icongray": "https://steamcdn-a.akamaihd.net/steamcommunity/public/images/apps/350020/4bc1105b97e834ab13374e8da87cd2fbeadb8ec0.jpg"
  },
  {
    "name": "10010032",
    "defaultvalue": 0,
    "displayName": "Articum 200",
    "hidden": 0,
    "description": "Win 200 battles in Articum",
    "icon": "https://steamcdn-a.akamaihd.net/steamcommunity/public/images/apps/350020/7aa5afbec952b20959e46069ec7f7a78b9f13e6e.jpg",
    "icongray": "https://steamcdn-a.akamaihd.net/steamcommunity/public/images/apps/350020/2dc644eee4bf01f874112a8c6f5f4b425ec375ed.jpg"
  },
  {
    "name": "10010033",
    "defaultvalue": 0,
    "displayName": "Subtyranny 50",
    "hidden": 0,
    "description": "Win 50 battles in Subtyranny",
    "icon": "https://steamcdn-a.akamaihd.net/steamcommunity/public/images/apps/350020/02db3b9922ce40a616cb68ddce07be49d8adab81.jpg",
    "icongray": "https://steamcdn-a.akamaihd.net/steamcommunity/public/images/apps/350020/13bcf5c9d4c1d065bf9010d6a9a31fbdc0ea3ded.jpg"
  },
  {
    "name": "10010034",
    "defaultvalue": 0,
    "displayName": "Subtyranny 100",
    "hidden": 0,
    "description": "Win 100 battles in Subtyranny",
    "icon": "https://steamcdn-a.akamaihd.net/steamcommunity/public/images/apps/350020/3e2d31ce1fb1f8ad3cfc4f36fc55505ea5e9cc6a.jpg",
    "icongray": "https://steamcdn-a.akamaihd.net/steamcommunity/public/images/apps/350020/1ea7b4582a8524daed2afcb4570ac3ef932c61fa.jpg"
  },
  {
    "name": "10010035",
    "defaultvalue": 0,
    "displayName": "Subtyranny 200",
    "hidden": 0,
    "description": "Win 200 battles in Subtyranny",
    "icon": "https://steamcdn-a.akamaihd.net/steamcommunity/public/images/apps/350020/2923a4bd46042c4d127bb2d21beeec2716319a27.jpg",
    "icongray": "https://steamcdn-a.akamaihd.net/steamcommunity/public/images/apps/350020/959d8539eaf4372d8d57adb112b149018b4a0f8c.jpg"
  },
  {
    "name": "10010056",
    "defaultvalue": 0,
    "displayName": "Hoarhole 50",
    "hidden": 0,
    "description": "Win 50 battles in Hoarhole",
    "icon": "https://steamcdn-a.akamaihd.net/steamcommunity/public/images/apps/350020/46b4c7bb2bf131dd408e190b340f49a4584ebf8e.jpg",
    "icongray": "https://steamcdn-a.akamaihd.net/steamcommunity/public/images/apps/350020/e36587d95867029d7333df27176e3e975638fbd9.jpg"
  },
  {
    "name": "10010057",
    "defaultvalue": 0,
    "displayName": "Hoarhole 100",
    "hidden": 0,
    "description": "Win 100 battles in Hoarhole",
    "icon": "https://steamcdn-a.akamaihd.net/steamcommunity/public/images/apps/350020/a82e42d8cc2459f66d19cd89cd0d93ccac1d6f50.jpg",
    "icongray": "https://steamcdn-a.akamaihd.net/steamcommunity/public/images/apps/350020/ded394080d7fde1cfaecdd1b9884527c733b79d5.jpg"
  },
  {
    "name": "10010058",
    "defaultvalue": 0,
    "displayName": "Hoarhole 200",
    "hidden": 0,
    "description": "Win 200 battles in Hoarhole",
    "icon": "https://steamcdn-a.akamaihd.net/steamcommunity/public/images/apps/350020/32340450f6e04859091b92d2e6e350441017e3dc.jpg",
    "icongray": "https://steamcdn-a.akamaihd.net/steamcommunity/public/images/apps/350020/cda2469b5728d8703be60886c84188e6aa7fcf96.jpg"
  },
  {
    "name": "10010036",
    "defaultvalue": 0,
    "displayName": "Level 10",
    "hidden": 0,
    "description": "Reach Player Level 10",
    "icon": "https://steamcdn-a.akamaihd.net/steamcommunity/public/images/apps/350020/56b5c12a7ae4cec62b1d53982f13d8b96bab1d41.jpg",
    "icongray": "https://steamcdn-a.akamaihd.net/steamcommunity/public/images/apps/350020/bef22b2e37e9f33093491e2ed4769611991ffd27.jpg"
  },
  {
    "name": "10010037",
    "defaultvalue": 0,
    "displayName": "Level 20",
    "hidden": 0,
    "description": "Reach Player Level 20",
    "icon": "https://steamcdn-a.akamaihd.net/steamcommunity/public/images/apps/350020/a2a7c8db4345f021985a05a4019f1465861206ab.jpg",
    "icongray": "https://steamcdn-a.akamaihd.net/steamcommunity/public/images/apps/350020/cc90ce3ed24c01f5284b714f7bee468ff396a9ab.jpg"
  },
  {
    "name": "10010038",
    "defaultvalue": 0,
    "displayName": "Level 30",
    "hidden": 0,
    "description": "Reach Player Level 30",
    "icon": "https://steamcdn-a.akamaihd.net/steamcommunity/public/images/apps/350020/4ee1a09535f985148b83c4ad39438c0ef0890e5d.jpg",
    "icongray": "https://steamcdn-a.akamaihd.net/steamcommunity/public/images/apps/350020/37c4a50998e2b91ae0d3cb7e63e01a5ac8db01e5.jpg"
  },
  {
    "name": "10010039",
    "defaultvalue": 0,
    "displayName": "Level 40",
    "hidden": 0,
    "description": "Reach Player Level 40",
    "icon": "https://steamcdn-a.akamaihd.net/steamcommunity/public/images/apps/350020/2fec85600276b3e56843a8a7ff65b9724c5697c5.jpg",
    "icongray": "https://steamcdn-a.akamaihd.net/steamcommunity/public/images/apps/350020/a91ad5c8b6ed8c3df9bb6f2ac70d4f992a6f822a.jpg"
  },
  {
    "name": "10010040",
    "defaultvalue": 0,
    "displayName": "Level 50",
    "hidden": 0,
    "description": "Reach Player Level 50",
    "icon": "https://steamcdn-a.akamaihd.net/steamcommunity/public/images/apps/350020/4e5abacc818331462bc7c9760f2e61d5771c5ade.jpg",
    "icongray": "https://steamcdn-a.akamaihd.net/steamcommunity/public/images/apps/350020/125a981a605ccc086dd1cc5095bde23448cfb88c.jpg"
  },
  {
    "name": "10010041",
    "defaultvalue": 0,
    "displayName": "Elemental Attack Master - Fire",
    "hidden": 0,
    "description": "Use Fire Elemental Attack 100 times",
    "icon": "https://steamcdn-a.akamaihd.net/steamcommunity/public/images/apps/350020/076fa482a14b8044522281e2439ac9c855175832.jpg",
    "icongray": "https://steamcdn-a.akamaihd.net/steamcommunity/public/images/apps/350020/8382d01057296f4e4ea53703e33b4af0089e48f0.jpg"
  },
  {
    "name": "10010042",
    "defaultvalue": 0,
    "displayName": "Elemental Attack Master - Water",
    "hidden": 0,
    "description": "Use Water Elemental Attack 100 times",
    "icon": "https://steamcdn-a.akamaihd.net/steamcommunity/public/images/apps/350020/e7adea39d209bb00a9c62f3a70b22e3e3a778a22.jpg",
    "icongray": "https://steamcdn-a.akamaihd.net/steamcommunity/public/images/apps/350020/92c850256ad10d5dafcb22f8ce186d4536838b59.jpg"
  },
  {
    "name": "10010043",
    "defaultvalue": 0,
    "displayName": "Elemental Attack Master - Wind",
    "hidden": 0,
    "description": "Use Wind Elemental Attack 100 times",
    "icon": "https://steamcdn-a.akamaihd.net/steamcommunity/public/images/apps/350020/4fe427eba54d8f38497d25d1e09b19a4bbdd603a.jpg",
    "icongray": "https://steamcdn-a.akamaihd.net/steamcommunity/public/images/apps/350020/c750f24ea82ee84b612b9ad21739b15078293ac6.jpg"
  },
  {
    "name": "10010044",
    "defaultvalue": 0,
    "displayName": "Elemental Attack Master - Earth",
    "hidden": 0,
    "description": "Use Earth Elemental Attack 100 times",
    "icon": "https://steamcdn-a.akamaihd.net/steamcommunity/public/images/apps/350020/7d7cda4b42e9ac70cc95324774aae9538006050b.jpg",
    "icongray": "https://steamcdn-a.akamaihd.net/steamcommunity/public/images/apps/350020/5dd06b0dccdeeaec96c0254a4a54e2214a54e808.jpg"
  },
  {
    "name": "10010045",
    "defaultvalue": 0,
    "displayName": "Disciple Master 15",
    "hidden": 0,
    "description": "Upgrade one Disciple to Level 15",
    "icon": "https://steamcdn-a.akamaihd.net/steamcommunity/public/images/apps/350020/856157ca6c91e7e6c5a9dd3ae8f76447196abad9.jpg",
    "icongray": "https://steamcdn-a.akamaihd.net/steamcommunity/public/images/apps/350020/b91a4239b86540db6a1b5c0f89eb7dc974105dcf.jpg"
  },
  {
    "name": "10010046",
    "defaultvalue": 0,
    "displayName": "Disciple Master 20",
    "hidden": 0,
    "description": "Upgrade one Disciple to Level 20",
    "icon": "https://steamcdn-a.akamaihd.net/steamcommunity/public/images/apps/350020/5814e52455adca2ab83feffd4c3f28184f3923c8.jpg",
    "icongray": "https://steamcdn-a.akamaihd.net/steamcommunity/public/images/apps/350020/532fd4ba31531dc1c73c71b5114385fe8c761cf6.jpg"
  },
  {
    "name": "10010047",
    "defaultvalue": 0,
    "displayName": "Disciple Master 25",
    "hidden": 0,
    "description": "Upgrade one Disciple to Level 25",
    "icon": "https://steamcdn-a.akamaihd.net/steamcommunity/public/images/apps/350020/99f239839e226d9ec52c25dccd038fd4d7498dd2.jpg",
    "icongray": "https://steamcdn-a.akamaihd.net/steamcommunity/public/images/apps/350020/54ca0aa4699e812af1d4cbe738a4d29953d2082a.jpg"
  }
]