﻿{
  "Dlcs": {},
  "Name": "Muffin Knight",
  "AppId": "263700",
  "ImageUrl": "https://steamcdn-a.akamaihd.net/steam/apps/263700/header.jpg?t=1447359419",
  "Languages": [
    "english",
    "french",
    "italian",
    "german",
    "spanish",
    "japanese",
    "korean",
    "tchinese"
  ],
  "Platforms": {
    "windows": true,
    "mac": true,
    "linux": false
  }
}