﻿{
  "Dlcs": {},
  "Name": "Monday Night Combat",
  "AppId": "63200",
  "ImageUrl": "https://steamcdn-a.akamaihd.net/steam/apps/63200/header.jpg?t=1447353796",
  "Languages": [
    "english",
    "french",
    "german",
    "italian",
    "japanese",
    "korean",
    "spanish",
    "tchinese"
  ],
  "Platforms": {
    "windows": true,
    "mac": false,
    "linux": false
  }
}