﻿{
  "Dlcs": {},
  "Name": "Google Earth VR",
  "AppId": "348250",
  "ImageUrl": "https://steamcdn-a.akamaihd.net/steam/apps/348250/header.jpg?t=1508799201",
  "Languages": [
    "english"
  ],
  "Platforms": {
    "windows": true,
    "mac": false,
    "linux": false
  }
}