﻿{
  "Dlcs": {},
  "Name": "FIVE: Champions of Canaan",
  "AppId": "492870",
  "ImageUrl": "https://steamcdn-a.akamaihd.net/steam/apps/492870/header.jpg?t=1536868390",
  "Languages": [
    "english"
  ],
  "Platforms": {
    "windows": true,
    "mac": false,
    "linux": false
  }
}