﻿[
  {
    "name": "COLLECT_ALL_BOSS_ARTIFACTS",
    "defaultvalue": 0,
    "displayName": "Hoarder's Dream",
    "hidden": 0,
    "description": "Collect all boss artifacts",
    "icon": "https://steamcdn-a.akamaihd.net/steamcommunity/public/images/apps/492870/2f61a42f217b265022780a7ca65404caaf3e6712.jpg",
    "icongray": "https://steamcdn-a.akamaihd.net/steamcommunity/public/images/apps/492870/d7fb9c15fb9bf5d93aa34111e6fbd2b153a1001a.jpg"
  },
  {
    "name": "COLLECT_ALL_ONETYPE_ARTIFACTS",
    "defaultvalue": 0,
    "displayName": "Hoarder's Delight",
    "hidden": 0,
    "description": "Collect all artifact weapons for one weapon type",
    "icon": "https://steamcdn-a.akamaihd.net/steamcommunity/public/images/apps/492870/65a1dc9b4edc264644dc428caa13a72a6b40c8ed.jpg",
    "icongray": "https://steamcdn-a.akamaihd.net/steamcommunity/public/images/apps/492870/870abbab934d517d2cd667056a3d54747ad0b976.jpg"
  },
  {
    "name": "COLLECT_ONEBOSSARTIFACTS",
    "defaultvalue": 0,
    "displayName": "Head Hunter",
    "hidden": 0,
    "description": "Collect all boss artifacts for one boss",
    "icon": "https://steamcdn-a.akamaihd.net/steamcommunity/public/images/apps/492870/8ba183fb39a40f984a154eb542674da0d5326127.jpg",
    "icongray": "https://steamcdn-a.akamaihd.net/steamcommunity/public/images/apps/492870/9f2524bbb97d0a8a29d4c1e855dab90016150650.jpg"
  },
  {
    "name": "WEAPON_UNLOCK_ONETYPE",
    "defaultvalue": 0,
    "displayName": "Weapon Mastery",
    "hidden": 0,
    "description": "Unlock all abilities for one weapon type",
    "icon": "https://steamcdn-a.akamaihd.net/steamcommunity/public/images/apps/492870/d283cbc4853afcddeb60b45c2db1fc9acbf6f6d2.jpg",
    "icongray": "https://steamcdn-a.akamaihd.net/steamcommunity/public/images/apps/492870/31bab1d843b6eb2d0085e1986b18dd33cb9a15f8.jpg"
  },
  {
    "name": "WEAPON_UNLOCK_ALL",
    "defaultvalue": 0,
    "displayName": "Champion's Arsenal",
    "hidden": 0,
    "description": "Unlock all abilities for each weapon type",
    "icon": "https://steamcdn-a.akamaihd.net/steamcommunity/public/images/apps/492870/668c44f5147d9440820d0837b81f31ce3741a740.jpg",
    "icongray": "https://steamcdn-a.akamaihd.net/steamcommunity/public/images/apps/492870/b8b89da3d0ea3e35aeaf1de86e07da0d327921e3.jpg"
  },
  {
    "name": "DEFEAT_CAPTAINS",
    "defaultvalue": 0,
    "displayName": "Captain's Orders",
    "hidden": 0,
    "description": "Defeat fifty Captains",
    "icon": "https://steamcdn-a.akamaihd.net/steamcommunity/public/images/apps/492870/83f44543cb1e931ae37403f3bccf54a9db5e0221.jpg",
    "icongray": "https://steamcdn-a.akamaihd.net/steamcommunity/public/images/apps/492870/a9bf84904e1b0202d9639e2362a40430f66a6dfb.jpg"
  },
  {
    "name": "DEFEAT_GENERALS",
    "defaultvalue": 0,
    "displayName": "Relieved of Duty",
    "hidden": 0,
    "description": "Defeat one hundred Generals",
    "icon": "https://steamcdn-a.akamaihd.net/steamcommunity/public/images/apps/492870/1c559198f9abf08fd5acdc7d3ac5bf8cffdbbbf9.jpg",
    "icongray": "https://steamcdn-a.akamaihd.net/steamcommunity/public/images/apps/492870/87c9c116863f1771f0c90afeb135b274a611a4bb.jpg"
  },
  {
    "name": "DEFEAT_HEAVYHITTERS",
    "defaultvalue": 0,
    "displayName": "The Harder They Fall",
    "hidden": 0,
    "description": "Defeat two hundred and fifty Heavy Hitters",
    "icon": "https://steamcdn-a.akamaihd.net/steamcommunity/public/images/apps/492870/68f7f66e897b95f8c441f0605736b1aef78d7323.jpg",
    "icongray": "https://steamcdn-a.akamaihd.net/steamcommunity/public/images/apps/492870/20b6081b22756a80759b2661e1439145802cd10d.jpg"
  },
  {
    "name": "SURVIVE_TEN",
    "defaultvalue": 0,
    "displayName": "The Hovel of Pain",
    "hidden": 0,
    "description": "Survive ten rounds without being defeated",
    "icon": "https://steamcdn-a.akamaihd.net/steamcommunity/public/images/apps/492870/5107019e21ae28797777cdbdcb01903e8c0ed7ba.jpg",
    "icongray": "https://steamcdn-a.akamaihd.net/steamcommunity/public/images/apps/492870/3bfe2bcafa4726bda36a6a6f50b7f3f597f80c27.jpg"
  },
  {
    "name": "ROUNDS_TEN",
    "defaultvalue": 0,
    "displayName": "The Long Haul",
    "hidden": 0,
    "description": "Complete ten rounds in succession without going back to the Jerusalem Market",
    "icon": "https://steamcdn-a.akamaihd.net/steamcommunity/public/images/apps/492870/8dcd4333946a38e180c1e4737c97fd0fa3d635a1.jpg",
    "icongray": "https://steamcdn-a.akamaihd.net/steamcommunity/public/images/apps/492870/048f7a47c8514e6909126a517cf75b6aa0709dee.jpg"
  },
  {
    "name": "ROUNDS_CHICKEN",
    "defaultvalue": 0,
    "displayName": "Farm Fresh",
    "hidden": 0,
    "description": "Complete five Chicken rounds",
    "icon": "https://steamcdn-a.akamaihd.net/steamcommunity/public/images/apps/492870/f6e5d67b0ab364f254691cab542d98b20138afdd.jpg",
    "icongray": "https://steamcdn-a.akamaihd.net/steamcommunity/public/images/apps/492870/424baa071222be978fbc4648ff8565ef0a5efad5.jpg"
  },
  {
    "name": "ROUNDS_200",
    "defaultvalue": 0,
    "displayName": "Arena Warrior",
    "hidden": 0,
    "description": "Complete two hundred rounds",
    "icon": "https://steamcdn-a.akamaihd.net/steamcommunity/public/images/apps/492870/c562328ea03caceb7ef6dfa02d8d93bdb0c83930.jpg",
    "icongray": "https://steamcdn-a.akamaihd.net/steamcommunity/public/images/apps/492870/ec894000f47aee169379fd5b5a7a30aa4214ff3b.jpg"
  },
  {
    "name": "DONATE_SHEKELS_100",
    "defaultvalue": 0,
    "displayName": "Giving Back",
    "hidden": 0,
    "description": "Donate one hundred thousand shekels",
    "icon": "https://steamcdn-a.akamaihd.net/steamcommunity/public/images/apps/492870/89240a60bce319071a0bb3f05713c7350b8eb642.jpg",
    "icongray": "https://steamcdn-a.akamaihd.net/steamcommunity/public/images/apps/492870/05f7974e631198a40231e0309a21abb35f711233.jpg"
  },
  {
    "name": "DONATE_SHEKELS_1000",
    "defaultvalue": 0,
    "displayName": "The Good Samaritan",
    "hidden": 0,
    "description": "Donate one million shekels",
    "icon": "https://steamcdn-a.akamaihd.net/steamcommunity/public/images/apps/492870/840700b55f9dc84d0cc75e92e30effae9609b8ee.jpg",
    "icongray": "https://steamcdn-a.akamaihd.net/steamcommunity/public/images/apps/492870/a9067af92a176e41317fd8756fe56b3918bc2539.jpg"
  },
  {
    "name": "DONATE_WEAPONS",
    "defaultvalue": 0,
    "displayName": "Call To Arms",
    "hidden": 0,
    "description": "Donate one thousand weapons",
    "icon": "https://steamcdn-a.akamaihd.net/steamcommunity/public/images/apps/492870/1598935510657dc60bee32b699473d1aefc16f8a.jpg",
    "icongray": "https://steamcdn-a.akamaihd.net/steamcommunity/public/images/apps/492870/e6fe5d6733ef0c56fbc9cfd9ae1793d73b540684.jpg"
  },
  {
    "name": "ABILITYUSE_REELINGHOOKS",
    "defaultvalue": 0,
    "displayName": "Up Close and Personal",
    "hidden": 0,
    "description": "Successfully use the 'Reeling Hooks' ability twenty-five times during a round",
    "icon": "https://steamcdn-a.akamaihd.net/steamcommunity/public/images/apps/492870/5ec97b307ac87f103e4f1164d2d4fc83cc2aecf1.jpg",
    "icongray": "https://steamcdn-a.akamaihd.net/steamcommunity/public/images/apps/492870/85cb9d168725351d47eddb182638d08793a1deca.jpg"
  },
  {
    "name": "ABILITYUSE_BULLRUSH",
    "defaultvalue": 0,
    "displayName": "Coming Though",
    "hidden": 0,
    "description": "Successfully use the 'Bull Rush' ability twenty-five times during a round",
    "icon": "https://steamcdn-a.akamaihd.net/steamcommunity/public/images/apps/492870/8d33d4cac53dab032642e49da2f2d0a1ed6ee173.jpg",
    "icongray": "https://steamcdn-a.akamaihd.net/steamcommunity/public/images/apps/492870/23c5b1a28cc28bc25914ed210dea4b1f4350ba74.jpg"
  },
  {
    "name": "ABILITYUSE_SHIELDBASH",
    "defaultvalue": 0,
    "displayName": "The Best Defense",
    "hidden": 0,
    "description": "Successfully use the 'Shield Bash' ability thirty times during a round",
    "icon": "https://steamcdn-a.akamaihd.net/steamcommunity/public/images/apps/492870/25991dc894dcfaa74de87df264283b4508932032.jpg",
    "icongray": "https://steamcdn-a.akamaihd.net/steamcommunity/public/images/apps/492870/49e0d9414e929a86e8c62641cba1a0b59ec952e3.jpg"
  },
  {
    "name": "ABILITYUSE_BASICATTACK",
    "defaultvalue": 0,
    "displayName": "Combat Fundamentals",
    "hidden": 0,
    "description": "Complete a round (after round 100) using only primary and secondary attacks",
    "icon": "https://steamcdn-a.akamaihd.net/steamcommunity/public/images/apps/492870/b9150185d3056d07a290efc0494138127aa92be5.jpg",
    "icongray": "https://steamcdn-a.akamaihd.net/steamcommunity/public/images/apps/492870/b9880364700d4ba18f7909b84841abefa722e953.jpg"
  },
  {
    "name": "DEATHBYABILITY_HORNEDPOT",
    "defaultvalue": 0,
    "displayName": "Relentless Sting",
    "hidden": 0,
    "description": "Defeat fifty enemies during a round using the 'Hornet Pot' ability",
    "icon": "https://steamcdn-a.akamaihd.net/steamcommunity/public/images/apps/492870/686dfe17a87bed1f1a99737f9e63b47362dbdccd.jpg",
    "icongray": "https://steamcdn-a.akamaihd.net/steamcommunity/public/images/apps/492870/9aba655e0c897118ff6f4f696f4301c8da8104ac.jpg"
  },
  {
    "name": "DEATHBYABILITY_CYCLONE",
    "defaultvalue": 0,
    "displayName": "Round and Round",
    "hidden": 0,
    "description": "Defeat fifty enemies during a round using the ‘Cyclone’ ability",
    "icon": "https://steamcdn-a.akamaihd.net/steamcommunity/public/images/apps/492870/f48d0b46065c17e409a968783a87c4506bee7b08.jpg",
    "icongray": "https://steamcdn-a.akamaihd.net/steamcommunity/public/images/apps/492870/2666edaa6734ad3bfbe5f4a7cc06d62f2604c03c.jpg"
  },
  {
    "name": "DEATHBYABILITY_HEADSPLITTER",
    "defaultvalue": 0,
    "displayName": "Heavy Handed",
    "hidden": 0,
    "description": "Defeat fifty enemies during a round using the ‘Headsplitter’ ability",
    "icon": "https://steamcdn-a.akamaihd.net/steamcommunity/public/images/apps/492870/0cad8b99af4fe21ef2978801cf7a709adfee1602.jpg",
    "icongray": "https://steamcdn-a.akamaihd.net/steamcommunity/public/images/apps/492870/1727063eab6d29444d1ee91cc912803a4479a8cc.jpg"
  },
  {
    "name": "DEATHBYABILITY_SPEARFLURRY",
    "defaultvalue": 0,
    "displayName": "Swift Precision",
    "hidden": 0,
    "description": "Defeat fifty enemies during a round using the ‘Spear Flurry’ ability",
    "icon": "https://steamcdn-a.akamaihd.net/steamcommunity/public/images/apps/492870/05d630965fc46666314b864c90bf79116af847e8.jpg",
    "icongray": "https://steamcdn-a.akamaihd.net/steamcommunity/public/images/apps/492870/977a464659228534d4f7a2ce53e519c0b99f9877.jpg"
  },
  {
    "name": "DEATHBYABILITY_FLYINGBACKSTAB",
    "defaultvalue": 0,
    "displayName": "Aggressive Acrobatics",
    "hidden": 0,
    "description": "Defeat thirty enemies during a round using the ‘Flying Backstab’ ability",
    "icon": "https://steamcdn-a.akamaihd.net/steamcommunity/public/images/apps/492870/1bbe7fc250129689f3ecac723b277e6136845682.jpg",
    "icongray": "https://steamcdn-a.akamaihd.net/steamcommunity/public/images/apps/492870/a7210c9b00395d40b599bd37a90f4eeb79010290.jpg"
  },
  {
    "name": "DEATHBYABILITY_CHARGEDSHOT",
    "defaultvalue": 0,
    "displayName": "My Aim Is True",
    "hidden": 0,
    "description": "Defeat fifteen enemies during a round using the ‘Charged Shot’ ability",
    "icon": "https://steamcdn-a.akamaihd.net/steamcommunity/public/images/apps/492870/1af958c5c0a8daec02d50404552d9d4040f8e188.jpg",
    "icongray": "https://steamcdn-a.akamaihd.net/steamcommunity/public/images/apps/492870/3b00a2b67fee066c1fcc0be52abeb0170f7ebc1b.jpg"
  },
  {
    "name": "STATEBYABILITY_FIRESHOT",
    "defaultvalue": 0,
    "displayName": "It's Raining Fire",
    "hidden": 0,
    "description": "Set forty enemies on fire during a round using the ‘Fire Shot’ ability",
    "icon": "https://steamcdn-a.akamaihd.net/steamcommunity/public/images/apps/492870/f6aca6753677a385cdbc44fd133d4cb18f265cb2.jpg",
    "icongray": "https://steamcdn-a.akamaihd.net/steamcommunity/public/images/apps/492870/f0d591bc0654bafb77a1080dbd0784dd986931cb.jpg"
  },
  {
    "name": "LEVEL_TWO",
    "defaultvalue": 0,
    "displayName": "The Next Generation",
    "hidden": 0,
    "description": "Reach Level 2 with an arena character",
    "icon": "https://steamcdn-a.akamaihd.net/steamcommunity/public/images/apps/492870/493c85b06cb67e4301d5fa20ca921ed491f8b96f.jpg",
    "icongray": "https://steamcdn-a.akamaihd.net/steamcommunity/public/images/apps/492870/1d24b305f7978ad78896482ed19ab367d4863616.jpg"
  },
  {
    "name": "LEVEL_TWENTY",
    "defaultvalue": 0,
    "displayName": "Battle Tested",
    "hidden": 0,
    "description": "Reach Level 20 with an arena character",
    "icon": "https://steamcdn-a.akamaihd.net/steamcommunity/public/images/apps/492870/8be2c2dda975cd67171d027168f02174127de7e5.jpg",
    "icongray": "https://steamcdn-a.akamaihd.net/steamcommunity/public/images/apps/492870/aeb8e12fa0634b46520166731874dfdf6dc5b6b1.jpg"
  },
  {
    "name": "LEVEL_FIFTY",
    "defaultvalue": 0,
    "displayName": "Mark of a Champion",
    "hidden": 0,
    "description": "Reach Level 50 with an arena character",
    "icon": "https://steamcdn-a.akamaihd.net/steamcommunity/public/images/apps/492870/3b7a8393a389b85a1d1e6753f0fe5118abc8d547.jpg",
    "icongray": "https://steamcdn-a.akamaihd.net/steamcommunity/public/images/apps/492870/f2d329d0f06d5359960de49be71b2d04fc52c832.jpg"
  },
  {
    "name": "STORY_ANEWCHAMPION",
    "defaultvalue": 0,
    "displayName": "A Hero Emerges",
    "hidden": 0,
    "description": "Complete ‘A New Champion’ story event",
    "icon": "https://steamcdn-a.akamaihd.net/steamcommunity/public/images/apps/492870/149beb9a85cab41d2edcf9073b0f5bdc20d84b5b.jpg",
    "icongray": "https://steamcdn-a.akamaihd.net/steamcommunity/public/images/apps/492870/d05524f07573b69464456449ee1c7f3dbf962254.jpg"
  },
  {
    "name": "STORY_AMORALQUANDRY",
    "defaultvalue": 0,
    "displayName": "The People's Champion",
    "hidden": 0,
    "description": "Complete ‘A Moral Quandary’ story event",
    "icon": "https://steamcdn-a.akamaihd.net/steamcommunity/public/images/apps/492870/fbca707d659cb4ea78b1aef10897facca59bc712.jpg",
    "icongray": "https://steamcdn-a.akamaihd.net/steamcommunity/public/images/apps/492870/c20c2efcdc0f69e631f98d61b7abc5c6832ed6f8.jpg"
  },
  {
    "name": "STORY_ACRUSHINGDEFEAT",
    "defaultvalue": 0,
    "displayName": "Tomorrow is a New Day",
    "hidden": 0,
    "description": "Complete ‘A Crushing Defeat’ story event",
    "icon": "https://steamcdn-a.akamaihd.net/steamcommunity/public/images/apps/492870/dbf12ede0acbcf6916956bbaf6a04ead831d4ed7.jpg",
    "icongray": "https://steamcdn-a.akamaihd.net/steamcommunity/public/images/apps/492870/af88ed87e198546a1f8755ea00d71db56d8e3c3d.jpg"
  },
  {
    "name": "STORY_FATHERLYADVICE",
    "defaultvalue": 0,
    "displayName": "A Guardian's Counsel",
    "hidden": 0,
    "description": "Complete ‘Fatherly Advice’ story event",
    "icon": "https://steamcdn-a.akamaihd.net/steamcommunity/public/images/apps/492870/aefcaf5ed2ed700f235aabe99fa3bcb73a31b560.jpg",
    "icongray": "https://steamcdn-a.akamaihd.net/steamcommunity/public/images/apps/492870/b55d273953c47d2d68f47ac7cb85579652f7d8af.jpg"
  },
  {
    "name": "STORY_CHAMPIONRISES",
    "defaultvalue": 0,
    "displayName": "A Champion Rises",
    "hidden": 0,
    "description": "Complete ‘A Champion Rises’ story event",
    "icon": "https://steamcdn-a.akamaihd.net/steamcommunity/public/images/apps/492870/a962ed39a0c036ae9fa544345acbb23824abca1d.jpg",
    "icongray": "https://steamcdn-a.akamaihd.net/steamcommunity/public/images/apps/492870/6dd4733a8433b119b1f16e4b9aed52d68b2e0563.jpg"
  },
  {
    "name": "STORY_MITONIASLASTSTAND",
    "defaultvalue": 0,
    "displayName": "Champion of Canaan",
    "hidden": 0,
    "description": "Complete ‘Mitonia’s Last Stand’ story event",
    "icon": "https://steamcdn-a.akamaihd.net/steamcommunity/public/images/apps/492870/c6f833031e31f87316d33c72bda2609989ca5513.jpg",
    "icongray": "https://steamcdn-a.akamaihd.net/steamcommunity/public/images/apps/492870/dbaf0dbe868418308a0bdae093643c600caaf693.jpg"
  },
  {
    "name": "CLICK_ANIMALS",
    "defaultvalue": 0,
    "displayName": "The New Shepherd",
    "hidden": 1,
    "icon": "https://steamcdn-a.akamaihd.net/steamcommunity/public/images/apps/492870/2caa993db4db339dd780cc84ecdd3fc5d38c4f46.jpg",
    "icongray": "https://steamcdn-a.akamaihd.net/steamcommunity/public/images/apps/492870/adda1c0cf014c6e8bca86e64dae31e8708647be1.jpg"
  },
  {
    "name": "CLICK_EDER",
    "defaultvalue": 0,
    "displayName": "The Old Shepherd",
    "hidden": 0,
    "description": "Listen to all of Eder’s stories in the Jerusalem Market",
    "icon": "https://steamcdn-a.akamaihd.net/steamcommunity/public/images/apps/492870/908d1b52c438a08676bb493459c19360043d1ab4.jpg",
    "icongray": "https://steamcdn-a.akamaihd.net/steamcommunity/public/images/apps/492870/86e931108eb6b6ef15cf9ad7b5e00347aec1b733.jpg"
  },
  {
    "name": "BOSS_GABAR",
    "defaultvalue": 0,
    "displayName": "Ammonite General",
    "hidden": 0,
    "description": "Defeat Gabar boss",
    "icon": "https://steamcdn-a.akamaihd.net/steamcommunity/public/images/apps/492870/0d41bde5cc234b22ca4fa631004b3fa859a50773.jpg",
    "icongray": "https://steamcdn-a.akamaihd.net/steamcommunity/public/images/apps/492870/b351e4a0bf70647f8b1270a888b31044ae580c28.jpg"
  },
  {
    "name": "BOSS_ASHER",
    "defaultvalue": 0,
    "displayName": "Fresh Bait",
    "hidden": 0,
    "description": "Defeat Asher",
    "icon": "https://steamcdn-a.akamaihd.net/steamcommunity/public/images/apps/492870/75a67982b15c0dd801547e8c631573a30e070163.jpg",
    "icongray": "https://steamcdn-a.akamaihd.net/steamcommunity/public/images/apps/492870/63e506ee4261267691865d42c559e993e40d6bd8.jpg"
  },
  {
    "name": "BOSS_ALPHALION",
    "defaultvalue": 0,
    "displayName": "Benaiah Would Be Proud",
    "hidden": 0,
    "description": "Defeat Ari",
    "icon": "https://steamcdn-a.akamaihd.net/steamcommunity/public/images/apps/492870/27a7a11fd5169351e0a119462d1553603aeb1e9f.jpg",
    "icongray": "https://steamcdn-a.akamaihd.net/steamcommunity/public/images/apps/492870/cfff398cd359cf66745828d51bcfc427679d83b6.jpg"
  },
  {
    "name": "BOSS_KERAK",
    "defaultvalue": 0,
    "displayName": "Aramean Warrior",
    "hidden": 0,
    "description": "Defeat Kerak",
    "icon": "https://steamcdn-a.akamaihd.net/steamcommunity/public/images/apps/492870/1f059dd398b4602a1714a0a87c79bee322aa5401.jpg",
    "icongray": "https://steamcdn-a.akamaihd.net/steamcommunity/public/images/apps/492870/da8110767a1a9d9565902b83b4b9b1937f759ccd.jpg"
  },
  {
    "name": "BOSS_KENAZ",
    "defaultvalue": 0,
    "displayName": "Edomite Alchemist",
    "hidden": 0,
    "description": "Defeat Kenaz boss",
    "icon": "https://steamcdn-a.akamaihd.net/steamcommunity/public/images/apps/492870/12799af7ff86bda121b615b7bb7d249d6f9bd950.jpg",
    "icongray": "https://steamcdn-a.akamaihd.net/steamcommunity/public/images/apps/492870/eed469c3ac94ee675b381d2e78e8ade623c326ba.jpg"
  },
  {
    "name": "BOSS_PITHON",
    "defaultvalue": 0,
    "displayName": "The Mighty Moabite",
    "hidden": 0,
    "description": "Defeat Pithon",
    "icon": "https://steamcdn-a.akamaihd.net/steamcommunity/public/images/apps/492870/6fe6c90a7a0aa0eb7d6391fbd9a28b40d02657bf.jpg",
    "icongray": "https://steamcdn-a.akamaihd.net/steamcommunity/public/images/apps/492870/ca70c0df7f927c5617e9bda2d9b2439e42350344.jpg"
  },
  {
    "name": "BOSS_MOREH",
    "defaultvalue": 0,
    "displayName": "Bow and Quiver",
    "hidden": 0,
    "description": "Defeat Moreh boss",
    "icon": "https://steamcdn-a.akamaihd.net/steamcommunity/public/images/apps/492870/e164f0c0bc210373701e82150a607839a74ce3ed.jpg",
    "icongray": "https://steamcdn-a.akamaihd.net/steamcommunity/public/images/apps/492870/62bbc2bfef53093a02703a983c2d6b63166d5b1c.jpg"
  },
  {
    "name": "BOSS_NAPHAL",
    "defaultvalue": 0,
    "displayName": "King David's Respect",
    "hidden": 0,
    "description": "Defeat Naphal",
    "icon": "https://steamcdn-a.akamaihd.net/steamcommunity/public/images/apps/492870/ea4f7da9ebcb085d6a30cd6e744a7f4a62ae3d10.jpg",
    "icongray": "https://steamcdn-a.akamaihd.net/steamcommunity/public/images/apps/492870/a95c8337e63d5a576255c095d9034e60cd21e63e.jpg"
  },
  {
    "name": "BOSS_LACHAM",
    "defaultvalue": 0,
    "displayName": "Descendant of Rephaim",
    "hidden": 0,
    "description": "Defeat Lacham boss",
    "icon": "https://steamcdn-a.akamaihd.net/steamcommunity/public/images/apps/492870/88d87f0df3c3f4700bc28c770690470fd383be62.jpg",
    "icongray": "https://steamcdn-a.akamaihd.net/steamcommunity/public/images/apps/492870/3202e0872a421ccd959baa754d2e7d9c4fd11480.jpg"
  },
  {
    "name": "BOSS_SEIR",
    "defaultvalue": 0,
    "displayName": "Best of the Best",
    "hidden": 0,
    "description": "Defeat Seir",
    "icon": "https://steamcdn-a.akamaihd.net/steamcommunity/public/images/apps/492870/7a60ab7867a09af76528dd5cca8e5133e0e0ae34.jpg",
    "icongray": "https://steamcdn-a.akamaihd.net/steamcommunity/public/images/apps/492870/200fb13136e98c3993f3d3baf5a9f0db9d126f9f.jpg"
  },
  {
    "name": "FIRST_BOSS",
    "defaultvalue": 0,
    "displayName": "First Boss",
    "hidden": 0,
    "description": "Defeat your first Boss",
    "icon": "https://steamcdn-a.akamaihd.net/steamcommunity/public/images/apps/492870/a962ed39a0c036ae9fa544345acbb23824abca1d.jpg",
    "icongray": "https://steamcdn-a.akamaihd.net/steamcommunity/public/images/apps/492870/6dd4733a8433b119b1f16e4b9aed52d68b2e0563.jpg"
  },
  {
    "name": "ROUNDS_ONE",
    "defaultvalue": 0,
    "displayName": "Round One",
    "hidden": 0,
    "description": "Complete your first round",
    "icon": "https://steamcdn-a.akamaihd.net/steamcommunity/public/images/apps/492870/1bbe7fc250129689f3ecac723b277e6136845682.jpg",
    "icongray": "https://steamcdn-a.akamaihd.net/steamcommunity/public/images/apps/492870/a7210c9b00395d40b599bd37a90f4eeb79010290.jpg"
  }
]