﻿{
  "Dlcs": {},
  "Name": "The Lab",
  "AppId": "450390",
  "ImageUrl": "https://steamcdn-a.akamaihd.net/steam/apps/450390/header.jpg?t=1567099772",
  "Languages": [
    "english",
    "french",
    "german",
    "czech",
    "finnish",
    "hungarian",
    "polish",
    "portuguese",
    "portuguese",
    "ukrainian",
    "bulgarian",
    "swedish",
    "italian",
    "japanese",
    "spanish",
    "danish",
    "korean",
    "russian",
    "schinese",
    "tchinese",
    "turkish"
  ],
  "Platforms": {
    "windows": true,
    "mac": false,
    "linux": false
  }
}