﻿{
  "Dlcs": {
    "409210": {
      "Name": "",
      "ImageUrl": ""
    },
    "1323320": {
      "Name": "",
      "ImageUrl": ""
    }
  },
  "Name": "Terraria",
  "AppId": "105600",
  "ImageUrl": "https://steamcdn-a.akamaihd.net/steam/apps/105600/header.jpg?t=1590092560",
  "Languages": [
    "english",
    "french",
    "italian",
    "german",
    "spanish",
    "polish",
    "portuguese",
    "russian",
    "schinese"
  ],
  "Platforms": {
    "windows": true,
    "mac": true,
    "linux": true
  }
}