﻿[
  {
    "name": "StatPlaneKills",
    "defaultvalue": 0,
    "displayName": "CAMPAIGN - Aircrafts downed"
  },
  {
    "name": "StatVehicleKills",
    "defaultvalue": 0,
    "displayName": "CAMPAIGN - Ground units destroyed"
  },
  {
    "name": "StatShipKills",
    "defaultvalue": 0,
    "displayName": "CAMPAIGN - Ships sunk"
  },
  {
    "name": "StatPeopleKills",
    "defaultvalue": 0,
    "displayName": "CAMPAIGN - Soldiers killed"
  },
  {
    "name": "StatCrashes",
    "defaultvalue": 0,
    "displayName": "CAMPAIGNS - Crashes"
  },
  {
    "name": "StatWingmanLost",
    "defaultvalue": 0,
    "displayName": "CAMPAIGN - Wingmen lost"
  },
  {
    "name": "StatTimeInAir",
    "defaultvalue": 0,
    "displayName": "CAMPAIGN - Playtime"
  },
  {
    "name": "StatRoundsFired",
    "defaultvalue": 0,
    "displayName": "CAMPAIGNS - Rounds fired"
  },
  {
    "name": "StatRoundsHitted",
    "defaultvalue": 0,
    "displayName": "CAMPAIGN - Rounds hitted"
  },
  {
    "name": "StatBombsFired",
    "defaultvalue": 0,
    "displayName": "CAMPAIGN - Bombs fired"
  },
  {
    "name": "StatBombsHitted",
    "defaultvalue": 0,
    "displayName": "CAMPAIGN - Bombs hitted"
  },
  {
    "name": "StatTorpedosFired",
    "defaultvalue": 0,
    "displayName": "CAMPAIGN - Torpedoes fired"
  },
  {
    "name": "StatTorpedosHitted",
    "defaultvalue": 0,
    "displayName": "CAMPAIGN - Torpedoes hitted"
  },
  {
    "name": "CampaignActMission",
    "defaultvalue": 0,
    "displayName": "CAMPAIGN - Missions Completed"
  },
  {
    "name": "StatTimeInAir2",
    "defaultvalue": 0,
    "displayName": "INSTANT DOGFIGHT - Playtime"
  },
  {
    "name": "StatPlaneKills2",
    "defaultvalue": 0,
    "displayName": "INSTANT DOGFIGHT - Aircrafts downed"
  },
  {
    "name": "StatCrashes2",
    "defaultvalue": 0,
    "displayName": "INSTANT DOGFIGHT - Crashes"
  },
  {
    "name": "StatRoundsFired2",
    "defaultvalue": 0,
    "displayName": "INSTANT DOGFIGHT - Rounds fired"
  },
  {
    "name": "StatRoundsHitted2",
    "defaultvalue": 0,
    "displayName": "INSTANT DOGFIGHT - Rounds hitted"
  },
  {
    "name": "StatTimeInAir3",
    "defaultvalue": 0,
    "displayName": "FREE FLIGHT - Playtime"
  },
  {
    "name": "StatCrashes3",
    "defaultvalue": 0,
    "displayName": "FREE FLIGHT - Crashes"
  },
  {
    "name": "StatMPTimeInAir0",
    "defaultvalue": 0,
    "displayName": "MASTER OF THE SKIES - Playtime"
  },
  {
    "name": "StatRoundsFiredMP0",
    "defaultvalue": 0,
    "displayName": "MASTER OF THE SKIES - Rounds fired"
  },
  {
    "name": "StatRoundsHittedMP0",
    "defaultvalue": 0,
    "displayName": "MASTER OF THE SKIES - Rounds hitted"
  },
  {
    "name": "StatMPKills0",
    "defaultvalue": 0,
    "displayName": "MASTER OF THE SKIES - Kills"
  },
  {
    "name": "StatMPDeaths0",
    "defaultvalue": 0,
    "displayName": "MASTER OF THE SKIES - Death(s)"
  },
  {
    "name": "StatMPTimeInAir1",
    "defaultvalue": 0,
    "displayName": "TEAM DOGFIGHT - Playtime"
  },
  {
    "name": "StatRoundsFiredMP1",
    "defaultvalue": 0,
    "displayName": "TEAM DOGFIGHT - Rounds fired"
  },
  {
    "name": "StatRoundsHittedMP1",
    "defaultvalue": 0,
    "displayName": "TEAM DOGFIGHT - Rounds hitted"
  },
  {
    "name": "StatMPKills1",
    "defaultvalue": 0,
    "displayName": "TEAM DOGFIGHT - Kills"
  },
  {
    "name": "StatMPDeaths1",
    "defaultvalue": 0,
    "displayName": "TEAM DOGFIGHT - Death(s)"
  },
  {
    "name": "StatMPTimeInAir2",
    "defaultvalue": 0,
    "displayName": "CAPTURE THE FLAG - Playtime"
  },
  {
    "name": "StatRoundsFiredMP2",
    "defaultvalue": 0,
    "displayName": "CAPTURE THE FLAG - Rounds fired"
  },
  {
    "name": "StatRoundsHittedMP2",
    "defaultvalue": 0,
    "displayName": "CAPTURE THE FLAG - Rounds hitted"
  },
  {
    "name": "StatMPKills2",
    "defaultvalue": 0,
    "displayName": "CAPTURE THE FLAG - Kills"
  },
  {
    "name": "StatMPDeaths2",
    "defaultvalue": 0,
    "displayName": "CAPTURE THE FLAG - Death(s)"
  },
  {
    "name": "StatMPCTFPoints",
    "defaultvalue": 0,
    "displayName": "CAPTURE THE FLAG - Points scored"
  }
]