﻿[
  {
    "name": "MEDAL_ALLCLEARED",
    "defaultvalue": 0,
    "displayName": "Heir of the Belmont clan",
    "hidden": 0,
    "description": "Complete all games",
    "icon": "https://steamcdn-a.akamaihd.net/steamcommunity/public/images/apps/1018010/2268275c3fcc91ecc73b14e7ec158822e3a0b7cb.jpg",
    "icongray": "https://steamcdn-a.akamaihd.net/steamcommunity/public/images/apps/1018010/5492aacd90017d5b484b85dc0b5eaeef1be5448c.jpg"
  },
  {
    "name": "MEDAL_ALLPLAYED",
    "defaultvalue": 0,
    "displayName": "Better to whip a candle than to curse the darkness",
    "hidden": 0,
    "description": "Play each game",
    "icon": "https://steamcdn-a.akamaihd.net/steamcommunity/public/images/apps/1018010/ef961342581baf00644937afbc7c343c9fa0bd31.jpg",
    "icongray": "https://steamcdn-a.akamaihd.net/steamcommunity/public/images/apps/1018010/474554e9fad69290114bbaad86c93f4a4d81bafc.jpg"
  },
  {
    "name": "MEDAL_CV1CLEAR",
    "defaultvalue": 0,
    "displayName": "The Cursed Simon Belmont",
    "hidden": 0,
    "description": "Complete Castlevania",
    "icon": "https://steamcdn-a.akamaihd.net/steamcommunity/public/images/apps/1018010/07964844acae002be843512281299f48c11c9e12.jpg",
    "icongray": "https://steamcdn-a.akamaihd.net/steamcommunity/public/images/apps/1018010/3165f9c8c0f935a5b41e078d86b0240882255221.jpg"
  },
  {
    "name": "MEDAL_CV2CLEAR",
    "defaultvalue": 0,
    "displayName": "And so the ghastly night has come to an end",
    "hidden": 0,
    "description": "Complete Castlevania II Simon's Quest",
    "icon": "https://steamcdn-a.akamaihd.net/steamcommunity/public/images/apps/1018010/e37cf39d1dd3ab84283039fa90fe6d41d1374c6f.jpg",
    "icongray": "https://steamcdn-a.akamaihd.net/steamcommunity/public/images/apps/1018010/06b418a47312500a18283e3c7460b28f676d3a89.jpg"
  },
  {
    "name": "MEDAL_CV3CLEAR_SOLO",
    "defaultvalue": 0,
    "displayName": "The Vampire Killer is all I need",
    "hidden": 0,
    "description": "Complete Castlevania III Dracula's Curse only with Trevor Belmont",
    "icon": "https://steamcdn-a.akamaihd.net/steamcommunity/public/images/apps/1018010/094d5a42c168d40088db818123991a1fdc5abf9c.jpg",
    "icongray": "https://steamcdn-a.akamaihd.net/steamcommunity/public/images/apps/1018010/9973a02012a89a0ccbdec758f6b7505cfe9f67d1.jpg"
  },
  {
    "name": "MEDAL_CV3CLEAR_SYPH",
    "defaultvalue": 0,
    "displayName": "Intertwined fates",
    "hidden": 0,
    "description": "Complete Castlevania III Dracula's Curse with Sypha Belnades",
    "icon": "https://steamcdn-a.akamaihd.net/steamcommunity/public/images/apps/1018010/5e3d82c41c4c45889ebe0c66a4007a1ab5239223.jpg",
    "icongray": "https://steamcdn-a.akamaihd.net/steamcommunity/public/images/apps/1018010/9e1a783086b9892eaa23e756588c556bd079d690.jpg"
  },
  {
    "name": "MEDAL_CV3CLEAR_GRNT",
    "defaultvalue": 0,
    "displayName": "May my family rest in peace",
    "hidden": 0,
    "description": "Complete Castlevania III Dracula's Curse with Grant DaNasty",
    "icon": "https://steamcdn-a.akamaihd.net/steamcommunity/public/images/apps/1018010/3f4735f9002c4c6701f3cb22fea62569352340f3.jpg",
    "icongray": "https://steamcdn-a.akamaihd.net/steamcommunity/public/images/apps/1018010/abba9692dbd88d18710c785dfe3db31220206bc0.jpg"
  },
  {
    "name": "MEDAL_CV3CLEAR_ALCD",
    "defaultvalue": 0,
    "displayName": "Forgive me, Father",
    "hidden": 0,
    "description": "Complete Castlevania III Dracula's Curse with Alucard",
    "icon": "https://steamcdn-a.akamaihd.net/steamcommunity/public/images/apps/1018010/b95b83ab3449061fe1d129f9e194197c087a4b82.jpg",
    "icongray": "https://steamcdn-a.akamaihd.net/steamcommunity/public/images/apps/1018010/09804f1051ec9032a18f5b3daffadf0fe9b28ba6.jpg"
  },
  {
    "name": "MEDAL_KDCLEAR",
    "defaultvalue": 0,
    "displayName": "I am king!",
    "hidden": 0,
    "description": "Complete Kid Dracula",
    "icon": "https://steamcdn-a.akamaihd.net/steamcommunity/public/images/apps/1018010/024269f381b4952330351bc13947a2b5dbdca5a0.jpg",
    "icongray": "https://steamcdn-a.akamaihd.net/steamcommunity/public/images/apps/1018010/6e73524603d6d08d10e77c27cf1c51d6d780a7bc.jpg"
  },
  {
    "name": "MEDAL_CV4CLEAR",
    "defaultvalue": 0,
    "displayName": "With only your whip and courage",
    "hidden": 0,
    "description": "Complete Super Castlevania IV",
    "icon": "https://steamcdn-a.akamaihd.net/steamcommunity/public/images/apps/1018010/0553153833258e4455816ff1341bc3a0de988cd4.jpg",
    "icongray": "https://steamcdn-a.akamaihd.net/steamcommunity/public/images/apps/1018010/1ea8b0ddbdbec7669e94a490880c741b459cfeaa.jpg"
  },
  {
    "name": "MEDAL_CVADV1CLEAR",
    "defaultvalue": 0,
    "displayName": "Birth of a legend",
    "hidden": 0,
    "description": "Complete Castlevania The Adventure",
    "icon": "https://steamcdn-a.akamaihd.net/steamcommunity/public/images/apps/1018010/38d1cb85c8d4448a520575ee570f9f55473a2a15.jpg",
    "icongray": "https://steamcdn-a.akamaihd.net/steamcommunity/public/images/apps/1018010/9ab67ad6a6ec8f9ad2bdd1798751b66bc8bb075c.jpg"
  },
  {
    "name": "MEDAL_CVADV2CLEAR",
    "defaultvalue": 0,
    "displayName": "Rise again, Soleil",
    "hidden": 0,
    "description": "Complete Castlevania II Belmont's Revenge",
    "icon": "https://steamcdn-a.akamaihd.net/steamcommunity/public/images/apps/1018010/75534e89e079a4cabde7b633f7638d5ec2d90c32.jpg",
    "icongray": "https://steamcdn-a.akamaihd.net/steamcommunity/public/images/apps/1018010/cacd224d393c155566951ce65dd158c69c74b52e.jpg"
  },
  {
    "name": "MEDAL_VKCLEAR_JOHN",
    "defaultvalue": 0,
    "displayName": "It took a left-handed Belmont to set things right",
    "hidden": 0,
    "description": "Complete Castlevania Bloodlines as John Morris",
    "icon": "https://steamcdn-a.akamaihd.net/steamcommunity/public/images/apps/1018010/f4319a55dc9e4732d4b281d7e8bfc2480cca6159.jpg",
    "icongray": "https://steamcdn-a.akamaihd.net/steamcommunity/public/images/apps/1018010/bbe033805a6df93348ac1175f69ebdd50e1ad56f.jpg"
  },
  {
    "name": "MEDAL_VKCLEAR_ELIC",
    "defaultvalue": 0,
    "displayName": "You are now avenged, Gwendolyn",
    "hidden": 0,
    "description": "Complete Castlevania Bloodlines as Eric Lecarde",
    "icon": "https://steamcdn-a.akamaihd.net/steamcommunity/public/images/apps/1018010/7c5b3b48338d38e4f2ab998322ed380d03d7e97b.jpg",
    "icongray": "https://steamcdn-a.akamaihd.net/steamcommunity/public/images/apps/1018010/969c449b209b78f1d0d4f211dbbd70f48b5f0333.jpg"
  }
]