﻿[
  {
    "name": "quad_kill",
    "defaultvalue": 0,
    "displayName": "Quad Kill!",
    "hidden": 0,
    "description": "Get a Quadra kill",
    "icon": "https://steamcdn-a.akamaihd.net/steamcommunity/public/images/apps/567260/8c21012b019366f030b98449a9b782dbd75b6a84.jpg",
    "icongray": "https://steamcdn-a.akamaihd.net/steamcommunity/public/images/apps/567260/b03a2157e18fff5153dcbf401327e7fdad3fc011.jpg"
  },
  {
    "name": "killstreak_15",
    "defaultvalue": 0,
    "displayName": "Q… Quindecuple kill?",
    "hidden": 0,
    "description": "Get a 15 killstreak",
    "icon": "https://steamcdn-a.akamaihd.net/steamcommunity/public/images/apps/567260/73a40e35200f5465998addeec1c5573de913f73b.jpg",
    "icongray": "https://steamcdn-a.akamaihd.net/steamcommunity/public/images/apps/567260/57ca79ad039ee17b16ed8c561b4d0fa736a27c4c.jpg"
  },
  {
    "name": "headshot",
    "defaultvalue": 0,
    "displayName": "HEADSHOT!",
    "hidden": 0,
    "description": "Get a headshot",
    "icon": "https://steamcdn-a.akamaihd.net/steamcommunity/public/images/apps/567260/47eefbcaa6eca96e296db33b781e0b320e987c47.jpg",
    "icongray": "https://steamcdn-a.akamaihd.net/steamcommunity/public/images/apps/567260/5a9e7a1b6598ea2c33af45c3c6b121ebfcd2e31d.jpg"
  },
  {
    "name": "harmless",
    "defaultvalue": 0,
    "displayName": "(H)armless",
    "hidden": 0,
    "description": "Shoot off both arms from a zombie!",
    "icon": "https://steamcdn-a.akamaihd.net/steamcommunity/public/images/apps/567260/9eff7c296ea21c30a6403720060d3ef0095195c7.jpg",
    "icongray": "https://steamcdn-a.akamaihd.net/steamcommunity/public/images/apps/567260/068ed51636ade69c726421249485a71a91fb304f.jpg"
  },
  {
    "name": "tripple_kill",
    "defaultvalue": 0,
    "displayName": "Three zombies with one shot!",
    "hidden": 0,
    "description": "Kill 3 zombies with one shotgun shot!",
    "icon": "https://steamcdn-a.akamaihd.net/steamcommunity/public/images/apps/567260/0a7c760045e0a7d9b677b6c15e4f5cdab99b2032.jpg",
    "icongray": "https://steamcdn-a.akamaihd.net/steamcommunity/public/images/apps/567260/183b2c7513ebc4458d44fc21dbac462eca604972.jpg"
  },
  {
    "name": "zombie_defusal",
    "defaultvalue": 0,
    "displayName": "Zombie Defusal",
    "hidden": 0,
    "description": "Kill the bomb zombie",
    "icon": "https://steamcdn-a.akamaihd.net/steamcommunity/public/images/apps/567260/9cb95ff1442246e8439473334787d158d8ddf45b.jpg",
    "icongray": "https://steamcdn-a.akamaihd.net/steamcommunity/public/images/apps/567260/2f3acff4684618557df087943ecd2a78a2830889.jpg"
  },
  {
    "name": "mass_murder",
    "defaultvalue": 0,
    "displayName": "Mass murder!",
    "hidden": 0,
    "description": "Kill 100 zombies",
    "icon": "https://steamcdn-a.akamaihd.net/steamcommunity/public/images/apps/567260/be690d340eeaad08f9c561918d28a5e50a049a7a.jpg",
    "icongray": "https://steamcdn-a.akamaihd.net/steamcommunity/public/images/apps/567260/b1fec317b7157962ae54476e18e2231c4904877d.jpg"
  },
  {
    "name": "mass_murder_500",
    "defaultvalue": 0,
    "displayName": "Slaughterhouse!",
    "hidden": 0,
    "description": "Kill 500 zombies",
    "icon": "https://steamcdn-a.akamaihd.net/steamcommunity/public/images/apps/567260/6996b28a2cb9ac229d3c46b8c25bdba8f3eb7d50.jpg",
    "icongray": "https://steamcdn-a.akamaihd.net/steamcommunity/public/images/apps/567260/d4abb4fb4895d144024a81c965c80d952fc24ca7.jpg"
  },
  {
    "name": "mass_murder_1000",
    "defaultvalue": 0,
    "displayName": "Massacre!",
    "hidden": 0,
    "description": "Kill 1000 zombies",
    "icon": "https://steamcdn-a.akamaihd.net/steamcommunity/public/images/apps/567260/d9eb5ca532fcef149e0a99d3100ab327968f9bea.jpg",
    "icongray": "https://steamcdn-a.akamaihd.net/steamcommunity/public/images/apps/567260/c9d16db92d230827c4e84d61caee7251da039433.jpg"
  },
  {
    "name": "level_5",
    "defaultvalue": 0,
    "displayName": "Reached Level 5!",
    "hidden": 0,
    "description": "Reach Level 5",
    "icon": "https://steamcdn-a.akamaihd.net/steamcommunity/public/images/apps/567260/dd26e70840addda658002fe405b409d81afaa770.jpg",
    "icongray": "https://steamcdn-a.akamaihd.net/steamcommunity/public/images/apps/567260/6e5c1a6cf6aba47c6ac881f0ff07c1068acc19a7.jpg"
  },
  {
    "name": "level_10",
    "defaultvalue": 0,
    "displayName": "Reached Level 10!",
    "hidden": 0,
    "description": "Reach Level 10",
    "icon": "https://steamcdn-a.akamaihd.net/steamcommunity/public/images/apps/567260/659b01da997697a024813768b1734428863958d1.jpg",
    "icongray": "https://steamcdn-a.akamaihd.net/steamcommunity/public/images/apps/567260/97375d186782fdd4123ab5f4a30251030491c561.jpg"
  },
  {
    "name": "level_50",
    "defaultvalue": 0,
    "displayName": "Reached Level 50!",
    "hidden": 0,
    "description": "Reach Level 50",
    "icon": "https://steamcdn-a.akamaihd.net/steamcommunity/public/images/apps/567260/73f74221560a632ee67a8ebc784c726068cf06f5.jpg",
    "icongray": "https://steamcdn-a.akamaihd.net/steamcommunity/public/images/apps/567260/17bc90079c9979ee85b95fbcc049fa9d65477daf.jpg"
  },
  {
    "name": "level_100",
    "defaultvalue": 0,
    "displayName": "Reached Level 100",
    "hidden": 0,
    "description": "Reach Level 100",
    "icon": "https://steamcdn-a.akamaihd.net/steamcommunity/public/images/apps/567260/cac3a37568f54123811770f68bd80f58917b1b08.jpg",
    "icongray": "https://steamcdn-a.akamaihd.net/steamcommunity/public/images/apps/567260/da32827854955a957ba011d7b0498c9d06de950f.jpg"
  },
  {
    "name": "lootbox_1",
    "defaultvalue": 0,
    "displayName": "It's Looting Time!",
    "hidden": 0,
    "description": "Open your first lootbox",
    "icon": "https://steamcdn-a.akamaihd.net/steamcommunity/public/images/apps/567260/6199ef9418fbea027c2ae2ae6e46d5d0c1eb7b52.jpg",
    "icongray": "https://steamcdn-a.akamaihd.net/steamcommunity/public/images/apps/567260/d6a7ac08512256ffd0482316d24c252677a237c3.jpg"
  },
  {
    "name": "lootbox_25",
    "defaultvalue": 0,
    "displayName": "Collector",
    "hidden": 0,
    "description": "Open 25 Lootboxes",
    "icon": "https://steamcdn-a.akamaihd.net/steamcommunity/public/images/apps/567260/c8646843f1857c2c1221612812fcc5f2263064ec.jpg",
    "icongray": "https://steamcdn-a.akamaihd.net/steamcommunity/public/images/apps/567260/294fc7abe082100f7ad10f053f6e282e7b96ffb9.jpg"
  },
  {
    "name": "lootbox_100",
    "defaultvalue": 0,
    "displayName": "Hoarder",
    "hidden": 0,
    "description": "Open 100 Lootboxes",
    "icon": "https://steamcdn-a.akamaihd.net/steamcommunity/public/images/apps/567260/85caa55df65ad8fdf812b3dcb61b821f54e8571f.jpg",
    "icongray": "https://steamcdn-a.akamaihd.net/steamcommunity/public/images/apps/567260/4329e16f3c96bdd736aa8b7ad152163ad9058119.jpg"
  },
  {
    "name": "winner",
    "defaultvalue": 0,
    "displayName": "Winner",
    "hidden": 0,
    "description": "Win your 1st match",
    "icon": "https://steamcdn-a.akamaihd.net/steamcommunity/public/images/apps/567260/093a3eb7c56ea850218e02b337a192202474224f.jpg",
    "icongray": "https://steamcdn-a.akamaihd.net/steamcommunity/public/images/apps/567260/a16abbe71856cb476aa58e36dedd34fa1a65a208.jpg"
  },
  {
    "name": "winner_10",
    "defaultvalue": 0,
    "displayName": "Pro",
    "hidden": 0,
    "description": "Win 10 matches",
    "icon": "https://steamcdn-a.akamaihd.net/steamcommunity/public/images/apps/567260/fbb08fb6c809d0c2201a0d5976f80ba960c80f79.jpg",
    "icongray": "https://steamcdn-a.akamaihd.net/steamcommunity/public/images/apps/567260/56c4e24556bbba64b288bea03ff51b3592ca9e2f.jpg"
  },
  {
    "name": "winner_20",
    "defaultvalue": 0,
    "displayName": "Champion",
    "hidden": 0,
    "description": "Win 20 matches",
    "icon": "https://steamcdn-a.akamaihd.net/steamcommunity/public/images/apps/567260/81b0644fe0a8de482ed8b7e654afac13cf935e81.jpg",
    "icongray": "https://steamcdn-a.akamaihd.net/steamcommunity/public/images/apps/567260/80576c39c051f5b375e734d154e3781f82a2502b.jpg"
  },
  {
    "name": "winner_50",
    "defaultvalue": 0,
    "displayName": "Natural Born Killer",
    "hidden": 0,
    "description": "Win 50 matches",
    "icon": "https://steamcdn-a.akamaihd.net/steamcommunity/public/images/apps/567260/7af8b9a976d28f0d7b1f255eff953d8986e2662f.jpg",
    "icongray": "https://steamcdn-a.akamaihd.net/steamcommunity/public/images/apps/567260/dd3814d9e967776143a9bbe0b08b4e233ab11354.jpg"
  },
  {
    "name": "winner_100",
    "defaultvalue": 0,
    "displayName": "Master",
    "hidden": 0,
    "description": "Win 100 matches",
    "icon": "https://steamcdn-a.akamaihd.net/steamcommunity/public/images/apps/567260/72181bf16ef0658823a8bd2d7401893df4c5fa87.jpg",
    "icongray": "https://steamcdn-a.akamaihd.net/steamcommunity/public/images/apps/567260/a9d16256d4cdcee273dae9612ef4ea7d2f2f2876.jpg"
  },
  {
    "name": "not_a_scratch",
    "defaultvalue": 0,
    "displayName": "Not a scratch!",
    "hidden": 0,
    "description": "Survive wave 10 with 100 HP",
    "icon": "https://steamcdn-a.akamaihd.net/steamcommunity/public/images/apps/567260/4be72352553fa930546626bc518fc610ab1a4b5c.jpg",
    "icongray": "https://steamcdn-a.akamaihd.net/steamcommunity/public/images/apps/567260/158271ecfabf35f4de4ffd46026d9719cc93d880.jpg"
  },
  {
    "name": "close_call",
    "defaultvalue": 0,
    "displayName": "Close call...",
    "hidden": 0,
    "description": "Survive a wave with less than 10 HP",
    "icon": "https://steamcdn-a.akamaihd.net/steamcommunity/public/images/apps/567260/2ed66c7eb9526a38e7b3033edf503482a278e013.jpg",
    "icongray": "https://steamcdn-a.akamaihd.net/steamcommunity/public/images/apps/567260/4e725fd6a53af711cd22ec5a16dffd50eaa2e97e.jpg"
  },
  {
    "name": "die_arrowrain",
    "defaultvalue": 0,
    "displayName": "Death from above",
    "hidden": 0,
    "description": "Die from Arrow Rain",
    "icon": "https://steamcdn-a.akamaihd.net/steamcommunity/public/images/apps/567260/55bd52b5773c7c8090608b78da2901f74c01a642.jpg",
    "icongray": "https://steamcdn-a.akamaihd.net/steamcommunity/public/images/apps/567260/49ddc65af3c83074276f5809c4ea00fd5b1b5a19.jpg"
  },
  {
    "name": "die_gas",
    "defaultvalue": 0,
    "displayName": "Death by gas",
    "hidden": 0,
    "description": "Die from Poison Gas",
    "icon": "https://steamcdn-a.akamaihd.net/steamcommunity/public/images/apps/567260/42b8131600972289aa327d45d4918341d394d769.jpg",
    "icongray": "https://steamcdn-a.akamaihd.net/steamcommunity/public/images/apps/567260/929d7b1c291846ca7ff4cb6047d386e923306805.jpg"
  },
  {
    "name": "die_grenaderain",
    "defaultvalue": 0,
    "displayName": "Death by explosions",
    "hidden": 0,
    "description": "Die from Grenade Rain",
    "icon": "https://steamcdn-a.akamaihd.net/steamcommunity/public/images/apps/567260/9b03ddef1e4ec800c240a23befc73bacd22e4717.jpg",
    "icongray": "https://steamcdn-a.akamaihd.net/steamcommunity/public/images/apps/567260/a892f45a9dafb81b0da0f1531c7d08f03981e947.jpg"
  },
  {
    "name": "beartrap",
    "defaultvalue": 0,
    "displayName": "Ouch... My foot!",
    "hidden": 0,
    "description": "Get stuck in a bear trap",
    "icon": "https://steamcdn-a.akamaihd.net/steamcommunity/public/images/apps/567260/dd1f6bc54da668bbce52d36a5e5c7b4c633fccf7.jpg",
    "icongray": "https://steamcdn-a.akamaihd.net/steamcommunity/public/images/apps/567260/e9114ded2d6ef0f2607092a81354271f61c0c384.jpg"
  },
  {
    "name": "wave_1_loose",
    "defaultvalue": 0,
    "displayName": "Lose on wave 1",
    "hidden": 0,
    "description": "Loooooosseeeerrr!",
    "icon": "https://steamcdn-a.akamaihd.net/steamcommunity/public/images/apps/567260/dd5c56fd28fd296d324d0b40686a41ce98c6c2a6.jpg",
    "icongray": "https://steamcdn-a.akamaihd.net/steamcommunity/public/images/apps/567260/c8ea39581a01f66ee3d81be34ad1580849493583.jpg"
  },
  {
    "name": "pickup_powerup",
    "defaultvalue": 0,
    "displayName": "Powered Up",
    "hidden": 0,
    "description": "Pick up a Powerup",
    "icon": "https://steamcdn-a.akamaihd.net/steamcommunity/public/images/apps/567260/c5e48080a325d3e765e15029fd9dd9318e5d35d2.jpg",
    "icongray": "https://steamcdn-a.akamaihd.net/steamcommunity/public/images/apps/567260/62238cd136833da19e318d5219fa7a838fd0dde7.jpg"
  },
  {
    "name": "incendiary_kill",
    "defaultvalue": 0,
    "displayName": "Burn baby burn",
    "hidden": 0,
    "description": "Kill a zombie with incendiary ammo",
    "icon": "https://steamcdn-a.akamaihd.net/steamcommunity/public/images/apps/567260/9418e4b5f44ca4bd66b45e42114930ce5311255b.jpg",
    "icongray": "https://steamcdn-a.akamaihd.net/steamcommunity/public/images/apps/567260/77638f86a0005530a7acbda584b067450b5138f7.jpg"
  },
  {
    "name": "second_wind",
    "defaultvalue": 0,
    "displayName": "Second Wind",
    "hidden": 0,
    "description": "Pick up a health powerup while below 10 HP",
    "icon": "https://steamcdn-a.akamaihd.net/steamcommunity/public/images/apps/567260/d8786cb2160ea8643427b6ba47ea9cb9b7944ae1.jpg",
    "icongray": "https://steamcdn-a.akamaihd.net/steamcommunity/public/images/apps/567260/02a678d1859c59ea2ffa71a952d781035699e846.jpg"
  },
  {
    "name": "anarchist",
    "defaultvalue": 0,
    "displayName": "Anarchist",
    "hidden": 0,
    "description": "Destroy a destructible mesh",
    "icon": "https://steamcdn-a.akamaihd.net/steamcommunity/public/images/apps/567260/f714b319be187f333520b76f84deb9c05118ea80.jpg",
    "icongray": "https://steamcdn-a.akamaihd.net/steamcommunity/public/images/apps/567260/43e7a87cc18e30a62d7c4d208885af6887152975.jpg"
  },
  {
    "name": "explosive_barrel",
    "defaultvalue": 0,
    "displayName": "Cool guys don't look at explosions",
    "hidden": 0,
    "description": "Blow up an explosive barrel",
    "icon": "https://steamcdn-a.akamaihd.net/steamcommunity/public/images/apps/567260/bef3b242165eef712b8553328d2203880e5c47c5.jpg",
    "icongray": "https://steamcdn-a.akamaihd.net/steamcommunity/public/images/apps/567260/8586a4e3d1a3125f31c711a56c5ab76d9fbc9c3c.jpg"
  }
]