﻿[
  {
    "name": "KILL_MILESTONE_ZOMBIES_1",
    "defaultvalue": 0,
    "displayName": "Undead Hunter",
    "hidden": 0,
    "description": "Kill 100 zombies",
    "icon": "https://steamcdn-a.akamaihd.net/steamcommunity/public/images/apps/525510/c70a013a982ac7263f0f56bf2be67a8def4fa784.jpg",
    "icongray": "https://steamcdn-a.akamaihd.net/steamcommunity/public/images/apps/525510/0a85fafa376ed3c20d7b9e4d1206894884c99aaf.jpg"
  },
  {
    "name": "KILL_MILESTONE_ZOMBIES_2",
    "defaultvalue": 0,
    "displayName": "Killing Spree",
    "hidden": 0,
    "description": "Kill 200 zombies",
    "icon": "https://steamcdn-a.akamaihd.net/steamcommunity/public/images/apps/525510/1c9e7590d45d2ab2b868f9a92feaea9df0c8ae0f.jpg",
    "icongray": "https://steamcdn-a.akamaihd.net/steamcommunity/public/images/apps/525510/8669b185a1867c5ab07325aeae62a667e1c003f2.jpg"
  },
  {
    "name": "KILL_MILESTONE_ZOMBIES_3",
    "defaultvalue": 0,
    "displayName": "I Really Don't Like Zombies",
    "hidden": 0,
    "description": "Kill 500 zombies",
    "icon": "https://steamcdn-a.akamaihd.net/steamcommunity/public/images/apps/525510/811ec4cbf82e97c908c22b6401fd05cb52678d42.jpg",
    "icongray": "https://steamcdn-a.akamaihd.net/steamcommunity/public/images/apps/525510/6445b3051412de85f94a07c604af72b322286135.jpg"
  },
  {
    "name": "KILL_MILESTONE_GANGSTER_1",
    "defaultvalue": 0,
    "displayName": "Wiseguy Whacker",
    "hidden": 0,
    "description": "Kill 150 Mafiosi",
    "icon": "https://steamcdn-a.akamaihd.net/steamcommunity/public/images/apps/525510/9a1e9cfb4206a3752422720d882370b6cc2cb397.jpg",
    "icongray": "https://steamcdn-a.akamaihd.net/steamcommunity/public/images/apps/525510/da805cbbef35bf8ed809810fe39afc498caa115b.jpg"
  },
  {
    "name": "KILL_MILESTONE_NAZI_1",
    "defaultvalue": 0,
    "displayName": "Nazi Hunter",
    "hidden": 0,
    "description": "Kill 200 German soldiers",
    "icon": "https://steamcdn-a.akamaihd.net/steamcommunity/public/images/apps/525510/96c00b89fa7392659885052a588ab81ee9503594.jpg",
    "icongray": "https://steamcdn-a.akamaihd.net/steamcommunity/public/images/apps/525510/a76c9c00b3528b8c4a075c2c232ecf21bd10f1b9.jpg"
  },
  {
    "name": "HEADSHOT_MILESTONE_1",
    "defaultvalue": 0,
    "displayName": "Guillotine Master",
    "hidden": 0,
    "description": "Kill 75 enemies with headshots",
    "icon": "https://steamcdn-a.akamaihd.net/steamcommunity/public/images/apps/525510/3d8b84dc00eb3764b3ef59dc5c90aac4316d51d3.jpg",
    "icongray": "https://steamcdn-a.akamaihd.net/steamcommunity/public/images/apps/525510/61940de19c56b938d38b4539c58ddf42464ee782.jpg"
  },
  {
    "name": "DESTROY_CARS_MILESTONE_1",
    "defaultvalue": 0,
    "displayName": "Chop Shop",
    "hidden": 0,
    "description": "Destroy 15 vehicles",
    "icon": "https://steamcdn-a.akamaihd.net/steamcommunity/public/images/apps/525510/13b1b401146dd433c29284bf88692e1300e347d1.jpg",
    "icongray": "https://steamcdn-a.akamaihd.net/steamcommunity/public/images/apps/525510/bb04023635307b44b38d05fc6a6ec69c9247bb09.jpg"
  },
  {
    "name": "CANNOLI_MILESTONE_1",
    "defaultvalue": 0,
    "displayName": "Sweet Tooth",
    "hidden": 0,
    "description": "Eat 50 cannoli",
    "icon": "https://steamcdn-a.akamaihd.net/steamcommunity/public/images/apps/525510/95fd266c886322c1973a81a6debe7a60ffa6ed2e.jpg",
    "icongray": "https://steamcdn-a.akamaihd.net/steamcommunity/public/images/apps/525510/da3101909947afee4cf7380e427f30597eed2b54.jpg"
  },
  {
    "name": "CHAIN_ZOMBIE_MIDAIR_MILESTONE_1",
    "defaultvalue": 0,
    "displayName": "Swinging Balls",
    "hidden": 0,
    "description": "Kill 5 ball-and-chain zombies in mid air",
    "icon": "https://steamcdn-a.akamaihd.net/steamcommunity/public/images/apps/525510/ccb6c66dec93048584a98e50f3d063b1195da5e9.jpg",
    "icongray": "https://steamcdn-a.akamaihd.net/steamcommunity/public/images/apps/525510/8281c46f1765ccde549d73e2e90802b6c4b2aca9.jpg"
  },
  {
    "name": "CHAINSAW_KILL_MILESTONE_1",
    "defaultvalue": 0,
    "displayName": "Timber",
    "hidden": 0,
    "description": "Kill 100 enemies with the chainsaw",
    "icon": "https://steamcdn-a.akamaihd.net/steamcommunity/public/images/apps/525510/669785daf4bd0e34484296bed2b86c62c5827878.jpg",
    "icongray": "https://steamcdn-a.akamaihd.net/steamcommunity/public/images/apps/525510/8d83deb9266fe7be8e106ec290417cffb8eb958a.jpg"
  },
  {
    "name": "PROPELLOR_KILLS_MILESTONE_1",
    "defaultvalue": 0,
    "displayName": "When Blood Hits The Fan",
    "hidden": 0,
    "description": "Have 20 enemies killed by propelling airvents in the 'Secret Base' level",
    "icon": "https://steamcdn-a.akamaihd.net/steamcommunity/public/images/apps/525510/32a4436d1a89b505f651aea93b13c549ec96967f.jpg",
    "icongray": "https://steamcdn-a.akamaihd.net/steamcommunity/public/images/apps/525510/d2081f9d7f495b1f2ed55cd6e38c04d03a14ba55.jpg"
  },
  {
    "name": "BOSS_KILL_UBOAT",
    "defaultvalue": 0,
    "displayName": "The Widowmaker",
    "hidden": 1,
    "icon": "https://steamcdn-a.akamaihd.net/steamcommunity/public/images/apps/525510/d2e94bb539d8f2065bf1b89ad97ea28faf4cd484.jpg",
    "icongray": "https://steamcdn-a.akamaihd.net/steamcommunity/public/images/apps/525510/f87674d139848ba2b3b75c775e8025d0d13f7730.jpg"
  },
  {
    "name": "BOSS_KILL_JOE_BARISTA",
    "defaultvalue": 0,
    "displayName": "Tanks A Lot",
    "hidden": 1,
    "icon": "https://steamcdn-a.akamaihd.net/steamcommunity/public/images/apps/525510/6890b764d908f8a3e0c63bd07f5d3d365d8b68d5.jpg",
    "icongray": "https://steamcdn-a.akamaihd.net/steamcommunity/public/images/apps/525510/552c512924a2b80b7ef0daa46e471cbf5a904332.jpg"
  },
  {
    "name": "BOSS_KILL_NAZI_COMMANDER",
    "defaultvalue": 0,
    "displayName": "Drop The Ball",
    "hidden": 1,
    "icon": "https://steamcdn-a.akamaihd.net/steamcommunity/public/images/apps/525510/2bb89c81c5efd20ed6240ac4308947749d95672c.jpg",
    "icongray": "https://steamcdn-a.akamaihd.net/steamcommunity/public/images/apps/525510/abef01f15984d88190cfd1aa1bd8522683140f63.jpg"
  },
  {
    "name": "BOSS_KILL_DARK_DON",
    "defaultvalue": 0,
    "displayName": "The Last Don",
    "hidden": 1,
    "icon": "https://steamcdn-a.akamaihd.net/steamcommunity/public/images/apps/525510/aef8b88386479cd8fbb6e14cff9055bf7552f061.jpg",
    "icongray": "https://steamcdn-a.akamaihd.net/steamcommunity/public/images/apps/525510/a7f3b6bf12af2df0706e51137094916c13dbd541.jpg"
  },
  {
    "name": "BAZOOKA_MULTIKILL",
    "defaultvalue": 0,
    "displayName": "No Loitering!",
    "hidden": 0,
    "description": "Simultaneously kill 5 enemies with the rocket launcher",
    "icon": "https://steamcdn-a.akamaihd.net/steamcommunity/public/images/apps/525510/3f4576c7321d93c818ac8549c07c7a6c6b0d2c4e.jpg",
    "icongray": "https://steamcdn-a.akamaihd.net/steamcommunity/public/images/apps/525510/ae0e319cf6970c844e9c968779a011419df7562a.jpg"
  },
  {
    "name": "HEADSHOT_KILLSTREAK",
    "defaultvalue": 0,
    "displayName": "Mindblowing",
    "hidden": 0,
    "description": "Consecutively kill 20 units with headshots",
    "icon": "https://steamcdn-a.akamaihd.net/steamcommunity/public/images/apps/525510/48cfd8a19e69323b17a87c8f494ad8a16fe6386c.jpg",
    "icongray": "https://steamcdn-a.akamaihd.net/steamcommunity/public/images/apps/525510/7121ecf11dd727d9deb485bd7c795966d810dd0c.jpg"
  },
  {
    "name": "TURFWAR_BASEBALL_ONLY",
    "defaultvalue": 0,
    "displayName": "Homerun",
    "hidden": 0,
    "description": "Survive the Raid using only the baseball bat",
    "icon": "https://steamcdn-a.akamaihd.net/steamcommunity/public/images/apps/525510/4417da3b98eed92ba6b97f4ae137cc9a5ff8ee6a.jpg",
    "icongray": "https://steamcdn-a.akamaihd.net/steamcommunity/public/images/apps/525510/bc646729626b3e0dedec7f3c6d1900dd4b6fe7cc.jpg"
  },
  {
    "name": "QUARANTINED_CITY_PISTOL_ONLY",
    "defaultvalue": 0,
    "displayName": "Quick Draw",
    "hidden": 0,
    "description": "Finish the Thugtown level, using only the pistol",
    "icon": "https://steamcdn-a.akamaihd.net/steamcommunity/public/images/apps/525510/143773cebdb2173ebdf459d21661e68529bc6b66.jpg",
    "icongray": "https://steamcdn-a.akamaihd.net/steamcommunity/public/images/apps/525510/cf5a3a2ae5b606e1942df1a9b51e01e194873229.jpg"
  },
  {
    "name": "CHURCH_BELL_KILL",
    "defaultvalue": 0,
    "displayName": "For Whom The Bell Tolls",
    "hidden": 0,
    "description": "Kill a German soldier by dropping the churchbell on top of him in the 'Killing Fields' level",
    "icon": "https://steamcdn-a.akamaihd.net/steamcommunity/public/images/apps/525510/44d1d59849455314394dd685f3030f0dd611d9ed.jpg",
    "icongray": "https://steamcdn-a.akamaihd.net/steamcommunity/public/images/apps/525510/7370bb9678105a8993c12e6ddb1d54084fe3bf87.jpg"
  }
]