﻿[
  {
    "name": "AdvancedDriver",
    "defaultvalue": 0,
    "displayName": "Advanced Driver",
    "hidden": 0,
    "description": "Get a silver medal on a track",
    "icon": "https://steamcdn-a.akamaihd.net/steamcommunity/public/images/apps/233610/d54d0eb729df0ae9b6d7c115272d996baaf05fff.jpg",
    "icongray": "https://steamcdn-a.akamaihd.net/steamcommunity/public/images/apps/233610/9b31f98255b0168c5f5d6605b7c7a30dced59773.jpg"
  },
  {
    "name": "BetterThanSlicedBread",
    "defaultvalue": 0,
    "displayName": "Better than Sliced Bread",
    "hidden": 0,
    "description": "Slice off all wheels",
    "icon": "https://steamcdn-a.akamaihd.net/steamcommunity/public/images/apps/233610/0f96e02ce333aa51b7a1b403ec9087df9d88873e.jpg",
    "icongray": "https://steamcdn-a.akamaihd.net/steamcommunity/public/images/apps/233610/6d66960509490593c172ee628a24762ff9c45571.jpg"
  },
  {
    "name": "BigBother",
    "defaultvalue": 0,
    "displayName": "Big Bother",
    "hidden": 0,
    "description": "Break a camera drone's screen",
    "icon": "https://steamcdn-a.akamaihd.net/steamcommunity/public/images/apps/233610/2b18493671beba168805915817cf6693d2989931.jpg",
    "icongray": "https://steamcdn-a.akamaihd.net/steamcommunity/public/images/apps/233610/ae8e260f8781982404fd105d753083fa7c6bdb89.jpg"
  },
  {
    "name": "CheatTheSystem",
    "defaultvalue": 0,
    "displayName": "Cheat the System",
    "hidden": 0,
    "description": "Beat a Trackmogrify track in less than 10 seconds",
    "icon": "https://steamcdn-a.akamaihd.net/steamcommunity/public/images/apps/233610/888aef46251c99212ac7563e8f296a5d5bccda0b.jpg",
    "icongray": "https://steamcdn-a.akamaihd.net/steamcommunity/public/images/apps/233610/9b2040e681ccd61a7d394f9daaef2d1793e9a4a8.jpg"
  },
  {
    "name": "DownNotOut",
    "defaultvalue": 0,
    "displayName": "Down But Not Out",
    "hidden": 0,
    "description": "Narrowly miss the kill grid then hit a checkpoint",
    "icon": "https://steamcdn-a.akamaihd.net/steamcommunity/public/images/apps/233610/865d4d4acf38a64b807724fc5265a860a89ff74f.jpg",
    "icongray": "https://steamcdn-a.akamaihd.net/steamcommunity/public/images/apps/233610/ab707db26077c8dce6a7bc5b61bac18e64fb3b66.jpg"
  },
  {
    "name": "ExpertDriver",
    "defaultvalue": 0,
    "displayName": "Expert Driver",
    "hidden": 0,
    "description": "Get a gold medal on a track",
    "icon": "https://steamcdn-a.akamaihd.net/steamcommunity/public/images/apps/233610/9034561a274674c40b8f5455582663a3940a1ab8.jpg",
    "icongray": "https://steamcdn-a.akamaihd.net/steamcommunity/public/images/apps/233610/59d9170944e540fff4308832a5a3bb09027af80b.jpg"
  },
  {
    "name": "FlightlessDeparture",
    "defaultvalue": 0,
    "displayName": "Grounded Departure",
    "hidden": 0,
    "description": "Finish Entanglement without wings",
    "icon": "https://steamcdn-a.akamaihd.net/steamcommunity/public/images/apps/233610/adab8dd21632b51ae5dfc8de3b0975f86c1bd296.jpg",
    "icongray": "https://steamcdn-a.akamaihd.net/steamcommunity/public/images/apps/233610/a8be524c424bfae1c21d824b2cc2ed9a8673915f.jpg"
  },
  {
    "name": "MeetYourRival",
    "defaultvalue": 0,
    "displayName": "Meet your Rival",
    "hidden": 0,
    "description": "Finish an online match",
    "icon": "https://steamcdn-a.akamaihd.net/steamcommunity/public/images/apps/233610/2b7cb8f7fdc1d21059923bd490fbd8fbbe29d835.jpg",
    "icongray": "https://steamcdn-a.akamaihd.net/steamcommunity/public/images/apps/233610/bf0a530c73387447dbb41e02207f5ab1f81444ab.jpg"
  },
  {
    "name": "NinjaInTraining",
    "defaultvalue": 0,
    "displayName": "Ninja in Training",
    "hidden": 0,
    "description": "Complete a wall ride of 250 meters or more",
    "icon": "https://steamcdn-a.akamaihd.net/steamcommunity/public/images/apps/233610/337aeac4fe9c355cc57a3b2784390bc76bde3747.jpg",
    "icongray": "https://steamcdn-a.akamaihd.net/steamcommunity/public/images/apps/233610/cabc531d194f70228db54017a5655b4d4f5bc1cb.jpg"
  },
  {
    "name": "PerfectDriver",
    "defaultvalue": 0,
    "displayName": "Driving Ace",
    "hidden": 0,
    "description": "Get a diamond medal on a track",
    "icon": "https://steamcdn-a.akamaihd.net/steamcommunity/public/images/apps/233610/0b2056d323a1a3a7200632612ae31ea50424515d.jpg",
    "icongray": "https://steamcdn-a.akamaihd.net/steamcommunity/public/images/apps/233610/4bd324449b49b45dcb2c963b8ec7cee3ee6d29f4.jpg"
  },
  {
    "name": "PumpkinKing",
    "defaultvalue": 0,
    "displayName": "Pumpkin King",
    "hidden": 0,
    "description": "Break all pumpkins in Spooky Town",
    "icon": "https://steamcdn-a.akamaihd.net/steamcommunity/public/images/apps/233610/f5c93a96802cd8d43a286e0e3ef6b5ded31b3857.jpg",
    "icongray": "https://steamcdn-a.akamaihd.net/steamcommunity/public/images/apps/233610/fca3043eebde1008bb9015ce2743a9d75592e618.jpg"
  },
  {
    "name": "Rampage",
    "defaultvalue": 0,
    "displayName": "Rampage",
    "hidden": 0,
    "description": "Break apart 15 street lights in a level",
    "icon": "https://steamcdn-a.akamaihd.net/steamcommunity/public/images/apps/233610/9e4d69ab590767724e293df9631f757653cad2b9.jpg",
    "icongray": "https://steamcdn-a.akamaihd.net/steamcommunity/public/images/apps/233610/ccf2bb7f62dc8f2c48567ad1d1f3842d5ddaf714.jpg"
  },
  {
    "name": "SelfTermination",
    "defaultvalue": 0,
    "displayName": "Self-Termination",
    "hidden": 0,
    "description": "Press the Reset button for the car",
    "icon": "https://steamcdn-a.akamaihd.net/steamcommunity/public/images/apps/233610/a8745046b3d44ab327e2595d3781a6dd698a2137.jpg",
    "icongray": "https://steamcdn-a.akamaihd.net/steamcommunity/public/images/apps/233610/827bf631eb6d14be11002a21b242b599f872f16f.jpg"
  },
  {
    "name": "SplitPersonality",
    "defaultvalue": 0,
    "displayName": "Split Personality",
    "hidden": 0,
    "description": "Get sliced by a laser",
    "icon": "https://steamcdn-a.akamaihd.net/steamcommunity/public/images/apps/233610/9b4c8fab000ba9df8f52c414b7f34c818763b1e7.jpg",
    "icongray": "https://steamcdn-a.akamaihd.net/steamcommunity/public/images/apps/233610/78312312992c50d6dcd8893bd96f94a1b47021b1.jpg"
  },
  {
    "name": "StillAlive",
    "defaultvalue": 0,
    "displayName": "Still Alive",
    "hidden": 0,
    "description": "Complete Overload without dying",
    "icon": "https://steamcdn-a.akamaihd.net/steamcommunity/public/images/apps/233610/44f16fc31bc7820780df84d35d33544a2eea8549.jpg",
    "icongray": "https://steamcdn-a.akamaihd.net/steamcommunity/public/images/apps/233610/5a42aebbd60fb7ba4404cdd7188b469c345827b4.jpg"
  },
  {
    "name": "TheLongGrind",
    "defaultvalue": 0,
    "displayName": "The Long Grind",
    "hidden": 0,
    "description": "Complete a grind of 250 meters or more",
    "icon": "https://steamcdn-a.akamaihd.net/steamcommunity/public/images/apps/233610/ba1a2647a29dcec5acbaac133d41198906a762e5.jpg",
    "icongray": "https://steamcdn-a.akamaihd.net/steamcommunity/public/images/apps/233610/5034ee6d73f6a4c39f32e9d320a110359afa14a9.jpg"
  },
  {
    "name": "Trackmogrifier",
    "defaultvalue": 0,
    "displayName": "Trackmogrifier",
    "hidden": 0,
    "description": "Play a Trackmogrify track",
    "icon": "https://steamcdn-a.akamaihd.net/steamcommunity/public/images/apps/233610/0fab031f91b4cc48a0ba14a378ceeae8733ec108.jpg",
    "icongray": "https://steamcdn-a.akamaihd.net/steamcommunity/public/images/apps/233610/2c95b87521d9f590efda38cefc2613900b218b87.jpg"
  },
  {
    "name": "WelcomeToTheFamily",
    "defaultvalue": 0,
    "displayName": "Welcome to the Family",
    "hidden": 0,
    "description": "Play a Workshop level",
    "icon": "https://steamcdn-a.akamaihd.net/steamcommunity/public/images/apps/233610/36e3af5e60f32e548ca9e4a3460b27299a49380d.jpg",
    "icongray": "https://steamcdn-a.akamaihd.net/steamcommunity/public/images/apps/233610/860c9ce468f60a0a077dbc9941ef833a30f55fc6.jpg"
  },
  {
    "name": "Wordsmith",
    "defaultvalue": 0,
    "displayName": "Wordsmith",
    "hidden": 0,
    "description": "Discover 10 keywords in Trackmogrify",
    "icon": "https://steamcdn-a.akamaihd.net/steamcommunity/public/images/apps/233610/65b339825a3456b185fe4a3c5910edbe3f519457.jpg",
    "icongray": "https://steamcdn-a.akamaihd.net/steamcommunity/public/images/apps/233610/2ad7148b3aa709224bf569779a1b9b56f32351db.jpg"
  },
  {
    "name": "WorldTraveller",
    "defaultvalue": 0,
    "displayName": "World Traveler",
    "hidden": 0,
    "description": "Complete 10 Workshop maps",
    "icon": "https://steamcdn-a.akamaihd.net/steamcommunity/public/images/apps/233610/71d18b7ca36ce5e666d9b87ce588c266785e7146.jpg",
    "icongray": "https://steamcdn-a.akamaihd.net/steamcommunity/public/images/apps/233610/057488d615e5e04b86168bdafcd9e55fe7b0d7e1.jpg"
  },
  {
    "name": "Adventurer",
    "defaultvalue": 0,
    "displayName": "Adventurer",
    "hidden": 0,
    "description": "Finish the Adventure campaign",
    "icon": "https://steamcdn-a.akamaihd.net/steamcommunity/public/images/apps/233610/48514391d0d676f8a24f4a42925bfcd5b13a53a6.jpg",
    "icongray": "https://steamcdn-a.akamaihd.net/steamcommunity/public/images/apps/233610/ebe3dab5465eb79ef6c006ec6739cb1b053ded8a.jpg"
  },
  {
    "name": "Millionaire",
    "defaultvalue": 0,
    "displayName": "Millionaire",
    "hidden": 0,
    "description": "Earn 5,000,000 lifetime eV",
    "icon": "https://steamcdn-a.akamaihd.net/steamcommunity/public/images/apps/233610/514ce39f8a28325c000660ac47d851a2d7ce088d.jpg",
    "icongray": "https://steamcdn-a.akamaihd.net/steamcommunity/public/images/apps/233610/72d76476d1199e3715d1c6369ed962bec6224a01.jpg"
  },
  {
    "name": "Keymaster",
    "defaultvalue": 0,
    "displayName": "Keymaster",
    "hidden": 0,
    "description": "Unlock all official levels",
    "icon": "https://steamcdn-a.akamaihd.net/steamcommunity/public/images/apps/233610/6f813e63031d6f30c072a5c764eec4fd1c69e08d.jpg",
    "icongray": "https://steamcdn-a.akamaihd.net/steamcommunity/public/images/apps/233610/191f15691b77f7c456b75ee0b5e4183e6e4df482.jpg"
  },
  {
    "name": "GoldCollector",
    "defaultvalue": 0,
    "displayName": "Gold Collector",
    "hidden": 0,
    "description": "Get Gold medals on all Adventure levels in Sprint",
    "icon": "https://steamcdn-a.akamaihd.net/steamcommunity/public/images/apps/233610/660f655d4bcc63f5bd0fb285ee32791a17ab44ae.jpg",
    "icongray": "https://steamcdn-a.akamaihd.net/steamcommunity/public/images/apps/233610/46b6f0623ce8fbb7df57a1284b0a4934dcebef49.jpg"
  },
  {
    "name": "SixFigures",
    "defaultvalue": 0,
    "displayName": "Six Figures",
    "hidden": 0,
    "description": "Land a trick over 100,000 eV",
    "icon": "https://steamcdn-a.akamaihd.net/steamcommunity/public/images/apps/233610/9f44da79b18bc021357ee19e053c554e1af313f7.jpg",
    "icongray": "https://steamcdn-a.akamaihd.net/steamcommunity/public/images/apps/233610/068f0ed0a9671b5c1e2e1bace725fc43c7e6724e.jpg"
  },
  {
    "name": "MovingForward",
    "defaultvalue": 0,
    "displayName": "Moving Forward",
    "hidden": 0,
    "description": "Finish Cataclysm in the Adventure campaign",
    "icon": "https://steamcdn-a.akamaihd.net/steamcommunity/public/images/apps/233610/c83a4f77c2e29b6dfcd652fa5097adf7320ff5da.jpg",
    "icongray": "https://steamcdn-a.akamaihd.net/steamcommunity/public/images/apps/233610/40fe971325325ec8bd1cc93557574f4611327e07.jpg"
  },
  {
    "name": "SpeedRunner",
    "defaultvalue": 0,
    "displayName": "Speed Runner",
    "hidden": 0,
    "description": "Finish the Adventure campaign in 1 hour",
    "icon": "https://steamcdn-a.akamaihd.net/steamcommunity/public/images/apps/233610/f302797768f2148cc2e4a5bf1d1772b2f7a8eca3.jpg",
    "icongray": "https://steamcdn-a.akamaihd.net/steamcommunity/public/images/apps/233610/53b58e16f0a64921163469e409e2e6c4b938cecc.jpg"
  },
  {
    "name": "BlastFromThePast",
    "defaultvalue": 0,
    "displayName": "Blast from the Past",
    "hidden": 0,
    "description": "Finish the Lost To Echoes campaign",
    "icon": "https://steamcdn-a.akamaihd.net/steamcommunity/public/images/apps/233610/6b240a06c31b7adb878dfcbc4a2f4824702b9a0d.jpg",
    "icongray": "https://steamcdn-a.akamaihd.net/steamcommunity/public/images/apps/233610/a5eff101daeba23f06e2288baac551f45c4f1d23.jpg"
  },
  {
    "name": "VendorBender",
    "defaultvalue": 0,
    "displayName": "Vendor Bender",
    "hidden": 0,
    "description": "Find pieces from the past in Lost to Echoes",
    "icon": "https://steamcdn-a.akamaihd.net/steamcommunity/public/images/apps/233610/d079b21d0b4ba646be9bdb5ecc448f5b186f6f55.jpg",
    "icongray": "https://steamcdn-a.akamaihd.net/steamcommunity/public/images/apps/233610/40f55e71d734404499cd4a7a12f7c0f07c6eb562.jpg"
  },
  {
    "name": "TheOtherSide",
    "defaultvalue": 0,
    "displayName": "The Other Side",
    "hidden": 1,
    "icon": "https://steamcdn-a.akamaihd.net/steamcommunity/public/images/apps/233610/32997827927ada23c8b2800d09b0c7d85aaf4360.jpg",
    "icongray": "https://steamcdn-a.akamaihd.net/steamcommunity/public/images/apps/233610/e7c8be399a5eef0899c64bc8f4b528f88de9da89.jpg"
  },
  {
    "name": "Worthy",
    "defaultvalue": 0,
    "displayName": "Worthy",
    "hidden": 1,
    "icon": "https://steamcdn-a.akamaihd.net/steamcommunity/public/images/apps/233610/e7fe340c516b15ee34b1e212559f6fb617c4fd68.jpg",
    "icongray": "https://steamcdn-a.akamaihd.net/steamcommunity/public/images/apps/233610/a5d192797cfd990fa96da59a8bb22db072e1e789.jpg"
  }
]