﻿[
  {
    "name": "ACH_1000",
    "defaultvalue": 0,
    "displayName": "1K",
    "hidden": 0,
    "description": "Earn 1,000 points in a single round",
    "icon": "https://steamcdn-a.akamaihd.net/steamcommunity/public/images/apps/433950/4dd8f037d920ccee99fbdee475d5a6fa40b3b4a6.jpg",
    "icongray": "https://steamcdn-a.akamaihd.net/steamcommunity/public/images/apps/433950/1fe20e71414d2bc807e3aa10f47a3e0af7bb49a0.jpg"
  },
  {
    "name": "ACH_2500",
    "defaultvalue": 0,
    "displayName": "2.5K",
    "hidden": 0,
    "description": "Earn 2,500 points in a single round",
    "icon": "https://steamcdn-a.akamaihd.net/steamcommunity/public/images/apps/433950/9ad7fde3e0fbb4aa869fca89f0feb43c13f5545b.jpg",
    "icongray": "https://steamcdn-a.akamaihd.net/steamcommunity/public/images/apps/433950/b08dd06220a4d9ef053b7fd9dc9be7126bf4b7b2.jpg"
  },
  {
    "name": "ACH_5000",
    "defaultvalue": 0,
    "displayName": "5K",
    "hidden": 0,
    "description": "Earn 5,000 points in a single round",
    "icon": "https://steamcdn-a.akamaihd.net/steamcommunity/public/images/apps/433950/028fad767a6c2b52f04b2e89db049fba0978195e.jpg",
    "icongray": "https://steamcdn-a.akamaihd.net/steamcommunity/public/images/apps/433950/a1e0be72291ca016806b641710e6272d568e3973.jpg"
  },
  {
    "name": "ACH_10000",
    "defaultvalue": 0,
    "displayName": "10K",
    "hidden": 0,
    "description": "Earn 10,000 points in a single round",
    "icon": "https://steamcdn-a.akamaihd.net/steamcommunity/public/images/apps/433950/c85f604a055e335fc5c4a883aad1ff99cda40519.jpg",
    "icongray": "https://steamcdn-a.akamaihd.net/steamcommunity/public/images/apps/433950/106ca69093cf04f44f9969468eb31b9fd2b06274.jpg"
  },
  {
    "name": "ACH_15000",
    "defaultvalue": 0,
    "displayName": "15K",
    "hidden": 0,
    "description": "Earn 15,000 points in a single round",
    "icon": "https://steamcdn-a.akamaihd.net/steamcommunity/public/images/apps/433950/336d9ce8135850bedc909a1e4e743f9b86ae0cb8.jpg",
    "icongray": "https://steamcdn-a.akamaihd.net/steamcommunity/public/images/apps/433950/a33bcbd3f706a9dd451bd3e1452e6adfeade895d.jpg"
  },
  {
    "name": "ACH_25000",
    "defaultvalue": 0,
    "displayName": "25K",
    "hidden": 0,
    "description": "Earn 25,000 points in a single round",
    "icon": "https://steamcdn-a.akamaihd.net/steamcommunity/public/images/apps/433950/80bd825ce4f1379629b9fabf17ef661f18a69f5d.jpg",
    "icongray": "https://steamcdn-a.akamaihd.net/steamcommunity/public/images/apps/433950/6c522006fff3e89fbf2a915f1787c45920d26518.jpg"
  },
  {
    "name": "ACH_50000",
    "defaultvalue": 0,
    "displayName": "50K",
    "hidden": 0,
    "description": "Earn 50,000 points in a single round",
    "icon": "https://steamcdn-a.akamaihd.net/steamcommunity/public/images/apps/433950/caa7852a01c039afccec9c804638f63a9333cb80.jpg",
    "icongray": "https://steamcdn-a.akamaihd.net/steamcommunity/public/images/apps/433950/a5dbb35cb7feec9093ba891547339013e46c8d60.jpg"
  },
  {
    "name": "ACH_Unlock02",
    "defaultvalue": 0,
    "displayName": "Bit Blaster V2",
    "hidden": 0,
    "description": "Unlock Bit Blaster V2",
    "icon": "https://steamcdn-a.akamaihd.net/steamcommunity/public/images/apps/433950/ba8b1130f974341aba761a4dd26586b5b360d67d.jpg",
    "icongray": "https://steamcdn-a.akamaihd.net/steamcommunity/public/images/apps/433950/e8d3d9fe0ee0cd63591cdf004317731f56ec5c6c.jpg"
  },
  {
    "name": "ACH_Unlock03",
    "defaultvalue": 0,
    "displayName": "Bit Blaster V3",
    "hidden": 0,
    "description": "Unlock Bit Blaster V3",
    "icon": "https://steamcdn-a.akamaihd.net/steamcommunity/public/images/apps/433950/56e3d158c6c5c243e0e620b3a3b6ac9133697c44.jpg",
    "icongray": "https://steamcdn-a.akamaihd.net/steamcommunity/public/images/apps/433950/5c783311d2d63d7949be825d102f4a1b7a083448.jpg"
  },
  {
    "name": "ACH_Unlock04",
    "defaultvalue": 0,
    "displayName": "Bit Blaster V4",
    "hidden": 0,
    "description": "Unlock Bit Blaster V4",
    "icon": "https://steamcdn-a.akamaihd.net/steamcommunity/public/images/apps/433950/4a0e57b9956799e20bf6eeb2dd2c302f58a7e06e.jpg",
    "icongray": "https://steamcdn-a.akamaihd.net/steamcommunity/public/images/apps/433950/3e4ab19137bc05c0ee71c1b4ac78c0cbcecbb205.jpg"
  },
  {
    "name": "ACH_Unlock05",
    "defaultvalue": 0,
    "displayName": "Bit Blaster V5",
    "hidden": 0,
    "description": "Unlock Bit Blaster V5",
    "icon": "https://steamcdn-a.akamaihd.net/steamcommunity/public/images/apps/433950/53cdb40809919f134b9003ab5f25f597825d740b.jpg",
    "icongray": "https://steamcdn-a.akamaihd.net/steamcommunity/public/images/apps/433950/4b22e802f124cf237d990d9a8dff7eec74cd900c.jpg"
  },
  {
    "name": "ACH_Unlock06",
    "defaultvalue": 0,
    "displayName": "Bit Blaster V6",
    "hidden": 0,
    "description": "Unlock Bit Blaster V6",
    "icon": "https://steamcdn-a.akamaihd.net/steamcommunity/public/images/apps/433950/47b16210fdd20f4bd06bdad3c406ef973ca9f3dd.jpg",
    "icongray": "https://steamcdn-a.akamaihd.net/steamcommunity/public/images/apps/433950/ec593c69ea6eda5b7a1e4cf60605b929531289f9.jpg"
  },
  {
    "name": "ACH_Unlock07",
    "defaultvalue": 0,
    "displayName": "Bit Blaster V7",
    "hidden": 0,
    "description": "Unlock Bit Blaster V7",
    "icon": "https://steamcdn-a.akamaihd.net/steamcommunity/public/images/apps/433950/85126dd4d242e0239d69f7b7ac6a638b53e9eb3f.jpg",
    "icongray": "https://steamcdn-a.akamaihd.net/steamcommunity/public/images/apps/433950/82ef13d577df3e6664719d4c242dafb578eb6684.jpg"
  },
  {
    "name": "ACH_75000",
    "defaultvalue": 0,
    "displayName": "75K",
    "hidden": 0,
    "description": "Earn 75,000 points in a single round",
    "icon": "https://steamcdn-a.akamaihd.net/steamcommunity/public/images/apps/433950/d3a105300e1e256f5032e4d3eda6a2772e7408ef.jpg",
    "icongray": "https://steamcdn-a.akamaihd.net/steamcommunity/public/images/apps/433950/a516565a410829a669bae91125887a158c5eb333.jpg"
  },
  {
    "name": "ACH_500000",
    "defaultvalue": 0,
    "displayName": "500K",
    "hidden": 0,
    "description": "Earn a total of 500,000 points over all rounds",
    "icon": "https://steamcdn-a.akamaihd.net/steamcommunity/public/images/apps/433950/5883e9655928d119ba637bf3110ceadb04a8f846.jpg",
    "icongray": "https://steamcdn-a.akamaihd.net/steamcommunity/public/images/apps/433950/62304d451164668b587a8124dd0ac58dbd550bb5.jpg"
  },
  {
    "name": "ACH_1500000",
    "defaultvalue": 0,
    "displayName": "1.5 Million",
    "hidden": 0,
    "description": "Earn a total of 1,500,000 points over all rounds",
    "icon": "https://steamcdn-a.akamaihd.net/steamcommunity/public/images/apps/433950/4e77f4eaf0534746ef1d7e61f516497fd8ad626b.jpg",
    "icongray": "https://steamcdn-a.akamaihd.net/steamcommunity/public/images/apps/433950/35d3259857b4005bddce82f77a4a9a119d676e4a.jpg"
  },
  {
    "name": "ACH_Unlock08",
    "defaultvalue": 0,
    "displayName": "Bit Blaster V8",
    "hidden": 0,
    "description": "Unlock Bit Blaster V8",
    "icon": "https://steamcdn-a.akamaihd.net/steamcommunity/public/images/apps/433950/22e463cb89d0467a5d3d672441a147812c36fae8.jpg",
    "icongray": "https://steamcdn-a.akamaihd.net/steamcommunity/public/images/apps/433950/a20156f539d01002c802377844f31362dbba57f8.jpg"
  }
]